xl,xh,LO,dLO,NLOnovp,dNLOnovp,NLO,dNLO
591.0,598.68,0.001648748360103695,4.3716535512636797e-07,0.0019746534870171252,1.3103688597866378e-06,0.001992852491238485,1.3321739223257424e-06
598.68,606.36,0.0019232858174681566,4.7083201782513106e-07,0.0021095310057394324,1.3483974018406434e-06,0.00212782264061397,1.369539890020168e-06
606.36,614.04,0.002061714969327028,4.861163868002878e-07,0.0022455186998377773,1.3850380661622022e-06,0.0022641306131060968,1.406485675923021e-06
614.04,621.72,0.00219955553897038,5.007683309553961e-07,0.002380415938852471,1.4175411339297252e-06,0.0023982838692122453,1.4379019056540982e-06
621.72,629.4,0.002340771363526478,5.152638465187652e-07,0.0025169892754402837,1.4509325084033956e-06,0.002534790530776621,1.471769587871077e-06
629.4,637.08,0.0024817652492211675,5.292468359685861e-07,0.0026544093428207552,1.4827870397128633e-06,0.002671276911715305,1.5027395333423343e-06
637.08,644.76,0.0026235370732715212,5.428803132123935e-07,0.0027948256897793607,1.514473978270309e-06,0.0028114685325924807,1.53441822184008e-06
644.76,652.44,0.002768802557491049,5.564617093951122e-07,0.002935374120690925,1.5432313127323686e-06,0.0029513709762736717,1.5630536022922532e-06
652.44,660.12,0.002915541336047605,5.697916369489289e-07,0.003075305173882477,1.5707275941140718e-06,0.003089686569593729,1.5892934956100314e-06
660.12,667.8,0.0030659862257193123,5.831304105133368e-07,0.003226081179564712,1.605851725327761e-06,0.0032400059450242145,1.6245563107232143e-06
667.8,675.48,0.003221497534763607,5.965980914921843e-07,0.003372903019673112,1.6334988796866942e-06,0.0033839190053608203,1.6499285746179512e-06
675.48,683.16,0.0033793760413635505,6.099502406043668e-07,0.0035246697279548407,1.6614579890981703e-06,0.0035351119424282783,1.6779341803333915e-06
683.16,690.84,0.0035418489220959116,6.233871888687433e-07,0.003682096165194978,1.6912783415089115e-06,0.0036916496009060757,1.7072996617260875e-06
690.84,698.52,0.003708298277342425,6.368438140868586e-07,0.003841976178994176,1.721333634064748e-06,0.0038513814252391274,1.737761199192762e-06
698.52,706.2,0.003882765470556597,6.506840540806682e-07,0.004004837564086945,1.7478201258755433e-06,0.0040149933974665646,1.7641874615644798e-06
706.2,713.88,0.004062358751624508,6.646625389217892e-07,0.0041803059766787895,1.7806842970522842e-06,0.004193723610832354,1.79888551621772e-06
713.88,721.56,0.004248448053963218,6.788453223458492e-07,0.0043563928633761455,1.8108976023158741e-06,0.0043740042214298,1.8305452803940777e-06
721.56,729.24,0.0044434140007194685,6.934502171145703e-07,0.004542412612950646,1.8425642715357795e-06,0.00456616425288178,1.8645047040680119e-06
729.24,736.92,0.004647170440479518,7.083938971349732e-07,0.004731601836968455,1.8722111673108262e-06,0.004764539196400059,1.8981904019937343e-06
736.92,744.6,0.004860450413501798,7.237795197781116e-07,0.00493259186003949,1.9078399489209864e-06,0.004977025072234545,1.9377824062388783e-06
744.6,752.28,0.005084944581436507,7.396822686414944e-07,0.005143992777553298,1.9423268375454188e-06,0.005202413984360851,1.9775415349731653e-06
752.28,759.96,0.005317658204200253,7.55842655789736e-07,0.005364989797194682,1.979269911264884e-06,0.0054376397625084,2.0188589265669638e-06
759.96,767.64,0.005566978556939221,7.728530957218999e-07,0.0055950344722804,2.0147491105929506e-06,0.005676407168603805,2.057326983251774e-06
767.64,775.3199999999997,0.005829118999445615,7.904018100863981e-07,0.005840478710460622,2.0535872004080004e-06,0.005912988806329927,2.091860235040024e-06
775.3199999999997,783.0,0.00610651567201146,8.085982307663264e-07,0.006098129053692425,2.094873890881643e-06,0.006249271176540884,2.1594971196750718e-06
783.0,790.6800000000003,0.00640098454508905,8.275726669105238e-07,0.006373975851743436,2.1374693662646155e-06,0.0068186123362941045,2.3027842102784505e-06
790.6800000000003,798.36,0.00671721502543886,8.475474185855055e-07,0.006657208775496282,2.1785472358618907e-06,0.007064765864766534,2.328579551903411e-06
798.36,806.04,0.007054366682329975,8.684068516135055e-07,0.00696999336529823,2.227077062130874e-06,0.007361344531607654,2.3683757885069457e-06
806.04,813.72,0.007413852481715014,8.901769417705402e-07,0.0072972904567481355,2.2747595945654597e-06,0.0076894581084387065,2.4133172449999975e-06
813.72,821.4,0.007800529278150696,9.131028680548212e-07,0.007652059117985753,2.327060579489828e-06,0.008052648528359761,2.465496045472676e-06
821.4,829.0799999999997,0.008218335667787879,9.373349238457151e-07,0.008028894902713005,2.380512731886413e-06,0.008445264465484128,2.521030027721052e-06
829.0799999999997,836.76,0.008672386208453745,9.630632369296042e-07,0.008430446344709271,2.4363615797804512e-06,0.0088604753481066,2.578461377286386e-06
836.76,844.44,0.009162894962383351,9.901885995586749e-07,0.008876652694438216,2.4981602112443904e-06,0.00932267761875785,2.6418747963760425e-06
844.44,852.12,0.009699685890228198,1.0191390848461444e-06,0.009348145578814594,2.5611471076981976e-06,0.009805562825846924,2.704619596165016e-06
852.12,859.8,0.010283882936361509,1.0498404267804388e-06,0.009868442431667988,2.6315693440740338e-06,0.010343995758053896,2.777276120388176e-06
859.8,867.48,0.010928031708673349,1.0827629150101378e-06,0.010443528536235909,2.708312582055026e-06,0.010936867375458079,2.8553540928888765e-06
867.48,875.16,0.011640005424022944,1.1181522922199464e-06,0.011060382631594864,2.7852016696505552e-06,0.011573905405340982,2.934528981007267e-06
875.16,882.8399999999997,0.012429839679090868,1.1562352489368117e-06,0.011744062201522316,2.8677957429945068e-06,0.012276215034206308,3.0177642547505087e-06
882.8399999999997,890.52,0.013309827673644158,1.197318892320793e-06,0.012514657780877295,2.965154687097275e-06,0.0130735929622534,3.118918336775152e-06
890.52,898.2,0.014301323504256403,1.242092908081526e-06,0.013359657675373731,3.0633364665393905e-06,0.013941102114687687,3.218766373181516e-06
898.2,905.88,0.015424510233229669,1.2910279272096826e-06,0.014324167337684298,3.176146502742318e-06,0.014934368306040582,3.333995072786716e-06
905.88,913.56,0.016702931791703953,1.3446673765661694e-06,0.015406174397613331,3.295480215606861e-06,0.016048413880943888,3.4559354240517075e-06
913.56,921.24,0.018177542516190182,1.4040710042762734e-06,0.016643271260967082,3.430626283825193e-06,0.01732014842603208,3.594689118926785e-06
921.24,928.92,0.019895222141383097,1.4703077821898673e-06,0.018076714854681732,3.581051688956183e-06,0.018791748215500816,3.7478472599219805e-06
928.92,936.6,0.02191527736281875,1.5446165577954804e-06,0.019738378147667133,3.7455811745456056e-06,0.02049868510377776,3.916539621873705e-06
936.6,944.28,0.024329274690070086,1.629016238055517e-06,0.021714496018276817,3.938675337507656e-06,0.022525725666892052,4.114153954635146e-06
944.28,951.96,0.0272671391628195,1.7261377970550454e-06,0.024086741557897282,4.158242843616619e-06,0.024954904751454562,4.337733711451666e-06
951.96,959.64,0.030912532721125218,1.8393973704605724e-06,0.02699704911626515,4.414531414865754e-06,0.02793460179585597,4.599406337641703e-06
959.64,967.32,0.03556119312465261,1.9741797993452487e-06,0.030639186378081718,4.71512679938817e-06,0.031653352136092154,4.904888737862768e-06
967.32,975.0,0.039789601308377096,2.089893384102977e-06,0.0337740290861288,4.96816212183788e-06,0.03482693446856828,5.1584737983961445e-06
