xl,xh,LO,dLO,NLOnovp,dNLOnovp,NLO,dNLO
215.0,220.0,0.0,0.0,0.0,0.0,0.0,0.0
220.0,225.0,0.0,0.0,0.0,0.0,0.0,0.0
225.0,230.0,0.0,0.0,1.0211801905282571e-08,1.574078324710858e-09,1.0064921822869957e-08,1.5740652171450832e-09
230.0,235.0,0.0,0.0,1.554237304634938e-07,5.587788867740567e-09,1.550291626747926e-07,5.599558754959885e-09
235.0,240.0,1.0351465170844203e-07,4.527981302568665e-09,9.236723611809624e-07,1.553099828422273e-08,9.285016325973828e-07,1.5736091716952055e-08
240.0,245.0,1.2413024015037394e-06,1.5477907285422354e-08,3.618127512191729e-06,5.13789509835956e-08,3.6437336275325585e-06,5.1683454312823163e-08
245.0,250.0,4.593901149553296e-06,2.9775669895331717e-08,1.0227079546594735e-05,9.437768300512178e-08,1.0308033450446184e-05,9.533451000333682e-08
250.0,255.0,1.1102002149113091e-05,4.608388489806612e-08,2.272814781335725e-05,1.368561167910518e-07,2.292307338863529e-05,1.3929552766919347e-07
255.0,260.0,2.192204437930469e-05,6.455949497651953e-08,4.7355126067911186e-05,1.9723919501402885e-07,4.774215138258472e-05,2.010413073008568e-07
260.0,265.0,3.829999435606431e-05,8.5053958850295e-08,8.560600011674392e-05,2.5802337510140746e-07,8.631958650599802e-05,2.6308124718907535e-07
265.0,270.0,6.208615284761442e-05,1.0794252372115626e-07,0.0001391455883248372,3.2613657884699664e-07,0.0001401837726411979,3.316564575270783e-07
270.0,275.0,9.637202946279744e-05,1.3408883482527663e-07,0.00021176234099057968,4.01101604425011e-07,0.00021333682710760163,4.075597960795207e-07
275.0,280.0,0.00014568121380520674,1.644634787922446e-07,0.0003082171369924757,4.88003309371317e-07,0.00031046875097975505,4.959715956861257e-07
280.0,285.0,0.00021754002234658333,2.00403712765098e-07,0.0004364836934892717,5.916519025018795e-07,0.0004397767656340334,6.016672474634595e-07
285.0,290.0,0.00033201367889588887,2.4706745744638323e-07,0.0006162035884068433,7.17741483991547e-07,0.0006204500825147555,7.287749272970809e-07
290.0,295.0,0.0006116973325510391,3.333879209122569e-07,0.0009688299172613576,9.648097073850555e-07,0.000975863582313167,9.807474593486003e-07
295.0,300.0,0.0014033201168673947,4.973376228170949e-07,0.0017468463747311851,1.4273145058819357e-06,0.001758680465346819,1.447878806088319e-06
300.0,305.0,0.0021792844170628587,6.16504131167807e-07,0.0025041981319879445,1.750808798199355e-06,0.002519871663559886,1.7750549925985981e-06
305.0,310.0,0.0028858151047041216,7.069718552805234e-07,0.003207888333348932,1.999254393388802e-06,0.0032257997002354487,2.024896995483548e-06
310.0,315.0,0.0035602113198401186,7.830065221894553e-07,0.0038705761462352974,2.188389206633383e-06,0.003891148056007299,2.2157168760343942e-06
315.0,320.0,0.004219811496175271,8.503790454284022e-07,0.004521583930637568,2.3586218305373263e-06,0.004545440570594365,2.3881364750191585e-06
320.0,325.0,0.004874246241576961,9.119181328429312e-07,0.005179276383165239,2.5232150459718654e-06,0.005208274695208089,2.5561291768636483e-06
325.0,330.0,0.005530363562562789,9.694439932213634e-07,0.0058188726044528325,2.65983347859656e-06,0.005853529167590896,2.6949977644945253e-06
330.0,335.0,0.006195526217836204,1.0242692880589165e-06,0.0064712585701765,2.7975264416966795e-06,0.006514659931532911,2.836741863834596e-06
335.0,340.0,0.006869656130524977,1.0768664760542331e-06,0.007124141435003843,2.922653131417932e-06,0.007178373404589551,2.9661289812645384e-06
340.0,345.0,0.007561760152197428,1.1281589948736513e-06,0.007795308939850855,3.0488891423933917e-06,0.007866943283658933,3.0989720780481047e-06
345.0,350.0,0.008260626136894851,1.1775403682367544e-06,0.00846638284187709,3.1689519637012107e-06,0.008575157883759274,3.233768243016418e-06
350.0,355.0,0.008974988688642112,1.2258135188992736e-06,0.009146897653902305,3.2854575855297834e-06,0.009297172420401094,3.3646059567657736e-06
355.0,360.0,0.0096261421365434,1.2678053495807414e-06,0.009762969804934069,3.382539888948644e-06,0.009954270766718865,3.4750157624651964e-06
360.0,365.0,0.010240944292943869,1.305941630445138e-06,0.010340241294526232,3.4619172735642914e-06,0.010572801882636923,3.5653939926636643e-06
365.0,370.0,0.01087208170169161,1.343917678240044e-06,0.01093157678903424,3.540989418787483e-06,0.011208727444677385,3.657144229351828e-06
370.0,375.0,0.011541396766701705,1.3831512594362273e-06,0.011546718219472578,3.6219134622700967e-06,0.01186691373806969,3.747322324832202e-06
375.0,380.0,0.012250287480172088,1.4236497180074483e-06,0.012208379007559413,3.7079516963494286e-06,0.012575661241096594,3.844356430846283e-06
380.0,385.0,0.013009038967415516,1.4659067397388658e-06,0.012909738608893051,3.798135807620233e-06,0.013324767302467195,3.9441089699244025e-06
385.0,390.0,0.013832546920353952,1.5106204275219617e-06,0.013666874474178723,3.897665771047744e-06,0.014131947038156943,4.053937791759996e-06
390.0,395.0,0.014722480936435791,1.5576766854662122e-06,0.014493439258751684,4.004380388870777e-06,0.015013011403506325,4.172078343922186e-06
395.0,400.0,0.01569966810074354,1.6079896527443538e-06,0.01536807379968235,4.107328534607112e-06,0.015942691479116155,4.285314456109171e-06
400.0,405.0,0.016769777977457476,1.661550838270244e-06,0.016335307787012122,4.2231879111277355e-06,0.01696934921259544,4.4112655495602105e-06
405.0,410.0,0.017966971482375086,1.7197784733590354e-06,0.017403632440406963,4.348513388066796e-06,0.018103214723103226,4.548524218092587e-06
410.0,415.0,0.01929077303938371,1.7821538016264373e-06,0.01859665548160797,4.4873169687594615e-06,0.019367214619525428,4.699928988841363e-06
415.0,420.0,0.020787014811599683,1.8504330668082875e-06,0.019923285574800158,4.63707201118778e-06,0.02076699729513241,4.8608415866485875e-06
420.0,425.0,0.022483349798004062,1.9251782636710477e-06,0.02141336431080055,4.800600670932045e-06,0.022337454429002368,5.03708968817279e-06
425.0,430.0,0.02441252219768892,2.007075119295192e-06,0.023108144355148103,4.98425956355059e-06,0.02411773736289256,5.2330572498355965e-06
430.0,435.0,0.02665104076347984,2.0984074783927115e-06,0.0250361753707368,5.182221458588694e-06,0.026137992376765427,5.444663761541396e-06
435.0,440.0,0.029252039039773237,2.2000101489171864e-06,0.027290382621554574,5.412110849785732e-06,0.02848729959121348,5.686868089924393e-06
440.0,445.0,0.032334235065453236,2.314914466585341e-06,0.029916979565923763,5.6675904922619335e-06,0.031198700916427208,5.949896425148833e-06
445.0,450.0,0.03602046240529031,2.4454667917661515e-06,0.033037602660654364,5.9606531364318875e-06,0.034408302120047835,6.250323038268627e-06
450.0,455.0,0.04052582963207487,2.596294622323142e-06,0.03680745310305855,6.300340184960769e-06,0.03828314565241876,6.597796189260168e-06
455.0,460.0,0.04613331221850354,2.7726442661116743e-06,0.04142782993086611,6.690070267165265e-06,0.04302614543806466,6.99542750428899e-06
460.0,465.0,0.0515852970888784,2.9350619533685377e-06,0.046017586584042716,7.01329811542409e-06,0.04772538324767212,7.323913941079013e-06
465.0,470.0,0.049336887870669976,2.8733429933346607e-06,0.04441635862989495,6.749300580610254e-06,0.04603190022811205,7.045305276858342e-06
470.0,475.0,0.04554789037412893,2.7621277910980702e-06,0.04072436566560223,6.4999894704637986e-06,0.04217673521393963,6.781528482825174e-06
475.0,480.0,0.0411336179315531,2.6344117998188363e-06,0.03559042642610974,6.300201463449349e-06,0.036828844663800785,6.5671099260716835e-06
480.0,485.0,0.033568292335227186,2.38958372006359e-06,0.027632022470430048,5.906056008175572e-06,0.02856090514987088,6.148499480059809e-06
485.0,490.0,0.016265598674107727,1.6601590097514388e-06,0.012464785059795059,4.359636567751962e-06,0.0128702873256514,4.5374299172373284e-06
490.0,495.0,0.00048444772358428965,2.943874226799096e-07,0.00036547511793399615,9.310372971586822e-07,0.0003780431257836246,9.760938056190798e-07
495.0,500.0,0.0,0.0,0.0,0.0,0.0,0.0
500.0,505.0,0.0,0.0,0.0,0.0,0.0,0.0
505.0,510.0,0.0,0.0,0.0,0.0,0.0,0.0
510.0,515.0,0.0,0.0,0.0,0.0,0.0,0.0
