xl,xh,LO,dLO,NLOnovp,dNLOnovp,NLO,dNLO
0.0,5.0,0.013864720079847759,1.5136536883145143e-06,0.013052841189858493,3.6365942441426377e-06,0.01352619279213391,3.7938910902998025e-06
5.0,10.0,0.013865228623774598,1.513713821912122e-06,0.013064103537613196,3.644930410723442e-06,0.013537591703941036,3.802304416698723e-06
10.0,15.0,0.013864704550519249,1.5137345239255154e-06,0.013059017209182112,3.6406421653952636e-06,0.013530166452984356,3.7968695340827173e-06
15.0,20.0,0.013867689925314458,1.5139973896265204e-06,0.013066436893465237,3.6486767278286056e-06,0.013538595704103332,3.805685709186133e-06
20.0,25.0,0.013869819492266308,1.5142650783932526e-06,0.01306325754587429,3.6479692800817162e-06,0.013534553083735844,3.8043919164113326e-06
25.0,30.0,0.013873565915094564,1.5146206627991932e-06,0.013075695898802954,3.6560393432543863e-06,0.013549270837971902,3.814254496841213e-06
30.0,35.0,0.013877841812976428,1.5150819646249425e-06,0.013072872356841158,3.6535411967922974e-06,0.013545966858814358,3.8111773063009903e-06
35.0,40.0,0.013883502061410214,1.5156265164687946e-06,0.01307488545895193,3.6588976944474982e-06,0.013547895202578972,3.816590925752645e-06
40.0,45.0,0.013890115989046487,1.516269322173368e-06,0.013080019809973168,3.6617814925026527e-06,0.013552142136398031,3.819056020862902e-06
45.0,50.0,0.013895884991717605,1.516883874039038e-06,0.01308223301006093,3.6638633511769197e-06,0.013554700742394876,3.8214119189356815e-06
50.0,55.0,0.013898639957977276,1.517371107686566e-06,0.013091803680810142,3.6728238293893126e-06,0.013565705448455895,3.831236849923052e-06
55.0,60.0,0.01390594856738275,1.5181345782808314e-06,0.013087505422336118,3.6721311410004495e-06,0.01356165831769659,3.830637133566998e-06
60.0,65.0,0.01391270190197825,1.518894427778168e-06,0.01309515025542578,3.6799160580692938e-06,0.013569896504118936,3.839704954268824e-06
65.0,70.0,0.013922850283709964,1.5199048236389715e-06,0.013103404659154957,3.689385741446644e-06,0.013579083279851745,3.8498076754075405e-06
70.0,75.0,0.013931100866046086,1.5208162237114469e-06,0.013102208448783613,3.6899110048184372e-06,0.013576982428354,3.8494461071144735e-06
75.0,80.0,0.013938637244224807,1.5217080064724612e-06,0.0131133835923999,3.7023325659995768e-06,0.01358572447886091,3.861460406331353e-06
80.0,85.0,0.013945118020823457,1.522582068035656e-06,0.013113324662917307,3.707303041982711e-06,0.01358021783487598,3.864113602385699e-06
85.0,90.0,0.013954144563125857,1.523625990654067e-06,0.01311748040583388,3.7165614066267134e-06,0.013581442949651313,3.873191274928492e-06
90.0,95.0,0.013958102858163565,1.5244143350806909e-06,0.013110676682202263,3.720713762692878e-06,0.013572267011695355,3.877113030001964e-06
95.0,100.0,0.013960888034781514,1.5251273743611016e-06,0.013111501703977431,3.731549933382589e-06,0.013569352594295536,3.8863702660183655e-06
100.0,105.0,0.013964031435485323,1.5258952360402236e-06,0.013111125025619626,3.7382374146935286e-06,0.013566288984866498,3.892815880505013e-06
105.0,110.0,0.013964955498052972,1.5265676513456172e-06,0.01310626255830075,3.750228567956468e-06,0.013559780149668979,3.9051235404917996e-06
110.0,115.0,0.013934735831061378,1.5255040669760892e-06,0.013058717553262836,3.746425911456256e-06,0.01350697834370672,3.899518510475933e-06
115.0,120.0,0.013878088602603313,1.5228903240249056e-06,0.013012639998615908,3.7500202768106537e-06,0.013456540362780869,3.902585332429838e-06
120.0,125.0,0.013814348161151842,1.5199004500587953e-06,0.012934858499531193,3.7398644066955596e-06,0.013376159563794813,3.892128851020369e-06
125.0,130.0,0.013744916544385965,1.516586830828783e-06,0.012871824555390708,3.737609488363414e-06,0.013311417178584872,3.8907356946263774e-06
130.0,135.0,0.013676432931136292,1.5133180267251262e-06,0.01280804172230672,3.734379924195533e-06,0.013243279918173112,3.886441406502625e-06
135.0,140.0,0.013608317722893259,1.5100875651004196e-06,0.0127397341088514,3.7311095931932037e-06,0.013170072824103984,3.881825044536518e-06
140.0,145.0,0.013538392475188435,1.506765115092323e-06,0.012674711240520772,3.7298976016832817e-06,0.013102684088299982,3.880879477324809e-06
145.0,150.0,0.013465510661077013,1.5032931045851025e-06,0.012604837430691051,3.7279606486180864e-06,0.013028507189978748,3.877761431122402e-06
150.0,155.0,0.013392004556449856,1.4997878999995968e-06,0.012528442319975784,3.7228347403260763e-06,0.012946173289271622,3.871174516412953e-06
155.0,160.0,0.013317317346707023,1.496195629822661e-06,0.012457134937788284,3.721183894002092e-06,0.012871814919821957,3.869443612378724e-06
160.0,165.0,0.01323958230013346,1.492464012587569e-06,0.012386134408672164,3.7203028948123155e-06,0.012798469678546509,3.8687794260495885e-06
165.0,170.0,0.013162879921118987,1.4887757573790948e-06,0.012310193282275127,3.7135474244462853e-06,0.012718112901737792,3.8609720338415286e-06
170.0,175.0,0.013078463291687274,1.4846263484724811e-06,0.012236925957346805,3.7145241436000845e-06,0.012639672215368469,3.860698523753138e-06
175.0,180.0,0.0129985113367869,1.4807453317849404e-06,0.012159951760462851,3.711725746562552e-06,0.01256089259161128,3.858951944899403e-06
180.0,185.0,0.012908528537896452,1.4762469819702453e-06,0.012078840274673312,3.709016905336376e-06,0.01247319591505318,3.853954415146041e-06
185.0,190.0,0.012816622331427044,1.4716486084111019e-06,0.01199563605169294,3.7093382499888474e-06,0.01238743007890559,3.854908928011809e-06
190.0,195.0,0.012722241640004982,1.4668281801229454e-06,0.011903923940841913,3.702569535649608e-06,0.0122906120064462,3.847063148906518e-06
195.0,200.0,0.012620039143973196,1.4616063826782015e-06,0.011808628962060664,3.697902759438508e-06,0.01219187774786046,3.842528937388865e-06
200.0,205.0,0.012510966084587231,1.455893244853612e-06,0.011709126603436,3.693000671573674e-06,0.012087137454244484,3.836854843252606e-06
205.0,210.0,0.01240021972255681,1.4500691880042715e-06,0.011611527261404221,3.693732501314753e-06,0.011983514710230438,3.8360353377119345e-06
210.0,215.0,0.012276087449673446,1.4433614562950004e-06,0.011485942240023559,3.6812251654914114e-06,0.01185374355513498,3.823078994286173e-06
215.0,220.0,0.012137653851594552,1.435751606219881e-06,0.011358278829786298,3.6762106319525277e-06,0.011722890501655949,3.81807471640008e-06
220.0,225.0,0.01198466309168055,1.4271479435910956e-06,0.011214628037338456,3.668734015685145e-06,0.01157396298445546,3.810336309700914e-06
225.0,230.0,0.011790079023108822,1.4158554213526709e-06,0.01101296381531995,3.6410957722960364e-06,0.01136295947669706,3.7796700657651835e-06
230.0,235.0,0.011485718476912573,1.397669162255626e-06,0.010712928373693946,3.5997821483348112e-06,0.01105723566523179,3.738518309081929e-06
235.0,240.0,0.011119643937699472,1.3753285160353874e-06,0.010362400315109158,3.5490949488398627e-06,0.01069835248324664,3.686236079249211e-06
240.0,245.0,0.010720265679446549,1.3504407665634278e-06,0.009986141139791802,3.4940924137518625e-06,0.010312696943821227,3.629295409132528e-06
245.0,250.0,0.01028243058786241,1.3226282565958143e-06,0.009573756099142478,3.428418524849344e-06,0.00989416963782268,3.5650217704780893e-06
250.0,255.0,0.009804020714983892,1.2914563670136093e-06,0.009110295448824985,3.3480423229299257e-06,0.00942333912927521,3.4844914646197946e-06
255.0,260.0,0.009283110521698165,1.2566612330553573e-06,0.008625656386076288,3.2685155793034724e-06,0.008930456943968991,3.4056165181231205e-06
260.0,265.0,0.00871054582423905,1.2172631161145464e-06,0.008088553882826812,3.1690324332167382e-06,0.008383738493799623,3.305445377864822e-06
265.0,270.0,0.008076843502225482,1.1720652599006508e-06,0.007500007884907517,3.0580183975594288e-06,0.007784301368268005,3.19414112536252e-06
270.0,275.0,0.0075398799880791265,1.1325567216204794e-06,0.006968094941360665,2.9620827843281564e-06,0.0072439447029738315,3.0993524727859177e-06
275.0,280.0,0.007210362757275566,1.1073030361541996e-06,0.0065866753566005114,2.9022544377459187e-06,0.006857290835550229,3.041610938597017e-06
280.0,285.0,0.006834709526088842,1.0777729374317713e-06,0.006180602214213805,2.834321852331892e-06,0.006437981863575561,2.9727171617938742e-06
285.0,290.0,0.006393432719360159,1.0420303814331694e-06,0.005728601183111316,2.755408549502152e-06,0.005962125045274614,2.887044421501351e-06
290.0,295.0,0.005866038484397998,9.97665230468672e-07,0.005189213403447448,2.6486656290787655e-06,0.0053963017272299655,2.773473152883705e-06
295.0,300.0,0.005205686793403842,9.392499362890173e-07,0.004544178961056365,2.509194452793542e-06,0.004719544078335795,2.623963799237023e-06
300.0,305.0,0.00434988593939445,8.578605099275936e-07,0.003716545652650543,2.298207841556385e-06,0.0038540799620330867,2.4000773493646053e-06
305.0,310.0,0.003161989514634837,7.303707401341618e-07,0.0026138269109650114,1.9684267626800382e-06,0.002706031026952305,2.0520067825591555e-06
310.0,315.0,0.0013171007834235115,4.6949221243091497e-07,0.0010238800837481328,1.2955290926428385e-06,0.0010579385548601743,1.3493381699245786e-06
315.0,320.0,1.374952238664405e-05,4.9128807264243446e-08,1.0149775015460952e-05,1.5624067581875162e-07,1.0502730080189352e-05,1.6333321998534196e-07
320.0,325.0,0.0,0.0,0.0,0.0,0.0,0.0
325.0,330.0,0.0,0.0,0.0,0.0,0.0,0.0
330.0,335.0,0.0,0.0,0.0,0.0,0.0,0.0
335.0,340.0,0.0,0.0,0.0,0.0,0.0,0.0
340.0,345.0,0.0,0.0,0.0,0.0,0.0,0.0
345.0,350.0,0.0,0.0,0.0,0.0,0.0,0.0
350.0,355.0,0.0,0.0,0.0,0.0,0.0,0.0
355.0,360.0,0.0,0.0,0.0,0.0,0.0,0.0
360.0,365.0,0.0,0.0,0.0,0.0,0.0,0.0
365.0,370.0,0.0,0.0,0.0,0.0,0.0,0.0
370.0,375.0,0.0,0.0,0.0,0.0,0.0,0.0
