xl,xh,LO,dLO,NLOnovp,dNLOnovp,NLO,dNLO
0.0,0.25,1.531385545383677,6.38961738056842e-05,1.1104160185854453,0.00015800125641387368,1.1484513827507217,0.00016436951538787564
0.25,0.5,0.9539119578599634,5.6518707870228244e-05,0.7965266509991155,0.0001398406181224124,0.8240697966874394,0.00014553607766043736
0.5,0.75,0.5788426379635843,4.455057862058357e-05,0.5193174597816094,0.00011058898732953121,0.5373495507362717,0.00011513115318656355
0.75,1.0,0.4143436111450601,3.78242785261245e-05,0.3866998662251873,9.404854479859151e-05,0.4001121214624614,9.789534709522559e-05
1.0,1.25,0.32255304383979405,3.3428968289642713e-05,0.3089997696971238,8.325592679254936e-05,0.3197002851306876,8.665645433363585e-05
1.25,1.5,0.2640478149549555,3.0277344649859746e-05,0.2576153418123613,7.537512831282873e-05,0.2665403372836776,7.844930440253673e-05
1.5,1.75,0.223524566879208,2.787868654334963e-05,0.22144930596060908,6.957569035851303e-05,0.2291472862262548,7.2430186585392e-05
1.75,2.0,0.1938377393094261,2.597789905741309e-05,0.19431835053421484,6.488768630329282e-05,0.2010923830513346,6.756805279293184e-05
2.0,2.25,0.17108780480737132,2.4419784549806165e-05,0.17315916342977325,6.100908918695175e-05,0.17918245873448738,6.351753407848318e-05
2.25,2.5,0.15317765171149422,2.311862121348396e-05,0.15632188110065628,5.785431282355736e-05,0.1617415699333646,6.022735185725737e-05
2.5,2.75,0.1386328182547429,2.2005408748496882e-05,0.14260953850922262,5.515806830201516e-05,0.14757296355149846,5.743735128357328e-05
2.75,3.0,0.12664077217632208,2.104349911021471e-05,0.13094340659697432,5.263291008021301e-05,0.13547197608108266,5.478575133508511e-05
3.0,3.25,0.11658909017517452,2.0202263347696718e-05,0.12117153314786208,5.062254599093287e-05,0.12535516291137902,5.268758078987014e-05
3.25,3.5,0.1080054624367008,1.9455575130551134e-05,0.11281481678194218,4.879018915044578e-05,0.11673814054373965,5.080609701939043e-05
3.5,3.75,0.10057736270238568,1.8785483690249522e-05,0.1055300051466533,4.703280518939511e-05,0.10919802202198596,4.8973483503766965e-05
3.75,4.0,0.09417018819522924,1.8188572424577976e-05,0.09916936447945401,4.563987592955674e-05,0.10262322707836503,4.752955502186842e-05
4.0,4.25,0.08855092966371066,1.7648973940866186e-05,0.09357043042728226,4.426124100001034e-05,0.09683071566930544,4.609866377904123e-05
4.25,4.5,0.08352664556512998,1.715279269745995e-05,0.08860879063166263,4.3115581100751065e-05,0.09169949333805827,4.4903624505755716e-05
4.5,4.75,0.07905078654700799,1.6698717204980577e-05,0.08408867487629383,4.1989270641688755e-05,0.08702176381813004,4.37319051528443e-05
4.75,5.0,0.07509805543608525,1.6287698321712513e-05,0.07999234074592544,4.081156579996285e-05,0.0827801031498704,4.251102847394489e-05
5.0,5.25,0.07150741780430818,1.590544400832367e-05,0.07638946442920354,3.9906690538965134e-05,0.07904564000391769,4.1562009218569457e-05
5.25,5.5,0.06821714764012901,1.5547304662660292e-05,0.07302619791561309,3.8978833402066175e-05,0.07557282602968886,4.060490522391733e-05
5.5,5.75,0.06523526143339071,1.5215975059050702e-05,0.07001228647566049,3.818923647043877e-05,0.07246062676021182,3.978852081929289e-05
5.75,6.0,0.06253790588768195,1.4911290523141785e-05,0.06725003898894083,3.7439493494364004e-05,0.06960608828474625,3.902124135422403e-05
6.0,6.25,0.06007547738842053,1.462801222193598e-05,0.06467152952989154,3.676054242031315e-05,0.06692879244933002,3.830122651665895e-05
6.25,6.5,0.05777665366258945,1.4357940170747784e-05,0.062287358691698574,3.604769588499774e-05,0.06445532305735352,3.755183647888253e-05
6.5,6.75,0.055632359376346106,1.4102421813357728e-05,0.06003145720029394,3.5346134606758116e-05,0.06212302968840922,3.683281551850637e-05
6.75,7.0,0.05370173572622024,1.3869573351727802e-05,0.05807846869437276,3.484920514620244e-05,0.06011962867159304,3.632946647981506e-05
7.0,7.25,0.05185114018294335,1.3642267743168938e-05,0.05614464815386496,3.4209784500900416e-05,0.0580947224154702,3.563683686160073e-05
7.25,7.5,0.05017656878304872,1.3433734118930288e-05,0.05434347541730699,3.37193298473158e-05,0.0562272117731964,3.511612550825413e-05
7.5,7.75,0.048570453000372014,1.3230894346042101e-05,0.052714971678645306,3.315697406207763e-05,0.054557209900294466,3.4576081358196414e-05
7.75,8.0,0.047112585170552286,1.3045661621272894e-05,0.05113330184373262,3.27046300179252e-05,0.05292649345592852,3.409328588178868e-05
8.0,8.25,0.0457370351619106,1.2867907624014924e-05,0.04971086039469027,3.2301548615470864e-05,0.05144710010137687,3.366591513167804e-05
8.25,8.5,0.044416170554256514,1.2695265828717348e-05,0.04837221738883927,3.1900102832983844e-05,0.05006075521432421,3.325250432047337e-05
8.5,8.75,0.04318843554395982,1.2533846178761785e-05,0.0470188157158606,3.140898845609391e-05,0.048659465792545833,3.2743611798816836e-05
8.75,9.0,0.04207004829467625,1.23852366848591e-05,0.04587602657088926,3.1074544441481374e-05,0.04749303742126577,3.24265917484439e-05
9.0,9.25,0.04096441997487372,1.2236737822627193e-05,0.04465392934431179,3.066025055072264e-05,0.0462227548345357,3.198395206875669e-05
9.25,9.5,0.03993487896902509,1.2096469386125207e-05,0.043578985754666656,3.033235327238269e-05,0.045102588458135716,3.163073591035225e-05
9.5,9.75,0.038955715982591815,1.196349632144196e-05,0.04257332104460411,2.9992349677394133e-05,0.04407732608395793,3.1310331552509585e-05
9.75,10.0,0.038025250595812334,1.1835254762831215e-05,0.041591988949452735,2.9677480193371917e-05,0.04305387341577986,3.097427943993729e-05
10.0,10.25,0.037145631834520174,1.1712421330119679e-05,0.04058665356624931,2.9248030443111223e-05,0.04201322691008079,3.0513437254429503e-05
10.25,10.5,0.0363161475245356,1.1597035781180935e-05,0.03972733184645666,2.899229812992075e-05,0.041121075673662334,3.0253744132374158e-05
10.5,10.75,0.03554688057353484,1.1488985878298814e-05,0.03889818045838515,2.8798475301262677e-05,0.04026765913010931,3.003681410484213e-05
10.75,11.0,0.034773143750927785,1.137925291427757e-05,0.0381163022545232,2.8522260311150154e-05,0.039461015841698685,2.978043352054389e-05
11.0,11.25,0.034054256291050015,1.1277981129294845e-05,0.037308536806587696,2.8190655093240693e-05,0.0386316890134433,2.9434777757466882e-05
11.25,11.5,0.033405042346207316,1.1185458288407402e-05,0.03658380125974603,2.7998979843944377e-05,0.03787347945192901,2.923753053512288e-05
11.5,11.75,0.032721185034464466,1.108768008483436e-05,0.035912891237765164,2.7839494806663093e-05,0.037192169246654166,2.908936491468085e-05
11.75,12.0,0.03207504810058365,1.0994277020332622e-05,0.035204330879558286,2.750781702466015e-05,0.03645948078105008,2.8743263341174804e-05
12.0,12.25,0.03151069372479857,1.0913921376441203e-05,0.03455893585406654,2.732245293304132e-05,0.03579730641919656,2.8556500402450666e-05
12.25,12.5,0.03094346372202383,1.0830869722790753e-05,0.033965379094267514,2.717625249345581e-05,0.035172209372243315,2.8401502409630406e-05
12.5,12.75,0.030385776484288682,1.0749825851260314e-05,0.03337843357574508,2.698154535161171e-05,0.03456224014981337,2.8183445148359252e-05
12.75,13.0,0.029850846120177663,1.0670839370131937e-05,0.03276241688869988,2.6707122645329666e-05,0.033927953253225465,2.792715064231795e-05
13.0,13.25,0.029343017426054118,1.0597277857712332e-05,0.0322733904048484,2.6596383647658724e-05,0.03341350393497811,2.778212660702705e-05
13.25,13.5,0.028881954477115463,1.0531249467787822e-05,0.03174847459250706,2.6393077183487984e-05,0.032890771163500296,2.760843520354416e-05
13.5,13.75,0.02841618950004284,1.0462723134954593e-05,0.031234788897000362,2.6184998649114574e-05,0.03235606947290552,2.7401530020330733e-05
13.75,14.0,0.02795834062872597,1.0395572231064507e-05,0.030730755266484337,2.599097839432135e-05,0.03183035627012479,2.7177421666175346e-05
14.0,14.25,0.027523688499016558,1.0331731251464039e-05,0.030269037369674824,2.5821370043365798e-05,0.031336042878002686,2.6982707335264308e-05
14.25,14.5,0.027118256410837458,1.0272628823797763e-05,0.029815989972270543,2.5715436910720456e-05,0.030878044154188863,2.6898354743927696e-05
14.5,14.75,0.02671058184852864,1.0211765258584104e-05,0.029423176031199164,2.5584390735134224e-05,0.03047722728976045,2.6770031350233708e-05
14.75,15.0,0.02633942724176816,1.0157687349144728e-05,0.028949956131793183,2.537735097361773e-05,0.029988286245384407,2.654886449959017e-05
