xl,xh,LO,dLO,NLOnovp,dNLOnovp,NLO,dNLO
0.0,1.0,0.0,0.0,0.0049158226359282756,1.728352774706123e-06,0.005090617808527272,1.7946073292921876e-06
1.0,2.0,0.0,0.0,0.010595877634231816,2.6619366537029054e-06,0.010974766865376821,2.766752198774281e-06
2.0,3.0,0.0,0.0,0.015229770467333491,3.342251297470668e-06,0.015768359745698617,3.4717538466947343e-06
3.0,4.0,0.001019130194169633,9.606191483423709e-07,0.023978764602173443,5.550311835892499e-06,0.024801785755597588,5.771665731115043e-06
4.0,5.0,0.07513576528005328,8.007148044920183e-06,0.09767909788960076,2.1973410362749526e-05,0.10082320412370184,2.2834786863047808e-05
5.0,6.0,0.3122808000977838,1.6227761386532112e-05,0.2723332187075725,3.893181882984253e-05,0.2811389286676155,4.045445344509173e-05
6.0,7.0,0.2945785823884493,1.5728356866002443e-05,0.252380938538162,3.7430121896315916e-05,0.26101681290873185,3.897088680502403e-05
7.0,8.0,0.25004515851007186,1.4482634064164407e-05,0.21704150703194705,3.461882973306677e-05,0.22480671325667145,3.6095260759136864e-05
8.0,9.0,0.21617133642948352,1.3455329122876465e-05,0.1896574052272863,3.2272901511055225e-05,0.1967079084339421,3.369218311982721e-05
9.0,10.0,0.1895875425733872,1.2589794209268436e-05,0.16786183306873315,3.030232092524189e-05,0.17432581440974093,3.167981399646795e-05
10.0,11.0,0.16820082325175234,1.1847528514531132e-05,0.15017154243904776,2.862445485586245e-05,0.15613728838149374,2.9963473599863036e-05
11.0,12.0,0.1506248944627269,1.1200918976585526e-05,0.13546014973419493,2.7157880691387704e-05,0.14096561456834125,2.84483027342703e-05
12.0,13.0,0.13594600692320308,1.0631336652133147e-05,0.1230947761669983,2.5850164753624224e-05,0.12824152307398715,2.711543439890015e-05
13.0,14.0,0.12353387833754295,1.0125359466117802e-05,0.11249566954334818,2.469751436982865e-05,0.11730280386789245,2.5929762395564816e-05
14.0,15.0,0.11288085654858128,9.670825137776954e-06,0.10332888949090692,2.3651496175789147e-05,0.10782384456251204,2.484993339125524e-05
15.0,16.0,0.10366421842237487,9.260500872961998e-06,0.09536349859263388,2.2724072859241035e-05,0.09962029146941326,2.3904776764008434e-05
16.0,17.0,0.09562867259946142,8.888015239099496e-06,0.08840654793469566,2.1889582506783728e-05,0.09242306921579492,2.3046038592556064e-05
17.0,18.0,0.0885525728092158,8.547276906807249e-06,0.08218919124343492,2.1104268474665364e-05,0.08598785139189975,2.223662021289055e-05
18.0,19.0,0.08226900113795581,8.233749470670045e-06,0.07666821601795809,2.0406234077160694e-05,0.08026396706955792,2.1516656571975366e-05
19.0,20.0,0.07668150817603643,7.945182742609206e-06,0.07170641951962575,1.973820561210421e-05,0.07512732609974586,2.0830281163665228e-05
20.0,21.0,0.07167476897662625,7.678150948181326e-06,0.06721815974182095,1.9122802165821975e-05,0.07048368068452864,2.02026058237304e-05
21.0,22.0,0.06714772191388049,7.429096164356901e-06,0.06317726351953122,1.856852458669286e-05,0.06628266797056717,1.962657024626563e-05
22.0,23.0,0.06305351244817166,7.197194587517085e-06,0.059496011670272415,1.8037738280337737e-05,0.0624722050430043,1.9088404061802993e-05
23.0,24.0,0.05932414699470937,6.979604259676379e-06,0.056139226202683794,1.754701067719045e-05,0.058982027211995136,1.8580432156635308e-05
24.0,25.0,0.05592716398504365,6.775900335698655e-06,0.05305177963268876,1.7084724877851792e-05,0.05577073515818256,1.8106659258923994e-05
25.0,26.0,0.0528296982547808,6.585365534850188e-06,0.05024017777553055,1.666994197090669e-05,0.052845807003350016,1.7679018525950378e-05
26.0,27.0,0.04995512408123744,6.4037101988202025e-06,0.04759644727746902,1.624375191171816e-05,0.050126849881116084,1.7261025303631067e-05
27.0,28.0,0.04733427749209351,6.23418540015941e-06,0.04516155927300712,1.5855497452500328e-05,0.047620494807870985,1.6875848054468176e-05
28.0,29.0,0.04487323295549042,6.070852807196431e-06,0.042932844470565085,1.5493724746492833e-05,0.04521429605616969,1.6478744904912168e-05
29.0,30.0,0.042614104809786564,5.9174371076765815e-06,0.04083203607794315,1.5146809332928092e-05,0.042754015907939986,1.6009561001330177e-05
30.0,31.0,0.04051777012099966,5.771953060267759e-06,0.03887555679661702,1.482616776863105e-05,0.04017079065501896,1.5459857628036614e-05
31.0,32.0,0.038562504491538065,5.633024112896145e-06,0.03705281043830791,1.4508472380523658e-05,0.03756360875215768,1.4820353316878537e-05
32.0,33.0,0.03672648186351685,5.499704566162416e-06,0.035308194402379985,1.419529119885748e-05,0.035739916412871345,1.4470402513353232e-05
33.0,34.0,0.03501825146050388,5.373219686857394e-06,0.0337269326030485,1.391782913702875e-05,0.03414054677256508,1.4191170958602484e-05
34.0,35.0,0.033402988425966555,5.250740708035553e-06,0.03219649483523506,1.363565022333998e-05,0.032565386971149086,1.3896911736034793e-05
35.0,36.0,0.03189416244867548,5.134121833254416e-06,0.030763309162800387,1.3370089361312813e-05,0.03105781981641385,1.3594947414192954e-05
36.0,37.0,0.030465188807917574,5.021291859626087e-06,0.029417382313433195,1.3130111798201311e-05,0.02965133866964849,1.332896566958464e-05
37.0,38.0,0.02912760469535112,4.913588970351706e-06,0.028137026889643625,1.2876561735612864e-05,0.02831755558808048,1.3050605270610539e-05
38.0,39.0,0.0278449113986682,4.808214634710791e-06,0.0269174891476137,1.2633507098220132e-05,0.027056381322325632,1.278682097877759e-05
39.0,40.0,0.02663932658696236,4.7072784970056015e-06,0.02578563326946184,1.2449850337631853e-05,0.025900978050509588,1.2594393092460526e-05
40.0,41.0,0.025499470798075116,4.609831899274617e-06,0.02465720211481375,1.2187916386111473e-05,0.02474296927047857,1.2312874257497107e-05
41.0,42.0,0.024400659452631732,4.513914642516785e-06,0.023631115371631463,1.1992603659499205e-05,0.023701846698112344,1.2111298408599488e-05
42.0,43.0,0.023370590659950355,4.422370200471681e-06,0.02262740571779744,1.17912313975569e-05,0.02268856254551456,1.1904251186584414e-05
43.0,44.0,0.022382912748561842,4.332773030336894e-06,0.021667909739839182,1.1596939058892841e-05,0.0217253596220652,1.1708861562740415e-05
44.0,45.0,0.021437575232279488,4.2453227265885535e-06,0.020755676447930683,1.1405821310586976e-05,0.020811052522625637,1.1514771921977561e-05
45.0,46.0,0.02053542173801389,4.160235487269133e-06,0.019847740515844592,1.1178282864189286e-05,0.019903687287993032,1.1283959964764132e-05
46.0,47.0,0.019664249015075685,4.076259120675945e-06,0.019006785620429168,1.0999916590234225e-05,0.019064460474724616,1.1107711852193093e-05
47.0,48.0,0.018831003974883475,3.9942720741697794e-06,0.018183763257900217,1.0817127506429516e-05,0.018242778404666444,1.0922748996617135e-05
48.0,49.0,0.01802280838686853,3.9130083299025395e-06,0.017410782059574283,1.0668095807028167e-05,0.01748235502309661,1.0786284098980748e-05
49.0,50.0,0.017247121005931336,3.833436832072716e-06,0.016630442357465608,1.0462117956763092e-05,0.016708217399675342,1.0585787472719693e-05
50.0,51.0,0.016504235305645296,3.7556043619923204e-06,0.01586772146135433,1.025396584032821e-05,0.015949372756772714,1.0380598580790127e-05
51.0,52.0,0.01578495136554353,3.6785137878025435e-06,0.01514786664162475,1.0083214945100549e-05,0.015229776514219969,1.0209411612167293e-05
52.0,53.0,0.015093156744478952,3.602785566652198e-06,0.014444803355951044,9.910250521801744e-06,0.014529418574765663,1.0038709048674786e-05
53.0,54.0,0.014406642816760002,3.5255742435103827e-06,0.01375232395116113,9.737641057833877e-06,0.013834584780834871,9.862548221130537e-06
54.0,55.0,0.013756245600593645,3.4509998020867277e-06,0.01307622782716549,9.564144834760523e-06,0.013162949131730786,9.697237420535406e-06
55.0,56.0,0.013118979742728014,3.3758230068205485e-06,0.012403161952397945,9.385592836053093e-06,0.012490927002188354,9.516786265516028e-06
56.0,57.0,0.012489458520442672,3.2997306553230265e-06,0.011760340423016564,9.228084143028623e-06,0.011849515816920932,9.365797700295104e-06
57.0,58.0,0.011868024826870778,3.2222396783602236e-06,0.011078187068172542,9.009872966956704e-06,0.0111649288141532,9.143174510670441e-06
58.0,59.0,0.011252496932871656,3.1431049725273405e-06,0.010401821701334187,8.831309298597614e-06,0.01048773951961105,8.966818939498097e-06
59.0,60.0,0.010599864807837,3.05545047093378e-06,0.009647428921274476,8.593952641242469e-06,0.00972702768552105,8.72364423114458e-06
