 # xl, xh, LO, dLO
   0.0000000000000000      ,   3.0000000000000000      ,   5.8643033649669440E-002 ,   3.3252301867758253E-007
   3.0000000000000000      ,   6.0000000000000000      ,   6.1471792605461317E-002 ,   3.4337307628727660E-007
   6.0000000000000000      ,   9.0000000000000000      ,   6.4977826468757799E-002 ,   3.6484846127397436E-007
   9.0000000000000000      ,   12.000000000000000      ,   7.3667314531317682E-002 ,   4.0222714669385058E-007
   12.000000000000000      ,   15.000000000000000      ,   7.8864115008973140E-002 ,   4.3964929661036854E-007
   15.000000000000000      ,   18.000000000000000      ,   7.3140788766169668E-002 ,   4.6581308360758841E-007
   18.000000000000000      ,   21.000000000000000      ,   6.8246812273693350E-002 ,   4.9589625901382471E-007
   21.000000000000000      ,   24.000000000000000      ,   6.4360777597578245E-002 ,   5.2812387625334562E-007
   24.000000000000000      ,   27.000000000000000      ,   6.0472805244563610E-002 ,   5.5781611773495460E-007
   27.000000000000000      ,   30.000000000000000      ,   5.5691045963898886E-002 ,   5.7365798698088540E-007
   30.000000000000000      ,   33.000000000000000      ,   4.9192938231904189E-002 ,   5.5936842697113769E-007
   33.000000000000000      ,   36.000000000000000      ,   4.0688705032413910E-002 ,   5.0907527297220250E-007
   36.000000000000000      ,   39.000000000000000      ,   3.1611204252044327E-002 ,   4.3528794129961670E-007
   39.000000000000000      ,   42.000000000000000      ,   2.3675389779320054E-002 ,   3.5784028473316769E-007
   42.000000000000000      ,   45.000000000000000      ,   1.7420337444491282E-002 ,   2.8757322776542337E-007
   45.000000000000000      ,   48.000000000000000      ,   1.2814223236523191E-002 ,   2.2977170718819857E-007
   48.000000000000000      ,   51.000000000000000      ,   9.5201982652100298E-003 ,   1.8455392189609808E-007
   51.000000000000000      ,   54.000000000000000      ,   7.1834047877258837E-003 ,   1.5007288591465980E-007
   54.000000000000000      ,   57.000000000000000      ,   5.5174217847795068E-003 ,   1.2401920363473681E-007
   57.000000000000000      ,   60.000000000000000      ,   4.3137981284997289E-003 ,   1.0425875610529396E-007
   60.000000000000000      ,   63.000000000000000      ,   3.4288162800120382E-003 ,   8.9088470650002649E-008
   63.000000000000000      ,   66.000000000000000      ,   2.7674285345314908E-003 ,   7.7288972074588506E-008
   66.000000000000000      ,   69.000000000000000      ,   2.2639430055595450E-003 ,   6.7953841542116948E-008
   69.000000000000000      ,   72.000000000000000      ,   1.8745171553334686E-003 ,   6.0453682889010131E-008
   72.000000000000000      ,   75.000000000000000      ,   1.5689926635736400E-003 ,   5.4348187777819564E-008
   75.000000000000000      ,   78.000000000000000      ,   1.3259042081712250E-003 ,   4.9307573178179760E-008
   78.000000000000000      ,   81.000000000000000      ,   1.1301444929449225E-003 ,   4.5099627171182140E-008
   81.000000000000000      ,   84.000000000000000      ,   9.7078028523614468E-004 ,   4.1552721777307235E-008
   84.000000000000000      ,   87.000000000000000      ,   8.3973284472072668E-004 ,   3.8533268844408241E-008
   87.000000000000000      ,   90.000000000000000      ,   7.3112507393086501E-004 ,   3.5949663574738499E-008
   90.000000000000000      ,   93.000000000000000      ,   6.4015544414354301E-004 ,   3.3726302840205039E-008
   93.000000000000000      ,   96.000000000000000      ,   5.6354001391881604E-004 ,   3.1863622515005732E-008
   96.000000000000000      ,   99.000000000000000      ,   4.9840399426900937E-004 ,   3.0545706129537450E-008
   99.000000000000000      ,   102.00000000000000      ,   4.4275087570242301E-004 ,   2.9809775036601192E-008
   102.00000000000000      ,   105.00000000000000      ,   3.9496455183545145E-004 ,   2.9390242510740629E-008
   105.00000000000000      ,   108.00000000000000      ,   3.5358505351291302E-004 ,   2.9283267902947760E-008
   108.00000000000000      ,   111.00000000000000      ,   3.1760015304486923E-004 ,   2.9662293189160902E-008
   111.00000000000000      ,   114.00000000000000      ,   2.8609069264171180E-004 ,   3.0191815991374999E-008
   114.00000000000000      ,   117.00000000000000      ,   2.5849450567080694E-004 ,   3.0091807699443230E-008
   117.00000000000000      ,   120.00000000000000      ,   2.3408336723855131E-004 ,   2.9750371251366997E-008
   120.00000000000000      ,   123.00000000000000      ,   2.1233408743864248E-004 ,   2.9321673038201723E-008
   123.00000000000000      ,   126.00000000000000      ,   1.9303162804425888E-004 ,   2.8873476757701540E-008
   126.00000000000000      ,   129.00000000000000      ,   1.7575027323003063E-004 ,   2.8436186135139783E-008
   129.00000000000000      ,   132.00000000000000      ,   1.6022317002274561E-004 ,   2.8049374776837198E-008
   132.00000000000000      ,   135.00000000000000      ,   1.4623185973390037E-004 ,   2.7799069298931558E-008
   135.00000000000000      ,   138.00000000000000      ,   1.3283634755732865E-004 ,   2.8039257959814176E-008
   138.00000000000000      ,   141.00000000000000      ,   1.1846634574049785E-004 ,   2.6623553199731561E-008
   141.00000000000000      ,   144.00000000000000      ,   1.0258750724452096E-004 ,   2.4972991131642147E-008
   144.00000000000000      ,   147.00000000000000      ,   8.2322771235900625E-005 ,   2.3466137093872748E-008
   147.00000000000000      ,   150.00000000000000      ,   6.5551828904489762E-005 ,   2.2582039131353855E-008
   150.00000000000000      ,   153.00000000000000      ,   5.4904190557589031E-005 ,   1.9993007623496226E-008
   153.00000000000000      ,   156.00000000000000      ,   4.7391541447290907E-005 ,   1.8198840605691332E-008
   156.00000000000000      ,   159.00000000000000      ,   4.1732000573961241E-005 ,   1.6790253496541720E-008
   159.00000000000000      ,   162.00000000000000      ,   3.7456771891087826E-005 ,   1.6172499377492420E-008
   162.00000000000000      ,   165.00000000000000      ,   3.4168919915043563E-005 ,   1.5702327907335475E-008
   165.00000000000000      ,   168.00000000000000      ,   3.1644236032356275E-005 ,   1.5819523718355330E-008
   168.00000000000000      ,   171.00000000000000      ,   2.9792185766153781E-005 ,   1.4917101795461587E-008
   171.00000000000000      ,   174.00000000000000      ,   2.8474540405351089E-005 ,   1.4465296388704704E-008
   174.00000000000000      ,   177.00000000000000      ,   2.7594800678030656E-005 ,   1.4459681742294312E-008
   177.00000000000000      ,   180.00000000000000      ,   2.7201805626737267E-005 ,   1.4275615555248377E-008
