 # xl, xh, LO, dLO, NLOPSnovp, dNLOPSnovp, NLOPSvp, dNLOPSvp, NLOPSvplt, dNLOPSvplt
   49.999999999999758      ,   50.999999999999744      ,  0.87484476894306162      ,   7.0628579970252769E-006 ,  0.72867827121571849      ,   1.3214997038390821E-005 ,  0.74348998471932337      ,   5.0761825404859525E-006 ,  0.74367230971679721      ,   1.3447875421221028E-005
   50.999999999999744      ,   51.999999999999730      ,   1.2142414214333144      ,   8.3944419232609888E-006 ,   1.0990287376948051      ,   3.8916411560559102E-005 ,   1.1217308100320662      ,   8.3894856493529796E-006 ,   1.1217401139937373      ,   4.0744889488957487E-005
   51.999999999999730      ,   52.999999999999716      ,   1.2751523648774679      ,   8.6296934906574488E-006 ,   1.2040809655073419      ,   2.0882408509594429E-005 ,   1.2293167083727838      ,   8.3650495270271484E-006 ,   1.2290619480620320      ,   2.1504708975857984E-005
   52.999999999999716      ,   53.999999999999702      ,   1.2760461331658588      ,   8.6665887002457372E-006 ,   1.2428914228102419      ,   2.2211069330453784E-005 ,   1.2691604231314306      ,   8.8581418593753011E-006 ,   1.2687835661882387      ,   2.2869669427056056E-005
   53.999999999999702      ,   54.999999999999687      ,   1.2512124162722049      ,   8.6210144793091762E-006 ,   1.2492874874559496      ,   2.7213119928353173E-005 ,   1.2759832964406361      ,   9.8001951594902403E-006 ,   1.2754123415232761      ,   2.8091974909476118E-005
   54.999999999999687      ,   55.999999999999673      ,   1.2130734597918849      ,   8.5301142313839629E-006 ,   1.2348070526016843      ,   2.8711137281683407E-005 ,   1.2613312216231167      ,   1.1760474032450384E-005 ,   1.2607269698561845      ,   2.9564837030745144E-005
   55.999999999999673      ,   56.999999999999659      ,   1.1678859036338740      ,   8.4132004554834642E-006 ,   1.2075653294124122      ,   2.7768107676095134E-005 ,   1.2337129058337766      ,   1.0802608970829498E-005 ,   1.2330107173427323      ,   2.8429591568915695E-005
   56.999999999999659      ,   57.999999999999645      ,   1.1195612052748243      ,   8.2834976785096434E-006 ,   1.1732766332120752      ,   3.0762914487939185E-005 ,   1.1988948677882194      ,   1.1254755975505695E-005 ,   1.1980910138524616      ,   3.1465645095967277E-005
   57.999999999999645      ,   58.999999999999631      ,   1.0707855822734265      ,   8.1503554775359551E-006 ,   1.1354812840115360      ,   2.9424826632516545E-005 ,   1.1604946048063687      ,   1.0941843002592378E-005 ,   1.1595856762490491      ,   3.0309715418860726E-005
   58.999999999999631      ,   59.999999999999616      ,   1.0229690191204863      ,   8.0182691187366391E-006 ,   1.0964737345687681      ,   3.7235308174420321E-005 ,   1.1207302828692387      ,   1.3410355755553226E-005 ,   1.1198364495188367      ,   3.8406354973872085E-005
   59.999999999999616      ,   60.999999999999602      ,  0.97753603676149392      ,   7.8911310571144198E-006 ,   1.0578123890604554      ,   3.0127816559259304E-005 ,   1.0814602598691030      ,   1.3223338385164026E-005 ,   1.0804327262605986      ,   3.0973041229020913E-005
   60.999999999999602      ,   61.999999999999588      ,  0.93784478815123873      ,   7.7775510241253339E-006 ,   1.0227094128454788      ,   3.1249804647640210E-005 ,   1.0457131303062406      ,   1.6311199385638669E-005 ,   1.0446660407499881      ,   3.2152146496540606E-005
   61.999999999999588      ,   62.999999999999574      ,  0.90124908875281518      ,   7.6701048108657947E-006 ,  0.98945347913974635      ,   1.1639556784617610E-004 ,   1.0117299729919367      ,   2.3350464422251048E-005 ,   1.0107658181364045      ,   1.2118270054888375E-004
   62.999999999999574      ,   63.999999999999559      ,  0.86623180701287572      ,   7.5646577670890829E-006 ,  0.95668658847527233      ,   4.8516234354781879E-005 ,  0.97844530688563680      ,   1.5514014247239813E-005 ,  0.97736203449158898      ,   5.0079726724947688E-005
   63.999999999999559      ,   64.999999999999545      ,  0.83267810477598148      ,   7.4611031935504288E-006 ,  0.92463538319456973      ,   3.3303548183776715E-005 ,  0.94590989157212202      ,   1.5474022235551356E-005 ,  0.94468829844864033      ,   3.4314874043945236E-005
   64.999999999999545      ,   65.999999999999531      ,  0.80051169011150325      ,   7.3593535547637239E-006 ,  0.89377342320815334      ,   1.4669645218675566E-004 ,  0.91428597213826923      ,   2.4784415288611580E-005 ,  0.91319953961971878      ,   1.4902625119879673E-004
   65.999999999999531      ,   66.999999999999517      ,  0.76970321748281623      ,   7.2593537680048123E-006 ,  0.86328154540581759      ,   4.9642254993793499E-005 ,  0.88348074217643446      ,   1.5461207602113295E-005 ,  0.88212849106159219      ,   5.0978154699659880E-005
   66.999999999999517      ,   67.999999999999503      ,  0.74024884810619773      ,   7.1614468133698104E-006 ,  0.83398776004549202      ,   3.9984832989371919E-005 ,  0.85369809714140221      ,   1.5636169442372179E-005 ,  0.85226300914075936      ,   4.1307977956030335E-005
   67.999999999999503      ,   68.999999999999488      ,  0.71207639013834512      ,   7.0653582491683222E-006 ,  0.80572667131470177      ,   3.6648625160766516E-005 ,  0.82492478092737132      ,   2.4749259240694578E-005 ,  0.82343429385299138      ,   3.7503923341428330E-005
   68.999999999999488      ,   69.999999999999474      ,  0.68519640526046122      ,   6.9716048061942257E-006 ,  0.77850995965341152      ,   3.9691668711671692E-005 ,  0.79721095034661305      ,   1.8275212322283795E-005 ,  0.79567910369479122      ,   4.0826709443447184E-005
   69.999999999999474      ,   70.999999999999460      ,  0.65954236017163259      ,   6.8798477191128474E-006 ,  0.75225585205290235      ,   3.9737795030418746E-005 ,  0.77052155406025191      ,   1.9488456797049636E-005 ,  0.76888429521561064      ,   3.9331237824127999E-005
   70.999999999999460      ,   71.999999999999446      ,  0.63504619675303609      ,   6.7899627998536945E-006 ,  0.72708029580936484      ,   4.3759536521600916E-005 ,  0.74484174060756247      ,   1.8107135859182514E-005 ,  0.74322559718929493      ,   4.5239263398911479E-005
   71.999999999999446      ,   72.999999999999432      ,  0.61170145079588667      ,   6.7022345430171520E-006 ,  0.70292135171198133      ,   4.9680663959457373E-005 ,  0.72018042948635841      ,   1.8102330477772447E-005 ,  0.71855751051075933      ,   5.1141651340418575E-005
   72.999999999999432      ,   73.999999999999417      ,  0.58943802687087743      ,   6.6165094320892997E-006 ,  0.67962491555009719      ,   4.2317083547835860E-005 ,  0.69653510941390495      ,   1.8169853959398185E-005 ,  0.69479841390147801      ,   4.3446271943072882E-005
   73.999999999999417      ,   74.999999999999403      ,  0.56819958944594950      ,   6.5323208029618677E-006 ,  0.65743738407184671      ,   5.3653135622332744E-005 ,  0.67383061819166257      ,   1.6729104745522137E-005 ,  0.67216158188914787      ,   5.5569820481953567E-005
   74.999999999999403      ,   75.999999999999389      ,  0.54795714823363273      ,   6.4501901481999200E-006 ,  0.63606741134315081      ,   4.8721937054742499E-005 ,  0.65210133027905048      ,   1.7672366703891905E-005 ,  0.65035704142237927      ,   5.0124909605642614E-005
   75.999999999999389      ,   76.999999999999375      ,  0.52865881561202743      ,   6.3697116514812428E-006 ,  0.61557098870776694      ,   4.8309768209154676E-005 ,  0.63131534714963777      ,   2.4889903803976997E-005 ,  0.62944084171919146      ,   4.9871888689948227E-005
   76.999999999999375      ,   77.999999999999361      ,  0.51024685681186699      ,   6.2905585033894525E-006 ,  0.59594700382062815      ,   4.9232072589354401E-005 ,  0.61135243438586273      ,   2.2485644176476974E-005 ,  0.60940901517224011      ,   5.0641853208622153E-005
   77.999999999999361      ,   78.999999999999346      ,  0.49269770097848375      ,   6.2127744232541769E-006 ,  0.57730746565829461      ,   5.3114145685455033E-005 ,  0.59227637185763127      ,   2.0580454501605842E-005 ,  0.59039071413384581      ,   5.4795133605660199E-005
   78.999999999999346      ,   79.999999999999332      ,  0.47594007641424196      ,   6.1359470727676859E-006 ,  0.55930465825979558      ,   4.8285909792518309E-005 ,  0.57391212071173192      ,   1.9235282125178435E-005 ,  0.57201118436390797      ,   4.9744658157386660E-005
   79.999999999999332      ,   80.999999999999318      ,  0.45995316817136461      ,   6.0596769800942262E-006 ,  0.54212879641111589      ,   5.3457780006364321E-005 ,  0.55638276163022782      ,   1.9221928314069171E-005 ,  0.55448140386980160      ,   5.5108502608778302E-005
   80.999999999999318      ,   81.999999999999304      ,  0.44467526827620896      ,   5.9837100584019322E-006 ,  0.52556682942452160      ,   4.6790030974906021E-005 ,  0.53954352978486908      ,   1.7071242914919455E-005 ,  0.53758980670259948      ,   4.9558157536719552E-005
   81.999999999999304      ,   82.999999999999289      ,  0.43010978447845699      ,   5.9078953736048906E-006 ,  0.50974844451013779      ,   5.0884118186717163E-005 ,  0.52355191090452724      ,   6.0251730973929270E-005 ,  0.52142358613648399      ,   5.2828888190712387E-005
   82.999999999999289      ,   83.999999999999275      ,  0.41620063347015840      ,   5.8318843181171371E-006 ,  0.49466806278609160      ,   5.8645753566136803E-005 ,  0.50806024312653364      ,   2.2541177555885552E-005 ,  0.50602354745233813      ,   6.0473224421734060E-005
   83.999999999999275      ,   84.999999999999261      ,  0.40296352775135602      ,   5.7559794552655026E-006 ,  0.48007007429680598      ,   4.4163815044282523E-005 ,  0.49324774447826619      ,   2.0717546776476314E-005 ,  0.49113070993905111      ,   4.5549536515759453E-005
   84.999999999999261      ,   85.999999999999247      ,  0.39036880671934393      ,   5.6824721964675043E-006 ,  0.46632249732888137      ,   6.3269969477887950E-005 ,  0.47918444647872860      ,   2.2104997719105149E-005 ,  0.47707211872534178      ,   6.2767665518397340E-005
   85.999999999999247      ,   86.999999999999233      ,  0.37841330063488854      ,   5.6120511897286244E-006 ,  0.45308844854087860      ,   4.7278720533097004E-005 ,  0.46575332574024109      ,   3.3937798759433423E-005 ,  0.46357825107964434      ,   4.8865174999378724E-005
   86.999999999999233      ,   87.999999999999218      ,  0.36702129707339676      ,   5.5440633978843813E-006 ,  0.44050311739275394      ,   5.3164118531848285E-005 ,  0.45295820751621840      ,   3.7272852685996753E-005 ,  0.45071790906959402      ,   5.4780645628733670E-005
   87.999999999999218      ,   88.999999999999204      ,  0.35619981231172337      ,   5.4793241415448476E-006 ,  0.42843901685317937      ,   4.3681161133446407E-005 ,  0.44062537917232020      ,   2.0638175938580936E-005 ,  0.43839821329719225      ,   4.4905625900702609E-005
   88.999999999999204      ,   89.999999999999190      ,  0.34588463337032133      ,   5.4169558319316375E-006 ,  0.41688231886523242      ,   4.9864891967192716E-005 ,  0.42886852890717936      ,   2.0621192876195458E-005 ,  0.42659801093182309      ,   5.1293357721046698E-005
   89.999999999999190      ,   90.999999999999176      ,  0.33604902300172801      ,   5.3571431734902658E-006 ,  0.40495382315977113      ,   4.3559827954691475E-005 ,  0.41669565414761062      ,   1.9444855874033655E-005 ,  0.41441573723341457      ,   4.4734351637479438E-005
   90.999999999999176      ,   91.999999999999162      ,  0.32669033262717423      ,   5.2999030717112964E-006 ,  0.39273695925391716      ,   4.9694841463877644E-005 ,  0.40423049273818695      ,   2.5229419103669214E-005 ,  0.40193873638555588      ,   5.1278716087626762E-005
   91.999999999999162      ,   92.999999999999147      ,  0.31776906190381304      ,   5.2447275392311451E-006 ,  0.38104864524635002      ,   6.9815124067164807E-005 ,  0.39229388324225201      ,   2.1697302163988931E-005 ,  0.39000674869871960      ,   7.2163417034370829E-005
   92.999999999999147      ,   93.999999999999133      ,  0.30927263846961855      ,   5.1922366122268603E-006 ,  0.36976303592828530      ,   3.9548936166711556E-005 ,  0.38084465739115653      ,   1.7515623055211595E-005 ,  0.37847538205153952      ,   4.0403980347755136E-005
   93.999999999999133      ,   94.999999999999119      ,  0.30117013584768249      ,   5.1417491841828557E-006 ,  0.35914563597310106      ,   4.4508671420655810E-005 ,  0.36994779093831309      ,   1.7061872448461794E-005 ,  0.36763156040043504      ,   4.5754433150084237E-005
   94.999999999999119      ,   95.999999999999105      ,  0.29348112803220983      ,   5.0942968329603609E-006 ,  0.34906589925756498      ,   3.9155760382167265E-005 ,  0.35967550533056886      ,   1.6781865397150825E-005 ,  0.35733743398988449      ,   4.0144011492517963E-005
   95.999999999999105      ,   96.999999999999091      ,  0.28617807825370328      ,   5.0497857476532644E-006 ,  0.33948028538332303      ,   3.5260851126035500E-005 ,  0.35000567025998797      ,   2.7250318982159342E-005 ,  0.34755006971430802      ,   3.6465449934020526E-005
   96.999999999999091      ,   97.999999999999076      ,  0.27922830497014217      ,   5.0074611322178424E-006 ,  0.33048934216047776      ,   3.6198597515346427E-005 ,  0.34078997302137387      ,   1.5425485497034575E-005 ,  0.33836440319954869      ,   3.7455836904150120E-005
   97.999999999999076      ,   98.999999999999062      ,  0.27257055855309986      ,   4.9661865906590533E-006 ,  0.32185925359979156      ,   3.8948852474069132E-005 ,  0.33197568722970616      ,   1.8158247806814407E-005 ,  0.32955219723522844      ,   4.0369636790874926E-005
   98.999999999999062      ,   99.999999999999048      ,  0.26611833819325359      ,   4.9242070375046345E-006 ,  0.31351157752882952      ,   5.6878230321915179E-005 ,  0.32337936092590086      ,   2.3049119300123188E-005 ,  0.32101885364412941      ,   5.8683695661099032E-005
   99.999999999999048      ,   100.99999999999903      ,  0.25984930007628237      ,   4.8813243599701900E-006 ,  0.30519236773959818      ,   3.5962556345500050E-005 ,  0.31493311735416757      ,   1.5274556029796668E-005 ,  0.31251625955992596      ,   3.7253646377789228E-005
   100.99999999999903      ,   101.99999999999902      ,  0.25375481204744338      ,   4.8378986138869805E-006 ,  0.29706612623266793      ,   3.6795478052792254E-005 ,  0.30665927852989455      ,   1.3907519699197938E-005 ,  0.30421148992186209      ,   3.8100184146116966E-005
   101.99999999999902      ,   102.99999999999901      ,  0.24782786483704941      ,   4.7937024777996431E-006 ,  0.28925659819806854      ,   6.1506066517709218E-005 ,  0.29863200864023060      ,   1.6773893382005364E-005 ,  0.29622615095188592      ,   6.3888138226084274E-005
   102.99999999999901      ,   103.99999999999899      ,  0.24204363376164476      ,   4.7491903607633740E-006 ,  0.28141236707070200      ,   2.9788815274743447E-005 ,  0.29067605314054296      ,   1.2704530816458470E-005 ,  0.28821382165027487      ,   3.0793228339189470E-005
   103.99999999999899      ,   104.99999999999898      ,  0.23641918428129971      ,   4.7042023379421074E-006 ,  0.27383037241739472      ,   3.3428859734683516E-005 ,  0.28298003823892087      ,   1.2769360785590794E-005 ,  0.28046487784606311      ,   3.4510285773359220E-005
   104.99999999999898      ,   105.99999999999896      ,  0.23092639846833773      ,   4.6590685697502728E-006 ,  0.26649450019147020      ,   3.1104523106641953E-005 ,  0.27546386579228543      ,   1.4805914248619874E-005 ,  0.27296406381142996      ,   3.2175860301812125E-005
   105.99999999999896      ,   106.99999999999895      ,  0.22555368988896915      ,   4.6133814912492187E-006 ,  0.25932875101120750      ,   3.5295385857436267E-005 ,  0.26809158213887657      ,   1.3074995256499267E-005 ,  0.26563711868930934      ,   3.6508769511507314E-005
   106.99999999999895      ,   107.99999999999893      ,  0.22028569638970283      ,   4.5674427015193958E-006 ,  0.25231603766243488      ,   4.8195770217488220E-005 ,  0.26092157386529841      ,   1.3461069825198434E-005 ,  0.25846383578588611      ,   4.9527280819103670E-005
   107.99999999999893      ,   108.99999999999892      ,  0.21510948139733549      ,   4.5208847881194101E-006 ,  0.24532954350433325      ,   2.8843112495788958E-005 ,  0.25388616515343498      ,   1.9924249897906602E-005 ,  0.25132826800121300      ,   2.9875255682770743E-005
   108.99999999999892      ,   109.99999999999891      ,  0.21002130121717005      ,   4.4738222182531741E-006 ,  0.23857407728914717      ,   5.6767342201983113E-005 ,  0.24694642370723241      ,   1.3557750248137688E-005 ,  0.24440535859803089      ,   5.7812772132601503E-005
   109.99999999999891      ,   110.99999999999889      ,  0.20499120627282899      ,   4.4258597697909385E-006 ,  0.23187087698937289      ,   2.4343401464608455E-005 ,  0.24011238828644840      ,   1.5541898775969975E-005 ,  0.23755834914666416      ,   2.5126641610729417E-005
   110.99999999999889      ,   111.99999999999888      ,  0.20001965958940596      ,   4.3772535770794255E-006 ,  0.22531800606118274      ,   2.7083398828736341E-005 ,  0.23336164439580995      ,   1.0912813665903495E-005 ,  0.23085265540091301      ,   2.7760780133743269E-005
   111.99999999999888      ,   112.99999999999886      ,  0.19506351906086680      ,   4.3271617964103186E-006 ,  0.21879190301118992      ,   2.9560637174647583E-005 ,  0.22667114278929609      ,   1.1778398212968010E-005 ,  0.22417354584492580      ,   2.9732597269456599E-005
   112.99999999999886      ,   113.99999999999885      ,  0.19013267842326570      ,   4.2758069100143043E-006 ,  0.21223777582707995      ,   2.8107875699550858E-005 ,  0.22000385394005437      ,   1.8442417363893294E-005 ,  0.21746565059908404      ,   2.7987373964645226E-005
   113.99999999999885      ,   114.99999999999883      ,  0.18517835414782277      ,   4.2221876419825654E-006 ,  0.20576920605776725      ,   3.0472578425357679E-005 ,  0.21333832273895745      ,   1.0125383589109056E-005 ,  0.21085752550370251      ,   3.1666947704727037E-005
   114.99999999999883      ,   115.99999999999882      ,  0.18018720943111596      ,   4.1663323292976170E-006 ,  0.19915365726660203      ,   2.6583102075989455E-005 ,  0.20662100549883150      ,   9.8095662885107572E-006 ,  0.20409053717952103      ,   2.7794256845442469E-005
   115.99999999999882      ,   116.99999999999881      ,  0.17514048643955391      ,   4.1078149007592474E-006 ,  0.19258035911010421      ,   4.6202963338215103E-005 ,  0.19985939314648277      ,   1.2363211526423257E-005 ,  0.19735492478618363      ,   4.6832878220591723E-005
   116.99999999999881      ,   117.99999999999879      ,  0.16999120952944261      ,   4.0458011652117830E-006 ,  0.18580293035019319      ,   2.0713838260519476E-005 ,  0.19294848952193300      ,   9.0010775972669425E-006 ,  0.19042389836045778      ,   2.1403966480080078E-005
   117.99999999999879      ,   118.99999999999878      ,  0.16471794062530670      ,   3.9791540122138551E-006 ,  0.17902055488372717      ,   3.5187652170482203E-005 ,  0.18592314049566208      ,   9.4948020101002256E-006 ,  0.18348464709924214      ,   3.6627453645536968E-005
   118.99999999999878      ,   119.99999999999876      ,  0.15946092161944306      ,   3.9086353946613095E-006 ,  0.17217910612961648      ,   6.6176733708393369E-005 ,  0.17882013808902730      ,   1.2180328180439355E-005 ,  0.17647874254701795      ,   6.8758569821701009E-005
   119.99999999999876      ,   120.99999999999875      ,  0.15433296191579424      ,   3.8328506327813089E-006 ,  0.16518787322328160      ,   2.2246512984927089E-005 ,  0.17171521287071423      ,   8.7460603381756085E-006 ,  0.16931915049052199      ,   2.3047864449792379E-005
   120.99999999999875      ,   121.99999999999874      ,  0.14881003197134596      ,   3.7477154452104785E-006 ,  0.15788102978425325      ,   3.2887156561634634E-005 ,  0.16417359745412607      ,   9.5244044664009732E-006 ,  0.16183581232915017      ,   3.3866419372739793E-005
   121.99999999999874      ,   122.99999999999872      ,  0.14263989848851205      ,   3.6490861178880601E-006 ,  0.14977690894057502      ,   1.8112660893054308E-005 ,  0.15588604426661004      ,   7.9088792738558339E-006 ,  0.15353604032943524      ,   1.8764088052994473E-005
   122.99999999999872      ,   123.99999999999871      ,  0.13556762608949421      ,   3.5320120365668860E-006 ,  0.14081368354237817      ,   1.5670110523816821E-005 ,  0.14660389273588914      ,   8.5181524537722275E-006 ,  0.14435399406525729      ,   1.5985082926674171E-005
   123.99999999999871      ,   124.99999999999869      ,  0.12726219974930625      ,   3.3898125958524787E-006 ,  0.13052899531820869      ,   2.6996399685794783E-005 ,  0.13595955596030831      ,   1.1210751182382486E-005 ,  0.13381472385040624      ,   2.8160273868579065E-005
   124.99999999999869      ,   125.99999999999868      ,  0.11761709798251649      ,   3.2158428440354976E-006 ,  0.11862150949081962      ,   1.3731182574526177E-005 ,  0.12362308811799756      ,   5.5418716310338486E-006 ,  0.12161530031101586      ,   1.4268176876005639E-005
   125.99999999999868      ,   126.99999999999866      ,  0.10673333959576628      ,   3.0096486284615471E-006 ,  0.10499518030985273      ,   1.3209473330623931E-005 ,  0.10951529077199423      ,   5.9977363249637840E-006 ,  0.10764288629862917      ,   1.0332236433346939E-005
   126.99999999999866      ,   127.99999999999865      ,   9.4051250464143046E-002 ,   2.7590143100297649E-006 ,   8.9403023578703333E-002 ,   9.9895257348722070E-006 ,   9.3351715567608115E-002 ,   7.9206133767530524E-006 ,   9.1668915532005166E-002 ,   1.0126043186638848E-005
   127.99999999999865      ,   128.99999999999864      ,   7.7889322106615297E-002 ,   2.4277639268997824E-006 ,   7.0310156325550044E-002 ,   7.4124867404904883E-006 ,   7.3488108152964207E-002 ,   4.7344570650779657E-006 ,   7.2096589953120252E-002 ,   7.6336085659903963E-006
   128.99999999999864      ,   129.99999999999864      ,   4.8027559078485126E-002 ,   1.8005902253492359E-006 ,   3.8799050682162550E-002 ,   4.3434359620478095E-006 ,   4.0636058981593552E-002 ,   1.8136677955863671E-006 ,   3.9786734501562442E-002 ,   4.4824678458865123E-006
