 # xl, xh, LO, dLO, NLOPSnovp, dNLOPSnovp, NLOPSvp, dNLOPSvp, NLOPSvplt, dNLOPSvplt
   0.0000000000000000      ,   5.0000000000000000      ,  0.10178078980116796      ,   1.3106737181556412E-006 ,  0.12010413606187127      ,   1.2726687291298377E-005 ,  0.12356158095829875      ,   4.0029028458038388E-006 ,  0.12290968297071121      ,   1.3123014562710619E-005
   5.0000000000000000      ,   10.000000000000000      ,  0.10187361920146061      ,   1.3109464102467723E-006 ,  0.12018364895801459      ,   1.0271067858009837E-005 ,  0.12365060216001177      ,   4.9273367979492527E-006 ,  0.12299221939622024      ,   1.0658415103346783E-005
   10.000000000000000      ,   15.000000000000000      ,  0.10206701741376550      ,   1.3115324544875342E-006 ,  0.12037091640613254      ,   1.0406451228695723E-005 ,  0.12383714904765653      ,   4.2599135526249042E-006 ,  0.12318182641293272      ,   1.0739198471529738E-005
   15.000000000000000      ,   20.000000000000000      ,  0.10235594143842919      ,   1.3124093065630309E-006 ,  0.12064175582466828      ,   9.9069124982375946E-006 ,  0.12410518227867162      ,   3.9132065092354801E-006 ,  0.12345544256743719      ,   1.0209719218486069E-005
   20.000000000000000      ,   25.000000000000000      ,  0.10274339173032287      ,   1.3135788282115089E-006 ,  0.12099119102732191      ,   8.4184856275991229E-006 ,  0.12447253308668216      ,   4.1506185681428658E-006 ,  0.12381387019767905      ,   8.6579063692865159E-006
   25.000000000000000      ,   30.000000000000000      ,  0.10322935096443131      ,   1.3150535029816168E-006 ,  0.12146316490765284      ,   9.6712070759013881E-006 ,  0.12493520119973998      ,   4.0144662315025856E-006 ,  0.12429426023916934      ,   9.9085438996256763E-006
   30.000000000000000      ,   35.000000000000000      ,  0.10381211153768383      ,   1.3168636372000689E-006 ,  0.12200812588181331      ,   1.1081198906053545E-005 ,  0.12548345852066342      ,   4.3181347760187721E-006 ,  0.12485194970025836      ,   1.1376676497865937E-005
   35.000000000000000      ,   40.000000000000000      ,  0.10449761931221434      ,   1.3189847312421786E-006 ,  0.12263556344331189      ,   1.3172479651000496E-005 ,  0.12612761182883792      ,   4.3628857444860124E-006 ,  0.12549102032536641      ,   1.3560295435830279E-005
   40.000000000000000      ,   45.000000000000000      ,  0.10527742768406334      ,   1.3213312561764330E-006 ,  0.12333758669971513      ,   1.0432002914629051E-005 ,  0.12685829005723143      ,   3.8748983580611889E-006 ,  0.12620682913050060      ,   1.0743424454306299E-005
   45.000000000000000      ,   50.000000000000000      ,  0.10616185563945194      ,   1.3240527915501650E-006 ,  0.12415107129878233      ,   9.2394115307609093E-006 ,  0.12769159542913891      ,   4.1823654325997111E-006 ,  0.12703715081008846      ,   9.5501976211391135E-006
   50.000000000000000      ,   55.000000000000000      ,  0.10715011157953412      ,   1.3270898753137751E-006 ,  0.12506861921645859      ,   9.0228942107802084E-006 ,  0.12861968263980664      ,   4.0988080731319766E-006 ,  0.12797107254932855      ,   9.2701845063255886E-006
   55.000000000000000      ,   60.000000000000000      ,  0.10823847389079307      ,   1.3304654891009802E-006 ,  0.12608523150583487      ,   1.0563629763761532E-005 ,  0.12964012573597833      ,   4.9148323545735177E-006 ,  0.12900757632386284      ,   1.0897509696644412E-005
   60.000000000000000      ,   65.000000000000000      ,  0.10943265455007532      ,   1.3341363969420160E-006 ,  0.12719388808001428      ,   1.6144447717938315E-005 ,  0.13075241820939021      ,   4.0083917142571870E-006 ,  0.13013718015158932      ,   1.6745972949390393E-005
   65.000000000000000      ,   70.000000000000000      ,  0.11073202257823070      ,   1.3381818684868466E-006 ,  0.12837048391357217      ,   8.8104645566450295E-006 ,  0.13197093326117668      ,   3.7669608289605598E-006 ,  0.13133888595323773      ,   9.0976983524066877E-006
   70.000000000000000      ,   75.000000000000000      ,  0.11213421361994620      ,   1.3425227832501682E-006 ,  0.12965233166824736      ,   8.5195786477469000E-006 ,  0.13329153114539502      ,   1.1333091629636055E-005 ,  0.13264337583546443      ,   8.7515852627011395E-006
   75.000000000000000      ,   80.000000000000000      ,  0.11364548847613017      ,   1.3472283104050386E-006 ,  0.13105137727042931      ,   1.9711205025703251E-005 ,  0.13469048736096070      ,   4.7951639500369858E-006 ,  0.13407170647760236      ,   2.0586203210536091E-005
   80.000000000000000      ,   85.000000000000000      ,  0.11526697478382844      ,   1.3522860079211631E-006 ,  0.13253361603115879      ,   1.3243409068936636E-005 ,  0.13619480607695292      ,   4.0916254372742436E-006 ,  0.13557501897567753      ,   1.1891015578006094E-005
   85.000000000000000      ,   90.000000000000000      ,  0.11699126369287223      ,   1.3577055050799526E-006 ,  0.13408872374351752      ,   9.1915561342758521E-006 ,  0.13779905520940058      ,   4.4756192156424193E-006 ,  0.13716515731128567      ,   9.3912726341042103E-006
   90.000000000000000      ,   95.000000000000000      ,  0.13563406555188287      ,   1.4471003750805574E-006 ,  0.15256615637714296      ,   1.7195094995527531E-005 ,  0.15667667321831849      ,   4.6358570913292902E-006 ,  0.15603795307350396      ,   1.7712202407059811E-005
   95.000000000000000      ,   100.00000000000000      ,  0.13572135733404464      ,   1.4419177216803838E-006 ,  0.15234546151776385      ,   1.1459658436436752E-005 ,  0.15644103944608284      ,   4.2474402664201600E-006 ,  0.15580859251707480      ,   1.1757540946662580E-005
   100.00000000000000      ,   105.00000000000000      ,  0.13584890119950921      ,   1.4374920009360771E-006 ,  0.15216913038216623      ,   1.1001543084608753E-005 ,  0.15626716195082957      ,   5.2958625682876415E-006 ,  0.15562125196625645      ,   1.0814825729040528E-005
   105.00000000000000      ,   110.00000000000000      ,  0.13601174379412001      ,   1.4336557145485087E-006 ,  0.15206782314072145      ,   1.1528818567164157E-005 ,  0.15612344102750886      ,   4.0868163348566753E-006 ,  0.15551671196268790      ,   1.1969889413079102E-005
   110.00000000000000      ,   115.00000000000000      ,  0.13619695913424051      ,   1.4302842250432287E-006 ,  0.15196869239632571      ,   1.0755648610930430E-005 ,  0.15602002554723560      ,   6.6293135606334403E-006 ,  0.15540984701737581      ,   1.1100649701766566E-005
   115.00000000000000      ,   120.00000000000000      ,  0.13640047123190960      ,   1.4273685779091661E-006 ,  0.15188667482799381      ,   1.0431378766086092E-005 ,  0.15593481373412890      ,   4.2092918030216795E-006 ,  0.15531781876641299      ,   1.0725128884522193E-005
   120.00000000000000      ,   125.00000000000000      ,  0.13661848420738415      ,   1.4247784316583266E-006 ,  0.15190615451567124      ,   2.5292032195211880E-005 ,  0.15589017161798041      ,   7.4251889127065035E-006 ,  0.15532994827445046      ,   2.6084138256034083E-005
   125.00000000000000      ,   130.00000000000000      ,  0.13684413906353676      ,   1.4225229390751223E-006 ,  0.15180306130747365      ,   9.4101043160433604E-006 ,  0.15583169711753764      ,   5.0974762543164629E-006 ,  0.15522296321794421      ,   9.6528448616226414E-006
   130.00000000000000      ,   135.00000000000000      ,  0.13705982299525363      ,   1.4204027503043430E-006 ,  0.15181150851315220      ,   1.3510287149702631E-005 ,  0.15578355075456907      ,   4.2825223393018638E-006 ,  0.15522471893519452      ,   1.3818361909947170E-005
   135.00000000000000      ,   140.00000000000000      ,  0.13726710018689756      ,   1.4184665653121475E-006 ,  0.15174775759128512      ,   8.5762019582998936E-006 ,  0.15572667937252668      ,   3.8032285177994452E-006 ,  0.15515484650367883      ,   8.8274430027227845E-006
   140.00000000000000      ,   145.00000000000000      ,  0.13745610492221738      ,   1.4165754321922025E-006 ,  0.15169252607033948      ,   8.4467168889070429E-006 ,  0.15564926050717021      ,   4.8404521946884935E-006 ,  0.15509156353923514      ,   8.7031833476074596E-006
   145.00000000000000      ,   150.00000000000000      ,  0.13761605649756140      ,   1.4146932078863546E-006 ,  0.15161296014021053      ,   8.8388803063374068E-006 ,  0.15555812683321971      ,   5.5973633712327394E-006 ,  0.15500683412623753      ,   9.1101563991515854E-006
   150.00000000000000      ,   155.00000000000000      ,  0.13773700625961036      ,   1.4127187481812389E-006 ,  0.15150234376735267      ,   1.1415238186296117E-005 ,  0.15541606340925979      ,   4.0910121279974380E-006 ,  0.15488851991895444      ,   1.1813039835224378E-005
   155.00000000000000      ,   160.00000000000000      ,  0.13780699341766983      ,   1.4106417187428382E-006 ,  0.15133690655499443      ,   1.0561616901957262E-005 ,  0.15523184754726183      ,   4.5222060743787282E-006 ,  0.15471379715833949      ,   1.1167840297590760E-005
   160.00000000000000      ,   165.00000000000000      ,  0.13781506189043424      ,   1.4083293887872011E-006 ,  0.15107513542791817      ,   8.9847227484525888E-006 ,  0.15497480395946850      ,   3.3796054153004274E-006 ,  0.15443880124897283      ,   9.2862427597909262E-006
   165.00000000000000      ,   170.00000000000000      ,  0.13774875762049957      ,   1.4057228733440108E-006 ,  0.15078570052975221      ,   7.8028695870889166E-006 ,  0.15465238997860212      ,   3.4263025626085816E-006 ,  0.15413670865563475      ,   8.0582288852446619E-006
   170.00000000000000      ,   175.00000000000000      ,  0.13759050376364765      ,   1.4027288404597470E-006 ,  0.15038804157159152      ,   7.8133996128337560E-006 ,  0.15423178374009250      ,   3.2527213033905894E-006 ,  0.15372355081673167      ,   8.0431001609124576E-006
   175.00000000000000      ,   180.00000000000000      ,  0.13733254798982863      ,   1.3992884699367101E-006 ,  0.14991540768801953      ,   8.2992009175227666E-006 ,  0.15371120908441605      ,   3.3657349584553791E-006 ,  0.15323636512763397      ,   8.5738668101330848E-006
   180.00000000000000      ,   185.00000000000000      ,  0.13694605287223210      ,   1.3952507429093475E-006 ,  0.14928155520378233      ,   8.4255959948950088E-006 ,  0.15306042675092957      ,   6.3344524908334587E-006 ,  0.15258107549827116      ,   8.5002386055912499E-006
   185.00000000000000      ,   190.00000000000000      ,  0.13641800426947040      ,   1.3905315031783495E-006 ,  0.14851592699636937      ,   1.1630678981543565E-005 ,  0.15224918552707647      ,   3.3800002263656870E-006 ,  0.15179359575618073      ,   1.2022449959614317E-005
   190.00000000000000      ,   195.00000000000000      ,  0.13572135914677072      ,   1.3849620215267942E-006 ,  0.14755770467811136      ,   7.3660945029994661E-006 ,  0.15127072593446955      ,   3.3493797589437558E-006 ,  0.15080667154832006      ,   7.5885376762524117E-006
   195.00000000000000      ,   200.00000000000000      ,  0.13483340923248732      ,   1.3784379307742546E-006 ,  0.14644455157132755      ,   8.7587138397022500E-006 ,  0.15010235347916512      ,   5.4741604807326046E-006 ,  0.14966402740660825      ,   9.0350349220014808E-006
   200.00000000000000      ,   205.00000000000000      ,  0.13372609082906939      ,   1.3708099151158573E-006 ,  0.14507618717986645      ,   7.6868626649828870E-006 ,  0.14868098257236190      ,   3.0935968993545148E-006 ,  0.14826112379708467      ,   7.9290791170532830E-006
   205.00000000000000      ,   210.00000000000000      ,  0.13237133300974102      ,   1.3618870702771070E-006 ,  0.14343202410188763      ,   6.7338462094369852E-006 ,  0.14699213744512660      ,   3.2653504018047767E-006 ,  0.14657457965799078      ,   6.9562359507350634E-006
   210.00000000000000      ,   215.00000000000000      ,  0.13073011363827111      ,   1.3514107648732679E-006 ,  0.14152217034429412      ,   6.9500442626518768E-006 ,  0.14501305257437064      ,   2.8020076510794376E-006 ,  0.14461780738082816      ,   7.1668628297705549E-006
   215.00000000000000      ,   220.00000000000000      ,  0.12875994513269121      ,   1.3390813719443864E-006 ,  0.13927775430544984      ,   7.3880215214593873E-006 ,  0.14270360733274712      ,   2.9137708505812127E-006 ,  0.14231852964273028      ,   7.5994766780008811E-006
   220.00000000000000      ,   225.00000000000000      ,  0.12642567380566527      ,   1.3246688314417094E-006 ,  0.13665273801245476      ,   5.8080615197325245E-006 ,  0.14002574327902756      ,   2.5386465987043070E-006 ,  0.13963106925883192      ,   5.9896656488470697E-006
   225.00000000000000      ,   230.00000000000000      ,  0.12367521990586437      ,   1.3077939607242535E-006 ,  0.13364934061047337      ,   5.3308495735115689E-006 ,  0.13692328617352997      ,   2.2896753895663295E-006 ,  0.13655844385238022      ,   5.4931684223986774E-006
   230.00000000000000      ,   235.00000000000000      ,  0.12045771888734146      ,   1.2880707761805911E-006 ,  0.13019518129292412      ,   5.5734201659083099E-006 ,  0.13336819162318780      ,   2.2511403754763768E-006 ,  0.13302488951017977      ,   5.7700582990483407E-006
   235.00000000000000      ,   240.00000000000000      ,  0.11672397240989983      ,   1.2651200709036729E-006 ,  0.12626705801161861      ,   2.2759260125466824E-005 ,  0.12931934096987305      ,   4.1800836038025306E-006 ,  0.12900652839894663      ,   2.3698554324917459E-005
   240.00000000000000      ,   245.00000000000000      ,  0.11242648959686470      ,   1.2384620913983813E-006 ,  0.12179944269858256      ,   5.0752564490301749E-006 ,  0.12474204139421011      ,   2.2239196514427321E-006 ,  0.12443856697162575      ,   5.2240292002508729E-006
   245.00000000000000      ,   250.00000000000000      ,  0.10753458668215775      ,   1.2076631495195577E-006 ,  0.11683371572235708      ,   9.4528516999744021E-006 ,  0.11964572972658115      ,   2.4191593011180901E-006 ,  0.11936247939576550      ,   9.8694735465559802E-006
   250.00000000000000      ,   255.00000000000000      ,  0.10207456710935253      ,   1.1724110958712756E-006 ,  0.11136047421343305      ,   4.4024254067022162E-006 ,  0.11404635605386973      ,   2.5094799839921489E-006 ,  0.11376835717454442      ,   4.5235209340385441E-006
   255.00000000000000      ,   260.00000000000000      ,   9.6056942153953537E-002 ,   1.1324469726751239E-006 ,  0.10542138326499165      ,   5.2124979011617210E-006 ,  0.10795105119666167      ,   1.9933011924754334E-006 ,  0.10769891369024143      ,   5.3846954259478393E-006
   260.00000000000000      ,   265.00000000000000      ,   8.9518709111572725E-002 ,   1.0879746409733530E-006 ,   9.9045816195562186E-002 ,   4.5912953823718000E-006 ,  0.10141865644972695      ,   1.8587912325614146E-006 ,  0.10118299448091567      ,   4.7394983988419825E-006
   265.00000000000000      ,   270.00000000000000      ,   8.3734759611490295E-002 ,   1.0472516738449785E-006 ,   9.3145263403874828E-002 ,   4.0578531958449309E-006 ,   9.5375407083189020E-002 ,   1.8442097961861728E-006 ,   9.5153468007901365E-002 ,   4.1356587748416024E-006
   270.00000000000000      ,   275.00000000000000      ,   8.3639616993165425E-002 ,   1.0420204699537481E-006 ,   9.1125105568968495E-002 ,   3.9737720319463457E-006 ,   9.3290859040642438E-002 ,   1.5802128391621386E-006 ,   9.3086274546367698E-002 ,   4.1036146785923023E-006
   275.00000000000000      ,   280.00000000000000      ,   8.5005593016504524E-002 ,   1.0456607148504228E-006 ,   9.0329566531269764E-002 ,   3.6112953074088514E-006 ,   9.2457693128876001E-002 ,   1.5219582872211929E-006 ,   9.2268155539053626E-002 ,   3.7286871612050767E-006
   280.00000000000000      ,   285.00000000000000      ,   8.6504623313526915E-002 ,   1.0501435460206205E-006 ,   8.9661370239801544E-002 ,   3.8718989168254091E-006 ,   9.1755826368390872E-002 ,   1.3411893017815908E-006 ,   9.1580548004482412E-002 ,   3.9952043209407646E-006
   285.00000000000000      ,   290.00000000000000      ,   8.8044189342945584E-002 ,   1.0549969235287605E-006 ,   8.8968355615432468E-002 ,   3.0508154715938226E-006 ,   9.1031388062754792E-002 ,   1.3876305731769739E-006 ,   9.0866284612025672E-002 ,   3.1435879484339233E-006
   290.00000000000000      ,   295.00000000000000      ,   8.9537888730705589E-002 ,   1.0597462269487315E-006 ,   8.8146495953241810E-002 ,   3.1443322885369117E-006 ,   9.0168450480582293E-002 ,   1.1971912756552115E-006 ,   9.0020515441285628E-002 ,   3.2303732229517568E-006
   295.00000000000000      ,   300.00000000000000      ,   9.0877099901729333E-002 ,   1.0636794902759462E-006 ,   8.7049320347299244E-002 ,   2.7612239247987193E-006 ,   8.9033627351293956E-002 ,   1.1190622453574335E-006 ,   8.8894188469585966E-002 ,   2.8363307651092177E-006
   300.00000000000000      ,   305.00000000000000      ,   9.1860301190938076E-002 ,   1.0655851363922337E-006 ,   8.5495585554863279E-002 ,   2.5126720699026566E-006 ,   8.7426565913893473E-002 ,   1.0177340657156482E-006 ,   8.7302108885117677E-002 ,   2.5869448041266141E-006
   305.00000000000000      ,   310.00000000000000      ,   9.2139235280648144E-002 ,   1.0632857499962532E-006 ,   8.3123561770961960E-002 ,   3.9690244229295402E-006 ,   8.4977874319775437E-002 ,   1.0316706345266000E-006 ,   8.4873394992864476E-002 ,   4.1044248095959577E-006
   310.00000000000000      ,   315.00000000000000      ,   9.1051261003596048E-002 ,   1.0526439735711624E-006 ,   7.9108058484154586E-002 ,   2.2010042472206017E-006 ,   8.0864593136492913E-002 ,   8.7161293918351231E-007 ,   8.0767026852153409E-002 ,   2.2277236396476183E-006
   315.00000000000000      ,   320.00000000000000      ,   8.7130682402700499E-002 ,   1.0242013599277421E-006 ,   7.2076673649482850E-002 ,   1.8979576381324822E-006 ,   7.3655068535985649E-002 ,   7.2652991487252021E-007 ,   7.3582971092989016E-002 ,   1.9516642330613337E-006
   320.00000000000000      ,   325.00000000000000      ,   7.5604631717600623E-002 ,   9.4422408620216783E-007 ,   5.8127110952219854E-002 ,   1.5957632726086105E-006 ,   5.9380593147819231E-002 ,   6.0656209300685363E-007 ,   5.9337140468476518E-002 ,   1.6417573059848519E-006
   325.00000000000000      ,   330.00000000000000      ,   2.4053576512193805E-002 ,   5.1528336076883810E-007 ,   1.6593424332789233E-002 ,   7.6656048464040795E-007 ,   1.6943814381014510E-002 ,   2.8966975018549187E-007 ,   1.6937788883652834E-002 ,   7.8801352093619485E-007
