 # xl, xh, LO, dLO
   140.00000000000000      ,   145.00000000000000      ,   4.8215017149852378E-006 ,   2.6761726128228954E-009
   145.00000000000000      ,   150.00000000000000      ,   1.5562743672374991E-005 ,   4.8167411115202234E-009
   150.00000000000000      ,   155.00000000000000      ,   2.8052441977093929E-005 ,   6.4940584257205539E-009
   155.00000000000000      ,   160.00000000000000      ,   4.2525644492758956E-005 ,   7.9273922087492049E-009
   160.00000000000000      ,   165.00000000000000      ,   1.9879961244950739E-004 ,   1.5976253001459810E-008
   165.00000000000000      ,   170.00000000000000      ,   3.5383612816832627E-004 ,   1.9962219970986108E-008
   170.00000000000000      ,   175.00000000000000      ,   4.8772703688528891E-004 ,   2.2634938920100611E-008
   175.00000000000000      ,   180.00000000000000      ,   6.2473467441718708E-004 ,   2.5744116872814095E-008
   180.00000000000000      ,   185.00000000000000      ,   7.6890149213116286E-004 ,   2.8801318759937479E-008
   185.00000000000000      ,   190.00000000000000      ,   8.8070322395807598E-004 ,   3.1119259457980089E-008
   190.00000000000000      ,   195.00000000000000      ,   9.8888963027983826E-004 ,   3.3349600951906150E-008
   195.00000000000000      ,   200.00000000000000      ,   1.1116809012480554E-003 ,   3.5837484113447928E-008
   200.00000000000000      ,   205.00000000000000      ,   1.2508725428353625E-003 ,   3.8600033847091236E-008
   205.00000000000000      ,   210.00000000000000      ,   1.4088479529964092E-003 ,   4.1679901455233151E-008
   210.00000000000000      ,   215.00000000000000      ,   1.5882113044148845E-003 ,   4.5114964320998818E-008
   215.00000000000000      ,   220.00000000000000      ,   1.7911410658290599E-003 ,   4.8929578502624520E-008
   220.00000000000000      ,   225.00000000000000      ,   2.0202091751687591E-003 ,   5.3161751361850351E-008
   225.00000000000000      ,   230.00000000000000      ,   2.2776237003297680E-003 ,   5.7833272679710859E-008
   230.00000000000000      ,   235.00000000000000      ,   2.5648589538617146E-003 ,   6.2961494475875904E-008
   235.00000000000000      ,   240.00000000000000      ,   2.8823724519699669E-003 ,   6.8527584315957493E-008
   240.00000000000000      ,   245.00000000000000      ,   3.2297695442240247E-003 ,   7.4514610380030058E-008
   245.00000000000000      ,   250.00000000000000      ,   3.6051567554194054E-003 ,   8.0876520774443715E-008
   250.00000000000000      ,   255.00000000000000      ,   4.0056137412412263E-003 ,   8.7549729402804860E-008
   255.00000000000000      ,   260.00000000000000      ,   4.4270688466160639E-003 ,   9.4447093739663307E-008
   260.00000000000000      ,   265.00000000000000      ,   4.8671275480809658E-003 ,   1.0150388726579367E-007
   265.00000000000000      ,   270.00000000000000      ,   5.3264357978498105E-003 ,   1.0868114815335799E-007
   270.00000000000000      ,   275.00000000000000      ,   5.7876732914001333E-003 ,   1.1585685578324691E-007
   275.00000000000000      ,   280.00000000000000      ,   6.1413646857892872E-003 ,   1.2231269726250727E-007
   280.00000000000000      ,   285.00000000000000      ,   6.4542581672177683E-003 ,   1.2798733238078576E-007
   285.00000000000000      ,   290.00000000000000      ,   6.7728511590591945E-003 ,   1.3310230598334386E-007
   290.00000000000000      ,   295.00000000000000      ,   7.0848382876677139E-003 ,   1.3770079410971214E-007
   295.00000000000000      ,   300.00000000000000      ,   7.3845064773734844E-003 ,   1.4182181530931198E-007
   300.00000000000000      ,   305.00000000000000      ,   7.6692720163294929E-003 ,   1.4547636757891494E-007
   305.00000000000000      ,   310.00000000000000      ,   7.9391334947935162E-003 ,   1.4869984582729371E-007
   310.00000000000000      ,   315.00000000000000      ,   8.1943798301250068E-003 ,   1.5156984564958133E-007
   315.00000000000000      ,   320.00000000000000      ,   8.4365134772182940E-003 ,   1.5399619390285431E-007
   320.00000000000000      ,   325.00000000000000      ,   8.6678066577608997E-003 ,   1.5603034199963797E-007
   325.00000000000000      ,   330.00000000000000      ,   8.8914924015717333E-003 ,   1.5785219660027798E-007
   330.00000000000000      ,   335.00000000000000      ,   9.1116042357161486E-003 ,   1.5943466881826486E-007
   335.00000000000000      ,   340.00000000000000      ,   9.3314641137749871E-003 ,   1.6090001939325999E-007
   340.00000000000000      ,   345.00000000000000      ,   9.5523196849265322E-003 ,   1.6223913954436219E-007
   345.00000000000000      ,   350.00000000000000      ,   9.7766353838282527E-003 ,   1.6345690710192754E-007
   350.00000000000000      ,   355.00000000000000      ,   1.0007398952535031E-002 ,   1.6458669628242130E-007
   355.00000000000000      ,   360.00000000000000      ,   1.0245769968968158E-002 ,   1.6561678249535132E-007
   360.00000000000000      ,   365.00000000000000      ,   1.0496536219589805E-002 ,   1.6659342307363367E-007
   365.00000000000000      ,   370.00000000000000      ,   1.0761579368677561E-002 ,   1.6751335222215202E-007
   370.00000000000000      ,   375.00000000000000      ,   1.1044346009991386E-002 ,   1.6839276721789146E-007
   375.00000000000000      ,   380.00000000000000      ,   1.1348945231833184E-002 ,   1.6925057351565182E-007
   380.00000000000000      ,   385.00000000000000      ,   1.1679275778817666E-002 ,   1.7009789940321394E-007
   385.00000000000000      ,   390.00000000000000      ,   1.2041533803979015E-002 ,   1.7096831323938863E-007
   390.00000000000000      ,   395.00000000000000      ,   1.2440195244817315E-002 ,   1.7185418078195267E-007
   395.00000000000000      ,   400.00000000000000      ,   1.2435546803164180E-002 ,   1.7249523056600414E-007
   400.00000000000000      ,   405.00000000000000      ,   1.2053098616040913E-002 ,   1.7248330687734936E-007
   405.00000000000000      ,   410.00000000000000      ,   1.1818346113172399E-002 ,   1.7236342356116218E-007
   410.00000000000000      ,   415.00000000000000      ,   1.1701916732518899E-002 ,   1.7236051541080998E-007
   415.00000000000000      ,   420.00000000000000      ,   1.1698976992176834E-002 ,   1.7269255132192846E-007
   420.00000000000000      ,   425.00000000000000      ,   1.1826854917619090E-002 ,   1.7365002165065751E-007
   425.00000000000000      ,   430.00000000000000      ,   1.2076161169366308E-002 ,   1.7503141139954511E-007
   430.00000000000000      ,   435.00000000000000      ,   1.2426785995701276E-002 ,   1.7626357000382057E-007
   435.00000000000000      ,   440.00000000000000      ,   1.2861832502534407E-002 ,   1.7702911778721859E-007
   440.00000000000000      ,   445.00000000000000      ,   1.3374441013264203E-002 ,   1.7712411199775936E-007
   445.00000000000000      ,   450.00000000000000      ,   1.3966792249604544E-002 ,   1.7639937933577115E-007
   450.00000000000000      ,   455.00000000000000      ,   1.4642222849367168E-002 ,   1.7463373925062303E-007
   455.00000000000000      ,   460.00000000000000      ,   1.5399082457781666E-002 ,   1.7149934129788948E-007
   460.00000000000000      ,   465.00000000000000      ,   1.6237350556571321E-002 ,   1.6647772467220007E-007
   465.00000000000000      ,   470.00000000000000      ,   1.7188694623443596E-002 ,   1.5886213608995138E-007
   470.00000000000000      ,   475.00000000000000      ,   1.8295732485664497E-002 ,   1.4736925389107614E-007
   475.00000000000000      ,   480.00000000000000      ,   1.9003077510219762E-002 ,   1.2844324371793858E-007
   480.00000000000000      ,   485.00000000000000      ,   1.5533452459741210E-002 ,   8.8141130596463863E-008
   485.00000000000000      ,   490.00000000000000      ,   3.9151875502682733E-003 ,   2.8196212742949877E-008
   490.00000000000000      ,   495.00000000000000      ,   0.0000000000000000      ,   0.0000000000000000     
   495.00000000000000      ,   500.00000000000000      ,   0.0000000000000000      ,   0.0000000000000000     
   500.00000000000000      ,   505.00000000000000      ,   0.0000000000000000      ,   0.0000000000000000     
   505.00000000000000      ,   510.00000000000000      ,   0.0000000000000000      ,   0.0000000000000000     
   510.00000000000000      ,   515.00000000000000      ,   0.0000000000000000      ,   0.0000000000000000     
