 # xl, xh, LO, dLO
   106.00000000000016      ,   111.50000000000018      ,   3.1664375850239771E-006 ,   2.0926122991921144E-009
   111.50000000000018      ,   117.00000000000021      ,   1.4652984210448907E-005 ,   4.4604992016011382E-009
   117.00000000000021      ,   122.50000000000024      ,   2.8762529133340649E-005 ,   6.1655752306975310E-009
   122.50000000000024      ,   128.00000000000028      ,   4.5640150945183954E-005 ,   7.9739882295737074E-009
   128.00000000000028      ,   133.50000000000031      ,   6.5703891890544428E-005 ,   9.1301519276049793E-009
   133.50000000000028      ,   139.00000000000031      ,   8.9535524335228192E-005 ,   1.0094159458173150E-008
   139.00000000000034      ,   144.50000000000037      ,   1.1785937761524815E-004 ,   1.1343523087242717E-008
   144.50000000000034      ,   150.00000000000037      ,   1.5151062451987943E-004 ,   1.2837901183249462E-008
   150.00000000000040      ,   155.50000000000043      ,   1.9145684883671129E-004 ,   1.4484728039901207E-008
   155.50000000000040      ,   161.00000000000043      ,   3.2387024163007768E-004 ,   1.8723516829608276E-008
   161.00000000000045      ,   166.50000000000048      ,   7.8972477478722906E-004 ,   2.8967691198238402E-008
   166.50000000000045      ,   172.00000000000048      ,   9.0756103325295213E-004 ,   3.0708563757485686E-008
   172.00000000000051      ,   177.50000000000054      ,   1.0443499653089278E-003 ,   3.3419166347779992E-008
   177.50000000000051      ,   183.00000000000054      ,   1.2031420284510557E-003 ,   3.6548344057293105E-008
   183.00000000000057      ,   188.50000000000060      ,   1.3873181980861436E-003 ,   4.0114172537630075E-008
   188.50000000000057      ,   194.00000000000060      ,   1.6001467819486764E-003 ,   4.4151249168340624E-008
   194.00000000000063      ,   199.50000000000065      ,   1.8448394188800325E-003 ,   4.8696390007044627E-008
   199.50000000000063      ,   205.00000000000065      ,   2.1240764045262323E-003 ,   5.3760279054065338E-008
   205.00000000000068      ,   210.50000000000071      ,   2.4403154450261962E-003 ,   5.9356351078727366E-008
   210.50000000000068      ,   216.00000000000071      ,   2.7934646876497673E-003 ,   6.5448233220109905E-008
   216.00000000000074      ,   221.50000000000077      ,   3.1799455734829347E-003 ,   7.1960607358094715E-008
   221.50000000000074      ,   227.00000000000077      ,   3.5976484269427842E-003 ,   7.8820547535218797E-008
   227.00000000000080      ,   232.50000000000082      ,   4.0433708002298703E-003 ,   8.5936670101437467E-008
   232.50000000000080      ,   238.00000000000082      ,   4.5114798375323964E-003 ,   9.3197756905885022E-008
   238.00000000000085      ,   243.50000000000088      ,   4.9948772625526142E-003 ,   1.0047346162841216E-007
   243.50000000000085      ,   249.00000000000088      ,   5.4854866701826415E-003 ,   1.0763807967042328E-007
   249.00000000000091      ,   254.50000000000094      ,   5.9738277868991128E-003 ,   1.1448959872743896E-007
   254.50000000000091      ,   260.00000000000091      ,   6.4488300199730970E-003 ,   1.2089852042990592E-007
   260.00000000000097      ,   265.50000000000102      ,   6.9036562875784170E-003 ,   1.2677253217526267E-007
   265.50000000000097      ,   271.00000000000102      ,   7.3281698076050191E-003 ,   1.3206010792182807E-007
   271.00000000000102      ,   276.50000000000102      ,   7.7029039761282335E-003 ,   1.3669019735830268E-007
   276.50000000000102      ,   282.00000000000102      ,   8.0226376349788794E-003 ,   1.4044338848444140E-007
   282.00000000000108      ,   287.50000000000114      ,   8.3196722314436353E-003 ,   1.4345780404194114E-007
   287.50000000000108      ,   293.00000000000114      ,   8.6006580895553256E-003 ,   1.4583915457635390E-007
   293.00000000000114      ,   298.50000000000114      ,   8.8774080219317097E-003 ,   1.4793326589008068E-007
   298.50000000000114      ,   304.00000000000114      ,   9.1539168798873017E-003 ,   1.4993182692521414E-007
   304.00000000000119      ,   309.50000000000125      ,   9.4192835526439814E-003 ,   1.5168154291562885E-007
   309.50000000000119      ,   315.00000000000125      ,   9.6623484452876048E-003 ,   1.5319678713364911E-007
   315.00000000000125      ,   320.50000000000125      ,   9.8854496652736306E-003 ,   1.5445828070969000E-007
   320.50000000000125      ,   326.00000000000125      ,   1.0089388007973668E-002 ,   1.5552363087583272E-007
   326.00000000000131      ,   331.50000000000136      ,   1.0275903241082495E-002 ,   1.5635258928464327E-007
   331.50000000000131      ,   337.00000000000136      ,   1.0445405027405019E-002 ,   1.5703841942349603E-007
   337.00000000000136      ,   342.50000000000136      ,   1.0603715018330526E-002 ,   1.5757236616571779E-007
   342.50000000000136      ,   348.00000000000136      ,   1.0754144303710848E-002 ,   1.5798145361471674E-007
   348.00000000000142      ,   353.50000000000148      ,   1.0898677098061173E-002 ,   1.5826930168931354E-007
   353.50000000000142      ,   359.00000000000148      ,   1.1039038537357607E-002 ,   1.5844652615168024E-007
   359.00000000000148      ,   364.50000000000148      ,   1.1176219173542281E-002 ,   1.5851206524424805E-007
   364.50000000000148      ,   370.00000000000148      ,   1.1311905575873957E-002 ,   1.5846367136256796E-007
   370.00000000000153      ,   375.50000000000159      ,   1.1448169460053160E-002 ,   1.5832675879873913E-007
   375.50000000000153      ,   381.00000000000159      ,   1.1578240363344412E-002 ,   1.5811803384944697E-007
   381.00000000000159      ,   386.50000000000159      ,   1.1690338044035031E-002 ,   1.5784702473245454E-007
   386.50000000000159      ,   392.00000000000159      ,   1.1768441315794629E-002 ,   1.5750277021032166E-007
   392.00000000000165      ,   397.50000000000171      ,   1.1759503105168413E-002 ,   1.5706965505543641E-007
   397.50000000000165      ,   403.00000000000171      ,   1.1645236648997710E-002 ,   1.5649927366604441E-007
   403.00000000000171      ,   408.50000000000171      ,   1.1650866130281065E-002 ,   1.5607511278872466E-007
   408.50000000000171      ,   414.00000000000171      ,   1.1816540542322502E-002 ,   1.5610614216748009E-007
   414.00000000000176      ,   419.50000000000182      ,   1.2084880246900697E-002 ,   1.5666959564726211E-007
   419.50000000000176      ,   425.00000000000182      ,   1.2423550521512138E-002 ,   1.5768891963694816E-007
   425.00000000000182      ,   430.50000000000182      ,   1.2745499049130778E-002 ,   1.5801801482767031E-007
   430.50000000000182      ,   436.00000000000182      ,   1.3009897501208094E-002 ,   1.5727489515090432E-007
   436.00000000000188      ,   441.50000000000193      ,   1.3169184222556623E-002 ,   1.5506003175471911E-007
   441.50000000000188      ,   447.00000000000193      ,   1.3160784474104006E-002 ,   1.5078197581443641E-007
   447.00000000000193      ,   452.50000000000193      ,   1.2930142784994431E-002 ,   1.4381388574941907E-007
   452.50000000000193      ,   458.00000000000193      ,   1.2413746142779181E-002 ,   1.3326098888321624E-007
   458.00000000000199      ,   463.50000000000205      ,   1.1621857410138976E-002 ,   1.1971384268214776E-007
   463.50000000000199      ,   469.00000000000205      ,   1.0521145772029750E-002 ,   1.0372414097751709E-007
   469.00000000000205      ,   474.50000000000205      ,   8.9633656681873466E-003 ,   8.4955998577373764E-008
   474.50000000000205      ,   480.00000000000205      ,   6.5743140541807653E-003 ,   6.1570390881373423E-008
   480.00000000000210      ,   485.50000000000216      ,   3.1289306602417300E-003 ,   3.2039005951958318E-008
   485.50000000000210      ,   491.00000000000216      ,   2.6665835777517116E-004 ,   6.0312641903484345E-009
   491.00000000000216      ,   496.50000000000216      ,   0.0000000000000000      ,   0.0000000000000000     
   496.50000000000216      ,   502.00000000000216      ,   0.0000000000000000      ,   0.0000000000000000     
   502.00000000000222      ,   507.50000000000227      ,   0.0000000000000000      ,   0.0000000000000000     
   507.50000000000222      ,   513.00000000000227      ,   0.0000000000000000      ,   0.0000000000000000     
   513.00000000000227      ,   518.50000000000227      ,   0.0000000000000000      ,   0.0000000000000000     
