 # xl, xh, LO, dLO
   140.00000000000000      ,   145.00000000000000      ,   4.8219783387188148E-006 ,   2.6903956939082863E-009
   145.00000000000000      ,   150.00000000000000      ,   1.5573917611694607E-005 ,   5.0600485275923481E-009
   150.00000000000000      ,   155.00000000000000      ,   2.8057018232214155E-005 ,   7.6234640390569048E-009
   155.00000000000000      ,   160.00000000000000      ,   4.2522260202794611E-005 ,   7.8111887598943219E-009
   160.00000000000000      ,   165.00000000000000      ,   1.9875574238421986E-004 ,   1.5591114783314173E-008
   165.00000000000000      ,   170.00000000000000      ,   3.5379945824693120E-004 ,   1.9594444557346160E-008
   170.00000000000000      ,   175.00000000000000      ,   4.8772353255928841E-004 ,   2.2634164888660638E-008
   175.00000000000000      ,   180.00000000000000      ,   6.2466200183197099E-004 ,   2.5740970785030379E-008
   180.00000000000000      ,   185.00000000000000      ,   7.6894586252775207E-004 ,   2.8805204578275052E-008
   185.00000000000000      ,   190.00000000000000      ,   8.8069059178632171E-004 ,   3.1118999981777776E-008
   190.00000000000000      ,   195.00000000000000      ,   9.8896781850155505E-004 ,   3.3352069850469067E-008
   195.00000000000000      ,   200.00000000000000      ,   1.1116176948059119E-003 ,   3.5833608459170991E-008
   200.00000000000000      ,   205.00000000000000      ,   1.2508641626672850E-003 ,   3.8600767643055480E-008
   205.00000000000000      ,   210.00000000000000      ,   1.4088406107521240E-003 ,   4.1678401352916347E-008
   210.00000000000000      ,   215.00000000000000      ,   1.5881564703444763E-003 ,   4.5111178947078189E-008
   215.00000000000000      ,   220.00000000000000      ,   1.7911220250072500E-003 ,   4.8929732069178745E-008
   220.00000000000000      ,   225.00000000000000      ,   2.0202092980414216E-003 ,   5.3159658981283392E-008
   225.00000000000000      ,   230.00000000000000      ,   2.2776640946334755E-003 ,   5.7837066868894376E-008
   230.00000000000000      ,   235.00000000000000      ,   2.5647876361489237E-003 ,   6.2957611421821540E-008
   235.00000000000000      ,   240.00000000000000      ,   2.8823102763640340E-003 ,   6.8524491541136971E-008
   240.00000000000000      ,   245.00000000000000      ,   3.2296083954392023E-003 ,   7.4509803675590776E-008
   245.00000000000000      ,   250.00000000000000      ,   3.6050491322553351E-003 ,   8.0872435791979803E-008
   250.00000000000000      ,   255.00000000000000      ,   4.0054084933204212E-003 ,   8.7542594219824308E-008
   255.00000000000000      ,   260.00000000000000      ,   4.4271541725247688E-003 ,   9.4443882226625681E-008
   260.00000000000000      ,   265.00000000000000      ,   4.8673164270748893E-003 ,   1.0150778227854595E-007
   265.00000000000000      ,   270.00000000000000      ,   5.3264678919526321E-003 ,   1.0868607014710959E-007
   270.00000000000000      ,   275.00000000000000      ,   5.7879594989515143E-003 ,   1.1586011342915997E-007
   275.00000000000000      ,   280.00000000000000      ,   6.1414247941776138E-003 ,   1.2231619188641106E-007
   280.00000000000000      ,   285.00000000000000      ,   6.4544208860886527E-003 ,   1.2798619171336305E-007
   285.00000000000000      ,   290.00000000000000      ,   6.7725471756667184E-003 ,   1.3309648297706803E-007
   290.00000000000000      ,   295.00000000000000      ,   7.0846379156181043E-003 ,   1.3769766013342180E-007
   295.00000000000000      ,   300.00000000000000      ,   7.3847023179030502E-003 ,   1.4182666970697283E-007
   300.00000000000000      ,   305.00000000000000      ,   7.6694465557625314E-003 ,   1.4547951979099365E-007
   305.00000000000000      ,   310.00000000000000      ,   7.9392671566607294E-003 ,   1.4870689232968146E-007
   310.00000000000000      ,   315.00000000000000      ,   8.1944450135747020E-003 ,   1.5164161077191019E-007
   315.00000000000000      ,   320.00000000000000      ,   8.4363865362855079E-003 ,   1.5401804058252683E-007
   320.00000000000000      ,   325.00000000000000      ,   8.6671576757254079E-003 ,   1.5600239444746633E-007
   325.00000000000000      ,   330.00000000000000      ,   8.8914974877170455E-003 ,   1.5781761467224383E-007
   330.00000000000000      ,   335.00000000000000      ,   9.1114159834448233E-003 ,   1.5942360848124025E-007
   335.00000000000000      ,   340.00000000000000      ,   9.3312951981030217E-003 ,   1.6089662877731717E-007
   340.00000000000000      ,   345.00000000000000      ,   9.5521709099553424E-003 ,   1.6223443442825100E-007
   345.00000000000000      ,   350.00000000000000      ,   9.7767626274201450E-003 ,   1.6346107157361331E-007
   350.00000000000000      ,   355.00000000000000      ,   1.0006968744431339E-002 ,   1.6458132622610883E-007
   355.00000000000000      ,   360.00000000000000      ,   1.0245864805879683E-002 ,   1.6561581447287759E-007
   360.00000000000000      ,   365.00000000000000      ,   1.0496377814353742E-002 ,   1.6659054066089352E-007
   365.00000000000000      ,   370.00000000000000      ,   1.0761526570013610E-002 ,   1.6751279244238891E-007
   370.00000000000000      ,   375.00000000000000      ,   1.1044016270217678E-002 ,   1.6838737194499864E-007
   375.00000000000000      ,   380.00000000000000      ,   1.1349012380155683E-002 ,   1.6925305753428425E-007
   380.00000000000000      ,   385.00000000000000      ,   1.1679933371430159E-002 ,   1.7011023016297326E-007
   385.00000000000000      ,   390.00000000000000      ,   1.2041426999185326E-002 ,   1.7096977477458408E-007
   390.00000000000000      ,   395.00000000000000      ,   1.2439982127313697E-002 ,   1.7185362936323227E-007
   395.00000000000000      ,   400.00000000000000      ,   1.2435874595611655E-002 ,   1.7249508689995695E-007
   400.00000000000000      ,   405.00000000000000      ,   1.2053345261232317E-002 ,   1.7248858970203284E-007
   405.00000000000000      ,   410.00000000000000      ,   1.1818131116407102E-002 ,   1.7236117803260635E-007
   410.00000000000000      ,   415.00000000000000      ,   1.1701970789363152E-002 ,   1.7236321035922317E-007
   415.00000000000000      ,   420.00000000000000      ,   1.1699080554964469E-002 ,   1.7269017423739611E-007
   420.00000000000000      ,   425.00000000000000      ,   1.1826783665592571E-002 ,   1.7365224236236880E-007
   425.00000000000000      ,   430.00000000000000      ,   1.2076531483209344E-002 ,   1.7503588986196251E-007
   430.00000000000000      ,   435.00000000000000      ,   1.2426902318585620E-002 ,   1.7626589732539665E-007
   435.00000000000000      ,   440.00000000000000      ,   1.2861506362222440E-002 ,   1.7702247221389186E-007
   440.00000000000000      ,   445.00000000000000      ,   1.3374685123643260E-002 ,   1.7712437942131037E-007
   445.00000000000000      ,   450.00000000000000      ,   1.3966743931500603E-002 ,   1.7639991765156298E-007
   450.00000000000000      ,   455.00000000000000      ,   1.4642381628363600E-002 ,   1.7463906828652365E-007
   455.00000000000000      ,   460.00000000000000      ,   1.5399032653143933E-002 ,   1.7149722723743018E-007
   460.00000000000000      ,   465.00000000000000      ,   1.6237477496353219E-002 ,   1.6647701433633620E-007
   465.00000000000000      ,   470.00000000000000      ,   1.7188767088834721E-002 ,   1.5886440255367173E-007
   470.00000000000000      ,   475.00000000000000      ,   1.8295930113962935E-002 ,   1.4737260327763333E-007
   475.00000000000000      ,   480.00000000000000      ,   1.9003135223820317E-002 ,   1.2844428897891626E-007
   480.00000000000000      ,   485.00000000000000      ,   1.5533582760249093E-002 ,   8.8140912459667542E-008
   485.00000000000000      ,   490.00000000000000      ,   3.9151861019110744E-003 ,   2.8195949768782399E-008
   490.00000000000000      ,   495.00000000000000      ,   0.0000000000000000      ,   0.0000000000000000     
   495.00000000000000      ,   500.00000000000000      ,   0.0000000000000000      ,   0.0000000000000000     
   500.00000000000000      ,   505.00000000000000      ,   0.0000000000000000      ,   0.0000000000000000     
   505.00000000000000      ,   510.00000000000000      ,   0.0000000000000000      ,   0.0000000000000000     
   510.00000000000000      ,   515.00000000000000      ,   0.0000000000000000      ,   0.0000000000000000     
