 # xl, xh, LO, dLO, NLOPSnovp, dNLOPSnovp, NLOPSvp, dNLOPSvp, NLOPSvplt, dNLOPSvplt
   49.999999999999758      ,   50.999999999999744      ,   1.0238025639721251E-002 ,   2.3174320323592936E-007 ,   1.1542951855999822E-002 ,   1.2519804296740524E-006 ,   1.2100509806420332E-002 ,   3.5737122859298899E-006 ,   1.1824485216372766E-002 ,   1.2858464424486041E-006
   50.999999999999744      ,   51.999999999999730      ,   1.0284524141662773E-002 ,   2.3119711871799561E-007 ,   1.1591268836249594E-002 ,   1.2211209831212749E-005 ,   1.2145277838335609E-002 ,   1.6937101235854535E-006 ,   1.1874126655873139E-002 ,   1.2475594274369413E-005
   51.999999999999730      ,   52.999999999999716      ,   1.0326375838508558E-002 ,   2.3070817734173299E-007 ,   1.1612000091112872E-002 ,   1.3015779616509971E-006 ,   1.2203812274022894E-002 ,   1.6158694508200739E-005 ,   1.1895613751668869E-002 ,   1.3387109152112099E-006
   52.999999999999716      ,   53.999999999999702      ,   1.0366625972951305E-002 ,   2.3023109857700390E-007 ,   1.1647773523538810E-002 ,   3.4678993957100130E-006 ,   1.2233248921288563E-002 ,   9.2364521905785538E-007 ,   1.1932919822514567E-002 ,   3.5767396746697656E-006
   53.999999999999702      ,   54.999999999999687      ,   1.0406672235651365E-002 ,   2.2982133438331441E-007 ,   1.1679312124603342E-002 ,   2.1007118723776881E-006 ,   1.2278550668595895E-002 ,   9.9648709618860639E-007 ,   1.1965085436491130E-002 ,   2.1664501056608294E-006
   54.999999999999687      ,   55.999999999999673      ,   1.0445765983104609E-002 ,   2.2949280111775973E-007 ,   1.1711565105940550E-002 ,   1.2252066662969555E-006 ,   1.2321693588987449E-002 ,   1.6281339635845423E-006 ,   1.1998737974674592E-002 ,   1.2610538454392017E-006
   55.999999999999673      ,   56.999999999999659      ,   1.0485323556416641E-002 ,   2.2920635193458402E-007 ,   1.1752771057371214E-002 ,   6.9828805075211914E-006 ,   1.2368841522788674E-002 ,   2.5438574438687282E-006 ,   1.2041142665499306E-002 ,   7.0093726757461465E-006
   56.999999999999659      ,   57.999999999999645      ,   1.0525821284309513E-002 ,   2.2893686117706052E-007 ,   1.1782254849340935E-002 ,   1.1368286767178358E-006 ,   1.2411629671513949E-002 ,   6.0931495901904128E-007 ,   1.2071852282308485E-002 ,   1.1688176959414058E-006
   57.999999999999645      ,   58.999999999999631      ,   1.0565146612017679E-002 ,   2.2866763643070106E-007 ,   1.1819114337056773E-002 ,   1.2726357071582460E-006 ,   1.2459427741972841E-002 ,   6.7194697326957449E-007 ,   1.2109702957981068E-002 ,   1.3093706799276251E-006
   58.999999999999631      ,   59.999999999999616      ,   1.0606503489691351E-002 ,   2.2851182447030885E-007 ,   1.1862130800198071E-002 ,   3.3725838191980032E-006 ,   1.2508029791488219E-002 ,   7.7194282746597411E-007 ,   1.2154011981214734E-002 ,   3.4668986600696515E-006
   59.999999999999616      ,   60.999999999999602      ,   1.0648208689606134E-002 ,   2.2842873834189711E-007 ,   1.1894770023311369E-002 ,   1.5749533643587826E-006 ,   1.2559542305642876E-002 ,   4.0294436590736512E-006 ,   1.2187642329967203E-002 ,   1.6237936975159141E-006
   60.999999999999602      ,   61.999999999999588      ,   1.0689752149494299E-002 ,   2.2834991289131183E-007 ,   1.1935652147721675E-002 ,   1.6221606875557310E-006 ,   1.2604939618155064E-002 ,   7.7308981251649872E-007 ,   1.2230042899386633E-002 ,   1.6740695602610895E-006
   61.999999999999588      ,   62.999999999999574      ,   1.0731862544573475E-002 ,   2.2837171060378256E-007 ,   1.1976183088391060E-002 ,   1.7807853607809104E-006 ,   1.2654444308026248E-002 ,   1.2366998832543448E-006 ,   1.2271904284126656E-002 ,   1.8529522883790447E-006
   62.999999999999574      ,   63.999999999999559      ,   1.0773450598956577E-002 ,   2.2835763145195843E-007 ,   1.2015043154392170E-002 ,   1.2145127112246461E-006 ,   1.2704047801338294E-002 ,   7.8751634523629644E-007 ,   1.2311686615181120E-002 ,   1.2487696215978649E-006
   63.999999999999559      ,   64.999999999999545      ,   1.0815974042899084E-002 ,   2.2849653981567852E-007 ,   1.2057388251742407E-002 ,   1.5550874354509182E-006 ,   1.2759566846604359E-002 ,   2.9628389797551454E-006 ,   1.2355541122626847E-002 ,   1.5943737344680615E-006
   64.999999999999545      ,   65.999999999999531      ,   1.0857926108625265E-002 ,   2.2864341133873088E-007 ,   1.2097958322611636E-002 ,   1.6094914169394023E-006 ,   1.2804692778118958E-002 ,   1.4674710257084833E-006 ,   1.2397425924857366E-002 ,   1.6579804051892009E-006
   65.999999999999531      ,   66.999999999999517      ,   1.0899396183846222E-002 ,   2.2884881385063495E-007 ,   1.2134696151293515E-002 ,   1.1596748664919444E-006 ,   1.2880052143986175E-002 ,   2.6726778741849005E-005 ,   1.2435376464811316E-002 ,   1.1928136635037328E-006
   66.999999999999517      ,   67.999999999999503      ,   1.0941697921169518E-002 ,   2.2920120549377531E-007 ,   1.2178483800374772E-002 ,   1.4408286934218798E-006 ,   1.2905006206992231E-002 ,   1.1648513476593616E-006 ,   1.2480827660201201E-002 ,   1.4825716038900561E-006
   67.999999999999503      ,   68.999999999999488      ,   1.0984365505280822E-002 ,   2.2968303779599313E-007 ,   1.2226519000160559E-002 ,   3.6640044167138814E-006 ,   1.2953717968775787E-002 ,   8.2951962472178408E-007 ,   1.2530327237539813E-002 ,   3.8316586520317549E-006
   68.999999999999488      ,   69.999999999999474      ,   1.1027063914029842E-002 ,   2.3031707383290813E-007 ,   1.2262478096957029E-002 ,   1.5616293186971226E-006 ,   1.3003710852871513E-002 ,   8.8917263733459808E-007 ,   1.2567601480663904E-002 ,   1.6168563875950724E-006
   69.999999999999474      ,   70.999999999999460      ,   1.1069542031107904E-002 ,   2.3098663246269372E-007 ,   1.2306162080688942E-002 ,   2.5448334829513678E-006 ,   1.3055661047700944E-002 ,   1.6038126573631504E-006 ,   1.2612432311918742E-002 ,   2.6140229422573073E-006
   70.999999999999460      ,   71.999999999999446      ,   1.1111569911280574E-002 ,   2.3164227381139635E-007 ,   1.2353479015420287E-002 ,   4.6895920324715304E-006 ,   1.3112567320580503E-002 ,   5.7045187128269603E-006 ,   1.2661335437910750E-002 ,   4.8047599994449172E-006
   71.999999999999446      ,   72.999999999999432      ,   1.1152540651902835E-002 ,   2.3235313765189292E-007 ,   1.2381748867454363E-002 ,   2.1941382760922383E-006 ,   1.3152696384444563E-002 ,   1.4856054924098570E-006 ,   1.2690337160683778E-002 ,   2.2447437633892374E-006
   72.999999999999432      ,   73.999999999999417      ,   1.1191791142048603E-002 ,   2.3296453040044582E-007 ,   1.2420821872158802E-002 ,   1.3225972870406441E-006 ,   1.3198615738630352E-002 ,   9.7087176470114100E-007 ,   1.2730827325678295E-002 ,   1.3644455984371137E-006
   73.999999999999417      ,   74.999999999999403      ,   1.1227929754732203E-002 ,   2.3344628757985816E-007 ,   1.2457789685520849E-002 ,   1.5364043365000144E-006 ,   1.3242081563362091E-002 ,   7.9206107869512220E-007 ,   1.2769007283463042E-002 ,   1.5757997994859549E-006
   74.999999999999403      ,   75.999999999999389      ,   1.1262264539528156E-002 ,   2.3395603428806780E-007 ,   1.2491992853898414E-002 ,   3.3622473961815744E-006 ,   1.3286355383802944E-002 ,   1.8919085384189532E-006 ,   1.2804581589745151E-002 ,   3.4457223744922570E-006
   75.999999999999389      ,   76.999999999999375      ,   1.1293451426269044E-002 ,   2.3432948265790119E-007 ,   1.2521470903933020E-002 ,   1.3723881564022043E-006 ,   1.3328088493020364E-002 ,   5.2484168014934169E-006 ,   1.2837508451239904E-002 ,   2.9241685990972373E-006
   76.999999999999375      ,   77.999999999999361      ,   1.1322931345165037E-002 ,   2.3471832418277654E-007 ,   1.2566390285446987E-002 ,   1.4805980321456697E-005 ,   1.3359918170555162E-002 ,   2.3470010474247047E-006 ,   1.2881624910429117E-002 ,   1.5182282385684136E-005
   77.999999999999361      ,   78.999999999999346      ,   1.1349530112376962E-002 ,   2.3505679423702145E-007 ,   1.2572026082978371E-002 ,   1.2244699602140463E-006 ,   1.3391200504326418E-002 ,   7.8896903636479877E-007 ,   1.2887683767743364E-002 ,   1.2618451221547639E-006
   78.999999999999346      ,   79.999999999999332      ,   1.1373640224236594E-002 ,   2.3541798674983110E-007 ,   1.2596157523594248E-002 ,   1.4616348490674531E-006 ,   1.3423300772188744E-002 ,   1.1134839192558825E-006 ,   1.2912622617315815E-002 ,   1.4983857630877848E-006
   79.999999999999332      ,   80.999999999999318      ,   1.1396367412978510E-002 ,   2.3580180706699025E-007 ,   1.2616629131235332E-002 ,   1.2346195253649185E-006 ,   1.3452556039283541E-002 ,   2.3181304747851861E-006 ,   1.2934099302219913E-002 ,   1.2708527058840066E-006
   80.999999999999318      ,   81.999999999999304      ,   1.1416766442422052E-002 ,   2.3621382680782951E-007 ,   1.2637742435816847E-002 ,   4.8326954290408166E-006 ,   1.3481562297605115E-002 ,   1.9105773983723620E-006 ,   1.2956034875531437E-002 ,   5.0266166023573202E-006
   81.999999999999304      ,   82.999999999999289      ,   1.1435138839370128E-002 ,   2.3656606316363453E-007 ,   1.2653505807626834E-002 ,   1.4651472502800482E-006 ,   1.3503706476097768E-002 ,   6.8959470359189740E-007 ,   1.2972535515323928E-002 ,   1.5172244161955152E-006
   82.999999999999289      ,   83.999999999999275      ,   1.1451093339204969E-002 ,   2.3698853657711541E-007 ,   1.2669250171165084E-002 ,   1.2766091633189281E-006 ,   1.3528136175357648E-002 ,   1.2073367712856175E-006 ,   1.2989129626985469E-002 ,   1.3177846012084417E-006
   83.999999999999275      ,   84.999999999999261      ,   1.1464867954382589E-002 ,   2.3736145768460635E-007 ,   1.2691544480696733E-002 ,   6.7467055756181008E-006 ,   1.3548746605527974E-002 ,   1.0353146817510235E-006 ,   1.3012356518452740E-002 ,   6.9050970394737414E-006
   84.999999999999261      ,   85.999999999999247      ,   1.1476787335890743E-002 ,   2.3769397940466545E-007 ,   1.2691311228188184E-002 ,   1.2004492770364916E-006 ,   1.3568730117153475E-002 ,   2.5120118392008304E-006 ,   1.3012689447085873E-002 ,   1.2382082363376179E-006
   85.999999999999247      ,   86.999999999999233      ,   1.1485792047365582E-002 ,   2.3794040520055364E-007 ,   1.2699188874253755E-002 ,   1.4175924686902039E-006 ,   1.3591973218716564E-002 ,   9.2407466444702410E-006 ,   1.3021154770485760E-002 ,   1.4626663757601126E-006
   86.999999999999233      ,   87.999999999999218      ,   1.1492997616714387E-002 ,   2.3814941858623947E-007 ,   1.2714469288125956E-002 ,   4.8244275095805238E-006 ,   1.3599802560854237E-002 ,   1.3361087623614516E-006 ,   1.3037475611032169E-002 ,   4.9920925981846283E-006
   87.999999999999218      ,   88.999999999999204      ,   1.1497415934152726E-002 ,   2.3826907479119884E-007 ,   1.2712469716019021E-002 ,   1.4694494650673451E-006 ,   1.3609842623345129E-002 ,   9.4468240868395810E-007 ,   1.3035738463020891E-002 ,   1.5157975096231034E-006
   88.999999999999204      ,   89.999999999999190      ,   1.1499100979957761E-002 ,   2.3826323548642540E-007 ,   1.2712298175891722E-002 ,   1.2633282003107390E-006 ,   1.3621376263697658E-002 ,   1.5238162744289613E-006 ,   1.3036029845949995E-002 ,   1.3026912641177172E-006
   89.999999999999190      ,   90.999999999999176      ,   1.1499487969654033E-002 ,   2.3833182422130257E-007 ,   1.2715096520656182E-002 ,   1.2912407680073574E-006 ,   1.3621128065252616E-002 ,   2.2622872696053150E-006 ,   1.3038784674593424E-002 ,   1.3312277697495768E-006
   90.999999999999176      ,   91.999999999999162      ,   1.1497239604613706E-002 ,   2.3825361188853449E-007 ,   1.2713151410033974E-002 ,   1.2707057343149929E-006 ,   1.3611154168710532E-002 ,   9.6267821053157782E-007 ,   1.3036497977649379E-002 ,   1.3127369129544770E-006
   91.999999999999162      ,   92.999999999999147      ,   1.1492518026866010E-002 ,   2.3813343251429195E-007 ,   1.2708716398630533E-002 ,   1.1846262843120403E-006 ,   1.3596501452031519E-002 ,   6.3843790643097213E-007 ,   1.3031582732677885E-002 ,   1.2207755542984191E-006
   92.999999999999147      ,   93.999999999999133      ,   1.1485702212530081E-002 ,   2.3793095361422004E-007 ,   1.2701741110965621E-002 ,   1.7983293366824150E-006 ,   1.3584916626550571E-002 ,   2.8108930033796243E-006 ,   1.3023869150278556E-002 ,   1.8557999873682342E-006
   93.999999999999133      ,   94.999999999999119      ,   1.1476687196739071E-002 ,   2.3770012908503132E-007 ,   1.2692599440105926E-002 ,   1.2055152798674646E-006 ,   1.3565574050948912E-002 ,   6.0439327477946168E-007 ,   1.3013812001379471E-002 ,   1.2421556348165255E-006
   94.999999999999119      ,   95.999999999999105      ,   1.1465486945417856E-002 ,   2.3739251174327614E-007 ,   1.2682715766701476E-002 ,   1.4318786639922131E-006 ,   1.3559010176872149E-002 ,   1.2239081777280939E-005 ,   1.3003406621911868E-002 ,   1.4776787114536967E-006
   95.999999999999105      ,   96.999999999999091      ,   1.1450796633984423E-002 ,   2.3691948551159257E-007 ,   1.2667992582433335E-002 ,   2.0158350180723502E-006 ,   1.3524433918743292E-002 ,   6.4021095983058163E-007 ,   1.2987634662524642E-002 ,   2.0782313322598333E-006
   96.999999999999091      ,   97.999999999999076      ,   1.1435251593500666E-002 ,   2.3661647662356658E-007 ,   1.2652025709236393E-002 ,   1.2848613243398509E-006 ,   1.3502864736751836E-002 ,   1.0355746746079970E-006 ,   1.2971230910129007E-002 ,   1.3245084328116755E-006
   97.999999999999076      ,   98.999999999999062      ,   1.1416773813744422E-002 ,   2.3621244225033099E-007 ,   1.2635374350517911E-002 ,   1.2039419735108626E-006 ,   1.3477442011072156E-002 ,   8.7508765347864899E-007 ,   1.2953652393084469E-002 ,   1.2401868820499562E-006
   98.999999999999062      ,   99.999999999999048      ,   1.1396376359221057E-002 ,   2.3585540884501581E-007 ,   1.2619025793411287E-002 ,   1.7831435608549209E-006 ,   1.3450915713384188E-002 ,   8.8339662951017285E-007 ,   1.2936259180363221E-002 ,   1.8366399894869857E-006
   99.999999999999048      ,   100.99999999999903      ,   1.1374291639099362E-002 ,   2.3546146363599403E-007 ,   1.2595931220508241E-002 ,   1.6110332544348181E-006 ,   1.3422489530625687E-002 ,   2.1923536488220204E-006 ,   1.2912650187322851E-002 ,   1.6642088420069492E-006
   100.99999999999903      ,   101.99999999999902      ,   1.1349505696610911E-002 ,   2.3503496261576300E-007 ,   1.2569076395897686E-002 ,   1.2677648183000958E-006 ,   1.3395936843139304E-002 ,   4.4343784614614372E-006 ,   1.2884502802042693E-002 ,   1.3019720348668118E-006
   101.99999999999902      ,   102.99999999999901      ,   1.1322828059833178E-002 ,   2.3471636686493790E-007 ,   1.2546568226936790E-002 ,   1.9769546734987229E-006 ,   1.3354880476662919E-002 ,   9.8050148880604976E-007 ,   1.2861113400586689E-002 ,   2.0325504196603698E-006
   102.99999999999901      ,   103.99999999999899      ,   1.1293747916722708E-002 ,   2.3435332474809187E-007 ,   1.2514808786568535E-002 ,   1.2032338192245789E-006 ,   1.3318158293518043E-002 ,   6.7256804572168557E-007 ,   1.2828174716492851E-002 ,   1.2382805614930754E-006
   103.99999999999899      ,   104.99999999999898      ,   1.1262077991801140E-002 ,   2.3397216013440986E-007 ,   1.2486579325440669E-002 ,   1.2683241296646407E-006 ,   1.3282883424011788E-002 ,   1.8892574883593950E-006 ,   1.2799026191352637E-002 ,   1.3086228421306234E-006
   104.99999999999898      ,   105.99999999999896      ,   1.1228450070721638E-002 ,   2.3356035815336390E-007 ,   1.2457078354001994E-002 ,   1.8404656918877997E-006 ,   1.3241126264208206E-002 ,   1.5553532601905054E-006 ,   1.2768587137484041E-002 ,   1.8934052442829809E-006
   105.99999999999896      ,   106.99999999999895      ,   1.1191958375701701E-002 ,   2.3296521200325774E-007 ,   1.2419926173058723E-002 ,   1.3518912777020473E-006 ,   1.3201421074109085E-002 ,   5.4496121948763219E-006 ,   1.2729764639829498E-002 ,   1.3931162530827365E-006
   106.99999999999895      ,   107.99999999999893      ,   1.1152614163479523E-002 ,   2.3234268899716108E-007 ,   1.2380631762989775E-002 ,   1.3836724310302793E-006 ,   1.3151036364701997E-002 ,   9.9944927467075812E-007 ,   1.2689426508354197E-002 ,   1.4228752184749424E-006
   107.99999999999893      ,   108.99999999999892      ,   1.1111697314490333E-002 ,   2.3167377262776064E-007 ,   1.2342105982611231E-002 ,   2.1849013961892246E-006 ,   1.3104691070265861E-002 ,   2.2545529433353819E-006 ,   1.2649620046942025E-002 ,   2.2705078385095805E-006
   108.99999999999892      ,   109.99999999999891      ,   1.1069406820508687E-002 ,   2.3096324443652517E-007 ,   1.2304261197492202E-002 ,   2.6824626775010947E-006 ,   1.3056186349346898E-002 ,   3.1850022081290272E-006 ,   1.2610476800266985E-002 ,   2.7606778863913950E-006
   109.99999999999891      ,   110.99999999999889      ,   1.1026773506747618E-002 ,   2.3026784023424014E-007 ,   1.2262575270645091E-002 ,   1.7720777561180962E-006 ,   1.3002172809782834E-002 ,   6.8971121911077759E-007 ,   1.2567423265235930E-002 ,   1.8122618686484700E-006
   110.99999999999889      ,   111.99999999999888      ,   1.0983952172544423E-002 ,   2.2967764873724543E-007 ,   1.2220516486518448E-002 ,   1.4423079083785624E-006 ,   1.2952314024147260E-002 ,   1.1536246383482964E-006 ,   1.2524095536149403E-002 ,   1.4830016145662819E-006
   111.99999999999888      ,   112.99999999999886      ,   1.0941327218335685E-002 ,   2.2918096975286272E-007 ,   1.2177569455144742E-002 ,   1.1540282926880305E-006 ,   1.2900856214745732E-002 ,   6.2937708350379259E-007 ,   1.2479689588141316E-002 ,   1.1864848921894366E-006
   112.99999999999886      ,   113.99999999999885      ,   1.0899959464388737E-002 ,   2.2887356124573097E-007 ,   1.2135190015029749E-002 ,   1.2959309173567859E-006 ,   1.2851974576471119E-002 ,   6.8716745204725189E-007 ,   1.2435831775296015E-002 ,   1.3337567545685405E-006
   113.99999999999885      ,   114.99999999999883      ,   1.0857666160801508E-002 ,   2.2862313490553032E-007 ,   1.2094449824195488E-002 ,   1.1471385346752187E-006 ,   1.2801045961267044E-002 ,   9.0781583328165789E-007 ,   1.2393764778907473E-002 ,   1.1796045929122162E-006
   114.99999999999883      ,   115.99999999999882      ,   1.0815467388731256E-002 ,   2.2847239844784289E-007 ,   1.2051170664003784E-002 ,   1.1853321451443295E-006 ,   1.2750886223082887E-002 ,   1.1626926566541063E-006 ,   1.2349077347103136E-002 ,   1.2193993544740451E-006
   115.99999999999882      ,   116.99999999999881      ,   1.0773586354322370E-002 ,   2.2841436475083101E-007 ,   1.2015728128871301E-002 ,   1.5395617947926809E-006 ,   1.2705240803033301E-002 ,   1.4432643751202281E-006 ,   1.2312742552209578E-002 ,   1.5850817837872946E-006
   116.99999999999881      ,   117.99999999999879      ,   1.0731594094106615E-002 ,   2.2834429916588118E-007 ,   1.1971942289047162E-002 ,   1.6686283484852522E-006 ,   1.2671652518803452E-002 ,   1.9039716163164520E-005 ,   1.2267466872851414E-002 ,   1.7148014147289508E-006
   117.99999999999879      ,   118.99999999999878      ,   1.0689464838719825E-002 ,   2.2835129261983857E-007 ,   1.1933038864651954E-002 ,   1.2300737603291616E-006 ,   1.2605181628530972E-002 ,   2.3027133797533358E-006 ,   1.2227320233148589E-002 ,   1.2653224782212611E-006
   118.99999999999878      ,   119.99999999999876      ,   1.0648243529896829E-002 ,   2.2845328219028140E-007 ,   1.1895516115596260E-002 ,   2.0484787719432302E-006 ,   1.2731620028559544E-002 ,   1.6898541205174569E-004 ,   1.2188862693073461E-002 ,   2.1124496906744321E-006
   119.99999999999876      ,   120.99999999999875      ,   1.0606655292212599E-002 ,   2.2850915751574532E-007 ,   1.1856466541343905E-002 ,   1.2984355418350421E-006 ,   1.2505650187234554E-002 ,   6.5472543976773681E-007 ,   1.2148385474592977E-002 ,   1.3359633994021959E-006
   120.99999999999875      ,   121.99999999999874      ,   1.0565763915869948E-002 ,   2.2867029796152810E-007 ,   1.1817768588900414E-002 ,   2.6348853167776394E-006 ,   1.2457992880681326E-002 ,   8.1215239219110177E-007 ,   1.2108588659261147E-002 ,   2.7201476303749021E-006
   121.99999999999874      ,   122.99999999999872      ,   1.0525932842614468E-002 ,   2.2896466578838223E-007 ,   1.1780385869009903E-002 ,   1.4939023988164648E-006 ,   1.2412833185104409E-002 ,   1.4313280592246810E-006 ,   1.2070112765681477E-002 ,   1.5383190815623355E-006
   122.99999999999872      ,   123.99999999999871      ,   1.0485202411049738E-002 ,   2.2920169280525515E-007 ,   1.1742303193966313E-002 ,   1.1425763098722316E-006 ,   1.2363891808415246E-002 ,   6.6410764948597904E-007 ,   1.2030419627084987E-002 ,   1.1748758011083497E-006
   123.99999999999871      ,   124.99999999999869      ,   1.0445721211930917E-002 ,   2.2944951365445017E-007 ,   1.1708779357304990E-002 ,   1.1542812234297408E-006 ,   1.2318437402865852E-002 ,   6.3896999318620318E-007 ,   1.1995587329545681E-002 ,   1.1869118364443967E-006
   124.99999999999869      ,   125.99999999999868      ,   1.0406734704796453E-002 ,   2.2982481560567819E-007 ,   1.1675870519397447E-002 ,   1.3432113310874428E-006 ,   1.2274404664552515E-002 ,   6.5044705252480145E-007 ,   1.1961822223094712E-002 ,   1.3849603916314244E-006
   125.99999999999868      ,   126.99999999999866      ,   1.0366730133422361E-002 ,   2.3022878216406887E-007 ,   1.1642587060949236E-002 ,   1.2004867695733674E-006 ,   1.2232044725556725E-002 ,   8.2995086012814257E-007 ,   1.1927459792450610E-002 ,   1.2354098604856324E-006
   126.99999999999866      ,   127.99999999999865      ,   1.0326182970307157E-002 ,   2.3068474515441022E-007 ,   1.1609745994089518E-002 ,   1.1633992966697150E-006 ,   1.2197318336583681E-002 ,   1.0170123553606701E-005 ,   1.1893426815101676E-002 ,   1.1962798639839094E-006
   127.99999999999865      ,   128.99999999999864      ,   1.0284478812958560E-002 ,   2.3117213576226521E-007 ,   1.1577394346156783E-002 ,   1.3872563613339542E-006 ,   1.2235997145615107E-002 ,   9.3838415974924853E-005 ,   1.1859756628539525E-002 ,   1.4290523358953678E-006
   128.99999999999864      ,   129.99999999999864      ,   1.0237900006970136E-002 ,   2.3170977272301202E-007 ,   1.1540764899912270E-002 ,   1.2152916926496550E-006 ,   1.2097038280166693E-002 ,   2.1737779845245883E-006 ,   1.1822147068795023E-002 ,   1.2508945811602808E-006
