 # xl, xh, LO, dLO, NLOPSnovp, dNLOPSnovp, NLOPSvp, dNLOPSvp, NLOPSvplt, dNLOPSvplt
   49.999999999999758      ,   50.999999999999744      ,   2.7735632779352531E-003 ,   1.1937062041934678E-007 ,   3.4472150954352977E-003 ,   1.3203057673762179E-006 ,   3.6246638116837998E-003 ,   6.1132882706895466E-007 ,   3.5301926911575168E-003 ,   1.3597924432431562E-006
   50.999999999999744      ,   51.999999999999730      ,   3.1076609594796094E-003 ,   1.2228708879599703E-007 ,   3.7904230857754547E-003 ,   1.5089401632402920E-006 ,   3.9984681823825663E-003 ,   3.5843813016230793E-006 ,   3.8824204728626546E-003 ,   1.5857830303524709E-006
   51.999999999999730      ,   52.999999999999716      ,   3.4225985140645303E-003 ,   1.2499345292513530E-007 ,   4.1201756675860596E-003 ,   1.2044591209258233E-006 ,   4.3585630403248426E-003 ,   1.2233689264974231E-005 ,   4.2204897455920976E-003 ,   1.2482026417165733E-006
   52.999999999999716      ,   53.999999999999702      ,   3.7280153187688979E-003 ,   1.2786971201697351E-007 ,   4.4406043554751848E-003 ,   8.1533236084229604E-007 ,   4.6940258903137785E-003 ,   3.3343770847377052E-006 ,   4.5489144814865271E-003 ,   8.3810657174919755E-007
   53.999999999999702      ,   54.999999999999687      ,   4.0266114372407092E-003 ,   1.3074516570191584E-007 ,   4.7605608714055923E-003 ,   3.3651820084951284E-006 ,   5.0350735078476530E-003 ,   2.8095890950236433E-006 ,   4.8771184635684490E-003 ,   3.5282184479129161E-006
   54.999999999999687      ,   55.999999999999673      ,   4.3214689410550960E-003 ,   1.3375202499244622E-007 ,   5.0738301368777362E-003 ,   1.0572932691339463E-006 ,   5.3695026997016924E-003 ,   1.3920505489968031E-006 ,   5.1982952718826695E-003 ,   1.0832080854497932E-006
   55.999999999999673      ,   56.999999999999659      ,   4.6127388416710331E-003 ,   1.3681848265597355E-007 ,   5.3867770965097513E-003 ,   1.0567172208212317E-006 ,   5.7031389961185348E-003 ,   8.7032967899558160E-007 ,   5.5189833209373452E-003 ,   1.0883927775368713E-006
   56.999999999999659      ,   57.999999999999645      ,   4.9002172821713151E-003 ,   1.4000585833650729E-007 ,   5.6965697270260213E-003 ,   7.6420459053505054E-007 ,   6.0328892003945712E-003 ,   7.7208128229090770E-007 ,   5.8366945248950076E-003 ,   7.8543426157490520E-007
   57.999999999999645      ,   58.999999999999631      ,   5.1827888566875289E-003 ,   1.4312999366003397E-007 ,   6.0034107704890344E-003 ,   2.3302978671673216E-006 ,   6.3594514751398800E-003 ,   1.0619811563718066E-006 ,   6.1513143410707330E-003 ,   2.3948083066877685E-006
   58.999999999999631      ,   59.999999999999616      ,   5.4585993738623731E-003 ,   1.4598206453227006E-007 ,   6.3000941877869570E-003 ,   1.1589845211605237E-006 ,   6.6763818778831537E-003 ,   6.2335821376351144E-007 ,   6.4554671515351901E-003 ,   1.1941689226222078E-006
   59.999999999999616      ,   60.999999999999602      ,   5.7292327087200860E-003 ,   1.4866152708082255E-007 ,   6.5910941764037020E-003 ,   8.6911758328735181E-007 ,   6.9919902140908952E-003 ,   4.6139120460065805E-006 ,   6.7540817136603612E-003 ,   8.9358876893810469E-007
   60.999999999999602      ,   61.999999999999588      ,   6.0211839623429972E-003 ,   1.5242134645836886E-007 ,   6.9110477078862384E-003 ,   4.1019454912401156E-006 ,   7.3252768612560217E-003 ,   1.8669085147083241E-006 ,   7.0820674281481836E-003 ,   4.1923879977013368E-006
   61.999999999999588      ,   62.999999999999574      ,   6.3162383271607378E-003 ,   1.5643258500570949E-007 ,   7.2216738779707088E-003 ,   8.2460219620713961E-007 ,   7.6608437500575791E-003 ,   5.3736362464536341E-007 ,   7.4031149672662269E-003 ,   2.7003205628357806E-006
   62.999999999999574      ,   63.999999999999559      ,   6.6053815293735984E-003 ,   1.6025058498362749E-007 ,   7.5339215084976058E-003 ,   8.4880913746350027E-007 ,   7.9915945050893725E-003 ,   4.5610513986664453E-007 ,   7.7204497433025305E-003 ,   8.7213203259642240E-007
   63.999999999999559      ,   64.999999999999545      ,   6.8895139912781792E-003 ,   1.6410439146520753E-007 ,   7.8523057093159380E-003 ,   1.2206761609494888E-005 ,   8.3188909664235755E-003 ,   1.6221256613240192E-006 ,   8.0468236824810420E-003 ,   1.2469972336591863E-005
   64.999999999999545      ,   65.999999999999531      ,   7.1680983863622628E-003 ,   1.6779307212351699E-007 ,   8.1398249917003646E-003 ,   9.1814170405920594E-007 ,   8.6380930033509527E-003 ,   2.4598645780306918E-006 ,   8.3416030495176551E-003 ,   9.4579932891803867E-007
   65.999999999999531      ,   66.999999999999517      ,   7.4414465584835433E-003 ,   1.7143411938990097E-007 ,   8.4341721308018192E-003 ,   2.4140313107728548E-006 ,   8.9489715406210930E-003 ,   1.4167911756769248E-006 ,   8.6434576373764956E-003 ,   2.4748425955349882E-006
   66.999999999999517      ,   67.999999999999503      ,   7.7096565511062202E-003 ,   1.7502422546252238E-007 ,   8.7213200412184465E-003 ,   9.9888323241400983E-007 ,   9.2551283655543607E-003 ,   1.9481313868326369E-006 ,   8.9375535060771741E-003 ,   1.0195490906162776E-006
   67.999999999999503      ,   68.999999999999488      ,   7.9726576112849595E-003 ,   1.7845954087306685E-007 ,   9.0047717235750713E-003 ,   1.9339043069485155E-006 ,   9.5657327004112485E-003 ,   9.2510981201774002E-006 ,   9.2282231159914289E-003 ,   1.9983633616902427E-006
   68.999999999999488      ,   69.999999999999474      ,   8.2317459791616775E-003 ,   1.8194608611949597E-007 ,   9.2805827013758956E-003 ,   1.6038452883234183E-006 ,   9.8506690922067781E-003 ,   1.6025854451405223E-006 ,   9.5113100728358730E-003 ,   1.6603832318789723E-006
   69.999999999999474      ,   70.999999999999460      ,   8.4860667640654450E-003 ,   1.8534928176570565E-007 ,   9.5510923968774950E-003 ,   9.3460040380208249E-007 ,   1.0137248986369682E-002 ,   6.6923098937831663E-007 ,   9.7884500848203649E-003 ,   9.6113018567085106E-007
   70.999999999999460      ,   71.999999999999446      ,   8.7353510734722063E-003 ,   1.8857663513558256E-007 ,   9.8166118730182300E-003 ,   9.5414993734476029E-007 ,   1.0423412202800750E-002 ,   1.7116940092311816E-006 ,   1.0060632571926261E-002 ,   9.8131896704527234E-007
   71.999999999999446      ,   72.999999999999432      ,   8.9801278455390581E-003 ,   1.9173484964386053E-007 ,   1.0078458889185415E-002 ,   9.7380155284086656E-007 ,   1.0698526999739964E-002 ,   5.0825496868871220E-007 ,   1.0328862931647505E-002 ,   1.0010456793087980E-006
   72.999999999999432      ,   73.999999999999417      ,   9.2191729527937236E-003 ,   1.9482930316195791E-007 ,   1.0349262270396084E-002 ,   1.4738127839040787E-005 ,   1.0972424547870245E-002 ,   2.3439352232224894E-006 ,   1.0606787892652469E-002 ,   1.5110639676006018E-005
   73.999999999999417      ,   74.999999999999403      ,   9.4528091991000988E-003 ,   1.9777204785197826E-007 ,   1.0582996358144404E-002 ,   1.1813839681257712E-006 ,   1.1235972983608705E-002 ,   5.9575299532335349E-007 ,   1.0846112802444720E-002 ,   1.2134064691431301E-006
   74.999999999999403      ,   75.999999999999389      ,   9.6806644384500300E-003 ,   2.0056004552963990E-007 ,   1.0830303397476723E-002 ,   1.8368896293142394E-006 ,   1.1495713882412969E-002 ,   5.9375839106115216E-007 ,   1.1099966934466571E-002 ,   1.8979791574939263E-006
   75.999999999999389      ,   76.999999999999375      ,   9.9040276965547142E-003 ,   2.0335075812944673E-007 ,   1.1071946198071978E-002 ,   4.7904520994328941E-006 ,   1.1750432977013453E-002 ,   8.8436946743092721E-007 ,   1.1347585116949836E-002 ,   4.9821763618678187E-006
   76.999999999999375      ,   77.999999999999361      ,   1.0123755281419745E-002 ,   2.0612113917515564E-007 ,   1.1301838125853858E-002 ,   1.2517857667836337E-006 ,   1.1999812863157322E-002 ,   9.5297905694299327E-007 ,   1.1583345957853746E-002 ,   1.2861381563306253E-006
   77.999999999999361      ,   78.999999999999346      ,   1.0338192678290265E-002 ,   2.0883136769552568E-007 ,   1.1532676437592426E-002 ,   1.4283654748140470E-006 ,   1.2242351635094555E-002 ,   7.0743279508623193E-007 ,   1.1820211518670073E-002 ,   1.4724365073924887E-006
   78.999999999999346      ,   79.999999999999332      ,   1.0549681711651068E-002 ,   2.1154905785260405E-007 ,   1.1756647335048222E-002 ,   1.0941160408409464E-006 ,   1.2484277842762731E-002 ,   1.0388507826730446E-006 ,   1.2049624760891615E-002 ,   1.1257382822929055E-006
   79.999999999999332      ,   80.999999999999318      ,   1.0756807011065996E-002 ,   2.1416275482997928E-007 ,   1.1985863913016415E-002 ,   4.8818423903276250E-006 ,   1.2719966552107243E-002 ,   1.1245428672630378E-006 ,   1.2284732446546287E-002 ,   5.0535719577280350E-006
   80.999999999999318      ,   81.999999999999304      ,   1.0960856772367461E-002 ,   2.1678586985737458E-007 ,   1.2197312779088941E-002 ,   1.5782869530572177E-006 ,   1.2952563860717081E-002 ,   1.7069801917987042E-006 ,   1.2501427681639853E-002 ,   1.6250901991151330E-006
   81.999999999999304      ,   82.999999999999289      ,   1.1161507457137584E-002 ,   2.1937246734779407E-007 ,   1.2412557045036068E-002 ,   1.2870810584996499E-006 ,   1.3183198491341440E-002 ,   6.2930273789031749E-006 ,   1.2722010560725562E-002 ,   1.3237039347347282E-006
   82.999999999999289      ,   83.999999999999275      ,   1.1358912881631296E-002 ,   2.2192111708760480E-007 ,   1.2623785221662492E-002 ,   1.1109779211094291E-006 ,   1.3416519009101815E-002 ,   1.6161698508926861E-005 ,   1.2938556930604720E-002 ,   1.1428261259910352E-006
   83.999999999999275      ,   84.999999999999261      ,   1.1553565992863297E-002 ,   2.2444224402170959E-007 ,   1.2832170778821117E-002 ,   1.3837761859927676E-006 ,   1.3620615135128359E-002 ,   6.3390468373425689E-007 ,   1.3152224909783600E-002 ,   1.4322145115909849E-006
   84.999999999999261      ,   85.999999999999247      ,   1.1745626951487871E-002 ,   2.2693528523705793E-007 ,   1.3035880622407542E-002 ,   1.3813113784813648E-006 ,   1.3838675524212200E-002 ,   8.0435092739598203E-007 ,   1.3360986424454307E-002 ,   1.4183858753835331E-006
   85.999999999999247      ,   86.999999999999233      ,   1.1934736080165046E-002 ,   2.2942538223421323E-007 ,   1.3238012853482459E-002 ,   1.3038225336848969E-006 ,   1.4054053107959687E-002 ,   1.8072951878597671E-006 ,   1.3568354568777495E-002 ,   1.3427743184563357E-006
   86.999999999999233      ,   87.999999999999218      ,   1.2121834576997234E-002 ,   2.3187089989366323E-007 ,   1.3437346899647578E-002 ,   1.5665348475534630E-006 ,   1.4263484725490922E-002 ,   1.4597158735668817E-006 ,   1.3772611048521826E-002 ,   1.6164274339744485E-006
   87.999999999999218      ,   88.999999999999204      ,   1.2305776981219764E-002 ,   2.3427467652829661E-007 ,   1.3631407964546212E-002 ,   1.3457457925259791E-006 ,   1.4470608132001657E-002 ,   8.2414435490432915E-007 ,   1.3971442099447633E-002 ,   1.3899583952439025E-006
   88.999999999999204      ,   89.999999999999190      ,   1.2487557291842036E-002 ,   2.3667419481304346E-007 ,   1.3825813526528700E-002 ,   1.2335913431990059E-006 ,   1.4676726409140563E-002 ,   1.3228144717119004E-006 ,   1.4170941860070623E-002 ,   1.2724619547180514E-006
   89.999999999999190      ,   90.999999999999176      ,   1.2666390536051991E-002 ,   2.3906602915031593E-007 ,   1.4014902275769715E-002 ,   1.2786839210023119E-006 ,   1.4880010763667746E-002 ,   3.1085308867798082E-006 ,   1.4364607115451877E-002 ,   1.3151666036541093E-006
   90.999999999999176      ,   91.999999999999162      ,   1.2843446644494287E-002 ,   2.4145655989931553E-007 ,   1.4202994815773464E-002 ,   1.6308910678648749E-006 ,   1.5083915625023109E-002 ,   6.4941514095152000E-006 ,   1.4557563171717006E-002 ,   1.6734786816855948E-006
   91.999999999999162      ,   92.999999999999147      ,   1.3017355596587520E-002 ,   2.4384847975619575E-007 ,   1.4389191080918549E-002 ,   3.5356179251068039E-006 ,   1.5273726944302424E-002 ,   2.6090918938462730E-006 ,   1.4748453737030872E-002 ,   3.6464717401193327E-006
   92.999999999999147      ,   93.999999999999133      ,   1.3188762161753638E-002 ,   2.4620137518042033E-007 ,   1.4570093154220974E-002 ,   2.3484287142946311E-006 ,   1.5462977315469008E-002 ,   1.2325425319850589E-006 ,   1.4933992903073946E-002 ,   2.4342668299710153E-006
   93.999999999999133      ,   94.999999999999119      ,   1.3356827753937407E-002 ,   2.4848576524747673E-007 ,   1.4744907950823716E-002 ,   1.2456316807239429E-006 ,   1.5650774405918375E-002 ,   9.3597234729571135E-007 ,   1.5113199459988945E-002 ,   1.2819180004940845E-006
   94.999999999999119      ,   95.999999999999105      ,   1.3520917753482506E-002 ,   2.5078116966230997E-007 ,   1.4918662946340304E-002 ,   1.8002536651264232E-006 ,   1.5835489350553889E-002 ,   1.0511965945290300E-006 ,   1.5291283366879630E-002 ,   1.8523258290239355E-006
   95.999999999999105      ,   96.999999999999091      ,   1.3682584060929802E-002 ,   2.5309191560306873E-007 ,   1.5089218042217108E-002 ,   1.5447496800240566E-006 ,   1.6013193448494407E-002 ,   6.7609212569205609E-007 ,   1.5465946784853640E-002 ,   1.5919268239925981E-006
   96.999999999999091      ,   97.999999999999076      ,   1.3839920165806579E-002 ,   2.5534614390853914E-007 ,   1.5253622181231417E-002 ,   1.3906013458872085E-006 ,   1.6187426466209454E-002 ,   6.6921750876676627E-007 ,   1.5634632402472249E-002 ,   1.4313777341117049E-006
   97.999999999999076      ,   98.999999999999062      ,   1.3992303877956311E-002 ,   2.5759850229203509E-007 ,   1.5414265253014210E-002 ,   1.4197445410717721E-006 ,   1.6358300559377838E-002 ,   7.2847201850372491E-007 ,   1.5799620209983895E-002 ,   1.4650270430293619E-006
   98.999999999999062      ,   99.999999999999048      ,   1.4140891635741511E-002 ,   2.5985344089735626E-007 ,   1.5566395769674045E-002 ,   1.3247087802416056E-006 ,   1.6524801234979316E-002 ,   9.1678747002089199E-007 ,   1.5955211678582718E-002 ,   1.3648207538471588E-006
   99.999999999999048      ,   100.99999999999903      ,   1.4283661455993909E-002 ,   2.6208925504343663E-007 ,   1.5720570477664314E-002 ,   2.2592903592809316E-006 ,   1.6693920334031342E-002 ,   1.0277263532528067E-005 ,   1.6113329208417477E-002 ,   2.3300299724381918E-006
   100.99999999999903      ,   101.99999999999902      ,   1.4419846813645037E-002 ,   2.6426818779818722E-007 ,   1.5870037758494802E-002 ,   7.0916705274737308E-006 ,   1.6836549228134625E-002 ,   2.2309985308975105E-006 ,   1.6266218580379393E-002 ,   7.1247922064899406E-006
   101.99999999999902      ,   102.99999999999901      ,   1.4549883138410522E-002 ,   2.6646168523540236E-007 ,   1.5997989558601471E-002 ,   1.5785246923941939E-006 ,   1.6981385651545045E-002 ,   5.1100251250087454E-006 ,   1.6397702050514301E-002 ,   1.6267514143822585E-006
   102.99999999999901      ,   103.99999999999899      ,   1.4672526107459893E-002 ,   2.6868922679108918E-007 ,   1.6123426139326113E-002 ,   1.3541499361186062E-006 ,   1.7111560594766186E-002 ,   6.9563613471951908E-007 ,   1.6526189464637044E-002 ,   1.3937309297887592E-006
   103.99999999999899      ,   104.99999999999898      ,   1.4786784341924647E-002 ,   2.7095617811321087E-007 ,   1.6240808172965630E-002 ,   1.3878308939425878E-006 ,   1.7236747537145346E-002 ,   1.2108879028797450E-006 ,   1.6646628011033712E-002 ,   1.4283488527726888E-006
   104.99999999999898      ,   105.99999999999896      ,   1.4891522784229734E-002 ,   2.7327799152479736E-007 ,   1.6350122776987681E-002 ,   1.6770312203609262E-006 ,   1.7370703296043503E-002 ,   1.9051434254001205E-005 ,   1.6758527094748715E-002 ,   1.7335360747939598E-006
   105.99999999999896      ,   106.99999999999895      ,   1.4985330824770528E-002 ,   2.7549113654246164E-007 ,   1.6443551906056085E-002 ,   1.3406287834009357E-006 ,   1.7452904775397619E-002 ,   7.1071704884664833E-007 ,   1.6854536194046876E-002 ,   1.3800025328179433E-006
   106.99999999999895      ,   107.99999999999893      ,   1.5066616324085406E-002 ,   2.7747929246726948E-007 ,   1.6530432868715382E-002 ,   1.5025025187522551E-006 ,   1.7542242643873409E-002 ,   1.8568233351266691E-006 ,   1.6943284813264559E-002 ,   1.5502247006621456E-006
   107.99999999999893      ,   108.99999999999892      ,   1.5132661990500673E-002 ,   2.7931523691972877E-007 ,   1.6599304089854237E-002 ,   1.6354559224016404E-006 ,   1.7612707313485378E-002 ,   9.1493944258103723E-007 ,   1.7014045938480632E-002 ,   1.6824431691329426E-006
   108.99999999999892      ,   109.99999999999891      ,   1.5182719962262571E-002 ,   2.8091265409339273E-007 ,   1.6653526712104200E-002 ,   2.7920688693887953E-006 ,   1.7835278826292201E-002 ,   1.6884895753591976E-004 ,   1.7069584002211473E-002 ,   2.8837187126613529E-006
   109.99999999999891      ,   110.99999999999889      ,   1.5215210579013417E-002 ,   2.8230310996902648E-007 ,   1.6683655054749606E-002 ,   1.7634335896397751E-006 ,   1.7702328530153150E-002 ,   1.2066552839812717E-006 ,   1.7100639508796284E-002 ,   1.8248256717101845E-006
   110.99999999999889      ,   111.99999999999888      ,   1.5227403090144693E-002 ,   2.8337427176451586E-007 ,   1.6695651612755651E-002 ,   1.4272515032172083E-006 ,   1.7712909084045787E-002 ,   7.1933738955524401E-007 ,   1.7112708129699564E-002 ,   1.4692086936206299E-006
   111.99999999999888      ,   112.99999999999886      ,   1.5217555466266628E-002 ,   2.8423283885021136E-007 ,   1.6687297982066630E-002 ,   1.4886523406937288E-006 ,   1.7796095525204898E-002 ,   9.3838911524877326E-005 ,   1.7104194936365332E-002 ,   1.5346058029449279E-006
   112.99999999999886      ,   113.99999999999885      ,   1.5181162627481577E-002 ,   2.8479014163308792E-007 ,   1.6653188088829488E-002 ,   2.0344781692176117E-006 ,   1.7662132412962439E-002 ,   8.3423917456060294E-007 ,   1.7069275605457315E-002 ,   2.0850111801502021E-006
   113.99999999999885      ,   114.99999999999883      ,   1.5116205878403033E-002 ,   2.8504578530998747E-007 ,   1.6584860505637546E-002 ,   1.5233147477415789E-006 ,   1.7593380163093329E-002 ,   2.3334899699734587E-006 ,   1.6999305606351177E-002 ,   1.5693529745183609E-006
   114.99999999999883      ,   115.99999999999882      ,   1.5018406646173314E-002 ,   2.8497918506519725E-007 ,   1.6487133768559883E-002 ,   1.6015350604237511E-006 ,   1.7490478369493044E-002 ,   3.1329845705141994E-006 ,   1.6898779447273835E-002 ,   1.6492637002600426E-006
   115.99999999999882      ,   116.99999999999881      ,   1.4882601918280865E-002 ,   2.8461801302770656E-007 ,   1.6350556216691667E-002 ,   1.5792176030703951E-006 ,   1.7342213855120910E-002 ,   2.5062660382800510E-006 ,   1.6758633123463075E-002 ,   1.6275374441615493E-006
   116.99999999999881      ,   117.99999999999879      ,   1.4702712204524846E-002 ,   2.8387294421708300E-007 ,   1.6173570008762538E-002 ,   2.5934639512121496E-006 ,   1.7148729152655567E-002 ,   1.6600100718169000E-006 ,   1.6577531475211790E-002 ,   2.6695930360452620E-006
   117.99999999999879      ,   118.99999999999878      ,   1.4471681189888556E-002 ,   2.8271486565100463E-007 ,   1.5940316186767525E-002 ,   3.0404678047464893E-006 ,   1.6900736765265406E-002 ,   8.5810133169382390E-007 ,   1.6337912795331817E-002 ,   3.1207951859860336E-006
   118.99999999999878      ,   119.99999999999876      ,   1.4210784706117453E-002 ,   2.8167507785201996E-007 ,   1.5683150312986342E-002 ,   1.4831604263859235E-006 ,   1.6626451972701132E-002 ,   4.1267195765446520E-006 ,   1.6073858307010823E-002 ,   1.5262855004612012E-006
   119.99999999999876      ,   120.99999999999875      ,   1.3980936542337426E-002 ,   2.8234235970369830E-007 ,   1.5447869253213231E-002 ,   1.9894065129542142E-006 ,   1.6373785054630496E-002 ,   8.2361863399521816E-007 ,   1.5833126558948106E-002 ,   2.0477330574036047E-006
   120.99999999999875      ,   121.99999999999874      ,   1.3723042176029938E-002 ,   2.8286514510756033E-007 ,   1.5188399084317480E-002 ,   2.0231081920652446E-006 ,   1.6095589505292399E-002 ,   1.9503924039047714E-006 ,   1.5566659422536077E-002 ,   2.0835083801570530E-006
   121.99999999999874      ,   122.99999999999872      ,   1.3432093005753456E-002 ,   2.8315016460691748E-007 ,   1.4891494248509692E-002 ,   1.3860211033881435E-006 ,   1.5775374133248272E-002 ,   9.5863849480119693E-007 ,   1.5262147557552985E-002 ,   1.4260086725828344E-006
   122.99999999999872      ,   123.99999999999871      ,   1.3108873717183505E-002 ,   2.8312914506082982E-007 ,   1.4565867095729356E-002 ,   2.3474931012750407E-006 ,   1.5426092838015732E-002 ,   9.3607239493484776E-007 ,   1.4928518993336143E-002 ,   2.4365098923631546E-006
   123.99999999999871      ,   124.99999999999869      ,   1.2751727222488300E-002 ,   2.8298847486967895E-007 ,   1.4204860463407893E-002 ,   1.4300908112821061E-006 ,   1.5067996068055324E-002 ,   2.6740662551729986E-005 ,   1.4557887955714204E-002 ,   1.4712818734724631E-006
   124.99999999999869      ,   125.99999999999868      ,   1.2361436261779501E-002 ,   2.8267179790314458E-007 ,   1.3815987966553415E-002 ,   1.5701381232161193E-006 ,   1.4625716909453790E-002 ,   1.6874602799542122E-006 ,   1.4158828067829136E-002 ,   1.6194791604975134E-006
   125.99999999999868      ,   126.99999999999866      ,   1.1937466808768303E-002 ,   2.8214908313452977E-007 ,   1.3405136798958113E-002 ,   6.5430951359949138E-006 ,   1.4175798064470215E-002 ,   1.2531560199875857E-006 ,   1.3737298716016248E-002 ,   6.6937984939099214E-006
   126.99999999999866      ,   127.99999999999865      ,   1.1481140789477842E-002 ,   2.8142411638639186E-007 ,   1.2957375736616197E-002 ,   3.8348362441780420E-006 ,   1.3696820876437324E-002 ,   4.0574389151880719E-006 ,   1.3277866496521499E-002 ,   3.9236195892710614E-006
   127.99999999999865      ,   128.99999999999864      ,   1.0993281586872627E-002 ,   2.8050321528688696E-007 ,   1.2475311958059726E-002 ,   1.7459439043338251E-006 ,   1.3179741449082493E-002 ,   7.9745200483219065E-007 ,   1.2783290455065223E-002 ,   1.7883354279502818E-006
   128.99999999999864      ,   129.99999999999864      ,   1.0473110456465260E-002 ,   2.7936251421456048E-007 ,   1.1973866291402881E-002 ,   2.6549635306345332E-006 ,   1.2636040188942193E-002 ,   1.2952575469478361E-006 ,   1.2268844639970092E-002 ,   2.7305100507438984E-006
