 # xl, xh, LO, dLO
   0.0000000000000000      ,   5.0000000000000000      ,   1.4284745368879026E-002 ,   1.7926474850138130E-007
   5.0000000000000000      ,   10.000000000000000      ,   1.4276657395982405E-002 ,   1.7921852172433005E-007
   10.000000000000000      ,   15.000000000000000      ,   1.4260584348115606E-002 ,   1.7919407851996888E-007
   15.000000000000000      ,   20.000000000000000      ,   1.4235563216945990E-002 ,   1.7899732513701365E-007
   20.000000000000000      ,   25.000000000000000      ,   1.4203153824313376E-002 ,   1.7880774592858851E-007
   25.000000000000000      ,   30.000000000000000      ,   1.4161563313357259E-002 ,   1.7858401485074730E-007
   30.000000000000000      ,   35.000000000000000      ,   1.4112699638514107E-002 ,   1.7829088291365348E-007
   35.000000000000000      ,   40.000000000000000      ,   1.4054256152942791E-002 ,   1.7794055394773379E-007
   40.000000000000000      ,   45.000000000000000      ,   1.3987626900354974E-002 ,   1.7753953256746179E-007
   45.000000000000000      ,   50.000000000000000      ,   1.3912102204277042E-002 ,   1.7707717012280395E-007
   50.000000000000000      ,   55.000000000000000      ,   1.3827604553693945E-002 ,   1.7654194788520969E-007
   55.000000000000000      ,   60.000000000000000      ,   1.3734243163304287E-002 ,   1.7593943124355773E-007
   60.000000000000000      ,   65.000000000000000      ,   1.3631706406661052E-002 ,   1.7526361826250416E-007
   65.000000000000000      ,   70.000000000000000      ,   1.3519924241508875E-002 ,   1.7450479828619652E-007
   70.000000000000000      ,   75.000000000000000      ,   1.3398817074940395E-002 ,   1.7366931129182231E-007
   75.000000000000000      ,   80.000000000000000      ,   1.3268283470967713E-002 ,   1.7274810470417522E-007
   80.000000000000000      ,   85.000000000000000      ,   1.3128256440201725E-002 ,   1.7172935420860765E-007
   85.000000000000000      ,   90.000000000000000      ,   1.2979426070900833E-002 ,   1.7064242788787864E-007
   90.000000000000000      ,   95.000000000000000      ,   1.3003135595050506E-002 ,   1.7020327567178593E-007
   95.000000000000000      ,   100.00000000000000      ,   1.2822979395234458E-002 ,   1.6889219195316687E-007
   100.00000000000000      ,   105.00000000000000      ,   1.2632277184719754E-002 ,   1.6750621954789531E-007
   105.00000000000000      ,   110.00000000000000      ,   1.2430814272142125E-002 ,   1.6605524842494490E-007
   110.00000000000000      ,   115.00000000000000      ,   1.2218837964309680E-002 ,   1.6455339342325644E-007
   115.00000000000000      ,   120.00000000000000      ,   1.1995366735665014E-002 ,   1.6297442772146008E-007
   120.00000000000000      ,   125.00000000000000      ,   1.1760818916731001E-002 ,   1.6132646610001129E-007
   125.00000000000000      ,   130.00000000000000      ,   1.1514397866029766E-002 ,   1.5959544885902310E-007
   130.00000000000000      ,   135.00000000000000      ,   1.1256165648867144E-002 ,   1.5778627662585782E-007
   135.00000000000000      ,   140.00000000000000      ,   1.0985314819004152E-002 ,   1.5589822874680803E-007
   140.00000000000000      ,   145.00000000000000      ,   1.0701140758262406E-002 ,   1.5390762111589272E-007
   145.00000000000000      ,   150.00000000000000      ,   1.0402928583791568E-002 ,   1.5184058427348991E-007
   150.00000000000000      ,   155.00000000000000      ,   1.0089636636147755E-002 ,   1.4960930359731312E-007
   155.00000000000000      ,   160.00000000000000      ,   9.7610771553518286E-003 ,   1.4727322029764844E-007
   160.00000000000000      ,   165.00000000000000      ,   9.4167644212636327E-003 ,   1.4476660659612269E-007
   165.00000000000000      ,   170.00000000000000      ,   9.0561862168951259E-003 ,   1.4208013204626620E-007
   170.00000000000000      ,   175.00000000000000      ,   8.6803834025550863E-003 ,   1.3918189885931215E-007
   175.00000000000000      ,   180.00000000000000      ,   8.2899773472715297E-003 ,   1.3604935054918167E-007
   180.00000000000000      ,   185.00000000000000      ,   7.8895630929366051E-003 ,   1.3268236207967977E-007
   185.00000000000000      ,   190.00000000000000      ,   7.4808629714017572E-003 ,   1.2903685840911433E-007
   190.00000000000000      ,   195.00000000000000      ,   7.0656670526817360E-003 ,   1.2514048437578559E-007
   195.00000000000000      ,   200.00000000000000      ,   6.6457527603094174E-003 ,   1.2097928585097386E-007
   200.00000000000000      ,   205.00000000000000      ,   6.2233618631087574E-003 ,   1.1656905265780000E-007
   205.00000000000000      ,   210.00000000000000      ,   5.8009073434296685E-003 ,   1.1194527126575363E-007
   210.00000000000000      ,   215.00000000000000      ,   5.3809252303319826E-003 ,   1.0717190242001148E-007
   215.00000000000000      ,   220.00000000000000      ,   4.9651849556975290E-003 ,   1.0228602443430020E-007
   220.00000000000000      ,   225.00000000000000      ,   4.5560998193522493E-003 ,   9.7333840847826344E-008
   225.00000000000000      ,   230.00000000000000      ,   4.1553072112365018E-003 ,   9.2302743695738579E-008
   230.00000000000000      ,   235.00000000000000      ,   3.7637492587597660E-003 ,   8.7210422827379222E-008
   235.00000000000000      ,   240.00000000000000      ,   3.3823795380881344E-003 ,   8.2055607545867346E-008
   240.00000000000000      ,   245.00000000000000      ,   3.0117394177294303E-003 ,   7.6839982736166955E-008
   245.00000000000000      ,   250.00000000000000      ,   2.6528065784520334E-003 ,   7.1569361119256253E-008
   250.00000000000000      ,   255.00000000000000      ,   2.3057121250059909E-003 ,   6.6219636192272134E-008
   255.00000000000000      ,   260.00000000000000      ,   1.9767031969585326E-003 ,   6.0791156086482118E-008
   260.00000000000000      ,   265.00000000000000      ,   1.6751870355753646E-003 ,   5.5326422815192897E-008
   265.00000000000000      ,   270.00000000000000      ,   1.3994562183476311E-003 ,   4.9827118429571970E-008
   270.00000000000000      ,   275.00000000000000      ,   1.1488796716821147E-003 ,   4.4315989826553495E-008
   275.00000000000000      ,   280.00000000000000      ,   9.2421129502251844E-004 ,   3.8820914730778449E-008
   280.00000000000000      ,   285.00000000000000      ,   7.2367350571134182E-004 ,   3.3336414685320138E-008
   285.00000000000000      ,   290.00000000000000      ,   5.4384306311059153E-004 ,   2.7808646623634635E-008
   290.00000000000000      ,   295.00000000000000      ,   3.8380546867980555E-004 ,   2.2202156342033624E-008
   295.00000000000000      ,   300.00000000000000      ,   2.4428006049666815E-004 ,   1.6506122592797062E-008
   300.00000000000000      ,   305.00000000000000      ,   1.2788140631292535E-004 ,   1.0718459047188410E-008
   305.00000000000000      ,   310.00000000000000      ,   4.2257141060487745E-005 ,   5.0423384898515354E-009
   310.00000000000000      ,   315.00000000000000      ,   3.1760853173439017E-006 ,   9.1646176296035093E-010
   315.00000000000000      ,   320.00000000000000      ,   0.0000000000000000      ,   0.0000000000000000     
   320.00000000000000      ,   325.00000000000000      ,   0.0000000000000000      ,   0.0000000000000000     
   325.00000000000000      ,   330.00000000000000      ,   0.0000000000000000      ,   0.0000000000000000     
