 # xl, xh, LO, dLO
   0.0000000000000000      ,   1.0000000000000000      ,   1.4285783820103560E-002 ,   4.0089022686259534E-007
   1.0000000000000000      ,   2.0000000000000000      ,   1.4286019088199245E-002 ,   4.0086773079756547E-007
   2.0000000000000000      ,   3.0000000000000000      ,   1.4285321143919833E-002 ,   4.0085164514002389E-007
   3.0000000000000000      ,   4.0000000000000000      ,   1.4284888967068993E-002 ,   4.0085009381740518E-007
   4.0000000000000000      ,   5.0000000000000000      ,   1.4283990210878523E-002 ,   4.0083566095190665E-007
   5.0000000000000000      ,   6.0000000000000000      ,   1.4281006371492051E-002 ,   4.0085307692715917E-007
   6.0000000000000000      ,   7.0000000000000000      ,   1.4279433098725003E-002 ,   4.0097305564239041E-007
   7.0000000000000000      ,   8.0000000000000000      ,   1.4276978039807120E-002 ,   4.0079609025183956E-007
   8.0000000000000000      ,   9.0000000000000000      ,   1.4273777929001065E-002 ,   4.0069599781711809E-007
   9.0000000000000000      ,   10.000000000000000      ,   1.4271106295657882E-002 ,   4.0071044042840454E-007
   10.000000000000000      ,   11.000000000000000      ,   1.4267853242054825E-002 ,   4.0071252227838768E-007
   11.000000000000000      ,   12.000000000000000      ,   1.4264614351405731E-002 ,   4.0094776085280063E-007
   12.000000000000000      ,   13.000000000000000      ,   1.4260787501472758E-002 ,   4.0054865794133876E-007
   13.000000000000000      ,   14.000000000000000      ,   1.4256119817240115E-002 ,   4.0049652796173796E-007
   14.000000000000000      ,   15.000000000000000      ,   1.4251343684267210E-002 ,   4.0042087010837878E-007
   15.000000000000000      ,   16.000000000000000      ,   1.4247754972334610E-002 ,   4.0038422303333785E-007
   16.000000000000000      ,   17.000000000000000      ,   1.4241038083089814E-002 ,   4.0032633975120149E-007
   17.000000000000000      ,   18.000000000000000      ,   1.4236236901252808E-002 ,   4.0023980254501542E-007
   18.000000000000000      ,   19.000000000000000      ,   1.4229975769172296E-002 ,   4.0017671608283932E-007
   19.000000000000000      ,   20.000000000000000      ,   1.4224111093725426E-002 ,   4.0008648740824441E-007
   20.000000000000000      ,   21.000000000000000      ,   1.4217578889310406E-002 ,   4.0000801955059445E-007
   21.000000000000000      ,   22.000000000000000      ,   1.4210205734767167E-002 ,   3.9989725759385234E-007
   22.000000000000000      ,   23.000000000000000      ,   1.4203054252037613E-002 ,   3.9982645891322504E-007
   23.000000000000000      ,   24.000000000000000      ,   1.4196159292595482E-002 ,   3.9975041504871799E-007
   24.000000000000000      ,   25.000000000000000      ,   1.4188227508092300E-002 ,   3.9988793767705154E-007
   25.000000000000000      ,   26.000000000000000      ,   1.4180406157797873E-002 ,   3.9954720628164711E-007
   26.000000000000000      ,   27.000000000000000      ,   1.4171252760998355E-002 ,   3.9942570992391720E-007
   27.000000000000000      ,   28.000000000000000      ,   1.4162115910216140E-002 ,   3.9934887411373369E-007
   28.000000000000000      ,   29.000000000000000      ,   1.4153450457942189E-002 ,   3.9920391570133655E-007
   29.000000000000000      ,   30.000000000000000      ,   1.4143647140607547E-002 ,   3.9911486498335564E-007
   30.000000000000000      ,   31.000000000000000      ,   1.4133181892962310E-002 ,   3.9892939926294029E-007
   31.000000000000000      ,   32.000000000000000      ,   1.4123305881109572E-002 ,   3.9881083856431704E-007
   32.000000000000000      ,   33.000000000000000      ,   1.4112463279259675E-002 ,   3.9864523284478932E-007
   33.000000000000000      ,   34.000000000000000      ,   1.4101924698585597E-002 ,   3.9853326712371520E-007
   34.000000000000000      ,   35.000000000000000      ,   1.4090848752621577E-002 ,   3.9837697104776807E-007
   35.000000000000000      ,   36.000000000000000      ,   1.4079348893708273E-002 ,   3.9825054721952165E-007
   36.000000000000000      ,   37.000000000000000      ,   1.4066672611530898E-002 ,   3.9807730752312712E-007
   37.000000000000000      ,   38.000000000000000      ,   1.4054226415932730E-002 ,   3.9788295511894771E-007
   38.000000000000000      ,   39.000000000000000      ,   1.4041787556399047E-002 ,   3.9772119090250584E-007
   39.000000000000000      ,   40.000000000000000      ,   1.4028872242398330E-002 ,   3.9753267572212989E-007
   40.000000000000000      ,   41.000000000000000      ,   1.4015246736930562E-002 ,   3.9735649434015715E-007
   41.000000000000000      ,   42.000000000000000      ,   1.4001928860271740E-002 ,   3.9717689901568508E-007
   42.000000000000000      ,   43.000000000000000      ,   1.3987735181133358E-002 ,   3.9699499845624671E-007
   43.000000000000000      ,   44.000000000000000      ,   1.3974170686539656E-002 ,   3.9681952644831268E-007
   44.000000000000000      ,   45.000000000000000      ,   1.3958415224596871E-002 ,   3.9659872231548035E-007
   45.000000000000000      ,   46.000000000000000      ,   1.3943875532456568E-002 ,   3.9638409321113289E-007
   46.000000000000000      ,   47.000000000000000      ,   1.3928558502139239E-002 ,   3.9618495049341062E-007
   47.000000000000000      ,   48.000000000000000      ,   1.3912491016796983E-002 ,   3.9595226558290230E-007
   48.000000000000000      ,   49.000000000000000      ,   1.3896350601498847E-002 ,   3.9578075001486843E-007
   49.000000000000000      ,   50.000000000000000      ,   1.3880223648104867E-002 ,   3.9552628213438427E-007
   50.000000000000000      ,   51.000000000000000      ,   1.3862752330197610E-002 ,   3.9524346986921639E-007
   51.000000000000000      ,   52.000000000000000      ,   1.3845626508370332E-002 ,   3.9502767445298273E-007
   52.000000000000000      ,   53.000000000000000      ,   1.3828350262925433E-002 ,   3.9478152653782423E-007
   53.000000000000000      ,   54.000000000000000      ,   1.3809505750215213E-002 ,   3.9449050457696275E-007
   54.000000000000000      ,   55.000000000000000      ,   1.3792592553824593E-002 ,   3.9427857857885087E-007
   55.000000000000000      ,   56.000000000000000      ,   1.3773223088923507E-002 ,   3.9400555555613599E-007
   56.000000000000000      ,   57.000000000000000      ,   1.3754024658857762E-002 ,   3.9370248657112933E-007
   57.000000000000000      ,   58.000000000000000      ,   1.3734894058096199E-002 ,   3.9343212665977374E-007
   58.000000000000000      ,   59.000000000000000      ,   1.3715230535480218E-002 ,   3.9313429222110057E-007
   59.000000000000000      ,   60.000000000000000      ,   1.3694398044870991E-002 ,   3.9281415730413001E-007
   60.000000000000000      ,   61.000000000000000      ,   1.3674828467823603E-002 ,   3.9255197133466611E-007
   61.000000000000000      ,   62.000000000000000      ,   1.3653497608319666E-002 ,   3.9244471187438780E-007
   62.000000000000000      ,   63.000000000000000      ,   1.3632494239871474E-002 ,   3.9191806812442857E-007
   63.000000000000000      ,   64.000000000000000      ,   1.3610573269052885E-002 ,   3.9158517972766780E-007
   64.000000000000000      ,   65.000000000000000      ,   1.3589156868061641E-002 ,   3.9126716815917261E-007
   65.000000000000000      ,   66.000000000000000      ,   1.3566184227422784E-002 ,   3.9099059098215641E-007
   66.000000000000000      ,   67.000000000000000      ,   1.3543300599030762E-002 ,   3.9055730330717092E-007
   67.000000000000000      ,   68.000000000000000      ,   1.3520387302784515E-002 ,   3.9020787106490427E-007
   68.000000000000000      ,   69.000000000000000      ,   1.3497235357441580E-002 ,   3.8985706497300841E-007
   69.000000000000000      ,   70.000000000000000      ,   1.3473638433097330E-002 ,   3.8951158491629856E-007
   70.000000000000000      ,   71.000000000000000      ,   1.3449135975466299E-002 ,   3.8912044519005848E-007
   71.000000000000000      ,   72.000000000000000      ,   1.3423791538041725E-002 ,   3.8872112365488887E-007
   72.000000000000000      ,   73.000000000000000      ,   1.3399221867543117E-002 ,   3.8833794514858806E-007
   73.000000000000000      ,   74.000000000000000      ,   1.3373846915571627E-002 ,   3.8793676230824363E-007
   74.000000000000000      ,   75.000000000000000      ,   1.3348434714514953E-002 ,   3.8754464346919320E-007
   75.000000000000000      ,   76.000000000000000      ,   1.3322346544139066E-002 ,   3.8712500328997064E-007
   76.000000000000000      ,   77.000000000000000      ,   1.3295537746179826E-002 ,   3.8673509774339623E-007
   77.000000000000000      ,   78.000000000000000      ,   1.3269398791710345E-002 ,   3.8629074080824973E-007
   78.000000000000000      ,   79.000000000000000      ,   1.3241063218192614E-002 ,   3.8581900177005435E-007
   79.000000000000000      ,   80.000000000000000      ,   1.3213565777769054E-002 ,   3.8537880543849184E-007
   80.000000000000000      ,   81.000000000000000      ,   1.3185980692986338E-002 ,   3.8493211752419931E-007
   81.000000000000000      ,   82.000000000000000      ,   1.3157405761170438E-002 ,   3.8447563086334896E-007
   82.000000000000000      ,   83.000000000000000      ,   1.3128188835546829E-002 ,   3.8399262695452798E-007
   83.000000000000000      ,   84.000000000000000      ,   1.3099500009378262E-002 ,   3.8353903659820760E-007
   84.000000000000000      ,   85.000000000000000      ,   1.3069736474621103E-002 ,   3.8303281544298701E-007
   85.000000000000000      ,   86.000000000000000      ,   1.3039906676121569E-002 ,   3.8254798783512504E-007
   86.000000000000000      ,   87.000000000000000      ,   1.3010338446201645E-002 ,   3.8207943326213769E-007
   87.000000000000000      ,   88.000000000000000      ,   1.2978823498390746E-002 ,   3.8153911819193342E-007
   88.000000000000000      ,   89.000000000000000      ,   1.2948903015516409E-002 ,   3.8118300153387826E-007
   89.000000000000000      ,   90.000000000000000      ,   1.2917384594135045E-002 ,   3.8053935668511448E-007
   90.000000000000000      ,   91.000000000000000      ,   1.3072624111133619E-002 ,   3.8168450834015648E-007
   91.000000000000000      ,   92.000000000000000      ,   1.3038063033802600E-002 ,   3.8102885880421337E-007
   92.000000000000000      ,   93.000000000000000      ,   1.3003967928678917E-002 ,   3.8052517342242930E-007
   93.000000000000000      ,   94.000000000000000      ,   1.2968204242508417E-002 ,   3.7992341475191964E-007
   94.000000000000000      ,   95.000000000000000      ,   1.2932950621859793E-002 ,   3.7933271703653058E-007
   95.000000000000000      ,   96.000000000000000      ,   1.2897313496405811E-002 ,   3.7876600543443458E-007
   96.000000000000000      ,   97.000000000000000      ,   1.2860535044507310E-002 ,   3.7819554071409007E-007
   97.000000000000000      ,   98.000000000000000      ,   1.2823797728726917E-002 ,   3.7766068848248443E-007
   98.000000000000000      ,   99.000000000000000      ,   1.2785775102714437E-002 ,   3.7701060821871565E-007
   99.000000000000000      ,   100.00000000000000      ,   1.2747991950990318E-002 ,   3.7636644039391810E-007
   100.00000000000000      ,   101.00000000000000      ,   1.2710894759576678E-002 ,   3.7579260265469709E-007
   101.00000000000000      ,   102.00000000000000      ,   1.2671428603509572E-002 ,   3.7524150293628080E-007
   102.00000000000000      ,   103.00000000000000      ,   1.2632650773667190E-002 ,   3.7456886455059186E-007
   103.00000000000000      ,   104.00000000000000      ,   1.2592922997856465E-002 ,   3.7390330971453859E-007
   104.00000000000000      ,   105.00000000000000      ,   1.2553997437271876E-002 ,   3.7330294702163951E-007
   105.00000000000000      ,   106.00000000000000      ,   1.2513235889703121E-002 ,   3.7262711394782746E-007
   106.00000000000000      ,   107.00000000000000      ,   1.2472240068589919E-002 ,   3.7195923701429266E-007
   107.00000000000000      ,   108.00000000000000      ,   1.2430644209523153E-002 ,   3.7139466420015158E-007
   108.00000000000000      ,   109.00000000000000      ,   1.2389690493142928E-002 ,   3.7064615415123114E-007
   109.00000000000000      ,   110.00000000000000      ,   1.2347656346097604E-002 ,   3.6997793283682842E-007
   110.00000000000000      ,   111.00000000000000      ,   1.2305753054346245E-002 ,   3.6933415352654672E-007
   111.00000000000000      ,   112.00000000000000      ,   1.2261997691282781E-002 ,   3.6864862219934702E-007
   112.00000000000000      ,   113.00000000000000      ,   1.2219050746643357E-002 ,   3.6794697377328659E-007
   113.00000000000000      ,   114.00000000000000      ,   1.2175700543405287E-002 ,   3.6728123686599015E-007
   114.00000000000000      ,   115.00000000000000      ,   1.2130699808301823E-002 ,   3.6655811858779488E-007
   115.00000000000000      ,   116.00000000000000      ,   1.2086202833930521E-002 ,   3.6585243520744419E-007
   116.00000000000000      ,   117.00000000000000      ,   1.2040734307612903E-002 ,   3.6512909277115132E-007
   117.00000000000000      ,   118.00000000000000      ,   1.1995607724803087E-002 ,   3.6441769196015925E-007
   118.00000000000000      ,   119.00000000000000      ,   1.1949791289452810E-002 ,   3.6368598968249924E-007
   119.00000000000000      ,   120.00000000000000      ,   1.1903536030899118E-002 ,   3.6298062687276409E-007
   120.00000000000000      ,   121.00000000000000      ,   1.1856043526365850E-002 ,   3.6221591640483038E-007
   121.00000000000000      ,   122.00000000000000      ,   1.1809044405275202E-002 ,   3.6149101898913535E-007
   122.00000000000000      ,   123.00000000000000      ,   1.1761154935972642E-002 ,   3.6074336514851824E-007
   123.00000000000000      ,   124.00000000000000      ,   1.1712404073778625E-002 ,   3.5996110085821862E-007
   124.00000000000000      ,   125.00000000000000      ,   1.1664246366309812E-002 ,   3.5921401126721464E-007
   125.00000000000000      ,   126.00000000000000      ,   1.1614729160350208E-002 ,   3.5842934447462884E-007
   126.00000000000000      ,   127.00000000000000      ,   1.1564878738322576E-002 ,   3.5765167720233433E-007
   127.00000000000000      ,   128.00000000000000      ,   1.1514804216069012E-002 ,   3.5687153660096390E-007
   128.00000000000000      ,   129.00000000000000      ,   1.1464480569478502E-002 ,   3.5606704798707933E-007
   129.00000000000000      ,   130.00000000000000      ,   1.1413544220456429E-002 ,   3.5527972555538457E-007
   130.00000000000000      ,   131.00000000000000      ,   1.1361248039182363E-002 ,   3.5445271028748794E-007
   131.00000000000000      ,   132.00000000000000      ,   1.1309098658350489E-002 ,   3.5365954096958308E-007
   132.00000000000000      ,   133.00000000000000      ,   1.1257215005202083E-002 ,   3.5284380925806857E-007
   133.00000000000000      ,   134.00000000000000      ,   1.1203942257990674E-002 ,   3.5202062412025013E-007
   134.00000000000000      ,   135.00000000000000      ,   1.1149965293686601E-002 ,   3.5115293635978257E-007
   135.00000000000000      ,   136.00000000000000      ,   1.1096018717861218E-002 ,   3.5032755799846621E-007
   136.00000000000000      ,   137.00000000000000      ,   1.1041112059305198E-002 ,   3.4944902067001618E-007
   137.00000000000000      ,   138.00000000000000      ,   1.0985607642303869E-002 ,   3.4859041538795951E-007
   138.00000000000000      ,   139.00000000000000      ,   1.0930752694607684E-002 ,   3.4774987038609925E-007
   139.00000000000000      ,   140.00000000000000      ,   1.0873015207608826E-002 ,   3.4681294934241405E-007
   140.00000000000000      ,   141.00000000000000      ,   1.0817689343163545E-002 ,   3.4599285053754517E-007
   141.00000000000000      ,   142.00000000000000      ,   1.0759472018288413E-002 ,   3.4507052401906348E-007
   142.00000000000000      ,   143.00000000000000      ,   1.0701497295517991E-002 ,   3.4416045330978428E-007
   143.00000000000000      ,   144.00000000000000      ,   1.0643718570376751E-002 ,   3.4326155917365277E-007
   144.00000000000000      ,   145.00000000000000      ,   1.0584071853792947E-002 ,   3.4231602637364296E-007
   145.00000000000000      ,   146.00000000000000      ,   1.0524368514418920E-002 ,   3.4137329573413694E-007
   146.00000000000000      ,   147.00000000000000      ,   1.0463679953325894E-002 ,   3.4046426722408308E-007
   147.00000000000000      ,   148.00000000000000      ,   1.0403394881039557E-002 ,   3.3948533135595843E-007
   148.00000000000000      ,   149.00000000000000      ,   1.0342652304876339E-002 ,   3.3855297102792287E-007
   149.00000000000000      ,   150.00000000000000      ,   1.0279799436384685E-002 ,   3.3754684012825686E-007
   150.00000000000000      ,   151.00000000000000      ,   1.0217533669974382E-002 ,   3.3656444509045001E-007
   151.00000000000000      ,   152.00000000000000      ,   1.0154012712600694E-002 ,   3.3554419284402938E-007
   152.00000000000000      ,   153.00000000000000      ,   1.0090552453909163E-002 ,   3.3454829947206238E-007
   153.00000000000000      ,   154.00000000000000      ,   1.0026075894837304E-002 ,   3.3353233314950633E-007
   154.00000000000000      ,   155.00000000000000      ,   9.9608543054300596E-003 ,   3.3248540863222772E-007
   155.00000000000000      ,   156.00000000000000      ,   9.8954336787566641E-003 ,   3.3146880079860916E-007
   156.00000000000000      ,   157.00000000000000      ,   9.8284862744405423E-003 ,   3.3038212443795828E-007
   157.00000000000000      ,   158.00000000000000      ,   9.7612427888433152E-003 ,   3.2932951710642629E-007
   158.00000000000000      ,   159.00000000000000      ,   9.6946075493745815E-003 ,   3.2824125897940169E-007
   159.00000000000000      ,   160.00000000000000      ,   9.6254335472448251E-003 ,   3.2710952402124797E-007
   160.00000000000000      ,   161.00000000000000      ,   9.5569268566586957E-003 ,   3.2599820727494805E-007
   161.00000000000000      ,   162.00000000000000      ,   9.4870222899558609E-003 ,   3.2484217873142375E-007
   162.00000000000000      ,   163.00000000000000      ,   9.4167310014681566E-003 ,   3.2368280121080267E-007
   163.00000000000000      ,   164.00000000000000      ,   9.3461117024503642E-003 ,   3.2253351870332403E-007
   164.00000000000000      ,   165.00000000000000      ,   9.2759381531154449E-003 ,   3.2139494334059283E-007
   165.00000000000000      ,   166.00000000000000      ,   9.2024409351476079E-003 ,   3.2014275008808029E-007
   166.00000000000000      ,   167.00000000000000      ,   9.1306446779024966E-003 ,   3.1896685613749376E-007
   167.00000000000000      ,   168.00000000000000      ,   9.0569583778212503E-003 ,   3.1771706333147391E-007
   168.00000000000000      ,   169.00000000000000      ,   8.9824915003603768E-003 ,   3.1643428747499895E-007
   169.00000000000000      ,   170.00000000000000      ,   8.9084389408484160E-003 ,   3.1519280067347081E-007
   170.00000000000000      ,   171.00000000000000      ,   8.8332717408054207E-003 ,   3.1387359151196142E-007
   171.00000000000000      ,   172.00000000000000      ,   8.7574407122076158E-003 ,   3.1255877857019468E-007
   172.00000000000000      ,   173.00000000000000      ,   8.6806632621283693E-003 ,   3.1124533487751295E-007
   173.00000000000000      ,   174.00000000000000      ,   8.6049172968647811E-003 ,   3.0993547357142814E-007
   174.00000000000000      ,   175.00000000000000      ,   8.5257781870875238E-003 ,   3.0872372856663031E-007
   175.00000000000000      ,   176.00000000000000      ,   8.4479983303038190E-003 ,   3.0709824059481683E-007
   176.00000000000000      ,   177.00000000000000      ,   8.3693771503804883E-003 ,   3.0567293886589057E-007
   177.00000000000000      ,   178.00000000000000      ,   8.2906256151435691E-003 ,   3.0422469627653989E-007
   178.00000000000000      ,   179.00000000000000      ,   8.2107956637683232E-003 ,   3.0273881969701402E-007
   179.00000000000000      ,   180.00000000000000      ,   8.1312797060682628E-003 ,   3.0128060432592830E-007
   180.00000000000000      ,   181.00000000000000      ,   8.0509639945977787E-003 ,   2.9974569688371532E-007
   181.00000000000000      ,   182.00000000000000      ,   7.9702643495355927E-003 ,   2.9822176326019838E-007
   182.00000000000000      ,   183.00000000000000      ,   7.8898477164869221E-003 ,   2.9668769849340760E-007
   183.00000000000000      ,   184.00000000000000      ,   7.8089468194986085E-003 ,   2.9509742937061337E-007
   184.00000000000000      ,   185.00000000000000      ,   7.7274222792390358E-003 ,   2.9349456561327081E-007
   185.00000000000000      ,   186.00000000000000      ,   7.6456750766078973E-003 ,   2.9188724124090543E-007
   186.00000000000000      ,   187.00000000000000      ,   7.5639132020426884E-003 ,   2.9028740867016194E-007
   187.00000000000000      ,   188.00000000000000      ,   7.4812725321092600E-003 ,   2.8854955866453955E-007
   188.00000000000000      ,   189.00000000000000      ,   7.3990107562686052E-003 ,   2.8690702938010872E-007
   189.00000000000000      ,   190.00000000000000      ,   7.3155681338224312E-003 ,   2.8513072336910026E-007
   190.00000000000000      ,   191.00000000000000      ,   7.2329619494212296E-003 ,   2.8339200355436216E-007
   191.00000000000000      ,   192.00000000000000      ,   7.1490713104509279E-003 ,   2.8165918669662606E-007
   192.00000000000000      ,   193.00000000000000      ,   7.0659442474195313E-003 ,   2.7983205444277797E-007
   193.00000000000000      ,   194.00000000000000      ,   6.9824119869695573E-003 ,   2.7803510460755497E-007
   194.00000000000000      ,   195.00000000000000      ,   6.8987001374468870E-003 ,   2.7619355691369452E-007
   195.00000000000000      ,   196.00000000000000      ,   6.8142441985240962E-003 ,   2.7431299053719239E-007
   196.00000000000000      ,   197.00000000000000      ,   6.7299763266022387E-003 ,   2.7246286523239679E-007
   197.00000000000000      ,   198.00000000000000      ,   6.6458295307469818E-003 ,   2.7062107486611073E-007
   198.00000000000000      ,   199.00000000000000      ,   6.5610522023489826E-003 ,   2.6856351527215212E-007
   199.00000000000000      ,   200.00000000000000      ,   6.4771912828608174E-003 ,   2.6668558631213719E-007
   200.00000000000000      ,   201.00000000000000      ,   6.3923365977459961E-003 ,   2.6465814873490309E-007
   201.00000000000000      ,   202.00000000000000      ,   6.3080328511254226E-003 ,   2.6267705858422085E-007
   202.00000000000000      ,   203.00000000000000      ,   6.2230606675632658E-003 ,   2.6064402862568189E-007
   203.00000000000000      ,   204.00000000000000      ,   6.1388262328109320E-003 ,   2.5862521937249110E-007
   204.00000000000000      ,   205.00000000000000      ,   6.0543776903455521E-003 ,   2.5658303472773157E-007
   205.00000000000000      ,   206.00000000000000      ,   5.9696999053683603E-003 ,   2.5450769681779610E-007
   206.00000000000000      ,   207.00000000000000      ,   5.8854504709492479E-003 ,   2.5244104923097487E-007
   207.00000000000000      ,   208.00000000000000      ,   5.8009901794564200E-003 ,   2.5032788675181554E-007
   208.00000000000000      ,   209.00000000000000      ,   5.7169525779006544E-003 ,   2.4823989763873399E-007
   209.00000000000000      ,   210.00000000000000      ,   5.6321706415801091E-003 ,   2.4606410679337996E-007
   210.00000000000000      ,   211.00000000000000      ,   5.5485782014575774E-003 ,   2.4395053199313960E-007
   211.00000000000000      ,   212.00000000000000      ,   5.4642799227460253E-003 ,   2.4178928206543392E-007
   212.00000000000000      ,   213.00000000000000      ,   5.3805676767502923E-003 ,   2.3961635761698525E-007
   213.00000000000000      ,   214.00000000000000      ,   5.2972159096787317E-003 ,   2.3747241367972638E-007
   214.00000000000000      ,   215.00000000000000      ,   5.2135787681029050E-003 ,   2.3527695857241222E-007
   215.00000000000000      ,   216.00000000000000      ,   5.1304569648755296E-003 ,   2.3309049836905081E-007
   216.00000000000000      ,   217.00000000000000      ,   5.0476496218175154E-003 ,   2.3090188329791820E-007
   217.00000000000000      ,   218.00000000000000      ,   4.9647190475226701E-003 ,   2.2868273213368590E-007
   218.00000000000000      ,   219.00000000000000      ,   4.8827293632021235E-003 ,   2.2650369149464055E-007
   219.00000000000000      ,   220.00000000000000      ,   4.8002305824560981E-003 ,   2.2428526709673173E-007
   220.00000000000000      ,   221.00000000000000      ,   4.7187216259573592E-003 ,   2.2209503854376313E-007
   221.00000000000000      ,   222.00000000000000      ,   4.6371430518072770E-003 ,   2.1985304610410420E-007
   222.00000000000000      ,   223.00000000000000      ,   4.5551376183100029E-003 ,   2.1758744899142272E-007
   223.00000000000000      ,   224.00000000000000      ,   4.4750366963502109E-003 ,   2.1539201154852039E-007
   224.00000000000000      ,   225.00000000000000      ,   4.3944847570470073E-003 ,   2.1314977404940936E-007
   225.00000000000000      ,   226.00000000000000      ,   4.3141953705853461E-003 ,   2.1088123109861307E-007
   226.00000000000000      ,   227.00000000000000      ,   4.2339322591016882E-003 ,   2.0862182719909063E-007
   227.00000000000000      ,   228.00000000000000      ,   4.1549279606107109E-003 ,   2.0637904957592390E-007
   228.00000000000000      ,   229.00000000000000      ,   4.0759101224557073E-003 ,   2.0411282274330062E-007
   229.00000000000000      ,   230.00000000000000      ,   3.9971425766615306E-003 ,   2.0184033188998980E-007
   230.00000000000000      ,   231.00000000000000      ,   3.9185588242661579E-003 ,   1.9954600370621180E-007
   231.00000000000000      ,   232.00000000000000      ,   3.8407276540565736E-003 ,   1.9726274348894390E-007
   232.00000000000000      ,   233.00000000000000      ,   3.7632956291157784E-003 ,   1.9497990791196615E-007
   233.00000000000000      ,   234.00000000000000      ,   3.6860659591054761E-003 ,   1.9268861709598098E-007
   234.00000000000000      ,   235.00000000000000      ,   3.6094286141852838E-003 ,   1.9038055115865684E-007
   235.00000000000000      ,   236.00000000000000      ,   3.5333221763407530E-003 ,   1.8808283621498926E-007
   236.00000000000000      ,   237.00000000000000      ,   3.4573678841849989E-003 ,   1.8576946548642084E-007
   237.00000000000000      ,   238.00000000000000      ,   3.3816750602129880E-003 ,   1.8343505169446479E-007
   238.00000000000000      ,   239.00000000000000      ,   3.3066591437886381E-003 ,   1.8112134307631899E-007
   239.00000000000000      ,   240.00000000000000      ,   3.2323809128766909E-003 ,   1.7880258072541996E-007
   240.00000000000000      ,   241.00000000000000      ,   3.1581423976080845E-003 ,   1.7648043090664493E-007
   241.00000000000000      ,   242.00000000000000      ,   3.0843833862795288E-003 ,   1.7411663016325801E-007
   242.00000000000000      ,   243.00000000000000      ,   3.0111142552935251E-003 ,   1.7177274848091622E-007
   243.00000000000000      ,   244.00000000000000      ,   2.9386588788832442E-003 ,   1.6946783786695660E-007
   244.00000000000000      ,   245.00000000000000      ,   2.8662303837230195E-003 ,   1.6708909441870887E-007
   245.00000000000000      ,   246.00000000000000      ,   2.7945775456197988E-003 ,   1.6474384571092103E-007
   246.00000000000000      ,   247.00000000000000      ,   2.7229436823930802E-003 ,   1.6236236459961593E-007
   247.00000000000000      ,   248.00000000000000      ,   2.6521885864665461E-003 ,   1.6000424063017756E-007
   248.00000000000000      ,   249.00000000000000      ,   2.5816516989338300E-003 ,   1.5760288614011174E-007
   249.00000000000000      ,   250.00000000000000      ,   2.5118562102563278E-003 ,   1.5522693618770660E-007
   250.00000000000000      ,   251.00000000000000      ,   2.4425184544918746E-003 ,   1.5284940855959911E-007
   251.00000000000000      ,   252.00000000000000      ,   2.3735499605484979E-003 ,   1.5044884190002169E-007
   252.00000000000000      ,   253.00000000000000      ,   2.3050428869215490E-003 ,   1.4801970304418408E-007
   253.00000000000000      ,   254.00000000000000      ,   2.2372692360340127E-003 ,   1.4562715553154829E-007
   254.00000000000000      ,   255.00000000000000      ,   2.1700520682290591E-003 ,   1.4319260555212233E-007
   255.00000000000000      ,   256.00000000000000      ,   2.1039828777148781E-003 ,   1.4078119429597201E-007
   256.00000000000000      ,   257.00000000000000      ,   2.0390056082782515E-003 ,   1.3832074435545119E-007
   257.00000000000000      ,   258.00000000000000      ,   1.9756845240732541E-003 ,   1.3589976094709347E-007
   258.00000000000000      ,   259.00000000000000      ,   1.9132066961873994E-003 ,   1.3347514336099579E-007
   259.00000000000000      ,   260.00000000000000      ,   1.8517471325447364E-003 ,   1.3100314645962385E-007
   260.00000000000000      ,   261.00000000000000      ,   1.7914291466115608E-003 ,   1.2855463357999688E-007
   261.00000000000000      ,   262.00000000000000      ,   1.7322639267217798E-003 ,   1.2611021987218417E-007
   262.00000000000000      ,   263.00000000000000      ,   1.6742464297378760E-003 ,   1.2368360460106885E-007
   263.00000000000000      ,   264.00000000000000      ,   1.6170559368629809E-003 ,   1.2121199450235832E-007
   264.00000000000000      ,   265.00000000000000      ,   1.5607750316896183E-003 ,   1.1874873457750691E-007
   265.00000000000000      ,   266.00000000000000      ,   1.5057467870259404E-003 ,   1.1629908661499601E-007
   266.00000000000000      ,   267.00000000000000      ,   1.4516896431147068E-003 ,   1.1384660875355405E-007
   267.00000000000000      ,   268.00000000000000      ,   1.3984040090864293E-003 ,   1.1136685237217783E-007
   268.00000000000000      ,   269.00000000000000      ,   1.3463798435107957E-003 ,   1.0890843696000399E-007
   269.00000000000000      ,   270.00000000000000      ,   1.2949499370739825E-003 ,   1.0641870080688837E-007
   270.00000000000000      ,   271.00000000000000      ,   1.2448169138940257E-003 ,   1.0394047519178057E-007
   271.00000000000000      ,   272.00000000000000      ,   1.1958748787657895E-003 ,   1.0149650135526850E-007
   272.00000000000000      ,   273.00000000000000      ,   1.1477787943588332E-003 ,   9.9043993253294652E-008
   273.00000000000000      ,   274.00000000000000      ,   1.1007674582343880E-003 ,   9.6567017110518082E-008
   274.00000000000000      ,   275.00000000000000      ,   1.0549032108899408E-003 ,   9.4111071581976176E-008
   275.00000000000000      ,   276.00000000000000      ,   1.0098943231536728E-003 ,   9.1641022984903633E-008
   276.00000000000000      ,   277.00000000000000      ,   9.6616716369324069E-004 ,   8.9201531055418110E-008
   277.00000000000000      ,   278.00000000000000      ,   9.2322263534157310E-004 ,   8.6729436831294640E-008
   278.00000000000000      ,   279.00000000000000      ,   8.8139209043149144E-004 ,   8.4282999732192549E-008
   279.00000000000000      ,   280.00000000000000      ,   8.4039603014301242E-004 ,   8.1818467346803636E-008
   280.00000000000000      ,   281.00000000000000      ,   8.0041133794863403E-004 ,   7.9389067638992036E-008
   281.00000000000000      ,   282.00000000000000      ,   7.6130073150996753E-004 ,   7.6940530738990377E-008
   282.00000000000000      ,   283.00000000000000      ,   7.2278917741625546E-004 ,   7.4466058252554889E-008
   283.00000000000000      ,   284.00000000000000      ,   6.8504669869506873E-004 ,   7.1973099858680174E-008
   284.00000000000000      ,   285.00000000000000      ,   6.4841338437535666E-004 ,   6.9508110441687611E-008
   285.00000000000000      ,   286.00000000000000      ,   6.1254605470055219E-004 ,   6.7063737346039769E-008
   286.00000000000000      ,   287.00000000000000      ,   5.7743776476068748E-004 ,   6.4563769801936745E-008
   287.00000000000000      ,   288.00000000000000      ,   5.4309660466296712E-004 ,   6.2099148131249290E-008
   288.00000000000000      ,   289.00000000000000      ,   5.0934501201233733E-004 ,   5.9564181569859631E-008
   289.00000000000000      ,   290.00000000000000      ,   4.7673818055728016E-004 ,   5.7090265426942853E-008
   290.00000000000000      ,   291.00000000000000      ,   4.4469675957448768E-004 ,   5.4590477608382762E-008
   291.00000000000000      ,   292.00000000000000      ,   4.1344860894329956E-004 ,   5.2062275606681695E-008
   292.00000000000000      ,   293.00000000000000      ,   3.8297355846266180E-004 ,   4.9525062124630530E-008
   293.00000000000000      ,   294.00000000000000      ,   3.5339996396862206E-004 ,   4.6994865155787992E-008
   294.00000000000000      ,   295.00000000000000      ,   3.2463091193326047E-004 ,   4.4449258390187937E-008
   295.00000000000000      ,   296.00000000000000      ,   2.9671160572907954E-004 ,   4.1893515829061885E-008
   296.00000000000000      ,   297.00000000000000      ,   2.6952627400127883E-004 ,   3.9308896641268552E-008
   297.00000000000000      ,   298.00000000000000      ,   2.4330580060116054E-004 ,   3.6717148457739256E-008
   298.00000000000000      ,   299.00000000000000      ,   2.1802429550733397E-004 ,   3.4128305957772653E-008
   299.00000000000000      ,   300.00000000000000      ,   1.9366791304607377E-004 ,   3.1539393164851364E-008
   300.00000000000000      ,   301.00000000000000      ,   1.7021580200386684E-004 ,   2.8927100582900715E-008
   301.00000000000000      ,   302.00000000000000      ,   1.4792799196487028E-004 ,   2.6307750325105733E-008
   302.00000000000000      ,   303.00000000000000      ,   1.2668114555470451E-004 ,   2.3675123069141011E-008
   303.00000000000000      ,   304.00000000000000      ,   1.0665498291980678E-004 ,   2.1043659947645599E-008
   304.00000000000000      ,   305.00000000000000      ,   8.7860830395316124E-005 ,   1.8413345199133315E-008
   305.00000000000000      ,   306.00000000000000      ,   7.0505730941260186E-005 ,   1.5809335731274573E-008
   306.00000000000000      ,   307.00000000000000      ,   5.4581158876889175E-005 ,   1.3180532865029590E-008
   307.00000000000000      ,   308.00000000000000      ,   4.0375445621510496E-005 ,   1.0630553209875442E-008
   308.00000000000000      ,   309.00000000000000      ,   2.8023595236490579E-005 ,   8.1311229185566370E-009
   309.00000000000000      ,   310.00000000000000      ,   1.7825515438519977E-005 ,   5.8363751933520733E-009
   310.00000000000000      ,   311.00000000000000      ,   9.9704328733438992E-006 ,   3.8455930755835345E-009
   311.00000000000000      ,   312.00000000000000      ,   4.5091246123776086E-006 ,   2.2548616990674237E-009
   312.00000000000000      ,   313.00000000000000      ,   1.2985508296924143E-006 ,   1.0362538583911081E-009
   313.00000000000000      ,   314.00000000000000      ,   9.7145279530740542E-008 ,   2.3478488215791018E-010
   314.00000000000000      ,   315.00000000000000      ,   0.0000000000000000      ,   0.0000000000000000     
   315.00000000000000      ,   316.00000000000000      ,   0.0000000000000000      ,   0.0000000000000000     
   316.00000000000000      ,   317.00000000000000      ,   0.0000000000000000      ,   0.0000000000000000     
   317.00000000000000      ,   318.00000000000000      ,   0.0000000000000000      ,   0.0000000000000000     
   318.00000000000000      ,   319.00000000000000      ,   0.0000000000000000      ,   0.0000000000000000     
   319.00000000000000      ,   320.00000000000000      ,   0.0000000000000000      ,   0.0000000000000000     
   320.00000000000000      ,   321.00000000000000      ,   0.0000000000000000      ,   0.0000000000000000     
   321.00000000000000      ,   322.00000000000000      ,   0.0000000000000000      ,   0.0000000000000000     
   322.00000000000000      ,   323.00000000000000      ,   0.0000000000000000      ,   0.0000000000000000     
   323.00000000000000      ,   324.00000000000000      ,   0.0000000000000000      ,   0.0000000000000000     
   324.00000000000000      ,   325.00000000000000      ,   0.0000000000000000      ,   0.0000000000000000     
   325.00000000000000      ,   326.00000000000000      ,   0.0000000000000000      ,   0.0000000000000000     
   326.00000000000000      ,   327.00000000000000      ,   0.0000000000000000      ,   0.0000000000000000     
   327.00000000000000      ,   328.00000000000000      ,   0.0000000000000000      ,   0.0000000000000000     
   328.00000000000000      ,   329.00000000000000      ,   0.0000000000000000      ,   0.0000000000000000     
   329.00000000000000      ,   330.00000000000000      ,   0.0000000000000000      ,   0.0000000000000000     
   330.00000000000000      ,   331.00000000000000      ,   0.0000000000000000      ,   0.0000000000000000     
   331.00000000000000      ,   332.00000000000000      ,   0.0000000000000000      ,   0.0000000000000000     
   332.00000000000000      ,   333.00000000000000      ,   0.0000000000000000      ,   0.0000000000000000     
   333.00000000000000      ,   334.00000000000000      ,   0.0000000000000000      ,   0.0000000000000000     
   334.00000000000000      ,   335.00000000000000      ,   0.0000000000000000      ,   0.0000000000000000     
   335.00000000000000      ,   336.00000000000000      ,   0.0000000000000000      ,   0.0000000000000000     
   336.00000000000000      ,   337.00000000000000      ,   0.0000000000000000      ,   0.0000000000000000     
   337.00000000000000      ,   338.00000000000000      ,   0.0000000000000000      ,   0.0000000000000000     
   338.00000000000000      ,   339.00000000000000      ,   0.0000000000000000      ,   0.0000000000000000     
   339.00000000000000      ,   340.00000000000000      ,   0.0000000000000000      ,   0.0000000000000000     
   340.00000000000000      ,   341.00000000000000      ,   0.0000000000000000      ,   0.0000000000000000     
   341.00000000000000      ,   342.00000000000000      ,   0.0000000000000000      ,   0.0000000000000000     
   342.00000000000000      ,   343.00000000000000      ,   0.0000000000000000      ,   0.0000000000000000     
   343.00000000000000      ,   344.00000000000000      ,   0.0000000000000000      ,   0.0000000000000000     
   344.00000000000000      ,   345.00000000000000      ,   0.0000000000000000      ,   0.0000000000000000     
   345.00000000000000      ,   346.00000000000000      ,   0.0000000000000000      ,   0.0000000000000000     
   346.00000000000000      ,   347.00000000000000      ,   0.0000000000000000      ,   0.0000000000000000     
   347.00000000000000      ,   348.00000000000000      ,   0.0000000000000000      ,   0.0000000000000000     
   348.00000000000000      ,   349.00000000000000      ,   0.0000000000000000      ,   0.0000000000000000     
   349.00000000000000      ,   350.00000000000000      ,   0.0000000000000000      ,   0.0000000000000000     
   350.00000000000000      ,   351.00000000000000      ,   0.0000000000000000      ,   0.0000000000000000     
   351.00000000000000      ,   352.00000000000000      ,   0.0000000000000000      ,   0.0000000000000000     
   352.00000000000000      ,   353.00000000000000      ,   0.0000000000000000      ,   0.0000000000000000     
   353.00000000000000      ,   354.00000000000000      ,   0.0000000000000000      ,   0.0000000000000000     
   354.00000000000000      ,   355.00000000000000      ,   0.0000000000000000      ,   0.0000000000000000     
   355.00000000000000      ,   356.00000000000000      ,   0.0000000000000000      ,   0.0000000000000000     
   356.00000000000000      ,   357.00000000000000      ,   0.0000000000000000      ,   0.0000000000000000     
   357.00000000000000      ,   358.00000000000000      ,   0.0000000000000000      ,   0.0000000000000000     
   358.00000000000000      ,   359.00000000000000      ,   0.0000000000000000      ,   0.0000000000000000     
   359.00000000000000      ,   360.00000000000000      ,   0.0000000000000000      ,   0.0000000000000000     
   360.00000000000000      ,   361.00000000000000      ,   0.0000000000000000      ,   0.0000000000000000     
   361.00000000000000      ,   362.00000000000000      ,   0.0000000000000000      ,   0.0000000000000000     
   362.00000000000000      ,   363.00000000000000      ,   0.0000000000000000      ,   0.0000000000000000     
   363.00000000000000      ,   364.00000000000000      ,   0.0000000000000000      ,   0.0000000000000000     
   364.00000000000000      ,   365.00000000000000      ,   0.0000000000000000      ,   0.0000000000000000     
   365.00000000000000      ,   366.00000000000000      ,   0.0000000000000000      ,   0.0000000000000000     
   366.00000000000000      ,   367.00000000000000      ,   0.0000000000000000      ,   0.0000000000000000     
   367.00000000000000      ,   368.00000000000000      ,   0.0000000000000000      ,   0.0000000000000000     
   368.00000000000000      ,   369.00000000000000      ,   0.0000000000000000      ,   0.0000000000000000     
   369.00000000000000      ,   370.00000000000000      ,   0.0000000000000000      ,   0.0000000000000000     
   370.00000000000000      ,   371.00000000000000      ,   0.0000000000000000      ,   0.0000000000000000     
   371.00000000000000      ,   372.00000000000000      ,   0.0000000000000000      ,   0.0000000000000000     
   372.00000000000000      ,   373.00000000000000      ,   0.0000000000000000      ,   0.0000000000000000     
   373.00000000000000      ,   374.00000000000000      ,   0.0000000000000000      ,   0.0000000000000000     
   374.00000000000000      ,   375.00000000000000      ,   0.0000000000000000      ,   0.0000000000000000     
   375.00000000000000      ,   376.00000000000000      ,   0.0000000000000000      ,   0.0000000000000000     
   376.00000000000000      ,   377.00000000000000      ,   0.0000000000000000      ,   0.0000000000000000     
   377.00000000000000      ,   378.00000000000000      ,   0.0000000000000000      ,   0.0000000000000000     
   378.00000000000000      ,   379.00000000000000      ,   0.0000000000000000      ,   0.0000000000000000     
   379.00000000000000      ,   380.00000000000000      ,   0.0000000000000000      ,   0.0000000000000000     
   380.00000000000000      ,   381.00000000000000      ,   0.0000000000000000      ,   0.0000000000000000     
   381.00000000000000      ,   382.00000000000000      ,   0.0000000000000000      ,   0.0000000000000000     
   382.00000000000000      ,   383.00000000000000      ,   0.0000000000000000      ,   0.0000000000000000     
   383.00000000000000      ,   384.00000000000000      ,   0.0000000000000000      ,   0.0000000000000000     
   384.00000000000000      ,   385.00000000000000      ,   0.0000000000000000      ,   0.0000000000000000     
   385.00000000000000      ,   386.00000000000000      ,   0.0000000000000000      ,   0.0000000000000000     
   386.00000000000000      ,   387.00000000000000      ,   0.0000000000000000      ,   0.0000000000000000     
   387.00000000000000      ,   388.00000000000000      ,   0.0000000000000000      ,   0.0000000000000000     
   388.00000000000000      ,   389.00000000000000      ,   0.0000000000000000      ,   0.0000000000000000     
   389.00000000000000      ,   390.00000000000000      ,   0.0000000000000000      ,   0.0000000000000000     
   390.00000000000000      ,   391.00000000000000      ,   0.0000000000000000      ,   0.0000000000000000     
   391.00000000000000      ,   392.00000000000000      ,   0.0000000000000000      ,   0.0000000000000000     
   392.00000000000000      ,   393.00000000000000      ,   0.0000000000000000      ,   0.0000000000000000     
   393.00000000000000      ,   394.00000000000000      ,   0.0000000000000000      ,   0.0000000000000000     
   394.00000000000000      ,   395.00000000000000      ,   0.0000000000000000      ,   0.0000000000000000     
   395.00000000000000      ,   396.00000000000000      ,   0.0000000000000000      ,   0.0000000000000000     
   396.00000000000000      ,   397.00000000000000      ,   0.0000000000000000      ,   0.0000000000000000     
   397.00000000000000      ,   398.00000000000000      ,   0.0000000000000000      ,   0.0000000000000000     
   398.00000000000000      ,   399.00000000000000      ,   0.0000000000000000      ,   0.0000000000000000     
   399.00000000000000      ,   400.00000000000000      ,   0.0000000000000000      ,   0.0000000000000000     
   400.00000000000000      ,   401.00000000000000      ,   0.0000000000000000      ,   0.0000000000000000     
   401.00000000000000      ,   402.00000000000000      ,   0.0000000000000000      ,   0.0000000000000000     
   402.00000000000000      ,   403.00000000000000      ,   0.0000000000000000      ,   0.0000000000000000     
   403.00000000000000      ,   404.00000000000000      ,   0.0000000000000000      ,   0.0000000000000000     
   404.00000000000000      ,   405.00000000000000      ,   0.0000000000000000      ,   0.0000000000000000     
   405.00000000000000      ,   406.00000000000000      ,   0.0000000000000000      ,   0.0000000000000000     
   406.00000000000000      ,   407.00000000000000      ,   0.0000000000000000      ,   0.0000000000000000     
   407.00000000000000      ,   408.00000000000000      ,   0.0000000000000000      ,   0.0000000000000000     
   408.00000000000000      ,   409.00000000000000      ,   0.0000000000000000      ,   0.0000000000000000     
   409.00000000000000      ,   410.00000000000000      ,   0.0000000000000000      ,   0.0000000000000000     
   410.00000000000000      ,   411.00000000000000      ,   0.0000000000000000      ,   0.0000000000000000     
   411.00000000000000      ,   412.00000000000000      ,   0.0000000000000000      ,   0.0000000000000000     
   412.00000000000000      ,   413.00000000000000      ,   0.0000000000000000      ,   0.0000000000000000     
   413.00000000000000      ,   414.00000000000000      ,   0.0000000000000000      ,   0.0000000000000000     
   414.00000000000000      ,   415.00000000000000      ,   0.0000000000000000      ,   0.0000000000000000     
   415.00000000000000      ,   416.00000000000000      ,   0.0000000000000000      ,   0.0000000000000000     
   416.00000000000000      ,   417.00000000000000      ,   0.0000000000000000      ,   0.0000000000000000     
   417.00000000000000      ,   418.00000000000000      ,   0.0000000000000000      ,   0.0000000000000000     
   418.00000000000000      ,   419.00000000000000      ,   0.0000000000000000      ,   0.0000000000000000     
   419.00000000000000      ,   420.00000000000000      ,   0.0000000000000000      ,   0.0000000000000000     
   420.00000000000000      ,   421.00000000000000      ,   0.0000000000000000      ,   0.0000000000000000     
   421.00000000000000      ,   422.00000000000000      ,   0.0000000000000000      ,   0.0000000000000000     
   422.00000000000000      ,   423.00000000000000      ,   0.0000000000000000      ,   0.0000000000000000     
   423.00000000000000      ,   424.00000000000000      ,   0.0000000000000000      ,   0.0000000000000000     
   424.00000000000000      ,   425.00000000000000      ,   0.0000000000000000      ,   0.0000000000000000     
   425.00000000000000      ,   426.00000000000000      ,   0.0000000000000000      ,   0.0000000000000000     
   426.00000000000000      ,   427.00000000000000      ,   0.0000000000000000      ,   0.0000000000000000     
   427.00000000000000      ,   428.00000000000000      ,   0.0000000000000000      ,   0.0000000000000000     
   428.00000000000000      ,   429.00000000000000      ,   0.0000000000000000      ,   0.0000000000000000     
   429.00000000000000      ,   430.00000000000000      ,   0.0000000000000000      ,   0.0000000000000000     
   430.00000000000000      ,   431.00000000000000      ,   0.0000000000000000      ,   0.0000000000000000     
   431.00000000000000      ,   432.00000000000000      ,   0.0000000000000000      ,   0.0000000000000000     
   432.00000000000000      ,   433.00000000000000      ,   0.0000000000000000      ,   0.0000000000000000     
   433.00000000000000      ,   434.00000000000000      ,   0.0000000000000000      ,   0.0000000000000000     
   434.00000000000000      ,   435.00000000000000      ,   0.0000000000000000      ,   0.0000000000000000     
   435.00000000000000      ,   436.00000000000000      ,   0.0000000000000000      ,   0.0000000000000000     
   436.00000000000000      ,   437.00000000000000      ,   0.0000000000000000      ,   0.0000000000000000     
   437.00000000000000      ,   438.00000000000000      ,   0.0000000000000000      ,   0.0000000000000000     
   438.00000000000000      ,   439.00000000000000      ,   0.0000000000000000      ,   0.0000000000000000     
   439.00000000000000      ,   440.00000000000000      ,   0.0000000000000000      ,   0.0000000000000000     
   440.00000000000000      ,   441.00000000000000      ,   0.0000000000000000      ,   0.0000000000000000     
   441.00000000000000      ,   442.00000000000000      ,   0.0000000000000000      ,   0.0000000000000000     
   442.00000000000000      ,   443.00000000000000      ,   0.0000000000000000      ,   0.0000000000000000     
   443.00000000000000      ,   444.00000000000000      ,   0.0000000000000000      ,   0.0000000000000000     
   444.00000000000000      ,   445.00000000000000      ,   0.0000000000000000      ,   0.0000000000000000     
   445.00000000000000      ,   446.00000000000000      ,   0.0000000000000000      ,   0.0000000000000000     
   446.00000000000000      ,   447.00000000000000      ,   0.0000000000000000      ,   0.0000000000000000     
   447.00000000000000      ,   448.00000000000000      ,   0.0000000000000000      ,   0.0000000000000000     
   448.00000000000000      ,   449.00000000000000      ,   0.0000000000000000      ,   0.0000000000000000     
   449.00000000000000      ,   450.00000000000000      ,   0.0000000000000000      ,   0.0000000000000000     
   450.00000000000000      ,   451.00000000000000      ,   0.0000000000000000      ,   0.0000000000000000     
   451.00000000000000      ,   452.00000000000000      ,   0.0000000000000000      ,   0.0000000000000000     
   452.00000000000000      ,   453.00000000000000      ,   0.0000000000000000      ,   0.0000000000000000     
   453.00000000000000      ,   454.00000000000000      ,   0.0000000000000000      ,   0.0000000000000000     
   454.00000000000000      ,   455.00000000000000      ,   0.0000000000000000      ,   0.0000000000000000     
   455.00000000000000      ,   456.00000000000000      ,   0.0000000000000000      ,   0.0000000000000000     
   456.00000000000000      ,   457.00000000000000      ,   0.0000000000000000      ,   0.0000000000000000     
   457.00000000000000      ,   458.00000000000000      ,   0.0000000000000000      ,   0.0000000000000000     
   458.00000000000000      ,   459.00000000000000      ,   0.0000000000000000      ,   0.0000000000000000     
   459.00000000000000      ,   460.00000000000000      ,   0.0000000000000000      ,   0.0000000000000000     
   460.00000000000000      ,   461.00000000000000      ,   0.0000000000000000      ,   0.0000000000000000     
   461.00000000000000      ,   462.00000000000000      ,   0.0000000000000000      ,   0.0000000000000000     
   462.00000000000000      ,   463.00000000000000      ,   0.0000000000000000      ,   0.0000000000000000     
   463.00000000000000      ,   464.00000000000000      ,   0.0000000000000000      ,   0.0000000000000000     
   464.00000000000000      ,   465.00000000000000      ,   0.0000000000000000      ,   0.0000000000000000     
   465.00000000000000      ,   466.00000000000000      ,   0.0000000000000000      ,   0.0000000000000000     
   466.00000000000000      ,   467.00000000000000      ,   0.0000000000000000      ,   0.0000000000000000     
   467.00000000000000      ,   468.00000000000000      ,   0.0000000000000000      ,   0.0000000000000000     
   468.00000000000000      ,   469.00000000000000      ,   0.0000000000000000      ,   0.0000000000000000     
   469.00000000000000      ,   470.00000000000000      ,   0.0000000000000000      ,   0.0000000000000000     
   470.00000000000000      ,   471.00000000000000      ,   0.0000000000000000      ,   0.0000000000000000     
   471.00000000000000      ,   472.00000000000000      ,   0.0000000000000000      ,   0.0000000000000000     
   472.00000000000000      ,   473.00000000000000      ,   0.0000000000000000      ,   0.0000000000000000     
   473.00000000000000      ,   474.00000000000000      ,   0.0000000000000000      ,   0.0000000000000000     
   474.00000000000000      ,   475.00000000000000      ,   0.0000000000000000      ,   0.0000000000000000     
   475.00000000000000      ,   476.00000000000000      ,   0.0000000000000000      ,   0.0000000000000000     
   476.00000000000000      ,   477.00000000000000      ,   0.0000000000000000      ,   0.0000000000000000     
   477.00000000000000      ,   478.00000000000000      ,   0.0000000000000000      ,   0.0000000000000000     
   478.00000000000000      ,   479.00000000000000      ,   0.0000000000000000      ,   0.0000000000000000     
   479.00000000000000      ,   480.00000000000000      ,   0.0000000000000000      ,   0.0000000000000000     
   480.00000000000000      ,   481.00000000000000      ,   0.0000000000000000      ,   0.0000000000000000     
   481.00000000000000      ,   482.00000000000000      ,   0.0000000000000000      ,   0.0000000000000000     
   482.00000000000000      ,   483.00000000000000      ,   0.0000000000000000      ,   0.0000000000000000     
   483.00000000000000      ,   484.00000000000000      ,   0.0000000000000000      ,   0.0000000000000000     
   484.00000000000000      ,   485.00000000000000      ,   0.0000000000000000      ,   0.0000000000000000     
   485.00000000000000      ,   486.00000000000000      ,   0.0000000000000000      ,   0.0000000000000000     
   486.00000000000000      ,   487.00000000000000      ,   0.0000000000000000      ,   0.0000000000000000     
   487.00000000000000      ,   488.00000000000000      ,   0.0000000000000000      ,   0.0000000000000000     
   488.00000000000000      ,   489.00000000000000      ,   0.0000000000000000      ,   0.0000000000000000     
   489.00000000000000      ,   490.00000000000000      ,   0.0000000000000000      ,   0.0000000000000000     
   490.00000000000000      ,   491.00000000000000      ,   0.0000000000000000      ,   0.0000000000000000     
   491.00000000000000      ,   492.00000000000000      ,   0.0000000000000000      ,   0.0000000000000000     
   492.00000000000000      ,   493.00000000000000      ,   0.0000000000000000      ,   0.0000000000000000     
   493.00000000000000      ,   494.00000000000000      ,   0.0000000000000000      ,   0.0000000000000000     
   494.00000000000000      ,   495.00000000000000      ,   0.0000000000000000      ,   0.0000000000000000     
   495.00000000000000      ,   496.00000000000000      ,   0.0000000000000000      ,   0.0000000000000000     
   496.00000000000000      ,   497.00000000000000      ,   0.0000000000000000      ,   0.0000000000000000     
   497.00000000000000      ,   498.00000000000000      ,   0.0000000000000000      ,   0.0000000000000000     
   498.00000000000000      ,   499.00000000000000      ,   0.0000000000000000      ,   0.0000000000000000     
   499.00000000000000      ,   500.00000000000000      ,   0.0000000000000000      ,   0.0000000000000000     
   500.00000000000000      ,   501.00000000000000      ,   0.0000000000000000      ,   0.0000000000000000     
   501.00000000000000      ,   502.00000000000000      ,   0.0000000000000000      ,   0.0000000000000000     
   502.00000000000000      ,   503.00000000000000      ,   0.0000000000000000      ,   0.0000000000000000     
   503.00000000000000      ,   504.00000000000000      ,   0.0000000000000000      ,   0.0000000000000000     
   504.00000000000000      ,   505.00000000000000      ,   0.0000000000000000      ,   0.0000000000000000     
   505.00000000000000      ,   506.00000000000000      ,   0.0000000000000000      ,   0.0000000000000000     
   506.00000000000000      ,   507.00000000000000      ,   0.0000000000000000      ,   0.0000000000000000     
   507.00000000000000      ,   508.00000000000000      ,   0.0000000000000000      ,   0.0000000000000000     
   508.00000000000000      ,   509.00000000000000      ,   0.0000000000000000      ,   0.0000000000000000     
   509.00000000000000      ,   510.00000000000000      ,   0.0000000000000000      ,   0.0000000000000000     
   510.00000000000000      ,   511.00000000000000      ,   0.0000000000000000      ,   0.0000000000000000     
   511.00000000000000      ,   512.00000000000000      ,   0.0000000000000000      ,   0.0000000000000000     
   512.00000000000000      ,   513.00000000000000      ,   0.0000000000000000      ,   0.0000000000000000     
   513.00000000000000      ,   514.00000000000000      ,   0.0000000000000000      ,   0.0000000000000000     
   514.00000000000000      ,   515.00000000000000      ,   0.0000000000000000      ,   0.0000000000000000     
   515.00000000000000      ,   516.00000000000000      ,   0.0000000000000000      ,   0.0000000000000000     
   516.00000000000000      ,   517.00000000000000      ,   0.0000000000000000      ,   0.0000000000000000     
   517.00000000000000      ,   518.00000000000000      ,   0.0000000000000000      ,   0.0000000000000000     
   518.00000000000000      ,   519.00000000000000      ,   0.0000000000000000      ,   0.0000000000000000     
   519.00000000000000      ,   520.00000000000000      ,   0.0000000000000000      ,   0.0000000000000000     
   520.00000000000000      ,   521.00000000000000      ,   0.0000000000000000      ,   0.0000000000000000     
   521.00000000000000      ,   522.00000000000000      ,   0.0000000000000000      ,   0.0000000000000000     
   522.00000000000000      ,   523.00000000000000      ,   0.0000000000000000      ,   0.0000000000000000     
   523.00000000000000      ,   524.00000000000000      ,   0.0000000000000000      ,   0.0000000000000000     
   524.00000000000000      ,   525.00000000000000      ,   0.0000000000000000      ,   0.0000000000000000     
   525.00000000000000      ,   526.00000000000000      ,   0.0000000000000000      ,   0.0000000000000000     
   526.00000000000000      ,   527.00000000000000      ,   0.0000000000000000      ,   0.0000000000000000     
   527.00000000000000      ,   528.00000000000000      ,   0.0000000000000000      ,   0.0000000000000000     
   528.00000000000000      ,   529.00000000000000      ,   0.0000000000000000      ,   0.0000000000000000     
   529.00000000000000      ,   530.00000000000000      ,   0.0000000000000000      ,   0.0000000000000000     
   530.00000000000000      ,   531.00000000000000      ,   0.0000000000000000      ,   0.0000000000000000     
   531.00000000000000      ,   532.00000000000000      ,   0.0000000000000000      ,   0.0000000000000000     
   532.00000000000000      ,   533.00000000000000      ,   0.0000000000000000      ,   0.0000000000000000     
   533.00000000000000      ,   534.00000000000000      ,   0.0000000000000000      ,   0.0000000000000000     
   534.00000000000000      ,   535.00000000000000      ,   0.0000000000000000      ,   0.0000000000000000     
   535.00000000000000      ,   536.00000000000000      ,   0.0000000000000000      ,   0.0000000000000000     
   536.00000000000000      ,   537.00000000000000      ,   0.0000000000000000      ,   0.0000000000000000     
   537.00000000000000      ,   538.00000000000000      ,   0.0000000000000000      ,   0.0000000000000000     
   538.00000000000000      ,   539.00000000000000      ,   0.0000000000000000      ,   0.0000000000000000     
   539.00000000000000      ,   540.00000000000000      ,   0.0000000000000000      ,   0.0000000000000000     
   540.00000000000000      ,   541.00000000000000      ,   0.0000000000000000      ,   0.0000000000000000     
   541.00000000000000      ,   542.00000000000000      ,   0.0000000000000000      ,   0.0000000000000000     
   542.00000000000000      ,   543.00000000000000      ,   0.0000000000000000      ,   0.0000000000000000     
   543.00000000000000      ,   544.00000000000000      ,   0.0000000000000000      ,   0.0000000000000000     
   544.00000000000000      ,   545.00000000000000      ,   0.0000000000000000      ,   0.0000000000000000     
   545.00000000000000      ,   546.00000000000000      ,   0.0000000000000000      ,   0.0000000000000000     
   546.00000000000000      ,   547.00000000000000      ,   0.0000000000000000      ,   0.0000000000000000     
   547.00000000000000      ,   548.00000000000000      ,   0.0000000000000000      ,   0.0000000000000000     
   548.00000000000000      ,   549.00000000000000      ,   0.0000000000000000      ,   0.0000000000000000     
   549.00000000000000      ,   550.00000000000000      ,   0.0000000000000000      ,   0.0000000000000000     
   550.00000000000000      ,   551.00000000000000      ,   0.0000000000000000      ,   0.0000000000000000     
   551.00000000000000      ,   552.00000000000000      ,   0.0000000000000000      ,   0.0000000000000000     
   552.00000000000000      ,   553.00000000000000      ,   0.0000000000000000      ,   0.0000000000000000     
   553.00000000000000      ,   554.00000000000000      ,   0.0000000000000000      ,   0.0000000000000000     
   554.00000000000000      ,   555.00000000000000      ,   0.0000000000000000      ,   0.0000000000000000     
   555.00000000000000      ,   556.00000000000000      ,   0.0000000000000000      ,   0.0000000000000000     
   556.00000000000000      ,   557.00000000000000      ,   0.0000000000000000      ,   0.0000000000000000     
   557.00000000000000      ,   558.00000000000000      ,   0.0000000000000000      ,   0.0000000000000000     
   558.00000000000000      ,   559.00000000000000      ,   0.0000000000000000      ,   0.0000000000000000     
   559.00000000000000      ,   560.00000000000000      ,   0.0000000000000000      ,   0.0000000000000000     
   560.00000000000000      ,   561.00000000000000      ,   0.0000000000000000      ,   0.0000000000000000     
   561.00000000000000      ,   562.00000000000000      ,   0.0000000000000000      ,   0.0000000000000000     
   562.00000000000000      ,   563.00000000000000      ,   0.0000000000000000      ,   0.0000000000000000     
   563.00000000000000      ,   564.00000000000000      ,   0.0000000000000000      ,   0.0000000000000000     
   564.00000000000000      ,   565.00000000000000      ,   0.0000000000000000      ,   0.0000000000000000     
   565.00000000000000      ,   566.00000000000000      ,   0.0000000000000000      ,   0.0000000000000000     
   566.00000000000000      ,   567.00000000000000      ,   0.0000000000000000      ,   0.0000000000000000     
   567.00000000000000      ,   568.00000000000000      ,   0.0000000000000000      ,   0.0000000000000000     
   568.00000000000000      ,   569.00000000000000      ,   0.0000000000000000      ,   0.0000000000000000     
   569.00000000000000      ,   570.00000000000000      ,   0.0000000000000000      ,   0.0000000000000000     
   570.00000000000000      ,   571.00000000000000      ,   0.0000000000000000      ,   0.0000000000000000     
   571.00000000000000      ,   572.00000000000000      ,   0.0000000000000000      ,   0.0000000000000000     
   572.00000000000000      ,   573.00000000000000      ,   0.0000000000000000      ,   0.0000000000000000     
   573.00000000000000      ,   574.00000000000000      ,   0.0000000000000000      ,   0.0000000000000000     
   574.00000000000000      ,   575.00000000000000      ,   0.0000000000000000      ,   0.0000000000000000     
   575.00000000000000      ,   576.00000000000000      ,   0.0000000000000000      ,   0.0000000000000000     
   576.00000000000000      ,   577.00000000000000      ,   0.0000000000000000      ,   0.0000000000000000     
   577.00000000000000      ,   578.00000000000000      ,   0.0000000000000000      ,   0.0000000000000000     
   578.00000000000000      ,   579.00000000000000      ,   0.0000000000000000      ,   0.0000000000000000     
   579.00000000000000      ,   580.00000000000000      ,   0.0000000000000000      ,   0.0000000000000000     
   580.00000000000000      ,   581.00000000000000      ,   0.0000000000000000      ,   0.0000000000000000     
   581.00000000000000      ,   582.00000000000000      ,   0.0000000000000000      ,   0.0000000000000000     
   582.00000000000000      ,   583.00000000000000      ,   0.0000000000000000      ,   0.0000000000000000     
   583.00000000000000      ,   584.00000000000000      ,   0.0000000000000000      ,   0.0000000000000000     
   584.00000000000000      ,   585.00000000000000      ,   0.0000000000000000      ,   0.0000000000000000     
   585.00000000000000      ,   586.00000000000000      ,   0.0000000000000000      ,   0.0000000000000000     
   586.00000000000000      ,   587.00000000000000      ,   0.0000000000000000      ,   0.0000000000000000     
   587.00000000000000      ,   588.00000000000000      ,   0.0000000000000000      ,   0.0000000000000000     
   588.00000000000000      ,   589.00000000000000      ,   0.0000000000000000      ,   0.0000000000000000     
   589.00000000000000      ,   590.00000000000000      ,   0.0000000000000000      ,   0.0000000000000000     
   590.00000000000000      ,   591.00000000000000      ,   0.0000000000000000      ,   0.0000000000000000     
   591.00000000000000      ,   592.00000000000000      ,   0.0000000000000000      ,   0.0000000000000000     
   592.00000000000000      ,   593.00000000000000      ,   0.0000000000000000      ,   0.0000000000000000     
   593.00000000000000      ,   594.00000000000000      ,   0.0000000000000000      ,   0.0000000000000000     
   594.00000000000000      ,   595.00000000000000      ,   0.0000000000000000      ,   0.0000000000000000     
   595.00000000000000      ,   596.00000000000000      ,   0.0000000000000000      ,   0.0000000000000000     
   596.00000000000000      ,   597.00000000000000      ,   0.0000000000000000      ,   0.0000000000000000     
   597.00000000000000      ,   598.00000000000000      ,   0.0000000000000000      ,   0.0000000000000000     
   598.00000000000000      ,   599.00000000000000      ,   0.0000000000000000      ,   0.0000000000000000     
   599.00000000000000      ,   600.00000000000000      ,   0.0000000000000000      ,   0.0000000000000000     
