 # xl, xh, LO, dLO
   0.0000000000000000      ,   10.000000000000000      ,   0.0000000000000000      ,   0.0000000000000000     
   10.000000000000000      ,   20.000000000000000      ,   0.0000000000000000      ,   0.0000000000000000     
   20.000000000000000      ,   30.000000000000000      ,   0.0000000000000000      ,   0.0000000000000000     
   30.000000000000000      ,   40.000000000000000      ,   0.0000000000000000      ,   0.0000000000000000     
   40.000000000000000      ,   50.000000000000000      ,   0.0000000000000000      ,   0.0000000000000000     
   50.000000000000000      ,   60.000000000000000      ,   0.0000000000000000      ,   0.0000000000000000     
   60.000000000000000      ,   70.000000000000000      ,   0.0000000000000000      ,   0.0000000000000000     
   70.000000000000000      ,   80.000000000000000      ,   0.0000000000000000      ,   0.0000000000000000     
   80.000000000000000      ,   90.000000000000000      ,   0.0000000000000000      ,   0.0000000000000000     
   90.000000000000000      ,   100.00000000000000      ,   0.0000000000000000      ,   0.0000000000000000     
   100.00000000000000      ,   110.00000000000000      ,   0.0000000000000000      ,   0.0000000000000000     
   110.00000000000000      ,   120.00000000000000      ,   0.0000000000000000      ,   0.0000000000000000     
   120.00000000000000      ,   130.00000000000000      ,   0.0000000000000000      ,   0.0000000000000000     
   130.00000000000000      ,   140.00000000000000      ,  0.14975187356914885      ,   4.6276097232301731E-007
   140.00000000000000      ,   150.00000000000000      ,   0.0000000000000000      ,   0.0000000000000000     
   150.00000000000000      ,   160.00000000000000      ,   0.0000000000000000      ,   0.0000000000000000     
   160.00000000000000      ,   170.00000000000000      ,   0.0000000000000000      ,   0.0000000000000000     
   170.00000000000000      ,   180.00000000000000      ,   0.0000000000000000      ,   0.0000000000000000     
   180.00000000000000      ,   190.00000000000000      ,   0.0000000000000000      ,   0.0000000000000000     
   190.00000000000000      ,   200.00000000000000      ,   0.0000000000000000      ,   0.0000000000000000     
   200.00000000000000      ,   210.00000000000000      ,   0.0000000000000000      ,   0.0000000000000000     
   210.00000000000000      ,   220.00000000000000      ,   0.0000000000000000      ,   0.0000000000000000     
   220.00000000000000      ,   230.00000000000000      ,   0.0000000000000000      ,   0.0000000000000000     
   230.00000000000000      ,   240.00000000000000      ,   0.0000000000000000      ,   0.0000000000000000     
   240.00000000000000      ,   250.00000000000000      ,   0.0000000000000000      ,   0.0000000000000000     
   250.00000000000000      ,   260.00000000000000      ,   0.0000000000000000      ,   0.0000000000000000     
   260.00000000000000      ,   270.00000000000000      ,   0.0000000000000000      ,   0.0000000000000000     
   270.00000000000000      ,   280.00000000000000      ,   0.0000000000000000      ,   0.0000000000000000     
   280.00000000000000      ,   290.00000000000000      ,   0.0000000000000000      ,   0.0000000000000000     
   290.00000000000000      ,   300.00000000000000      ,   0.0000000000000000      ,   0.0000000000000000     
   300.00000000000000      ,   310.00000000000000      ,   0.0000000000000000      ,   0.0000000000000000     
   310.00000000000000      ,   320.00000000000000      ,   0.0000000000000000      ,   0.0000000000000000     
   320.00000000000000      ,   330.00000000000000      ,   0.0000000000000000      ,   0.0000000000000000     
   330.00000000000000      ,   340.00000000000000      ,   0.0000000000000000      ,   0.0000000000000000     
   340.00000000000000      ,   350.00000000000000      ,   0.0000000000000000      ,   0.0000000000000000     
   350.00000000000000      ,   360.00000000000000      ,   0.0000000000000000      ,   0.0000000000000000     
   360.00000000000000      ,   370.00000000000000      ,   0.0000000000000000      ,   0.0000000000000000     
   370.00000000000000      ,   380.00000000000000      ,   0.0000000000000000      ,   0.0000000000000000     
   380.00000000000000      ,   390.00000000000000      ,   0.0000000000000000      ,   0.0000000000000000     
   390.00000000000000      ,   400.00000000000000      ,   0.0000000000000000      ,   0.0000000000000000     
   400.00000000000000      ,   410.00000000000000      ,   0.0000000000000000      ,   0.0000000000000000     
   410.00000000000000      ,   420.00000000000000      ,   0.0000000000000000      ,   0.0000000000000000     
   420.00000000000000      ,   430.00000000000000      ,   0.0000000000000000      ,   0.0000000000000000     
   430.00000000000000      ,   440.00000000000000      ,   0.0000000000000000      ,   0.0000000000000000     
   440.00000000000000      ,   450.00000000000000      ,   0.0000000000000000      ,   0.0000000000000000     
   450.00000000000000      ,   460.00000000000000      ,   0.0000000000000000      ,   0.0000000000000000     
   460.00000000000000      ,   470.00000000000000      ,   0.0000000000000000      ,   0.0000000000000000     
   470.00000000000000      ,   480.00000000000000      ,   0.0000000000000000      ,   0.0000000000000000     
   480.00000000000000      ,   490.00000000000000      ,   0.0000000000000000      ,   0.0000000000000000     
   490.00000000000000      ,   500.00000000000000      ,   0.0000000000000000      ,   0.0000000000000000     
