 # xl, xh, LO, dLO
   20.000000000000000      ,   24.999999999999993      ,   0.0000000000000000      ,   0.0000000000000000     
   24.999999999999993      ,   29.999999999999986      ,   0.0000000000000000      ,   0.0000000000000000     
   29.999999999999986      ,   34.999999999999979      ,   0.0000000000000000      ,   0.0000000000000000     
   34.999999999999979      ,   39.999999999999972      ,   0.0000000000000000      ,   0.0000000000000000     
   39.999999999999972      ,   44.999999999999964      ,   0.0000000000000000      ,   0.0000000000000000     
   44.999999999999964      ,   49.999999999999957      ,   0.0000000000000000      ,   0.0000000000000000     
   49.999999999999957      ,   54.999999999999950      ,   0.0000000000000000      ,   0.0000000000000000     
   54.999999999999950      ,   59.999999999999943      ,   0.0000000000000000      ,   0.0000000000000000     
   59.999999999999943      ,   64.999999999999943      ,   0.0000000000000000      ,   0.0000000000000000     
   64.999999999999943      ,   69.999999999999943      ,   0.0000000000000000      ,   0.0000000000000000     
   69.999999999999929      ,   74.999999999999915      ,   0.0000000000000000      ,   0.0000000000000000     
   74.999999999999915      ,   79.999999999999915      ,   0.0000000000000000      ,   0.0000000000000000     
   79.999999999999915      ,   84.999999999999915      ,   0.0000000000000000      ,   0.0000000000000000     
   84.999999999999915      ,   89.999999999999915      ,   0.0000000000000000      ,   0.0000000000000000     
   89.999999999999901      ,   94.999999999999886      ,   3.3111453134660497E-003 ,   4.5678000681192142E-008
   94.999999999999886      ,   99.999999999999886      ,   9.8150370930224929E-003 ,   7.9735379926320145E-008
   99.999999999999886      ,   104.99999999999989      ,   9.6768009926283365E-003 ,   8.0893395831707777E-008
   104.99999999999989      ,   109.99999999999989      ,   9.5868146522860905E-003 ,   8.2360144492247596E-008
   109.99999999999987      ,   114.99999999999986      ,   9.5422616211360400E-003 ,   8.4146985890919396E-008
   114.99999999999986      ,   119.99999999999986      ,   9.5423404401334330E-003 ,   8.6281641509074808E-008
   119.99999999999986      ,   124.99999999999986      ,   9.5854081401227868E-003 ,   8.8783912305020331E-008
   124.99999999999986      ,   129.99999999999986      ,   9.6719381106391018E-003 ,   9.1687939972664315E-008
   129.99999999999983      ,   134.99999999999983      ,   9.8024038930925733E-003 ,   9.5031502680734790E-008
   134.99999999999983      ,   139.99999999999983      ,   9.9774544053389952E-003 ,   9.8849849066846500E-008
   139.99999999999983      ,   144.99999999999983      ,   1.0198692637998445E-002 ,   1.0319542302600746E-007
   144.99999999999983      ,   149.99999999999983      ,   1.0467504280172695E-002 ,   1.0811304889273474E-007
   149.99999999999983      ,   154.99999999999983      ,   1.0785900497466189E-002 ,   1.1365870566420790E-007
   154.99999999999980      ,   159.99999999999980      ,   1.1155024563082079E-002 ,   1.1988398769343146E-007
   159.99999999999980      ,   164.99999999999980      ,   1.1575319582186463E-002 ,   1.2683038823276424E-007
   164.99999999999980      ,   169.99999999999980      ,   1.2046159264969863E-002 ,   1.3453154459961197E-007
   169.99999999999977      ,   174.99999999999977      ,   1.2564167439002738E-002 ,   1.4299170431634470E-007
   174.99999999999977      ,   179.99999999999977      ,   1.3121120246938258E-002 ,   1.5215887995199930E-007
   179.99999999999977      ,   184.99999999999977      ,   1.3702061402272068E-002 ,   1.6189431384853943E-007
   184.99999999999977      ,   189.99999999999977      ,   1.4280063917212133E-002 ,   1.7190336710510346E-007
   189.99999999999977      ,   194.99999999999977      ,   1.4804358344440740E-002 ,   1.8158913810146716E-007
   194.99999999999974      ,   199.99999999999974      ,   1.5180331492405375E-002 ,   1.8974724215715883E-007
   199.99999999999974      ,   204.99999999999974      ,   1.5218892020502363E-002 ,   1.9393145380936054E-007
   204.99999999999974      ,   209.99999999999974      ,   1.5773484982417738E-002 ,   2.0565543029796528E-007
   209.99999999999972      ,   214.99999999999972      ,   2.0038683854484002E-002 ,   2.6576703716043336E-007
   214.99999999999972      ,   219.99999999999972      ,   1.9974229854105841E-002 ,   2.6965478459374063E-007
   219.99999999999972      ,   224.99999999999972      ,   1.9277734201451294E-002 ,   2.6545285898560645E-007
   224.99999999999972      ,   229.99999999999972      ,   1.8583559736081823E-002 ,   2.6112281217082551E-007
   229.99999999999972      ,   234.99999999999972      ,   1.7745312348797539E-002 ,   2.5453379424266280E-007
   234.99999999999969      ,   239.99999999999969      ,   1.6728623323540467E-002 ,   2.4504037275612085E-007
   239.99999999999969      ,   244.99999999999969      ,   1.5562536307101988E-002 ,   2.3288282961233840E-007
   244.99999999999969      ,   249.99999999999969      ,   1.4300796275185261E-002 ,   2.1870789284712266E-007
   249.99999999999966      ,   254.99999999999966      ,   1.3002683938895308E-002 ,   2.0331043683462241E-007
   254.99999999999966      ,   259.99999999999966      ,   1.1722637374940030E-002 ,   1.8747394347074201E-007
   259.99999999999966      ,   264.99999999999966      ,   1.0501180202358075E-002 ,   1.7183644916936794E-007
   264.99999999999966      ,   269.99999999999966      ,   9.3654346154133372E-003 ,   1.5687035920281527E-007
   269.99999999999966      ,   274.99999999999966      ,   8.3303302534474023E-003 ,   1.4288364374406394E-007
   274.99999999999966      ,   279.99999999999966      ,   7.3996651221976545E-003 ,   1.3002268777573729E-007
   279.99999999999966      ,   284.99999999999966      ,   6.5719037681974332E-003 ,   1.1835007211787359E-007
   284.99999999999960      ,   289.99999999999960      ,   5.8403921732231058E-003 ,   1.0783923815338489E-007
   289.99999999999960      ,   294.99999999999960      ,   5.1969048340557208E-003 ,   9.8431723482811075E-008
   294.99999999999960      ,   299.99999999999960      ,   4.6235395412858411E-003 ,   9.0011663606739620E-008
   299.99999999999960      ,   304.99999999999960      ,   4.1047090658720255E-003 ,   8.2455683525785480E-008
   304.99999999999960      ,   309.99999999999960      ,   3.6322930019418707E-003 ,   7.5645069222083131E-008
   309.99999999999960      ,   314.99999999999960      ,   3.1922689537473262E-003 ,   6.9443333019448669E-008
   314.99999999999960      ,   319.99999999999960      ,   2.7704856521695883E-003 ,   6.3706166792230784E-008
   319.99999999999955      ,   324.99999999999955      ,   2.3972277498980031E-003 ,   5.8400371373623834E-008
   324.99999999999955      ,   329.99999999999955      ,   2.0759024597370515E-003 ,   5.3525860752462222E-008
   329.99999999999955      ,   334.99999999999955      ,   1.8011428757524017E-003 ,   4.9074533367890478E-008
   334.99999999999955      ,   339.99999999999955      ,   1.5726122655415117E-003 ,   4.5141105638440573E-008
   339.99999999999955      ,   344.99999999999955      ,   1.3826801910318848E-003 ,   4.1704416553082499E-008
   344.99999999999955      ,   349.99999999999955      ,   1.2215031898966313E-003 ,   3.8660049898784386E-008
   349.99999999999955      ,   354.99999999999955      ,   1.0832205036542637E-003 ,   3.5943377910289180E-008
   354.99999999999955      ,   359.99999999999955      ,   9.6403789455350153E-004 ,   3.3516563305354634E-008
   359.99999999999955      ,   364.99999999999955      ,   8.6083711494728263E-004 ,   3.1344543215322257E-008
   364.99999999999949      ,   369.99999999999949      ,   7.7118558792533425E-004 ,   2.9400654620203544E-008
   369.99999999999949      ,   374.99999999999949      ,   6.9317390905452648E-004 ,   2.7665125976952730E-008
   374.99999999999949      ,   379.99999999999949      ,   6.2523730792387981E-004 ,   2.6122314295928928E-008
   379.99999999999949      ,   384.99999999999949      ,   5.6588907029674540E-004 ,   2.4754162289111896E-008
   384.99999999999949      ,   389.99999999999949      ,   5.1376416651526696E-004 ,   2.3539004990781484E-008
   389.99999999999949      ,   394.99999999999949      ,   4.6777484661246938E-004 ,   2.2461208819324559E-008
   394.99999999999949      ,   399.99999999999949      ,   4.2716243262940493E-004 ,   2.1510045809323259E-008
   399.99999999999943      ,   404.99999999999943      ,   3.9124000441032020E-004 ,   2.0679318178758642E-008
   404.99999999999943      ,   409.99999999999943      ,   3.5950468589722039E-004 ,   1.9963940008861669E-008
   409.99999999999943      ,   414.99999999999943      ,   3.3169618017149028E-004 ,   1.9366512001247664E-008
   414.99999999999943      ,   419.99999999999943      ,   3.0783583177581859E-004 ,   1.8902246857839326E-008
   419.99999999999943      ,   424.99999999999943      ,   2.8681631513054483E-004 ,   1.8551946884542543E-008
   424.99999999999943      ,   429.99999999999943      ,   2.6716791203841881E-004 ,   1.9761426039626849E-008
   429.99999999999943      ,   434.99999999999943      ,   2.4829004770380518E-004 ,   2.5594269653209264E-008
   434.99999999999943      ,   439.99999999999943      ,   2.3054878309030328E-004 ,   2.5487163894715821E-008
   439.99999999999943      ,   444.99999999999943      ,   2.1335711930142219E-004 ,   2.5557176887013629E-008
   444.99999999999937      ,   449.99999999999937      ,   1.9603808980186586E-004 ,   2.5844185732813290E-008
   449.99999999999937      ,   454.99999999999937      ,   1.7770187945179183E-004 ,   2.6508427279979113E-008
   454.99999999999937      ,   459.99999999999937      ,   1.5674970990196062E-004 ,   2.9748125349116891E-008
   459.99999999999937      ,   464.99999999999937      ,   2.7909157650709378E-005 ,   1.6664322655567972E-008
