 # xl, xh, LO, dLO, NLOPSnovp, dNLOPSnovp, NLOPSvp, dNLOPSvp, NLOPSvplt, dNLOPSvplt
   106.00000000000016      ,   111.50000000000018      ,   6.2962089857055571E-006 ,   4.9238062777394673E-009 ,   6.5835180861205611E-006 ,   2.3884183540374594E-008 ,   7.0579383767100026E-006 ,   1.1782209212799104E-008 ,   6.7489238014294069E-006 ,   2.4610319257326464E-008
   111.50000000000018      ,   117.00000000000021      ,   2.7309297685397222E-005 ,   1.0080019317706423E-008 ,   2.8684601459032046E-005 ,   1.0102073460704164E-007 ,   3.0622455044308738E-005 ,   2.7891501450193431E-008 ,   2.9406773811336682E-005 ,   1.0509780294412245E-007
   117.00000000000021      ,   122.50000000000024      ,   4.9529641292650269E-005 ,   1.3263375849344073E-008 ,   5.2034602638669731E-005 ,   1.1594810563350960E-007 ,   5.5791777414257557E-005 ,   6.1878227792080066E-008 ,   5.3337443101188927E-005 ,   1.2067142022456061E-007
   122.50000000000024      ,   128.00000000000028      ,   7.2479708463786221E-005 ,   1.5703492592469874E-008 ,   7.6003897593400401E-005 ,   7.8996514465799101E-008 ,   8.1443778180474309E-005 ,   7.0463751365130332E-008 ,   7.7897178481991383E-005 ,   8.1482030283197198E-008
   128.00000000000028      ,   133.50000000000031      ,   9.6045392064645838E-005 ,   1.7660816089727417E-008 ,   1.0142557225355471E-004 ,   2.9302883379254933E-007 ,   1.0815926075132944E-004 ,   8.2196857665650743E-008 ,   1.0395518036820723E-004 ,   3.0207782054088024E-007
   133.50000000000028      ,   139.00000000000031      ,   1.2024718413928232E-004 ,   1.9350440154888646E-008 ,   1.2672782271057741E-004 ,   1.1319137917686762E-007 ,   1.3561967180502002E-004 ,   1.2706495920346747E-007 ,   1.2984853037216151E-004 ,   1.1658468335068156E-007
   139.00000000000034      ,   144.50000000000037      ,   1.4509491538090719E-004 ,   2.0813460944573940E-008 ,   1.5359642394882639E-004 ,   1.9607214759884095E-007 ,   1.6428510278707189E-004 ,   4.1116865076353447E-007 ,   1.5738925871901566E-004 ,   2.0153779134660111E-007
   144.50000000000034      ,   150.00000000000037      ,   1.7063807751119676E-004 ,   2.2107129409347150E-008 ,   1.8039724955055413E-004 ,   1.1034636793048731E-007 ,   1.9258199016906842E-004 ,   6.9065060981841890E-008 ,   1.8480078598937837E-004 ,   1.1139573841139516E-007
   150.00000000000040      ,   155.50000000000043      ,   1.9685905464327113E-004 ,   2.3267893268059497E-008 ,   2.0914156098338961E-004 ,   3.2640438886250956E-007 ,   2.2323079620868334E-004 ,   5.3104991837672129E-007 ,   2.1427546393802576E-004 ,   3.3918255257834927E-007
   155.50000000000040      ,   161.00000000000043      ,   3.1797932123322272E-004 ,   2.9290512623971549E-008 ,   3.3981322426085165E-004 ,   2.2171717307450107E-006 ,   3.6035090095492726E-004 ,   3.0658538893631974E-007 ,   3.4818372416055147E-004 ,   2.2650995299975863E-006
   161.00000000000045      ,   166.50000000000048      ,   7.7281440692756568E-004 ,   4.5582660031510747E-008 ,   8.2087068050580038E-004 ,   4.3697244653394300E-007 ,   8.7630303504826327E-004 ,   1.8825030680490993E-007 ,   8.4162072803474941E-004 ,   6.4884827510587619E-007
   166.50000000000045      ,   172.00000000000048      ,   8.0715954815689878E-004 ,   4.5599258708485985E-008 ,   8.6052214006545691E-004 ,   7.2610430568279026E-007 ,   9.1786088054907847E-004 ,   6.1249252826847700E-007 ,   8.8168307652499150E-004 ,   7.4632025504167164E-007
   172.00000000000051      ,   177.50000000000054      ,   8.4275694772605037E-004 ,   4.5634918569907032E-008 ,   9.0124801599187081E-004 ,   1.3373181964577263E-006 ,   9.5860758883142556E-004 ,   2.3837962255896064E-007 ,   9.2340014970374918E-004 ,   1.3705395447382230E-006
   177.50000000000051      ,   183.00000000000054      ,   8.7938478508323820E-004 ,   4.5691344608799921E-008 ,   9.4073226601578016E-004 ,   2.8712434613906257E-007 ,   1.0025159740532851E-003 ,   4.0221079632254806E-007 ,   9.6379150990881231E-004 ,   2.9566212684403564E-007
   183.00000000000057      ,   188.50000000000060      ,   9.1740169864529275E-004 ,   4.5772591011209681E-008 ,   9.8389710898359891E-004 ,   2.5087404311656557E-007 ,   1.0467719764938345E-003 ,   2.4003089003029065E-007 ,   1.0079326939018360E-003 ,   2.5862204798901286E-007
   188.50000000000057      ,   194.00000000000060      ,   9.5667031236246116E-004 ,   4.5844194896195632E-008 ,   1.0290310748455142E-003 ,   4.0393000903594466E-007 ,   1.0980518896668765E-003 ,   3.1148727201388428E-006 ,   1.0540815691653105E-003 ,   4.1475949207338063E-007
   194.00000000000063      ,   199.50000000000065      ,   9.9754178884452357E-004 ,   4.5943768294736406E-008 ,   1.0762967696221651E-003 ,   4.1206983211364221E-007 ,   1.1476357156995954E-003 ,   4.8631792812380281E-006 ,   1.1023940189253958E-003 ,   4.2477865989650166E-007
   199.50000000000063      ,   205.00000000000065      ,   1.0402140228379854E-003 ,   4.6077974044023190E-008 ,   1.1263237474412053E-003 ,   5.7465350776969703E-007 ,   1.1944834955663665E-003 ,   7.5601213518000267E-007 ,   1.1535809218452464E-003 ,   5.9217508992701538E-007
   205.00000000000068      ,   210.50000000000071      ,   1.0847115178896183E-003 ,   4.6239645725653693E-008 ,   1.1770465500869371E-003 ,   2.6283371576896558E-007 ,   1.2477825387216918E-003 ,   3.9642357424244248E-007 ,   1.2054785311054399E-003 ,   2.7077780993282112E-007
   210.50000000000068      ,   216.00000000000071      ,   1.1313384228964489E-003 ,   4.6433060203172865E-008 ,   1.2327990484060347E-003 ,   4.8051726892275786E-007 ,   1.3043711465329894E-003 ,   2.2980429991856746E-007 ,   1.2625351025037390E-003 ,   4.9371956816563705E-007
   216.00000000000074      ,   221.50000000000077      ,   1.1803197796428405E-003 ,   4.6643887488082398E-008 ,   1.2902634023473586E-003 ,   5.5320900079747018E-007 ,   1.3650588095714177E-003 ,   6.2901499714975279E-007 ,   1.3212490074970440E-003 ,   5.6777700543998481E-007
   221.50000000000074      ,   227.00000000000077      ,   1.2319784461856020E-003 ,   4.6913260088663016E-008 ,   1.3518974669594081E-003 ,   2.7937832224362516E-007 ,   1.4277442060047073E-003 ,   1.3718694226527505E-007 ,   1.3842728723051643E-003 ,   2.8746127307850923E-007
   227.00000000000080      ,   232.50000000000082      ,   1.2863067420246551E-003 ,   4.7202296618929380E-008 ,   1.4172231701937155E-003 ,   4.1491410468006757E-007 ,   1.4952292676202609E-003 ,   1.3022470792774638E-007 ,   1.4511613856024804E-003 ,   4.2448227373552634E-007
   232.50000000000080      ,   238.00000000000082      ,   1.3437792434607223E-003 ,   4.7540435719094038E-008 ,   1.4866172667652357E-003 ,   2.9662057598836499E-007 ,   1.5674555144757347E-003 ,   1.4255715161815518E-007 ,   1.5221981609930787E-003 ,   3.0383240589069191E-007
   238.00000000000085      ,   243.50000000000088      ,   1.4045704892377041E-003 ,   4.7909124685086444E-008 ,   1.5600477090700563E-003 ,   2.5465039094849887E-007 ,   1.6443402915981477E-003 ,   2.4197389501096721E-007 ,   1.5973743930452267E-003 ,   2.6187819730268181E-007
   243.50000000000085      ,   249.00000000000088      ,   1.4692479528302647E-003 ,   4.8341200299942632E-008 ,   1.6386945077214209E-003 ,   3.2497283968374766E-007 ,   1.7258904993030090E-003 ,   1.6028781686066820E-007 ,   1.6778899469274996E-003 ,   3.3468858652033292E-007
   249.00000000000091      ,   254.50000000000094      ,   1.5379752637396163E-003 ,   4.8811596294980836E-008 ,   1.7220103558555926E-003 ,   2.9524659068047887E-007 ,   1.8125213270034812E-003 ,   1.7865821702099488E-007 ,   1.7632074109951476E-003 ,   3.0383215550657745E-007
   254.50000000000091      ,   260.00000000000091      ,   1.6112232564357075E-003 ,   4.9327104810512389E-008 ,   1.8103544363755665E-003 ,   4.8159268300720804E-007 ,   1.9044952467061160E-003 ,   1.5964852921186069E-007 ,   1.8537278871172979E-003 ,   4.9481324652503146E-007
   260.00000000000097      ,   265.50000000000102      ,   1.6895230897708820E-003 ,   4.9889371895678619E-008 ,   1.9044855095200228E-003 ,   3.1951246142123384E-007 ,   2.0029536693162262E-003 ,   2.1261507259378891E-007 ,   1.9501250280898527E-003 ,   3.3073555219848425E-007
   265.50000000000097      ,   271.00000000000102      ,   1.7726879793683841E-003 ,   5.0389854461915690E-008 ,   2.0036802226206523E-003 ,   3.0315480796021342E-007 ,   2.1075909484681134E-003 ,   6.6484829487380970E-007 ,   2.0518561539706842E-003 ,   3.1174260154894646E-007
   271.00000000000102      ,   276.50000000000102      ,   1.8601569197235815E-003 ,   5.0677545955971108E-008 ,   2.1085941062042096E-003 ,   2.4782670815120627E-007 ,   2.2167074518683314E-003 ,   2.1506660787428931E-007 ,   2.1593006379571544E-003 ,   2.5456917634294078E-007
   276.50000000000102      ,   282.00000000000102      ,   1.9526995993418997E-003 ,   5.0811704639457608E-008 ,   2.2192253311009904E-003 ,   3.5091993538486149E-007 ,   2.3333729339637252E-003 ,   1.9182669279629084E-007 ,   2.2727837973089394E-003 ,   3.5947441259251627E-007
   282.00000000000108      ,   287.50000000000114      ,   2.0513957065379888E-003 ,   5.0874615364873230E-008 ,   2.3370132970000016E-003 ,   3.0823329086740496E-007 ,   2.4574340686154871E-003 ,   1.7425500704640909E-007 ,   2.3935940715137001E-003 ,   3.1832941715995738E-007
   287.50000000000108      ,   293.00000000000114      ,   2.1575506742672456E-003 ,   5.0940765704570880E-008 ,   2.4628539627990962E-003 ,   2.5396502966692326E-007 ,   2.5906233377377564E-003 ,   2.0168963323081803E-007 ,   2.5226203628934407E-003 ,   2.6106993613784453E-007
   293.00000000000114      ,   298.50000000000114      ,   2.2722746642196397E-003 ,   5.1002821533465337E-008 ,   2.5992132228992056E-003 ,   2.6689310790935061E-007 ,   2.7341375468155648E-003 ,   1.4954862464180157E-007 ,   2.6624885560561228E-003 ,   2.7443294160208349E-007
   298.50000000000114      ,   304.00000000000114      ,   2.3970409373371745E-003 ,   5.1106300929818755E-008 ,   2.7454297612703720E-003 ,   2.9063042070592154E-007 ,   2.8899245036201064E-003 ,   3.0035552589711545E-007 ,   2.8124107959239114E-003 ,   3.0100851063931888E-007
   304.00000000000119      ,   309.50000000000125      ,   2.5337528309127512E-003 ,   5.1240895755675870E-008 ,   2.9054486094552260E-003 ,   2.5276033494286349E-007 ,   3.0591223180644815E-003 ,   1.3975444726411687E-007 ,   2.9765699679354038E-003 ,   2.5993079744375315E-007
   309.50000000000119      ,   315.00000000000125      ,   2.6790156865191951E-003 ,   5.1400942451894360E-008 ,   3.0757456015776427E-003 ,   2.5152091854971868E-007 ,   3.2412316491629836E-003 ,   5.1218074280117889E-007 ,   3.1512450630513016E-003 ,   2.5873554300594361E-007
   315.00000000000125      ,   320.50000000000125      ,   2.8123832296208994E-003 ,   5.1514589516458255E-008 ,   3.2435312236478294E-003 ,   7.0277691126445307E-007 ,   3.4178209468606418E-003 ,   1.7994956152499479E-007 ,   3.3233422592231568E-003 ,   7.3265607542742553E-007
   320.50000000000125      ,   326.00000000000125      ,   2.9339520108268447E-003 ,   5.1564572511684876E-008 ,   3.4024919215065019E-003 ,   3.1231622071109822E-007 ,   3.5880653965865376E-003 ,   3.7393131010327682E-007 ,   3.4863832638345449E-003 ,   3.2078827233652257E-007
   326.00000000000131      ,   331.50000000000136      ,   3.0456446973242068E-003 ,   5.1488246845451103E-008 ,   3.5561033483040051E-003 ,   2.7739313787605465E-007 ,   3.7509630401765647E-003 ,   1.7610580266179356E-007 ,   3.6439682903546319E-003 ,   2.8515952109183018E-007
   331.50000000000131      ,   337.00000000000136      ,   3.1470894083992394E-003 ,   5.1243942422032360E-008 ,   3.7031903577913351E-003 ,   3.7397365174193449E-007 ,   3.9068023458867212E-003 ,   1.9249231772068722E-007 ,   3.7948421099696420E-003 ,   3.8970007946202113E-007
   337.00000000000136      ,   342.50000000000136      ,   3.2370375288826685E-003 ,   5.0809379584991890E-008 ,   3.8405684257243216E-003 ,   5.0734412152020164E-007 ,   4.0540108190796472E-003 ,   8.4387542819358673E-007 ,   3.9357870073213602E-003 ,   5.2377681416784533E-007
   342.50000000000136      ,   348.00000000000136      ,   3.3186007531955026E-003 ,   5.0252051364139979E-008 ,   3.9701558053697929E-003 ,   2.7464268781072285E-007 ,   4.1927681137642284E-003 ,   4.3418296088482971E-007 ,   4.0687068386420708E-003 ,   2.8265571616225137E-007
   348.00000000000142      ,   353.50000000000148      ,   3.3940832278901789E-003 ,   4.9637071754831700E-008 ,   4.0939429227493749E-003 ,   8.8885428556911133E-007 ,   4.3237548220335497E-003 ,   2.7817414895019422E-007 ,   4.1957214674034930E-003 ,   9.2430275575609170E-007
   353.50000000000142      ,   359.00000000000148      ,   3.4655120513783057E-003 ,   4.9095042214342757E-008 ,   4.2082748242410588E-003 ,   3.5972209396867717E-007 ,   4.4507885789045239E-003 ,   3.5143075592336413E-006 ,   4.3130022274039826E-003 ,   3.7034376873266998E-007
   359.00000000000148      ,   364.50000000000148      ,   3.5350380007651769E-003 ,   4.8801973900712777E-008 ,   4.3161741377251636E-003 ,   3.2825941821374819E-007 ,   4.5626100814688134E-003 ,   1.4574103393599959E-007 ,   4.4236780195296777E-003 ,   3.3854628345101496E-007
   364.50000000000153      ,   370.00000000000159      ,   3.6031186626609246E-003 ,   4.8647604224763812E-008 ,   4.4167598100163883E-003 ,   2.8431887432537605E-007 ,   4.7016780714643240E-003 ,   3.0699811913598011E-005 ,   4.5270066577635173E-003 ,   2.9368144604789206E-007
   370.00000000000153      ,   375.50000000000159      ,   3.6714691750289706E-003 ,   4.8589407799715635E-008 ,   4.5091254083510423E-003 ,   7.8378821636147294E-007 ,   4.7704497764200103E-003 ,   2.6613656607569257E-007 ,   4.6218298339265997E-003 ,   8.0142733058719098E-007
   375.50000000000153      ,   381.00000000000159      ,   3.7423766804699729E-003 ,   4.8595755885793762E-008 ,   4.5903097102892943E-003 ,   3.1000663930120602E-007 ,   4.8621250877199903E-003 ,   2.4371163932446574E-006 ,   4.7051291800811156E-003 ,   3.2056400587561139E-007
   381.00000000000159      ,   386.50000000000159      ,   3.8131537270375861E-003 ,   4.8610900268696915E-008 ,   4.6608932512421392E-003 ,   3.0136910228034051E-007 ,   4.9366537894235969E-003 ,   7.0906812189641698E-007 ,   4.7776488182293183E-003 ,   3.1119342936397378E-007
   386.50000000000165      ,   392.00000000000171      ,   3.8714756946713973E-003 ,   4.8614306720402719E-008 ,   4.7147537737145095E-003 ,   8.9327227798043905E-007 ,   4.9927242300234894E-003 ,   2.0543806352214325E-007 ,   4.8330214743884711E-003 ,   9.2395376589570204E-007
   392.00000000000165      ,   397.50000000000171      ,   3.9093608469035731E-003 ,   4.8592170991984555E-008 ,   4.7414788144647686E-003 ,   2.5807310405065714E-007 ,   5.0238322365717177E-003 ,   4.7852247941812317E-007 ,   4.8605611166463066E-003 ,   2.6583936748246757E-007
   397.50000000000165      ,   403.00000000000171      ,   3.9086186992081540E-003 ,   4.8492313320445328E-008 ,   4.7315559446505185E-003 ,   1.2772799259600267E-006 ,   5.0117746042958886E-003 ,   3.9886793128943273E-007 ,   4.8505012585863807E-003 ,   1.2825811298180304E-006
   403.00000000000171      ,   408.50000000000171      ,   3.8045593285454139E-003 ,   4.8119967544664409E-008 ,   4.6278401036993792E-003 ,   2.8571003754575747E-007 ,   4.9014542422481022E-003 ,   7.5499702694271441E-007 ,   4.7442772802918790E-003 ,   2.9488662241115248E-007
   408.50000000000176      ,   414.00000000000182      ,   3.6827752673204753E-003 ,   4.7546905462789787E-008 ,   4.4843145123614802E-003 ,   2.6888187348265606E-006 ,   4.7453915427998206E-003 ,   4.4396286254362873E-007 ,   4.5971592546954184E-003 ,   2.7568067883092577E-006
   414.00000000000176      ,   419.50000000000182      ,   3.6655161402324010E-003 ,   4.7436569724997636E-008 ,   4.3931107043155828E-003 ,   2.9149950965185729E-007 ,   4.6545988875467074E-003 ,   1.1780731981192311E-006 ,   4.5037596293733074E-003 ,   2.9959994302478319E-007
   419.50000000000176      ,   425.00000000000182      ,   3.6996623909009681E-003 ,   4.7701144833389137E-008 ,   4.3348611626149326E-003 ,   2.7281470401121369E-007 ,   4.5955044202398605E-003 ,   1.7905629267458036E-007 ,   4.4441650803445486E-003 ,   2.8109147211201680E-007
   425.00000000000182      ,   430.50000000000182      ,   3.7509072832184534E-003 ,   4.8105570126374572E-008 ,   4.2830071342764685E-003 ,   2.4802159893112108E-007 ,   4.5457063276958011E-003 ,   1.4967610153830515E-007 ,   4.3911724109342879E-003 ,   2.5560282625393144E-007
   430.50000000000188      ,   436.00000000000193      ,   3.8062533741333032E-003 ,   4.8513134808872719E-008 ,   4.2257698051493047E-003 ,   2.7787269542412101E-007 ,   4.5102651901300543E-003 ,   1.7161844172613029E-005 ,   4.3326719359680710E-003 ,   2.8558327899523012E-007
   436.00000000000188      ,   441.50000000000193      ,   3.8539517146696208E-003 ,   4.8771692838293151E-008 ,   4.1584235672295694E-003 ,   3.3848632185972653E-007 ,   4.4265359071063159E-003 ,   1.3009850272584755E-007 ,   4.2638544344297423E-003 ,   3.4918466369846759E-007
   441.50000000000188      ,   447.00000000000193      ,   3.8923217447068606E-003 ,   4.8868302327580035E-008 ,   4.0898166120123241E-003 ,   2.5677533945729798E-007 ,   4.3614207561551198E-003 ,   1.2149145772671621E-007 ,   4.1937335589215764E-003 ,   2.6594277201976171E-007
   447.00000000000193      ,   452.50000000000193      ,   3.9199500560245090E-003 ,   4.8783389776485633E-008 ,   4.0133211400683209E-003 ,   2.8948765463305627E-007 ,   4.2880204496266840E-003 ,   1.4867732761410180E-007 ,   4.1154976458906744E-003 ,   2.9961542151174379E-007
   452.50000000000199      ,   458.00000000000205      ,   3.9344896414544280E-003 ,   4.8487324000559201E-008 ,   3.9178244632526293E-003 ,   2.2552686786451677E-007 ,   4.1962647020562394E-003 ,   1.6722285085114314E-006 ,   4.0178081230496142E-003 ,   2.3240700851410678E-007
   458.00000000000199      ,   463.50000000000205      ,   3.9309653942190496E-003 ,   4.7906676484124814E-008 ,   3.7976097088127255E-003 ,   2.2875352179984100E-007 ,   4.0737868639719212E-003 ,   1.1172002549270106E-007 ,   3.8946534649946223E-003 ,   2.3581177819051609E-007
   463.50000000000199      ,   469.00000000000205      ,   3.8983824429907024E-003 ,   4.6884799234541879E-008 ,   3.6542917905203645E-003 ,   2.2709545158007585E-007 ,   3.9286415622189529E-003 ,   1.9936448896214447E-007 ,   3.7478407074781894E-003 ,   2.3422697184487111E-007
   469.00000000000205      ,   474.50000000000205      ,   3.8267971975478286E-003 ,   4.5282746534570461E-008 ,   3.4793389154324584E-003 ,   2.2713293717739097E-007 ,   3.7480194946655984E-003 ,   1.0794105330255425E-007 ,   3.5684825263176722E-003 ,   2.3420657764337693E-007
   474.50000000000210      ,   480.00000000000216      ,   3.7139230180428299E-003 ,   4.3100920440202861E-008 ,   3.2598018270429204E-003 ,   2.0053149265585080E-007 ,   3.5202151342030698E-003 ,   1.9539879775101945E-007 ,   3.3433818978278280E-003 ,   2.0681346633928642E-007
   480.00000000000210      ,   485.50000000000216      ,   3.4721635866698372E-003 ,   3.9360249533510822E-008 ,   2.9189533156713339E-003 ,   1.6811664488535616E-007 ,   3.1600757663290411E-003 ,   8.6416882553658223E-008 ,   2.9938299003421584E-003 ,   1.7337245090380479E-007
   485.50000000000210      ,   491.00000000000216      ,   2.8821298046937992E-003 ,   3.1845913674723862E-008 ,   2.2926257023811753E-003 ,   1.3596200097017678E-007 ,   2.4912260227400399E-003 ,   6.5529796192522826E-008 ,   2.3514757635197002E-003 ,   1.4015858075309582E-007
   491.00000000000216      ,   496.50000000000216      ,   1.6030985156936849E-003 ,   1.9064106454217668E-008 ,   1.1666695142458455E-003 ,   7.2624789304752785E-008 ,   1.2776928059134351E-003 ,   3.7285810337093139E-008 ,   1.1966129237346052E-003 ,   7.4846479822462796E-008
   496.50000000000222      ,   502.00000000000227      ,   4.0946284500922702E-005 ,   1.8942257964659001E-009 ,   2.5118972712609169E-005 ,   6.3519616838143483E-009 ,   2.7896393643899481E-005 ,   3.3129733078928377E-009 ,   2.5764058908806489E-005 ,   6.5467966210821764E-009
   502.00000000000222      ,   507.50000000000227      ,   0.0000000000000000      ,   0.0000000000000000      ,   0.0000000000000000      ,   0.0000000000000000      ,   0.0000000000000000      ,   0.0000000000000000      ,   0.0000000000000000      ,   0.0000000000000000     
   507.50000000000222      ,   513.00000000000227      ,   0.0000000000000000      ,   0.0000000000000000      ,   0.0000000000000000      ,   0.0000000000000000      ,   0.0000000000000000      ,   0.0000000000000000      ,   0.0000000000000000      ,   0.0000000000000000     
   513.00000000000227      ,   518.50000000000227      ,   0.0000000000000000      ,   0.0000000000000000      ,   0.0000000000000000      ,   0.0000000000000000      ,   0.0000000000000000      ,   0.0000000000000000      ,   0.0000000000000000      ,   0.0000000000000000     
