 # xl, xh, LO, dLO
   80.000000000000000      ,   120.00000000000003      ,   0.0000000000000000      ,   0.0000000000000000     
   120.00000000000003      ,   160.00000000000006      ,   0.0000000000000000      ,   0.0000000000000000     
   160.00000000000006      ,   200.00000000000009      ,   0.0000000000000000      ,   0.0000000000000000     
   200.00000000000009      ,   240.00000000000011      ,   0.0000000000000000      ,   0.0000000000000000     
   240.00000000000011      ,   280.00000000000011      ,   3.1563858997105171E-010 ,   7.7312993067769103E-011
   280.00000000000011      ,   320.00000000000011      ,   2.9338133572895949E-006 ,   1.8425986164064542E-008
   320.00000000000017      ,   360.00000000000023      ,   9.8552591226564455E-006 ,   2.9155326803983272E-008
   360.00000000000023      ,   400.00000000000023      ,   1.6144251346340815E-005 ,   2.3254589955864214E-008
   400.00000000000023      ,   440.00000000000023      ,   2.1962586418590713E-005 ,   2.2726983386602328E-008
   440.00000000000023      ,   480.00000000000023      ,   2.8361359026583150E-005 ,   2.3289745910790024E-008
   480.00000000000028      ,   520.00000000000034      ,   3.6364839326374813E-005 ,   2.4924192323074543E-008
   520.00000000000034      ,   560.00000000000034      ,   4.7614847834829017E-005 ,   2.8011150167537492E-008
   560.00000000000034      ,   600.00000000000034      ,   6.4989036495729681E-005 ,   3.3477966019004467E-008
   600.00000000000034      ,   640.00000000000034      ,   9.4063187829161347E-005 ,   4.3027239208715409E-008
   640.00000000000045      ,   680.00000000000045      ,   1.4656229662064990E-004 ,   6.0273935888838103E-008
   680.00000000000045      ,   720.00000000000045      ,   2.4216247016423901E-004 ,   9.0221655962996593E-008
   720.00000000000045      ,   760.00000000000045      ,   3.6398432280635389E-004 ,   1.2294060390576868E-007
   760.00000000000045      ,   800.00000000000045      ,   3.4655603967724655E-004 ,   7.8429549272698102E-008
   800.00000000000045      ,   840.00000000000045      ,   2.0489361436447346E-004 ,   4.2087268366918974E-008
   840.00000000000057      ,   880.00000000000057      ,   1.1646035660212862E-004 ,   2.2106080595417369E-008
   880.00000000000057      ,   920.00000000000057      ,   6.8882249955683629E-005 ,   1.2070202292006404E-008
   920.00000000000057      ,   960.00000000000057      ,   4.3960620521940938E-005 ,   7.1321265385160551E-009
   960.00000000000068      ,   1000.0000000000007      ,   2.9878823690027109E-005 ,   4.5032521164691536E-009
   1000.0000000000007      ,   1040.0000000000007      ,   2.1565134050764457E-005 ,   3.0207848217766094E-009
   1040.0000000000007      ,   1080.0000000000007      ,   1.6640979706444907E-005 ,   2.1838125934011101E-009
   1080.0000000000007      ,   1120.0000000000007      ,   1.2938433075133832E-005 ,   1.5881991208374910E-009
   1120.0000000000007      ,   1160.0000000000007      ,   1.0392516929170941E-005 ,   1.1951827448211037E-009
   1160.0000000000007      ,   1200.0000000000007      ,   8.5571046851860802E-006 ,   9.2349909123707802E-010
   1200.0000000000009      ,   1240.0000000000009      ,   7.1438760862835419E-006 ,   7.2378541989154763E-010
   1240.0000000000009      ,   1280.0000000000009      ,   5.9621419781302903E-006 ,   5.6795241245968511E-010
   1280.0000000000009      ,   1320.0000000000009      ,   4.8822768649291593E-006 ,   4.3775498345924856E-010
   1320.0000000000009      ,   1360.0000000000009      ,   3.8232552481298482E-006 ,   3.2315521525510988E-010
   1360.0000000000009      ,   1400.0000000000009      ,   2.7434432298178953E-006 ,   2.1912520614025383E-010
   1400.0000000000009      ,   1440.0000000000009      ,   1.6842254529802669E-006 ,   1.2784453890023955E-010
   1440.0000000000009      ,   1480.0000000000009      ,   7.9801598377235183E-007 ,   5.8336011198393331E-011
   1480.0000000000009      ,   1520.0000000000009      ,   2.4099156679873889E-007 ,   1.7621756825555447E-011
   1520.0000000000009      ,   1560.0000000000009      ,   3.8846877442731384E-008 ,   2.6658955731474148E-012
   1560.0000000000011      ,   1600.0000000000011      ,   9.9763747210095009E-008 ,   6.3239378116502692E-012
   1600.0000000000011      ,   1640.0000000000011      ,   3.1594437494327012E-007 ,   1.7906687235614558E-011
   1640.0000000000011      ,   1680.0000000000011      ,   6.1976530255710066E-007 ,   3.2867778410359237E-011
   1680.0000000000011      ,   1720.0000000000011      ,   9.8137122441860522E-007 ,   4.9259282582277396E-011
   1720.0000000000011      ,   1760.0000000000011      ,   1.3790550688433514E-006 ,   6.5757597554627124E-011
   1760.0000000000011      ,   1800.0000000000011      ,   1.7561162086053250E-006 ,   7.9686537210849665E-011
   1800.0000000000011      ,   1840.0000000000011      ,   1.9874022748457508E-006 ,   8.5996488952713971E-011
   1840.0000000000014      ,   1880.0000000000014      ,   1.9416004732681504E-006 ,   8.0324228213390301E-011
   1880.0000000000014      ,   1920.0000000000014      ,   1.6382693535088565E-006 ,   6.4939769108327004E-011
   1920.0000000000014      ,   1960.0000000000014      ,   1.2436674537952141E-006 ,   4.7242645240235821E-011
   1960.0000000000014      ,   2000.0000000000014      ,   8.9552274808777048E-007 ,   3.2579019379069256E-011
   2000.0000000000014      ,   2040.0000000000014      ,   6.3629698609304543E-007 ,   2.2161943366705733E-011
   2040.0000000000014      ,   2080.0000000000014      ,   4.5567115401807966E-007 ,   1.5193763993430324E-011
   2080.0000000000014      ,   2120.0000000000014      ,   3.3318126405144481E-007 ,   1.0637417390693763E-011
   2120.0000000000014      ,   2160.0000000000014      ,   2.5459577385713862E-007 ,   7.7808123581118194E-012
   2160.0000000000014      ,   2200.0000000000014      ,   2.2197148683895438E-007 ,   6.4869943655753587E-012
   2200.0000000000014      ,   2240.0000000000014      ,   2.7612422181159412E-007 ,   7.7903715778298190E-012
   2240.0000000000014      ,   2280.0000000000014      ,   4.3169352256014468E-007 ,   1.1670933070999073E-011
   2280.0000000000014      ,   2320.0000000000014      ,   4.3594478693399064E-007 ,   1.1343767000423639E-011
   2320.0000000000018      ,   2360.0000000000018      ,   3.2602480890477267E-007 ,   8.1644637883157127E-012
   2360.0000000000018      ,   2400.0000000000018      ,   2.4699919539185154E-007 ,   5.9308086945316583E-012
   2400.0000000000018      ,   2440.0000000000018      ,   1.9889765475413877E-007 ,   4.5828110332145385E-012
   2440.0000000000018      ,   2480.0000000000018      ,   1.6790240584003209E-007 ,   3.7152084485798369E-012
   2480.0000000000018      ,   2520.0000000000018      ,   1.4656988882718732E-007 ,   3.1165130071733427E-012
   2520.0000000000018      ,   2560.0000000000018      ,   1.3113690886152807E-007 ,   2.6803576512583933E-012
   2560.0000000000018      ,   2600.0000000000018      ,   1.1955101156854169E-007 ,   2.3494314323996052E-012
   2600.0000000000018      ,   2640.0000000000018      ,   1.1064608511836137E-007 ,   2.0909674393146800E-012
   2640.0000000000018      ,   2680.0000000000018      ,   1.0366974349221264E-007 ,   1.8840065953589325E-012
   2680.0000000000018      ,   2720.0000000000018      ,   9.8155305615524551E-008 ,   1.7153259397401063E-012
   2720.0000000000018      ,   2760.0000000000018      ,   9.3779832989557063E-008 ,   1.5758539599633952E-012
   2760.0000000000018      ,   2800.0000000000018      ,   9.0318753463935278E-008 ,   1.4591416775711574E-012
   2800.0000000000018      ,   2840.0000000000018      ,   8.7616697609384324E-008 ,   1.3606886826172615E-012
   2840.0000000000018      ,   2880.0000000000018      ,   8.5553681183497387E-008 ,   1.2768702262258414E-012
   2880.0000000000018      ,   2920.0000000000018      ,   8.4048859162920347E-008 ,   1.2051718149989514E-012
   2920.0000000000018      ,   2960.0000000000018      ,   8.3047564573799862E-008 ,   1.1437106399304842E-012
   2960.0000000000018      ,   3000.0000000000018      ,   8.2511398425977321E-008 ,   1.0909504473446805E-012
   3000.0000000000023      ,   3040.0000000000023      ,   8.2406016111262418E-008 ,   1.0455445929781113E-012
   3040.0000000000023      ,   3080.0000000000023      ,   8.2726507639705601E-008 ,   1.0066786903036507E-012
   3080.0000000000023      ,   3120.0000000000023      ,   8.3471171874284252E-008 ,   9.7359729597645463E-013
   3120.0000000000023      ,   3160.0000000000023      ,   8.4643892218309658E-008 ,   9.4565083972736696E-013
   3160.0000000000023      ,   3200.0000000000023      ,   8.6265344038845026E-008 ,   9.2240656846014200E-013
   3200.0000000000023      ,   3240.0000000000023      ,   8.8364154997213410E-008 ,   9.0348742441358837E-013
   3240.0000000000023      ,   3280.0000000000023      ,   9.0990736938720431E-008 ,   8.8871878766997449E-013
   3280.0000000000023      ,   3320.0000000000023      ,   9.4198987495341547E-008 ,   8.7785860537036497E-013
   3320.0000000000023      ,   3360.0000000000023      ,   9.8064680284857765E-008 ,   8.7081248205446194E-013
   3360.0000000000023      ,   3400.0000000000023      ,   1.0269694298691301E-007 ,   8.6763725517386030E-013
   3400.0000000000023      ,   3440.0000000000023      ,   1.0822576226381512E-007 ,   8.6838736382918513E-013
   3440.0000000000023      ,   3480.0000000000023      ,   1.1482749061753607E-007 ,   8.7325070198592246E-013
   3480.0000000000023      ,   3520.0000000000023      ,   1.2274294007693629E-007 ,   8.8256529696680994E-013
   3520.0000000000023      ,   3560.0000000000023      ,   1.3229319101401353E-007 ,   8.9681873919021362E-013
   3560.0000000000023      ,   3600.0000000000023      ,   6.2142887581030631E-008 ,   6.0573921328124983E-013
   3600.0000000000027      ,   3640.0000000000027      ,   0.0000000000000000      ,   0.0000000000000000     
   3640.0000000000027      ,   3680.0000000000027      ,   0.0000000000000000      ,   0.0000000000000000     
   3680.0000000000027      ,   3720.0000000000027      ,   0.0000000000000000      ,   0.0000000000000000     
   3720.0000000000027      ,   3760.0000000000027      ,   0.0000000000000000      ,   0.0000000000000000     
   3760.0000000000027      ,   3800.0000000000027      ,   0.0000000000000000      ,   0.0000000000000000     
   3800.0000000000027      ,   3840.0000000000027      ,   0.0000000000000000      ,   0.0000000000000000     
   3840.0000000000027      ,   3880.0000000000027      ,   0.0000000000000000      ,   0.0000000000000000     
   3880.0000000000027      ,   3920.0000000000027      ,   0.0000000000000000      ,   0.0000000000000000     
   3920.0000000000027      ,   3960.0000000000027      ,   0.0000000000000000      ,   0.0000000000000000     
   3960.0000000000027      ,   4000.0000000000027      ,   0.0000000000000000      ,   0.0000000000000000     
   4000.0000000000027      ,   4040.0000000000027      ,   0.0000000000000000      ,   0.0000000000000000     
   4040.0000000000027      ,   4080.0000000000027      ,   0.0000000000000000      ,   0.0000000000000000     
