 # xl, xh, LO, dLO
   0.0000000000000000      ,   4.0000000000000000      ,   0.0000000000000000      ,   0.0000000000000000     
   4.0000000000000000      ,   8.0000000000000000      ,   0.0000000000000000      ,   0.0000000000000000     
   8.0000000000000000      ,   12.000000000000000      ,   0.0000000000000000      ,   0.0000000000000000     
   12.000000000000000      ,   16.000000000000000      ,   0.0000000000000000      ,   0.0000000000000000     
   16.000000000000000      ,   20.000000000000000      ,   0.0000000000000000      ,   0.0000000000000000     
   20.000000000000000      ,   24.000000000000000      ,   0.0000000000000000      ,   0.0000000000000000     
   24.000000000000000      ,   28.000000000000000      ,   0.0000000000000000      ,   0.0000000000000000     
   28.000000000000000      ,   32.000000000000000      ,   0.0000000000000000      ,   0.0000000000000000     
   32.000000000000000      ,   36.000000000000000      ,   0.0000000000000000      ,   0.0000000000000000     
   36.000000000000000      ,   40.000000000000000      ,   0.0000000000000000      ,   0.0000000000000000     
   40.000000000000000      ,   44.000000000000000      ,   0.0000000000000000      ,   0.0000000000000000     
   44.000000000000000      ,   48.000000000000000      ,   0.0000000000000000      ,   0.0000000000000000     
   48.000000000000000      ,   52.000000000000000      ,   0.0000000000000000      ,   0.0000000000000000     
   52.000000000000000      ,   56.000000000000000      ,   0.0000000000000000      ,   0.0000000000000000     
   56.000000000000000      ,   60.000000000000000      ,   0.0000000000000000      ,   0.0000000000000000     
   60.000000000000000      ,   64.000000000000000      ,   0.0000000000000000      ,   0.0000000000000000     
   64.000000000000000      ,   68.000000000000000      ,   0.0000000000000000      ,   0.0000000000000000     
   68.000000000000000      ,   72.000000000000000      ,   0.0000000000000000      ,   0.0000000000000000     
   72.000000000000000      ,   76.000000000000000      ,   0.0000000000000000      ,   0.0000000000000000     
   76.000000000000000      ,   80.000000000000000      ,   0.0000000000000000      ,   0.0000000000000000     
   80.000000000000000      ,   84.000000000000000      ,   0.0000000000000000      ,   0.0000000000000000     
   84.000000000000000      ,   88.000000000000000      ,   0.0000000000000000      ,   0.0000000000000000     
   88.000000000000000      ,   92.000000000000000      ,   0.0000000000000000      ,   0.0000000000000000     
   92.000000000000000      ,   96.000000000000000      ,   0.0000000000000000      ,   0.0000000000000000     
   96.000000000000000      ,   100.00000000000000      ,   0.0000000000000000      ,   0.0000000000000000     
   100.00000000000000      ,   104.00000000000000      ,   0.0000000000000000      ,   0.0000000000000000     
   104.00000000000000      ,   108.00000000000000      ,   0.0000000000000000      ,   0.0000000000000000     
   108.00000000000000      ,   112.00000000000000      ,   0.0000000000000000      ,   0.0000000000000000     
   112.00000000000000      ,   116.00000000000000      ,   0.0000000000000000      ,   0.0000000000000000     
   116.00000000000000      ,   120.00000000000000      ,   0.0000000000000000      ,   0.0000000000000000     
   120.00000000000000      ,   124.00000000000000      ,   0.0000000000000000      ,   0.0000000000000000     
   124.00000000000000      ,   128.00000000000000      ,   0.0000000000000000      ,   0.0000000000000000     
   128.00000000000000      ,   132.00000000000000      ,   0.0000000000000000      ,   0.0000000000000000     
   132.00000000000000      ,   136.00000000000000      ,   0.0000000000000000      ,   0.0000000000000000     
   136.00000000000000      ,   140.00000000000000      ,   0.0000000000000000      ,   0.0000000000000000     
   140.00000000000000      ,   144.00000000000000      ,   0.0000000000000000      ,   0.0000000000000000     
   144.00000000000000      ,   148.00000000000000      ,   0.0000000000000000      ,   0.0000000000000000     
   148.00000000000000      ,   152.00000000000000      ,   0.0000000000000000      ,   0.0000000000000000     
   152.00000000000000      ,   156.00000000000000      ,   0.0000000000000000      ,   0.0000000000000000     
   156.00000000000000      ,   160.00000000000000      ,   0.0000000000000000      ,   0.0000000000000000     
   160.00000000000000      ,   164.00000000000000      ,   0.0000000000000000      ,   0.0000000000000000     
   164.00000000000000      ,   168.00000000000000      ,   0.0000000000000000      ,   0.0000000000000000     
   168.00000000000000      ,   172.00000000000000      ,   0.0000000000000000      ,   0.0000000000000000     
   172.00000000000000      ,   176.00000000000000      ,   0.0000000000000000      ,   0.0000000000000000     
   176.00000000000000      ,   180.00000000000000      ,   0.0000000000000000      ,   0.0000000000000000     
   180.00000000000000      ,   184.00000000000000      ,   0.0000000000000000      ,   0.0000000000000000     
   184.00000000000000      ,   188.00000000000000      ,   0.0000000000000000      ,   0.0000000000000000     
   188.00000000000000      ,   192.00000000000000      ,   0.0000000000000000      ,   0.0000000000000000     
   192.00000000000000      ,   196.00000000000000      ,   0.0000000000000000      ,   0.0000000000000000     
   196.00000000000000      ,   200.00000000000000      ,   0.0000000000000000      ,   0.0000000000000000     
   200.00000000000000      ,   204.00000000000000      ,   0.0000000000000000      ,   0.0000000000000000     
   204.00000000000000      ,   208.00000000000000      ,   0.0000000000000000      ,   0.0000000000000000     
   208.00000000000000      ,   212.00000000000000      ,   0.0000000000000000      ,   0.0000000000000000     
   212.00000000000000      ,   216.00000000000000      ,   0.0000000000000000      ,   0.0000000000000000     
   216.00000000000000      ,   220.00000000000000      ,   0.0000000000000000      ,   0.0000000000000000     
   220.00000000000000      ,   224.00000000000000      ,   0.0000000000000000      ,   0.0000000000000000     
   224.00000000000000      ,   228.00000000000000      ,   0.0000000000000000      ,   0.0000000000000000     
   228.00000000000000      ,   232.00000000000000      ,   0.0000000000000000      ,   0.0000000000000000     
   232.00000000000000      ,   236.00000000000000      ,   0.0000000000000000      ,   0.0000000000000000     
   236.00000000000000      ,   240.00000000000000      ,   0.0000000000000000      ,   0.0000000000000000     
   240.00000000000000      ,   244.00000000000000      ,   0.0000000000000000      ,   0.0000000000000000     
   244.00000000000000      ,   248.00000000000000      ,   0.0000000000000000      ,   0.0000000000000000     
   248.00000000000000      ,   252.00000000000000      ,   0.0000000000000000      ,   0.0000000000000000     
   252.00000000000000      ,   256.00000000000000      ,   0.0000000000000000      ,   0.0000000000000000     
   256.00000000000000      ,   260.00000000000000      ,   0.0000000000000000      ,   0.0000000000000000     
   260.00000000000000      ,   264.00000000000000      ,   0.0000000000000000      ,   0.0000000000000000     
   264.00000000000000      ,   268.00000000000000      ,   0.0000000000000000      ,   0.0000000000000000     
   268.00000000000000      ,   272.00000000000000      ,   0.0000000000000000      ,   0.0000000000000000     
   272.00000000000000      ,   276.00000000000000      ,   0.0000000000000000      ,   0.0000000000000000     
   276.00000000000000      ,   280.00000000000000      ,   3.1563858997105170E-009 ,   7.7312993067769118E-010
   280.00000000000000      ,   284.00000000000000      ,   1.8888580945287994E-007 ,   1.2527666433259858E-008
   284.00000000000000      ,   288.00000000000000      ,   6.4966836325945552E-007 ,   2.8509325054807533E-008
   288.00000000000000      ,   292.00000000000000      ,   1.2074224761288376E-006 ,   4.1875784319990520E-008
   292.00000000000000      ,   296.00000000000000      ,   1.7569230513487694E-006 ,   4.2110945521111992E-008
   296.00000000000000      ,   300.00000000000000      ,   2.6888714609955831E-006 ,   7.4167535907661700E-008
   300.00000000000000      ,   304.00000000000000      ,   3.1427580763077531E-006 ,   6.0480754341893141E-008
   304.00000000000000      ,   308.00000000000000      ,   3.8685314070359493E-006 ,   6.3897920939777650E-008
   308.00000000000000      ,   312.00000000000000      ,   4.7052681908310051E-006 ,   7.7768087534304158E-008
   312.00000000000000      ,   316.00000000000000      ,   5.2196530945198551E-006 ,   6.9973256103036810E-008
   316.00000000000000      ,   320.00000000000000      ,   5.9276363814491718E-006 ,   7.2782672658698280E-008
   320.00000000000000      ,   324.00000000000000      ,   6.7881928767647306E-006 ,   9.8054644525791009E-008
   324.00000000000000      ,   328.00000000000000      ,   7.4851395990160825E-006 ,   8.8011031953233594E-008
   328.00000000000000      ,   332.00000000000000      ,   8.2083956978526801E-006 ,   7.4555603920462550E-008
   332.00000000000000      ,   336.00000000000000      ,   8.8410520713153083E-006 ,   8.5764814644964689E-008
   336.00000000000000      ,   340.00000000000000      ,   9.3922495733299072E-006 ,   7.8238093066669390E-008
   340.00000000000000      ,   344.00000000000000      ,   1.0280766237089355E-005 ,   7.8299220738653092E-008
   344.00000000000000      ,   348.00000000000000      ,   1.0922367061355296E-005 ,   7.7108619958184846E-008
   348.00000000000000      ,   352.00000000000000      ,   1.1701544520123476E-005 ,   1.5742744994927116E-007
   352.00000000000000      ,   356.00000000000000      ,   1.2170363629552151E-005 ,   7.5641647198159321E-008
   356.00000000000000      ,   360.00000000000000      ,   1.2776705337493213E-005 ,   7.7754664776756644E-008
   360.00000000000000      ,   364.00000000000000      ,   1.3459888050792004E-005 ,   7.3679256732106772E-008
   364.00000000000000      ,   368.00000000000000      ,   1.4139498901489905E-005 ,   7.4154805159231618E-008
   368.00000000000000      ,   372.00000000000000      ,   1.4712421148764999E-005 ,   7.5312684470235025E-008
   372.00000000000000      ,   376.00000000000000      ,   1.5190527660800943E-005 ,   7.4998801594007148E-008
   376.00000000000000      ,   380.00000000000000      ,   1.5824203979738356E-005 ,   7.1525271762507798E-008
   380.00000000000000      ,   384.00000000000000      ,   1.6415021387535017E-005 ,   7.3377699350361722E-008
   384.00000000000000      ,   388.00000000000000      ,   1.6997449275411667E-005 ,   7.2670119634986941E-008
   388.00000000000000      ,   392.00000000000000      ,   1.7642290674109018E-005 ,   7.2176812644364834E-008
   392.00000000000000      ,   396.00000000000000      ,   1.8213577938162788E-005 ,   7.4770506710840012E-008
   396.00000000000000      ,   400.00000000000000      ,   1.8859000573251103E-005 ,   7.2668088298040905E-008
   400.00000000000000      ,   404.00000000000000      ,   1.9284533063365798E-005 ,   7.1802910862949810E-008
   404.00000000000000      ,   408.00000000000000      ,   1.9786374248435617E-005 ,   7.1730193940697738E-008
   408.00000000000000      ,   412.00000000000000      ,   2.0529364647905698E-005 ,   7.1886505089512316E-008
   412.00000000000000      ,   416.00000000000000      ,   2.1036827137134220E-005 ,   7.1657526519859966E-008
   416.00000000000000      ,   420.00000000000000      ,   2.1661309445360949E-005 ,   7.1677251911851665E-008
   420.00000000000000      ,   424.00000000000000      ,   2.2267612571004787E-005 ,   7.1879206472997674E-008
   424.00000000000000      ,   428.00000000000000      ,   2.2836193789467017E-005 ,   7.1981047741775127E-008
   428.00000000000000      ,   432.00000000000000      ,   2.3459431272480737E-005 ,   7.1847031429512806E-008
   432.00000000000000      ,   436.00000000000000      ,   2.4111201006722125E-005 ,   7.1916228829618532E-008
   436.00000000000000      ,   440.00000000000000      ,   2.4665205905039162E-005 ,   7.2350337897653305E-008
   440.00000000000000      ,   444.00000000000000      ,   2.5313790107544545E-005 ,   7.2702709108634466E-008
   444.00000000000000      ,   448.00000000000000      ,   2.6061712808649203E-005 ,   7.3107541494612063E-008
   448.00000000000000      ,   452.00000000000000      ,   2.6580661516567333E-005 ,   7.2453232197163609E-008
   452.00000000000000      ,   456.00000000000000      ,   2.7115437783662935E-005 ,   7.2401014285388388E-008
   456.00000000000000      ,   460.00000000000000      ,   2.7885825789402548E-005 ,   7.2838929932717889E-008
   460.00000000000000      ,   464.00000000000000      ,   2.8685080330931584E-005 ,   7.3962987429180230E-008
   464.00000000000000      ,   468.00000000000000      ,   2.9369256675007660E-005 ,   7.3978037515463532E-008
   468.00000000000000      ,   472.00000000000000      ,   3.0184429114248612E-005 ,   7.4409580698767335E-008
   472.00000000000000      ,   476.00000000000000      ,   3.0832306926579366E-005 ,   7.4880244190516058E-008
   476.00000000000000      ,   480.00000000000000      ,   3.1593336836434180E-005 ,   7.5696843791476485E-008
   480.00000000000000      ,   484.00000000000000      ,   3.2422954821671045E-005 ,   7.5943604416600001E-008
   484.00000000000000      ,   488.00000000000000      ,   3.3244788636503597E-005 ,   7.6647525888534766E-008
   488.00000000000000      ,   492.00000000000000      ,   3.4107505971187485E-005 ,   7.7003703597332016E-008
   492.00000000000000      ,   496.00000000000000      ,   3.4821156698256249E-005 ,   7.7331746102022682E-008
   496.00000000000000      ,   500.00000000000000      ,   3.5776390399004192E-005 ,   7.8416531464818117E-008
   500.00000000000000      ,   504.00000000000000      ,   3.6681882077074200E-005 ,   7.8428265448769849E-008
   504.00000000000000      ,   508.00000000000000      ,   3.7586011552323811E-005 ,   7.9432490714378413E-008
   508.00000000000000      ,   512.00000000000000      ,   3.8593159467279471E-005 ,   8.0348970987466005E-008
   512.00000000000000      ,   516.00000000000000      ,   3.9657664853900351E-005 ,   8.1803334821230076E-008
   516.00000000000000      ,   520.00000000000000      ,   4.0765398583677823E-005 ,   8.2553125253413347E-008
   520.00000000000000      ,   524.00000000000000      ,   4.1775051823126600E-005 ,   8.2781902088627567E-008
   524.00000000000000      ,   528.00000000000000      ,   4.2943951462214699E-005 ,   8.4097633268318182E-008
   528.00000000000000      ,   532.00000000000000      ,   4.4057067182206367E-005 ,   8.4984960296953913E-008
   532.00000000000000      ,   536.00000000000000      ,   4.5465175046935842E-005 ,   8.6947854994452115E-008
   536.00000000000000      ,   540.00000000000000      ,   4.6680109692974952E-005 ,   8.7272058197413099E-008
   540.00000000000000      ,   544.00000000000000      ,   4.8015431846400680E-005 ,   8.8748174162644637E-008
   544.00000000000000      ,   548.00000000000000      ,   4.9446637556856451E-005 ,   9.0300873415181906E-008
   548.00000000000000      ,   552.00000000000000      ,   5.0936735114644838E-005 ,   9.1370014300281122E-008
   552.00000000000000      ,   556.00000000000000      ,   5.2684030382033944E-005 ,   9.3900938021462347E-008
   556.00000000000000      ,   560.00000000000000      ,   5.4152420760378016E-005 ,   9.4576783193679663E-008
   560.00000000000000      ,   564.00000000000000      ,   5.5784329817471748E-005 ,   9.6320030025715293E-008
   564.00000000000000      ,   568.00000000000000      ,   5.7515629454008218E-005 ,   9.7727376267535263E-008
   568.00000000000000      ,   572.00000000000000      ,   5.9547240410098639E-005 ,   1.0042937087627338E-007
   572.00000000000000      ,   576.00000000000000      ,   6.1646443886193602E-005 ,   1.0277087506257155E-007
   576.00000000000000      ,   580.00000000000000      ,   6.3478173796376532E-005 ,   1.0430349403560193E-007
   580.00000000000000      ,   584.00000000000000      ,   6.5693913912662192E-005 ,   1.0655587091238563E-007
   584.00000000000000      ,   588.00000000000000      ,   6.7740294203386844E-005 ,   1.0812049146162785E-007
   588.00000000000000      ,   592.00000000000000      ,   7.0278747310437823E-005 ,   1.1084832511166758E-007
   592.00000000000000      ,   596.00000000000000      ,   7.2877647784355128E-005 ,   1.1356948194776332E-007
   596.00000000000000      ,   600.00000000000000      ,   7.5334668349935570E-005 ,   1.1616729674673773E-007
   600.00000000000000      ,   604.00000000000000      ,   7.8293296511901191E-005 ,   1.1948179597255554E-007
   604.00000000000000      ,   608.00000000000000      ,   8.1090361180253943E-005 ,   1.2200554497994790E-007
   608.00000000000000      ,   612.00000000000000      ,   8.4509937455476636E-005 ,   1.2548134951098872E-007
   612.00000000000000      ,   616.00000000000000      ,   8.7757237314166833E-005 ,   1.2889671520484382E-007
   616.00000000000000      ,   620.00000000000000      ,   9.1325885700000074E-005 ,   1.3288382644426530E-007
   620.00000000000000      ,   624.00000000000000      ,   9.5094900424741625E-005 ,   1.3727053510872797E-007
   624.00000000000000      ,   628.00000000000000      ,   9.9153135731626938E-005 ,   1.4087927212846889E-007
   628.00000000000000      ,   632.00000000000000      ,   1.0309014218803587E-004 ,   1.4481036477808106E-007
   632.00000000000000      ,   636.00000000000000      ,   1.0781478401138990E-004 ,   1.4961891586284392E-007
   636.00000000000000      ,   640.00000000000000      ,   1.1250952639792933E-004 ,   1.5463478456115789E-007
   640.00000000000000      ,   644.00000000000000      ,   1.1756853279378775E-004 ,   1.6039196812915049E-007
   644.00000000000000      ,   648.00000000000000      ,   1.2288707584692305E-004 ,   1.6514997970256226E-007
   648.00000000000000      ,   652.00000000000000      ,   1.2852774084482125E-004 ,   1.7179596350811888E-007
   652.00000000000000      ,   656.00000000000000      ,   1.3438760124645128E-004 ,   1.7681285689902371E-007
   656.00000000000000      ,   660.00000000000000      ,   1.4122548384608552E-004 ,   1.8397835874112769E-007
   660.00000000000000      ,   664.00000000000000      ,   1.4834358364342081E-004 ,   1.9141321837234429E-007
   664.00000000000000      ,   668.00000000000000      ,   1.5582671421911286E-004 ,   1.9930822302289574E-007
   668.00000000000000      ,   672.00000000000000      ,   1.6375649515301436E-004 ,   2.0720050688955735E-007
   672.00000000000000      ,   676.00000000000000      ,   1.7203315759287097E-004 ,   2.1449214122905104E-007
   676.00000000000000      ,   680.00000000000000      ,   1.8107530536957234E-004 ,   2.2443834725657608E-007
   680.00000000000000      ,   684.00000000000000      ,   1.9042224235684278E-004 ,   2.3375087473569675E-007
   684.00000000000000      ,   688.00000000000000      ,   2.0069524624168370E-004 ,   2.4408141192360312E-007
   688.00000000000000      ,   692.00000000000000      ,   2.1087997714839703E-004 ,   2.5384438060291425E-007
   692.00000000000000      ,   696.00000000000000      ,   2.2236307346248211E-004 ,   2.6467665499164762E-007
   696.00000000000000      ,   700.00000000000000      ,   2.3364088340446754E-004 ,   2.7556242252929735E-007
   700.00000000000000      ,   704.00000000000000      ,   2.4630914173963300E-004 ,   2.8735736809113146E-007
   704.00000000000000      ,   708.00000000000000      ,   2.5950627631328102E-004 ,   3.0059487599984158E-007
   708.00000000000000      ,   712.00000000000000      ,   2.7249928984573145E-004 ,   3.1235255553237531E-007
   712.00000000000000      ,   716.00000000000000      ,   2.8580191312793917E-004 ,   3.2395789849703231E-007
   716.00000000000000      ,   720.00000000000000      ,   2.9951688409567319E-004 ,   3.3751532637187563E-007
   720.00000000000000      ,   724.00000000000000      ,   3.1301048840874776E-004 ,   3.4776281634693081E-007
   724.00000000000000      ,   728.00000000000000      ,   3.2678206033965175E-004 ,   3.6038417819053346E-007
   728.00000000000000      ,   732.00000000000000      ,   3.3998448775937200E-004 ,   3.7144008861499219E-007
   732.00000000000000      ,   736.00000000000000      ,   3.5250023445368395E-004 ,   3.8243094357382109E-007
   736.00000000000000      ,   740.00000000000000      ,   3.6437777246084695E-004 ,   3.9044557720908961E-007
   740.00000000000000      ,   744.00000000000000      ,   3.7485673863706250E-004 ,   3.9883050992749009E-007
   744.00000000000000      ,   748.00000000000000      ,   3.8324494537412331E-004 ,   4.0380088845027784E-007
   748.00000000000000      ,   752.00000000000000      ,   3.9033055255102548E-004 ,   4.0780640376724369E-007
   752.00000000000000      ,   756.00000000000000      ,   3.9585667023081582E-004 ,   4.1040048829257941E-007
   756.00000000000000      ,   760.00000000000000      ,   3.9891335329225497E-004 ,   4.0879197453256991E-007
   760.00000000000000      ,   764.00000000000000      ,   4.0175023572819129E-004 ,   3.0886416578124892E-007
   764.00000000000000      ,   768.00000000000000      ,   4.0247423312889032E-004 ,   2.8719859069068289E-007
   768.00000000000000      ,   772.00000000000000      ,   4.0290200781291060E-004 ,   2.8502929176310392E-007
   772.00000000000000      ,   776.00000000000000      ,   4.0460780111148956E-004 ,   2.8376838629023417E-007
   776.00000000000000      ,   780.00000000000000      ,   4.0259314881868711E-004 ,   2.7973011451624347E-007
   780.00000000000000      ,   784.00000000000000      ,   3.5274961838245767E-004 ,   2.4398158793616001E-007
   784.00000000000000      ,   788.00000000000000      ,   2.8592984095578925E-004 ,   1.9541154073320914E-007
   788.00000000000000      ,   792.00000000000000      ,   2.7572832679238058E-004 ,   1.8694628500517877E-007
   792.00000000000000      ,   796.00000000000000      ,   2.7199083459890919E-004 ,   1.8278052826138813E-007
   796.00000000000000      ,   800.00000000000000      ,   2.6483992273615523E-004 ,   1.7651064928120412E-007
   800.00000000000000      ,   804.00000000000000      ,   2.5575941927881608E-004 ,   1.6919351351135986E-007
   804.00000000000000      ,   808.00000000000000      ,   2.4435465880992064E-004 ,   1.6028506614678523E-007
   808.00000000000000      ,   812.00000000000000      ,   2.3269973365217303E-004 ,   1.5120861899815469E-007
   812.00000000000000      ,   816.00000000000000      ,   2.2080547038013428E-004 ,   1.4219964234811647E-007
   816.00000000000000      ,   820.00000000000000      ,   2.0927477032119349E-004 ,   1.3377744922269180E-007
   820.00000000000000      ,   824.00000000000000      ,   1.9817638900863986E-004 ,   1.2568263776501041E-007
   824.00000000000000      ,   828.00000000000000      ,   1.8700982383808545E-004 ,   1.1766027297900141E-007
   828.00000000000000      ,   832.00000000000000      ,   1.7664442592852099E-004 ,   1.1025828300276546E-007
   832.00000000000000      ,   836.00000000000000      ,   1.6691698673017199E-004 ,   1.0344322137146698E-007
   836.00000000000000      ,   840.00000000000000      ,   1.5729715077683599E-004 ,   9.6633108425332232E-008
   840.00000000000000      ,   844.00000000000000      ,   1.4845872617916340E-004 ,   9.0516434863855869E-008
   844.00000000000000      ,   848.00000000000000      ,   1.3994287435449001E-004 ,   8.4526566502352967E-008
   848.00000000000000      ,   852.00000000000000      ,   1.3217243141376786E-004 ,   7.9288308720876317E-008
   852.00000000000000      ,   856.00000000000000      ,   1.2487249630541993E-004 ,   7.4426015122803243E-008
   856.00000000000000      ,   860.00000000000000      ,   1.1776595536923738E-004 ,   6.9378303713022887E-008
   860.00000000000000      ,   864.00000000000000      ,   1.1146440825843555E-004 ,   6.5280760950318163E-008
   864.00000000000000      ,   868.00000000000000      ,   1.0551917738888177E-004 ,   6.1322985020179367E-008
   868.00000000000000      ,   872.00000000000000      ,   9.9947273152734302E-005 ,   5.7640174072603139E-008
   872.00000000000000      ,   876.00000000000000      ,   9.4677258242367853E-005 ,   5.4229556717272252E-008
   876.00000000000000      ,   880.00000000000000      ,   8.9784539765048256E-005 ,   5.1044390966572698E-008
   880.00000000000000      ,   884.00000000000000      ,   8.5261056814780564E-005 ,   4.8138214643344909E-008
   884.00000000000000      ,   888.00000000000000      ,   8.0916522500717805E-005 ,   4.5295763109759282E-008
   888.00000000000000      ,   892.00000000000000      ,   7.6914037881353872E-005 ,   4.2730555645394505E-008
   892.00000000000000      ,   896.00000000000000      ,   7.3154815937149020E-005 ,   4.0335707099475424E-008
   896.00000000000000      ,   900.00000000000000      ,   6.9676510671839873E-005 ,   3.8109278287030392E-008
   900.00000000000000      ,   904.00000000000000      ,   6.6399863226895739E-005 ,   3.6058176269347889E-008
   904.00000000000000      ,   908.00000000000000      ,   6.3304955610150163E-005 ,   3.4132288625909732E-008
   908.00000000000000      ,   912.00000000000000      ,   6.0388779626472692E-005 ,   3.2323463016153047E-008
   912.00000000000000      ,   916.00000000000000      ,   5.7671709659556709E-005 ,   3.0632671130957975E-008
   916.00000000000000      ,   920.00000000000000      ,   5.5134915449748319E-005 ,   2.9094013343484383E-008
   920.00000000000000      ,   924.00000000000000      ,   5.2760258088654177E-005 ,   2.7632054725333096E-008
   924.00000000000000      ,   928.00000000000000      ,   5.0513661857299614E-005 ,   2.6243354592237485E-008
   928.00000000000000      ,   932.00000000000000      ,   4.8350262056571636E-005 ,   2.4955868012263491E-008
   932.00000000000000      ,   936.00000000000000      ,   4.6338551133732519E-005 ,   2.3733900071594150E-008
   936.00000000000000      ,   940.00000000000000      ,   4.4484471297163381E-005 ,   2.2620653838732037E-008
   940.00000000000000      ,   944.00000000000000      ,   4.2621148182572716E-005 ,   2.1524712265597269E-008
   944.00000000000000      ,   948.00000000000000      ,   4.0945393759716031E-005 ,   2.0510461400340733E-008
   948.00000000000000      ,   952.00000000000000      ,   3.9351603683762982E-005 ,   1.9587298463430312E-008
   952.00000000000000      ,   956.00000000000000      ,   3.7828687154470048E-005 ,   1.8680941780926719E-008
   956.00000000000000      ,   960.00000000000000      ,   3.6412547506754868E-005 ,   1.7890530049274408E-008
   960.00000000000000      ,   964.00000000000000      ,   3.5044682457219201E-005 ,   1.7067893066577441E-008
   964.00000000000000      ,   968.00000000000000      ,   3.3719111410431763E-005 ,   1.6298438267216732E-008
   968.00000000000000      ,   972.00000000000000      ,   3.2528315176690083E-005 ,   1.5631226401763502E-008
   972.00000000000000      ,   976.00000000000000      ,   3.1345255258259536E-005 ,   1.4944806203437349E-008
   976.00000000000000      ,   980.00000000000000      ,   3.0217997946452829E-005 ,   1.4323739318635450E-008
   980.00000000000000      ,   984.00000000000000      ,   2.9149617576382660E-005 ,   1.3693076027133068E-008
   984.00000000000000      ,   988.00000000000000      ,   2.8149720540044728E-005 ,   1.3153781743134835E-008
   988.00000000000000      ,   992.00000000000000      ,   2.7154982776919366E-005 ,   1.2588682311316596E-008
   992.00000000000000      ,   996.00000000000000      ,   2.6199356511591405E-005 ,   1.2055916469126470E-008
   996.00000000000000      ,   1000.0000000000000      ,   2.5279439585375949E-005 ,   1.1566598255578995E-008
   1000.0000000000000      ,   1004.0000000000000      ,   2.4385004120404313E-005 ,   1.1077371822109939E-008
   1004.0000000000000      ,   1008.0000000000000      ,   2.3443675735578243E-005 ,   1.0575566085969677E-008
   1008.0000000000000      ,   1012.0000000000000      ,   2.2416486500384825E-005 ,   1.0045926349827665E-008
   1012.0000000000000      ,   1016.0000000000000      ,   2.1066314464598951E-005 ,   9.3886035622208101E-009
   1016.0000000000000      ,   1020.0000000000000      ,   1.9751532482334777E-005 ,   8.7377969886635609E-009
   1020.0000000000000      ,   1024.0000000000000      ,   2.2471415115505567E-005 ,   9.8630162789501896E-009
   1024.0000000000000      ,   1028.0000000000000      ,   2.1767235864202057E-005 ,   9.4878089851346121E-009
   1028.0000000000000      ,   1032.0000000000000      ,   2.0843038159040994E-005 ,   9.0306526002846445E-009
   1032.0000000000000      ,   1036.0000000000000      ,   2.0092790663188974E-005 ,   8.6486297080928552E-009
   1036.0000000000000      ,   1040.0000000000000      ,   1.9413984110958555E-005 ,   8.3006303038845814E-009
   1040.0000000000000      ,   1044.0000000000000      ,   1.8827497479484752E-005 ,   7.9995403871708816E-009
   1044.0000000000000      ,   1048.0000000000000      ,   1.8266285799494423E-005 ,   7.7120203450073683E-009
   1048.0000000000000      ,   1052.0000000000000      ,   1.7739835083912561E-005 ,   7.4349642611891483E-009
   1052.0000000000000      ,   1056.0000000000000      ,   1.7241321489695284E-005 ,   7.1785720257114893E-009
   1056.0000000000000      ,   1060.0000000000000      ,   1.6772835017112165E-005 ,   6.9361278576321890E-009
   1060.0000000000000      ,   1064.0000000000000      ,   1.6333823264509276E-005 ,   6.7122423117625251E-009
   1064.0000000000000      ,   1068.0000000000000      ,   1.5906839829883476E-005 ,   6.4959987853440953E-009
   1068.0000000000000      ,   1072.0000000000000      ,   1.5500727400258348E-005 ,   6.2857662836149566E-009
   1072.0000000000000      ,   1076.0000000000000      ,   1.5098704153425781E-005 ,   6.0831615680812839E-009
   1076.0000000000000      ,   1080.0000000000000      ,   1.4722013238308879E-005 ,   5.8947751780149020E-009
   1080.0000000000000      ,   1084.0000000000000      ,   1.4355994004442444E-005 ,   5.7129574865521709E-009
   1084.0000000000000      ,   1088.0000000000000      ,   1.4012007004878037E-005 ,   5.5342345237393164E-009
   1088.0000000000000      ,   1092.0000000000000      ,   1.3685126140689782E-005 ,   5.3745920308817451E-009
   1092.0000000000000      ,   1096.0000000000000      ,   1.3353686470529844E-005 ,   5.2059147594206861E-009
   1096.0000000000000      ,   1100.0000000000000      ,   1.3048539395478596E-005 ,   5.0549776417408083E-009
   1100.0000000000000      ,   1104.0000000000000      ,   1.2738258614148680E-005 ,   4.9009107733416630E-009
   1104.0000000000000      ,   1108.0000000000000      ,   1.2454683612061489E-005 ,   4.7660322642321774E-009
   1108.0000000000000      ,   1112.0000000000000      ,   1.2185691653623721E-005 ,   4.6333797100377353E-009
   1112.0000000000000      ,   1116.0000000000000      ,   1.1903152105667816E-005 ,   4.4904944557056235E-009
   1116.0000000000000      ,   1120.0000000000000      ,   1.1647253456468775E-005 ,   4.3663677382651102E-009
   1120.0000000000000      ,   1124.0000000000000      ,   1.1397546180202852E-005 ,   4.2489294004573799E-009
   1124.0000000000000      ,   1128.0000000000000      ,   1.1150719471536357E-005 ,   4.1305856283993919E-009
   1128.0000000000000      ,   1132.0000000000000      ,   1.0921886777773262E-005 ,   4.0181685878500096E-009
   1132.0000000000000      ,   1136.0000000000000      ,   1.0695273836544618E-005 ,   3.9116489785401005E-009
   1136.0000000000000      ,   1140.0000000000000      ,   1.0471285268264121E-005 ,   3.8024129650395969E-009
   1140.0000000000000      ,   1144.0000000000000      ,   1.0251668535483021E-005 ,   3.6996110695160396E-009
   1144.0000000000000      ,   1148.0000000000000      ,   1.0052079639409614E-005 ,   3.6053625495083669E-009
   1148.0000000000000      ,   1152.0000000000000      ,   9.8543397453498131E-006 ,   3.5101182261643209E-009
   1152.0000000000000      ,   1156.0000000000000      ,   9.6609369357393920E-006 ,   3.4217169430147533E-009
   1156.0000000000000      ,   1160.0000000000000      ,   9.4694721215370643E-006 ,   3.3333838719394949E-009
   1160.0000000000000      ,   1164.0000000000000      ,   9.2924517025284256E-006 ,   3.2519908047457915E-009
   1164.0000000000000      ,   1168.0000000000000      ,   9.1213576653577118E-006 ,   3.1699205274895745E-009
   1168.0000000000000      ,   1172.0000000000000      ,   8.9457508616691072E-006 ,   3.0898374978656571E-009
   1172.0000000000000      ,   1176.0000000000000      ,   8.7853645182966166E-006 ,   3.0161382672230644E-009
   1176.0000000000000      ,   1180.0000000000000      ,   8.6146335222335481E-006 ,   2.9387447381256416E-009
   1180.0000000000000      ,   1184.0000000000000      ,   8.4642004700336979E-006 ,   2.8689013519611910E-009
   1184.0000000000000      ,   1188.0000000000000      ,   8.3040973899646828E-006 ,   2.7987280111184354E-009
   1188.0000000000000      ,   1192.0000000000000      ,   8.1575823332173578E-006 ,   2.7290854550685119E-009
   1192.0000000000000      ,   1196.0000000000000      ,   8.0143690133096329E-006 ,   2.6649085471940665E-009
   1196.0000000000000      ,   1200.0000000000000      ,   7.8712692747966401E-006 ,   2.6015109186050972E-009
   1200.0000000000000      ,   1204.0000000000000      ,   7.7331183934878408E-006 ,   2.5382678258217885E-009
   1204.0000000000000      ,   1208.0000000000000      ,   7.5887106497936087E-006 ,   2.4759876013805499E-009
   1208.0000000000000      ,   1212.0000000000000      ,   7.4570990826910146E-006 ,   2.4179118411951932E-009
   1212.0000000000000      ,   1216.0000000000000      ,   7.3241935136304616E-006 ,   2.3612833736963263E-009
   1216.0000000000000      ,   1220.0000000000000      ,   7.1989940818530190E-006 ,   2.3059710129261483E-009
   1220.0000000000000      ,   1224.0000000000000      ,   7.0712657149750267E-006 ,   2.2514919806907109E-009
   1224.0000000000000      ,   1228.0000000000000      ,   6.9468086693469821E-006 ,   2.1980771266133263E-009
   1228.0000000000000      ,   1232.0000000000000      ,   6.8261802153922092E-006 ,   2.1457915625284734E-009
   1232.0000000000000      ,   1236.0000000000000      ,   6.7058318480710971E-006 ,   2.0945068101667030E-009
   1236.0000000000000      ,   1240.0000000000000      ,   6.5865817161033117E-006 ,   2.0449267215151808E-009
   1240.0000000000000      ,   1244.0000000000000      ,   6.4704112635904876E-006 ,   1.9965349630847555E-009
   1244.0000000000000      ,   1248.0000000000000      ,   6.3551347823987447E-006 ,   1.9498071963530734E-009
   1248.0000000000000      ,   1252.0000000000000      ,   6.2418652405569958E-006 ,   1.9037572728176233E-009
   1252.0000000000000      ,   1256.0000000000000      ,   6.1274358284226965E-006 ,   1.8551748358510560E-009
   1256.0000000000000      ,   1260.0000000000000      ,   6.0128442771804856E-006 ,   1.8094588098626474E-009
   1260.0000000000000      ,   1264.0000000000000      ,   5.9019653398936004E-006 ,   1.7658635736210550E-009
   1264.0000000000000      ,   1268.0000000000000      ,   5.7899535139055501E-006 ,   1.7222387739325977E-009
   1268.0000000000000      ,   1272.0000000000000      ,   5.6857635854596274E-006 ,   1.6803404827946120E-009
   1272.0000000000000      ,   1276.0000000000000      ,   5.5732927723720712E-006 ,   1.6370207573455217E-009
   1276.0000000000000      ,   1280.0000000000000      ,   5.4627722733956594E-006 ,   1.5941451561864193E-009
   1280.0000000000000      ,   1284.0000000000000      ,   5.3587430990341886E-006 ,   1.5540359900603865E-009
   1284.0000000000000      ,   1288.0000000000000      ,   5.2511426239313362E-006 ,   1.5139202614575117E-009
   1288.0000000000000      ,   1292.0000000000000      ,   5.1482932596435575E-006 ,   1.4758505371532281E-009
   1292.0000000000000      ,   1296.0000000000000      ,   5.0390118502319472E-006 ,   1.4355553009098889E-009
   1296.0000000000000      ,   1300.0000000000000      ,   4.9354038296194153E-006 ,   1.3979670779056628E-009
   1300.0000000000000      ,   1304.0000000000000      ,   4.8266779938123935E-006 ,   1.3581392292424363E-009
   1304.0000000000000      ,   1308.0000000000000      ,   4.7256289222942946E-006 ,   1.3222545294806145E-009
   1308.0000000000000      ,   1312.0000000000000      ,   4.6179779156771369E-006 ,   1.2844860279936292E-009
   1312.0000000000000      ,   1316.0000000000000      ,   4.5126146299553043E-006 ,   1.2467989268549603E-009
   1316.0000000000000      ,   1320.0000000000000      ,   4.4072865055191624E-006 ,   1.2105483975727173E-009
   1320.0000000000000      ,   1324.0000000000000      ,   4.2995009136777241E-006 ,   1.1738152097385677E-009
   1324.0000000000000      ,   1328.0000000000000      ,   4.1950929349245499E-006 ,   1.1380156572864847E-009
   1328.0000000000000      ,   1332.0000000000000      ,   4.0896707693579935E-006 ,   1.1030698374514376E-009
   1332.0000000000000      ,   1336.0000000000000      ,   3.9850871665680478E-006 ,   1.0680533917108738E-009
   1336.0000000000000      ,   1340.0000000000000      ,   3.8771945128220356E-006 ,   1.0331058696645356E-009
   1340.0000000000000      ,   1344.0000000000000      ,   3.7717903863392127E-006 ,   9.9881302758937860E-010
   1344.0000000000000      ,   1348.0000000000000      ,   3.6662692951289528E-006 ,   9.6535127884520633E-010
   1348.0000000000000      ,   1352.0000000000000      ,   3.5561192923332183E-006 ,   9.3028571441293528E-010
   1352.0000000000000      ,   1356.0000000000000      ,   3.4510472578776391E-006 ,   8.9735606704018818E-010
   1356.0000000000000      ,   1360.0000000000000      ,   3.3407882033475659E-006 ,   8.6314226674353361E-010
   1360.0000000000000      ,   1364.0000000000000      ,   3.2327164724408383E-006 ,   8.3026822360434253E-010
   1364.0000000000000      ,   1368.0000000000000      ,   3.1255327633265747E-006 ,   7.9786648874889484E-010
   1368.0000000000000      ,   1372.0000000000000      ,   3.0167759704878786E-006 ,   7.6547896655756079E-010
   1372.0000000000000      ,   1376.0000000000000      ,   2.9076835577032733E-006 ,   7.3343709007507477E-010
   1376.0000000000000      ,   1380.0000000000000      ,   2.7982673100642819E-006 ,   7.0149604749746193E-010
   1380.0000000000000      ,   1384.0000000000000      ,   2.6894322322878570E-006 ,   6.6987867930779343E-010
   1384.0000000000000      ,   1388.0000000000000      ,   2.5788878198608518E-006 ,   6.3849232049737960E-010
   1388.0000000000000      ,   1392.0000000000000      ,   2.4702212504841021E-006 ,   6.0794323362547347E-010
   1392.0000000000000      ,   1396.0000000000000      ,   2.3617123171098880E-006 ,   5.7768678163048479E-010
   1396.0000000000000      ,   1400.0000000000000      ,   2.2532072044148854E-006 ,   5.4767731020105248E-010
   1400.0000000000000      ,   1404.0000000000000      ,   2.1474183659220229E-006 ,   5.1887110213529492E-010
   1404.0000000000000      ,   1408.0000000000000      ,   2.0393692501748360E-006 ,   4.8968749075511238E-010
   1408.0000000000000      ,   1412.0000000000000      ,   1.9353484643884501E-006 ,   4.6203357098637952E-010
   1412.0000000000000      ,   1416.0000000000000      ,   1.8312536493044510E-006 ,   4.3455332357439019E-010
   1416.0000000000000      ,   1420.0000000000000      ,   1.7278618352411939E-006 ,   4.0755217064006212E-010
   1420.0000000000000      ,   1424.0000000000000      ,   1.6264076127078327E-006 ,   3.8118010772921163E-010
   1424.0000000000000      ,   1428.0000000000000      ,   1.5278863272370952E-006 ,   3.5601924891458905E-010
   1428.0000000000000      ,   1432.0000000000000      ,   1.4300103240521201E-006 ,   3.3128491580931960E-010
   1432.0000000000000      ,   1436.0000000000000      ,   1.3348348422806630E-006 ,   3.0734705665636397E-010
   1436.0000000000000      ,   1440.0000000000000      ,   1.2418666905289869E-006 ,   2.8414094279673039E-010
   1440.0000000000000      ,   1444.0000000000000      ,   1.1518496106399274E-006 ,   2.6193260199277394E-010
   1444.0000000000000      ,   1448.0000000000000      ,   1.0642486653716647E-006 ,   2.4049853690513549E-010
   1448.0000000000000      ,   1452.0000000000000      ,   9.8032327059084326E-007 ,   2.2027492229326928E-010
   1452.0000000000000      ,   1456.0000000000000      ,   8.9906135888683800E-007 ,   2.0074929849994688E-010
   1456.0000000000000      ,   1460.0000000000000      ,   8.2141875048613944E-007 ,   1.8246373012521734E-010
   1460.0000000000000      ,   1464.0000000000000      ,   7.4711949189678924E-007 ,   1.6487851834309827E-010
   1464.0000000000000      ,   1468.0000000000000      ,   6.7625725858718817E-007 ,   1.4839900318733937E-010
   1468.0000000000000      ,   1472.0000000000000      ,   6.0878651660243503E-007 ,   1.3268724966161741E-010
   1472.0000000000000      ,   1476.0000000000000      ,   5.4555815874585598E-007 ,   1.1828140725728090E-010
   1476.0000000000000      ,   1480.0000000000000      ,   4.8553770995400648E-007 ,   1.0461327191529861E-010
   1480.0000000000000      ,   1484.0000000000000      ,   4.2994862982202452E-007 ,   9.2114745736733529E-011
   1484.0000000000000      ,   1488.0000000000000      ,   3.7768925563459839E-007 ,   8.0421502245776524E-011
   1488.0000000000000      ,   1492.0000000000000      ,   3.2955243311918507E-007 ,   6.9734368884148802E-011
   1492.0000000000000      ,   1496.0000000000000      ,   2.8517730028801875E-007 ,   5.9982595585446928E-011
   1496.0000000000000      ,   1500.0000000000000      ,   2.4465528452043034E-007 ,   5.1147504211995611E-011
   1500.0000000000000      ,   1504.0000000000000      ,   2.0775898648782351E-007 ,   4.3172804150016637E-011
   1504.0000000000000      ,   1508.0000000000000      ,   1.7462338565720403E-007 ,   3.6068675678915663E-011
   1508.0000000000000      ,   1512.0000000000000      ,   1.4504900204066327E-007 ,   2.9782986263958475E-011
   1512.0000000000000      ,   1516.0000000000000      ,   1.1907385429800038E-007 ,   2.4284731810910845E-011
   1516.0000000000000      ,   1520.0000000000000      ,   9.6387789094556040E-008 ,   1.9532480792021494E-011
   1520.0000000000000      ,   1524.0000000000000      ,   7.7094414331647368E-008 ,   1.5532057071861195E-011
   1524.0000000000000      ,   1528.0000000000000      ,   6.0971671591570096E-008 ,   1.2204500761666212E-011
   1528.0000000000000      ,   1532.0000000000000      ,   4.7945487327664654E-008 ,   9.5432610861254351E-012
   1532.0000000000000      ,   1536.0000000000000      ,   3.7869901266287127E-008 ,   7.4970297405202915E-012
   1536.0000000000000      ,   1540.0000000000000      ,   3.0580488039846326E-008 ,   6.0301075978342746E-012
   1540.0000000000000      ,   1544.0000000000000      ,   2.6030942223174674E-008 ,   5.1191185998361981E-012
   1544.0000000000000      ,   1548.0000000000000      ,   2.4035292986850999E-008 ,   4.7090714639615812E-012
   1548.0000000000000      ,   1552.0000000000000      ,   2.4480609796771224E-008 ,   4.7675008901840635E-012
   1552.0000000000000      ,   1556.0000000000000      ,   2.7247549722017795E-008 ,   5.2631728942469032E-012
   1556.0000000000000      ,   1560.0000000000000      ,   3.2212456270834891E-008 ,   6.1689334650533612E-012
   1560.0000000000000      ,   1564.0000000000000      ,   3.9236998983620248E-008 ,   7.4541558161315315E-012
   1564.0000000000000      ,   1568.0000000000000      ,   4.8236363269243308E-008 ,   9.1018473648886966E-012
   1568.0000000000000      ,   1572.0000000000000      ,   5.9074392857704969E-008 ,   1.1080549462500335E-011
   1572.0000000000000      ,   1576.0000000000000      ,   7.1663806289442947E-008 ,   1.3363719102425931E-011
   1576.0000000000000      ,   1580.0000000000000      ,   8.5912755805586349E-008 ,   1.5935278520446141E-011
   1580.0000000000000      ,   1584.0000000000000      ,   1.0164322114728111E-007 ,   1.8748739093209037E-011
   1584.0000000000000      ,   1588.0000000000000      ,   1.1882602883962597E-007 ,   2.1794422340081928E-011
   1588.0000000000000      ,   1592.0000000000000      ,   1.3739994980359577E-007 ,   2.5061442693666845E-011
   1592.0000000000000      ,   1596.0000000000000      ,   1.5731163626476659E-007 ,   2.8553983782923855E-011
   1596.0000000000000      ,   1600.0000000000000      ,   1.7833238121365426E-007 ,   3.2180895577858384E-011
   1600.0000000000000      ,   1604.0000000000000      ,   2.0044211822351878E-007 ,   3.5977090305799898E-011
   1604.0000000000000      ,   1608.0000000000000      ,   2.2366861088616733E-007 ,   3.9941381771552803E-011
   1608.0000000000000      ,   1612.0000000000000      ,   2.4789677678795546E-007 ,   4.4037936055416734E-011
   1612.0000000000000      ,   1616.0000000000000      ,   2.7311147099291285E-007 ,   4.8250174403690387E-011
   1616.0000000000000      ,   1620.0000000000000      ,   2.9921486713454363E-007 ,   5.2577461919137508E-011
   1620.0000000000000      ,   1624.0000000000000      ,   3.2611438658239601E-007 ,   5.7020708492114810E-011
   1624.0000000000000      ,   1628.0000000000000      ,   3.5381798042852170E-007 ,   6.1541669822876303E-011
   1628.0000000000000      ,   1632.0000000000000      ,   3.8224856895246215E-007 ,   6.6136749623977421E-011
   1632.0000000000000      ,   1636.0000000000000      ,   4.1149428573931293E-007 ,   7.0823298340690037E-011
   1636.0000000000000      ,   1640.0000000000000      ,   4.4143481054074820E-007 ,   7.5596823530104974E-011
   1640.0000000000000      ,   1644.0000000000000      ,   4.7208223233198480E-007 ,   8.0432636271936140E-011
   1644.0000000000000      ,   1648.0000000000000      ,   5.0311897357664256E-007 ,   8.5230777017811165E-011
   1648.0000000000000      ,   1652.0000000000000      ,   5.3516903850348485E-007 ,   9.0194957705922358E-011
   1652.0000000000000      ,   1656.0000000000000      ,   5.6763549552464647E-007 ,   9.5201357287943115E-011
   1656.0000000000000      ,   1660.0000000000000      ,   6.0071331136390095E-007 ,   1.0022628992242384E-010
   1660.0000000000000      ,   1664.0000000000000      ,   6.3436802442928896E-007 ,   1.0527232055525075E-010
   1664.0000000000000      ,   1668.0000000000000      ,   6.6841947785458473E-007 ,   1.1039398588064335E-010
   1668.0000000000000      ,   1672.0000000000000      ,   7.0316034825747562E-007 ,   1.1552819746223451E-010
   1672.0000000000000      ,   1676.0000000000000      ,   7.3864404308103332E-007 ,   1.2075558979439535E-010
   1676.0000000000000      ,   1680.0000000000000      ,   7.7434226715056440E-007 ,   1.2591450134612821E-010
   1680.0000000000000      ,   1684.0000000000000      ,   8.1052095386119851E-007 ,   1.3115208664285004E-010
   1684.0000000000000      ,   1688.0000000000000      ,   8.4729106503147639E-007 ,   1.3639299578349261E-010
   1688.0000000000000      ,   1692.0000000000000      ,   8.8488006750026528E-007 ,   1.4175867604165658E-010
   1692.0000000000000      ,   1696.0000000000000      ,   9.2227371774632782E-007 ,   1.4702170491608730E-010
   1696.0000000000000      ,   1700.0000000000000      ,   9.6052927656568805E-007 ,   1.5233066744849679E-010
   1700.0000000000000      ,   1704.0000000000000      ,   9.9888105659769480E-007 ,   1.5759374129643093E-010
   1704.0000000000000      ,   1708.0000000000000      ,   1.0378600943783890E-006 ,   1.6292155941704523E-010
   1708.0000000000000      ,   1712.0000000000000      ,   1.0776677375891333E-006 ,   1.6843082867662334E-010
   1712.0000000000000      ,   1716.0000000000000      ,   1.1169000552519207E-006 ,   1.7364809717742631E-010
   1716.0000000000000      ,   1720.0000000000000      ,   1.1569085581276307E-006 ,   1.7896325052124067E-010
   1720.0000000000000      ,   1724.0000000000000      ,   1.1972456019865029E-006 ,   1.8431005262612481E-010
   1724.0000000000000      ,   1728.0000000000000      ,   1.2376143485631723E-006 ,   1.8955607110334973E-010
   1728.0000000000000      ,   1732.0000000000000      ,   1.2779465459639362E-006 ,   1.9483631637234570E-010
   1732.0000000000000      ,   1736.0000000000000      ,   1.3185240391813775E-006 ,   2.0000547553961858E-010
   1736.0000000000000      ,   1740.0000000000000      ,   1.3590955604602896E-006 ,   2.0513314665648968E-010
   1740.0000000000000      ,   1744.0000000000000      ,   1.3997679422636192E-006 ,   2.1021697783145699E-010
   1744.0000000000000      ,   1748.0000000000000      ,   1.4402055503270888E-006 ,   2.1528792811324814E-010
   1748.0000000000000      ,   1752.0000000000000      ,   1.4803770794802971E-006 ,   2.2019860495464208E-010
   1752.0000000000000      ,   1756.0000000000000      ,   1.5200815036906116E-006 ,   2.2504798855631144E-010
   1756.0000000000000      ,   1760.0000000000000      ,   1.5596929153581974E-006 ,   2.2976116990073466E-010
   1760.0000000000000      ,   1764.0000000000000      ,   1.5979648280962171E-006 ,   2.3426208695776229E-010
   1764.0000000000000      ,   1768.0000000000000      ,   1.6368046528194253E-006 ,   2.3880733958204850E-010
   1768.0000000000000      ,   1772.0000000000000      ,   1.6739572579745839E-006 ,   2.4301052808885157E-010
   1772.0000000000000      ,   1776.0000000000000      ,   1.7101989219711755E-006 ,   2.4714179878576560E-010
   1776.0000000000000      ,   1780.0000000000000      ,   1.7446845830564743E-006 ,   2.5088220645483452E-010
   1780.0000000000000      ,   1784.0000000000000      ,   1.7784145933299965E-006 ,   2.5450831175457928E-010
   1784.0000000000000      ,   1788.0000000000000      ,   1.8108262243553497E-006 ,   2.5792425667566201E-010
   1788.0000000000000      ,   1792.0000000000000      ,   1.8415014713789994E-006 ,   2.6105660307466020E-010
   1792.0000000000000      ,   1796.0000000000000      ,   1.8699790359961651E-006 ,   2.6386205758118945E-010
   1796.0000000000000      ,   1800.0000000000000      ,   1.8968310901564238E-006 ,   2.6635143821003453E-010
   1800.0000000000000      ,   1804.0000000000000      ,   1.9211247062741403E-006 ,   2.6844507819844317E-010
   1804.0000000000000      ,   1808.0000000000000      ,   1.9437957938369920E-006 ,   2.7044659178853725E-010
   1808.0000000000000      ,   1812.0000000000000      ,   1.9630072616434241E-006 ,   2.7182267849343010E-010
   1812.0000000000000      ,   1816.0000000000000      ,   1.9799404828424640E-006 ,   2.7282673766528674E-010
   1816.0000000000000      ,   1820.0000000000000      ,   1.9933043973546114E-006 ,   2.7343532069528224E-010
   1820.0000000000000      ,   1824.0000000000000      ,   2.0051837420259649E-006 ,   2.7376853447877531E-010
   1824.0000000000000      ,   1828.0000000000000      ,   2.0124190012553141E-006 ,   2.7349590187018513E-010
   1828.0000000000000      ,   1832.0000000000000      ,   2.0180115117406430E-006 ,   2.7290273017656819E-010
   1832.0000000000000      ,   1836.0000000000000      ,   2.0192351278823230E-006 ,   2.7183619571591031E-010
   1836.0000000000000      ,   1840.0000000000000      ,   2.0180012037819078E-006 ,   2.7042997415952867E-010
   1840.0000000000000      ,   1844.0000000000000      ,   2.0131873464537781E-006 ,   2.6845391540291151E-010
   1844.0000000000000      ,   1848.0000000000000      ,   2.0051952513813581E-006 ,   2.6622573429763463E-010
   1848.0000000000000      ,   1852.0000000000000      ,   1.9942860638335542E-006 ,   2.6354242305621221E-010
   1852.0000000000000      ,   1856.0000000000000      ,   1.9801062910232955E-006 ,   2.6052239726663966E-010
   1856.0000000000000      ,   1860.0000000000000      ,   1.9632345679311813E-006 ,   2.5710172525336558E-010
   1860.0000000000000      ,   1864.0000000000000      ,   1.9419720474536447E-006 ,   2.5308864111741197E-010
   1864.0000000000000      ,   1868.0000000000000      ,   1.9199741414103929E-006 ,   2.4914575424119571E-010
   1868.0000000000000      ,   1872.0000000000000      ,   1.8943180112812116E-006 ,   2.4461303346290307E-010
   1872.0000000000000      ,   1876.0000000000000      ,   1.8669146626036129E-006 ,   2.4003658481224915E-010
   1876.0000000000000      ,   1880.0000000000000      ,   1.8368168086419518E-006 ,   2.3505669461748234E-010
   1880.0000000000000      ,   1884.0000000000000      ,   1.8043090366969702E-006 ,   2.2988666715025934E-010
   1884.0000000000000      ,   1888.0000000000000      ,   1.7709887034551619E-006 ,   2.2460648743611431E-010
   1888.0000000000000      ,   1892.0000000000000      ,   1.7359807451613406E-006 ,   2.1916588442348593E-010
   1892.0000000000000      ,   1896.0000000000000      ,   1.6990832959025473E-006 ,   2.1357361736356739E-010
   1896.0000000000000      ,   1900.0000000000000      ,   1.6610369993760614E-006 ,   2.0780012773604643E-010
   1900.0000000000000      ,   1904.0000000000000      ,   1.6224752471664683E-006 ,   2.0208226858304984E-010
   1904.0000000000000      ,   1908.0000000000000      ,   1.5827172533649040E-006 ,   1.9621555179683417E-010
   1908.0000000000000      ,   1912.0000000000000      ,   1.5425649074337183E-006 ,   1.9039456464072524E-010
   1912.0000000000000      ,   1916.0000000000000      ,   1.5020224058880076E-006 ,   1.8456002717311562E-010
   1916.0000000000000      ,   1920.0000000000000      ,   1.4615153537967933E-006 ,   1.7873668994762710E-010
   1920.0000000000000      ,   1924.0000000000000      ,   1.4210315610246606E-006 ,   1.7300153664715897E-010
   1924.0000000000000      ,   1928.0000000000000      ,   1.3805337679135354E-006 ,   1.6734223998106999E-010
   1928.0000000000000      ,   1932.0000000000000      ,   1.3400497960600124E-006 ,   1.6174344746007709E-010
   1932.0000000000000      ,   1936.0000000000000      ,   1.3002225025133667E-006 ,   1.5624605773562815E-010
   1936.0000000000000      ,   1940.0000000000000      ,   1.2608620460150770E-006 ,   1.5083169713557870E-010
   1940.0000000000000      ,   1944.0000000000000      ,   1.2217025380901677E-006 ,   1.4550775548415548E-010
   1944.0000000000000      ,   1948.0000000000000      ,   1.1834732488580096E-006 ,   1.4031380445845439E-010
   1948.0000000000000      ,   1952.0000000000000      ,   1.1461453121233457E-006 ,   1.3528225649616631E-010
   1952.0000000000000      ,   1956.0000000000000      ,   1.1094106079428719E-006 ,   1.3038417835758280E-010
   1956.0000000000000      ,   1960.0000000000000      ,   1.0732434173642034E-006 ,   1.2557987938776015E-010
   1960.0000000000000      ,   1964.0000000000000      ,   1.0380898261834830E-006 ,   1.2091291039418414E-010
   1964.0000000000000      ,   1968.0000000000000      ,   1.0039518319383197E-006 ,   1.1643315335964180E-010
   1968.0000000000000      ,   1972.0000000000000      ,   9.7061734827956969E-007 ,   1.1206121290711630E-010
   1972.0000000000000      ,   1976.0000000000000      ,   9.3828759876287269E-007 ,   1.0786392658421542E-010
   1976.0000000000000      ,   1980.0000000000000      ,   9.0705835019343551E-007 ,   1.0381422005914222E-010
   1980.0000000000000      ,   1984.0000000000000      ,   8.7658003248266795E-007 ,   9.9869891673570531E-011
   1984.0000000000000      ,   1988.0000000000000      ,   8.4703991314939538E-007 ,   9.6106247981149210E-011
   1988.0000000000000      ,   1992.0000000000000      ,   8.1836712684598394E-007 ,   9.2451436122927779E-011
   1992.0000000000000      ,   1996.0000000000000      ,   7.9099920672479085E-007 ,   8.8951847022095985E-011
   1996.0000000000000      ,   2000.0000000000000      ,   7.6423642789070398E-007 ,   8.5580266358974532E-011
   2000.0000000000000      ,   2004.0000000000000      ,   7.3837250327578068E-007 ,   8.2315147631614982E-011
   2004.0000000000000      ,   2008.0000000000000      ,   7.1355141414351139E-007 ,   7.9216685430421859E-011
   2008.0000000000000      ,   2012.0000000000000      ,   6.8949503426042389E-007 ,   7.6209191369291145E-011
   2012.0000000000000      ,   2016.0000000000000      ,   6.6630570536775558E-007 ,   7.3331810459168195E-011
   2016.0000000000000      ,   2020.0000000000000      ,   6.4384349706137210E-007 ,   7.0548444691697099E-011
   2020.0000000000000      ,   2024.0000000000000      ,   6.2234850943583694E-007 ,   6.7912463182578259E-011
   2024.0000000000000      ,   2028.0000000000000      ,   6.0145579767071239E-007 ,   6.5325745823557757E-011
   2028.0000000000000      ,   2032.0000000000000      ,   5.8147505054372472E-007 ,   6.2886231432510309E-011
   2032.0000000000000      ,   2036.0000000000000      ,   5.6227146712951551E-007 ,   6.0548769576897635E-011
   2036.0000000000000      ,   2040.0000000000000      ,   5.4385101933142693E-007 ,   5.8325275834146805E-011
   2040.0000000000000      ,   2044.0000000000000      ,   5.2580279845788282E-007 ,   5.6142468128496643E-011
   2044.0000000000000      ,   2048.0000000000000      ,   5.0857357344512455E-007 ,   5.4064436635519757E-011
   2048.0000000000000      ,   2052.0000000000000      ,   4.9201350123384999E-007 ,   5.2083501493801985E-011
   2052.0000000000000      ,   2056.0000000000000      ,   4.7605735209263588E-007 ,   5.0178903785369032E-011
   2056.0000000000000      ,   2060.0000000000000      ,   4.6071995197521190E-007 ,   4.8349733114172522E-011
   2060.0000000000000      ,   2064.0000000000000      ,   4.4604520278851389E-007 ,   4.6610100702276173E-011
   2064.0000000000000      ,   2068.0000000000000      ,   4.3180011050752882E-007 ,   4.4937605089522723E-011
   2068.0000000000000      ,   2072.0000000000000      ,   4.1821691233838359E-007 ,   4.3334172026778956E-011
   2072.0000000000000      ,   2076.0000000000000      ,   4.0505146890858426E-007 ,   4.1794703697594187E-011
   2076.0000000000000      ,   2080.0000000000000      ,   3.9243075639130150E-007 ,   4.0318287227987523E-011
   2080.0000000000000      ,   2084.0000000000000      ,   3.8027727242515089E-007 ,   3.8904534767860928E-011
   2084.0000000000000      ,   2088.0000000000000      ,   3.6859714857339004E-007 ,   3.7549203310253632E-011
   2088.0000000000000      ,   2092.0000000000000      ,   3.5745853086720328E-007 ,   3.6260789795753594E-011
   2092.0000000000000      ,   2096.0000000000000      ,   3.4677536664112968E-007 ,   3.5030754709221235E-011
   2096.0000000000000      ,   2100.0000000000000      ,   3.3638431339900305E-007 ,   3.3832096908362524E-011
   2100.0000000000000      ,   2104.0000000000000      ,   3.2652991367475248E-007 ,   3.2702300173948868E-011
   2104.0000000000000      ,   2108.0000000000000      ,   3.1708174253367485E-007 ,   3.1623652218877668E-011
   2108.0000000000000      ,   2112.0000000000000      ,   3.0809135946913228E-007 ,   3.0602862015192646E-011
   2112.0000000000000      ,   2116.0000000000000      ,   2.9943438737815930E-007 ,   2.9618669851981954E-011
   2116.0000000000000      ,   2120.0000000000000      ,   2.9118266141247858E-007 ,   2.8674317094639612E-011
   2120.0000000000000      ,   2124.0000000000000      ,   2.8335025414544866E-007 ,   2.7795481228678784E-011
   2124.0000000000000      ,   2128.0000000000000      ,   2.7583971676555625E-007 ,   2.6943348280013636E-011
   2128.0000000000000      ,   2132.0000000000000      ,   2.6878753249983023E-007 ,   2.6145128080495463E-011
   2132.0000000000000      ,   2136.0000000000000      ,   2.6214018624500410E-007 ,   2.5388698549989753E-011
   2136.0000000000000      ,   2140.0000000000000      ,   2.5582981743261679E-007 ,   2.4679116453580213E-011
   2140.0000000000000      ,   2144.0000000000000      ,   2.4995587007072989E-007 ,   2.4012459347142142E-011
   2144.0000000000000      ,   2148.0000000000000      ,   2.4456110936351220E-007 ,   2.3398420754494727E-011
   2148.0000000000000      ,   2152.0000000000000      ,   2.3953392192871933E-007 ,   2.2822337639832340E-011
   2152.0000000000000      ,   2156.0000000000000      ,   2.3502354979366167E-007 ,   2.2301253956679614E-011
   2156.0000000000000      ,   2160.0000000000000      ,   2.3093582937394743E-007 ,   2.1821192410231977E-011
   2160.0000000000000      ,   2164.0000000000000      ,   2.2739040279320186E-007 ,   2.1396012365347301E-011
   2164.0000000000000      ,   2168.0000000000000      ,   2.2433460895265106E-007 ,   2.1025202121887021E-011
   2168.0000000000000      ,   2172.0000000000000      ,   2.2191213584038530E-007 ,   2.0716546259079886E-011
   2172.0000000000000      ,   2176.0000000000000      ,   2.2012402675068830E-007 ,   2.0460445580313491E-011
   2176.0000000000000      ,   2180.0000000000000      ,   2.1900028465785630E-007 ,   2.0272675520659361E-011
   2180.0000000000000      ,   2184.0000000000000      ,   2.1864199336449827E-007 ,   2.0156105092990393E-011
   2184.0000000000000      ,   2188.0000000000000      ,   2.1904038891908463E-007 ,   2.0113993681943546E-011
   2188.0000000000000      ,   2192.0000000000000      ,   2.2037939195555558E-007 ,   2.0154216748469053E-011
   2192.0000000000000      ,   2196.0000000000000      ,   2.2271501619588190E-007 ,   2.0286591753490179E-011
   2196.0000000000000      ,   2200.0000000000000      ,   2.2617665941802384E-007 ,   2.0517478885876333E-011
   2200.0000000000000      ,   2204.0000000000000      ,   2.3073626171260551E-007 ,   2.0845904153878353E-011
   2204.0000000000000      ,   2208.0000000000000      ,   2.3669884784191017E-007 ,   2.1300870293112783E-011
   2208.0000000000000      ,   2212.0000000000000      ,   2.4408595064961014E-007 ,   2.1875265782195400E-011
   2212.0000000000000      ,   2216.0000000000000      ,   2.5301766874508394E-007 ,   2.2582911293511648E-011
   2216.0000000000000      ,   2220.0000000000000      ,   2.6350268852894291E-007 ,   2.3425783242415323E-011
   2220.0000000000000      ,   2224.0000000000000      ,   2.7568281078924414E-007 ,   2.4411401888733633E-011
   2224.0000000000000      ,   2228.0000000000000      ,   2.8962730604722251E-007 ,   2.5544020250992558E-011
   2228.0000000000000      ,   2232.0000000000000      ,   3.0514196171139895E-007 ,   2.6810334795220400E-011
   2232.0000000000000      ,   2236.0000000000000      ,   3.2225637206793606E-007 ,   2.8199084279141783E-011
   2236.0000000000000      ,   2240.0000000000000      ,   3.4049239640499034E-007 ,   2.9684081530832623E-011
   2240.0000000000000      ,   2244.0000000000000      ,   3.5966583710099235E-007 ,   3.1224204572864877E-011
   2244.0000000000000      ,   2248.0000000000000      ,   3.7933910660068717E-007 ,   3.2808039605390924E-011
   2248.0000000000000      ,   2252.0000000000000      ,   3.9865692575673226E-007 ,   3.4340275576847330E-011
   2252.0000000000000      ,   2256.0000000000000      ,   4.1715427188932412E-007 ,   3.5797011861707243E-011
   2256.0000000000000      ,   2260.0000000000000      ,   4.3401010202593642E-007 ,   3.7093247725939643E-011
   2260.0000000000000      ,   2264.0000000000000      ,   4.4859907672897965E-007 ,   3.8193188120368897E-011
   2264.0000000000000      ,   2268.0000000000000      ,   4.6046633867522316E-007 ,   3.9045792870450577E-011
   2268.0000000000000      ,   2272.0000000000000      ,   4.6893369964401718E-007 ,   3.9602015863422624E-011
   2272.0000000000000      ,   2276.0000000000000      ,   4.7420254787174548E-007 ,   3.9896945044522402E-011
   2276.0000000000000      ,   2280.0000000000000      ,   4.7590739525213297E-007 ,   3.9875485063796156E-011
   2280.0000000000000      ,   2284.0000000000000      ,   4.7456837732538022E-007 ,   3.9607525602205153E-011
   2284.0000000000000      ,   2288.0000000000000      ,   4.7038929373909670E-007 ,   3.9103869056344367E-011
   2288.0000000000000      ,   2292.0000000000000      ,   4.6384868916996269E-007 ,   3.8403908887936697E-011
   2292.0000000000000      ,   2296.0000000000000      ,   4.5520902796832587E-007 ,   3.7531014655943895E-011
   2296.0000000000000      ,   2300.0000000000000      ,   4.4528615315338947E-007 ,   3.6572214407912372E-011
   2300.0000000000000      ,   2304.0000000000000      ,   4.3411132199186207E-007 ,   3.5507379810340406E-011
   2304.0000000000000      ,   2308.0000000000000      ,   4.2233205952065030E-007 ,   3.4404240328279225E-011
   2308.0000000000000      ,   2312.0000000000000      ,   4.1019070460413805E-007 ,   3.3283425562841160E-011
   2312.0000000000000      ,   2316.0000000000000      ,   3.9789952317600095E-007 ,   3.2156669822959198E-011
   2316.0000000000000      ,   2320.0000000000000      ,   3.8561279210154537E-007 ,   3.1036863030641777E-011
   2320.0000000000000      ,   2324.0000000000000      ,   3.7365599978970752E-007 ,   2.9949886355703673E-011
   2324.0000000000000      ,   2328.0000000000000      ,   3.6186797505105587E-007 ,   2.8888965781813802E-011
   2328.0000000000000      ,   2332.0000000000000      ,   3.5056152196266083E-007 ,   2.7874565058198433E-011
   2332.0000000000000      ,   2336.0000000000000      ,   3.3966771712850697E-007 ,   2.6900579096565185E-011
   2336.0000000000000      ,   2340.0000000000000      ,   3.2915843639863468E-007 ,   2.5962395850891990E-011
   2340.0000000000000      ,   2344.0000000000000      ,   3.1919741729603674E-007 ,   2.5073333548117412E-011
   2344.0000000000000      ,   2348.0000000000000      ,   3.0968959658882483E-007 ,   2.4231149519106587E-011
   2348.0000000000000      ,   2352.0000000000000      ,   3.0060166446548127E-007 ,   2.3426499842972982E-011
   2352.0000000000000      ,   2356.0000000000000      ,   2.9201441760349934E-007 ,   2.2664955363651645E-011
   2356.0000000000000      ,   2360.0000000000000      ,   2.8383339487105316E-007 ,   2.1941619324997888E-011
   2360.0000000000000      ,   2364.0000000000000      ,   2.7612330331066615E-007 ,   2.1261572133431867E-011
   2364.0000000000000      ,   2368.0000000000000      ,   2.6870160535870571E-007 ,   2.0603148222416272E-011
   2368.0000000000000      ,   2372.0000000000000      ,   2.6171741092738373E-007 ,   1.9988215872997317E-011
   2372.0000000000000      ,   2376.0000000000000      ,   2.5507199372600649E-007 ,   1.9402851286565757E-011
   2376.0000000000000      ,   2380.0000000000000      ,   2.4876017125446537E-007 ,   1.8844667262839162E-011
   2380.0000000000000      ,   2384.0000000000000      ,   2.4278493341885034E-007 ,   1.8321245473031721E-011
   2384.0000000000000      ,   2388.0000000000000      ,   2.3710305040226518E-007 ,   1.7821878694867989E-011
   2388.0000000000000      ,   2392.0000000000000      ,   2.3165383790414402E-007 ,   1.7338848315124719E-011
   2392.0000000000000      ,   2396.0000000000000      ,   2.2650750560331228E-007 ,   1.6888447425050223E-011
   2396.0000000000000      ,   2400.0000000000000      ,   2.2156817742315097E-007 ,   1.6453897179533548E-011
