 # xl, xh, LO, dLO, NLOPSnovp, dNLOPSnovp, NLOPSvp, dNLOPSvp, NLOPSvplt, dNLOPSvplt
   300.00000000000006      ,   319.99999999999994      ,   9.3084496079268625E-005 ,   1.1018882649567710E-007 ,   1.0415371072522369E-004 ,   6.9052368691950905E-007 ,   1.1253728118696809E-004 ,   3.4274357645748755E-006 ,   1.0709521740913721E-004 ,   7.3174349289564801E-007
   319.99999999999994      ,   339.99999999999983      ,   9.6245853327183841E-005 ,   2.4250262420944038E-007 ,   1.0855559147483328E-004 ,   8.2834323740458953E-007 ,   1.2092938362375777E-004 ,   3.8023526533450591E-006 ,   1.1123493082706208E-004 ,   8.2984572858949517E-007
   339.99999999999983      ,   359.99999999999972      ,   9.8764767148706070E-005 ,   1.2670933227028161E-007 ,   1.1099793479355854E-004 ,   9.5928923080941639E-007 ,   1.1876561531700860E-004 ,   2.6764683584288993E-006 ,   1.1400249133470568E-004 ,   9.7281449245211726E-007
   359.99999999999972      ,   379.99999999999960      ,   1.0148742106443268E-004 ,   1.3873211220947147E-007 ,   1.1443921769888410E-004 ,   1.5616898721751498E-006 ,   1.1911368742286750E-004 ,   9.9839285579567910E-007 ,   1.2469881121991380E-004 ,   7.2105446248973221E-006
   379.99999999999960      ,   399.99999999999949      ,   1.0424777994397924E-004 ,   1.4169733790721893E-007 ,   1.1726064405011000E-004 ,   1.1098905690896787E-006 ,   1.4204648702523232E-004 ,   8.6363635777776799E-006 ,   1.2090634685883112E-004 ,   1.1211519409767094E-006
   399.99999999999949      ,   419.99999999999937      ,   1.0641827916100267E-004 ,   1.2924545623314995E-007 ,   1.2177237540554220E-004 ,   1.7071396189130738E-006 ,   1.2722411380244978E-004 ,   1.4330796762909239E-006 ,   1.2501080452748567E-004 ,   1.7195384213896093E-006
   419.99999999999937      ,   439.99999999999926      ,   1.0971054491296243E-004 ,   1.4642633466033506E-007 ,   1.2370680170356254E-004 ,   1.3244317028124806E-006 ,   1.2963901800357121E-004 ,   8.6454569303341946E-007 ,   1.2703665012235425E-004 ,   1.4035780698087652E-006
   439.99999999999926      ,   459.99999999999915      ,   1.1270982999269921E-004 ,   3.9568919672406003E-007 ,   1.2775561013026861E-004 ,   1.5929778083794034E-006 ,   1.3465436930226046E-004 ,   1.2046193014907157E-006 ,   1.3136998755306891E-004 ,   1.6820913170240201E-006
   459.99999999999915      ,   479.99999999999903      ,   1.1549346649495857E-004 ,   1.6345860323947387E-007 ,   1.3087909252424717E-004 ,   1.5654832368094741E-006 ,   1.5484313764625545E-004 ,   1.1882886797338018E-005 ,   1.3461822036109862E-004 ,   1.7649627784214170E-006
   479.99999999999903      ,   499.99999999999892      ,   1.1901920607017573E-004 ,   1.6730220329717851E-007 ,   1.4970874043994013E-004 ,   1.5651163286708834E-005 ,   1.4210946193543353E-004 ,   1.7450428012344225E-006 ,   1.5217033431200362E-004 ,   1.4226247501954065E-005
   499.99999999999892      ,   519.99999999999886      ,   1.2233271206276602E-004 ,   2.8153468620070971E-007 ,   1.3916682697925984E-004 ,   1.4751826139189734E-006 ,   1.4642649614900216E-004 ,   1.8801137005299544E-006 ,   1.4368081527471583E-004 ,   1.6195114606405650E-006
   519.99999999999886      ,   539.99999999999875      ,   1.2513882095171317E-004 ,   1.6363610154362902E-007 ,   1.4751926090922389E-004 ,   6.3882958254440002E-006 ,   1.6045384739890527E-004 ,   6.8579532409196381E-006 ,   1.5231768734830293E-004 ,   7.3482425828033480E-006
   539.99999999999864      ,   559.99999999999852      ,   1.2863722463989213E-004 ,   1.4285526997036183E-007 ,   1.5100150452047631E-004 ,   4.6361966216493618E-006 ,   1.5564425306624236E-004 ,   2.3914479258054675E-006 ,   1.5389419016616552E-004 ,   4.5761959776095076E-006
   559.99999999999864      ,   579.99999999999852      ,   1.3233021622585574E-004 ,   1.2638286403431093E-007 ,   1.5545233698925024E-004 ,   6.9260233626000984E-006 ,   1.5867592817218304E-004 ,   2.6170895700982634E-006 ,   1.5836347292870956E-004 ,   6.2707379168664485E-006
   579.99999999999841      ,   599.99999999999829      ,   1.3631433563330957E-004 ,   1.5591536568940121E-007 ,   1.5247377017131591E-004 ,   1.4354291131754795E-006 ,   1.7065277458426831E-004 ,   8.2256473292083080E-006 ,   1.5660647136372038E-004 ,   1.4188758554528868E-006
   599.99999999999841      ,   619.99999999999829      ,   1.3990847468350670E-004 ,   1.4538741149924952E-007 ,   1.5695432714315325E-004 ,   2.2806133280014127E-006 ,   1.7452150668476724E-004 ,   7.2362103594828446E-006 ,   1.6129195589302805E-004 ,   2.2948316340350331E-006
   619.99999999999818      ,   639.99999999999807      ,   1.4323643421523414E-004 ,   1.3194934229925238E-007 ,   1.6047262248933226E-004 ,   2.0097601075498955E-006 ,   1.7303368281601440E-004 ,   4.0071117184637985E-006 ,   1.6509111286729068E-004 ,   2.2481490842133192E-006
   639.99999999999818      ,   659.99999999999807      ,   1.4646339386009997E-004 ,   1.1908800380050066E-007 ,   1.6206884400827174E-004 ,   1.3403310232858752E-006 ,   1.7093355063007163E-004 ,   1.1651583359475902E-006 ,   1.6647884411641860E-004 ,   1.4138364878225078E-006
   659.99999999999795      ,   679.99999999999784      ,   1.4958079316898106E-004 ,   1.2303710055369264E-007 ,   1.6703051237052077E-004 ,   1.6640129663047736E-006 ,   1.7325370061038468E-004 ,   9.7224070163476938E-007 ,   1.7582058294839133E-004 ,   4.3752418868287325E-006
   679.99999999999795      ,   699.99999999999784      ,   1.5280463615702130E-004 ,   1.3900660551686701E-007 ,   1.7411918695934956E-004 ,   6.9328020538658782E-006 ,   1.7592333477023850E-004 ,   1.2840176421018506E-006 ,   1.7952905060431576E-004 ,   7.8067383888010993E-006
   699.99999999999773      ,   719.99999999999761      ,   1.5569234951946049E-004 ,   1.0499183252721492E-007 ,   1.6904532449384387E-004 ,   9.6136232979697103E-007 ,   1.7950866341484087E-004 ,   1.0050292963433481E-006 ,   1.7384098396315588E-004 ,   1.0105859021967387E-006
   719.99999999999773      ,   739.99999999999761      ,   1.5856365243014812E-004 ,   1.3444109600110735E-007 ,   1.7461929118503113E-004 ,   2.1945757224285063E-006 ,   1.8439468303845801E-004 ,   1.6875380550947692E-006 ,   1.8021831886375609E-004 ,   2.4080726318807116E-006
   739.99999999999750      ,   759.99999999999739      ,   1.6094858734410608E-004 ,   1.2566947490509119E-007 ,   1.7939239926962361E-004 ,   3.9813302019485110E-006 ,   2.1437093448677721E-004 ,   2.7969385478442429E-005 ,   1.8459512400071629E-004 ,   4.2248760423030541E-006
   759.99999999999750      ,   779.99999999999739      ,   1.6335667188111891E-004 ,   1.3152325476345015E-007 ,   1.7528672450760002E-004 ,   9.0464986772149211E-007 ,   1.8742241972122067E-004 ,   1.5925129916159480E-006 ,   1.8023025334453987E-004 ,   9.2835197172129231E-007
   779.99999999999727      ,   799.99999999999716      ,   1.6568616192243728E-004 ,   1.1755786737845112E-007 ,   1.7611139262728085E-004 ,   1.0328040350658843E-006 ,   1.8669048506124572E-004 ,   7.0412264399069306E-007 ,   1.8154727901293469E-004 ,   1.1997796988346544E-006
   799.99999999999727      ,   819.99999999999716      ,   1.6817514489454505E-004 ,   1.2355179642531618E-007 ,   1.7980025531754730E-004 ,   1.6974278152981091E-006 ,   1.8957227428698453E-004 ,   7.0844657382027542E-007 ,   1.8473350832449940E-004 ,   1.6167666591774957E-006
   819.99999999999704      ,   839.99999999999693      ,   1.7027954775674411E-004 ,   1.0894666711331869E-007 ,   1.8278161161850725E-004 ,   1.0328996058762137E-006 ,   1.9463724467356675E-004 ,   1.9649963374694849E-006 ,   1.8787229914898486E-004 ,   1.0582626614761954E-006
   839.99999999999704      ,   859.99999999999693      ,   1.7261419132239602E-004 ,   1.2537410170142122E-007 ,   1.8979672971205450E-004 ,   4.2808296819077230E-006 ,   1.9826190099317390E-004 ,   3.8271670161265062E-006 ,   1.9582646228501847E-004 ,   4.7384825593224082E-006
   859.99999999999682      ,   879.99999999999670      ,   1.7482353241609163E-004 ,   1.1764907546071617E-007 ,   1.9144251011065633E-004 ,   5.6311786431571400E-006 ,   1.9467482973796243E-004 ,   7.4372695397521626E-007 ,   1.9671027302837474E-004 ,   5.6987180889852557E-006
   879.99999999999682      ,   899.99999999999670      ,   1.7694121418542885E-004 ,   1.1436820021964806E-007 ,   1.8734183047814941E-004 ,   1.3006211490648379E-006 ,   1.9928866598884032E-004 ,   1.9481971915231990E-006 ,   1.9320646092288462E-004 ,   1.4594497437519265E-006
   899.99999999999659      ,   919.99999999999648      ,   1.7909218882679109E-004 ,   1.0504646854455044E-007 ,   1.8758899897614251E-004 ,   9.6585125809773611E-007 ,   2.0020667953614757E-004 ,   1.7440234620335083E-006 ,   1.9301262753276111E-004 ,   9.6881543179869289E-007
   919.99999999999659      ,   939.99999999999648      ,   1.8079472609673774E-004 ,   1.1283882438746115E-007 ,   1.9372486348966347E-004 ,   3.9152908926103770E-006 ,   2.0188217184098276E-004 ,   1.8108463708577981E-006 ,   1.9902109315642885E-004 ,   3.8150849232579933E-006
   939.99999999999636      ,   959.99999999999625      ,   1.8217413023428850E-004 ,   1.0288315004038381E-007 ,   1.9161408723520314E-004 ,   1.4742062770415173E-006 ,   2.0228455096248061E-004 ,   1.2818056002503371E-006 ,   1.9699037013122075E-004 ,   1.5372404709019657E-006
   959.99999999999636      ,   979.99999999999625      ,   1.8392852508580744E-004 ,   1.0720134755808252E-007 ,   1.9280203492563593E-004 ,   1.2516139484671205E-006 ,   2.0245676177783818E-004 ,   9.7269290071060378E-007 ,   1.9828666574503114E-004 ,   1.3153075083110691E-006
   979.99999999999613      ,   999.99999999999602      ,   1.8538191892747026E-004 ,   9.7119500619956806E-008 ,   2.0318319721845927E-004 ,   9.1867787307327280E-006 ,   2.0301215035804156E-004 ,   4.6147128568585027E-007 ,   2.0866155344669728E-004 ,   8.7189146212296883E-006
   999.99999999999613      ,   1019.9999999999960      ,   1.8681941334734020E-004 ,   8.7329395317356594E-008 ,   1.9349430333005159E-004 ,   1.6511103690040789E-006 ,   2.0463506709187697E-004 ,   1.1338505765564711E-006 ,   1.9954510189255093E-004 ,   1.8984328805785444E-006
   1019.9999999999959      ,   1039.9999999999959      ,   1.8833939185890992E-004 ,   7.9252374397571954E-008 ,   1.9531722157484189E-004 ,   1.5146747661598421E-006 ,   2.0898339057440790E-004 ,   2.5490856051912114E-006 ,   2.0110773877702064E-004 ,   1.6510259194746523E-006
   1039.9999999999959      ,   1059.9999999999959      ,   1.8993407676665819E-004 ,   8.3587665410808276E-008 ,   1.9882034967029565E-004 ,   5.2131358002702640E-006 ,   2.0822096085620120E-004 ,   1.2691795021566378E-006 ,   1.9946181681136915E-004 ,   5.6871139097746795E-007
   1059.9999999999957      ,   1079.9999999999955      ,   1.9107731311461331E-004 ,   7.2935505318481149E-008 ,   1.9563664144852871E-004 ,   1.1662116703571935E-006 ,   2.0760542322493419E-004 ,   5.7399845436759804E-007 ,   2.0126926135272181E-004 ,   1.1586468534103958E-006
   1079.9999999999957      ,   1099.9999999999955      ,   1.9226155557472430E-004 ,   7.1680455383604559E-008 ,   1.9535822337586538E-004 ,   6.4196036370217364E-007 ,   6.6237140486780620E-004 ,   4.3436412541992891E-004 ,   2.0122486963944678E-004 ,   6.2779864157926729E-007
   1099.9999999999955      ,   1119.9999999999955      ,   1.9339374253161306E-004 ,   6.6550928688735461E-008 ,   1.9506948105748234E-004 ,   4.8866884578665171E-007 ,   2.0807166807764664E-004 ,   3.9592818106097398E-007 ,   2.0075912856910451E-004 ,   4.9528664029705930E-007
   1119.9999999999955      ,   1139.9999999999955      ,   1.9443441160563960E-004 ,   7.0004766030035043E-008 ,   1.9818679885867110E-004 ,   1.4465919716500561E-006 ,   2.1489958492391698E-004 ,   5.0542974387511796E-006 ,   2.0427690435012265E-004 ,   1.5545924128321662E-006
   1139.9999999999952      ,   1159.9999999999950      ,   1.9520947487403539E-004 ,   6.5681245552265448E-008 ,   1.9762899719894816E-004 ,   1.5997675982570977E-006 ,   2.1000014449262962E-004 ,   1.0056903974739657E-006 ,   2.0351621566378956E-004 ,   1.4813937621101606E-006
   1159.9999999999952      ,   1179.9999999999950      ,   1.9608497513304307E-004 ,   5.9649330709176826E-008 ,   2.1000410592619700E-004 ,   1.4521344072817984E-005 ,   2.1021887708221114E-004 ,   9.7018569844041546E-007 ,   2.1648806849043802E-004 ,   1.5060131315752622E-005
   1179.9999999999950      ,   1199.9999999999950      ,   1.9664543939924766E-004 ,   5.9740265527167736E-008 ,   1.9651637366750890E-004 ,   6.8337864437624486E-007 ,   2.0921310476773193E-004 ,   4.2647155708337384E-007 ,   2.0249112924543788E-004 ,   6.9610851677662690E-007
   1199.9999999999950      ,   1219.9999999999950      ,   1.9718896255586989E-004 ,   9.7851797500243007E-008 ,   1.9535968342778153E-004 ,   3.4769219018445229E-007 ,   2.1008318133689804E-004 ,   1.1271377621645501E-006 ,   2.0131391087094931E-004 ,   3.5467427324575176E-007
   1219.9999999999948      ,   1239.9999999999945      ,   1.9750487676104767E-004 ,   5.5617260097531898E-008 ,   1.9524297466590567E-004 ,   3.6995663232063842E-007 ,   2.1049104922881125E-004 ,   1.6796136899511727E-006 ,   2.0104962488040300E-004 ,   3.6198469672284156E-007
   1239.9999999999948      ,   1259.9999999999945      ,   1.9800240087511489E-004 ,   6.0025657463037758E-008 ,   1.9525760574137468E-004 ,   8.2769204296100469E-007 ,   2.0918541083436620E-004 ,   2.8107035651525118E-007 ,   2.0119159591078885E-004 ,   7.6067992571597757E-007
   1259.9999999999945      ,   1279.9999999999945      ,   1.9832327892130915E-004 ,   4.8121846353653987E-008 ,   1.9404300505277978E-004 ,   3.4036700001150397E-007 ,   2.0873081017835424E-004 ,   2.3223942438843191E-007 ,   1.9999240146305669E-004 ,   3.6293789281060420E-007
   1279.9999999999945      ,   1299.9999999999945      ,   1.9874802101299061E-004 ,   5.3889761669485962E-008 ,   1.9374993424475624E-004 ,   2.6063038245161317E-007 ,   2.0892984797718536E-004 ,   3.0786587538598257E-007 ,   1.9984113389461889E-004 ,   2.7346537052079674E-007
   1299.9999999999943      ,   1319.9999999999941      ,   1.9886071813669760E-004 ,   4.5942215929440532E-008 ,   1.9321684787350411E-004 ,   2.6105866555032775E-007 ,   2.0897151333232688E-004 ,   1.8052994898348242E-007 ,   1.9932792135888172E-004 ,   2.7612673534751188E-007
   1319.9999999999943      ,   1339.9999999999941      ,   1.9908731175145579E-004 ,   4.1050317690293800E-008 ,   1.9261614938279875E-004 ,   2.1434758853139249E-007 ,   2.0842006816812516E-004 ,   1.5495450871294455E-007 ,   1.9862101393173381E-004 ,   2.1967750961639269E-007
   1339.9999999999941      ,   1359.9999999999941      ,   1.9912387346022599E-004 ,   3.8737214968118729E-008 ,   1.9164237953641394E-004 ,   2.0143216134694734E-007 ,   2.0807967411278644E-004 ,   1.6047397242458290E-007 ,   1.9769049538529102E-004 ,   2.1670219126201303E-007
   1359.9999999999941      ,   1379.9999999999941      ,   1.9906849244808920E-004 ,   3.6908686060665131E-008 ,   1.9096965632868658E-004 ,   2.4687284411009801E-007 ,   2.0709316006463127E-004 ,   1.4642699824952591E-007 ,   1.9695604298129068E-004 ,   2.5321243221554549E-007
   1379.9999999999939      ,   1399.9999999999936      ,   1.9881444481833067E-004 ,   3.6678027006858933E-008 ,   1.9003223406387909E-004 ,   1.9085997289524305E-007 ,   2.0661817141918502E-004 ,   1.9321821153786174E-007 ,   1.9592757258876569E-004 ,   1.9576177318455199E-007
   1399.9999999999936      ,   1419.9999999999936      ,   1.9832027778143987E-004 ,   3.4541618862635919E-008 ,   1.8838701249518285E-004 ,   1.7220897769061055E-007 ,   2.0431357404593423E-004 ,   1.2047015923209750E-007 ,   1.9430146583963815E-004 ,   1.7816695693930060E-007
   1419.9999999999936      ,   1439.9999999999936      ,   1.9753217094294873E-004 ,   3.1575017521548227E-008 ,   1.8679861365446352E-004 ,   1.6423413402778453E-007 ,   2.0243407117963858E-004 ,   1.1799423556576898E-007 ,   1.9262008211121692E-004 ,   1.6906364721339063E-007
   1439.9999999999936      ,   1459.9999999999936      ,   1.9647700425348740E-004 ,   2.8195454671542985E-008 ,   1.8536283369507595E-004 ,   1.8625092432619239E-007 ,   2.0066770434832323E-004 ,   1.2319341201849184E-007 ,   1.9126193896894675E-004 ,   1.9902410887147235E-007
   1459.9999999999934      ,   1479.9999999999932      ,   1.9510777011840319E-004 ,   3.2615932616721205E-008 ,   1.8300642656453081E-004 ,   1.6302008683062924E-007 ,   1.9851491981021780E-004 ,   4.2503885950761942E-007 ,   1.8866965802441250E-004 ,   1.6446043764250607E-007
   1479.9999999999932      ,   1499.9999999999932      ,   1.9334244387452231E-004 ,   2.5358041841101808E-008 ,   1.8038178937867497E-004 ,   1.5033238802082039E-007 ,   1.9488503795003469E-004 ,   9.7529516344054439E-008 ,   1.8609281620752857E-004 ,   1.5560366549514557E-007
   1499.9999999999932      ,   1519.9999999999932      ,   1.9113193091070067E-004 ,   2.5315342369628957E-008 ,   1.7727013182523165E-004 ,   1.4978989288328005E-007 ,   1.9185947441022205E-004 ,   1.0130587239712070E-007 ,   1.8281741793118946E-004 ,   1.5165248542191476E-007
   1519.9999999999932      ,   1539.9999999999932      ,   1.8824356295876255E-004 ,   2.4789180580180947E-008 ,   1.7385744849526547E-004 ,   1.5583102336535026E-007 ,   1.8766879105785983E-004 ,   8.9731205922403964E-008 ,   1.7927543313123352E-004 ,   1.5514860630241872E-007
   1539.9999999999930      ,   1559.9999999999927      ,   1.8459895398669006E-004 ,   2.0965507878535207E-008 ,   1.6920756226084226E-004 ,   1.1784040435412479E-007 ,   1.8257127484903884E-004 ,   7.8967374534519720E-008 ,   1.7457163452377108E-004 ,   1.2394955421364764E-007
   1559.9999999999927      ,   1579.9999999999927      ,   1.7968895048425676E-004 ,   1.8962621986027418E-008 ,   1.6396810585447873E-004 ,   1.1576283930987009E-007 ,   1.7670957183987105E-004 ,   8.8728963704097446E-008 ,   1.6906399015236790E-004 ,   1.0350927357520454E-007
   1579.9999999999927      ,   1599.9999999999927      ,   1.7218387059184377E-004 ,   1.7429173550389362E-008 ,   1.5660408813518607E-004 ,   9.3562366306845989E-008 ,   1.6896309074997500E-004 ,   7.3588923429713006E-008 ,   1.6152238448425492E-004 ,   9.6205486836116754E-008
   1599.9999999999927      ,   1619.9999999999927      ,   1.6174992588744295E-004 ,   1.5801535284567573E-008 ,   1.4801643643296827E-004 ,   8.5450411018869534E-008 ,   1.5964334515371488E-004 ,   6.1026507085421135E-008 ,   1.5272048769646775E-004 ,   9.0690010111324783E-008
   1619.9999999999925      ,   1639.9999999999923      ,   1.5548786061000790E-004 ,   1.3788563791580665E-008 ,   1.4238294580662058E-004 ,   7.8276583909378916E-008 ,   1.5340237626378607E-004 ,   5.4116246522726285E-008 ,   1.4682834391859588E-004 ,   7.9996104594619092E-008
   1639.9999999999923      ,   1659.9999999999923      ,   1.5028792099739646E-004 ,   1.2038580014227455E-008 ,   1.3735794652050694E-004 ,   5.8645718546307866E-008 ,   1.4792040474329818E-004 ,   4.9642599925658050E-008 ,   1.4165547083462666E-004 ,   5.9694237929484886E-008
   1659.9999999999923      ,   1679.9999999999923      ,   1.4537548504719864E-004 ,   9.7614822307058811E-009 ,   1.3273501873789598E-004 ,   6.1871036448624777E-008 ,   1.4281328458799677E-004 ,   4.2468776248605761E-008 ,   1.3685736367565342E-004 ,   5.9485542341263123E-008
   1679.9999999999923      ,   1699.9999999999923      ,   1.4063027492840276E-004 ,   4.9173133736260519E-009 ,   1.2818888154020994E-004 ,   2.9539090334986995E-008 ,   1.3775599904174157E-004 ,   2.4900674911012990E-008 ,   1.3221474695713641E-004 ,   3.2494214139407622E-008
   1699.9999999999920      ,   1719.9999999999918      ,   1.3657207791585037E-004 ,   1.9268324765008072E-009 ,   1.2429522906062910E-004 ,   1.6258942279416269E-008 ,   1.3334532807608403E-004 ,   2.0237602736856557E-008 ,   1.2819283093847589E-004 ,   1.6956630936067031E-008
   1719.9999999999918      ,   1739.9999999999918      ,   1.3352905734032277E-004 ,   1.6583765438647792E-009 ,   1.2106724992673013E-004 ,   9.2592113570826752E-009 ,   1.2938223871165541E-004 ,   1.7809635246464603E-008 ,   1.2486644192033304E-004 ,   9.5919395167936620E-009
   1739.9999999999918      ,   1759.9999999999918      ,   1.3098278173106579E-004 ,   1.5726368961400993E-009 ,   1.1821370142754018E-004 ,   9.2732701481413192E-009 ,   1.2580580909128753E-004 ,   1.6369433541409876E-008 ,   1.2192863973402426E-004 ,   9.5125690702861443E-009
   1759.9999999999918      ,   1779.9999999999918      ,   1.2869324333728593E-004 ,   1.5178844120555473E-009 ,   1.1548969393905443E-004 ,   9.2762374651759090E-009 ,   1.2256899359913570E-004 ,   1.4377513362433449E-008 ,   1.1912730501628962E-004 ,   9.5866336137203728E-009
   1779.9999999999916      ,   1799.9999999999914      ,   1.2654239530710356E-004 ,   1.4734949169589590E-009 ,   1.1284452210209003E-004 ,   1.0233552145092476E-008 ,   1.1960055335856026E-004 ,   1.4073190791212673E-008 ,   1.1639690370115924E-004 ,   1.1167158674045730E-008
   1799.9999999999914      ,   1819.9999999999914      ,   1.2445172524285503E-004 ,   1.4336964657253181E-009 ,   1.1018041813790964E-004 ,   7.9419603788269588E-009 ,   1.1653112043447266E-004 ,   1.2577747056767384E-008 ,   1.1365031493087841E-004 ,   8.2316063998188499E-009
   1819.9999999999914      ,   1839.9999999999914      ,   1.2232382488512822E-004 ,   1.3941144550296682E-009 ,   1.0740653892711647E-004 ,   7.7262818590114087E-009 ,   1.1318986791079399E-004 ,   1.0387044863578788E-008 ,   1.1078945527526867E-004 ,   7.9919448618674423E-009
   1839.9999999999914      ,   1859.9999999999914      ,   1.2005812639788471E-004 ,   1.3512179274290580E-009 ,   1.0447114152942591E-004 ,   7.3986945097424836E-009 ,   1.0959800723701580E-004 ,   7.6682381378257379E-009 ,   1.0776383926585665E-004 ,   7.6701258194753527E-009
   1859.9999999999911      ,   1879.9999999999909      ,   1.1761295557318056E-004 ,   1.3019902804381222E-009 ,   1.0138213238986967E-004 ,   7.1247522028314480E-009 ,   1.0612571034020520E-004 ,   4.8098659763398130E-009 ,   1.0458674381106415E-004 ,   7.3784719295468913E-009
   1879.9999999999909      ,   1899.9999999999909      ,   1.1610224659432934E-004 ,   1.2534125946154518E-009 ,   9.8862995208003074E-005 ,   6.7839962111282562E-009 ,   1.0345920064551459E-004 ,   4.5712687726752007E-009 ,   1.0199089633669267E-004 ,   7.0310444691035951E-009
   1899.9999999999909      ,   1919.9999999999909      ,   1.1528681121746062E-004 ,   1.2001183227193262E-009 ,   9.6545883340430226E-005 ,   6.4353723231061644E-009 ,   1.0101320413939976E-004 ,   4.3385609798293768E-009 ,   9.9604634975940226E-005 ,   6.6740426413460491E-009
   1919.9999999999909      ,   1939.9999999999909      ,   1.1506260813282080E-004 ,   1.1337549046088006E-009 ,   9.4349043562082084E-005 ,   6.0541639149505154E-009 ,   9.8704964375395928E-005 ,   4.0688116656883549E-009 ,   9.7341150218379851E-005 ,   6.2720830976876438E-009
   1939.9999999999907      ,   1959.9999999999905      ,   1.1702222102588196E-004 ,   1.0572980836988864E-009 ,   9.2878776247291557E-005 ,   5.5290109399835968E-009 ,   9.7164842337544652E-005 ,   3.7290652056856077E-009 ,   9.5828059911950528E-005 ,   5.7338306809440269E-009
   1959.9999999999905      ,   1979.9999999999905      ,   1.2297425414266468E-004 ,   9.5820849831334635E-010 ,   9.1993655052911489E-005 ,   4.9138319108078968E-009 ,   9.6227712596746542E-005 ,   3.2792396040241251E-009 ,   9.4914509012906118E-005 ,   5.1034654350612643E-009
   1979.9999999999905      ,   1999.9999999999905      ,   1.0150516491294827E-004 ,   6.9293084609472913E-010 ,   6.5382016152240737E-005 ,   3.2996424314406830E-009 ,   6.8388414611660850E-005 ,   2.1963800992365175E-009 ,   6.7458721945271662E-005 ,   3.4294551782188550E-009
