 # xl, xh, LO, dLO
   0.0000000000000000      ,   1.6666666666666668E-003 ,   5.5819599933768664E-002 ,   7.7786064830087686E-005
   1.6666666666666668E-003 ,   3.3333333333333335E-003 ,   5.6013899668913840E-002 ,   7.8543805748076804E-005
   3.3333333333333335E-003 ,   5.0000000000000001E-003 ,   5.5889196325653784E-002 ,   7.7924988095554292E-005
   5.0000000000000001E-003 ,   6.6666666666666671E-003 ,   5.5910746013815737E-002 ,   7.8072196175785124E-005
   6.6666666666666671E-003 ,   8.3333333333333332E-003 ,   5.5918007380494107E-002 ,   7.8378864282479177E-005
   8.3333333333333332E-003 ,   1.0000000000000000E-002 ,   5.5888923741094554E-002 ,   7.7807208645441523E-005
   1.0000000000000000E-002 ,   1.1666666666666667E-002 ,   5.6092373174501359E-002 ,   7.8287476908040448E-005
   1.1666666666666667E-002 ,   1.3333333333333334E-002 ,   5.6070052488005499E-002 ,   7.8429401972602642E-005
   1.3333333333333334E-002 ,   1.5000000000000001E-002 ,   5.6043486948268953E-002 ,   7.8802538603669526E-005
   1.5000000000000001E-002 ,   1.6666666666666666E-002 ,   5.5895086944505956E-002 ,   7.7973737587625668E-005
   1.6666666666666666E-002 ,   1.8333333333333333E-002 ,   5.6034494732972666E-002 ,   7.8291714181828896E-005
   1.8333333333333333E-002 ,   2.0000000000000000E-002 ,   5.5913122921311204E-002 ,   7.8080914414781102E-005
   2.0000000000000000E-002 ,   2.1666666666666667E-002 ,   5.6106047442248112E-002 ,   7.8123633342007458E-005
   2.1666666666666667E-002 ,   2.3333333333333334E-002 ,   5.6079708736712378E-002 ,   7.8035606281674937E-005
   2.3333333333333334E-002 ,   2.5000000000000001E-002 ,   5.5811211719282751E-002 ,   7.8071943911424695E-005
   2.5000000000000001E-002 ,   2.6666666666666668E-002 ,   5.6042762948426451E-002 ,   7.8186106234728696E-005
   2.6666666666666668E-002 ,   2.8333333333333335E-002 ,   5.6058988613564731E-002 ,   7.8179338074503313E-005
   2.8333333333333335E-002 ,   3.0000000000000002E-002 ,   5.5988179486133494E-002 ,   7.7959791142015943E-005
   3.0000000000000002E-002 ,   3.1666666666666669E-002 ,   5.6047854863631313E-002 ,   7.8090410363230924E-005
   3.1666666666666669E-002 ,   3.3333333333333333E-002 ,   5.6132669721781353E-002 ,   7.8156210324628849E-005
   3.3333333333333333E-002 ,   3.4999999999999996E-002 ,   5.6166248132876240E-002 ,   7.8408579616813379E-005
   3.4999999999999996E-002 ,   3.6666666666666660E-002 ,   5.6047585343584318E-002 ,   7.8404577870751268E-005
   3.6666666666666660E-002 ,   3.8333333333333323E-002 ,   5.6083744468328658E-002 ,   7.8329885254404478E-005
   3.8333333333333323E-002 ,   3.9999999999999987E-002 ,   5.6007816325235431E-002 ,   7.8250113972819346E-005
   3.9999999999999987E-002 ,   4.1666666666666650E-002 ,   5.6257024909426849E-002 ,   7.8614718030396740E-005
   4.1666666666666650E-002 ,   4.3333333333333314E-002 ,   5.6086670781198993E-002 ,   7.8492124885882634E-005
   4.3333333333333314E-002 ,   4.4999999999999978E-002 ,   5.6004739878089564E-002 ,   7.8071070089304618E-005
   4.4999999999999978E-002 ,   4.6666666666666641E-002 ,   5.6115647230425170E-002 ,   7.8523383372294827E-005
   4.6666666666666641E-002 ,   4.8333333333333305E-002 ,   5.6065916467351512E-002 ,   7.8231397716360974E-005
   4.8333333333333305E-002 ,   4.9999999999999968E-002 ,   5.6268098286827807E-002 ,   7.9161375843576107E-005
   4.9999999999999968E-002 ,   5.1666666666666632E-002 ,   5.6129790997749757E-002 ,   7.9516289884856586E-005
   5.1666666666666632E-002 ,   5.3333333333333295E-002 ,   5.6278502157256598E-002 ,   7.8750268055882019E-005
   5.3333333333333295E-002 ,   5.4999999999999959E-002 ,   5.6172351013446080E-002 ,   7.8422926759830420E-005
   5.4999999999999959E-002 ,   5.6666666666666622E-002 ,   5.6247061158635182E-002 ,   7.8698632325742451E-005
   5.6666666666666622E-002 ,   5.8333333333333286E-002 ,   5.6231501128921613E-002 ,   7.9256424531784768E-005
   5.8333333333333286E-002 ,   5.9999999999999949E-002 ,   5.6235236285060976E-002 ,   7.8555957976346032E-005
   5.9999999999999949E-002 ,   6.1666666666666613E-002 ,   5.6264657054187664E-002 ,   7.8435822023831508E-005
   6.1666666666666613E-002 ,   6.3333333333333283E-002 ,   5.6280735394519103E-002 ,   7.8629078068153825E-005
   6.3333333333333283E-002 ,   6.4999999999999947E-002 ,   5.6375333932931419E-002 ,   7.8825144144161564E-005
   6.4999999999999947E-002 ,   6.6666666666666610E-002 ,   5.6244367505769090E-002 ,   7.8493606049617496E-005
   6.6666666666666610E-002 ,   6.8333333333333274E-002 ,   5.6416794311080591E-002 ,   7.8993321846733449E-005
   6.8333333333333274E-002 ,   6.9999999999999937E-002 ,   5.6366348326038422E-002 ,   7.9713398020391372E-005
   6.9999999999999937E-002 ,   7.1666666666666601E-002 ,   5.6350959298793593E-002 ,   7.9001822563659355E-005
   7.1666666666666601E-002 ,   7.3333333333333264E-002 ,   5.6441965945267875E-002 ,   7.8815227498091976E-005
   7.3333333333333264E-002 ,   7.4999999999999928E-002 ,   5.6448812911626983E-002 ,   7.9025107247680554E-005
   7.4999999999999928E-002 ,   7.6666666666666591E-002 ,   5.6505749258034491E-002 ,   7.9030560917530448E-005
   7.6666666666666591E-002 ,   7.8333333333333255E-002 ,   5.6515794374581145E-002 ,   7.9391356005773309E-005
   7.8333333333333255E-002 ,   7.9999999999999918E-002 ,   5.6567976940464199E-002 ,   7.9146332346526985E-005
   7.9999999999999918E-002 ,   8.1666666666666582E-002 ,   5.6462939611666575E-002 ,   7.8940581601818165E-005
   8.1666666666666582E-002 ,   8.3333333333333245E-002 ,   5.6664834585649859E-002 ,   7.9236906158519665E-005
   8.3333333333333245E-002 ,   8.4999999999999909E-002 ,   5.6695532627270999E-002 ,   7.9449950201915338E-005
   8.4999999999999909E-002 ,   8.6666666666666572E-002 ,   5.6506774574801848E-002 ,   7.9226519709458903E-005
   8.6666666666666572E-002 ,   8.8333333333333236E-002 ,   5.6695413884208914E-002 ,   7.9316711493394634E-005
   8.8333333333333236E-002 ,   8.9999999999999900E-002 ,   5.6825652144301513E-002 ,   8.0402894756932697E-005
   8.9999999999999900E-002 ,   9.1666666666666563E-002 ,   5.6858941309724020E-002 ,   9.8045448664878579E-005
   9.1666666666666563E-002 ,   9.3333333333333227E-002 ,   5.6640562350948880E-002 ,   8.0539295498059421E-005
   9.3333333333333227E-002 ,   9.4999999999999890E-002 ,   5.6648241867566257E-002 ,   7.9422480482601392E-005
   9.4999999999999890E-002 ,   9.6666666666666554E-002 ,   5.6917820944993973E-002 ,   8.0114694826076475E-005
   9.6666666666666554E-002 ,   9.8333333333333217E-002 ,   5.6733770932701447E-002 ,   7.9565007440044147E-005
   9.8333333333333217E-002 ,   9.9999999999999881E-002 ,   5.6777419514606735E-002 ,   7.9643015905042403E-005
   9.9999999999999881E-002 ,  0.10166666666666654      ,   5.6931625972369129E-002 ,   7.9786474556473678E-005
  0.10166666666666654      ,  0.10333333333333321      ,   5.6940768085935581E-002 ,   8.0215153841432015E-005
  0.10333333333333321      ,  0.10499999999999987      ,   5.7072490822988736E-002 ,   8.0069536174080864E-005
  0.10499999999999987      ,  0.10666666666666653      ,   5.7038265631604440E-002 ,   8.0244396213302767E-005
  0.10666666666666653      ,  0.10833333333333320      ,   5.7076035284166209E-002 ,   8.0294288963923157E-005
  0.10833333333333320      ,  0.10999999999999986      ,   5.7047573117177522E-002 ,   8.0613753970470512E-005
  0.10999999999999986      ,  0.11166666666666653      ,   5.7113318308180498E-002 ,   8.0142092770404375E-005
  0.11166666666666653      ,  0.11333333333333319      ,   5.7119593544554953E-002 ,   8.1549089777497138E-005
  0.11333333333333319      ,  0.11499999999999985      ,   5.7304049126013980E-002 ,   8.0542485182933803E-005
  0.11499999999999985      ,  0.11666666666666652      ,   5.7095298458945454E-002 ,   8.0214562919126353E-005
  0.11666666666666652      ,  0.11833333333333318      ,   5.7243236201884519E-002 ,   8.0424890194010493E-005
  0.11833333333333318      ,  0.11999999999999984      ,   5.7348849802084982E-002 ,   8.0569172498740559E-005
  0.11999999999999984      ,  0.12166666666666651      ,   5.7470500871833419E-002 ,   8.0710443873422248E-005
  0.12166666666666651      ,  0.12333333333333317      ,   5.7437382130870518E-002 ,   8.0820549495725115E-005
  0.12333333333333317      ,  0.12499999999999983      ,   5.7368364380018910E-002 ,   8.0609160809176346E-005
  0.12499999999999983      ,  0.12666666666666651      ,   5.7426050436361044E-002 ,   8.0861446035257120E-005
  0.12666666666666651      ,  0.12833333333333319      ,   5.7470671365405381E-002 ,   8.1087874005660154E-005
  0.12833333333333319      ,  0.12999999999999987      ,   5.7569745497741465E-002 ,   8.1441309755650188E-005
  0.12999999999999987      ,  0.13166666666666654      ,   5.7678432792563794E-002 ,   8.1355210184106810E-005
  0.13166666666666654      ,  0.13333333333333322      ,   5.7705277403462624E-002 ,   8.1324255388697694E-005
  0.13333333333333322      ,  0.13499999999999990      ,   5.7719308967553798E-002 ,   8.3227003960742603E-005
  0.13499999999999990      ,  0.13666666666666658      ,   5.7597432763805759E-002 ,   8.1306480870651861E-005
  0.13666666666666658      ,  0.13833333333333325      ,   5.7607100298172148E-002 ,   8.1076181557046748E-005
  0.13833333333333325      ,  0.13999999999999993      ,   5.7704905723459515E-002 ,   8.1329776259459212E-005
  0.13999999999999993      ,  0.14166666666666661      ,   5.8025223880224908E-002 ,   8.1714689233518766E-005
  0.14166666666666661      ,  0.14333333333333328      ,   5.7931613139886678E-002 ,   8.1684694681224030E-005
  0.14333333333333328      ,  0.14499999999999996      ,   5.7949252893840134E-002 ,   8.1976326241245488E-005
  0.14499999999999996      ,  0.14666666666666664      ,   5.8135281144834197E-002 ,   8.2194316669050146E-005
  0.14666666666666664      ,  0.14833333333333332      ,   5.7972637998447318E-002 ,   8.1823131753657700E-005
  0.14833333333333332      ,  0.14999999999999999      ,   5.8106801281583666E-002 ,   8.2085944184700447E-005
  0.14999999999999999      ,  0.15166666666666667      ,   5.8136218970946743E-002 ,   8.2172846429937911E-005
  0.15166666666666667      ,  0.15333333333333335      ,   5.8099617389955588E-002 ,   8.2054072274975986E-005
  0.15333333333333335      ,  0.15500000000000003      ,   5.8164578828222263E-002 ,   8.2797182668775573E-005
  0.15500000000000003      ,  0.15666666666666670      ,   5.8371246825215078E-002 ,   8.2873792523988226E-005
  0.15666666666666670      ,  0.15833333333333338      ,   5.8387994042481683E-002 ,   8.2593908284320965E-005
  0.15833333333333338      ,  0.16000000000000006      ,   5.8420483411811434E-002 ,   8.2674263468223029E-005
  0.16000000000000006      ,  0.16166666666666674      ,   5.8508186648092077E-002 ,   8.3096081642911038E-005
  0.16166666666666674      ,  0.16333333333333341      ,   5.8485446010172783E-002 ,   8.3956425680847756E-005
  0.16333333333333341      ,  0.16500000000000009      ,   5.8527137981529802E-002 ,   8.2951124482580384E-005
  0.16500000000000009      ,  0.16666666666666677      ,   5.8751657258840267E-002 ,   8.3172775886276664E-005
  0.16666666666666677      ,  0.16833333333333345      ,   5.8711743473317951E-002 ,   8.3099316623640214E-005
  0.16833333333333345      ,  0.17000000000000012      ,   5.8652983116379967E-002 ,   8.3371672222779081E-005
  0.17000000000000012      ,  0.17166666666666680      ,   5.8841492547986665E-002 ,   8.3837260149070502E-005
  0.17166666666666680      ,  0.17333333333333348      ,   5.8782646831865397E-002 ,   8.3295559033696350E-005
  0.17333333333333348      ,  0.17500000000000016      ,   5.8908385282067370E-002 ,   8.3777075607941343E-005
  0.17500000000000016      ,  0.17666666666666683      ,   5.9087178481912576E-002 ,   8.3728077759074172E-005
  0.17666666666666683      ,  0.17833333333333351      ,   5.9095464148118171E-002 ,   8.4069800868180405E-005
  0.17833333333333351      ,  0.18000000000000019      ,   5.9034831460185622E-002 ,   8.3951840075502661E-005
  0.18000000000000019      ,  0.18166666666666687      ,   5.9116372908428416E-002 ,   8.4143465667280382E-005
  0.18166666666666687      ,  0.18333333333333354      ,   5.9242542799558255E-002 ,   8.4266429201558865E-005
  0.18333333333333354      ,  0.18500000000000022      ,   5.9238272483719046E-002 ,   8.4383544603828595E-005
  0.18500000000000022      ,  0.18666666666666690      ,   5.9239798964425799E-002 ,   8.4328613097732694E-005
  0.18666666666666690      ,  0.18833333333333357      ,   5.9496574586252571E-002 ,   8.4668979476170442E-005
  0.18833333333333357      ,  0.19000000000000025      ,   5.9414953633456641E-002 ,   8.4760500949398657E-005
  0.19000000000000025      ,  0.19166666666666693      ,   5.9408510879453459E-002 ,   8.4688601661050733E-005
  0.19166666666666693      ,  0.19333333333333361      ,   5.9530870513691797E-002 ,   8.4846623692706077E-005
  0.19333333333333361      ,  0.19500000000000028      ,   5.9637210731899148E-002 ,   8.5141532027775883E-005
  0.19500000000000028      ,  0.19666666666666696      ,   5.9671286781050041E-002 ,   8.4990198581769001E-005
  0.19666666666666696      ,  0.19833333333333364      ,   5.9777823401615131E-002 ,   8.5330291912176504E-005
  0.19833333333333364      ,  0.20000000000000032      ,   5.9849037862038261E-002 ,   8.5375235844611827E-005
  0.20000000000000032      ,  0.20166666666666699      ,   5.9869087587563943E-002 ,   8.5516028716673664E-005
  0.20166666666666699      ,  0.20333333333333367      ,   6.0111573785017774E-002 ,   8.6426464834067236E-005
  0.20333333333333367      ,  0.20500000000000035      ,   6.0089851493212422E-002 ,   8.6206866966554653E-005
  0.20500000000000035      ,  0.20666666666666703      ,   6.0001925125575506E-002 ,   8.6021663135848163E-005
  0.20666666666666703      ,  0.20833333333333370      ,   6.0007126569058739E-002 ,   8.6017777586244783E-005
  0.20833333333333370      ,  0.21000000000000038      ,   6.0245428138033331E-002 ,   8.6458922732409664E-005
  0.21000000000000038      ,  0.21166666666666706      ,   6.0562873140233092E-002 ,   8.6748408987438565E-005
  0.21166666666666706      ,  0.21333333333333374      ,   6.0521948760157332E-002 ,   8.6808160391542915E-005
  0.21333333333333374      ,  0.21500000000000041      ,   6.0537294274775832E-002 ,   8.7117591078495827E-005
  0.21500000000000041      ,  0.21666666666666709      ,   6.0421165257455091E-002 ,   8.6651345717278584E-005
  0.21666666666666709      ,  0.21833333333333377      ,   6.0551336586265173E-002 ,   8.6776960916028507E-005
  0.21833333333333377      ,  0.22000000000000045      ,   6.0468233362045015E-002 ,   8.6733958537374268E-005
  0.22000000000000045      ,  0.22166666666666712      ,   6.0741912846290859E-002 ,   8.7529556027376792E-005
  0.22166666666666712      ,  0.22333333333333380      ,   6.0748730723651771E-002 ,   8.7129781443970471E-005
  0.22333333333333380      ,  0.22500000000000048      ,   6.0820521349778701E-002 ,   8.7352463404880590E-005
  0.22500000000000048      ,  0.22666666666666715      ,   6.1020756581754813E-002 ,   8.7851967486137601E-005
  0.22666666666666715      ,  0.22833333333333383      ,   6.1071886002554754E-002 ,   8.7797959064865583E-005
  0.22833333333333383      ,  0.23000000000000051      ,   6.1200145663998229E-002 ,   8.8056883229286893E-005
  0.23000000000000051      ,  0.23166666666666719      ,   6.1183442022534319E-002 ,   8.7973470832691363E-005
  0.23166666666666719      ,  0.23333333333333386      ,   6.1528029644172533E-002 ,   8.8867975168168290E-005
  0.23333333333333386      ,  0.23500000000000054      ,   6.1356763171706602E-002 ,   8.8638373667652729E-005
  0.23500000000000054      ,  0.23666666666666722      ,   6.1473014286397558E-002 ,   8.9204694043425753E-005
  0.23666666666666722      ,  0.23833333333333390      ,   6.1557819390681258E-002 ,   8.8715443545835064E-005
  0.23833333333333390      ,  0.24000000000000057      ,   6.1687553543885068E-002 ,   8.9161793242082136E-005
  0.24000000000000057      ,  0.24166666666666725      ,   6.1746350317413913E-002 ,   8.9713243092183319E-005
  0.24166666666666725      ,  0.24333333333333393      ,   6.1786935567194126E-002 ,   8.9402716211198118E-005
  0.24333333333333393      ,  0.24500000000000061      ,   6.1895825852004586E-002 ,   8.9812867174143962E-005
  0.24500000000000061      ,  0.24666666666666728      ,   6.1897425762143722E-002 ,   8.9505631642280897E-005
  0.24666666666666728      ,  0.24833333333333396      ,   6.2014964809832374E-002 ,   8.9434846383149667E-005
  0.24833333333333396      ,  0.25000000000000061      ,   6.2256839366109741E-002 ,   9.1789858356976261E-005
  0.25000000000000061      ,  0.25166666666666726      ,   6.2413837941976386E-002 ,   9.0440844664510707E-005
  0.25166666666666726      ,  0.25333333333333391      ,   6.2384059661915896E-002 ,   9.0228557632299837E-005
  0.25333333333333391      ,  0.25500000000000056      ,   6.2467560247402500E-002 ,   9.0622830461619747E-005
  0.25500000000000056      ,  0.25666666666666721      ,   6.2513069472629787E-002 ,   9.0623421106478196E-005
  0.25666666666666721      ,  0.25833333333333386      ,   6.2528972188760287E-002 ,   9.0565452534510432E-005
  0.25833333333333386      ,  0.26000000000000051      ,   6.2743436278028253E-002 ,   9.0937218657515597E-005
  0.26000000000000051      ,  0.26166666666666716      ,   6.2813981303499689E-002 ,   9.1230791929824674E-005
  0.26166666666666716      ,  0.26333333333333381      ,   6.2826276887934893E-002 ,   9.1170783501909398E-005
  0.26333333333333381      ,  0.26500000000000046      ,   6.2856919836963621E-002 ,   9.2012340770660428E-005
  0.26500000000000046      ,  0.26666666666666711      ,   6.3020959362986143E-002 ,   9.1566903006775011E-005
  0.26666666666666711      ,  0.26833333333333376      ,   6.3169767807692914E-002 ,   9.2412263571242830E-005
  0.26833333333333376      ,  0.27000000000000041      ,   6.3274248324471330E-002 ,   9.2415564828262397E-005
  0.27000000000000041      ,  0.27166666666666706      ,   6.3500971632330067E-002 ,   9.2883464756926396E-005
  0.27166666666666706      ,  0.27333333333333371      ,   6.3360421784792884E-002 ,   9.2382669153291612E-005
  0.27333333333333371      ,  0.27500000000000036      ,   6.3649318994384155E-002 ,   9.3138494551375832E-005
  0.27500000000000036      ,  0.27666666666666700      ,   6.3566166448682224E-002 ,   9.3994522087451472E-005
  0.27666666666666700      ,  0.27833333333333365      ,   6.3795354359972745E-002 ,   9.3185866649429192E-005
  0.27833333333333365      ,  0.28000000000000030      ,   6.3644550899262214E-002 ,   9.2870703735994619E-005
  0.28000000000000030      ,  0.28166666666666695      ,   6.3862289068126160E-002 ,   9.3379731555347687E-005
  0.28166666666666695      ,  0.28333333333333360      ,   6.3956912410226371E-002 ,   9.3652881678643184E-005
  0.28333333333333360      ,  0.28500000000000025      ,   6.4172260261152789E-002 ,   9.3991367055097649E-005
  0.28500000000000025      ,  0.28666666666666690      ,   6.4382089245553914E-002 ,   9.4166603670322490E-005
  0.28666666666666690      ,  0.28833333333333355      ,   6.4474983297114943E-002 ,   9.4337696946516884E-005
  0.28833333333333355      ,  0.29000000000000020      ,   6.4531781317676340E-002 ,   9.4776585603846097E-005
  0.29000000000000020      ,  0.29166666666666685      ,   6.4517073024443108E-002 ,   9.4568500279757243E-005
  0.29166666666666685      ,  0.29333333333333350      ,   6.4927879241217082E-002 ,   9.5641710395147616E-005
  0.29333333333333350      ,  0.29500000000000015      ,   6.4781584095913877E-002 ,   9.5096498200608628E-005
  0.29500000000000015      ,  0.29666666666666680      ,   6.5082308747320308E-002 ,   9.5624754594604566E-005
  0.29666666666666680      ,  0.29833333333333345      ,   6.5002878127195282E-002 ,   9.6547313203234096E-005
  0.29833333333333345      ,  0.30000000000000010      ,   6.5224214170363906E-002 ,   9.5958213309966985E-005
  0.30000000000000010      ,  0.30166666666666675      ,   6.5335122232354673E-002 ,   9.6371072325296674E-005
  0.30166666666666675      ,  0.30333333333333340      ,   6.5281825381343417E-002 ,   9.6251819638403356E-005
  0.30333333333333340      ,  0.30500000000000005      ,   6.5470342516940463E-002 ,   9.6928433420136821E-005
  0.30500000000000005      ,  0.30666666666666670      ,   6.5697423069263391E-002 ,   9.7538011136158863E-005
  0.30666666666666670      ,  0.30833333333333335      ,   6.5466412719340034E-002 ,   9.6916523448071731E-005
  0.30833333333333335      ,  0.31000000000000000      ,   6.5750753508584878E-002 ,   9.7006347333508620E-005
  0.31000000000000000      ,  0.31166666666666665      ,   6.5956100480710073E-002 ,   9.7502120791035122E-005
  0.31166666666666665      ,  0.31333333333333330      ,   6.6243893934895118E-002 ,   9.8481250392000477E-005
  0.31333333333333330      ,  0.31499999999999995      ,   6.6210746826011233E-002 ,   9.8001581113246186E-005
  0.31499999999999995      ,  0.31666666666666660      ,   6.6349285116356155E-002 ,   9.8536979106511260E-005
  0.31666666666666660      ,  0.31833333333333325      ,   6.6547449907018150E-002 ,   9.8651254522558792E-005
  0.31833333333333325      ,  0.31999999999999990      ,   6.6506432806476640E-002 ,   9.8562170996829092E-005
  0.31999999999999990      ,  0.32166666666666655      ,   6.6693991387721516E-002 ,   9.9263826036210070E-005
  0.32166666666666655      ,  0.32333333333333319      ,   6.6684228149372402E-002 ,   9.9088968002048090E-005
  0.32333333333333319      ,  0.32499999999999984      ,   6.6962758652245269E-002 ,   9.9348924076892112E-005
  0.32499999999999984      ,  0.32666666666666649      ,   6.7149596373452261E-002 ,   1.0005790824820295E-004
  0.32666666666666649      ,  0.32833333333333314      ,   6.7300456724153190E-002 ,   1.0032606741179396E-004
  0.32833333333333314      ,  0.32999999999999979      ,   6.7344315757527529E-002 ,   1.0045610157643020E-004
  0.32999999999999979      ,  0.33166666666666644      ,   6.7304411086469215E-002 ,   1.0050938384482766E-004
  0.33166666666666644      ,  0.33333333333333309      ,   6.7623525765420231E-002 ,   1.0113235654632990E-004
  0.33333333333333309      ,  0.33499999999999974      ,   6.7824830167936848E-002 ,   1.0107032388035817E-004
  0.33499999999999974      ,  0.33666666666666639      ,   6.7893196938446490E-002 ,   1.0418212323735985E-004
  0.33666666666666639      ,  0.33833333333333304      ,   6.8231131490075009E-002 ,   1.0270235307474656E-004
  0.33833333333333304      ,  0.33999999999999969      ,   6.8051924136040026E-002 ,   1.0197109274758391E-004
  0.33999999999999969      ,  0.34166666666666634      ,   6.8302436321660318E-002 ,   1.0198290297791220E-004
  0.34166666666666634      ,  0.34333333333333299      ,   6.8419556197801212E-002 ,   1.0246544050486386E-004
  0.34333333333333299      ,  0.34499999999999964      ,   6.8461381622946710E-002 ,   1.0315064878241639E-004
  0.34499999999999964      ,  0.34666666666666629      ,   6.8593767153507956E-002 ,   1.0308435710564593E-004
  0.34666666666666629      ,  0.34833333333333294      ,   6.8647311333943445E-002 ,   1.0431775976674184E-004
  0.34833333333333294      ,  0.34999999999999959      ,   6.8778797936577860E-002 ,   1.0334789704042897E-004
  0.34999999999999959      ,  0.35166666666666624      ,   6.8823319186651868E-002 ,   1.0415859981847648E-004
  0.35166666666666624      ,  0.35333333333333289      ,   6.9138075791524964E-002 ,   1.0402280622278873E-004
  0.35333333333333289      ,  0.35499999999999954      ,   6.9423990141006114E-002 ,   1.0471941188740927E-004
  0.35499999999999954      ,  0.35666666666666619      ,   6.9401702835410681E-002 ,   1.0443386913452510E-004
  0.35666666666666619      ,  0.35833333333333284      ,   6.9568356305275483E-002 ,   1.0550165988632121E-004
  0.35833333333333284      ,  0.35999999999999949      ,   6.9828868244857331E-002 ,   1.0598605232886932E-004
  0.35999999999999949      ,  0.36166666666666614      ,   6.9932177761837397E-002 ,   1.0543291217943651E-004
  0.36166666666666614      ,  0.36333333333333279      ,   7.0139996165959603E-002 ,   1.0597922290637785E-004
  0.36333333333333279      ,  0.36499999999999944      ,   7.0187627791756899E-002 ,   1.0610393929753143E-004
  0.36499999999999944      ,  0.36666666666666609      ,   7.0314140287524807E-002 ,   1.0633495055875701E-004
  0.36666666666666609      ,  0.36833333333333274      ,   7.0508465244036950E-002 ,   1.0681317860134665E-004
  0.36833333333333274      ,  0.36999999999999938      ,   7.0302017161842104E-002 ,   1.0714606586449140E-004
  0.36999999999999938      ,  0.37166666666666603      ,   7.0834190751147288E-002 ,   1.0755532728480452E-004
  0.37166666666666603      ,  0.37333333333333268      ,   7.1053493466438286E-002 ,   1.0821714307078880E-004
  0.37333333333333268      ,  0.37499999999999933      ,   7.1118132695866462E-002 ,   1.0841183424838827E-004
  0.37499999999999933      ,  0.37666666666666598      ,   7.1170183416852800E-002 ,   1.0839184345960854E-004
  0.37666666666666598      ,  0.37833333333333263      ,   7.1206089125037481E-002 ,   1.0921242407185035E-004
  0.37833333333333263      ,  0.37999999999999928      ,   7.1360889096060712E-002 ,   1.0868517508365692E-004
  0.37999999999999928      ,  0.38166666666666593      ,   7.1619938364504407E-002 ,   1.0906314580092120E-004
  0.38166666666666593      ,  0.38333333333333258      ,   7.1827964175705847E-002 ,   1.0958084203761646E-004
  0.38333333333333258      ,  0.38499999999999923      ,   7.2058232902219785E-002 ,   1.1009625404929652E-004
  0.38499999999999923      ,  0.38666666666666588      ,   7.2160940799933251E-002 ,   1.1027570309763012E-004
  0.38666666666666588      ,  0.38833333333333253      ,   7.2488775963827745E-002 ,   1.1459029106481521E-004
  0.38833333333333253      ,  0.38999999999999918      ,   7.2476043639867774E-002 ,   1.1127570309489854E-004
  0.38999999999999918      ,  0.39166666666666583      ,   7.2594969954870470E-002 ,   1.1319089239229138E-004
  0.39166666666666583      ,  0.39333333333333248      ,   7.2841971118549620E-002 ,   1.1206523171639987E-004
  0.39333333333333248      ,  0.39499999999999913      ,   7.2811404464576943E-002 ,   1.1180805698032279E-004
  0.39499999999999913      ,  0.39666666666666578      ,   7.2787449467055135E-002 ,   1.1200051797025426E-004
  0.39666666666666578      ,  0.39833333333333243      ,   7.3347082337459915E-002 ,   1.1277817742648966E-004
  0.39833333333333243      ,  0.39999999999999908      ,   7.3529214518679289E-002 ,   1.1326287154503795E-004
  0.39999999999999908      ,  0.40166666666666573      ,   7.3698319373379964E-002 ,   1.1347163135540554E-004
  0.40166666666666573      ,  0.40333333333333238      ,   7.3777059456103050E-002 ,   1.1357322848748856E-004
  0.40333333333333238      ,  0.40499999999999903      ,   7.4309511096129446E-002 ,   1.1472699125156894E-004
  0.40499999999999903      ,  0.40666666666666568      ,   7.4151339706456140E-002 ,   1.1444097719357215E-004
  0.40666666666666568      ,  0.40833333333333233      ,   7.4106759978150819E-002 ,   1.1453901957532505E-004
  0.40833333333333233      ,  0.40999999999999898      ,   7.4352666087812616E-002 ,   1.1501955550186599E-004
  0.40999999999999898      ,  0.41166666666666563      ,   7.4589910196581941E-002 ,   1.1570538168944062E-004
  0.41166666666666563      ,  0.41333333333333228      ,   7.4864928702097225E-002 ,   1.1640385253889098E-004
  0.41333333333333228      ,  0.41499999999999893      ,   7.5094652283158425E-002 ,   1.1611939591786363E-004
  0.41499999999999893      ,  0.41666666666666557      ,   7.5330756917803846E-002 ,   1.1660335345625383E-004
  0.41666666666666557      ,  0.41833333333333222      ,   7.5502517111102840E-002 ,   1.1715064530755217E-004
  0.41833333333333222      ,  0.41999999999999887      ,   7.5495110339563548E-002 ,   1.1789323531046517E-004
  0.41999999999999887      ,  0.42166666666666552      ,   7.5958418533098870E-002 ,   1.1861208950843580E-004
  0.42166666666666552      ,  0.42333333333333217      ,   7.5992759604088078E-002 ,   1.1853391645356059E-004
  0.42333333333333217      ,  0.42499999999999882      ,   7.6033678577821728E-002 ,   1.1885389205176069E-004
  0.42499999999999882      ,  0.42666666666666547      ,   7.6373044911708224E-002 ,   1.1987730555830033E-004
  0.42666666666666547      ,  0.42833333333333212      ,   7.6606855119464440E-002 ,   1.1979186950955175E-004
  0.42833333333333212      ,  0.42999999999999877      ,   7.6824013706071004E-002 ,   1.2014159218463596E-004
  0.42999999999999877      ,  0.43166666666666542      ,   7.7062465132778493E-002 ,   1.2074939808534433E-004
  0.43166666666666542      ,  0.43333333333333207      ,   7.7021032322298164E-002 ,   1.2075861509660219E-004
  0.43333333333333207      ,  0.43499999999999872      ,   7.7323687267878249E-002 ,   1.2150052358810790E-004
  0.43499999999999872      ,  0.43666666666666537      ,   7.7635926553741297E-002 ,   1.2251543877008799E-004
  0.43666666666666537      ,  0.43833333333333202      ,   7.7691925475973186E-002 ,   1.2230438234916473E-004
  0.43833333333333202      ,  0.43999999999999867      ,   7.7934718184244051E-002 ,   1.2255551636228721E-004
  0.43999999999999867      ,  0.44166666666666532      ,   7.8058696090511359E-002 ,   1.2255238996276184E-004
  0.44166666666666532      ,  0.44333333333333197      ,   7.8303922107903323E-002 ,   1.2328790813790079E-004
  0.44333333333333197      ,  0.44499999999999862      ,   7.8157086924421026E-002 ,   1.2336980818326672E-004
  0.44499999999999862      ,  0.44666666666666527      ,   7.8502338027698071E-002 ,   1.2417007647648947E-004
  0.44666666666666527      ,  0.44833333333333192      ,   7.8854642303062966E-002 ,   1.2528162422935441E-004
  0.44833333333333192      ,  0.44999999999999857      ,   7.9177692633501773E-002 ,   1.2525001630659782E-004
  0.44999999999999857      ,  0.45166666666666522      ,   7.9047576834939098E-002 ,   1.3138050065581160E-004
  0.45166666666666522      ,  0.45333333333333187      ,   7.9530106420292263E-002 ,   1.2600926863479088E-004
  0.45333333333333187      ,  0.45499999999999852      ,   7.9644323588483709E-002 ,   1.2666554676951905E-004
  0.45499999999999852      ,  0.45666666666666517      ,   7.9687475542249420E-002 ,   1.2648574226381220E-004
  0.45666666666666517      ,  0.45833333333333182      ,   8.0148160363734650E-002 ,   1.2748141194571615E-004
  0.45833333333333182      ,  0.45999999999999847      ,   8.0343512821648075E-002 ,   1.2796141285587154E-004
  0.45999999999999847      ,  0.46166666666666512      ,   8.0548732513508470E-002 ,   1.2815262339365045E-004
  0.46166666666666512      ,  0.46333333333333176      ,   8.0705730492971126E-002 ,   1.2902198634236241E-004
  0.46333333333333176      ,  0.46499999999999841      ,   8.0845962021161316E-002 ,   1.2918633532919989E-004
  0.46499999999999841      ,  0.46666666666666506      ,   8.1146021818423203E-002 ,   1.3054475398495183E-004
  0.46666666666666506      ,  0.46833333333333171      ,   8.1408586720547044E-002 ,   1.3040127449233171E-004
  0.46833333333333171      ,  0.46999999999999836      ,   8.1748137953937303E-002 ,   1.3129892291331407E-004
  0.46999999999999836      ,  0.47166666666666501      ,   8.1933919947783193E-002 ,   1.3235361635525260E-004
  0.47166666666666501      ,  0.47333333333333166      ,   8.2264658471412719E-002 ,   1.3235854565488584E-004
  0.47333333333333166      ,  0.47499999999999831      ,   8.2553703094389613E-002 ,   1.3274436672811664E-004
  0.47499999999999831      ,  0.47666666666666496      ,   8.2572087882568784E-002 ,   1.3316543424094971E-004
  0.47666666666666496      ,  0.47833333333333161      ,   8.2872721417626916E-002 ,   1.3362255442984374E-004
  0.47833333333333161      ,  0.47999999999999826      ,   8.3057235370869259E-002 ,   1.3401951601338031E-004
  0.47999999999999826      ,  0.48166666666666491      ,   8.3339878060724029E-002 ,   1.3469163899680405E-004
  0.48166666666666491      ,  0.48333333333333156      ,   8.3586360783531141E-002 ,   1.3516377321904280E-004
  0.48333333333333156      ,  0.48499999999999821      ,   8.3559635220441741E-002 ,   1.3510605559790303E-004
  0.48499999999999821      ,  0.48666666666666486      ,   8.4051253724152286E-002 ,   1.3595539137289944E-004
  0.48666666666666486      ,  0.48833333333333151      ,   8.4110104669825325E-002 ,   1.3675688886904478E-004
  0.48833333333333151      ,  0.48999999999999816      ,   8.4361351694730566E-002 ,   1.3710247591790014E-004
  0.48999999999999816      ,  0.49166666666666481      ,   8.4773924439887502E-002 ,   1.3781211027393621E-004
  0.49166666666666481      ,  0.49333333333333146      ,   8.4887112417513219E-002 ,   1.3817150691539792E-004
  0.49333333333333146      ,  0.49499999999999811      ,   8.5121481224810655E-002 ,   1.3867843262980171E-004
  0.49499999999999811      ,  0.49666666666666476      ,   8.5385133861890131E-002 ,   1.3939932298772623E-004
  0.49666666666666476      ,  0.49833333333333141      ,   8.5581927063177354E-002 ,   1.4006877299046450E-004
  0.49833333333333141      ,  0.49999999999999806      ,   8.5956340601455281E-002 ,   1.4234514653101157E-004
  0.49999999999999806      ,  0.50166666666666471      ,   8.6647632750340195E-002 ,   1.5731843587827535E-004
  0.50166666666666471      ,  0.50333333333333141      ,   8.6639439358004541E-002 ,   1.4451158225659618E-004
  0.50333333333333141      ,  0.50499999999999812      ,   8.7045865309214154E-002 ,   1.4275619410665971E-004
  0.50499999999999812      ,  0.50666666666666482      ,   8.7019112386397882E-002 ,   1.4382551014715045E-004
  0.50666666666666482      ,  0.50833333333333153      ,   8.7181439686785933E-002 ,   1.4399496503406789E-004
  0.50833333333333153      ,  0.50999999999999823      ,   8.7593655220943076E-002 ,   1.4389367268657357E-004
  0.50999999999999823      ,  0.51166666666666494      ,   8.7869604895752851E-002 ,   1.4777785344869236E-004
  0.51166666666666494      ,  0.51333333333333164      ,   8.8055908526352950E-002 ,   1.4507775786564179E-004
  0.51333333333333164      ,  0.51499999999999835      ,   8.8098814240224352E-002 ,   1.4639067842303627E-004
  0.51499999999999835      ,  0.51666666666666505      ,   8.8406756168058848E-002 ,   1.4649377660378468E-004
  0.51666666666666505      ,  0.51833333333333176      ,   8.8933523940562142E-002 ,   1.4717689599032162E-004
  0.51833333333333176      ,  0.51999999999999846      ,   8.9163447077380387E-002 ,   1.4783480075549989E-004
  0.51999999999999846      ,  0.52166666666666517      ,   8.9682326218751149E-002 ,   1.4883278126383553E-004
  0.52166666666666517      ,  0.52333333333333187      ,   8.9411541524616084E-002 ,   1.4921895120774916E-004
  0.52333333333333187      ,  0.52499999999999858      ,   8.9857242500508472E-002 ,   1.4950670398125723E-004
  0.52499999999999858      ,  0.52666666666666528      ,   9.0332603733165068E-002 ,   1.5093813975391600E-004
  0.52666666666666528      ,  0.52833333333333199      ,   9.0562026297791240E-002 ,   1.5120799123009404E-004
  0.52833333333333199      ,  0.52999999999999869      ,   9.0767088289989209E-002 ,   1.5178704341461090E-004
  0.52999999999999869      ,  0.53166666666666540      ,   9.1189877729408092E-002 ,   1.5304670297313697E-004
  0.53166666666666540      ,  0.53333333333333210      ,   9.1464193802908433E-002 ,   1.5342234309977107E-004
  0.53333333333333210      ,  0.53499999999999881      ,   9.1770569513473996E-002 ,   1.5387243714110906E-004
  0.53499999999999881      ,  0.53666666666666551      ,   9.2132096732291655E-002 ,   1.5448980524941866E-004
  0.53666666666666551      ,  0.53833333333333222      ,   9.2215093035487125E-002 ,   1.5528489185005187E-004
  0.53833333333333222      ,  0.53999999999999893      ,   9.2544238025087044E-002 ,   1.5570733441554305E-004
  0.53999999999999893      ,  0.54166666666666563      ,   9.2666144667093664E-002 ,   1.5610328467722772E-004
  0.54166666666666563      ,  0.54333333333333234      ,   9.3256144859963405E-002 ,   1.5776350261614922E-004
  0.54333333333333234      ,  0.54499999999999904      ,   9.3688435995803510E-002 ,   1.5845627106772994E-004
  0.54499999999999904      ,  0.54666666666666575      ,   9.3733512250989567E-002 ,   1.5865665369428937E-004
  0.54666666666666575      ,  0.54833333333333245      ,   9.4262968397401739E-002 ,   1.5993414344348143E-004
  0.54833333333333245      ,  0.54999999999999916      ,   9.4423646044393073E-002 ,   1.6072703012027793E-004
  0.54999999999999916      ,  0.55166666666666586      ,   9.4821924190352402E-002 ,   1.6129540178703576E-004
  0.55166666666666586      ,  0.55333333333333257      ,   9.5162130121333496E-002 ,   1.6199801737898945E-004
  0.55333333333333257      ,  0.55499999999999927      ,   9.5304569080010518E-002 ,   1.6226341275419611E-004
  0.55499999999999927      ,  0.55666666666666598      ,   9.5696237286748698E-002 ,   1.6305024522981788E-004
  0.55666666666666598      ,  0.55833333333333268      ,   9.5794564389452733E-002 ,   1.6407120888595290E-004
  0.55833333333333268      ,  0.55999999999999939      ,   9.6463765085295194E-002 ,   1.6835426785971995E-004
  0.55999999999999939      ,  0.56166666666666609      ,   9.6480319073658699E-002 ,   1.6575504298278480E-004
  0.56166666666666609      ,  0.56333333333333280      ,   9.7181433244212814E-002 ,   1.6977843212174514E-004
  0.56333333333333280      ,  0.56499999999999950      ,   9.7332271776746790E-002 ,   1.6759421452042795E-004
  0.56499999999999950      ,  0.56666666666666621      ,   9.7326326385360207E-002 ,   1.6777278497960739E-004
  0.56666666666666621      ,  0.56833333333333291      ,   9.8044789867024737E-002 ,   1.6928634621702423E-004
  0.56833333333333291      ,  0.56999999999999962      ,   9.8089246041545605E-002 ,   1.6977634594090898E-004
  0.56999999999999962      ,  0.57166666666666632      ,   9.8614754903044943E-002 ,   1.7090386935086750E-004
  0.57166666666666632      ,  0.57333333333333303      ,   9.9193040145779149E-002 ,   1.7182080840959170E-004
  0.57333333333333303      ,  0.57499999999999973      ,   9.9166298390987326E-002 ,   1.7145802303778060E-004
  0.57499999999999973      ,  0.57666666666666644      ,   9.9789570265790481E-002 ,   1.7357043421371756E-004
  0.57666666666666644      ,  0.57833333333333314      ,   9.9979810252330784E-002 ,   1.7392809812576360E-004
  0.57833333333333314      ,  0.57999999999999985      ,  0.10030921387825043      ,   1.7447752200971868E-004
  0.57999999999999985      ,  0.58166666666666655      ,  0.10043450774434648      ,   1.7495313586170480E-004
  0.58166666666666655      ,  0.58333333333333326      ,  0.10115326495233071      ,   1.7719634159678730E-004
  0.58333333333333326      ,  0.58499999999999996      ,  0.10210593206083224      ,   1.7853993880971022E-004
  0.58499999999999996      ,  0.58666666666666667      ,  0.10140588916472640      ,   1.7748760380249860E-004
  0.58666666666666667      ,  0.58833333333333337      ,  0.10232075379763700      ,   1.7936916277510462E-004
  0.58833333333333337      ,  0.59000000000000008      ,  0.10265237645520775      ,   1.8055256172704628E-004
  0.59000000000000008      ,  0.59166666666666679      ,  0.10280337095257330      ,   1.8088216474622347E-004
  0.59166666666666679      ,  0.59333333333333349      ,  0.10310935670066530      ,   1.8164664657455045E-004
  0.59333333333333349      ,  0.59500000000000020      ,  0.10370861695864411      ,   1.8558579308932842E-004
  0.59500000000000020      ,  0.59666666666666690      ,  0.10399064774431635      ,   1.8346849715885914E-004
  0.59666666666666690      ,  0.59833333333333361      ,  0.10451831153331488      ,   1.8517532952677204E-004
  0.59833333333333361      ,  0.60000000000000031      ,  0.10473445295615949      ,   1.8591560269845246E-004
  0.60000000000000031      ,  0.60166666666666702      ,  0.10482209589461133      ,   1.8597252594474662E-004
  0.60166666666666702      ,  0.60333333333333372      ,  0.10561118293817780      ,   1.8731671597988910E-004
  0.60333333333333372      ,  0.60500000000000043      ,  0.10616628515343628      ,   1.8898159211924606E-004
  0.60500000000000043      ,  0.60666666666666713      ,  0.10617464110969621      ,   1.8944499906016284E-004
  0.60666666666666713      ,  0.60833333333333384      ,  0.10694046430383314      ,   1.9228382681728815E-004
  0.60833333333333384      ,  0.61000000000000054      ,  0.10704161567583066      ,   1.9617593548702111E-004
  0.61000000000000054      ,  0.61166666666666725      ,  0.10764046340385128      ,   1.9349185118723025E-004
  0.61166666666666725      ,  0.61333333333333395      ,  0.10803888575797951      ,   1.9435638164221964E-004
  0.61333333333333395      ,  0.61500000000000066      ,  0.10832212658327500      ,   1.9541908880383002E-004
  0.61500000000000066      ,  0.61666666666666736      ,  0.10871211226486813      ,   1.9563307414792653E-004
  0.61666666666666736      ,  0.61833333333333407      ,  0.10895069651752709      ,   1.9692134837398430E-004
  0.61833333333333407      ,  0.62000000000000077      ,  0.10980347356050904      ,   1.9808787270078287E-004
  0.62000000000000077      ,  0.62166666666666748      ,  0.11006226262358330      ,   1.9939737922409145E-004
  0.62166666666666748      ,  0.62333333333333418      ,  0.11020472383803262      ,   1.9913866233689772E-004
  0.62333333333333418      ,  0.62500000000000089      ,  0.11091814883199383      ,   2.0476253269731721E-004
  0.62500000000000089      ,  0.62666666666666759      ,  0.11141819151425994      ,   2.0354884667730868E-004
  0.62666666666666759      ,  0.62833333333333430      ,  0.11145483542416788      ,   2.0354695618133450E-004
  0.62833333333333430      ,  0.63000000000000100      ,  0.11201990627907968      ,   2.0459589036261243E-004
  0.63000000000000100      ,  0.63166666666666771      ,  0.11252888316655998      ,   2.0596218695039916E-004
  0.63166666666666771      ,  0.63333333333333441      ,  0.11345958902287756      ,   2.0918838761758594E-004
  0.63333333333333441      ,  0.63500000000000112      ,  0.11383219028188368      ,   2.0946453996977191E-004
  0.63500000000000112      ,  0.63666666666666782      ,  0.11387340535295805      ,   2.0936702554355939E-004
  0.63666666666666782      ,  0.63833333333333453      ,  0.11461402785502080      ,   2.1155559263441980E-004
  0.63833333333333453      ,  0.64000000000000123      ,  0.11503128936851202      ,   2.1250273623029138E-004
  0.64000000000000123      ,  0.64166666666666794      ,  0.11538369898202970      ,   2.1312044794673815E-004
  0.64166666666666794      ,  0.64333333333333464      ,  0.11564333214555909      ,   2.1464753456183714E-004
  0.64333333333333464      ,  0.64500000000000135      ,  0.11632053099195615      ,   2.1651063732671695E-004
  0.64500000000000135      ,  0.64666666666666806      ,  0.11676156662459083      ,   2.1788014168092485E-004
  0.64666666666666806      ,  0.64833333333333476      ,  0.11754679606817434      ,   2.1995252633333817E-004
  0.64833333333333476      ,  0.65000000000000147      ,  0.11773040233694193      ,   2.2213473615017074E-004
  0.65000000000000147      ,  0.65166666666666817      ,  0.11823754397963349      ,   2.2221028808773089E-004
  0.65166666666666817      ,  0.65333333333333488      ,  0.11877915706504305      ,   2.2398414530385441E-004
  0.65333333333333488      ,  0.65500000000000158      ,  0.11920810888334998      ,   2.2391783757096415E-004
  0.65500000000000158      ,  0.65666666666666829      ,  0.11973139614789019      ,   2.2760720070227555E-004
  0.65666666666666829      ,  0.65833333333333499      ,  0.12044739462043941      ,   2.2746065056946784E-004
  0.65833333333333499      ,  0.66000000000000170      ,  0.12068340010642885      ,   2.2901512834911568E-004
  0.66000000000000170      ,  0.66166666666666840      ,  0.12085140906754105      ,   2.2873192290975356E-004
  0.66166666666666840      ,  0.66333333333333511      ,  0.12161511043932367      ,   2.3070473195875444E-004
  0.66333333333333511      ,  0.66500000000000181      ,  0.12197781543433082      ,   2.3221766895543196E-004
  0.66500000000000181      ,  0.66666666666666852      ,  0.12247679979893850      ,   2.3359916494335728E-004
  0.66666666666666852      ,  0.66833333333333522      ,  0.12309121758239333      ,   2.3486370888856531E-004
  0.66833333333333522      ,  0.67000000000000193      ,  0.12406065986730636      ,   2.3955266017031858E-004
  0.67000000000000193      ,  0.67166666666666863      ,  0.12423883623944583      ,   2.3990773627977381E-004
  0.67166666666666863      ,  0.67333333333333534      ,  0.12517104112645686      ,   2.4053909327743282E-004
  0.67333333333333534      ,  0.67500000000000204      ,  0.12542058956734620      ,   2.4070839327511095E-004
  0.67500000000000204      ,  0.67666666666666875      ,  0.12551174835589471      ,   2.4168106560259605E-004
  0.67666666666666875      ,  0.67833333333333545      ,  0.12622466246245542      ,   2.4446835702943777E-004
  0.67833333333333545      ,  0.68000000000000216      ,  0.12702941408311944      ,   2.4609848216308722E-004
  0.68000000000000216      ,  0.68166666666666886      ,  0.12711843596685532      ,   2.4643527527870915E-004
  0.68166666666666886      ,  0.68333333333333557      ,  0.12811305602191500      ,   2.5078425652011303E-004
  0.68333333333333557      ,  0.68500000000000227      ,  0.12856029169966468      ,   2.5031541920357314E-004
  0.68500000000000227      ,  0.68666666666666898      ,  0.12896082652899393      ,   2.5229978055377791E-004
  0.68666666666666898      ,  0.68833333333333568      ,  0.12999292160647294      ,   2.5544076289737955E-004
  0.68833333333333568      ,  0.69000000000000239      ,  0.12991515365079795      ,   2.5506247808753372E-004
  0.69000000000000239      ,  0.69166666666666909      ,  0.13073172230219759      ,   2.5748979444223022E-004
  0.69166666666666909      ,  0.69333333333333580      ,  0.13134625073288000      ,   2.5888172902935785E-004
  0.69333333333333580      ,  0.69500000000000250      ,  0.13163432645280235      ,   2.6019807753690561E-004
  0.69500000000000250      ,  0.69666666666666921      ,  0.13284797420735683      ,   2.6513715640878358E-004
  0.69666666666666921      ,  0.69833333333333591      ,  0.13280161805079890      ,   2.6319288980726616E-004
  0.69833333333333591      ,  0.70000000000000262      ,  0.13363764818149076      ,   2.6592956979593546E-004
  0.70000000000000262      ,  0.70166666666666933      ,  0.13469074585555485      ,   2.6807918879291577E-004
  0.70166666666666933      ,  0.70333333333333603      ,  0.13481916373812994      ,   2.6895059230313905E-004
  0.70333333333333603      ,  0.70500000000000274      ,  0.13592759949611732      ,   2.7140290824622922E-004
  0.70500000000000274      ,  0.70666666666666944      ,  0.13640245718946273      ,   2.7346989593838336E-004
  0.70666666666666944      ,  0.70833333333333615      ,  0.13651406543885983      ,   2.7469338368296936E-004
  0.70833333333333615      ,  0.71000000000000285      ,  0.13710620522400083      ,   2.7661919083199726E-004
  0.71000000000000285      ,  0.71166666666666956      ,  0.13778310016313441      ,   2.7859131929000358E-004
  0.71166666666666956      ,  0.71333333333333626      ,  0.13840808071250021      ,   2.8199027309862073E-004
  0.71333333333333626      ,  0.71500000000000297      ,  0.13899440331236534      ,   2.8285957981434134E-004
  0.71500000000000297      ,  0.71666666666666967      ,  0.13922882186091209      ,   2.8591151357173610E-004
  0.71666666666666967      ,  0.71833333333333638      ,  0.14081428665048626      ,   2.8729706583179005E-004
  0.71833333333333638      ,  0.72000000000000308      ,  0.14063133557852270      ,   2.8751239976900752E-004
  0.72000000000000308      ,  0.72166666666666979      ,  0.14136937700926963      ,   2.9093876862677082E-004
  0.72166666666666979      ,  0.72333333333333649      ,  0.14232657785364078      ,   2.9322781366627728E-004
  0.72333333333333649      ,  0.72500000000000320      ,  0.14237828588398102      ,   2.9452018904848362E-004
  0.72500000000000320      ,  0.72666666666666990      ,  0.14394855863820730      ,   2.9700465473867242E-004
  0.72666666666666990      ,  0.72833333333333661      ,  0.14374092661104632      ,   2.9724281708172668E-004
  0.72833333333333661      ,  0.73000000000000331      ,  0.14450087962233935      ,   2.9919886932158990E-004
  0.73000000000000331      ,  0.73166666666667002      ,  0.14530416799997270      ,   3.0285385422195512E-004
  0.73166666666667002      ,  0.73333333333333672      ,  0.14568046141972940      ,   3.0373846048255965E-004
  0.73333333333333672      ,  0.73500000000000343      ,  0.14596482228210764      ,   3.0518331171874613E-004
  0.73500000000000343      ,  0.73666666666667013      ,  0.14665140797873430      ,   3.0974563751622964E-004
  0.73666666666667013      ,  0.73833333333333684      ,  0.14762410546036084      ,   3.1038579250915080E-004
  0.73833333333333684      ,  0.74000000000000354      ,  0.14826719416105652      ,   3.1375438791090182E-004
  0.74000000000000354      ,  0.74166666666667025      ,  0.14891513474275514      ,   3.1738944280573951E-004
  0.74166666666667025      ,  0.74333333333333695      ,  0.14926884340843574      ,   3.1640415795173183E-004
  0.74333333333333695      ,  0.74500000000000366      ,  0.15010570304883047      ,   3.2000870483620296E-004
  0.74500000000000366      ,  0.74666666666667036      ,  0.15033244579433763      ,   3.2138036993163482E-004
  0.74666666666667036      ,  0.74833333333333707      ,  0.15196509466029876      ,   3.2574480911385951E-004
  0.74833333333333707      ,  0.75000000000000377      ,  0.15144684618261681      ,   3.2336155379315276E-004
  0.75000000000000377      ,  0.75166666666667048      ,  0.15293401375399307      ,   3.2830290107846053E-004
  0.75166666666667048      ,  0.75333333333333719      ,  0.15366856981098498      ,   3.3184135837767274E-004
  0.75333333333333719      ,  0.75500000000000389      ,  0.15441481533506374      ,   3.3372398059950504E-004
  0.75500000000000389      ,  0.75666666666667060      ,  0.15478410219887850      ,   3.3622244878101523E-004
  0.75666666666667060      ,  0.75833333333333730      ,  0.15536449621023499      ,   3.6658773292778360E-004
  0.75833333333333730      ,  0.76000000000000401      ,  0.15575538038278988      ,   3.3880251473864106E-004
  0.76000000000000401      ,  0.76166666666667071      ,  0.15648785983659136      ,   3.4122152165115115E-004
  0.76166666666667071      ,  0.76333333333333742      ,  0.15740110357738246      ,   3.4507649050268983E-004
  0.76333333333333742      ,  0.76500000000000412      ,  0.15767664747637508      ,   3.4742264396795877E-004
  0.76500000000000412      ,  0.76666666666667083      ,  0.15848366222307247      ,   3.4971571526629867E-004
  0.76666666666667083      ,  0.76833333333333753      ,  0.15880664201514377      ,   3.5019161074489668E-004
  0.76833333333333753      ,  0.77000000000000424      ,  0.15964827814424504      ,   3.5229936440443581E-004
  0.77000000000000424      ,  0.77166666666667094      ,  0.16020619354471721      ,   3.5527810345590953E-004
  0.77166666666667094      ,  0.77333333333333765      ,  0.16138338792405604      ,   3.5992106535099818E-004
  0.77333333333333765      ,  0.77500000000000435      ,  0.16173774835723873      ,   3.6172578324460570E-004
  0.77500000000000435      ,  0.77666666666667106      ,  0.16194403093973331      ,   3.6308678649414015E-004
  0.77666666666667106      ,  0.77833333333333776      ,  0.16286630298111787      ,   3.6582012733984748E-004
  0.77833333333333776      ,  0.78000000000000447      ,  0.16375912371534188      ,   3.6950809975944327E-004
  0.78000000000000447      ,  0.78166666666667117      ,  0.16386643922758640      ,   3.7037457860296976E-004
  0.78166666666667117      ,  0.78333333333333788      ,  0.16494902144626430      ,   3.7492060014882137E-004
  0.78333333333333788      ,  0.78500000000000458      ,  0.16580717678842583      ,   3.7669396093116780E-004
  0.78500000000000458      ,  0.78666666666667129      ,  0.16656426873153363      ,   3.8021190757699759E-004
  0.78666666666667129      ,  0.78833333333333799      ,  0.16676362982599349      ,   3.8195990603521134E-004
  0.78833333333333799      ,  0.79000000000000470      ,  0.16770058923804426      ,   3.8404884674139044E-004
  0.79000000000000470      ,  0.79166666666667140      ,  0.16798557463680153      ,   3.8591802197862830E-004
  0.79166666666667140      ,  0.79333333333333811      ,  0.16907041222859770      ,   3.9965686830155460E-004
  0.79333333333333811      ,  0.79500000000000481      ,  0.16850155506168127      ,   3.8985099729970394E-004
  0.79500000000000481      ,  0.79666666666667152      ,  0.16909171995789818      ,   3.9470848808128385E-004
  0.79666666666667152      ,  0.79833333333333822      ,  0.16995300248948855      ,   3.9783084365621569E-004
  0.79833333333333822      ,  0.80000000000000493      ,  0.17045248843140731      ,   3.9788998417069206E-004
  0.80000000000000493      ,  0.80166666666667163      ,   0.0000000000000000      ,   0.0000000000000000     
  0.80166666666667163      ,  0.80333333333333834      ,   0.0000000000000000      ,   0.0000000000000000     
  0.80333333333333834      ,  0.80500000000000504      ,   0.0000000000000000      ,   0.0000000000000000     
  0.80500000000000504      ,  0.80666666666667175      ,   0.0000000000000000      ,   0.0000000000000000     
  0.80666666666667175      ,  0.80833333333333846      ,   0.0000000000000000      ,   0.0000000000000000     
  0.80833333333333846      ,  0.81000000000000516      ,   0.0000000000000000      ,   0.0000000000000000     
  0.81000000000000516      ,  0.81166666666667187      ,   0.0000000000000000      ,   0.0000000000000000     
  0.81166666666667187      ,  0.81333333333333857      ,   0.0000000000000000      ,   0.0000000000000000     
  0.81333333333333857      ,  0.81500000000000528      ,   0.0000000000000000      ,   0.0000000000000000     
  0.81500000000000528      ,  0.81666666666667198      ,   0.0000000000000000      ,   0.0000000000000000     
  0.81666666666667198      ,  0.81833333333333869      ,   0.0000000000000000      ,   0.0000000000000000     
  0.81833333333333869      ,  0.82000000000000539      ,   0.0000000000000000      ,   0.0000000000000000     
  0.82000000000000539      ,  0.82166666666667210      ,   0.0000000000000000      ,   0.0000000000000000     
  0.82166666666667210      ,  0.82333333333333880      ,   0.0000000000000000      ,   0.0000000000000000     
  0.82333333333333880      ,  0.82500000000000551      ,   0.0000000000000000      ,   0.0000000000000000     
  0.82500000000000551      ,  0.82666666666667221      ,   0.0000000000000000      ,   0.0000000000000000     
  0.82666666666667221      ,  0.82833333333333892      ,   0.0000000000000000      ,   0.0000000000000000     
  0.82833333333333892      ,  0.83000000000000562      ,   0.0000000000000000      ,   0.0000000000000000     
  0.83000000000000562      ,  0.83166666666667233      ,   0.0000000000000000      ,   0.0000000000000000     
  0.83166666666667233      ,  0.83333333333333903      ,   0.0000000000000000      ,   0.0000000000000000     
  0.83333333333333903      ,  0.83500000000000574      ,   0.0000000000000000      ,   0.0000000000000000     
  0.83500000000000574      ,  0.83666666666667244      ,   0.0000000000000000      ,   0.0000000000000000     
  0.83666666666667244      ,  0.83833333333333915      ,   0.0000000000000000      ,   0.0000000000000000     
  0.83833333333333915      ,  0.84000000000000585      ,   0.0000000000000000      ,   0.0000000000000000     
  0.84000000000000585      ,  0.84166666666667256      ,   0.0000000000000000      ,   0.0000000000000000     
  0.84166666666667256      ,  0.84333333333333926      ,   0.0000000000000000      ,   0.0000000000000000     
  0.84333333333333926      ,  0.84500000000000597      ,   0.0000000000000000      ,   0.0000000000000000     
  0.84500000000000597      ,  0.84666666666667267      ,   0.0000000000000000      ,   0.0000000000000000     
  0.84666666666667267      ,  0.84833333333333938      ,   0.0000000000000000      ,   0.0000000000000000     
  0.84833333333333938      ,  0.85000000000000608      ,   0.0000000000000000      ,   0.0000000000000000     
  0.85000000000000608      ,  0.85166666666667279      ,   0.0000000000000000      ,   0.0000000000000000     
  0.85166666666667279      ,  0.85333333333333949      ,   0.0000000000000000      ,   0.0000000000000000     
  0.85333333333333949      ,  0.85500000000000620      ,   0.0000000000000000      ,   0.0000000000000000     
  0.85500000000000620      ,  0.85666666666667290      ,   0.0000000000000000      ,   0.0000000000000000     
  0.85666666666667290      ,  0.85833333333333961      ,   0.0000000000000000      ,   0.0000000000000000     
  0.85833333333333961      ,  0.86000000000000631      ,   0.0000000000000000      ,   0.0000000000000000     
  0.86000000000000631      ,  0.86166666666667302      ,  0.18436646913389340      ,   4.9491863408720322E-004
  0.86166666666667302      ,  0.86333333333333973      ,  0.18359359330403732      ,   4.9398549030063273E-004
  0.86333333333333973      ,  0.86500000000000643      ,  0.18423890972659254      ,   6.0691952581483908E-004
  0.86500000000000643      ,  0.86666666666667314      ,  0.18457321784144559      ,   5.0841997066528261E-004
  0.86666666666667314      ,  0.86833333333333984      ,  0.18482412224607814      ,   5.0343803373961997E-004
  0.86833333333333984      ,  0.87000000000000655      ,  0.18430898314219823      ,   5.0513658147451578E-004
  0.87000000000000655      ,  0.87166666666667325      ,  0.18454244531804759      ,   5.0839770939649831E-004
  0.87166666666667325      ,  0.87333333333333996      ,  0.18450128985650635      ,   5.1252115402533073E-004
  0.87333333333333996      ,  0.87500000000000666      ,  0.18389370404247007      ,   5.1126735543461635E-004
  0.87500000000000666      ,  0.87666666666667337      ,  0.18412456174466627      ,   5.2110573743726436E-004
  0.87666666666667337      ,  0.87833333333334007      ,  0.18428162731402770      ,   5.1731581654708056E-004
  0.87833333333334007      ,  0.88000000000000678      ,  0.18356210226772784      ,   5.2219409140777915E-004
  0.88000000000000678      ,  0.88166666666667348      ,  0.18344737358855762      ,   5.1979744374760822E-004
  0.88166666666667348      ,  0.88333333333334019      ,  0.18257221485513467      ,   5.2137060134044928E-004
  0.88333333333334019      ,  0.88500000000000689      ,  0.18251788474544819      ,   5.2320344161827295E-004
  0.88500000000000689      ,  0.88666666666667360      ,  0.18347521024257560      ,   5.2950765006853386E-004
  0.88666666666667360      ,  0.88833333333334030      ,  0.18258291245853997      ,   5.3292667974676698E-004
  0.88833333333334030      ,  0.89000000000000701      ,  0.18331753374020060      ,   5.3532753219710913E-004
  0.89000000000000701      ,  0.89166666666667371      ,  0.18254903020137650      ,   5.3307742485338952E-004
  0.89166666666667371      ,  0.89333333333334042      ,  0.18312181021272844      ,   5.3723595157033073E-004
  0.89333333333334042      ,  0.89500000000000712      ,  0.18290298608238295      ,   5.4284181400483008E-004
  0.89500000000000712      ,  0.89666666666667383      ,  0.18276988706394079      ,   5.5405046617894554E-004
  0.89666666666667383      ,  0.89833333333334053      ,  0.18317036616626126      ,   5.4717605816351623E-004
  0.89833333333334053      ,  0.90000000000000724      ,  0.18366439570747689      ,   5.5388945705241079E-004
  0.90000000000000724      ,  0.90166666666667394      ,  0.18294770083834566      ,   5.5348682046222025E-004
  0.90166666666667394      ,  0.90333333333334065      ,  0.18200996946549894      ,   5.5186922134305497E-004
  0.90333333333334065      ,  0.90500000000000735      ,  0.18181415286197616      ,   5.5227578338125545E-004
  0.90500000000000735      ,  0.90666666666667406      ,  0.18339320901275297      ,   5.6054110365413791E-004
  0.90666666666667406      ,  0.90833333333334076      ,  0.18252499009082054      ,   5.5753599311705242E-004
  0.90833333333334076      ,  0.91000000000000747      ,  0.18214382415532643      ,   5.6189568573034444E-004
  0.91000000000000747      ,  0.91166666666667417      ,  0.18233660855044803      ,   5.6518345616257562E-004
  0.91166666666667417      ,  0.91333333333334088      ,  0.18352571187533898      ,   5.7415335187783925E-004
  0.91333333333334088      ,  0.91500000000000759      ,  0.18127608800648867      ,   5.6378470483292229E-004
  0.91500000000000759      ,  0.91666666666667429      ,  0.18192992638034192      ,   5.6914268995810391E-004
  0.91666666666667429      ,  0.91833333333334100      ,  0.18200683453835112      ,   5.7034678982888589E-004
  0.91833333333334100      ,  0.92000000000000770      ,  0.18255692560772563      ,   5.7556849747689479E-004
  0.92000000000000770      ,  0.92166666666667441      ,   0.0000000000000000      ,   0.0000000000000000     
  0.92166666666667441      ,  0.92333333333334111      ,   0.0000000000000000      ,   0.0000000000000000     
  0.92333333333334111      ,  0.92500000000000782      ,   0.0000000000000000      ,   0.0000000000000000     
  0.92500000000000782      ,  0.92666666666667452      ,   0.0000000000000000      ,   0.0000000000000000     
  0.92666666666667452      ,  0.92833333333334123      ,   0.0000000000000000      ,   0.0000000000000000     
  0.92833333333334123      ,  0.93000000000000793      ,   0.0000000000000000      ,   0.0000000000000000     
  0.93000000000000793      ,  0.93166666666667464      ,   0.0000000000000000      ,   0.0000000000000000     
  0.93166666666667464      ,  0.93333333333334134      ,   0.0000000000000000      ,   0.0000000000000000     
  0.93333333333334134      ,  0.93500000000000805      ,   0.0000000000000000      ,   0.0000000000000000     
  0.93500000000000805      ,  0.93666666666667475      ,   0.0000000000000000      ,   0.0000000000000000     
  0.93666666666667475      ,  0.93833333333334146      ,   0.0000000000000000      ,   0.0000000000000000     
  0.93833333333334146      ,  0.94000000000000816      ,   0.0000000000000000      ,   0.0000000000000000     
  0.94000000000000816      ,  0.94166666666667487      ,   0.0000000000000000      ,   0.0000000000000000     
  0.94166666666667487      ,  0.94333333333334157      ,   0.0000000000000000      ,   0.0000000000000000     
  0.94333333333334157      ,  0.94500000000000828      ,   0.0000000000000000      ,   0.0000000000000000     
  0.94500000000000828      ,  0.94666666666667498      ,   0.0000000000000000      ,   0.0000000000000000     
  0.94666666666667498      ,  0.94833333333334169      ,   0.0000000000000000      ,   0.0000000000000000     
  0.94833333333334169      ,  0.95000000000000839      ,   0.0000000000000000      ,   0.0000000000000000     
  0.95000000000000839      ,  0.95166666666667510      ,   0.0000000000000000      ,   0.0000000000000000     
  0.95166666666667510      ,  0.95333333333334180      ,   0.0000000000000000      ,   0.0000000000000000     
  0.95333333333334180      ,  0.95500000000000851      ,   0.0000000000000000      ,   0.0000000000000000     
  0.95500000000000851      ,  0.95666666666667521      ,   0.0000000000000000      ,   0.0000000000000000     
  0.95666666666667521      ,  0.95833333333334192      ,   0.0000000000000000      ,   0.0000000000000000     
  0.95833333333334192      ,  0.96000000000000862      ,   0.0000000000000000      ,   0.0000000000000000     
  0.96000000000000862      ,  0.96166666666667533      ,   0.0000000000000000      ,   0.0000000000000000     
  0.96166666666667533      ,  0.96333333333334203      ,   0.0000000000000000      ,   0.0000000000000000     
  0.96333333333334203      ,  0.96500000000000874      ,   0.0000000000000000      ,   0.0000000000000000     
  0.96500000000000874      ,  0.96666666666667544      ,   0.0000000000000000      ,   0.0000000000000000     
  0.96666666666667544      ,  0.96833333333334215      ,   0.0000000000000000      ,   0.0000000000000000     
  0.96833333333334215      ,  0.97000000000000886      ,   0.0000000000000000      ,   0.0000000000000000     
  0.97000000000000886      ,  0.97166666666667556      ,   0.0000000000000000      ,   0.0000000000000000     
  0.97166666666667556      ,  0.97333333333334227      ,   0.0000000000000000      ,   0.0000000000000000     
  0.97333333333334227      ,  0.97500000000000897      ,   0.0000000000000000      ,   0.0000000000000000     
  0.97500000000000897      ,  0.97666666666667568      ,   0.0000000000000000      ,   0.0000000000000000     
  0.97666666666667568      ,  0.97833333333334238      ,   0.0000000000000000      ,   0.0000000000000000     
  0.97833333333334238      ,  0.98000000000000909      ,   0.0000000000000000      ,   0.0000000000000000     
  0.98000000000000909      ,  0.98166666666667579      ,   0.0000000000000000      ,   0.0000000000000000     
  0.98166666666667579      ,  0.98333333333334250      ,   0.0000000000000000      ,   0.0000000000000000     
  0.98333333333334250      ,  0.98500000000000920      ,   0.0000000000000000      ,   0.0000000000000000     
  0.98500000000000920      ,  0.98666666666667591      ,   0.0000000000000000      ,   0.0000000000000000     
  0.98666666666667591      ,  0.98833333333334261      ,   0.0000000000000000      ,   0.0000000000000000     
  0.98833333333334261      ,  0.99000000000000932      ,   0.0000000000000000      ,   0.0000000000000000     
  0.99000000000000932      ,  0.99166666666667602      ,   0.0000000000000000      ,   0.0000000000000000     
  0.99166666666667602      ,  0.99333333333334273      ,   0.0000000000000000      ,   0.0000000000000000     
  0.99333333333334273      ,  0.99500000000000943      ,   0.0000000000000000      ,   0.0000000000000000     
  0.99500000000000943      ,  0.99666666666667614      ,   0.0000000000000000      ,   0.0000000000000000     
  0.99666666666667614      ,  0.99833333333334284      ,   0.0000000000000000      ,   0.0000000000000000     
  0.99833333333334284      ,   1.0000000000000095      ,   0.0000000000000000      ,   0.0000000000000000     
