 # xl, xh, LO, dLO
   0.0000000000000000      ,   4.0000000000000008E-002 ,   3.0121767377449631E-002 ,   1.1566532335488948E-005
   4.0000000000000008E-002 ,   8.0000000000000016E-002 ,   3.0100758162588281E-002 ,   1.1605233754050841E-005
   8.0000000000000016E-002 ,  0.12000000000000002      ,   3.0140713871966388E-002 ,   1.1618361123413331E-005
  0.12000000000000002      ,  0.16000000000000003      ,   3.0230803015772221E-002 ,   1.1682470126008778E-005
  0.16000000000000003      ,  0.20000000000000004      ,   3.0384508327159568E-002 ,   1.2042652360721169E-005
  0.20000000000000004      ,  0.24000000000000005      ,   3.0566331993635707E-002 ,   1.1892689352884892E-005
  0.24000000000000005      ,  0.28000000000000003      ,   3.0776167012809323E-002 ,   1.2059723821290012E-005
  0.28000000000000003      ,  0.32000000000000006      ,   3.1015113592653298E-002 ,   1.2201080121185047E-005
  0.32000000000000006      ,  0.36000000000000010      ,   3.1296463948199273E-002 ,   1.2384545590074264E-005
  0.36000000000000010      ,  0.40000000000000013      ,   3.1634800680919145E-002 ,   1.2588046320864059E-005
  0.40000000000000008      ,  0.44000000000000006      ,   3.2028788982839493E-002 ,   1.2817494269061904E-005
  0.44000000000000006      ,  0.48000000000000009      ,   3.2420093440904962E-002 ,   1.3100027234324467E-005
  0.48000000000000009      ,  0.52000000000000013      ,   3.2872128176501786E-002 ,   1.3381644013582772E-005
  0.52000000000000013      ,  0.56000000000000016      ,   3.3387947329413865E-002 ,   1.3694873982641476E-005
  0.56000000000000005      ,  0.60000000000000009      ,   3.3932505188714199E-002 ,   1.4053110278732107E-005
  0.60000000000000009      ,  0.64000000000000012      ,   3.4522519453072900E-002 ,   1.4440442535093477E-005
  0.64000000000000012      ,  0.68000000000000016      ,   3.5152378507465692E-002 ,   1.4871609861321632E-005
  0.68000000000000016      ,  0.72000000000000020      ,   3.5810701210994972E-002 ,   1.5365258899221509E-005
  0.72000000000000020      ,  0.76000000000000023      ,   3.6526949543478425E-002 ,   1.5858350361112033E-005
  0.76000000000000012      ,  0.80000000000000016      ,   3.7294340310313659E-002 ,   1.6389306740838481E-005
  0.80000000000000016      ,  0.84000000000000019      ,   3.8068399213842169E-002 ,   1.6990838898012351E-005
  0.84000000000000019      ,  0.88000000000000023      ,   3.8933472997963153E-002 ,   1.7682719770255446E-005
  0.88000000000000012      ,  0.92000000000000015      ,   3.9803212629782349E-002 ,   1.8266465539376879E-005
  0.92000000000000015      ,  0.96000000000000019      ,   4.0745635131098634E-002 ,   1.9036851889986893E-005
  0.96000000000000019      ,   1.0000000000000002      ,   4.1773035057147460E-002 ,   1.9852876768596224E-005
   1.0000000000000002      ,   1.0400000000000003      ,   4.2777051698847761E-002 ,   2.0715088135386868E-005
   1.0400000000000003      ,   1.0800000000000003      ,   4.3831534605510265E-002 ,   2.1857069283240062E-005
   1.0800000000000003      ,   1.1200000000000003      ,   4.4928610972010577E-002 ,   2.2676483758622940E-005
   1.1200000000000001      ,   1.1600000000000001      ,   4.5991774095483294E-002 ,   2.3784938397324613E-005
   1.1600000000000001      ,   1.2000000000000002      ,   4.7185015620998805E-002 ,   2.4987522835990058E-005
   1.2000000000000002      ,   1.2400000000000002      ,   4.8246959172352437E-002 ,   2.6215912004592484E-005
   1.2400000000000002      ,   1.2800000000000002      ,   4.9360861438649796E-002 ,   2.7578258668704429E-005
   1.2800000000000002      ,   1.3200000000000003      ,   5.0330679217646834E-002 ,   2.8936068789046747E-005
   1.3200000000000003      ,   1.3600000000000003      ,   5.1162929988974246E-002 ,   3.0379060471779092E-005
   1.3600000000000003      ,   1.4000000000000004      ,   5.1803047463871953E-002 ,   3.1723992318315410E-005
   1.4000000000000004      ,   1.4400000000000004      ,   5.2295532115526677E-002 ,   3.3369980484496442E-005
   1.4400000000000004      ,   1.4800000000000004      ,   5.2565220735953044E-002 ,   3.4837803825748705E-005
   1.4800000000000002      ,   1.5200000000000002      ,   5.2406288210445698E-002 ,   3.6341737515814712E-005
   1.5200000000000002      ,   1.5600000000000003      ,   5.1659067039655303E-002 ,   3.7680167611545599E-005
   1.5600000000000003      ,   1.6000000000000003      ,   5.0240441054384730E-002 ,   3.8820550210286319E-005
   1.6000000000000003      ,   1.6400000000000003      ,   4.7594126577867824E-002 ,   3.9495026686309494E-005
   1.6400000000000003      ,   1.6800000000000004      ,   4.3051885671378076E-002 ,   3.9349297751619414E-005
   1.6800000000000004      ,   1.7200000000000004      ,   3.6015717095977631E-002 ,   3.7857471581877661E-005
   1.7200000000000004      ,   1.7600000000000005      ,   2.8351049954730673E-002 ,   3.3394947211648085E-005
   1.7600000000000002      ,   1.8000000000000003      ,   2.3160975236500188E-002 ,   3.1040758486220833E-005
   1.8000000000000003      ,   1.8400000000000003      ,   2.0978986504896619E-002 ,   3.0299978763377826E-005
   1.8400000000000003      ,   1.8800000000000003      ,   2.2933334706165504E-002 ,   3.2963038344014781E-005
   1.8800000000000003      ,   1.9200000000000004      ,   2.8832229520529933E-002 ,   3.9988404399875346E-005
   1.9200000000000004      ,   1.9600000000000004      ,   3.4382802958351687E-002 ,   4.6862119490804017E-005
   1.9600000000000004      ,   2.0000000000000004      ,   3.6624477699098615E-002 ,   5.1151961831821009E-005
   2.0000000000000004      ,   2.0400000000000005      ,   3.4483170928637556E-002 ,   5.4371695668347653E-005
   2.0400000000000005      ,   2.0800000000000005      ,   2.7856906026023285E-002 ,   5.0839647483443474E-005
   2.0800000000000005      ,   2.1200000000000006      ,   1.7810066076314260E-002 ,   4.2455051864230215E-005
   2.1200000000000006      ,   2.1600000000000006      ,   8.9881580566295739E-003 ,   2.9714359969504187E-005
   2.1600000000000006      ,   2.2000000000000006      ,   4.2257902097095259E-003 ,   2.0408191889758215E-005
   2.2000000000000006      ,   2.2400000000000007      ,   2.0683564600717432E-003 ,   1.5991314345011460E-005
   2.2400000000000002      ,   2.2800000000000002      ,   8.9480451851774493E-004 ,   1.1992149334280313E-005
   2.2800000000000002      ,   2.3200000000000003      ,   3.3473965213692635E-004 ,   1.3808385894503529E-005
   2.3200000000000003      ,   2.3600000000000003      ,   2.9029900920777395E-005 ,   6.3330473033559431E-006
   2.3600000000000003      ,   2.4000000000000004      ,   0.0000000000000000      ,   0.0000000000000000     
