 # xl, xh, LO, dLO, NLOPSnovp, dNLOPSnovp, NLOPSvp, dNLOPSvp, NLOPSvplt, dNLOPSvplt
   0.0000000000000000      ,   2.0000000000000000E-002 ,   4.0691175726016029      ,  0.27803733193235247      ,   3.6708270680340580      ,   1.8245659819589099E-002 ,   3.8460452777724652      ,   1.8675863534324336E-002 ,   3.7671058788993088      ,   1.1710955187566364E-002
   2.0000000000000000E-002 ,   4.0000000000000001E-002 ,   3.7920170654602328      ,   1.5100964656952587E-003 ,   4.2159328863388117      ,  0.52643845260231670      ,   4.3636961937864074      ,  0.48517193295927596      ,   4.3518585766316411      ,  0.54753174403446636     
   4.0000000000000001E-002 ,   5.9999999999999998E-002 ,   3.8223426379105314      ,   8.1007982443212345E-003 ,   3.6834213494989179      ,   2.7908481912673994E-002 ,   4.3008635595264924      ,  0.44021903481352426      ,   3.7975207219960070      ,   2.8965034940888978E-002
   5.9999999999999998E-002 ,   8.0000000000000002E-002 ,   3.8620035254043588      ,   1.1085177816376504E-002 ,   6.2474622363068706      ,   2.1046291848781782      ,   8.1847854294014777      ,   3.9247285906142668      ,   6.4956226722556361      ,   2.2082015703851914     
   8.0000000000000002E-002 ,  0.10000000000000001      ,   3.8884846486631144      ,   8.6262963513875062E-003 ,   33.079431097958448      ,   28.509926448573857      ,   35.599151242876182      ,   30.821546685890489      ,   35.159869958815641      ,   30.320126124294369     
  0.10000000000000001      ,  0.12000000000000001      ,   3.9247482104323819      ,   5.1646817162765936E-003 ,   3.7519790831820883      ,   3.0071271174122595E-002 ,   3.9305795621514026      ,   3.2026940912184929E-002 ,   3.8857536187747330      ,   4.6604684963099087E-002
  0.12000000000000000      ,  0.13999999999999999      ,   3.9763523578282829      ,   2.4115989869933400E-003 ,   3.9317901645231839      ,  0.11125364097260350      ,   4.1225588164101810      ,  0.11810102389879162      ,   4.0637551115197077      ,  0.11719967782990028     
  0.14000000000000001      ,  0.16000000000000000      ,   4.0732435332492996      ,   1.7351140914142919E-002 ,   3.9037855912032833      ,   6.2175539686175244E-002 ,   4.0867722951110492      ,   6.6880155618363704E-002 ,   3.9816234233388479      ,   3.4091166917646902E-002
  0.16000000000000000      ,  0.17999999999999999      ,   4.1346049143187535      ,   1.0070026639203956E-002 ,   3.9181610729079783      ,   3.4902381095340308E-002 ,   4.1132305331921577      ,   3.8400872989603929E-002 ,   4.0451360505267742      ,   3.6868005579123626E-002
  0.17999999999999999      ,  0.19999999999999998      ,   4.2796806236496119      ,   7.0250327511396080E-002 ,   42.538353845865828      ,   38.519078031085492      ,   45.608756694948319      ,   41.218314020230586      ,   45.119778454386811      ,   40.968075014314635     
  0.20000000000000001      ,  0.22000000000000000      ,   4.3048746943504677      ,   1.9572061790687164E-003 ,   4.0881392702982779      ,   2.3494685538729545E-002 ,   4.2829459038027471      ,   2.4491275977275653E-002 ,   4.1991963721563303      ,   1.8861136157004663E-002
  0.22000000000000000      ,  0.23999999999999999      ,   4.4270241666478070      ,   7.0142044141689504E-003 ,   4.1691896015592844      ,   2.0784303775235321E-002 ,   4.3754740902692353      ,   2.2980919999494236E-002 ,   4.3099326849315025      ,   2.4601615004388799E-002
  0.23999999999999999      ,  0.26000000000000001      ,   4.5676548013277634      ,   1.0702172272181626E-002 ,   4.3792834075804601      ,   8.0733142752833151E-002 ,   4.4917254125097728      ,   1.8079881074274006E-002 ,   4.5102850966326242      ,   8.2491606989867253E-002
  0.26000000000000001      ,  0.28000000000000003      ,   4.6972007481406388      ,   4.2581173857435643E-003 ,   4.4106669647664161      ,   2.3072007688544793E-002 ,   4.6216350972239963      ,   2.8385512246844886E-002 ,   4.5469185009198805      ,   2.3566205116809329E-002
  0.28000000000000003      ,  0.30000000000000004      ,   4.8551067796380574      ,   3.1458080642592029E-003 ,   4.7742733759817586      ,  0.15632357104368200      ,   4.8748205163724787      ,  0.10950768535629693      ,   4.9393541473124012      ,  0.16696905527178868     
  0.29999999999999999      ,  0.32000000000000001      ,   5.0358284223116661      ,   4.4278067211985907E-003 ,   4.7625320731220580      ,   3.3988685930123996E-002 ,   5.0306157479206588      ,   5.7192044212639251E-002 ,   4.9110265188313464      ,   4.3493084749433815E-002
  0.32000000000000001      ,  0.34000000000000002      ,   6.8492381590027005      ,   1.6133569256251792      ,   5.0920786377603608      ,  0.10627545613010771      ,   5.3287839600769269      ,  0.11233228075380383      ,   5.3359203429470758      ,  0.17801041393994257     
  0.34000000000000002      ,  0.36000000000000004      ,   5.5214665937473111      ,   3.8086425772651818E-002 ,   5.1072947891707834      ,   1.3908699568337814E-002 ,   5.3401484625714941      ,   1.3312873183754794E-002 ,   5.2643335329874699      ,   1.5125184521206179E-002
  0.35999999999999999      ,  0.38000000000000000      ,   5.7093076901699282      ,   2.7250275438723453E-003 ,   5.4558163304855869      ,   7.4686305797854166E-002 ,   5.7047707646805863      ,   7.0781001607847310E-002 ,   5.6249338631557952      ,   7.7756038574228109E-002
  0.38000000000000000      ,  0.40000000000000002      ,   6.2087242210551965      ,  0.21526934538905645      ,   5.6277094124876426      ,   1.0905839592883717E-002 ,   5.8861036483648466      ,   1.3083525094163443E-002 ,   5.7979375803405997      ,   1.1327877121326558E-002
  0.40000000000000002      ,  0.42000000000000004      ,   6.3161408071722400      ,   1.5190108676459719E-002 ,   5.9195477244827162      ,   1.1391472642204390E-002 ,   6.1960145492193401      ,   1.7671263013290063E-002 ,   6.1041342350947536      ,   1.2680334534677085E-002
  0.41999999999999998      ,  0.44000000000000000      ,   6.7026694797774820      ,   2.7739141495808195E-002 ,   7.5412023892387028      ,   1.2727561000634153      ,   7.8598087187134595      ,   1.3113516137269905      ,   7.8253788313876251      ,   1.3663965441745742     
  0.44000000000000000      ,  0.46000000000000002      ,   7.0518004722256764      ,   5.0007341713429508E-003 ,   6.6731169815815079      ,   2.5084991493398889E-002 ,   6.9582510766334389      ,   2.2830657083599572E-002 ,   6.8888974831435430      ,   3.4779246882683107E-002
  0.46000000000000002      ,  0.48000000000000004      ,   7.5390337887277896      ,   2.8335136063362229E-002 ,   7.0954912918101023      ,   2.7226870676216292E-002 ,   7.3926784330705484      ,   2.5906278486445233E-002 ,   7.2893087672966219      ,   2.4289739613720572E-002
  0.47999999999999998      ,  0.50000000000000000      ,   7.9881618384039195      ,   3.7277514943305457E-003 ,   7.5360078791497180      ,   1.9424334557490378E-002 ,   7.8900337147571200      ,   2.7082404791741711E-002 ,   7.7616283010810783      ,   2.0463946813891614E-002
  0.50000000000000000      ,  0.52000000000000002      ,   8.6120357629693043      ,   4.5644971997566550E-002 ,   8.3882739587063586      ,  0.34379405234466881      ,   8.7756139588606903      ,  0.37815059735500428      ,   8.6553376546215297      ,  0.36636429637379353     
  0.52000000000000002      ,  0.54000000000000004      ,   9.2071122322748202      ,   7.1031527145248435E-003 ,   8.7071426159614109      ,   3.4170112629424286E-002 ,   9.0527796082456486      ,   2.3457995306494221E-002 ,   8.9612077486303594      ,   3.5445050390456131E-002
  0.54000000000000004      ,  0.56000000000000005      ,   9.9642741894063018      ,   2.1417450415389637E-002 ,   9.3628402839930018      ,   2.3693660409764800E-002 ,   9.7523274716629462      ,   2.3136036699355444E-002 ,   9.6414833179476354      ,   2.4698937720539386E-002
  0.56000000000000005      ,  0.58000000000000007      ,   10.796623461625980      ,   1.4647455770309136E-002 ,   11.379510915207280      ,   1.0643009768240630      ,   10.685314793444336      ,  0.14704794400560905      ,   11.648282037176655      ,   1.1053385300696750     
  0.57999999999999996      ,  0.59999999999999998      ,   11.862836611538802      ,   8.2276342886421452E-002 ,   13.175735895281283      ,   1.9661874420416843      ,   11.516590697840076      ,   1.9876023910164343E-002 ,   11.549046170304681      ,  0.17006770208240576     
  0.59999999999999998      ,  0.62000000000000000      ,   12.892420965334599      ,   2.3517443924081113E-002 ,   12.092174643818343      ,   1.2041272456150760E-002 ,   12.588002433634754      ,   1.0632222897794015E-002 ,   12.451637924738495      ,   1.4948262231051619E-002
  0.62000000000000000      ,  0.64000000000000001      ,   14.171629559651857      ,   3.6577788181427211E-003 ,   13.326211971493821      ,   1.3141279725893415E-002 ,   13.899331300540512      ,   3.2189757468953688E-002 ,   13.711901432893045      ,   1.4335495621944071E-002
  0.64000000000000001      ,  0.66000000000000003      ,   15.716395929797898      ,   8.0114121230101167E-003 ,   14.756744230382560      ,   7.7041502958383312E-003 ,   15.363729302353818      ,   1.3605398397565395E-002 ,   15.181157217503262      ,   8.3662840684471662E-003
  0.66000000000000003      ,  0.68000000000000005      ,   17.539703649269722      ,   1.0390982313504063E-002 ,   16.475124322383724      ,   1.0242398678588935E-002 ,   17.139686662464783      ,   1.0774723785104013E-002 ,   16.950065112135864      ,   1.0738799665021736E-002
  0.68000000000000005      ,  0.70000000000000007      ,   19.848207182741902      ,  0.14503790626851518      ,   18.523049371253425      ,   1.4446925976126238E-002 ,   19.261471410273234      ,   1.5094269467801947E-002 ,   19.041393006325904      ,   1.0747781402054962E-002
  0.70000000000000007      ,  0.72000000000000008      ,   22.372351775414163      ,   2.6598478887619022E-002 ,   20.966253690084468      ,   4.4278933627987542E-003 ,   21.793530164725563      ,   4.5091772198432309E-003 ,   21.561445597696480      ,   4.7906886794524236E-003
  0.71999999999999997      ,  0.73999999999999999      ,   25.513208600876336      ,   8.7552712229048701E-003 ,   24.037774545876044      ,   5.8201142036013460E-002 ,   24.974788800312947      ,   6.2305825669981836E-002 ,   24.752149354356984      ,   9.9925286911710723E-002
  0.73999999999999999      ,  0.76000000000000001      ,   29.545813989182527      ,   5.2200918648383651E-002 ,   27.741821751160053      ,   1.5260492401075160E-002 ,   28.806253314238674      ,   1.6386394371693581E-002 ,   28.520440229146136      ,   1.9292546885887191E-002
  0.76000000000000001      ,  0.78000000000000003      ,   34.456763521875267      ,   2.1762598296413010E-002 ,   32.427675588979518      ,   9.9504661693148293E-003 ,   33.652482786549164      ,   1.0118021456643620E-002 ,   33.329360179279604      ,   1.2605398002481425E-002
  0.78000000000000003      ,  0.80000000000000004      ,   40.787782322315557      ,   1.1962606695766357E-002 ,   38.881639208316294      ,  0.43430928182101303      ,   40.277360544725063      ,  0.40658692469693369      ,   39.955711795394834      ,  0.45976922718088670     
  0.80000000000000004      ,  0.82000000000000006      ,   0.0000000000000000      ,   0.0000000000000000      ,   0.0000000000000000      ,   0.0000000000000000      ,   0.0000000000000000      ,   0.0000000000000000      ,   0.0000000000000000      ,   0.0000000000000000     
  0.82000000000000006      ,  0.84000000000000008      ,   0.0000000000000000      ,   0.0000000000000000      ,   0.0000000000000000      ,   0.0000000000000000      ,   0.0000000000000000      ,   0.0000000000000000      ,   0.0000000000000000      ,   0.0000000000000000     
  0.83999999999999997      ,  0.85999999999999999      ,   0.0000000000000000      ,   0.0000000000000000      ,   0.0000000000000000      ,   0.0000000000000000      ,   0.0000000000000000      ,   0.0000000000000000      ,   0.0000000000000000      ,   0.0000000000000000     
  0.85999999999999999      ,  0.88000000000000000      ,   97.331682743600751      ,  0.11732007831619146      ,   91.187831846148853      ,   1.7651894113215310E-002 ,   94.353899504676562      ,   7.3858053219633943E-002 ,   93.563585477106713      ,   2.0773714601646270E-002
  0.88000000000000000      ,  0.90000000000000002      ,   129.41742216230088      ,   7.4244688867612096E-002 ,   120.72223854510673      ,   1.3999121497674094E-002 ,   124.70307333995648      ,   1.3998210967219777E-002 ,   123.79748411609593      ,   1.3617470094813768E-002
  0.90000000000000002      ,  0.92000000000000004      ,   177.39893413485510      ,   1.1406654571549943E-002 ,   164.02170739701805      ,   1.4482524860324517E-002 ,   169.23966962933102      ,   1.4063400039099104E-002 ,   168.11247776299479      ,   1.2823559024402308E-002
  0.92000000000000004      ,  0.94000000000000006      ,   0.0000000000000000      ,   0.0000000000000000      ,   0.0000000000000000      ,   0.0000000000000000      ,   0.0000000000000000      ,   0.0000000000000000      ,   0.0000000000000000      ,   0.0000000000000000     
  0.94000000000000006      ,  0.96000000000000008      ,   0.0000000000000000      ,   0.0000000000000000      ,   0.0000000000000000      ,   0.0000000000000000      ,   0.0000000000000000      ,   0.0000000000000000      ,   0.0000000000000000      ,   0.0000000000000000     
  0.95999999999999996      ,  0.97999999999999998      ,   0.0000000000000000      ,   0.0000000000000000      ,   0.0000000000000000      ,   0.0000000000000000      ,   0.0000000000000000      ,   0.0000000000000000      ,   0.0000000000000000      ,   0.0000000000000000     
  0.97999999999999998      ,   1.0000000000000000      ,   0.0000000000000000      ,   0.0000000000000000      ,   0.0000000000000000      ,   0.0000000000000000      ,   0.0000000000000000      ,   0.0000000000000000      ,   0.0000000000000000      ,   0.0000000000000000     
