 # xl, xh, LO, dLO, NLOPSnovp, dNLOPSnovp, NLOPSvp, dNLOPSvp, NLOPSvplt, dNLOPSvplt
  0.29999999999999999      ,  0.34999999999999981      ,   0.0000000000000000      ,   0.0000000000000000      ,   0.0000000000000000      ,   0.0000000000000000      ,   0.0000000000000000      ,   0.0000000000000000      ,   0.0000000000000000      ,   0.0000000000000000     
  0.34999999999999981      ,  0.39999999999999963      ,   4.4946386283791391      ,   3.4545481794129029E-005 ,   3.8957184693069480      ,   1.3599898661352227E-004 ,   4.0127524537823005      ,   1.4061227054425890E-004 ,   3.9902178226116498      ,   1.3655446439957491E-004
  0.39999999999999963      ,  0.44999999999999946      ,   56.995656581359029      ,   1.3077896997848405E-004 ,   48.992630815883942      ,   4.4093428829029645E-004 ,   50.508962475787442      ,   4.5196183939454060E-004 ,   50.203249260599534      ,   4.8455797612092719E-004
  0.44999999999999946      ,  0.49999999999999928      ,   50.638664156027438      ,   1.2647413649372107E-004 ,   45.210480005447678      ,   8.0793132842372811E-004 ,   46.666296169298057      ,   8.1832080540627389E-004 ,   46.353764146145934      ,   8.6499820825862851E-004
  0.49999999999999928      ,  0.54999999999999916      ,   31.882289998389055      ,   1.0352309224502393E-004 ,   29.254217667999121      ,   9.5394436980925318E-004 ,   30.226030873702577      ,   9.3767030467576686E-004 ,   30.008728498130857      ,   1.0435412796658907E-003
  0.54999999999999916      ,  0.59999999999999898      ,   9.8911909572748087      ,   6.2631520818455573E-005 ,   10.740230372587501      ,   8.0008099092501522E-004 ,   11.101917154878826      ,   8.2304943133584612E-004 ,   11.019668968555091      ,   8.8999138205422346E-004
  0.59999999999999898      ,  0.64999999999999880      ,   10.592954431204278      ,   6.3275240043282892E-005 ,   11.105605983844820      ,   1.1591541074925805E-003 ,   11.494074987904416      ,   1.2016324013545299E-003 ,   11.400130598744468      ,   1.4197766313052515E-003
  0.64999999999999880      ,  0.69999999999999862      ,   20.066531534738168      ,   8.3448210441609334E-005 ,   18.624801560903634      ,   1.5578479481937705E-003 ,   19.303580310620731      ,   1.5286391485684640E-003 ,   19.132139485150976      ,   1.6759926044140844E-003
  0.69999999999999862      ,  0.74999999999999845      ,   17.550708636674180      ,   7.9770959220627885E-005 ,   16.592106786038023      ,   2.5277315958081130E-003 ,   17.212147168882431      ,   2.6385598239057444E-003 ,   17.049621858878510      ,   2.3598460484907371E-003
  0.74999999999999845      ,  0.79999999999999827      ,   14.881004248142661      ,   7.5320404785696556E-005 ,   14.245717554889774      ,   7.7528191902417852E-003 ,   14.789846567236324      ,   7.7564662851969642E-003 ,   14.638186215558278      ,   5.4976298834219168E-003
  0.79999999999999827      ,  0.84999999999999809      ,   12.610025458014611      ,   7.1389606771503339E-005 ,   12.169801691525073      ,   5.3932565942554078E-003 ,   12.643974574707109      ,   5.7011002580463982E-003 ,   12.508892849385713      ,   2.4310897676692871E-003
  0.84999999999999809      ,  0.89999999999999791      ,   10.729721088267883      ,   6.8145804956721944E-005 ,   10.412098030855455      ,   1.8028811171039759E-003 ,   10.854231717261815      ,   2.8809054621957396E-002 ,   10.709165365815366      ,   1.9214741074639529E-003
  0.89999999999999791      ,  0.94999999999999774      ,   9.1803928750077617      ,   6.5631085032511938E-005 ,   8.9531059885178799      ,   4.0531374609706489E-003 ,   9.3148565015174363      ,   4.0301010979506705E-003 ,   9.2116624651530401      ,   4.2934545463608562E-003
  0.94999999999999774      ,  0.99999999999999756      ,   7.9015643836790348      ,   6.3858992495984822E-005 ,   7.7385398674053949      ,   3.2212408966440708E-003 ,   8.0571453046346750      ,   3.4972453516232981E-003 ,   7.9638098044571759      ,   3.4071894581186530E-003
  0.99999999999999756      ,   1.0499999999999974      ,   6.8420309092946408      ,   6.2860747690133878E-005 ,   6.7420249390422429      ,   9.8671364747341620E-003 ,   7.0188622126485960      ,   9.1763356605347231E-003 ,   6.9425623267357324      ,   1.2386836041208084E-002
   1.0499999999999974      ,   1.0999999999999972      ,   5.9604441894686850      ,   6.2689662112778432E-005 ,   5.8966531744707833      ,   4.7374925239184826E-003 ,   6.1522915651481229      ,   8.3623459692974723E-003 ,   6.0728655434660794      ,   6.1236205711103359E-003
   1.0999999999999972      ,   1.1499999999999970      ,   5.2232108314445700      ,   6.3463180264112243E-005 ,   5.1860942887632788      ,   4.8011595151910506E-003 ,   5.4121078138558518      ,   5.3259336558581904E-003 ,   5.3437330448541704      ,   6.1269790806694662E-003
   1.1499999999999970      ,   1.1999999999999968      ,   4.6039894804466721      ,   6.5372100252278982E-005 ,   4.5767686638465062      ,   1.9541601036523696E-003 ,   4.7757844169169292      ,   2.0571237099034981E-003 ,   4.7153745576327566      ,   2.1381639872686568E-003
   1.1999999999999968      ,   1.2499999999999967      ,   4.0815514099647441      ,   6.8784700519698412E-005 ,   4.0750298260915940      ,   7.7523393689767220E-003 ,   4.2505971590107583      ,   6.0904375293840875E-003 ,   4.1995163406156664      ,   8.2096270228246178E-003
   1.2499999999999967      ,   1.2999999999999965      ,   3.6396995361871718      ,   7.4547158380378219E-005 ,   3.6320691143656831      ,   4.4871020978019737E-003 ,   3.7907466433588741      ,   4.0633083529326717E-003 ,   3.7424448575104385      ,   4.6958695560516441E-003
   1.2999999999999965      ,   1.3499999999999963      ,   3.2651603348826748      ,   8.4404136792404620E-005 ,   3.4258300747523780      ,  0.17371130229584375      ,   3.5623919085795412      ,  0.16263280718964704      ,   3.5365002440303934      ,  0.18390222902044318     
   1.3499999999999963      ,   1.3999999999999961      ,   2.9484384239845967      ,   1.0377721017088495E-004 ,   2.9446486154024751      ,   1.1663667923587190E-002 ,   3.0787890410107264      ,   1.3410183748734728E-002 ,   3.0335673304914410      ,   1.2613523326492727E-002
   1.3999999999999961      ,   1.4499999999999960      ,   2.6862879753402638      ,   1.5413442867713562E-004 ,   2.6666290315104826      ,   2.3587774049418253E-002 ,   2.7935274463568254      ,   2.5273604424734562E-002 ,   2.7653906189866628      ,   4.0163984194887321E-002
   1.4499999999999960      ,   1.4999999999999958      ,   2.4842915802457934      ,   3.4726948289805351E-004 ,   2.4126295367409019      ,   3.4519935000768319E-003 ,   2.5229690598881040      ,   3.0380662069935645E-003 ,   2.4899227953467609      ,   4.5190041154371790E-003
   1.4999999999999958      ,   1.5499999999999956      ,   2.4210358774208975      ,   2.9649975433217179E-003 ,   2.3204645363190157      ,   6.5605522190115201E-002 ,   2.3639637634544988      ,   6.1286078498765740E-003 ,   2.3937770020081830      ,   6.7537796158133365E-002
   1.5499999999999956      ,   1.5999999999999954      ,   3.8533260803733040      ,  0.66819458521913488      ,   32.497828485067103      ,   19.200570508940800      ,   35.116520011420782      ,   20.655802480069674      ,   34.477838397475217      ,   20.420152723509801     
   1.5999999999999954      ,   1.6499999999999952      ,   1.9828279598328820      ,   1.6597222652272074E-003 ,   3.0418873880731234      ,  0.78850098781591105      ,   2.3652197145463596      ,   9.2629727545554319E-002 ,   2.3071104924574715      ,   8.9052244374632356E-002
   1.6499999999999952      ,   1.6999999999999951      ,   1.7300506709366488      ,   2.8162978099109594E-004 ,   1.7911331317680168      ,   1.0091708390346676E-002 ,   1.8749989623682410      ,   9.2808800612406948E-003 ,   1.8464780398941376      ,   1.0820805298687165E-002
   1.6999999999999951      ,   1.7499999999999949      ,   1.5705307035861118      ,   1.2341898849921928E-004 ,   1.5991518960296549      ,   5.3708690326231970E-003 ,   1.6803192071839050      ,   5.6313052901178929E-003 ,   1.6507317366396954      ,   6.0211022746603244E-003
   1.7499999999999949      ,   1.7999999999999947      ,   1.4450321367868639      ,   7.8083041122290121E-005 ,   1.4621111450674205      ,   1.0256843119778687E-002 ,   1.5383160652803429      ,   1.1271941257203540E-002 ,   1.5169249737687305      ,   1.7523194203852451E-002
   1.7999999999999947      ,   1.8499999999999945      ,   1.3389642409699374      ,   5.7960467419047025E-005 ,   1.3321600275296062      ,   2.3569818885770337E-003 ,   1.4022444661194930      ,   2.6319786480849486E-003 ,   1.3757450360552679      ,   2.5174162275034451E-003
   1.8499999999999945      ,   1.8999999999999944      ,   1.2468110681537854      ,   4.6647507932155594E-005 ,   1.2260360862924840      ,   1.0549737482991955E-003 ,   1.2904727954277257      ,   1.0503362327384687E-003 ,   1.2659493421985906      ,   1.1344045425130110E-003
   1.8999999999999944      ,   1.9499999999999942      ,   1.1652662851623279      ,   3.9958583651793534E-005 ,   1.1360185063740191      ,   1.1953383895764820E-003 ,   1.1970980449189215      ,   1.3199979804978663E-003 ,   1.1729360176892689      ,   1.1571421455371835E-003
   1.9499999999999942      ,   1.9999999999999940      ,   1.0922830500073482      ,   3.5351093754077114E-005 ,   1.0605738251698802      ,   4.1871224012933854E-003 ,   1.1163469072672854      ,   3.4389980092586051E-003 ,   1.0954472963548536      ,   4.3509879261117409E-003
   1.9999999999999940      ,   2.0499999999999936      ,   1.0257938065324135      ,   3.1972868121332272E-005 ,  0.97902465674812400      ,   6.5219595772339240E-004 ,   1.0330100725263600      ,   7.1805731959544107E-004 ,   1.0112059937754319      ,   6.7136867638206796E-004
   2.0499999999999936      ,   2.0999999999999934      ,  0.96458886354212892      ,   2.9408315807096870E-005 ,  0.91124073890735757      ,   5.2857921111678220E-004 ,  0.96212451700076240      ,   5.9455317493160463E-004 ,  0.94168589814841441      ,   5.8046005926904246E-004
   2.0999999999999934      ,   2.1499999999999932      ,  0.90735227211224778      ,   2.7357420146308785E-005 ,  0.84890835063582792      ,   6.8152456250786730E-004 ,  0.89683094358945881      ,   7.3154602676461962E-004 ,  0.87715786406628216      ,   8.4127153857544974E-004
   2.1499999999999932      ,   2.1999999999999931      ,  0.85316250831146845      ,   2.5648907258875932E-005 ,  0.78963978450074157      ,   6.0870671916349198E-004 ,  0.83457451379244962      ,   6.4510968112757767E-004 ,  0.81615011322583719      ,   6.6343281755238109E-004
   2.1999999999999931      ,   2.2499999999999929      ,  0.80092364633199153      ,   2.4168340872811090E-005 ,  0.73324428839392986      ,   9.0788892771739079E-004 ,  0.77503494362316139      ,   8.9751487525519848E-004 ,  0.75822973008625150      ,   1.1032918716500860E-003
   2.2499999999999929      ,   2.2999999999999927      ,  0.74971216825472242      ,   2.2860949060597053E-005 ,  0.67790581076963985      ,   4.7426256863070619E-004 ,  0.71691768084845986      ,   4.6853642967922354E-004 ,  0.70064427292221465      ,   5.1955301005957271E-004
   2.2999999999999927      ,   2.3499999999999925      ,  0.69857495767374655      ,   2.1663457524092945E-005 ,  0.62328149627711027      ,   3.3117669143916436E-004 ,  0.65892173213824279      ,   3.2925078183834158E-004 ,  0.64403667007661669      ,   3.4308379009030215E-004
   2.3499999999999925      ,   2.3999999999999924      ,  0.64614203117315816      ,   2.0513429731335496E-005 ,  0.56871767851988131      ,   3.1813947884457228E-004 ,  0.60139726220164680      ,   3.4080087064542852E-004 ,  0.58775370245100877      ,   3.2928652186055187E-004
   2.3999999999999924      ,   2.4499999999999922      ,  0.58994488124191125      ,   1.9364920389366392E-005 ,  0.51101431684184095      ,   3.3436260967570353E-004 ,  0.54046465821407841      ,   3.5387465778920067E-004 ,  0.52792124541841612      ,   3.0574138772922665E-004
   2.4499999999999922      ,   2.4999999999999920      ,  0.51197024603794128      ,   1.8017331513241423E-005 ,  0.43262695392213957      ,   2.4754547111486804E-004 ,  0.45816850105547374      ,   2.8597055334526227E-004 ,  0.44704126331063410      ,   2.5246116736207011E-004
   2.4999999999999920      ,   2.5499999999999918      ,  0.29745074762186985      ,   1.5258905868359906E-005 ,  0.26242220948227774      ,   5.6737001503833135E-004 ,  0.27853856384717030      ,   6.0338019135015711E-004 ,  0.27169375299039766      ,   9.2468498521333523E-004
   2.5499999999999918      ,   2.5999999999999917      ,  0.24308541463069047      ,   1.3722040766323529E-005 ,  0.21080070576112578      ,   1.4646248666472044E-004 ,  0.22350899886795209      ,   1.5776791278425905E-004 ,  0.21786543410621578      ,   1.6224748526608339E-004
   2.5999999999999917      ,   2.6499999999999915      ,  0.30923639997313823      ,   1.3436461987673091E-005 ,  0.25231702844779125      ,   8.3782498134512458E-005 ,  0.26642646286152366      ,   8.1668748557453847E-005 ,  0.26083770202130707      ,   8.8387262039753495E-005
   2.6499999999999915      ,   2.6999999999999913      ,  0.25962937500086264      ,   1.1634805018117092E-005 ,  0.21179725803989013      ,   1.4232577906278738E-004 ,  0.22333073052793134      ,   1.5440200200005262E-004 ,  0.21892284399133394      ,   1.6886773749364461E-004
   2.6999999999999913      ,   2.7499999999999911      ,  0.15285945398133655      ,   8.5396881667845035E-006 ,  0.12055250542891158      ,   3.8502898971733607E-005 ,  0.12697728681859574      ,   5.5327663607606319E-005 ,  0.12461666743254986      ,   3.9758421044429514E-005
   2.7499999999999911      ,   2.7999999999999909      ,   5.8130251404297801E-003 ,   1.8540475733725929E-006 ,   4.6173180449438521E-003 ,   1.4006689455105825E-005 ,   4.8622906390052610E-003 ,   1.5135264708192825E-005 ,   4.7624378443061038E-003 ,   7.3091481797110126E-006
