# xl,xh,LO,dLO,LOISC,dLOISC,NLO,dNLO,NLOISC,dNLOISC,NLOL,dNLOL,NLOnovp,dNLOnovp
8.000000000000000000e+03,8.040000000000000000e+03,0.000000000000000000e+00,0.000000000000000000e+00,0.000000000000000000e+00,0.000000000000000000e+00,2.567251260778913056e-06,1.904171077229976592e-08,2.567251260778913056e-06,1.904171077229976592e-08,2.567251260778913056e-06,1.904171077229976592e-08,2.567251260778913056e-06,1.904171077229976592e-08
8.040000000000000000e+03,8.080000000000000000e+03,0.000000000000000000e+00,0.000000000000000000e+00,0.000000000000000000e+00,0.000000000000000000e+00,2.666593162730744627e-06,2.279976388447238874e-08,2.666593162730744627e-06,2.279976388447238874e-08,2.666593162730744627e-06,2.279976388447238874e-08,2.666593162730744627e-06,2.279976388447238874e-08
8.080000000000000000e+03,8.120000000000000000e+03,0.000000000000000000e+00,0.000000000000000000e+00,0.000000000000000000e+00,0.000000000000000000e+00,2.880455431256114807e-06,2.181923336795875199e-08,2.880455431256114807e-06,2.181923336795875199e-08,2.880455431256114807e-06,2.181923336795875199e-08,2.880455431256114807e-06,2.181923336795875199e-08
8.120000000000000000e+03,8.160000000000000000e+03,0.000000000000000000e+00,0.000000000000000000e+00,0.000000000000000000e+00,0.000000000000000000e+00,3.035023799263730688e-06,2.593915088398150019e-08,3.035023799263730688e-06,2.593915088398150019e-08,3.035023799263730688e-06,2.593915088398150019e-08,3.035023799263730688e-06,2.593915088398150019e-08
8.160000000000000000e+03,8.200000000000000000e+03,0.000000000000000000e+00,0.000000000000000000e+00,0.000000000000000000e+00,0.000000000000000000e+00,3.139481707461638883e-06,2.076634338409308760e-08,3.139481707461638883e-06,2.076634338409308760e-08,3.139481707461638883e-06,2.076634338409308760e-08,3.139481707461638883e-06,2.076634338409308760e-08
8.200000000000000000e+03,8.240000000000000000e+03,0.000000000000000000e+00,0.000000000000000000e+00,0.000000000000000000e+00,0.000000000000000000e+00,3.407877472998398193e-06,3.239554218144756709e-08,3.407877472998398193e-06,3.239554218144756709e-08,3.407877472998398193e-06,3.239554218144756709e-08,3.407877472998398193e-06,3.239554218144756709e-08
8.240000000000000000e+03,8.280000000000000000e+03,0.000000000000000000e+00,0.000000000000000000e+00,0.000000000000000000e+00,0.000000000000000000e+00,3.629281432362537841e-06,3.096655135965181177e-08,3.629281432362537841e-06,3.096655135965181177e-08,3.629281432362537841e-06,3.096655135965181177e-08,3.629281432362537841e-06,3.096655135965181177e-08
8.280000000000000000e+03,8.320000000000000000e+03,0.000000000000000000e+00,0.000000000000000000e+00,0.000000000000000000e+00,0.000000000000000000e+00,3.836778024671943781e-06,3.120609227741699944e-08,3.836778024671943781e-06,3.120609227741699944e-08,3.836778024671943781e-06,3.120609227741699944e-08,3.836778024671943781e-06,3.120609227741699944e-08
8.320000000000000000e+03,8.360000000000000000e+03,0.000000000000000000e+00,0.000000000000000000e+00,0.000000000000000000e+00,0.000000000000000000e+00,4.130461573992939386e-06,2.754954423038278941e-08,4.130461573992939386e-06,2.754954423038278941e-08,4.130461573992939386e-06,2.754954423038278941e-08,4.130461573992939386e-06,2.754954423038278941e-08
8.360000000000000000e+03,8.400000000000000000e+03,0.000000000000000000e+00,0.000000000000000000e+00,0.000000000000000000e+00,0.000000000000000000e+00,4.548000726091749551e-06,5.604506771650544282e-08,4.548000726091749551e-06,5.604506771650544282e-08,4.548000726091749551e-06,5.604506771650544282e-08,4.548000726091749551e-06,5.604506771650544282e-08
8.400000000000000000e+03,8.440000000000000000e+03,0.000000000000000000e+00,0.000000000000000000e+00,0.000000000000000000e+00,0.000000000000000000e+00,4.929829639306307708e-06,7.779195891457689555e-08,4.929829639306307708e-06,7.779195891457689555e-08,4.929829639306307708e-06,7.779195891457689555e-08,4.929829639306307708e-06,7.779195891457689555e-08
8.440000000000000000e+03,8.480000000000000000e+03,0.000000000000000000e+00,0.000000000000000000e+00,0.000000000000000000e+00,0.000000000000000000e+00,5.224801765472449445e-06,4.257035016725236870e-08,5.224801765472449445e-06,4.257035016725236870e-08,5.224801765472449445e-06,4.257035016725236870e-08,5.224801765472449445e-06,4.257035016725236870e-08
8.480000000000000000e+03,8.520000000000000000e+03,0.000000000000000000e+00,0.000000000000000000e+00,0.000000000000000000e+00,0.000000000000000000e+00,5.689974556248872017e-06,4.839094672416778316e-08,5.689974556248872017e-06,4.839094672416778316e-08,5.689974556248872017e-06,4.839094672416778316e-08,5.689974556248872017e-06,4.839094672416778316e-08
8.520000000000000000e+03,8.560000000000000000e+03,0.000000000000000000e+00,0.000000000000000000e+00,0.000000000000000000e+00,0.000000000000000000e+00,6.294432205826783005e-06,6.014597628704360415e-08,6.294432205826783005e-06,6.014597628704360415e-08,6.294432205826783005e-06,6.014597628704360415e-08,6.294432205826783005e-06,6.014597628704360415e-08
8.560000000000000000e+03,8.600000000000000000e+03,0.000000000000000000e+00,0.000000000000000000e+00,0.000000000000000000e+00,0.000000000000000000e+00,7.162696032430919596e-06,2.429746313364107040e-07,7.162696032430919596e-06,2.429746313364107040e-07,7.162696032430919596e-06,2.429746313364107040e-07,7.162696032430919596e-06,2.429746313364107040e-07
8.600000000000000000e+03,8.640000000000000000e+03,0.000000000000000000e+00,0.000000000000000000e+00,0.000000000000000000e+00,0.000000000000000000e+00,7.713768877969639506e-06,7.855878366620870030e-08,7.713768877969639506e-06,7.855878366620870030e-08,7.713768877969639506e-06,7.855878366620870030e-08,7.713768877969639506e-06,7.855878366620870030e-08
8.640000000000000000e+03,8.680000000000000000e+03,0.000000000000000000e+00,0.000000000000000000e+00,0.000000000000000000e+00,0.000000000000000000e+00,9.013809206896883944e-06,2.770734890834360632e-07,9.013809206896883944e-06,2.770734890834360632e-07,9.013809206896883944e-06,2.770734890834360632e-07,9.013809206896883944e-06,2.770734890834360632e-07
8.680000000000000000e+03,8.720000000000000000e+03,0.000000000000000000e+00,0.000000000000000000e+00,0.000000000000000000e+00,0.000000000000000000e+00,9.447001783656253749e-06,1.200510685422631104e-07,9.447001783656253749e-06,1.200510685422631104e-07,9.447001783656253749e-06,1.200510685422631104e-07,9.447001783656253749e-06,1.200510685422631104e-07
8.720000000000000000e+03,8.760000000000000000e+03,0.000000000000000000e+00,0.000000000000000000e+00,0.000000000000000000e+00,0.000000000000000000e+00,1.060299819857905246e-05,1.071002214953213165e-07,1.060299819857905246e-05,1.071002214953213165e-07,1.060299819857905246e-05,1.071002214953213165e-07,1.060299819857905246e-05,1.071002214953213165e-07
8.760000000000000000e+03,8.800000000000000000e+03,0.000000000000000000e+00,0.000000000000000000e+00,0.000000000000000000e+00,0.000000000000000000e+00,1.202083799847159761e-05,2.131362538679785647e-07,1.202083799847159761e-05,2.131362538679785647e-07,1.202083799847159761e-05,2.131362538679785647e-07,1.202083799847159761e-05,2.131362538679785647e-07
8.800000000000000000e+03,8.840000000000000000e+03,0.000000000000000000e+00,0.000000000000000000e+00,0.000000000000000000e+00,0.000000000000000000e+00,1.307279860997244289e-05,9.826657373913925556e-08,1.307279860997244289e-05,9.826657373913925556e-08,1.307279860997244289e-05,9.826657373913925556e-08,1.307279860997244289e-05,9.826657373913925556e-08
8.840000000000000000e+03,8.880000000000000000e+03,0.000000000000000000e+00,0.000000000000000000e+00,0.000000000000000000e+00,0.000000000000000000e+00,1.464326847095063717e-05,1.047264196288508444e-07,1.464326847095063717e-05,1.047264196288508444e-07,1.464326847095063717e-05,1.047264196288508444e-07,1.464326847095063717e-05,1.047264196288508444e-07
8.880000000000000000e+03,8.920000000000000000e+03,0.000000000000000000e+00,0.000000000000000000e+00,0.000000000000000000e+00,0.000000000000000000e+00,1.639926375702565025e-05,1.272015158397240760e-07,1.639926375702565025e-05,1.272015158397240760e-07,1.639926375702565025e-05,1.272015158397240760e-07,1.639926375702565025e-05,1.272015158397240760e-07
8.920000000000000000e+03,8.960000000000000000e+03,0.000000000000000000e+00,0.000000000000000000e+00,0.000000000000000000e+00,0.000000000000000000e+00,1.881699227536873508e-05,2.338372392166869609e-07,1.881699227536873508e-05,2.338372392166869609e-07,1.881699227536873508e-05,2.338372392166869609e-07,1.881699227536873508e-05,2.338372392166869609e-07
8.960000000000000000e+03,9.000000000000000000e+03,0.000000000000000000e+00,0.000000000000000000e+00,0.000000000000000000e+00,0.000000000000000000e+00,2.045083559336066046e-05,1.710574477105208306e-07,2.045083559336066046e-05,1.710574477105208306e-07,2.045083559336066046e-05,1.710574477105208306e-07,2.045083559336066046e-05,1.710574477105208306e-07
9.000000000000000000e+03,9.040000000000000000e+03,0.000000000000000000e+00,0.000000000000000000e+00,0.000000000000000000e+00,0.000000000000000000e+00,2.251124785363040637e-05,1.698970676069396923e-07,2.251124785363040637e-05,1.698970676069396923e-07,2.251124785363040637e-05,1.698970676069396923e-07,2.251124785363040637e-05,1.698970676069396923e-07
9.040000000000000000e+03,9.080000000000000000e+03,0.000000000000000000e+00,0.000000000000000000e+00,0.000000000000000000e+00,0.000000000000000000e+00,2.480132067827192286e-05,2.297854039888828768e-07,2.480132067827192286e-05,2.297854039888828768e-07,2.480132067827192286e-05,2.297854039888828768e-07,2.480132067827192286e-05,2.297854039888828768e-07
9.080000000000000000e+03,9.120000000000000000e+03,0.000000000000000000e+00,0.000000000000000000e+00,0.000000000000000000e+00,0.000000000000000000e+00,2.723337995406587198e-05,3.229446031746662142e-07,2.723337995406587198e-05,3.229446031746662142e-07,2.723337995406587198e-05,3.229446031746662142e-07,2.723337995406587198e-05,3.229446031746662142e-07
9.120000000000000000e+03,9.160000000000000000e+03,0.000000000000000000e+00,0.000000000000000000e+00,0.000000000000000000e+00,0.000000000000000000e+00,2.852229534283131954e-05,1.870437265170074995e-07,2.852229534283131954e-05,1.870437265170074995e-07,2.852229534283131954e-05,1.870437265170074995e-07,2.852229534283131954e-05,1.870437265170074995e-07
9.160000000000000000e+03,9.200000000000000000e+03,0.000000000000000000e+00,0.000000000000000000e+00,0.000000000000000000e+00,0.000000000000000000e+00,3.109525381431543062e-05,3.580771054226978374e-07,3.109525381431543062e-05,3.580771054226978374e-07,3.109525381431543062e-05,3.580771054226978374e-07,3.109525381431543062e-05,3.580771054226978374e-07
9.200000000000000000e+03,9.240000000000000000e+03,0.000000000000000000e+00,0.000000000000000000e+00,0.000000000000000000e+00,0.000000000000000000e+00,3.346475592668581353e-05,2.831878603369771848e-07,3.346475592668581353e-05,2.831878603369771848e-07,3.346475592668581353e-05,2.831878603369771848e-07,3.346475592668581353e-05,2.831878603369771848e-07
9.240000000000000000e+03,9.280000000000000000e+03,0.000000000000000000e+00,0.000000000000000000e+00,0.000000000000000000e+00,0.000000000000000000e+00,3.612611537375341736e-05,5.561549323356871617e-07,3.612611537375341736e-05,5.561549323356871617e-07,3.612611537375341736e-05,5.561549323356871617e-07,3.612611537375341736e-05,5.561549323356871617e-07
9.280000000000000000e+03,9.320000000000000000e+03,0.000000000000000000e+00,0.000000000000000000e+00,0.000000000000000000e+00,0.000000000000000000e+00,3.993842824925904872e-05,4.733760495729775901e-07,3.993842824925904872e-05,4.733760495729775901e-07,3.993842824925904872e-05,4.733760495729775901e-07,3.993842824925904872e-05,4.733760495729775901e-07
9.320000000000000000e+03,9.360000000000000000e+03,0.000000000000000000e+00,0.000000000000000000e+00,0.000000000000000000e+00,0.000000000000000000e+00,4.305350417694700683e-05,3.382038147972208611e-07,4.305350417694700683e-05,3.382038147972208611e-07,4.305350417694700683e-05,3.382038147972208611e-07,4.305350417694700683e-05,3.382038147972208611e-07
9.360000000000000000e+03,9.400000000000000000e+03,0.000000000000000000e+00,0.000000000000000000e+00,0.000000000000000000e+00,0.000000000000000000e+00,4.795456246562258915e-05,5.436450228303614552e-07,4.795456246562258915e-05,5.436450228303614552e-07,4.795456246562258915e-05,5.436450228303614552e-07,4.795456246562258915e-05,5.436450228303614552e-07
9.400000000000000000e+03,9.440000000000000000e+03,0.000000000000000000e+00,0.000000000000000000e+00,0.000000000000000000e+00,0.000000000000000000e+00,5.133384697365691782e-05,3.626174608210767325e-07,5.133384697365691782e-05,3.626174608210767325e-07,5.133384697365691782e-05,3.626174608210767325e-07,5.133384697365691782e-05,3.626174608210767325e-07
9.440000000000000000e+03,9.480000000000000000e+03,0.000000000000000000e+00,0.000000000000000000e+00,0.000000000000000000e+00,0.000000000000000000e+00,5.641722692005684718e-05,3.363392790603256712e-07,5.641722692005684718e-05,3.363392790603256712e-07,5.641722692005684718e-05,3.363392790603256712e-07,5.641722692005684718e-05,3.363392790603256712e-07
9.480000000000000000e+03,9.520000000000000000e+03,0.000000000000000000e+00,0.000000000000000000e+00,0.000000000000000000e+00,0.000000000000000000e+00,6.236465769911423362e-05,2.836324810904645012e-07,6.236465769911423362e-05,2.836324810904645012e-07,6.236465769911423362e-05,2.836324810904645012e-07,6.236465769911423362e-05,2.836324810904645012e-07
9.520000000000000000e+03,9.560000000000000000e+03,0.000000000000000000e+00,0.000000000000000000e+00,0.000000000000000000e+00,0.000000000000000000e+00,7.038090296273779808e-05,4.824010074401546146e-07,7.038090296273779808e-05,4.824010074401546146e-07,7.038090296273779808e-05,4.824010074401546146e-07,7.038090296273779808e-05,4.824010074401546146e-07
9.560000000000000000e+03,9.600000000000000000e+03,0.000000000000000000e+00,0.000000000000000000e+00,0.000000000000000000e+00,0.000000000000000000e+00,7.824301497252249228e-05,4.011286568514258067e-07,7.824301497252249228e-05,4.011286568514258067e-07,7.824301497252249228e-05,4.011286568514258067e-07,7.824301497252249228e-05,4.011286568514258067e-07
9.600000000000000000e+03,9.640000000000000000e+03,0.000000000000000000e+00,0.000000000000000000e+00,0.000000000000000000e+00,0.000000000000000000e+00,9.000708784844205636e-05,7.373027247127018327e-07,9.000708784844205636e-05,7.373027247127018327e-07,9.000708784844205636e-05,7.373027247127018327e-07,9.000708784844205636e-05,7.373027247127018327e-07
9.640000000000000000e+03,9.680000000000000000e+03,0.000000000000000000e+00,0.000000000000000000e+00,0.000000000000000000e+00,0.000000000000000000e+00,1.035526981381076819e-04,7.421183636017275156e-07,1.035526981381076819e-04,7.421183636017275156e-07,1.035526981381076819e-04,7.421183636017275156e-07,1.035526981381076819e-04,7.421183636017275156e-07
9.680000000000000000e+03,9.720000000000000000e+03,0.000000000000000000e+00,0.000000000000000000e+00,0.000000000000000000e+00,0.000000000000000000e+00,1.204186761361833083e-04,1.122886403838251538e-06,1.204186761361833083e-04,1.122886403838251538e-06,1.204186761361833083e-04,1.122886403838251538e-06,1.204186761361833083e-04,1.122886403838251538e-06
9.720000000000000000e+03,9.760000000000000000e+03,0.000000000000000000e+00,0.000000000000000000e+00,0.000000000000000000e+00,0.000000000000000000e+00,1.402309782767153633e-04,1.016459950719271277e-06,1.402309782767153633e-04,1.016459950719271277e-06,1.402309782767153633e-04,1.016459950719271277e-06,1.402309782767153633e-04,1.016459950719271277e-06
9.760000000000000000e+03,9.800000000000000000e+03,0.000000000000000000e+00,0.000000000000000000e+00,0.000000000000000000e+00,0.000000000000000000e+00,1.683153405499955829e-04,8.128021158334263373e-07,1.683153405499955829e-04,8.128021158334263373e-07,1.683153405499955829e-04,8.128021158334263373e-07,1.683153405499955829e-04,8.128021158334263373e-07
9.800000000000000000e+03,9.840000000000000000e+03,0.000000000000000000e+00,0.000000000000000000e+00,0.000000000000000000e+00,0.000000000000000000e+00,2.114382401341273628e-04,7.627352401056297242e-07,2.114382401341273628e-04,7.627352401056297242e-07,2.114382401341273628e-04,7.627352401056297242e-07,2.114382401341273628e-04,7.627352401056297242e-07
9.840000000000000000e+03,9.880000000000000000e+03,0.000000000000000000e+00,0.000000000000000000e+00,0.000000000000000000e+00,0.000000000000000000e+00,2.807255448494294691e-04,1.239264248545118269e-06,2.807255448494294691e-04,1.239264248545118269e-06,2.807255448494294691e-04,1.239264248545118269e-06,2.807255448494294691e-04,1.239264248545118269e-06
9.880000000000000000e+03,9.920000000000000000e+03,0.000000000000000000e+00,0.000000000000000000e+00,0.000000000000000000e+00,0.000000000000000000e+00,4.028346342728430954e-04,1.679103741633793526e-06,4.028346342728430954e-04,1.679103741633793526e-06,4.028346342728430954e-04,1.679103741633793526e-06,4.028346342728430954e-04,1.679103741633793526e-06
9.920000000000000000e+03,9.960000000000000000e+03,0.000000000000000000e+00,0.000000000000000000e+00,0.000000000000000000e+00,0.000000000000000000e+00,7.129972837656505620e-04,5.710651923734849787e-06,7.129972837656505620e-04,5.710651923734849787e-06,7.129972837656505620e-04,5.710651923734849787e-06,7.129972837656505620e-04,5.710651923734849787e-06
9.960000000000000000e+03,1.000000000000000000e+04,6.571742294272126840e-03,6.293087066215865053e-08,6.571742294272126840e-03,6.293087066215865053e-08,3.200812621813064508e-03,2.436569965438253717e-05,3.200812621813064508e-03,2.436569965438253717e-05,3.067771513899035692e-03,2.436569961844148248e-05,2.839465302094081739e-03,2.436569950739276276e-05
