# xl,xh,LO,dLO,LOISC,dLOISC,NLO,dNLO,NLOISC,dNLOISC,NLOL,dNLOL,NLOnovp,dNLOnovp
8.000000000000000000e+03,8.040000000000000000e+03,0.000000000000000000e+00,0.000000000000000000e+00,0.000000000000000000e+00,0.000000000000000000e+00,8.371706119210881025e-08,8.108393943859634180e-10,5.490364568072036649e-08,7.898623389283640260e-10,8.371706119210881025e-08,8.108393943859634180e-10,8.371706119210881025e-08,8.108393943859634180e-10
8.040000000000000000e+03,8.080000000000000000e+03,0.000000000000000000e+00,0.000000000000000000e+00,0.000000000000000000e+00,0.000000000000000000e+00,9.748115065060466942e-08,9.817924226835186680e-10,6.638586471284167913e-08,9.628246783533224073e-10,9.748115065060466942e-08,9.817924226835186680e-10,9.748115065060466942e-08,9.817924226835186680e-10
8.080000000000000000e+03,8.120000000000000000e+03,0.000000000000000000e+00,0.000000000000000000e+00,0.000000000000000000e+00,0.000000000000000000e+00,1.083761614591008229e-07,8.314310376210105390e-10,7.485018917956121342e-08,8.127669809285299508e-10,1.083761614591008229e-07,8.314310376210105390e-10,1.083761614591008229e-07,8.314310376210105390e-10
8.120000000000000000e+03,8.160000000000000000e+03,0.000000000000000000e+00,0.000000000000000000e+00,0.000000000000000000e+00,0.000000000000000000e+00,1.214530755184492825e-07,8.567780654255472806e-10,8.531118779187260542e-08,8.333579225410649724e-10,1.214530755184492825e-07,8.567780654255472806e-10,1.214530755184492825e-07,8.567780654255472806e-10
8.160000000000000000e+03,8.200000000000000000e+03,0.000000000000000000e+00,0.000000000000000000e+00,0.000000000000000000e+00,0.000000000000000000e+00,1.366827341705863426e-07,7.722946919355567596e-10,9.809115672872989182e-08,7.489864769256186966e-10,1.366827341705863426e-07,7.722946919355567596e-10,1.366827341705863426e-07,7.722946919355567596e-10
8.200000000000000000e+03,8.240000000000000000e+03,0.000000000000000000e+00,0.000000000000000000e+00,0.000000000000000000e+00,0.000000000000000000e+00,1.575941765993388394e-07,1.024668660275784462e-09,1.154591795596268887e-07,1.006397860049251305e-09,1.575941765993388394e-07,1.024668660275784462e-09,1.575941765993388394e-07,1.024668660275784462e-09
8.240000000000000000e+03,8.280000000000000000e+03,0.000000000000000000e+00,0.000000000000000000e+00,0.000000000000000000e+00,0.000000000000000000e+00,1.775520338991091561e-07,8.465280088447039268e-10,1.322035454615539979e-07,8.238953051127817244e-10,1.775520338991091561e-07,8.465280088447039268e-10,1.775520338991091561e-07,8.465280088447039268e-10
8.280000000000000000e+03,8.320000000000000000e+03,0.000000000000000000e+00,0.000000000000000000e+00,0.000000000000000000e+00,0.000000000000000000e+00,2.000671228631561995e-07,8.401232583323170676e-10,1.508827484012525312e-07,8.147413221212645708e-10,2.000671228631561995e-07,8.401232583323170676e-10,2.000671228631561995e-07,8.401232583323170676e-10
8.320000000000000000e+03,8.360000000000000000e+03,0.000000000000000000e+00,0.000000000000000000e+00,0.000000000000000000e+00,0.000000000000000000e+00,2.271429692284064621e-07,8.981618138471608080e-10,1.738355480382661135e-07,8.705009637379191511e-10,2.271429692284064621e-07,8.981618138471608080e-10,2.271429692284064621e-07,8.981618138471608080e-10
8.360000000000000000e+03,8.400000000000000000e+03,0.000000000000000000e+00,0.000000000000000000e+00,0.000000000000000000e+00,0.000000000000000000e+00,2.576077124419363702e-07,8.673521706743049767e-10,1.991425983135366002e-07,8.427327770895169571e-10,2.576077124419363702e-07,8.673521706743049767e-10,2.576077124419363702e-07,8.673521706743049767e-10
8.400000000000000000e+03,8.440000000000000000e+03,0.000000000000000000e+00,0.000000000000000000e+00,0.000000000000000000e+00,0.000000000000000000e+00,2.920811459704957052e-07,8.745261749403289474e-10,2.280261473684266257e-07,8.427648165721790092e-10,2.920811459704957052e-07,8.745261749403289474e-10,2.920811459704957052e-07,8.745261749403289474e-10
8.440000000000000000e+03,8.480000000000000000e+03,0.000000000000000000e+00,0.000000000000000000e+00,0.000000000000000000e+00,0.000000000000000000e+00,3.305685879042683244e-07,8.178999958670130988e-10,2.606579302437777908e-07,7.841430518414441302e-10,3.305685879042683244e-07,8.178999958670130988e-10,3.305685879042683244e-07,8.178999958670130988e-10
8.480000000000000000e+03,8.520000000000000000e+03,0.000000000000000000e+00,0.000000000000000000e+00,0.000000000000000000e+00,0.000000000000000000e+00,3.762189024023633120e-07,1.005498126390989104e-09,2.994792091387459240e-07,9.823694065303634667e-10,3.762189024023633120e-07,1.005498126390989104e-09,3.762189024023633120e-07,1.005498126390989104e-09
8.520000000000000000e+03,8.560000000000000000e+03,0.000000000000000000e+00,0.000000000000000000e+00,0.000000000000000000e+00,0.000000000000000000e+00,4.327867475290796007e-07,9.102795199990629242e-10,3.482942515237980997e-07,8.826473332123095288e-10,4.327867475290796007e-07,9.102795199990629242e-10,4.327867475290796007e-07,9.102795199990629242e-10
8.560000000000000000e+03,8.600000000000000000e+03,0.000000000000000000e+00,0.000000000000000000e+00,0.000000000000000000e+00,0.000000000000000000e+00,5.042319255209063673e-07,1.159402962237111518e-09,4.100617493589966494e-07,1.137571439162153551e-09,5.042319255209063673e-07,1.159402962237111518e-09,5.042319255209063673e-07,1.159402962237111518e-09
8.600000000000000000e+03,8.640000000000000000e+03,0.000000000000000000e+00,0.000000000000000000e+00,0.000000000000000000e+00,0.000000000000000000e+00,5.989652125314239366e-07,9.279093977931134231e-10,4.939474950024964888e-07,8.971895028479717094e-10,5.989652125314239366e-07,9.279093977931134231e-10,5.989652125314239366e-07,9.279093977931134231e-10
8.640000000000000000e+03,8.680000000000000000e+03,0.000000000000000000e+00,0.000000000000000000e+00,0.000000000000000000e+00,0.000000000000000000e+00,6.668761611799745402e-07,9.427621771927408567e-10,5.487064307578755974e-07,9.134440356564605485e-10,6.668761611799745402e-07,9.427621771927408567e-10,6.668761611799745402e-07,9.427621771927408567e-10
8.680000000000000000e+03,8.720000000000000000e+03,0.000000000000000000e+00,0.000000000000000000e+00,0.000000000000000000e+00,0.000000000000000000e+00,7.308906751704980068e-07,1.062099905637376342e-09,5.974570698152394727e-07,1.024584228319296811e-09,7.308906751704980068e-07,1.062099905637376342e-09,7.308906751704980068e-07,1.062099905637376342e-09
8.720000000000000000e+03,8.760000000000000000e+03,0.000000000000000000e+00,0.000000000000000000e+00,0.000000000000000000e+00,0.000000000000000000e+00,7.948756405739815480e-07,1.012231557710468340e-09,6.439909714129366748e-07,9.778374741550743241e-10,7.948756405739815480e-07,1.012231557710468340e-09,7.948756405739815480e-07,1.012231557710468340e-09
8.760000000000000000e+03,8.800000000000000000e+03,0.000000000000000000e+00,0.000000000000000000e+00,0.000000000000000000e+00,0.000000000000000000e+00,8.608935924734481477e-07,9.968296229947355699e-10,6.892541225068975812e-07,9.590927082461780811e-10,8.608935924734481477e-07,9.968296229947355699e-10,8.608935924734481477e-07,9.968296229947355699e-10
8.800000000000000000e+03,8.840000000000000000e+03,0.000000000000000000e+00,0.000000000000000000e+00,0.000000000000000000e+00,0.000000000000000000e+00,9.347807909078011196e-07,9.680655232125187049e-10,7.389696329899694336e-07,9.175248783775878776e-10,9.347807909078011196e-07,9.680655232125187049e-10,9.347807909078011196e-07,9.680655232125187049e-10
8.840000000000000000e+03,8.880000000000000000e+03,0.000000000000000000e+00,0.000000000000000000e+00,0.000000000000000000e+00,0.000000000000000000e+00,1.014691021132372337e-06,9.950892293621794409e-10,7.897690584063191982e-07,9.472780123631010374e-10,1.014691021132372337e-06,9.950892293621794409e-10,1.014691021132372337e-06,9.950892293621794409e-10
8.880000000000000000e+03,8.920000000000000000e+03,0.000000000000000000e+00,0.000000000000000000e+00,0.000000000000000000e+00,0.000000000000000000e+00,1.104152226281753941e-06,1.083029875476597784e-09,8.441638683374771023e-07,1.019106419854612239e-09,1.104152226281753941e-06,1.083029875476597784e-09,1.104152226281753941e-06,1.083029875476597784e-09
8.920000000000000000e+03,8.960000000000000000e+03,0.000000000000000000e+00,0.000000000000000000e+00,0.000000000000000000e+00,0.000000000000000000e+00,1.200085976335902042e-06,1.102354166575173020e-09,9.015435542638242796e-07,1.046858320579136861e-09,1.200085976335902042e-06,1.102354166575173020e-09,1.200085976335902042e-06,1.102354166575173020e-09
8.960000000000000000e+03,9.000000000000000000e+03,0.000000000000000000e+00,0.000000000000000000e+00,0.000000000000000000e+00,0.000000000000000000e+00,1.297787016342109412e-06,1.060425745292478652e-09,9.583262316912351784e-07,1.005547323665867565e-09,1.297787016342109412e-06,1.060425745292478652e-09,1.297787016342109412e-06,1.060425745292478652e-09
9.000000000000000000e+03,9.040000000000000000e+03,0.000000000000000000e+00,0.000000000000000000e+00,0.000000000000000000e+00,0.000000000000000000e+00,1.397403458023742760e-06,1.009315526335884701e-09,1.015974984050286214e-06,9.433649400166989365e-10,1.397403458023742760e-06,1.009315526335884701e-09,1.397403458023742760e-06,1.009315526335884701e-09
9.040000000000000000e+03,9.080000000000000000e+03,0.000000000000000000e+00,0.000000000000000000e+00,0.000000000000000000e+00,0.000000000000000000e+00,1.501521964289163700e-06,1.120827346172047727e-09,1.079787380097162284e-06,1.057420066390047483e-09,1.501521964289163700e-06,1.120827346172047727e-09,1.501521964289163700e-06,1.120827346172047727e-09
9.080000000000000000e+03,9.120000000000000000e+03,0.000000000000000000e+00,0.000000000000000000e+00,0.000000000000000000e+00,0.000000000000000000e+00,1.589199081273581601e-06,1.069381494056480594e-09,1.135590721425651514e-06,1.008499026129762537e-09,1.589199081273581601e-06,1.069381494056480594e-09,1.589199081273581601e-06,1.069381494056480594e-09
9.120000000000000000e+03,9.160000000000000000e+03,0.000000000000000000e+00,0.000000000000000000e+00,0.000000000000000000e+00,0.000000000000000000e+00,1.686693541152128869e-06,1.099403671625637957e-09,1.199353233023775769e-06,1.022941823490036539e-09,1.686693541152128869e-06,1.099403671625637957e-09,1.686693541152128869e-06,1.099403671625637957e-09
9.160000000000000000e+03,9.200000000000000000e+03,0.000000000000000000e+00,0.000000000000000000e+00,0.000000000000000000e+00,0.000000000000000000e+00,1.794306649503526146e-06,1.085473797838755262e-09,1.269576933244849229e-06,1.003103657869553059e-09,1.794306649503526146e-06,1.085473797838755262e-09,1.794306649503526146e-06,1.085473797838755262e-09
9.200000000000000000e+03,9.240000000000000000e+03,0.000000000000000000e+00,0.000000000000000000e+00,0.000000000000000000e+00,0.000000000000000000e+00,1.910754428167513314e-06,1.231307902546115396e-09,1.345449432198705696e-06,1.169370896769388156e-09,1.910754428167513314e-06,1.231307902546115396e-09,1.910754428167513314e-06,1.231307902546115396e-09
9.240000000000000000e+03,9.280000000000000000e+03,0.000000000000000000e+00,0.000000000000000000e+00,0.000000000000000000e+00,0.000000000000000000e+00,2.042962219017085528e-06,1.250942852440032987e-09,1.431965995002917189e-06,1.184257283886207101e-09,2.042962219017085528e-06,1.250942852440032987e-09,2.042962219017085528e-06,1.250942852440032987e-09
9.280000000000000000e+03,9.320000000000000000e+03,0.000000000000000000e+00,0.000000000000000000e+00,0.000000000000000000e+00,0.000000000000000000e+00,2.190775876120232094e-06,1.258603279140306958e-09,1.528008416551002827e-06,1.169225015664127936e-09,2.190775876120232094e-06,1.258603279140306958e-09,2.190775876120232094e-06,1.258603279140306958e-09
9.320000000000000000e+03,9.360000000000000000e+03,0.000000000000000000e+00,0.000000000000000000e+00,0.000000000000000000e+00,0.000000000000000000e+00,2.353157079852657274e-06,1.217858458775632420e-09,1.631908535167968684e-06,1.116069113008207754e-09,2.353157079852657274e-06,1.217858458775632420e-09,2.353157079852657274e-06,1.217858458775632420e-09
9.360000000000000000e+03,9.400000000000000000e+03,0.000000000000000000e+00,0.000000000000000000e+00,0.000000000000000000e+00,0.000000000000000000e+00,2.539611633325667607e-06,1.313853968089958562e-09,1.753864523219559416e-06,1.194274162125563808e-09,2.539611633325667607e-06,1.313853968089958562e-09,2.539611633325667607e-06,1.313853968089958562e-09
9.400000000000000000e+03,9.440000000000000000e+03,0.000000000000000000e+00,0.000000000000000000e+00,0.000000000000000000e+00,0.000000000000000000e+00,2.750666878529452877e-06,1.363785735745050291e-09,1.889116905510484589e-06,1.240109158213539016e-09,2.750666878529452877e-06,1.363785735745050291e-09,2.750666878529452877e-06,1.363785735745050291e-09
9.440000000000000000e+03,9.480000000000000000e+03,0.000000000000000000e+00,0.000000000000000000e+00,0.000000000000000000e+00,0.000000000000000000e+00,2.994946909305092504e-06,1.484054465865867638e-09,2.046439245793619858e-06,1.386106226572195017e-09,2.994946909305092504e-06,1.484054465865867638e-09,2.994946909305092504e-06,1.484054465865867638e-09
9.480000000000000000e+03,9.520000000000000000e+03,0.000000000000000000e+00,0.000000000000000000e+00,0.000000000000000000e+00,0.000000000000000000e+00,3.278499064427107921e-06,1.465670242692397207e-09,2.228519658721107394e-06,1.327775035456425078e-09,3.278499064427107921e-06,1.465670242692397207e-09,3.278499064427107921e-06,1.465670242692397207e-09
9.520000000000000000e+03,9.560000000000000000e+03,0.000000000000000000e+00,0.000000000000000000e+00,0.000000000000000000e+00,0.000000000000000000e+00,3.611128208766895029e-06,1.522061093389187800e-09,2.442981672448297011e-06,1.361523749472531351e-09,3.611128208766895029e-06,1.522061093389187800e-09,3.611128208766895029e-06,1.522061093389187800e-09
9.560000000000000000e+03,9.600000000000000000e+03,0.000000000000000000e+00,0.000000000000000000e+00,0.000000000000000000e+00,0.000000000000000000e+00,4.012081457963760925e-06,1.706280658743238924e-09,2.699987587283775473e-06,1.501859478024406267e-09,4.012081457963760925e-06,1.706280658743238924e-09,4.012081457963760925e-06,1.706280658743238924e-09
9.600000000000000000e+03,9.640000000000000000e+03,0.000000000000000000e+00,0.000000000000000000e+00,0.000000000000000000e+00,0.000000000000000000e+00,4.491216115042859438e-06,1.737804308800150021e-09,3.005326525518364496e-06,1.477364431454970620e-09,4.491216115042859438e-06,1.737804308800150021e-09,4.491216115042859438e-06,1.737804308800150021e-09
9.640000000000000000e+03,9.680000000000000000e+03,0.000000000000000000e+00,0.000000000000000000e+00,0.000000000000000000e+00,0.000000000000000000e+00,5.088740426667698266e-06,1.812421696552105401e-09,3.387162988616996524e-06,1.543815133481489635e-09,5.088740426667698266e-06,1.812421696552105401e-09,5.088740426667698266e-06,1.812421696552105401e-09
9.680000000000000000e+03,9.720000000000000000e+03,0.000000000000000000e+00,0.000000000000000000e+00,0.000000000000000000e+00,0.000000000000000000e+00,5.849989534259277889e-06,1.987481250143571910e-09,3.873161633365837430e-06,1.626625528498821394e-09,5.849989534259277889e-06,1.987481250143571910e-09,5.849989534259277889e-06,1.987481250143571910e-09
9.720000000000000000e+03,9.760000000000000000e+03,0.000000000000000000e+00,0.000000000000000000e+00,0.000000000000000000e+00,0.000000000000000000e+00,6.836212859210629178e-06,2.197671935689704806e-09,4.498750818403912025e-06,1.694026337366591134e-09,6.836212859210629178e-06,2.197671935689704806e-09,6.836212859210629178e-06,2.197671935689704806e-09
9.760000000000000000e+03,9.800000000000000000e+03,0.000000000000000000e+00,0.000000000000000000e+00,0.000000000000000000e+00,0.000000000000000000e+00,8.193907539901006676e-06,2.405179902031401450e-09,5.365633924181003904e-06,1.930309972261947509e-09,8.193907539901006676e-06,2.405179902031401450e-09,8.193907539901006676e-06,2.405179902031401450e-09
9.800000000000000000e+03,9.840000000000000000e+03,0.000000000000000000e+00,0.000000000000000000e+00,0.000000000000000000e+00,0.000000000000000000e+00,1.017298628232730184e-05,2.693598138606830846e-09,6.620918586970891905e-06,2.034711321354459020e-09,1.017298628232730184e-05,2.693598138606830846e-09,1.017298628232730184e-05,2.693598138606830846e-09
9.840000000000000000e+03,9.880000000000000000e+03,0.000000000000000000e+00,0.000000000000000000e+00,0.000000000000000000e+00,0.000000000000000000e+00,1.330242232786257102e-05,3.571298327831039446e-09,8.608190331290644731e-06,2.439104100625631075e-09,1.330242232786257102e-05,3.571298327831039446e-09,1.330242232786257102e-05,3.571298327831039446e-09
9.880000000000000000e+03,9.920000000000000000e+03,0.000000000000000000e+00,0.000000000000000000e+00,0.000000000000000000e+00,0.000000000000000000e+00,1.900538037581906374e-05,3.972490653036622215e-09,1.222209923036131652e-05,2.558869809367707334e-09,1.900538037581906374e-05,3.972490653036622215e-09,1.900538037581906374e-05,3.972490653036622215e-09
9.920000000000000000e+03,9.960000000000000000e+03,0.000000000000000000e+00,0.000000000000000000e+00,0.000000000000000000e+00,0.000000000000000000e+00,3.295941377318594893e-05,5.828365577790847459e-09,2.106635221206177357e-05,3.438847667928417282e-09,3.295941377318594893e-05,5.828365577790847459e-09,3.295941377318594893e-05,5.828365577790847459e-09
9.960000000000000000e+03,1.000000000000000000e+04,4.321272818433035561e-04,4.367269319429987178e-09,3.498433985673494442e-04,2.260494153305117180e-09,2.720945365891315948e-04,4.322444011908421227e-07,2.436952969137072609e-04,1.946635726194621781e-07,2.700611648940738608e-04,4.322443927097400851e-07,2.572292028533605061e-04,4.322443644562778148e-07
