# xl,xh,LO,dLO,LOISC,dLOISC,NLO,dNLO,NLOISC,dNLOISC,NLOL,dNLOL,NLOnovp,dNLOnovp
9.999999999999997726e+02,1.040000000000000000e+03,4.780635245908767536e-06,1.236430647164893086e-09,3.857013416967739426e-06,8.953668244795007373e-10,4.821657108360958626e-06,4.089635115271273683e-09,3.889885999733591040e-06,3.271769644401049411e-09,4.813225952703626082e-06,4.089590028266786199e-09,4.677450632059965871e-06,4.089389568491273048e-09
1.040000000000000000e+03,1.080000000000000000e+03,4.838489873352051807e-06,1.136574252516931773e-09,3.885085044880871740e-06,8.291807005530031618e-10,4.876670091038338688e-06,4.009221230371085874e-09,3.919765725268369059e-06,3.349826183114923280e-09,4.867884463445709247e-06,4.009179649102465088e-09,4.730333106345371620e-06,4.008998436208057857e-09
1.080000000000000000e+03,1.120000000000000000e+03,4.888307288873240601e-06,1.161371247750998772e-09,3.908874763241900752e-06,8.551448170119001709e-10,4.922092326222469145e-06,4.937122826656034279e-09,3.940329586141571982e-06,3.749751756128918587e-09,4.912957530683652264e-06,4.937090444712645495e-09,4.773446257946275020e-06,4.936935566904679010e-09
1.120000000000000000e+03,1.160000000000000000e+03,4.937542621019160811e-06,1.141525691208025855e-09,3.930555124307789280e-06,8.901658765479292050e-10,4.967628398437593717e-06,5.479876798689859767e-09,3.962994349822623727e-06,4.914304336539104209e-09,4.958117130144573385e-06,5.479847330316360757e-09,4.816891758973821451e-06,5.479709749515752148e-09
1.160000000000000000e+03,1.200000000000000000e+03,4.987785784856639164e-06,1.148249022083710168e-09,3.953885918919130181e-06,8.944485237517265458e-10,5.017928209583232162e-06,4.412105402580562553e-09,3.986126854118758304e-06,3.648987575754104874e-09,5.008102006860270626e-06,4.412066929216727188e-09,4.865066237333152076e-06,4.411892406820970718e-09
1.200000000000000000e+03,1.240000000000000000e+03,5.032658898468854641e-06,1.177846954869776959e-09,3.974175272285198618e-06,8.964974069133692343e-10,5.056754692659089029e-06,4.614657958150099355e-09,4.004528447786636014e-06,3.690621660092134450e-09,5.046581739557456131e-06,4.614621846252672169e-09,4.901771338628148008e-06,4.614470863522769697e-09
1.240000000000000000e+03,1.280000000000000000e+03,5.077037601936207913e-06,1.109779321571148239e-09,3.990059840406312531e-06,8.326517194083269355e-10,5.094942493803187138e-06,4.979610754745016287e-09,4.020125868927524033e-06,4.203606536664704804e-09,5.084428439117704026e-06,4.979576339306208584e-09,4.937777259307916128e-06,4.979425566928862798e-09
1.280000000000000000e+03,1.320000000000000000e+03,5.123232456596698633e-06,1.081792336951672896e-09,4.007822341112813379e-06,8.186644727686337930e-10,5.138290027572864403e-06,4.763996875463934923e-09,4.040715427500080916e-06,3.757551877785162094e-09,5.127441196474682522e-06,4.763961467777198904e-09,4.979061698593245865e-06,4.763806766255125683e-09
1.320000000000000000e+03,1.360000000000000000e+03,5.166912794869880033e-06,1.094543757643239418e-09,4.025145687880209573e-06,8.025708626323167584e-10,5.177524331071094271e-06,4.878352672376068364e-09,4.051862237854672584e-06,3.736667551165636166e-09,5.166412236275539092e-06,4.878321033039312207e-09,5.016270174401781774e-06,4.878183585769489673e-09
1.360000000000000000e+03,1.400000000000000000e+03,5.211408201212425046e-06,1.176824358865811158e-09,4.040730118437982424e-06,8.993282902279006337e-10,5.216523096898799236e-06,5.529321031823060086e-09,4.071598569506237189e-06,4.831026815052963126e-09,5.205164199102890776e-06,5.529292737082271190e-09,5.053286064227661940e-06,5.529162716996291798e-09
1.400000000000000000e+03,1.440000000000000000e+03,5.255335954660525697e-06,1.149286397030258811e-09,4.056441966166982179e-06,8.793298220619660801e-10,5.257793302311966820e-06,4.558382367978854629e-09,4.085838320195075080e-06,3.731169727330229374e-09,5.246124318894266854e-06,4.558346488789627926e-09,5.092353136101480459e-06,4.558187038349148090e-09
1.440000000000000000e+03,1.480000000000000000e+03,5.301697221369837850e-06,1.110866675970529447e-09,4.072867827345279296e-06,8.107315500998359739e-10,5.291464033162742499e-06,4.686903207337003322e-09,4.097767104463256787e-06,3.650457567064293362e-09,5.279565303880867098e-06,4.686866256550164110e-09,5.124026713940355020e-06,4.686710174227801146e-09
1.480000000000000000e+03,1.520000000000000000e+03,5.347270216537179812e-06,1.149741507968846330e-09,4.087774663371751911e-06,8.441860349593889218e-10,5.328638250917420274e-06,4.914868318061863266e-09,4.112526969863673661e-06,3.808639337228296178e-09,5.316477937115034438e-06,4.914830452389437979e-09,5.159114103720517876e-06,4.914684160336754071e-09
1.520000000000000000e+03,1.560000000000000000e+03,5.389700743931900655e-06,1.133655002839455289e-09,4.100787758316225817e-06,8.670346082097309474e-10,5.367481446594473658e-06,4.890005804223833661e-09,4.128869268843791654e-06,3.534839276306153283e-09,5.355088884351927471e-06,4.889973334228062942e-09,5.195776937569248454e-06,4.889828912160769635e-09
1.560000000000000000e+03,1.600000000000000000e+03,5.435805745353683363e-06,1.130386400742089114e-09,4.116670858996484994e-06,8.144835855727709882e-10,5.399689839673256764e-06,4.497492021833597046e-09,4.140222847324047862e-06,3.669734827381606623e-09,5.387053239522984344e-06,4.497452954446377989e-09,5.225802394390998043e-06,4.497270799585120913e-09
1.600000000000000000e+03,1.640000000000000000e+03,5.481822012321025051e-06,1.129759857462024832e-09,4.131114670146311592e-06,8.094331901503518731e-10,5.438147810083111797e-06,5.451122166771180756e-09,4.154501685266971936e-06,4.110406886466657561e-09,5.425295988377976403e-06,5.451091968131062674e-09,5.262114647411628648e-06,5.450959674085164984e-09
1.640000000000000000e+03,1.680000000000000000e+03,5.530353449265351319e-06,1.078302777523906662e-09,4.146579121084800914e-06,7.306594548645332409e-10,5.468831824673102654e-06,5.147899638240009906e-09,4.169968514147583440e-06,4.384970096772501348e-09,5.455748900984686025e-06,5.147866025623796652e-09,5.290520447012686597e-06,5.147711168238663892e-09
1.680000000000000000e+03,1.720000000000000000e+03,5.578904609214613748e-06,1.130853801077045664e-09,4.162359790345628607e-06,7.849661786130507280e-10,5.506017508484827126e-06,5.114377692402985447e-09,4.184209426675356938e-06,3.909566413403703988e-09,5.492735905627969115e-06,5.114343444426704985e-09,5.325478636640388342e-06,5.114207985723751481e-09
1.720000000000000000e+03,1.760000000000000000e+03,5.631535447557133104e-06,1.130832253359981185e-09,4.180424917271729331e-06,8.177981270354726265e-10,5.537147306267253476e-06,5.521005839511626592e-09,4.196429856628689086e-06,4.786532103009903310e-09,5.523656731557181665e-06,5.520976668384158041e-09,5.354235356874854858e-06,5.520834313913988929e-09
1.760000000000000000e+03,1.800000000000000000e+03,5.682938750042197914e-06,1.193234944628834576e-09,4.196726677408229312e-06,8.816301870735327067e-10,5.560828756348363369e-06,4.805262639507863294e-09,4.207377307136149215e-06,3.455662009571429966e-09,5.547129426172919683e-06,4.805227516559336530e-09,5.375536145238173559e-06,4.805064184441317128e-09
1.800000000000000000e+03,1.840000000000000000e+03,5.737694625747730633e-06,1.131013059751259954e-09,4.214591374607207959e-06,7.859366950006417249e-10,5.589434026916968841e-06,6.396001145374499686e-09,4.225814628249424487e-06,4.455379782344280962e-09,5.575527914343192824e-06,6.395976175714861990e-09,5.401604777635651586e-06,6.395848649833047219e-09
1.840000000000000000e+03,1.880000000000000000e+03,5.792136057034702755e-06,1.136130259428580743e-09,4.232739189523496754e-06,7.967967929967727364e-10,5.606114786322658197e-06,4.860842767218261571e-09,4.238872256526727785e-06,3.588628892163672108e-09,5.592003431463742331e-06,4.860809842889043681e-09,5.415725993891088229e-06,4.860657309946285636e-09
1.880000000000000000e+03,1.920000000000000000e+03,5.849021795079262591e-06,1.133443764627426775e-09,4.252028041910952257e-06,8.123628951151305622e-10,5.614572609795473684e-06,5.088909423403221899e-09,4.251334672847328402e-06,3.916712208521534114e-09,5.600242485387290602e-06,5.088874297513195382e-09,5.421656421354185455e-06,5.088705712699566397e-09
1.920000000000000000e+03,1.960000000000000000e+03,5.907873550976748196e-06,1.151845020841823005e-09,4.271838149968573405e-06,8.279224806312168266e-10,5.611071831883509933e-06,6.143271548528561187e-09,4.272025380749409947e-06,4.389469186797468982e-09,5.596521832804200302e-06,6.143243014616876684e-09,5.415344513695314586e-06,6.143102811317059636e-09
1.960000000000000000e+03,2.000000000000000000e+03,5.965476768405602893e-06,1.407976314257185974e-09,4.294080978173640406e-06,8.393865097969485605e-10,5.510309589533345676e-06,6.773313575631173501e-09,4.273799486931957843e-06,3.810260205810680857e-09,5.495462312238972372e-06,6.773277539046199340e-09,5.311990594728353149e-06,6.773069547692569261e-09
2.000000000000000000e+03,2.040000000000000000e+03,5.309357003744722728e-06,1.190023052199009544e-09,4.285793536546356540e-06,8.798944795160947400e-10,5.045314037953441241e-06,4.633742075061926469e-09,4.259765563838746403e-06,4.099296554700385419e-09,5.022253853180473462e-06,4.633708700458953012e-09,4.865984286729819301e-06,4.633568502310840807e-09
2.040000000000000000e+03,2.080000000000000000e+03,4.991968331911198465e-06,8.919954401715458596e-10,4.259139737939263036e-06,7.882320597665892266e-10,4.841883390923788808e-06,4.892843447175527376e-09,4.237967929732314976e-06,4.440089980161667934e-09,4.815548276431813258e-06,4.892814972831627621e-09,4.672458715179475273e-06,4.892738988896527880e-09
2.080000000000000000e+03,2.120000000000000000e+03,4.848262532088036215e-06,8.707060309500336644e-10,4.230933896534012497e-06,7.978571550201087775e-10,4.731173343842628465e-06,4.123901388957565057e-09,4.209469100933751576e-06,3.806815623919025634e-09,4.703822045803676715e-06,4.123871568710424921e-09,4.566436594185502325e-06,4.123798810250784247e-09
2.120000000000000000e+03,2.160000000000000000e+03,4.752187841401814055e-06,9.135961657920650445e-10,4.206287969089000874e-06,8.615963822982409987e-10,4.652596417622006109e-06,4.254875602516519105e-09,4.186011378682199286e-06,3.964596242869760798e-09,4.624696360137530500e-06,4.254845384574985980e-09,4.491174283816482454e-06,4.254771478099774390e-09
2.160000000000000000e+03,2.200000000000000000e+03,4.677480889402478004e-06,8.498498182524758433e-10,4.182824059048352164e-06,7.990009038831254657e-10,4.593855430799868957e-06,3.445501799961735760e-09,4.163529816389873789e-06,3.079620178387494255e-09,4.565685683081865754e-06,3.445467544283010823e-09,4.435064802709348707e-06,3.445378484515296687e-09
2.200000000000000000e+03,2.240000000000000000e+03,4.618965308231735609e-06,8.900529790008677506e-10,4.162132480466619873e-06,8.468304359972183769e-10,4.541477506358992030e-06,4.031073366907915880e-09,4.141707130478017868e-06,3.680246737697147723e-09,4.513189015725983372e-06,4.031045259382287193e-09,4.384880356514806761e-06,4.030975495324447081e-09
2.240000000000000000e+03,2.280000000000000000e+03,4.567091570776085877e-06,8.235810990537660763e-10,4.140501500995305575e-06,7.775395684443624012e-10,4.499568371202758317e-06,3.760994482988739167e-09,4.125149764729677592e-06,3.496749115610782548e-09,4.471187891654769044e-06,3.760960737467162827e-09,4.344821366613614486e-06,3.760887766236420877e-09
2.280000000000000000e+03,2.320000000000000000e+03,4.524327087483812232e-06,8.189357113453497965e-10,4.122925647301882032e-06,7.834489290056036981e-10,4.464160512307522383e-06,3.118757979384277967e-09,4.108792122361828291e-06,2.738239252173416249e-09,4.435782971812487672e-06,3.118721741520683520e-09,4.311078870310723778e-06,3.118630294810431487e-09
2.320000000000000000e+03,2.360000000000000000e+03,4.485184730533402208e-06,8.438395285056673374e-10,4.104898062503796809e-06,8.093037588914506826e-10,4.428779903258552044e-06,3.557510238067881747e-09,4.091291188481981988e-06,3.095288913247640408e-09,4.400464464548954746e-06,3.557475402943693214e-09,4.277254119769714736e-06,3.557399139351064437e-09
2.360000000000000000e+03,2.400000000000000000e+03,4.450569106538207019e-06,8.084043227356341773e-10,4.088282596283822389e-06,7.758616659129855259e-10,4.397583876493203991e-06,3.071639962591947476e-09,4.074639396390725389e-06,2.553331322228671068e-09,4.369306266138880688e-06,3.071598128494286197e-09,4.247360584846493749e-06,3.071514398484421930e-09
2.400000000000000000e+03,2.440000000000000000e+03,4.419358028800729245e-06,8.018265996991087745e-10,4.072205945759109678e-06,7.709643178399440839e-10,4.368415586846345123e-06,3.353946980342710205e-09,4.057583139418908455e-06,2.734884946584622842e-09,4.340207918437727671e-06,3.353917587815004637e-09,4.219458013429547405e-06,3.353836214337914571e-09
2.440000000000000000e+03,2.480000000000000000e+03,4.394710038361615122e-06,8.044811388992909304e-10,4.061351009047757665e-06,7.697621631219263975e-10,4.347861133576958879e-06,2.564695241838634667e-09,4.046888859540189002e-06,2.082128965182879672e-09,4.319763126985623619e-06,2.564648780174138242e-09,4.199999991263662817e-06,2.564556495714000676e-09
2.480000000000000000e+03,2.520000000000000000e+03,4.369571792364874490e-06,7.858059849875186725e-10,4.047877228630177064e-06,7.501813204280373006e-10,4.326245238821911818e-06,2.696081174933310654e-09,4.036993530594917495e-06,1.891993482124316023e-09,4.298246338088423406e-06,2.696033875449834713e-09,4.179394818240607125e-06,2.695943588410699596e-09
2.520000000000000000e+03,2.560000000000000000e+03,4.347724610922113965e-06,8.393417760891076286e-10,4.036785031394378175e-06,8.109034307358795590e-10,4.303459886428096308e-06,2.826595404889804905e-09,4.022179322942711629e-06,2.196779933043947557e-09,4.275568149573343644e-06,2.826557638885345215e-09,4.157543258801197887e-06,2.826477914080591915e-09
2.560000000000000000e+03,2.600000000000000000e+03,4.328444581639651932e-06,7.756386906890159914e-10,4.027030509813699841e-06,7.438368012807128869e-10,4.292781245523768169e-06,2.927897360417487172e-09,4.017411340301796902e-06,2.507662448921218713e-09,4.264976621322322755e-06,2.927859543696561257e-09,4.147671683888719667e-06,2.927774014035980874e-09
2.600000000000000000e+03,2.640000000000000000e+03,4.313299159323175128e-06,8.296186001857521371e-10,4.019838373044383894e-06,8.055941357874105145e-10,4.273182082624129479e-06,3.334781043770345498e-09,4.006646915935949311e-06,2.610814798513823912e-09,4.245458200080690306e-06,3.334746317425316005e-09,4.128785889609215872e-06,3.334671535008624947e-09
2.640000000000000000e+03,2.680000000000000000e+03,4.297528858866794447e-06,7.770416398531833020e-10,4.011948520221231778e-06,7.466821444324139873e-10,4.258289448489281176e-06,3.567827511246777435e-09,3.997892392401421423e-06,3.285069857704341679e-09,4.230653772372401019e-06,3.567800407290483040e-09,4.114551309329167000e-06,3.567727434101950164e-09
2.680000000000000000e+03,2.720000000000000000e+03,4.285217121129386637e-06,8.367916490593183901e-10,4.006081749239718194e-06,8.111291665603612191e-10,4.250739101278773028e-06,3.653780048931426357e-09,3.996167100979056205e-06,3.203807111713945601e-09,4.223185568005149771e-06,3.653752122136935971e-09,4.107585786651393076e-06,3.653687527505050788e-09
2.720000000000000000e+03,2.760000000000000000e+03,4.273788129364845134e-06,8.082403487432949982e-10,4.001150498319114281e-06,7.806375648797433598e-10,4.238587679585455882e-06,3.932361475525313362e-09,3.990226637671705909e-06,3.413873429752848459e-09,4.211109131249604931e-06,3.932335298544015959e-09,4.095917717815054736e-06,3.932272441705527537e-09
2.760000000000000000e+03,2.800000000000000000e+03,4.265733728963744809e-06,8.128101725685291237e-10,3.998263760100552284e-06,7.866854929828233900e-10,4.231756539600353952e-06,4.836760694435060921e-09,3.985759362190466150e-06,4.610717534816445579e-09,4.204382861365859273e-06,4.836738862463715141e-09,4.089532458987526261e-06,4.836687879306005227e-09
2.800000000000000000e+03,2.840000000000000000e+03,4.259427656682517747e-06,8.016330467909281968e-10,3.996668938669359289e-06,7.715628814328926934e-10,4.221656352702765257e-06,4.682013982127666520e-09,3.982213466835122077e-06,4.155054272881071970e-09,4.194321924632313620e-06,4.681992399255686569e-09,4.079736760836357396e-06,4.681944935122100365e-09
2.840000000000000000e+03,2.880000000000000000e+03,4.253631681540418313e-06,7.559530052644192499e-10,3.994672905911899920e-06,7.288622785000948262e-10,4.221863641165854881e-06,4.049016262499879222e-09,3.983959541500164462e-06,3.498832752234216956e-09,4.194573560373206372e-06,4.048990997106450255e-09,4.080196902723617183e-06,4.048930705751170711e-09
2.880000000000000000e+03,2.920000000000000000e+03,4.250099176351116070e-06,8.221087659406070784e-10,3.994820255369229873e-06,7.942831888744609392e-10,4.215180642957562041e-06,3.464952545353247664e-09,3.980702053097473580e-06,3.130103966946496146e-09,4.187954088306523300e-06,3.464923488242739678e-09,4.073759276229086776e-06,3.464862314704297448e-09
2.920000000000000000e+03,2.960000000000000000e+03,4.250209756924850507e-06,8.169322601827221577e-10,3.997903697358148872e-06,7.878290183696369757e-10,4.216005481948921518e-06,3.700275667209254649e-09,3.982547259725242315e-06,3.429635713179666016e-09,4.188779319636908289e-06,3.700243566625965452e-09,4.074663561103912718e-06,3.700184536082915880e-09
2.960000000000000000e+03,3.000000000000000000e+03,4.249822355011900224e-06,8.235304418157538243e-10,4.000004711186950833e-06,7.962830861448701378e-10,4.215924569810311765e-06,5.468661760609883157e-09,3.985623751381803362e-06,5.244409193766779916e-09,4.188740259078866231e-06,5.468643080860263616e-09,4.074643225093138382e-06,5.468600268910275238e-09
3.000000000000000000e+03,3.040000000000000000e+03,4.252530678136501954e-06,8.973208258784516590e-10,4.005247422309545299e-06,8.722430943799133731e-10,4.214159731730370214e-06,4.587219262638980176e-09,3.986068483684162872e-06,4.313103611989799588e-09,4.187009811312648343e-06,4.587195796119523222e-09,4.072924913722269712e-06,4.587142301404660887e-09
3.040000000000000000e+03,3.080000000000000000e+03,4.256185217467259860e-06,7.396004783259931091e-10,4.010530257451041589e-06,7.091973358141068263e-10,4.214678981155931514e-06,5.338557439282573422e-09,3.988140062818630916e-06,4.963721253763137722e-09,4.187538791802652586e-06,5.338538473101712707e-09,4.073367099249961134e-06,5.338490685964023468e-09
3.080000000000000000e+03,3.120000000000000000e+03,4.263168065166495118e-06,8.264521552926548042e-10,4.018852856176370737e-06,8.006111865033635345e-10,4.224944195877512901e-06,4.755465676932120395e-09,3.999857998574565233e-06,4.475468389391629461e-09,4.197797311310701798e-06,4.755444001349159189e-09,4.083478638755512484e-06,4.755389074686423037e-09
3.120000000000000000e+03,3.160000000000000000e+03,4.269940300996907435e-06,8.097748132980633072e-10,4.026464232453645611e-06,7.794133689858922016e-10,4.223298719160616913e-06,4.575940807732500978e-09,3.997908837515160416e-06,4.277235684324635275e-09,4.196116198783608009e-06,4.575918764778281922e-09,4.081513975234279351e-06,4.575862003430563437e-09
3.160000000000000000e+03,3.200000000000000000e+03,4.277337633423989265e-06,8.203222786889060518e-10,4.034771765379367278e-06,7.928672455031793471e-10,4.227343563832877235e-06,5.362447486221883997e-09,4.000040816439633465e-06,5.110479009892961434e-09,4.200126052069883483e-06,5.362427085151200552e-09,4.085297386781188127e-06,5.362382138803193591e-09
3.200000000000000000e+03,3.240000000000000000e+03,4.289590698315059314e-06,8.319474755947155925e-10,4.046281956649471718e-06,8.058112664603606760e-10,4.243727269314217298e-06,4.703363175723033154e-09,4.015834096991636470e-06,4.376149679035667725e-09,4.216437753613533099e-06,4.703338116486666065e-09,4.101223785471430585e-06,4.703283746631266705e-09
3.240000000000000000e+03,3.280000000000000000e+03,4.302319982318610743e-06,7.919751308169744524e-10,4.058623202626497415e-06,7.635992357132653662e-10,4.246825023046416952e-06,5.120916495759278114e-09,4.019453550235905952e-06,4.876754468527721489e-09,4.219448271103574423e-06,5.120893589598142580e-09,4.103784139148712467e-06,5.120849538578798832e-09
3.280000000000000000e+03,3.320000000000000000e+03,4.318418715711086955e-06,8.154346866969654004e-10,4.073135051244971461e-06,7.860155430503891120e-10,4.266685481607201826e-06,4.599558944838546691e-09,4.036623433477799649e-06,4.340435762102909103e-09,4.239192748627565394e-06,4.599534227122961358e-09,4.123048631136146221e-06,4.599476999318151917e-09
3.320000000000000000e+03,3.360000000000000000e+03,4.336009218355386916e-06,8.336031028187133233e-10,4.089232956543725132e-06,8.005849593251898917e-10,4.270974488225824969e-06,4.173188985539974887e-09,4.040718301856227826e-06,3.688543993448118879e-09,4.243348559230302498e-06,4.173159064303092437e-09,4.126648897468984606e-06,4.173097590386272884e-09
3.360000000000000000e+03,3.400000000000000000e+03,4.353724991044929219e-06,8.455864119135621021e-10,4.105140972130060913e-06,8.181731167475611111e-10,4.281690317829257477e-06,5.732328313047320879e-09,4.051389031829080503e-06,4.549623966251377064e-09,4.253954793396352201e-06,5.732305189956484825e-09,4.136609801394728154e-06,5.732255856963666448e-09
3.400000000000000000e+03,3.440000000000000000e+03,4.372368675615389587e-06,8.787727754808033960e-10,4.122095757143835995e-06,8.482214140630507514e-10,4.291710126805325489e-06,3.739006346039211869e-09,4.060490038329616086e-06,3.252774090368647462e-09,4.263818911858845074e-06,3.738976934942492689e-09,4.145798785839976646e-06,3.738905728168901369e-09
3.440000000000000000e+03,3.480000000000000000e+03,4.397915763141784388e-06,8.583787301938559966e-10,4.145134285834662124e-06,8.290388237952840239e-10,4.307517759555325380e-06,5.049156292551627798e-09,4.072837732731215874e-06,4.488045164298770349e-09,4.279417832776462766e-06,5.049135548877654490e-09,4.160616768414967659e-06,5.049083485895818215e-09
3.480000000000000000e+03,3.520000000000000000e+03,4.420407106100588768e-06,8.899718333190941194e-10,4.165790294748530364e-06,8.573822166384641925e-10,4.319491199976978651e-06,4.137611057087457680e-09,4.085544871725008457e-06,3.621059666219901525e-09,4.291248067666219866e-06,4.137582633638457349e-09,4.171688734155321505e-06,4.137516591887413889e-09
3.520000000000000000e+03,3.560000000000000000e+03,4.444057000570317681e-06,8.491079806725102193e-10,4.186336203744900449e-06,8.168534110261152939e-10,4.323938117895540305e-06,4.631788342415346953e-09,4.090978015982730022e-06,4.239170107713391780e-09,4.295468978756574607e-06,4.631763132035582118e-09,4.175026887259311157e-06,4.631706087938834326e-09
3.560000000000000000e+03,3.600000000000000000e+03,4.471068908490182767e-06,9.374029055782400953e-10,4.209573008220651051e-06,9.068342546043256939e-10,4.340245800319154055e-06,4.404368862234736010e-09,4.102513462327827187e-06,3.915245446833380041e-09,4.311556584809569943e-06,4.404339788499405248e-09,4.190226208656555053e-06,4.404272990280165674e-09
3.600000000000000000e+03,3.640000000000000000e+03,4.498169583404306475e-06,8.922160021910835829e-10,4.232969175666850038e-06,8.567909648962924923e-10,4.343599571380751093e-06,4.580100724773318347e-09,4.107981726719147367e-06,3.961752536531151138e-09,4.314662974909138362e-06,4.580070601530392152e-09,4.192350055209846977e-06,4.580005728997107190e-09
3.640000000000000000e+03,3.680000000000000000e+03,4.528234992419474426e-06,9.087391165696116022e-10,4.258653472785829075e-06,8.737414535858096240e-10,4.351666712532217628e-06,4.892760341962402698e-09,4.112873229044773548e-06,3.500903868836767597e-09,4.322524345450273631e-06,4.892735537020432347e-09,4.199220125711054104e-06,4.892681440485514392e-09
3.680000000000000000e+03,3.720000000000000000e+03,4.558122885260944949e-06,9.154886730706664661e-10,4.283800738360869382e-06,8.773901853839063135e-10,4.360919864758581630e-06,4.201663482547529280e-09,4.121137058828103228e-06,3.701204020867533500e-09,4.331518493677683966e-06,4.201630071901808374e-09,4.207111352117088347e-06,4.201563964406728589e-09
3.720000000000000000e+03,3.760000000000000000e+03,4.590669925360675104e-06,9.438134379433031826e-10,4.310732813179470606e-06,9.054295750858945527e-10,4.360660143388104959e-06,4.738057982539134878e-09,4.120081148263553839e-06,4.021822167089133664e-09,4.330994720967154105e-06,4.738035104790623546e-09,4.205482469029330685e-06,4.737969486712260982e-09
3.760000000000000000e+03,3.800000000000000000e+03,4.620761515752389008e-06,9.392223853009158624e-10,4.335354729140202192e-06,9.011745893024077525e-10,4.348275068106195194e-06,5.191760415717439963e-09,4.105665920504073085e-06,4.608253289487487639e-09,4.318348167554803762e-06,5.191734604236833199e-09,4.191669930163150414e-06,5.191679231018137829e-09
3.800000000000000000e+03,3.840000000000000000e+03,4.654989450500011131e-06,9.051505290881366744e-10,4.362445793559756148e-06,8.564004613700057317e-10,4.347644796328099025e-06,3.944689770628393355e-09,4.101800030619773748e-06,3.295361405550630182e-09,4.317464612081229312e-06,3.944655569436319238e-09,4.189570714445363938e-06,3.944570447509850000e-09
3.840000000000000000e+03,3.880000000000000000e+03,4.688410209888325753e-06,9.084402460295199232e-10,4.389249422871289609e-06,8.648945697056241913e-10,4.312020743058738278e-06,4.195656899494820751e-09,4.069997801127841796e-06,3.623021686474629897e-09,4.281549791850847445e-06,4.195621135599115568e-09,4.152387769061440635e-06,4.195549468179676534e-09
3.880000000000000000e+03,3.920000000000000000e+03,4.723735468969160378e-06,9.070718297709291168e-10,4.416275273177228041e-06,8.631199792477513291e-10,4.279979875635954505e-06,4.221285251206529927e-09,4.034458104644524880e-06,3.579740915233146986e-09,4.249235784169294898e-06,4.221250444767396702e-09,4.118732868564157252e-06,4.221178592298086642e-09
3.920000000000000000e+03,3.960000000000000000e+03,4.759986260594587358e-06,9.264866963515308514e-10,4.442890556838136878e-06,8.804176728670994141e-10,4.210777447193882897e-06,3.914613190772046473e-09,3.969323786587679869e-06,3.126776635190678608e-09,4.179777541037013583e-06,3.914573847232264883e-09,4.047876779663764210e-06,3.914486911494266912e-09
3.960000000000000000e+03,4.000000000000000000e+03,4.773586710967717978e-06,9.718322363635605789e-10,4.446377428454304608e-06,9.274647832806032871e-10,4.013024829560807510e-06,4.076105247126990011e-09,3.785172028103255384e-06,3.546434677334932311e-09,3.981620807143014641e-06,4.076068751496660878e-09,3.848713758243426500e-06,4.075979688530100760e-09
4.000000000000000000e+03,4.040000000000000000e+03,3.504351405530744992e-06,7.853125650006583334e-10,3.170450907181679116e-06,7.278312302656958488e-10,3.064216256480029582e-06,2.345858537383230793e-09,2.820184530710504061e-06,1.427908213336885233e-09,3.025881381856010035e-06,2.345800067294344336e-09,2.916614795331057473e-06,2.345674972537051694e-09
4.040000000000000000e+03,4.080000000000000000e+03,2.955731956276451026e-06,7.064151388594843934e-10,2.617354187853893136e-06,6.488196817484380896e-10,2.684206550386609876e-06,1.933956515790325678e-09,2.414631721002121301e-06,1.303591211907269274e-09,2.649056260319482105e-06,1.933891336450943119e-09,2.552569736689911553e-06,1.933753279226544766e-09
4.080000000000000000e+03,4.120000000000000000e+03,2.730222753183061164e-06,7.457985391880879619e-10,2.384664699259230376e-06,6.768318655934301905e-10,2.517143356484235763e-06,1.979231068690354310e-09,2.227650221543371239e-06,1.190693203087035499e-09,2.484109171250275774e-06,1.979179627211156005e-09,2.393325958521931491e-06,1.979056743624025443e-09
4.120000000000000000e+03,4.160000000000000000e+03,2.588474384357994781e-06,7.269412717921573615e-10,2.234429444759736275e-06,6.605206139612188936e-10,2.403096818980116663e-06,1.808104017820527059e-09,2.098294381198882212e-06,1.209967139492977357e-09,2.371052947137543476e-06,1.808040806126144636e-09,2.283958696680131623e-06,1.807917935369928303e-09
4.160000000000000000e+03,4.200000000000000000e+03,2.490004010820319034e-06,6.570450765923448086e-10,2.126711251932485603e-06,5.879652073858266277e-10,2.327930766442647335e-06,1.688103570493041596e-09,2.005484767504309881e-06,1.109818173604237186e-09,2.297026116447285133e-06,1.688035702973234919e-09,2.212485064138465345e-06,1.687899524514985529e-09
4.200000000000000000e+03,4.240000000000000000e+03,2.415842473117888388e-06,6.589940485272790189e-10,2.041007219929862665e-06,5.982396596226508847e-10,2.264183659679557144e-06,1.748298138791192413e-09,1.925533325003239586e-06,1.219463483218890468e-09,2.234109905090679282e-06,1.748233195637063628e-09,2.151562693725996127e-06,1.748117261922884269e-09
4.240000000000000000e+03,4.280000000000000000e+03,2.357963046499063459e-06,6.371818059751585117e-10,1.969686220581092081e-06,5.683435077193167912e-10,2.217692646189981620e-06,1.741476262787661070e-09,1.858944181410145815e-06,1.110955867415827449e-09,2.188385637802813988e-06,1.741410496173288614e-09,2.107332305560012770e-06,1.741282359647748420e-09
4.280000000000000000e+03,4.320000000000000000e+03,2.309296540205489989e-06,6.254771526151729860e-10,1.906450836955156746e-06,5.540878471833177001e-10,2.178615944410468792e-06,1.933859246972341474e-09,1.799149734907643927e-06,1.176292295188706643e-09,2.149903732922867740e-06,1.933806239552845357e-09,2.070077112267378521e-06,1.933699391363843838e-09
4.320000000000000000e+03,4.360000000000000000e+03,2.266588612977087038e-06,6.285272668189477470e-10,1.847225540153897177e-06,5.548521653542655635e-10,2.143387450866680822e-06,1.771764830943398971e-09,1.740898376126317352e-06,1.110741157915002168e-09,2.115239953944638323e-06,1.771703810782842085e-09,2.036439246069920830e-06,1.771585610976458762e-09
4.360000000000000000e+03,4.400000000000000000e+03,2.229058700085800281e-06,6.471415637063481930e-10,1.790494841793656609e-06,5.651456601901579242e-10,2.112574484297328983e-06,1.664062355565310106e-09,1.683986131171120429e-06,1.037478291763271394e-09,2.084853051117116057e-06,1.663983920085456407e-09,2.006891736466726474e-06,1.663871696297179432e-09
4.400000000000000000e+03,4.440000000000000000e+03,2.200009668118859082e-06,6.038722868441385316e-10,1.738142059436366311e-06,5.191648204870738887e-10,2.091791316069275306e-06,2.338708805670973379e-09,1.633081520539745876e-06,1.112144959674368375e-09,2.064213228079381164e-06,2.338655474995199119e-09,1.986802312640774177e-06,2.338559724123704870e-09
4.440000000000000000e+03,4.480000000000000000e+03,2.175522899803331893e-06,6.043806083919447215e-10,1.686685677299373114e-06,5.190272243760217437e-10,2.078954284815310392e-06,1.725824803700860884e-09,1.582414733322382285e-06,1.184181224281764365e-09,2.050191136089853581e-06,1.725766248615848459e-09,1.973203676581780140e-06,1.725649488696028072e-09
4.480000000000000000e+03,4.520000000000000000e+03,2.158657829773436366e-06,6.304810932488779744e-10,1.637159541160385324e-06,5.503325552360073557e-10,2.069007260834197522e-06,1.742809037614255776e-09,1.531053511597852443e-06,1.070110475682315733e-09,2.042187826108186224e-06,1.742759299759942334e-09,1.965352903218587654e-06,1.742649582946009506e-09
4.520000000000000000e+03,4.560000000000000000e+03,2.149921573257943726e-06,6.045111481665594131e-10,1.590904291057224791e-06,5.225003583137225858e-10,2.068594851590280788e-06,1.846029142482396086e-09,1.481950728833597680e-06,9.919365220556143355e-10,2.043725300325535403e-06,1.845980491396763100e-09,1.966660327274582595e-06,1.845869254079080433e-09
4.560000000000000000e+03,4.600000000000000000e+03,2.149569957710307748e-06,6.139143286604861095e-10,1.543974439733909033e-06,5.281950331954014812e-10,2.077723870449805844e-06,1.686385089674102886e-09,1.431638569062610794e-06,1.058026835666096266e-09,2.054266773195925528e-06,1.686334035296339927e-09,1.976665333533549007e-06,1.686223085238504693e-09
4.600000000000000000e+03,4.640000000000000000e+03,2.160947884496203744e-06,6.427462825066812539e-10,1.499344492595369103e-06,5.492868543555708020e-10,2.099507095106937891e-06,1.649992697311013919e-09,1.385049167478934266e-06,1.039750780718447941e-09,2.077219856658060130e-06,1.649935436637640621e-09,1.998538412166292060e-06,1.649821062303947156e-09
4.640000000000000000e+03,4.680000000000000000e+03,2.187692925038288741e-06,5.855231643676627074e-10,1.455705058687514855e-06,4.894629025662552420e-10,2.136490230266272565e-06,2.051483166661801268e-09,1.338210761663890366e-06,1.033743995107699848e-09,2.114869132066908098e-06,2.051440411029353136e-09,2.034488616153235418e-06,2.051348035521744986e-09
4.680000000000000000e+03,4.720000000000000000e+03,2.236089181776597182e-06,6.055327868424455272e-10,1.414463305986118456e-06,4.946458814394590741e-10,2.195630587730056307e-06,2.137232709524359512e-09,1.291914784533383974e-06,1.001436090602015393e-09,2.176026675970105451e-06,2.137196060803109913e-09,2.093074697221416033e-06,2.137087475608154903e-09
4.720000000000000000e+03,4.760000000000000000e+03,2.315794073252403871e-06,5.955580986829008590e-10,1.376636906452034720e-06,4.790850228467851862e-10,2.285960482518296725e-06,2.099784145872669052e-09,1.247752647243584024e-06,9.925711646546296934e-10,2.268625879521700019e-06,2.099751523594611849e-09,2.181792989410179828e-06,2.099651497978154632e-09
4.760000000000000000e+03,4.800000000000000000e+03,2.442758474650481137e-06,6.251991728208181303e-10,1.343874786595154544e-06,4.850876528203276187e-10,2.424208130272047997e-06,1.894282856144201509e-09,1.205596052659930167e-06,9.701325195907303640e-10,2.409226597249750601e-06,1.894238831512911091e-09,2.316637557618456186e-06,1.894115428700181394e-09
4.800000000000000000e+03,4.840000000000000000e+03,2.644835280380176063e-06,6.395676980793085234e-10,1.313129449984826116e-06,4.695641581877387871e-10,2.632883125797431024e-06,2.203851301434029670e-09,1.163673808451711487e-06,1.025722766075378081e-09,2.620942708641016421e-06,2.203816943925805766e-09,2.519484428992487167e-06,2.203707013332972647e-09
4.840000000000000000e+03,4.880000000000000000e+03,2.990169841268890979e-06,6.873444936247830655e-10,1.286414883506995350e-06,4.907279623164778752e-10,2.980033405264698855e-06,2.466586756282818969e-09,1.118950843902533390e-06,9.524546917977126178e-10,2.972993707651988678e-06,2.466553331965208745e-09,2.856721935333789590e-06,2.466428076707870234e-09
4.880000000000000000e+03,4.920000000000000000e+03,3.653981290679982143e-06,7.791452492709030300e-10,1.263873461519803006e-06,4.776064533952284542e-10,3.608518729713380800e-06,3.163916758006304897e-09,1.071506875719689680e-06,1.208021228523214218e-09,3.610128135920436881e-06,3.163890222109849954e-09,3.465870488758375089e-06,3.163768154088306216e-09
4.920000000000000000e+03,4.960000000000000000e+03,5.316858744024271863e-06,9.714256824096389694e-10,1.247277132007339072e-06,4.726026871686677704e-10,5.022662658701743144e-06,5.102597903833862499e-09,1.007932740579105507e-06,9.764982202713741982e-10,5.044693094807691547e-06,5.102577844951683334e-09,4.830484034569365445e-06,5.102445170432258206e-09
4.960000000000000000e+03,5.000000000000000000e+03,1.770641242599626413e-05,3.188010628149616150e-09,1.169997897032356357e-06,4.088289824531936127e-10,1.038645409572048329e-05,1.407095913548240465e-08,8.104900947739973961e-07,9.250705410037530862e-10,1.056506573100523992e-05,1.407089814155720293e-08,9.830462325255253980e-06,1.407017308019968852e-08
