# xl,xh,LO,dLO,LOISC,dLOISC,NLO,dNLO,NLOISC,dNLOISC,NLOL,dNLOL,NLOnovp,dNLOnovp
9.999999999999997726e+02,1.040000000000000000e+03,4.836946063383800929e-06,1.247372511731260711e-09,3.858533336925890232e-06,9.162190722276364318e-10,4.872202688064619431e-06,4.550625765542364218e-09,3.891848548148895772e-06,3.882440804599191551e-09,4.863688406635579000e-06,4.550592773500123186e-09,4.726033987465906117e-06,4.550412228729122616e-09
1.040000000000000000e+03,1.080000000000000000e+03,4.886858985027871980e-06,1.158675334918529923e-09,3.886293017206652255e-06,8.894066082768359879e-10,4.920300417354211666e-06,5.362317629524538379e-09,3.916897075949248025e-06,4.802335767684724525e-09,4.911410978659583615e-06,5.362286635137265764e-09,4.772004360093295539e-06,5.362151003611965669e-09
1.080000000000000000e+03,1.120000000000000000e+03,4.931097680084610279e-06,1.101159982937983475e-09,3.907683230970317983e-06,7.994767704946085094e-10,4.959703912046579114e-06,4.717604739542952463e-09,3.939560571979131713e-06,4.075166573734216634e-09,4.950449060218686701e-06,4.717572213395117740e-09,4.809323688168885041e-06,4.717428025297150268e-09
1.120000000000000000e+03,1.160000000000000000e+03,4.978307557867059810e-06,1.133092426079289144e-09,3.932027383402825703e-06,8.704651205688982943e-10,5.004122276275704138e-06,4.268624838155225667e-09,3.960912055084055162e-06,3.432118556419113756e-09,4.994529218323580243e-06,4.268585503471138798e-09,4.851789801250750158e-06,4.268419133004026007e-09
1.160000000000000000e+03,1.200000000000000000e+03,5.024015343141865266e-06,1.144709380741946060e-09,3.953714197675436443e-06,8.685605175680976716e-10,5.048094047365363537e-06,4.629490068714213920e-09,3.988196145642039205e-06,3.392456315528430181e-09,5.038142253878030067e-06,4.629454205803660135e-09,4.893759607334996619e-06,4.629308547659821225e-09
1.200000000000000000e+03,1.240000000000000000e+03,5.065430859259151479e-06,1.170421565492522382e-09,3.972282186571843411e-06,9.007601133910518127e-10,5.085866030174383435e-06,4.870511645395145165e-09,4.001229044723636151e-06,4.118938598025576761e-09,5.075566350601690980e-06,4.870474828924020255e-09,4.929457218693514589e-06,4.870332382580500274e-09
1.240000000000000000e+03,1.280000000000000000e+03,5.109728020673378455e-06,1.119984188394130114e-09,3.992858719278798558e-06,8.457421794886478119e-10,5.125994896040692141e-06,4.221283779609821398e-09,4.025488283786935743e-06,3.192295656158065688e-09,5.115355036773121832e-06,4.221248225237309360e-09,4.967590725056082698e-06,4.221074306034536419e-09
1.280000000000000000e+03,1.320000000000000000e+03,5.151536231741953816e-06,1.130063087536018417e-09,4.008279713242705235e-06,8.352645568913763804e-10,5.165263995201284950e-06,5.991962867970013806e-09,4.041181429125689342e-06,5.127203945701103328e-09,5.154297221274557168e-06,5.991937494335158544e-09,5.004826586348830627e-06,5.991808244402463079e-09
1.320000000000000000e+03,1.360000000000000000e+03,5.194880520059669740e-06,1.128044225084665107e-09,4.025465764841504092e-06,8.567215462779112984e-10,5.202582872501389803e-06,5.323380028283873824e-09,4.055584651879934341e-06,4.447377374379288623e-09,5.191366719759071164e-06,5.323350706443884253e-09,5.040245534910048643e-06,5.323221129745833471e-09
1.360000000000000000e+03,1.400000000000000000e+03,5.234638503965997292e-06,1.139537206906660033e-09,4.040348471968914481e-06,8.087606431958825700e-10,5.232020764870359798e-06,5.095246210026549220e-09,4.067928801683573610e-06,4.273273460869785146e-09,5.220544594549438948e-06,5.095213962435946492e-09,5.067706595685661402e-06,5.095073988062963919e-09
1.400000000000000000e+03,1.440000000000000000e+03,5.277545312969896685e-06,1.164664547350210444e-09,4.056130210037609228e-06,8.543626601696932021e-10,5.278027757416423324e-06,5.706176023706020907e-09,4.087898606234715890e-06,4.840214347698324780e-09,5.266302653229337634e-06,5.706146436550966677e-09,5.111686273219631601e-06,5.706021269939531216e-09
1.440000000000000000e+03,1.480000000000000000e+03,5.318848159241855545e-06,1.174493339467685633e-09,4.070222621654686388e-06,8.816304223048186227e-10,5.302240116580757203e-06,4.968803466765528172e-09,4.095560412106890668e-06,3.983195359603199875e-09,5.290228000576201477e-06,4.968770133250709334e-09,5.133939036107310422e-06,4.968614825174378520e-09
1.480000000000000000e+03,1.520000000000000000e+03,5.364683215415657128e-06,1.211884186147134990e-09,4.087343984741945080e-06,9.134119052683469650e-10,5.345902877630563606e-06,5.283429115178364243e-09,4.115994814009086220e-06,4.039512197728571261e-09,5.333634555170438430e-06,5.283401992406644095e-09,5.175449665710522246e-06,5.283255696890678212e-09
1.520000000000000000e+03,1.560000000000000000e+03,5.408655482773372066e-06,1.148511122077266229e-09,4.102341988432604229e-06,8.342551147081732914e-10,5.378435347747002208e-06,5.704322549621321256e-09,4.129372788145266765e-06,4.824704795082528280e-09,5.365943005616033285e-06,5.704292925581036124e-09,5.206005734970785783e-06,5.704173262496423443e-09
1.560000000000000000e+03,1.600000000000000000e+03,5.453320436067780388e-06,1.096696050646865506e-09,4.117270899765739754e-06,7.785601095106589972e-10,5.413568532102922044e-06,4.637636635173320111e-09,4.143224116280594289e-06,3.589465650155059423e-09,5.400845883094632770e-06,4.637603038347786228e-09,5.238937872194909153e-06,4.637442702748258881e-09
1.600000000000000000e+03,1.640000000000000000e+03,5.497909497221533371e-06,1.139863936404869991e-09,4.131302638380196862e-06,8.293581898339729811e-10,5.447143660927416685e-06,5.988839423302859055e-09,4.157092656362913824e-06,5.269288236574958715e-09,5.434172710060960854e-06,5.988810107101278301e-09,5.270386249173191092e-06,5.988688475945843245e-09
1.640000000000000000e+03,1.680000000000000000e+03,5.547831997893823450e-06,1.118663669100242306e-09,4.148722681777959303e-06,8.251905931642905765e-10,5.475927655160402209e-06,4.805497190745100819e-09,4.169603778737250497e-06,3.788287872161844160e-09,5.462767436376570158e-06,4.805461621940109370e-09,5.297004811899762488e-06,4.805306203594215415e-09
1.680000000000000000e+03,1.720000000000000000e+03,5.591090450287696022e-06,1.128297884691327328e-09,4.162532715633523622e-06,8.187012261493697911e-10,5.512070165277982880e-06,5.123750443419825326e-09,4.186469866362476973e-06,3.985134042618041192e-09,5.498694344489675882e-06,5.123718748122635616e-09,5.330869114039380731e-06,5.123566977779618633e-09
1.720000000000000000e+03,1.760000000000000000e+03,5.643064707278133647e-06,1.121650904371874558e-09,4.179005906794054599e-06,8.136484596776669915e-10,5.538728229281098710e-06,4.550901370290632569e-09,4.192979729229623828e-06,3.341888574168780147e-09,5.525152877062776265e-06,4.550865587620760575e-09,5.355149080728779455e-06,4.550694133039757356e-09
1.760000000000000000e+03,1.800000000000000000e+03,5.693215779368280326e-06,1.146442677539177971e-09,4.195512381501278142e-06,8.358890847098578732e-10,5.568768873267261768e-06,4.610141881629344455e-09,4.213035432163295178e-06,3.727062297845885262e-09,5.554970485942312875e-06,4.610106578922228311e-09,5.382827154588588351e-06,4.609933504456635626e-09
1.800000000000000000e+03,1.840000000000000000e+03,5.747080170020351088e-06,1.144685800029426339e-09,4.214247072962567288e-06,8.003221832557080055e-10,5.588738130964314394e-06,4.705340138571458266e-09,4.223469523018783773e-06,3.661935919259848605e-09,5.574767704758500348e-06,4.705305108711700204e-09,5.400485358574592254e-06,4.705140686613600452e-09
1.840000000000000000e+03,1.880000000000000000e+03,5.801890698408174396e-06,1.144289798439294980e-09,4.232670676893372505e-06,7.882420802314076235e-10,5.605029250718838458e-06,5.598137953348916018e-09,4.236560554672469698e-06,4.398662960918283949e-09,5.590801190604409873e-06,5.598106089238198886e-09,5.414126553303363624e-06,5.597960431130731107e-09
1.880000000000000000e+03,1.920000000000000000e+03,5.860604741264547443e-06,1.161311838360488654e-09,4.252230229115102451e-06,8.323678704762625909e-10,5.617961934834227102e-06,5.247192656853087119e-09,4.256651756700841155e-06,4.148380719591162261e-09,5.603549565362659615e-06,5.247161647013091353e-09,5.424466128098045186e-06,5.247013846080493223e-09
1.920000000000000000e+03,1.960000000000000000e+03,5.916044619847356462e-06,1.163438642298680749e-09,4.271060621711604079e-06,8.211743178402027592e-10,5.600109533347576294e-06,5.531468850198509877e-09,4.266298511353460415e-06,4.002791412483213428e-09,5.585472652795299177e-06,5.531435351893382347e-09,5.403896335963377994e-06,5.531275459012754967e-09
1.960000000000000000e+03,2.000000000000000000e+03,5.974513868308208234e-06,1.547608342817424773e-09,4.293385533730804127e-06,8.418672993097765882e-10,5.511494399910829978e-06,6.934807169007039954e-09,4.274295403597076323e-06,4.896461447079306643e-09,5.496601397177764168e-06,6.934774574827812678e-09,5.312560057770808473e-06,6.934406975333802647e-09
2.000000000000000000e+03,2.040000000000000000e+03,5.308310650782223015e-06,1.123030816574595588e-09,4.285103848287761066e-06,8.209294342339619346e-10,5.037619281528735555e-06,4.602635217975990729e-09,4.263246291298310182e-06,3.994048166345785086e-09,5.014509387739274555e-06,4.602597312595349916e-09,4.858215532648426102e-06,4.602466698402593792e-09
2.040000000000000000e+03,2.080000000000000000e+03,4.985040912821917456e-06,9.116225632711188512e-10,4.259062408723423334e-06,8.225689840382148826e-10,4.821618002737298562e-06,4.970271215311232678e-09,4.231676630362141951e-06,4.502058538859515809e-09,4.795296219428024814e-06,4.970241650118489592e-09,4.652444675155421315e-06,4.970169432921658747e-09
2.080000000000000000e+03,2.120000000000000000e+03,4.838116000014344413e-06,8.557608604134790041e-10,4.231722281342383747e-06,7.868948476617721192e-10,4.713393016115877201e-06,3.533036207537642863e-09,4.211908908033847420e-06,3.081612227063138123e-09,4.686015673440310704e-06,3.532998876752936084e-09,4.549050952584013282e-06,3.532916489250968635e-09
2.120000000000000000e+03,2.160000000000000000e+03,4.738646863140738859e-06,8.786206825679878378e-10,4.206741947391057863e-06,8.175699879361526880e-10,4.641423591355985782e-06,4.197296231261502474e-09,4.191731003474285882e-06,3.574075895078512822e-09,4.613551902524838111e-06,4.197266348345385655e-09,4.480523486415067732e-06,4.197191319894678139e-09
2.160000000000000000e+03,2.200000000000000000e+03,4.663142508940746890e-06,8.633187461011140515e-10,4.182954535277387565e-06,8.194542144586204817e-10,4.575023919234046509e-06,3.665186749802256306e-09,4.164506093448899168e-06,3.336555315897987087e-09,4.546881892288428691e-06,3.665153698154698446e-09,4.416830628175243004e-06,3.665067072028870160e-09
2.200000000000000000e+03,2.240000000000000000e+03,4.602817684831023589e-06,8.647458397977152709e-10,4.162363778627066806e-06,8.167308679148410228e-10,4.524176872175319501e-06,4.135261055679888586e-09,4.142796336404775667e-06,3.719592324924570528e-09,4.495928698900722277e-06,4.135230831217748595e-09,4.368258697205058794e-06,4.135162347386213429e-09
2.240000000000000000e+03,2.280000000000000000e+03,4.548877497477068205e-06,8.788601629379399733e-10,4.140025405731889726e-06,8.371133770969976247e-10,4.478525945386086058e-06,3.183036006491508894e-09,4.122864607981633249e-06,2.831736695196807615e-09,4.450239788301623446e-06,3.182994977676459008e-09,4.324559535130085971e-06,3.182910703641941343e-09
2.280000000000000000e+03,2.320000000000000000e+03,4.505430271389096762e-06,8.558533596820417737e-10,4.121728848643192245e-06,8.179459178597162549e-10,4.440800184089659006e-06,3.616199218918191091e-09,4.102762640097612845e-06,3.197455075117037703e-09,4.412525956134120283e-06,3.616170561237584977e-09,4.288498901403998119e-06,3.616099534263000324e-09
2.320000000000000000e+03,2.360000000000000000e+03,4.467502810821825913e-06,8.032507794054477559e-10,4.104534963751894344e-06,7.652180662535714704e-10,4.407453031615949786e-06,3.470267285386895176e-09,4.088203246879649019e-06,3.116228433060162883e-09,4.379170266878971876e-06,3.470230045451613331e-09,4.256621969067691913e-06,3.470164714133688318e-09
2.360000000000000000e+03,2.400000000000000000e+03,4.434991832526272488e-06,8.187142479182227330e-10,4.089628155482914180e-06,7.861169040961042135e-10,4.383229625387674293e-06,2.924921948046054294e-09,4.076544512444917988e-06,2.622346502828344618e-09,4.355052304317961574e-06,2.924885476809273153e-09,4.233780995275087297e-06,2.924797258013634396e-09
2.400000000000000000e+03,2.440000000000000000e+03,4.405452487278294919e-06,8.814735907594351655e-10,4.075023007071698030e-06,8.486637456329426590e-10,4.359400057237886478e-06,2.888546764129307909e-09,4.063779890672165174e-06,2.334156423279290442e-09,4.331283599244212141e-06,2.888507181006364308e-09,4.211157579255951310e-06,2.888425688340144386e-09
2.440000000000000000e+03,2.480000000000000000e+03,4.378438323675723579e-06,8.518403920021111675e-10,4.060589917548486321e-06,8.196199486488257948e-10,4.331274756628920957e-06,2.842520436899855813e-09,4.044623065077314114e-06,2.419439248009481922e-09,4.303226440532795507e-06,2.842478060724003824e-09,4.184096438251753744e-06,2.842395648387437334e-09
2.480000000000000000e+03,2.520000000000000000e+03,4.354281672099577592e-06,7.809174529178714855e-10,4.047637037749085020e-06,7.488515568593109935e-10,4.314074866729017547e-06,2.563645713043283966e-09,4.036022188740701091e-06,2.030042739297799716e-09,4.286143525580138530e-06,2.563599831521621056e-09,4.167859159334242715e-06,2.563497713659772549e-09
2.520000000000000000e+03,2.560000000000000000e+03,4.335537841847906854e-06,7.897562501272747801e-10,4.037909894854543182e-06,7.579846857763519013e-10,4.297577375739139512e-06,2.692806387808617587e-09,4.025747881639472390e-06,2.253803454106170962e-09,4.269693966515585877e-06,2.692762981405899902e-09,4.152193878187643055e-06,2.692670801033566947e-09
2.560000000000000000e+03,2.600000000000000000e+03,4.315715087656237314e-06,8.580865032599678067e-10,4.027107340564998821e-06,8.291339342225155333e-10,4.276728211394134611e-06,2.914863217994132795e-09,4.014400534044004717e-06,2.490077539307595181e-09,4.248959895745071563e-06,2.914830752743640824e-09,4.132159119543541517e-06,2.914743215765851124e-09
2.600000000000000000e+03,2.640000000000000000e+03,4.298881291168493107e-06,8.044150050442919851e-10,4.017478546440961083e-06,7.769618058387847671e-10,4.261093535608188827e-06,3.716240828020711639e-09,4.005394958082379394e-06,2.892679894274042338e-09,4.233442095619860311e-06,3.716208633418310470e-09,4.117187756812969725e-06,3.716145561419352084e-09
2.640000000000000000e+03,2.680000000000000000e+03,4.286597673064649888e-06,7.588637935142704549e-10,4.011310157202809683e-06,7.266536592515260741e-10,4.252571325865027114e-06,3.271307643630220857e-09,3.998757212240770756e-06,2.873685281414750467e-09,4.224989737194681770e-06,3.271272057575129227e-09,4.109274469253968656e-06,3.271190780565166514e-09
2.680000000000000000e+03,2.720000000000000000e+03,4.275929063403374960e-06,7.700843492566676185e-10,4.006487305726413440e-06,7.345314017322685874e-10,4.244184317212096760e-06,3.523568164622057929e-09,3.996912405084626860e-06,2.983110351025481198e-09,4.216679267608560215e-06,3.523540136495848497e-09,4.101453633550391288e-06,3.523470930485878696e-09
2.720000000000000000e+03,2.760000000000000000e+03,4.266539571510141911e-06,8.382015095751242268e-10,4.001518134976753146e-06,8.094736144171278763e-10,4.232868953317028429e-06,5.768537956886178701e-09,3.989692410771178070e-06,5.572783473303069304e-09,4.205446777598796564e-06,5.768517542627069017e-09,4.090577598848252364e-06,5.768478583186429381e-09
2.760000000000000000e+03,2.800000000000000000e+03,4.257635638638006822e-06,8.235042739776036438e-10,3.996979971215914093e-06,7.931988035294621531e-10,4.225135641717633005e-06,3.956482622640176528e-09,3.984371357873772601e-06,3.496453968193260486e-09,4.197783627778282533e-06,3.956456592000327152e-09,4.083153283356924625e-06,3.956395745594562199e-09
2.800000000000000000e+03,2.840000000000000000e+03,4.253073352298789909e-06,8.561561491609820004e-10,3.996262971471744626e-06,8.304882617856431603e-10,4.219104042946254412e-06,4.178571215250274362e-09,3.983548296547524557e-06,3.783658120424390847e-09,4.191813174140084822e-06,4.178546256556970402e-09,4.077475525926569738e-06,4.178491403960748957e-09
2.840000000000000000e+03,2.880000000000000000e+03,4.250335997515090707e-06,8.282965097813354128e-10,3.996585030658347993e-06,8.024618294424947657e-10,4.222184366377768470e-06,4.227781089859886927e-09,3.985588845569713184e-06,3.903886923111356928e-09,4.194932747599696523e-06,4.227756221347952436e-09,4.080746850638030179e-06,4.227696581267300520e-09
2.880000000000000000e+03,2.920000000000000000e+03,4.246773188343258706e-06,7.524868138360993187e-10,3.995100577797515357e-06,7.240936568375096374e-10,4.216074940235074836e-06,4.869274641502577377e-09,3.982508038184729549e-06,4.653885058139231839e-09,4.188865004301262021e-06,4.869254615120178068e-09,4.074780452219066611e-06,4.869209022707923551e-09
2.920000000000000000e+03,2.960000000000000000e+03,4.246325128697278365e-06,8.328901871313811908e-10,3.997052258887353045e-06,8.107751003640071932e-10,4.211223343480593884e-06,4.481003657819096856e-09,3.980364727328866143e-06,4.104675473918641406e-09,4.184050091384656932e-06,4.480981190710534596e-09,4.070050415315819222e-06,4.480929784924651216e-09
2.960000000000000000e+03,3.000000000000000000e+03,4.248673283904406980e-06,8.084531204634599675e-10,4.001069590590821278e-06,7.774406758789630119e-10,4.211846388851258992e-06,4.267333533955438925e-09,3.981920020330097352e-06,4.007721969440785145e-09,4.184683755695307724e-06,4.267310350571317032e-09,4.070674772531569304e-06,4.267253062522836872e-09
3.000000000000000000e+03,3.040000000000000000e+03,4.251708111870574299e-06,7.873773038932451756e-10,4.005152500301742210e-06,7.566901693090773676e-10,4.213194731779470428e-06,4.710800347681598874e-09,3.982801848857698087e-06,4.327412038562782412e-09,4.186049098866858008e-06,4.710775012624118041e-09,4.071971793409882418e-06,4.710730188134582964e-09
3.040000000000000000e+03,3.080000000000000000e+03,4.256698014726768710e-06,8.194741168007712555e-10,4.011477269218332130e-06,7.895181627749211411e-10,4.218315530319272262e-06,4.415514922427680989e-09,3.992334578981110374e-06,3.930359637718166973e-09,4.191135977537134031e-06,4.415490312489796227e-09,4.076960657343051733e-06,4.415438026758700543e-09
3.080000000000000000e+03,3.120000000000000000e+03,4.262112566305742767e-06,8.076230464779228431e-10,4.017420103960945790e-06,7.788432314417312295e-10,4.222771608671752148e-06,4.707500765883035284e-09,3.991583571131655862e-06,4.283287516581023181e-09,4.195594410822546026e-06,4.707473385581349320e-09,4.081252598224575111e-06,4.707426475188994496e-09
3.120000000000000000e+03,3.160000000000000000e+03,4.270654531024628285e-06,8.079142802904633288e-10,4.026459322379569804e-06,7.772439430936666278e-10,4.231122542987438672e-06,4.180789997645602847e-09,4.003184006712529896e-06,3.875300070693347079e-09,4.203926094154124947e-06,4.180763711342914623e-09,4.089299164617234498e-06,4.180708789549554990e-09
3.160000000000000000e+03,3.200000000000000000e+03,4.279825812576461948e-06,8.102831772641154457e-10,4.035341258354144143e-06,7.827187519017955307e-10,4.231762548153858414e-06,4.207678017306084463e-09,4.002374852262682536e-06,3.772681124781056656e-09,4.204516074146138394e-06,4.207651676186820296e-09,4.089578196249301156e-06,4.207595544330281214e-09
3.200000000000000000e+03,3.240000000000000000e+03,4.291469118018722297e-06,8.530449823556781787e-10,4.046222594572615359e-06,8.240491162396900523e-10,4.246654407764738434e-06,4.710667017702979192e-09,4.014131489694338755e-06,4.392447918914011018e-09,4.219348786866614797e-06,4.710638159715704902e-09,4.104104617453651718e-06,4.710583088523002422e-09
3.240000000000000000e+03,3.280000000000000000e+03,4.305925863272167825e-06,8.498681623635768406e-10,4.060898738495898644e-06,8.228028228334677333e-10,4.249579986942360545e-06,5.636283320993638100e-09,4.018595508115816677e-06,5.303258218961673758e-09,4.222194978340161857e-06,5.636258519083737989e-09,4.106514362203478269e-06,5.636216717701145210e-09
3.280000000000000000e+03,3.320000000000000000e+03,4.318081482187346490e-06,8.006804684098887828e-10,4.071702203413523988e-06,7.712334784719073020e-10,4.264550638384843159e-06,4.133198050940492729e-09,4.030710716847765336e-06,3.784175169040342531e-09,4.237053272457872511e-06,4.133171465418754725e-09,4.120862209355403413e-06,4.133112180609316337e-09
3.320000000000000000e+03,3.360000000000000000e+03,4.336425927353259566e-06,8.147799208698559028e-10,4.089316737118051837e-06,7.853449489598618682e-10,4.274002641966350899e-06,4.196332760371030225e-09,4.040650228302347134e-06,3.774109380705407257e-09,4.246388726311673912e-06,4.196308204429516408e-09,4.129649861028024670e-06,4.196236872091964473e-09
3.360000000000000000e+03,3.400000000000000000e+03,4.353272213317451218e-06,8.421357072540396089e-10,4.104146610932380522e-06,8.133711803049800839e-10,4.281657061171347995e-06,4.697656025501341827e-09,4.048536516279698937e-06,4.367722941515715989e-09,4.253917605646652333e-06,4.697634104544252460e-09,4.136545285749185357e-06,4.697571932800159047e-09
3.400000000000000000e+03,3.440000000000000000e+03,4.374577256894621044e-06,8.364594732949581038e-10,4.122912809405065697e-06,8.056380095952802213e-10,4.294640810084009523e-06,5.233103461265523636e-09,4.058455633072410809e-06,4.821842204293420840e-09,4.266722897592605955e-06,5.233083458708380214e-09,4.148658388340124401e-06,5.233030395145641146e-09
3.440000000000000000e+03,3.480000000000000000e+03,4.398852428047599174e-06,8.268866595144964059e-10,4.144085559039019926e-06,7.937421182910685580e-10,4.313150825589479319e-06,4.296945424599731359e-09,4.075914843772594811e-06,3.928224332150579804e-09,4.285055649583766011e-06,4.296917186947843105e-09,4.166152651674069985e-06,4.296858349814922349e-09
3.480000000000000000e+03,3.520000000000000000e+03,4.423600065486251132e-06,8.466533664577313615e-10,4.164717818338184851e-06,8.118674987178062944e-10,4.319644988229766410e-06,3.955000094660077366e-09,4.080369000660477462e-06,3.641438254030226656e-09,4.291362856515908337e-06,3.954972553223177115e-09,4.171663610929403659e-06,3.954909338835870571e-09
3.520000000000000000e+03,3.560000000000000000e+03,4.449996539869644494e-06,8.491882072703283070e-10,4.187042427840063302e-06,8.145689052652373173e-10,4.329167201089129800e-06,4.818014450845506141e-09,4.089293722987682616e-06,4.386106381242188570e-09,4.300662345865001329e-06,4.817988920379632033e-09,4.180067474523355794e-06,4.817936015140660970e-09
3.560000000000000000e+03,3.600000000000000000e+03,4.479054855898403224e-06,8.507133190132658171e-10,4.211448358302685008e-06,8.183631640568007828e-10,4.347645410108496314e-06,5.268222625476107625e-09,4.103658866481854025e-06,4.781104221494940095e-09,4.318920664652251637e-06,5.268200154947407477e-09,4.197320617273001434e-06,5.268142824851700618e-09
3.600000000000000000e+03,3.640000000000000000e+03,4.507110038858733651e-06,8.635628554067290128e-10,4.234073132499031354e-06,8.333161161482711730e-10,4.355755779893707503e-06,5.200501131224828512e-09,4.110043299926627024e-06,4.734117608877169825e-09,4.326793213728601293e-06,5.200472754678165015e-09,4.204172036607961404e-06,5.200416410652374654e-09
3.640000000000000000e+03,3.680000000000000000e+03,4.536344867800366833e-06,8.250976258548189318e-10,4.257852798699599675e-06,7.870139974623628964e-10,4.358319744497200608e-06,3.906313571414662386e-09,4.110418132494677177e-06,3.470875786365390282e-09,4.329110193689555761e-06,3.906280336964495867e-09,4.205439867287583240e-06,3.906202070505361789e-09
3.680000000000000000e+03,3.720000000000000000e+03,4.567887173588283736e-06,8.864706927485765359e-10,4.283144955452852863e-06,8.501770884539469272e-10,4.367192131597677274e-06,4.608696032797669913e-09,4.118067461967202388e-06,4.096353112485156434e-09,4.337744307228142279e-06,4.608668290516781503e-09,4.212926217160073617e-06,4.608604347894873865e-09
3.720000000000000000e+03,3.760000000000000000e+03,4.599389497404975639e-06,9.060276287030091433e-10,4.307937205831185007e-06,8.713538799865874846e-10,4.367177406985275369e-06,4.112097308508098812e-09,4.113711595803081172e-06,3.640805964626078049e-09,4.337438452929484309e-06,4.112065113659088633e-09,4.211456758193955602e-06,4.111990218652585371e-09
3.760000000000000000e+03,3.800000000000000000e+03,4.636015980977748878e-06,8.387938052485878836e-10,4.337352278949777272e-06,7.977966396274312343e-10,4.367087984985828306e-06,4.688483436552374844e-09,4.111492478838795096e-06,4.002818993290684005e-09,4.337082819964491838e-06,4.688453882810682579e-09,4.209890655029385062e-06,4.688399164128718216e-09
3.800000000000000000e+03,3.840000000000000000e+03,4.670097712565525506e-06,8.994510756511485778e-10,4.363242197170523477e-06,8.613660647708115592e-10,4.356446453721895867e-06,4.124978399250884004e-09,4.098224006498999014e-06,3.489015132832462492e-09,4.326197580072137015e-06,4.124942426440923784e-09,4.197695324633364690e-06,4.124866342993674456e-09
3.840000000000000000e+03,3.880000000000000000e+03,4.704343864826306777e-06,8.624571877753464751e-10,4.388823644752488848e-06,8.198979273399384347e-10,4.336630895479258930e-06,5.061090766209732145e-09,4.077004821116584461e-06,4.587598914818768434e-09,4.306043431058483008e-06,5.061067637519655931e-09,4.176220582458883749e-06,5.061005039574328629e-09
3.880000000000000000e+03,3.920000000000000000e+03,4.741107884807703118e-06,9.494041483873226069e-10,4.415795671268950962e-06,9.074368096434188553e-10,4.290289186188175758e-06,4.396777516949756090e-09,4.030906963717733132e-06,3.839716521337304819e-09,4.259418119748792809e-06,4.396747085933027763e-09,4.128214856584827359e-06,4.396666318699105895e-09
3.920000000000000000e+03,3.960000000000000000e+03,4.780717511123196198e-06,9.234905781283568137e-10,4.445338393445775084e-06,8.737543019977608440e-10,4.227599684818586295e-06,4.468747934039332603e-09,3.969193215138185482e-06,3.816701372074013075e-09,4.196463123822801589e-06,4.468710920143763507e-09,4.063830990937607800e-06,4.468631155556152384e-09
3.960000000000000000e+03,4.000000000000000000e+03,4.790936620767623197e-06,9.581116832599561734e-10,4.443939524238457286e-06,9.171745491053766127e-10,4.032533469172977789e-06,4.183193520963571396e-09,3.786290658343702104e-06,3.457931166702375326e-09,4.001002874731341319e-06,4.183158822408544775e-09,3.867275027822546446e-06,4.183083995021135814e-09
4.000000000000000000e+03,4.040000000000000000e+03,3.527231175066463698e-06,8.142220651348878289e-10,3.169337830323055500e-06,7.643185826702773484e-10,3.078516091702540848e-06,2.684372513475132702e-09,2.818131724136403701e-06,1.786470672329813981e-09,3.040088395268957374e-06,2.684322905599668831e-09,2.929877181269575243e-06,2.684220395584472858e-09
4.040000000000000000e+03,4.080000000000000000e+03,2.985938386100217322e-06,7.110418081189379911e-10,2.617370125983179591e-06,6.490401256068342794e-10,2.708454826856157841e-06,2.132958415197996139e-09,2.416063189714946018e-06,1.237383231703170710e-09,2.673158406832894039e-06,2.132904125806426256e-09,2.575492121520567663e-06,2.132782976316152165e-09
4.080000000000000000e+03,4.120000000000000000e+03,2.761967390565264960e-06,7.163018511693755830e-10,2.382924438882756996e-06,6.508725811263176212e-10,2.540576787931671068e-06,3.149709005408455466e-09,2.226343460124066895e-06,1.171630568813961422e-09,2.507389768887319171e-06,3.149673825753965534e-09,2.415367133984690503e-06,3.149596147903124004e-09
4.120000000000000000e+03,4.160000000000000000e+03,2.624298359607085974e-06,6.647166096351460906e-10,2.234731633649864265e-06,5.932404115663895093e-10,2.427490389307977178e-06,1.895669109202515477e-09,2.099514801951242335e-06,1.213877517427663370e-09,2.395331565360878184e-06,1.895607656618299696e-09,2.306853608645543025e-06,1.895487701831301494e-09
4.160000000000000000e+03,4.200000000000000000e+03,2.529501719717663568e-06,6.810558256545580858e-10,2.127195352134454851e-06,6.187170895361882216e-10,2.354435706693326953e-06,2.053024223243920077e-09,2.005190148261131078e-06,1.042318511944436049e-09,2.323378921412550514e-06,2.052970397595913202e-09,2.237449019309221238e-06,2.052864000274847214e-09
4.200000000000000000e+03,4.240000000000000000e+03,2.456255536735771523e-06,6.807825401134284272e-10,2.041273532228165227e-06,6.209468330210282617e-10,2.293551327212559202e-06,2.062755723389178565e-09,1.926516388430006700e-06,1.294001894734092393e-09,2.263373728285977588e-06,2.062704244057354186e-09,2.179274621690305368e-06,2.062598467425117344e-09
4.240000000000000000e+03,4.280000000000000000e+03,2.399966117292758422e-06,6.374196442327238361e-10,1.969724659718785116e-06,5.640788344367961518e-10,2.246800126126785224e-06,1.810355396449206994e-09,1.859263478364250218e-06,1.174576231593624919e-09,2.217332685907227147e-06,1.810296704055043290e-09,2.134745161246852821e-06,1.810174821818672104e-09
4.280000000000000000e+03,4.320000000000000000e+03,2.349740446369158239e-06,6.806899933394559432e-10,1.904758592628311351e-06,6.201156888407955583e-10,2.204077088350698426e-06,1.834137818017383568e-09,1.797793948148889156e-06,1.207740187898351847e-09,2.175225095308840943e-06,1.834080391715022742e-09,2.093784627181696192e-06,1.833966918660776138e-09
4.320000000000000000e+03,4.360000000000000000e+03,2.310256058295385148e-06,6.513590007365256544e-10,1.846896269963730337e-06,5.818808131078077761e-10,2.172630337082254944e-06,1.599659578066039967e-09,1.740325850954507083e-06,1.048405303487404891e-09,2.144356850932393673e-06,1.599594763436590679e-09,2.063898438473015276e-06,1.599450764168622365e-09
4.360000000000000000e+03,4.400000000000000000e+03,2.273478899045537050e-06,6.255471448130259303e-10,1.791526270441013763e-06,5.406856546924759635e-10,2.142613363008187331e-06,1.796594601159554930e-09,1.685035748856582649e-06,1.113676708509581682e-09,2.114737764144740604e-06,1.796532775254536559e-09,2.035138103188844353e-06,1.796425827627378828e-09
4.400000000000000000e+03,4.440000000000000000e+03,2.242120353758825185e-06,5.874933787682270143e-10,1.738583111703407927e-06,4.969113790637420154e-10,2.118995435457542230e-06,1.915447782524733563e-09,1.633697354914227920e-06,1.011754114253635321e-09,2.091272783391972803e-06,1.915388161368757693e-09,2.012313051696547593e-06,1.915280119967042379e-09
4.440000000000000000e+03,4.480000000000000000e+03,2.213909727544318531e-06,6.519413628282217978e-10,1.686255100950627856e-06,5.793945973549685200e-10,2.100809837906044747e-06,1.990429837759017827e-09,1.582231379796909429e-06,1.161429757876871134e-09,2.071921702029978792e-06,1.990371870990016782e-09,1.993478964599182618e-06,1.990272284814199248e-09
4.480000000000000000e+03,4.520000000000000000e+03,2.192829443036220578e-06,6.042928201494516205e-10,1.637341887198194048e-06,5.232295875565707108e-10,2.085966971849260810e-06,2.385192517632081933e-09,1.530593254157826267e-06,1.207580941038903209e-09,2.059030404290833704e-06,2.385149929654806030e-09,1.980917814747062721e-06,2.385058854816713319e-09
4.520000000000000000e+03,4.560000000000000000e+03,2.177334238931577208e-06,5.997505752810815548e-10,1.590238857288093125e-06,5.145058594060763361e-10,2.080447224882152429e-06,1.867663735145795476e-09,1.481441296063989527e-06,1.237157847601197765e-09,2.055507775595637793e-06,1.867619484222770229e-09,1.977442397788214838e-06,1.867513980671448397e-09
4.560000000000000000e+03,4.600000000000000000e+03,2.169585080301110929e-06,6.519679369461838005e-10,1.544062070401168583e-06,5.685774577972469511e-10,2.082470120988752568e-06,1.948073501423757078e-09,1.432031063251019415e-06,1.034717485652423803e-09,2.058946812847559246e-06,1.948025172167686904e-09,1.980594899519665260e-06,1.947923638508297341e-09
4.600000000000000000e+03,4.640000000000000000e+03,2.171843290259419319e-06,6.024175636252554798e-10,1.499697537400610242e-06,4.976745013857785611e-10,2.098776212088400409e-06,1.824446891896420787e-09,1.385480348772549298e-06,1.009754143613501685e-09,2.076468534840949491e-06,1.824398887298225713e-09,1.997405654430375853e-06,1.824290745512244854e-09
4.640000000000000000e+03,4.680000000000000000e+03,2.185712671874616578e-06,6.026457525265809659e-10,1.455465351875371142e-06,4.955284576574233775e-10,2.126120305228406382e-06,1.959942278108192423e-09,1.338804010223394708e-06,1.035027607311676653e-09,2.104520181925499720e-06,1.959900167257538056e-09,2.024182616997815477e-06,1.959794985817547359e-09
4.680000000000000000e+03,4.720000000000000000e+03,2.218957071400300228e-06,5.931820597227984260e-10,1.413971971136446424e-06,4.835057789949030091e-10,2.174038710802824905e-06,1.828484160428844964e-09,1.292043099393516512e-06,9.997773771431867366e-10,2.154500614240106927e-06,1.828435755313021436e-09,2.072182633653043595e-06,1.828321766986451963e-09
4.720000000000000000e+03,4.760000000000000000e+03,2.284041555360288574e-06,6.034307397125722546e-10,1.376612825188898638e-06,4.671047801330672668e-10,2.252537439521460164e-06,2.023364377034411094e-09,1.246383115940865237e-06,9.779410463948219736e-10,2.235317049893745037e-06,2.023323596823634211e-09,2.149707949121698169e-06,2.023222308735363805e-09
4.760000000000000000e+03,4.800000000000000000e+03,2.395109215241181431e-06,6.171393928964340981e-10,1.343289535293099830e-06,4.798865353522532674e-10,2.380355590952673790e-06,2.700326464790086573e-09,1.205572717789983767e-06,9.603850841354787529e-10,2.365542873380488931e-06,2.700297825952286718e-09,2.274795205922406688e-06,2.700211932944149874e-09
4.800000000000000000e+03,4.840000000000000000e+03,2.579376241942042015e-06,6.526830595292381209e-10,1.314382796481761343e-06,4.815487179254954840e-10,2.576768001140242728e-06,2.401563922601513028e-09,1.163833731787982728e-06,1.315470801657493401e-09,2.565144299134603789e-06,2.401528866274412239e-09,2.466238306182785087e-06,2.401428915076517799e-09
4.840000000000000000e+03,4.880000000000000000e+03,2.894969040814734046e-06,6.932831311636593777e-10,1.287389399569514175e-06,4.910312914879804280e-10,2.899783606219987368e-06,2.826903853254210644e-09,1.120643154928773705e-06,1.010536045699810068e-09,2.893155413421628898e-06,2.826875835858861443e-09,2.780561330757569981e-06,2.826775636430512635e-09
4.880000000000000000e+03,4.920000000000000000e+03,3.504988999201035133e-06,7.641573494416406363e-10,1.262860951990081065e-06,4.758024040369276877e-10,3.493555855867273596e-06,3.029600961144344922e-09,1.069754887845339358e-06,9.613495019702088098e-10,3.495805139056691236e-06,3.029571251088964146e-09,3.357231411097723392e-06,3.029444788437473060e-09
4.920000000000000000e+03,4.960000000000000000e+03,5.072626191684866975e-06,9.980144515290958074e-10,1.246449118678822710e-06,4.480417061108512241e-10,4.859212835391907818e-06,4.541164241665441649e-09,1.007106740538094359e-06,8.474404644546946488e-10,4.882359125444881928e-06,4.541141803378225940e-09,4.677560708981455480e-06,4.540980677642229919e-09
4.960000000000000000e+03,5.000000000000000000e+03,1.734268786406442873e-05,3.249386659329393609e-09,1.170510094248425063e-06,4.094220046622551319e-10,1.025158954912230681e-05,1.429515161360113425e-08,8.102509603062549076e-07,9.960075241032160613e-10,1.043181600516998188e-05,1.429508931844638273e-08,9.711386477260614106e-06,1.429453465643294526e-08
