# xl,xh,LO,dLO,LOISC,dLOISC,NLO,dNLO,NLOISC,dNLOISC,NLOL,dNLOL,NLOnovp,dNLOnovp
5.200000000000000178e-01,5.622000000000000330e-01,2.610940671517033510e-05,2.112480604663014505e-07,8.668842663276570340e-05,1.383945052389811285e-07,2.663790628298094555e-05,2.997680162155364204e-07,8.394868363697992829e-05,2.045132031316446379e-07,2.589533571983540036e-05,2.997455034110269330e-07,2.501039699450552977e-05,2.996451931055473390e-07
5.622000000000000330e-01,6.044000000000000483e-01,1.045066693960776768e-04,3.725755178125868788e-07,2.901072172644086184e-04,2.494591196021288740e-07,1.064153022848730802e-04,5.299774430719011598e-07,2.817423322821306034e-04,3.631304964004296335e-07,1.039232823688425830e-04,5.299370400331856941e-07,1.003711981917209610e-04,5.297508164642100384e-07
6.044000000000000483e-01,6.466000000000000636e-01,2.662725865948840638e-04,6.298161595374343061e-07,5.274941608546874139e-04,3.263896876157353305e-07,2.683202843808361058e-04,9.833443634948786427e-07,5.124029257291072125e-04,5.471605285187964506e-07,2.642821225191733701e-04,9.833006919028829537e-07,2.548215690442547695e-04,9.830527225404470218e-07
6.465999999999999526e-01,6.887999999999999678e-01,6.742934222207113727e-04,8.903151596908623160e-07,7.959901400335328385e-04,3.998297501570126915e-07,6.482526786177967085e-04,1.418888335398538971e-06,7.737556857653434851e-04,5.933096873028216767e-07,6.442693541075833648e-04,1.418825899067421817e-06,6.188302423072577097e-04,1.418406317108333807e-06
6.888000000000000789e-01,7.310000000000000941e-01,1.082531366426470187e-03,9.736356943820548188e-07,1.074133945362346684e-03,4.481337260236067485e-07,1.034460244308946838e-03,1.521259881777544478e-06,1.044886201177425708e-03,6.489061638598263836e-07,1.029531477305590864e-03,1.521190022408064216e-06,9.885462211163069911e-04,1.520756700098973431e-06
7.309999999999999831e-01,7.731999999999999984e-01,1.429442341838743462e-03,9.312008827909371286e-07,1.362846017214302272e-03,5.028831185992611411e-07,1.371291794076010635e-03,1.686866885515210907e-06,1.328088727950255468e-03,7.204401094349316549e-07,1.363859916613347325e-03,1.686798218682851477e-06,1.310121586530700773e-03,1.686394542859272322e-06
7.732000000000001094e-01,8.154000000000001247e-01,1.761283406896635515e-03,1.008165597877317098e-06,1.663837716514766397e-03,5.460143905535991814e-07,1.688962534426595007e-03,1.917196220219672371e-06,1.622437217106743402e-03,8.252012846484908099e-07,1.678154330342480210e-03,1.917122633440968396e-06,1.612475233962224960e-03,1.916703276484955826e-06
8.154000000000000137e-01,8.576000000000000290e-01,2.097223949827838833e-03,1.080982253099110692e-06,1.980788628682318264e-03,6.092388333776298103e-07,2.012782310520913089e-03,2.212516871157141864e-06,1.931703161327025416e-03,8.859568566354697967e-07,1.998040472087759915e-03,2.212444148517196454e-06,1.920659620862481343e-03,2.212107062933324809e-06
8.575999999999998069e-01,8.997999999999998222e-01,2.435990517580238074e-03,1.101250892688775321e-06,2.309227543080478659e-03,6.294123642778033232e-07,2.336991981223439808e-03,2.101163485344519102e-06,2.252472013456232811e-03,9.654605940079380767e-07,2.318354273961350468e-03,2.101080006568650262e-06,2.229316412773523978e-03,2.100653247650375594e-06
8.997999999999999332e-01,9.419999999999999485e-01,2.783046156127363599e-03,1.092872562262610648e-06,2.643823050675084361e-03,6.481513938614676205e-07,2.670495614268924515e-03,2.145647081004423893e-06,2.581186913777928828e-03,9.427738636246387838e-07,2.647099165039204505e-03,2.145548705023141370e-06,2.546163573811607329e-03,2.145150143793946750e-06
9.419999999999999485e-01,9.841999999999999638e-01,3.142574556073728705e-03,1.133087495915941469e-06,2.990817621365985356e-03,7.062792252076152298e-07,3.018040317804324135e-03,2.044418562667245609e-06,2.922188561690290676e-03,1.056795315381057715e-06,2.990463600583353511e-03,2.044309750149105817e-06,2.877417358109484943e-03,2.043872088979367447e-06
9.842000000000000748e-01,1.026400000000000201e+00,3.526210222649210808e-03,1.168001573219037603e-06,3.357259388071817761e-03,7.667114288286401097e-07,3.387646368893567402e-03,2.232817169418476157e-06,3.281560520167998724e-03,1.154934729677409975e-06,3.357366606758982984e-03,2.232712256578194236e-06,3.231675756311525385e-03,2.232290772340051310e-06
1.026400000000000201e+00,1.068599999999999994e+00,3.934124686908178556e-03,1.166087049074881601e-06,3.750713601119187984e-03,7.553949063783229764e-07,3.782538166675645293e-03,2.606677420750718740e-06,3.669351140661031383e-03,1.262368331833936946e-06,3.746741285635801517e-03,2.606592071619774740e-06,3.607722474198921721e-03,2.606232467649038851e-06
1.068599999999999994e+00,1.110799999999999788e+00,4.386027173585822607e-03,1.222919574077435578e-06,4.186251104670891086e-03,8.225213352419415757e-07,4.222226177713082028e-03,2.254131391622840471e-06,4.100588565936790116e-03,1.231435671505887345e-06,4.180528678107966675e-03,2.254035550070370581e-06,4.027180951650548291e-03,2.253614374171476056e-06
1.110800000000000232e+00,1.153000000000000025e+00,4.884026795865859839e-03,1.255260019123194584e-06,4.669566798290310586e-03,8.753781672101196670e-07,4.708466105848122495e-03,2.439216503339070803e-06,4.579578640192921192e-03,1.344804813036818418e-06,4.660309439157063645e-03,2.439108874444596027e-06,4.491342061663685173e-03,2.438673630113207116e-06
1.153000000000000025e+00,1.195199999999999818e+00,5.443316083562150381e-03,1.264838213998944460e-06,5.201973244736951552e-03,8.426839261921756027e-07,5.254217211767724278e-03,2.479269703254973884e-06,5.108285554796989335e-03,1.323431057984121850e-06,5.199330224581257508e-03,2.479171371712828128e-06,5.013323350650710809e-03,2.478738612354207970e-06
1.195199999999999818e+00,1.237399999999999611e+00,6.087788178024152071e-03,1.304759616407342831e-06,5.813643281942149597e-03,9.405465558336166188e-07,5.887310514259820257e-03,2.529196536912643693e-06,5.717598049121282514e-03,1.379800798877559634e-06,5.825452430983157209e-03,2.529094215368161958e-06,5.620237059296826279e-03,2.528685428999259279e-06
1.237400000000000055e+00,1.279599999999999849e+00,6.857857842072799699e-03,1.333799408609127666e-06,6.542656951380639192e-03,9.868380921067540256e-07,6.639903643149410416e-03,2.885856873837649854e-06,6.438594818022639818e-03,1.585150816367800948e-06,6.571911100271905955e-03,2.885767494675525293e-06,6.344624973223934698e-03,2.885391848029750350e-06
1.279600000000000293e+00,1.321800000000000086e+00,7.811067074137602838e-03,1.369618486510112588e-06,7.447257753775036841e-03,1.040036324253878903e-06,7.577420954665271824e-03,2.778014124491292142e-06,7.337321725896637017e-03,1.722678122134091756e-06,7.500685816129583176e-03,2.777909763524366822e-06,7.246871312537216808e-03,2.777514989782960132e-06
1.321800000000000086e+00,1.363999999999999879e+00,9.047300417042729651e-03,1.440360631952084754e-06,8.622166772312702190e-03,1.118554515273249904e-06,8.802335115771867460e-03,2.837227117472075734e-06,8.511667926193147021e-03,1.813626149047725199e-06,8.706078917931443437e-03,2.837103700538042728e-06,8.419480265057694562e-03,2.836703852456330828e-06
1.363999999999999879e+00,1.406199999999999672e+00,1.074990096885559444e-02,1.545905868217286606e-06,1.024748166917171036e-02,1.251844455185901953e-06,1.049140314598104133e-02,3.330495183416211365e-06,1.013620282231627971e-02,2.255449076509405376e-06,1.036952459749498380e-02,3.330390665438945850e-06,1.004006514662285007e-02,3.330032477009987637e-06
1.406200000000000117e+00,1.448399999999999910e+00,1.327985344665750210e-02,1.649439560989524400e-06,1.267540547388311921e-02,1.375109333994321652e-06,1.294735423103484349e-02,3.436058641395758164e-06,1.249591226465488619e-02,2.592423174062412294e-06,1.284712001446654782e-02,3.435937559582071281e-06,1.245862409274935828e-02,3.435550679543553010e-06
1.448399999999999910e+00,1.490600000000000147e+00,1.756467166052358073e-02,1.684929886544403054e-06,1.681262602036708714e-02,1.422124765792080684e-06,1.709014945800917465e-02,4.731863235968295140e-06,1.648858479061044227e-02,4.215394613536656525e-06,1.705065152214506330e-02,4.731754093952898063e-06,1.657148782494595810e-02,4.731468590605429633e-06
1.490599999999999703e+00,1.532799999999999496e+00,2.639141446070546182e-02,2.081885686739758220e-06,2.537495043852411661e-02,1.878620206417049936e-06,2.571778418392210719e-02,7.158552388380980208e-06,2.481281758186559480e-02,6.723046344428385456e-06,2.569738649005984255e-02,7.158478609947771381e-06,2.505810873759546642e-02,7.158229364404542649e-06
1.532799999999999940e+00,1.574999999999999734e+00,4.296363685624571965e-02,2.300158177707622576e-06,4.129470503622775096e-02,2.129804121407108115e-06,4.191283116313550272e-02,9.152086733280191780e-06,4.009130156397670841e-02,8.853875265947721876e-06,4.190691205116527096e-02,9.152027570161307745e-06,4.102550588188209890e-02,9.151813346142105988e-06
1.575000000000000178e+00,1.617199999999999971e+00,4.085382621779683199e-02,2.268811221858936017e-06,3.817080647639815166e-02,2.093274454795142663e-06,3.975985519810729119e-02,8.782516405133446109e-06,3.711178155387243743e-02,8.488668390224913968e-06,3.975798811534794752e-02,8.782452239633682553e-06,3.888340217011355959e-02,8.782241230074107143e-06
1.617199999999999971e+00,1.659399999999999764e+00,2.629261344022346125e-02,1.950370066828864979e-06,2.307158236949558017e-02,1.745121190194801512e-06,2.550062037856548960e-02,5.976252552627973818e-06,2.257917132563995802e-02,5.454829365780525153e-06,2.548780671965633279e-02,5.976162059767906693e-06,2.481307864408548169e-02,5.975883000356106193e-06
1.659400000000000208e+00,1.701600000000000001e+00,1.921016624844194484e-02,1.685474606367087347e-06,1.576357355794533177e-02,1.467223387724651228e-06,1.856431511030667489e-02,4.713804405581978836e-06,1.547202137237480533e-02,3.944890037547380098e-06,1.852958529205868746e-02,4.713692414292102786e-06,1.797869948857240899e-02,4.713387597387855811e-06
1.701600000000000001e+00,1.743799999999999795e+00,1.568010397016595184e-02,1.601481783353931367e-06,1.210012146589076014e-02,1.312098014102276157e-06,1.515024784433397984e-02,3.770191397049464552e-06,1.194524236308277913e-02,2.941747948034836356e-06,1.503518194585015330e-02,3.770077111771408783e-06,1.455496276405824317e-02,3.769732102929033647e-06
1.743800000000000239e+00,1.786000000000000032e+00,1.354534699746778870e-02,1.447345488134825560e-06,9.873177727415510113e-03,1.135042850745204704e-06,1.304143797872883877e-02,3.431890628832300513e-06,9.759409512839663237e-03,2.216676889260373493e-06,1.292294913177933005e-02,3.431780119685420223e-06,1.248957206289328520e-02,3.431410979948263546e-06
1.786000000000000032e+00,1.828200000000000269e+00,1.209851011662166874e-02,1.424866791478669998e-06,8.359753485647268209e-03,1.098917679169748203e-06,1.158869801669622397e-02,3.549143315162812581e-06,8.250785807007251019e-03,2.289270199969502733e-06,1.149473102231912160e-02,3.549057457406027127e-06,1.109524154661489098e-02,3.548724812532847901e-06
1.828199999999999825e+00,1.870399999999999618e+00,1.103618317338601884e-02,1.452289130459976806e-06,7.248225581636492075e-03,1.084443420630491839e-06,1.051253554530297632e-02,2.908617791795541221e-06,7.140387069252491538e-03,1.669465947546039467e-06,1.043592991223105636e-02,2.908520468455817550e-06,1.006291935300287696e-02,2.908142928433376387e-06
1.870400000000000063e+00,1.912599999999999856e+00,1.020451726751120565e-02,1.293887691798801557e-06,6.386243189895832346e-03,9.707290291404184047e-07,9.676324458754491029e-03,2.622994752917286433e-06,6.283262502933364621e-03,1.559346730645917620e-06,9.605873714783471143e-03,2.622885454596583810e-06,9.254546358909775811e-03,2.622459958815376042e-06
1.912599999999999856e+00,1.954800000000000093e+00,9.520434012113733122e-03,1.314515218345228830e-06,5.684381627042457523e-03,8.972442849252891386e-07,8.990510522195755555e-03,2.785278014090893318e-06,5.588244461641240016e-03,1.427580062649189968e-06,8.924780822415104981e-03,2.785178705153864988e-06,8.592020750843854665e-03,2.784789871441250166e-06
1.954800000000000093e+00,1.997000000000000330e+00,8.923295725661820055e-03,1.297274498944462574e-06,5.090958977982794169e-03,8.913820468409041764e-07,8.387699348324685264e-03,2.561482311541908231e-06,4.997423864867523921e-03,1.317602896859584509e-06,8.327993087418437620e-03,2.561378610288942702e-06,8.012158365658099413e-03,2.560992264136159718e-06
1.996999999999999886e+00,2.039200000000000124e+00,8.377854002941742886e-03,1.222819005444215607e-06,4.568983153688010654e-03,8.375422460932991592e-07,7.839859966006938741e-03,2.490355257954918389e-06,4.479898929798143380e-03,1.237533853794235576e-06,7.786135739171420704e-03,2.490256040290964176e-06,7.486501096913142014e-03,2.489855573116067830e-06
2.039199999999999680e+00,2.081399999999999917e+00,7.856104673204413261e-03,1.202719874337051170e-06,4.096330098450245809e-03,7.859059750696994148e-07,7.319912177782514004e-03,2.511347962779215801e-06,4.011665001781235078e-03,1.151372840748302414e-06,7.272007278883635406e-03,2.511258240626861262e-06,6.988597045334438498e-03,2.510888646434397530e-06
2.081399999999999917e+00,2.123600000000000154e+00,7.362476985407430743e-03,1.173602655391151632e-06,3.668928125680404571e-03,7.443615411710978573e-07,6.831397226574525972e-03,2.405498611410318672e-06,3.589553356861494883e-03,1.158535641464385827e-06,6.788900894492525678e-03,2.405411693291610406e-06,6.521298372473761061e-03,2.405029956968918536e-06
2.123599999999999710e+00,2.165799999999999947e+00,6.891452822706994712e-03,1.145734671555524421e-06,3.282701289234544149e-03,7.464823061360744122e-07,6.364479408707033638e-03,2.478485242770391824e-06,3.207180219850717072e-03,1.202171733914775424e-06,6.327090327193230467e-03,2.478381156209158375e-06,6.074945945109429951e-03,2.477995160717704198e-06
2.165799999999999947e+00,2.208000000000000185e+00,6.419213885417371368e-03,1.120559577757028203e-06,2.919746840824019758e-03,6.728605073838323885e-07,5.904272885702266209e-03,2.763805255740858019e-06,2.852521664558852615e-03,1.029409062681314012e-06,5.866198187886465486e-03,2.763712858080852849e-06,5.629764954875169161e-03,2.763421030853814223e-06
2.208000000000000185e+00,2.250200000000000422e+00,5.940127040350084292e-03,1.115330343614097612e-06,2.576788897731614302e-03,6.778746430206568329e-07,5.441627641463573327e-03,2.304935695488740280e-06,2.515965764637260842e-03,9.985562894029405620e-07,5.408186753430446227e-03,2.304846522317633046e-06,5.188109236189052467e-03,2.304464793719422139e-06
2.250199999999999978e+00,2.292400000000000215e+00,5.434494901034783894e-03,1.101707124145103288e-06,2.243630581886033211e-03,6.075879077059250744e-07,4.953431030214877802e-03,2.179787521310941368e-06,2.188085253757116651e-03,9.180472105790492813e-07,4.924532674395769825e-03,2.179706269025604370e-06,4.722247800101023359e-03,2.179328954069280768e-06
2.292399999999999771e+00,2.334600000000000009e+00,4.888301364576217584e-03,1.048248238128147661e-06,1.916994560128091251e-03,5.791495047670258103e-07,4.435522245270691680e-03,2.188934147191354281e-06,1.869520275761071045e-03,9.571328451886653049e-07,4.410529581529209174e-03,2.188864113772691054e-06,4.227276060861365724e-03,2.188469670310701190e-06
2.334600000000000009e+00,2.376800000000000246e+00,4.313281811975705829e-03,1.049708819157875716e-06,1.602214611891963339e-03,5.513115100229245791e-07,3.895200057748925138e-03,2.125588433078672311e-06,1.562414068774879055e-03,8.162974519888488036e-07,3.874474348475330770e-03,2.125527229622451276e-06,3.711863718161655286e-03,2.125173935391635845e-06
2.376799999999999802e+00,2.419000000000000039e+00,3.697581616294774894e-03,9.459339815237429598e-07,1.305041622673367352e-03,4.976025587798605581e-07,3.318119315590956596e-03,1.971006996300390733e-06,1.271499385532658035e-03,7.316701047524294188e-07,3.301573296810556522e-03,1.970949118062933417e-06,3.161338918207527889e-03,1.970634235324854521e-06
2.418999999999999595e+00,2.461199999999999832e+00,3.007651250043400989e-03,9.129076988556431968e-07,1.018276574573151894e-03,4.498066980372326190e-07,2.680759381017121940e-03,1.845495051543737867e-06,9.906606527471674938e-04,6.746050537551997312e-07,2.667734770479957777e-03,1.845439108171317847e-06,2.553107578068757565e-03,1.845058075142152865e-06
2.461199999999999832e+00,2.503400000000000070e+00,2.187657010501468154e-03,8.308081262571865106e-07,7.418757303295373190e-04,3.928672183525222120e-07,1.951889394552409895e-03,1.532526671565888121e-06,7.208246513619437747e-04,5.697658414121920669e-07,1.940927772787236607e-03,1.532470585219069258e-06,1.857710003947594685e-03,1.532098344883943086e-06
2.503400000000000070e+00,2.545600000000000307e+00,1.344119652599202065e-03,5.328665572292776681e-07,4.772492014637339441e-04,3.231084393658305006e-07,1.210300547155292736e-03,1.106743444948676658e-06,4.639178805635957238e-04,4.682478600885467003e-07,1.201498185765662897e-03,1.106709009178673018e-06,1.150580477406206370e-03,1.106549481374796769e-06
2.545599999999999419e+00,2.587799999999999656e+00,6.957517625783607960e-04,3.531688970989559486e-07,2.470973683415822204e-04,2.387627399453017243e-07,6.233270322518917128e-04,7.360844851457856740e-07,2.400631192916655708e-04,3.814423617629274936e-07,6.184512624247328824e-04,7.360594417035470204e-07,5.920984692108351112e-04,7.359508016648612169e-07
2.587800000000000100e+00,2.630000000000000338e+00,1.549739808161592833e-04,1.658537422316010833e-07,5.433762257079522838e-05,1.068697894106346566e-07,1.377913863217939002e-04,3.350150194960161166e-07,5.246798308769350393e-05,1.588570904215716197e-07,1.366965765428593597e-04,3.350021597110668136e-07,1.308078790148004108e-04,3.349471657391080899e-07
