# xl,xh,LO,dLO,LOISC,dLOISC,NLO,dNLO,NLOISC,dNLOISC,NLOL,dNLOL,NLOnovp,dNLOnovp
8.000000000000000000e+03,8.040000000000000000e+03,0.000000000000000000e+00,0.000000000000000000e+00,0.000000000000000000e+00,0.000000000000000000e+00,6.390429627998015246e-08,1.353520854575652912e-09,6.390429627998015246e-08,1.353520854575652912e-09,6.390429627998015246e-08,1.353520854575652912e-09,6.390429627998015246e-08,1.353520854575652912e-09
8.040000000000000000e+03,8.080000000000000000e+03,0.000000000000000000e+00,0.000000000000000000e+00,0.000000000000000000e+00,0.000000000000000000e+00,7.960863841819487542e-08,1.642716643772009782e-09,7.960863841819487542e-08,1.642716643772009782e-09,7.960863841819487542e-08,1.642716643772009782e-09,7.960863841819487542e-08,1.642716643772009782e-09
8.080000000000000000e+03,8.120000000000000000e+03,0.000000000000000000e+00,0.000000000000000000e+00,0.000000000000000000e+00,0.000000000000000000e+00,9.271602762208107366e-08,1.579451443989748276e-09,9.271602762208107366e-08,1.579451443989748276e-09,9.271602762208107366e-08,1.579451443989748276e-09,9.271602762208107366e-08,1.579451443989748276e-09
8.120000000000000000e+03,8.160000000000000000e+03,0.000000000000000000e+00,0.000000000000000000e+00,0.000000000000000000e+00,0.000000000000000000e+00,1.052618398975683670e-07,1.563518756398363436e-09,1.052618398975683670e-07,1.563518756398363436e-09,1.052618398975683670e-07,1.563518756398363436e-09,1.052618398975683670e-07,1.563518756398363436e-09
8.160000000000000000e+03,8.200000000000000000e+03,0.000000000000000000e+00,0.000000000000000000e+00,0.000000000000000000e+00,0.000000000000000000e+00,1.160972173237257655e-07,1.269529068394353356e-09,1.160972173237257655e-07,1.269529068394353356e-09,1.160972173237257655e-07,1.269529068394353356e-09,1.160972173237257655e-07,1.269529068394353356e-09
8.200000000000000000e+03,8.240000000000000000e+03,0.000000000000000000e+00,0.000000000000000000e+00,0.000000000000000000e+00,0.000000000000000000e+00,1.362186611871590747e-07,1.441879516048310184e-09,1.362186611871590747e-07,1.441879516048310184e-09,1.362186611871590747e-07,1.441879516048310184e-09,1.362186611871590747e-07,1.441879516048310184e-09
8.240000000000000000e+03,8.280000000000000000e+03,0.000000000000000000e+00,0.000000000000000000e+00,0.000000000000000000e+00,0.000000000000000000e+00,1.543831288759855934e-07,1.446872126570375348e-09,1.543831288759855934e-07,1.446872126570375348e-09,1.543831288759855934e-07,1.446872126570375348e-09,1.543831288759855934e-07,1.446872126570375348e-09
8.280000000000000000e+03,8.320000000000000000e+03,0.000000000000000000e+00,0.000000000000000000e+00,0.000000000000000000e+00,0.000000000000000000e+00,1.785351932701291985e-07,1.654120208979872454e-09,1.785351932701291985e-07,1.654120208979872454e-09,1.785351932701291985e-07,1.654120208979872454e-09,1.785351932701291985e-07,1.654120208979872454e-09
8.320000000000000000e+03,8.360000000000000000e+03,0.000000000000000000e+00,0.000000000000000000e+00,0.000000000000000000e+00,0.000000000000000000e+00,2.037363190032772874e-07,1.612024911833256958e-09,2.037363190032772874e-07,1.612024911833256958e-09,2.037363190032772874e-07,1.612024911833256958e-09,2.037363190032772874e-07,1.612024911833256958e-09
8.360000000000000000e+03,8.400000000000000000e+03,0.000000000000000000e+00,0.000000000000000000e+00,0.000000000000000000e+00,0.000000000000000000e+00,2.310716185716450761e-07,1.707111967191112394e-09,2.310716185716450761e-07,1.707111967191112394e-09,2.310716185716450761e-07,1.707111967191112394e-09,2.310716185716450761e-07,1.707111967191112394e-09
8.400000000000000000e+03,8.440000000000000000e+03,0.000000000000000000e+00,0.000000000000000000e+00,0.000000000000000000e+00,0.000000000000000000e+00,2.622615304854706986e-07,1.536185172170124919e-09,2.622615304854706986e-07,1.536185172170124919e-09,2.622615304854706986e-07,1.536185172170124919e-09,2.622615304854706986e-07,1.536185172170124919e-09
8.440000000000000000e+03,8.480000000000000000e+03,0.000000000000000000e+00,0.000000000000000000e+00,0.000000000000000000e+00,0.000000000000000000e+00,2.980494269192972267e-07,1.557796428984116697e-09,2.980494269192972267e-07,1.557796428984116697e-09,2.980494269192972267e-07,1.557796428984116697e-09,2.980494269192972267e-07,1.557796428984116697e-09
8.480000000000000000e+03,8.520000000000000000e+03,0.000000000000000000e+00,0.000000000000000000e+00,0.000000000000000000e+00,0.000000000000000000e+00,3.416754315129713277e-07,1.717048395394905088e-09,3.416754315129713277e-07,1.717048395394905088e-09,3.416754315129713277e-07,1.717048395394905088e-09,3.416754315129713277e-07,1.717048395394905088e-09
8.520000000000000000e+03,8.560000000000000000e+03,0.000000000000000000e+00,0.000000000000000000e+00,0.000000000000000000e+00,0.000000000000000000e+00,3.937265470664283342e-07,2.470647702827233473e-09,3.937265470664283342e-07,2.470647702827233473e-09,3.937265470664283342e-07,2.470647702827233473e-09,3.937265470664283342e-07,2.470647702827233473e-09
8.560000000000000000e+03,8.600000000000000000e+03,0.000000000000000000e+00,0.000000000000000000e+00,0.000000000000000000e+00,0.000000000000000000e+00,4.584962432443425484e-07,1.732346468213046180e-09,4.584962432443425484e-07,1.732346468213046180e-09,4.584962432443425484e-07,1.732346468213046180e-09,4.584962432443425484e-07,1.732346468213046180e-09
8.600000000000000000e+03,8.640000000000000000e+03,0.000000000000000000e+00,0.000000000000000000e+00,0.000000000000000000e+00,0.000000000000000000e+00,5.668895861875112269e-07,2.276432175691111094e-09,5.668895861875112269e-07,2.276432175691111094e-09,5.668895861875112269e-07,2.276432175691111094e-09,5.668895861875112269e-07,2.276432175691111094e-09
8.640000000000000000e+03,8.680000000000000000e+03,0.000000000000000000e+00,0.000000000000000000e+00,0.000000000000000000e+00,0.000000000000000000e+00,5.981060987651201303e-07,1.814330661709937757e-09,5.981060987651201303e-07,1.814330661709937757e-09,5.981060987651201303e-07,1.814330661709937757e-09,5.981060987651201303e-07,1.814330661709937757e-09
8.680000000000000000e+03,8.720000000000000000e+03,0.000000000000000000e+00,0.000000000000000000e+00,0.000000000000000000e+00,0.000000000000000000e+00,6.181193304594971464e-07,1.765844663565799898e-09,6.181193304594971464e-07,1.765844663565799898e-09,6.181193304594971464e-07,1.765844663565799898e-09,6.181193304594971464e-07,1.765844663565799898e-09
8.720000000000000000e+03,8.760000000000000000e+03,0.000000000000000000e+00,0.000000000000000000e+00,0.000000000000000000e+00,0.000000000000000000e+00,6.435299964161608707e-07,1.762373581526220204e-09,6.435299964161608707e-07,1.762373581526220204e-09,6.435299964161608707e-07,1.762373581526220204e-09,6.435299964161608707e-07,1.762373581526220204e-09
8.760000000000000000e+03,8.800000000000000000e+03,0.000000000000000000e+00,0.000000000000000000e+00,0.000000000000000000e+00,0.000000000000000000e+00,6.645253495772298704e-07,1.748553006798993519e-09,6.645253495772298704e-07,1.748553006798993519e-09,6.645253495772298704e-07,1.748553006798993519e-09,6.645253495772298704e-07,1.748553006798993519e-09
8.800000000000000000e+03,8.840000000000000000e+03,0.000000000000000000e+00,0.000000000000000000e+00,0.000000000000000000e+00,0.000000000000000000e+00,6.893761402297537396e-07,2.446297721887610335e-09,6.893761402297537396e-07,2.446297721887610335e-09,6.893761402297537396e-07,2.446297721887610335e-09,6.893761402297537396e-07,2.446297721887610335e-09
8.840000000000000000e+03,8.880000000000000000e+03,0.000000000000000000e+00,0.000000000000000000e+00,0.000000000000000000e+00,0.000000000000000000e+00,7.230206136993579661e-07,2.249482257215175398e-09,7.230206136993579661e-07,2.249482257215175398e-09,7.230206136993579661e-07,2.249482257215175398e-09,7.230206136993579661e-07,2.249482257215175398e-09
8.880000000000000000e+03,8.920000000000000000e+03,0.000000000000000000e+00,0.000000000000000000e+00,0.000000000000000000e+00,0.000000000000000000e+00,7.442900759511744938e-07,1.825194670417075323e-09,7.442900759511744938e-07,1.825194670417075323e-09,7.442900759511744938e-07,1.825194670417075323e-09,7.442900759511744938e-07,1.825194670417075323e-09
8.920000000000000000e+03,8.960000000000000000e+03,0.000000000000000000e+00,0.000000000000000000e+00,0.000000000000000000e+00,0.000000000000000000e+00,7.765413045040125650e-07,1.800160967359282034e-09,7.765413045040125650e-07,1.800160967359282034e-09,7.765413045040125650e-07,1.800160967359282034e-09,7.765413045040125650e-07,1.800160967359282034e-09
8.960000000000000000e+03,9.000000000000000000e+03,0.000000000000000000e+00,0.000000000000000000e+00,0.000000000000000000e+00,0.000000000000000000e+00,8.137309817014599390e-07,1.881846704815042182e-09,8.137309817014599390e-07,1.881846704815042182e-09,8.137309817014599390e-07,1.881846704815042182e-09,8.137309817014599390e-07,1.881846704815042182e-09
9.000000000000000000e+03,9.040000000000000000e+03,0.000000000000000000e+00,0.000000000000000000e+00,0.000000000000000000e+00,0.000000000000000000e+00,8.474769522850969669e-07,1.985318246484638512e-09,8.474769522850969669e-07,1.985318246484638512e-09,8.474769522850969669e-07,1.985318246484638512e-09,8.474769522850969669e-07,1.985318246484638512e-09
9.040000000000000000e+03,9.080000000000000000e+03,0.000000000000000000e+00,0.000000000000000000e+00,0.000000000000000000e+00,0.000000000000000000e+00,8.848587578580725274e-07,2.060617153803651686e-09,8.848587578580725274e-07,2.060617153803651686e-09,8.848587578580725274e-07,2.060617153803651686e-09,8.848587578580725274e-07,2.060617153803651686e-09
9.080000000000000000e+03,9.120000000000000000e+03,0.000000000000000000e+00,0.000000000000000000e+00,0.000000000000000000e+00,0.000000000000000000e+00,9.284836904019124797e-07,2.144330917445515867e-09,9.284836904019124797e-07,2.144330917445515867e-09,9.284836904019124797e-07,2.144330917445515867e-09,9.284836904019124797e-07,2.144330917445515867e-09
9.120000000000000000e+03,9.160000000000000000e+03,0.000000000000000000e+00,0.000000000000000000e+00,0.000000000000000000e+00,0.000000000000000000e+00,9.777268189955117405e-07,2.432254085296667966e-09,9.777268189955117405e-07,2.432254085296667966e-09,9.777268189955117405e-07,2.432254085296667966e-09,9.777268189955117405e-07,2.432254085296667966e-09
9.160000000000000000e+03,9.200000000000000000e+03,0.000000000000000000e+00,0.000000000000000000e+00,0.000000000000000000e+00,0.000000000000000000e+00,1.027337102302986871e-06,1.997010362353933372e-09,1.027337102302986871e-06,1.997010362353933372e-09,1.027337102302986871e-06,1.997010362353933372e-09,1.027337102302986871e-06,1.997010362353933372e-09
9.200000000000000000e+03,9.240000000000000000e+03,0.000000000000000000e+00,0.000000000000000000e+00,0.000000000000000000e+00,0.000000000000000000e+00,1.082366625628453087e-06,2.050459133161804029e-09,1.082366625628453087e-06,2.050459133161804029e-09,1.082366625628453087e-06,2.050459133161804029e-09,1.082366625628453087e-06,2.050459133161804029e-09
9.240000000000000000e+03,9.280000000000000000e+03,0.000000000000000000e+00,0.000000000000000000e+00,0.000000000000000000e+00,0.000000000000000000e+00,1.149566625557016201e-06,1.929585215518758088e-09,1.149566625557016201e-06,1.929585215518758088e-09,1.149566625557016201e-06,1.929585215518758088e-09,1.149566625557016201e-06,1.929585215518758088e-09
9.280000000000000000e+03,9.320000000000000000e+03,0.000000000000000000e+00,0.000000000000000000e+00,0.000000000000000000e+00,0.000000000000000000e+00,1.215026492197353993e-06,2.063270622640091187e-09,1.215026492197353993e-06,2.063270622640091187e-09,1.215026492197353993e-06,2.063270622640091187e-09,1.215026492197353993e-06,2.063270622640091187e-09
9.320000000000000000e+03,9.360000000000000000e+03,0.000000000000000000e+00,0.000000000000000000e+00,0.000000000000000000e+00,0.000000000000000000e+00,1.294935588286846871e-06,2.403346217582760384e-09,1.294935588286846871e-06,2.403346217582760384e-09,1.294935588286846871e-06,2.403346217582760384e-09,1.294935588286846871e-06,2.403346217582760384e-09
9.360000000000000000e+03,9.400000000000000000e+03,0.000000000000000000e+00,0.000000000000000000e+00,0.000000000000000000e+00,0.000000000000000000e+00,1.382017385513419413e-06,2.201009024950964042e-09,1.382017385513419413e-06,2.201009024950964042e-09,1.382017385513419413e-06,2.201009024950964042e-09,1.382017385513419413e-06,2.201009024950964042e-09
9.400000000000000000e+03,9.440000000000000000e+03,0.000000000000000000e+00,0.000000000000000000e+00,0.000000000000000000e+00,0.000000000000000000e+00,1.484098799142702915e-06,2.231824283469783089e-09,1.484098799142702915e-06,2.231824283469783089e-09,1.484098799142702915e-06,2.231824283469783089e-09,1.484098799142702915e-06,2.231824283469783089e-09
9.440000000000000000e+03,9.480000000000000000e+03,0.000000000000000000e+00,0.000000000000000000e+00,0.000000000000000000e+00,0.000000000000000000e+00,1.598330413689208589e-06,2.345731619656084879e-09,1.598330413689208589e-06,2.345731619656084879e-09,1.598330413689208589e-06,2.345731619656084879e-09,1.598330413689208589e-06,2.345731619656084879e-09
9.480000000000000000e+03,9.520000000000000000e+03,0.000000000000000000e+00,0.000000000000000000e+00,0.000000000000000000e+00,0.000000000000000000e+00,1.733806243214791371e-06,2.300256330761400795e-09,1.733806243214791371e-06,2.300256330761400795e-09,1.733806243214791371e-06,2.300256330761400795e-09,1.733806243214791371e-06,2.300256330761400795e-09
9.520000000000000000e+03,9.560000000000000000e+03,0.000000000000000000e+00,0.000000000000000000e+00,0.000000000000000000e+00,0.000000000000000000e+00,1.893656538502224117e-06,2.470368838623503035e-09,1.893656538502224117e-06,2.470368838623503035e-09,1.893656538502224117e-06,2.470368838623503035e-09,1.893656538502224117e-06,2.470368838623503035e-09
9.560000000000000000e+03,9.600000000000000000e+03,0.000000000000000000e+00,0.000000000000000000e+00,0.000000000000000000e+00,0.000000000000000000e+00,2.081966184641296137e-06,2.294269667545641134e-09,2.081966184641296137e-06,2.294269667545641134e-09,2.081966184641296137e-06,2.294269667545641134e-09,2.081966184641296137e-06,2.294269667545641134e-09
9.600000000000000000e+03,9.640000000000000000e+03,0.000000000000000000e+00,0.000000000000000000e+00,0.000000000000000000e+00,0.000000000000000000e+00,2.308669724208876092e-06,2.660132470405718893e-09,2.308669724208876092e-06,2.660132470405718893e-09,2.308669724208876092e-06,2.660132470405718893e-09,2.308669724208876092e-06,2.660132470405718893e-09
9.640000000000000000e+03,9.680000000000000000e+03,0.000000000000000000e+00,0.000000000000000000e+00,0.000000000000000000e+00,0.000000000000000000e+00,2.586761938094329559e-06,2.563836906983186896e-09,2.586761938094329559e-06,2.563836906983186896e-09,2.586761938094329559e-06,2.563836906983186896e-09,2.586761938094329559e-06,2.563836906983186896e-09
9.680000000000000000e+03,9.720000000000000000e+03,0.000000000000000000e+00,0.000000000000000000e+00,0.000000000000000000e+00,0.000000000000000000e+00,2.947580030329055926e-06,2.758119825278007060e-09,2.947580030329055926e-06,2.758119825278007060e-09,2.947580030329055926e-06,2.758119825278007060e-09,2.947580030329055926e-06,2.758119825278007060e-09
9.720000000000000000e+03,9.760000000000000000e+03,0.000000000000000000e+00,0.000000000000000000e+00,0.000000000000000000e+00,0.000000000000000000e+00,3.416882478730294467e-06,3.036610012613691555e-09,3.416882478730294467e-06,3.036610012613691555e-09,3.416882478730294467e-06,3.036610012613691555e-09,3.416882478730294467e-06,3.036610012613691555e-09
9.760000000000000000e+03,9.800000000000000000e+03,0.000000000000000000e+00,0.000000000000000000e+00,0.000000000000000000e+00,0.000000000000000000e+00,4.049027969108420884e-06,2.825997973234591988e-09,4.049027969108420884e-06,2.825997973234591988e-09,4.049027969108420884e-06,2.825997973234591988e-09,4.049027969108420884e-06,2.825997973234591988e-09
9.800000000000000000e+03,9.840000000000000000e+03,0.000000000000000000e+00,0.000000000000000000e+00,0.000000000000000000e+00,0.000000000000000000e+00,4.975300251070466993e-06,3.352636125230761181e-09,4.975300251070466993e-06,3.352636125230761181e-09,4.975300251070466993e-06,3.352636125230761181e-09,4.975300251070466993e-06,3.352636125230761181e-09
9.840000000000000000e+03,9.880000000000000000e+03,0.000000000000000000e+00,0.000000000000000000e+00,0.000000000000000000e+00,0.000000000000000000e+00,6.437665439941516818e-06,3.770521475271434746e-09,6.437665439941516818e-06,3.770521475271434746e-09,6.437665439941516818e-06,3.770521475271434746e-09,6.437665439941516818e-06,3.770521475271434746e-09
9.880000000000000000e+03,9.920000000000000000e+03,0.000000000000000000e+00,0.000000000000000000e+00,0.000000000000000000e+00,0.000000000000000000e+00,9.118421961264970706e-06,3.906584497876255709e-09,9.118421961264970706e-06,3.906584497876255709e-09,9.118421961264970706e-06,3.906584497876255709e-09,9.118421961264970706e-06,3.906584497876255709e-09
9.920000000000000000e+03,9.960000000000000000e+03,0.000000000000000000e+00,0.000000000000000000e+00,0.000000000000000000e+00,0.000000000000000000e+00,1.564554666628896788e-05,4.704084017626031629e-09,1.564554666628896788e-05,4.704084017626031629e-09,1.564554666628896788e-05,4.704084017626031629e-09,1.564554666628896788e-05,4.704084017626031629e-09
9.960000000000000000e+03,1.000000000000000000e+04,2.603532260915176382e-04,1.371790348220012563e-09,2.603521328982619926e-04,1.371790303449392339e-09,1.693386227771214282e-04,1.384064502064831140e-08,1.693375295838657826e-04,1.384064501621095229e-08,1.693386227771214282e-04,1.384064502064831140e-08,1.693386227771214282e-04,1.384064502064831140e-08
