# xl,xh,LO,dLO,LOISC,dLOISC,NLO,dNLO,NLOISC,dNLOISC,NLOL,dNLOL,NLOnovp,dNLOnovp
0.000000000000000000e+00,4.000000000000000000e+01,0.000000000000000000e+00,0.000000000000000000e+00,0.000000000000000000e+00,0.000000000000000000e+00,0.000000000000000000e+00,0.000000000000000000e+00,0.000000000000000000e+00,0.000000000000000000e+00,0.000000000000000000e+00,0.000000000000000000e+00,0.000000000000000000e+00,0.000000000000000000e+00
4.000000000000000000e+01,8.000000000000000000e+01,0.000000000000000000e+00,0.000000000000000000e+00,0.000000000000000000e+00,0.000000000000000000e+00,0.000000000000000000e+00,0.000000000000000000e+00,0.000000000000000000e+00,0.000000000000000000e+00,0.000000000000000000e+00,0.000000000000000000e+00,0.000000000000000000e+00,0.000000000000000000e+00
8.000000000000000000e+01,1.200000000000000000e+02,0.000000000000000000e+00,0.000000000000000000e+00,0.000000000000000000e+00,0.000000000000000000e+00,0.000000000000000000e+00,0.000000000000000000e+00,0.000000000000000000e+00,0.000000000000000000e+00,0.000000000000000000e+00,0.000000000000000000e+00,0.000000000000000000e+00,0.000000000000000000e+00
1.200000000000000000e+02,1.600000000000000000e+02,0.000000000000000000e+00,0.000000000000000000e+00,0.000000000000000000e+00,0.000000000000000000e+00,0.000000000000000000e+00,0.000000000000000000e+00,0.000000000000000000e+00,0.000000000000000000e+00,0.000000000000000000e+00,0.000000000000000000e+00,0.000000000000000000e+00,0.000000000000000000e+00
1.600000000000000000e+02,2.000000000000000000e+02,0.000000000000000000e+00,0.000000000000000000e+00,0.000000000000000000e+00,0.000000000000000000e+00,0.000000000000000000e+00,0.000000000000000000e+00,0.000000000000000000e+00,0.000000000000000000e+00,0.000000000000000000e+00,0.000000000000000000e+00,0.000000000000000000e+00,0.000000000000000000e+00
2.000000000000000000e+02,2.400000000000000000e+02,0.000000000000000000e+00,0.000000000000000000e+00,0.000000000000000000e+00,0.000000000000000000e+00,0.000000000000000000e+00,0.000000000000000000e+00,0.000000000000000000e+00,0.000000000000000000e+00,0.000000000000000000e+00,0.000000000000000000e+00,0.000000000000000000e+00,0.000000000000000000e+00
2.400000000000000000e+02,2.800000000000000000e+02,2.987617344956219274e-11,5.138241762224188714e-14,2.987608023551682539e-11,5.138194894299476571e-14,2.786287593026566031e-11,1.379056126336073765e-12,2.786278271622029297e-11,1.379056108873576944e-12,2.786287593026566031e-11,1.379056126336073765e-12,2.786287593026566031e-11,1.379056126336073765e-12
2.800000000000000000e+02,3.200000000000000000e+02,3.664349033973517624e-07,8.607176183074748821e-11,3.664347518005958039e-07,8.607174526963071244e-11,3.561731178046364303e-07,1.166304813969395036e-09,3.561729662078804719e-07,1.166304812747206523e-09,3.561731178046364303e-07,1.166304813969395036e-09,3.561731178046364303e-07,1.166304813969395036e-09
3.200000000000000000e+02,3.600000000000000000e+02,1.306710314462976410e-06,2.543845551449976049e-10,1.306710076411662291e-06,2.543845345887725791e-10,1.268467554055523483e-06,2.624570253624593199e-09,1.268467316004209364e-06,2.624570251632196344e-09,1.268467554055523483e-06,2.624570253624593199e-09,1.268467554055523483e-06,2.624570253624593199e-09
3.600000000000000000e+02,4.000000000000000000e+02,2.210067744691015525e-06,3.929577441996680058e-10,2.210067687326478279e-06,3.929577207970637240e-10,2.136537660449586905e-06,4.600097594373966970e-09,2.136537603085049658e-06,4.600097592374827767e-09,2.136537660449586905e-06,4.600097594373966970e-09,2.136537660449586905e-06,4.600097594373966970e-09
4.000000000000000000e+02,4.400000000000000000e+02,3.037423349428215623e-06,4.690502427976089792e-10,3.037423153724051757e-06,4.690502185674238845e-10,2.927225524169861397e-06,4.723795945574180178e-09,2.927225328465697530e-06,4.723795943168238512e-09,2.927225524169861397e-06,4.723795945574180178e-09,2.927225524169861397e-06,4.723795945574180178e-09
4.400000000000000000e+02,4.800000000000000000e+02,3.924054203892459578e-06,5.909310481774036481e-10,3.924053726393093915e-06,5.909310237598604903e-10,3.788128590405344594e-06,5.182721290052745818e-09,3.788128112905978930e-06,5.182721287268670943e-09,3.788128590405344594e-06,5.182721290052745818e-09,3.788128590405344594e-06,5.182721290052745818e-09
4.800000000000000000e+02,5.200000000000000000e+02,5.021954692866739930e-06,6.912625311274491905e-10,5.021954606453134912e-06,6.912625022071373047e-10,4.840316527030082774e-06,8.474395408182750826e-09,4.840316440616477757e-06,8.474395405823701202e-09,4.840316527030082774e-06,8.474395408182750826e-09,4.840316527030082774e-06,8.474395408182750826e-09
5.200000000000000000e+02,5.600000000000000000e+02,6.548212631468414320e-06,8.689054803751064288e-10,6.548212317335834102e-06,8.689054544914612189e-10,6.309238141997374368e-06,7.506556838851710524e-09,6.309237827864794150e-06,7.506556835855604443e-09,6.309238141997374368e-06,7.506556838851710524e-09,6.309238141997374368e-06,7.506556838851710524e-09
5.600000000000000000e+02,6.000000000000000000e+02,8.877591055341785189e-06,9.231207705048178127e-10,8.877590930468320552e-06,9.231207439646425559e-10,8.558883219290218606e-06,1.232584478788425329e-08,8.558883094416753969e-06,1.232584478589657633e-08,8.558883219290218606e-06,1.232584478788425329e-08,8.558883219290218606e-06,1.232584478788425329e-08
6.000000000000000000e+02,6.400000000000000000e+02,1.275948683195047405e-05,9.977718470287619965e-10,1.275948640013949466e-05,9.977718163855075478e-10,1.227748651570069792e-05,1.626592513714017043e-08,1.227748608388971853e-05,1.626592513526047528e-08,1.227748651570069792e-05,1.626592513714017043e-08,1.227748651570069792e-05,1.626592513714017043e-08
6.400000000000000000e+02,6.800000000000000000e+02,1.974140465824520180e-05,1.140153226744057208e-09,1.974140388628573673e-05,1.140153200009931362e-09,1.898914984260525690e-05,1.301058327094477411e-08,1.898914907064579182e-05,1.301058326860198851e-08,1.898914984260525690e-05,1.301058327094477411e-08,1.898914984260525690e-05,1.301058327094477411e-08
6.800000000000000000e+02,7.200000000000000000e+02,3.231411698571442614e-05,1.238382292550693190e-09,3.231411700889608483e-05,1.238382263229010317e-09,3.108948211101103878e-05,1.835087809945688234e-08,3.108948213419269747e-05,1.835087809747815051e-08,3.108948211101103878e-05,1.835087809945688234e-08,3.108948211101103878e-05,1.835087809945688234e-08
7.200000000000000000e+02,7.600000000000000000e+02,4.807531792815205609e-05,1.321720902408620014e-09,4.807531744892598835e-05,1.321720886268657839e-09,4.620409116058344268e-05,2.372251829788119047e-08,4.620409068135737494e-05,2.372251829698193927e-08,4.620409116058344268e-05,2.372251829788119047e-08,4.620409116058344268e-05,2.372251829788119047e-08
7.600000000000000000e+02,8.000000000000000000e+02,4.531951308090240133e-05,1.141383103543372081e-09,4.531951263671717860e-05,1.141383099981694284e-09,4.355181002944904454e-05,2.192312801880113201e-08,4.355180958526382181e-05,2.192312801861570128e-08,4.355181002944904454e-05,2.192312801880113201e-08,4.355181002944904454e-05,2.192312801880113201e-08
8.000000000000000000e+02,8.400000000000000000e+02,2.646337186090671548e-05,1.044888870390645380e-09,2.646337140100199782e-05,1.044888853851703804e-09,2.544272357891862600e-05,1.196320853325469510e-08,2.544272311901390834e-05,1.196320853181015320e-08,2.544272357891862600e-05,1.196320853325469510e-08,2.544272357891862600e-05,1.196320853325469510e-08
8.400000000000000000e+02,8.800000000000000000e+02,1.484460975719337324e-05,9.125160299505453160e-10,1.484460934542317814e-05,9.125160014365409282e-10,1.425608671696264136e-05,8.907340960529357655e-09,1.425608630519244626e-05,8.907340957608230533e-09,1.425608671696264136e-05,8.907340960529357655e-09,1.425608671696264136e-05,8.907340960529357655e-09
8.800000000000000000e+02,9.200000000000000000e+02,8.651354451851078298e-06,7.686805197319720959e-10,8.651353819239293754e-06,7.686804932243985086e-10,8.311451084458330345e-06,5.073154583652450875e-09,8.311450451846545800e-06,5.073154579636043150e-09,8.311451084458330345e-06,5.073154583652450875e-09,8.311451084458330345e-06,5.073154583652450875e-09
9.200000000000000000e+02,9.600000000000000000e+02,5.430392371066599754e-06,6.500320652542753975e-10,5.430391655116542031e-06,6.500320338933985473e-10,5.214422533241600795e-06,2.903802610991567960e-09,5.214421817291543072e-06,2.903802603971265008e-09,5.214422533241600795e-06,2.903802610991567960e-09,5.214422533241600795e-06,2.903802610991567960e-09
9.600000000000000000e+02,1.000000000000000000e+03,3.626561292163073236e-06,4.697100844932339917e-10,3.626560931694826612e-06,4.697100366754510996e-10,3.483882549318830740e-06,2.064856453796509149e-09,3.483882188850584115e-06,2.064856442919000962e-09,3.483882549318830740e-06,2.064856453796509149e-09,3.483882549318830740e-06,2.064856453796509149e-09
1.000000000000000000e+03,1.040000000000000000e+03,2.565444295685408782e-06,3.762516581053440686e-10,2.565443795845724894e-06,3.762515982309729425e-10,2.463216602201562355e-06,1.706742377041204413e-09,2.463216102361878467e-06,1.706742363841889789e-09,2.463216602201562355e-06,1.706742377041204413e-09,2.463216602201562355e-06,1.706742377041204413e-09
1.040000000000000000e+03,1.080000000000000000e+03,1.938845070196043007e-06,4.444372580684194940e-10,1.938844665447815834e-06,4.444372214294999207e-10,1.859709690878309382e-06,1.442154967568961717e-09,1.859709286130082210e-06,1.442154956277733770e-09,1.859709690878309382e-06,1.442154967568961717e-09,1.859709690878309382e-06,1.442154967568961717e-09
1.080000000000000000e+03,1.120000000000000000e+03,1.472436872907486963e-06,3.669953755110816566e-10,1.472436400554171080e-06,3.669953390772978603e-10,1.413185969611666320e-06,8.003872245178302257e-10,1.413185497258350437e-06,8.003872078121293487e-10,1.413185969611666320e-06,8.003872245178302257e-10,1.413185969611666320e-06,8.003872245178302257e-10
1.120000000000000000e+03,1.160000000000000000e+03,1.151892321931180934e-06,3.270200907395920721e-10,1.151891321354452267e-06,3.270200465370786131e-10,1.106119122260744904e-06,1.066379555959539825e-09,1.106118121684016236e-06,1.066379542404226518e-09,1.106119122260744904e-06,1.066379555959539825e-09,1.106119122260744904e-06,1.066379555959539825e-09
1.160000000000000000e+03,1.200000000000000000e+03,9.195068087345400578e-07,2.927211729494291986e-10,9.195064864993727916e-07,2.927211382140606126e-10,8.824596658448490096e-07,6.511304293372923170e-10,8.824593436096817434e-07,6.511304137217153985e-10,8.824596658448490096e-07,6.511304293372923170e-10,8.824596658448490096e-07,6.511304293372923170e-10
1.200000000000000000e+03,1.240000000000000000e+03,7.431956629866943581e-07,2.505546841069279506e-10,7.431949074612512477e-07,2.505546421204013673e-10,7.136256829858337201e-07,5.356109378399230105e-10,7.136249274603906096e-07,5.356109181989494993e-10,7.136256829858337201e-07,5.356109378399230105e-10,7.136256829858337201e-07,5.356109378399230105e-10
1.240000000000000000e+03,1.280000000000000000e+03,6.003596048211404240e-07,2.400357008769496450e-10,6.003589243423271729e-07,2.400356570307965023e-10,5.760622614967007365e-07,4.481267975837432327e-10,5.760615810178874854e-07,4.481267740978872548e-10,5.760622614967007365e-07,4.481267975837432327e-10,5.760622614967007365e-07,4.481267975837432327e-10
1.280000000000000000e+03,1.320000000000000000e+03,4.765508339520312770e-07,1.770408355355940836e-10,4.765502054459264953e-07,1.770407926779746607e-10,4.571940046809168679e-07,3.330081594070046037e-10,4.571933761748120862e-07,3.330081366221331681e-10,4.571940046809168679e-07,3.330081594070046037e-10,4.571940046809168679e-07,3.330081594070046037e-10
1.320000000000000000e+03,1.360000000000000000e+03,3.624311937448035714e-07,1.427980659548428102e-10,3.624303678728370695e-07,1.427980035430328322e-10,3.478585303141418163e-07,2.692989970627164198e-10,3.478577044421753145e-07,2.692989639683326695e-10,3.478585303141418163e-07,2.692989970627164198e-10,3.478585303141418163e-07,2.692989970627164198e-10
1.360000000000000000e+03,1.400000000000000000e+03,2.515946972248673786e-07,1.007522903942440428e-10,2.515941014769416394e-07,1.007522263970337758e-10,2.412601401991934653e-07,1.937613551430506750e-10,2.412595444512677261e-07,1.937613218657028192e-10,2.412601401991934653e-07,1.937613551430506750e-10,2.412601401991934653e-07,1.937613551430506750e-10
1.400000000000000000e+03,1.440000000000000000e+03,1.497763403168639014e-07,7.449684974344858115e-11,1.497754018393086966e-07,7.449677491437885215e-11,1.437187114880661565e-07,1.146612073371102210e-10,1.437177730105109516e-07,1.146611587197227337e-10,1.437187114880661565e-07,1.146612073371102210e-10,1.437187114880661565e-07,1.146612073371102210e-10
1.440000000000000000e+03,1.480000000000000000e+03,6.864482903633431737e-08,3.814699168415011822e-11,6.864399430777305487e-08,3.814693573153912747e-11,6.583527312936299230e-08,5.386548071402168963e-11,6.583443840080172980e-08,5.386544108895981966e-11,6.583527312936299230e-08,5.386548071402168963e-11,6.583527312936299230e-08,5.386548071402168963e-11
1.480000000000000000e+03,1.520000000000000000e+03,1.999765332666659743e-08,1.226419200156447118e-11,1.999677342046474041e-08,1.226405142334131874e-11,1.920249113007893888e-08,1.703420941126579769e-11,1.920161122387708186e-08,1.703410819884559006e-11,1.920249113007893888e-08,1.703420941126579769e-11,1.920249113007893888e-08,1.703420941126579769e-11
1.520000000000000000e+03,1.560000000000000000e+03,3.021333361056575606e-09,2.143793831602285324e-12,3.020520705564444440e-09,2.143364490928681847e-12,2.899226338977000050e-09,3.189712604504498897e-12,2.898413683484868884e-09,3.189424062098490527e-12,2.899226338977000050e-09,3.189712604504498897e-12,2.899226338977000050e-09,3.189712604504498897e-12
1.560000000000000000e+03,1.600000000000000000e+03,7.604337376541566273e-09,6.026772250049163390e-12,7.603448778325703500e-09,6.026687906053949151e-12,7.300437201000308281e-09,1.348718260048053113e-11,7.299548602784445508e-09,1.348714491142284225e-11,7.300437201000308281e-09,1.348718260048053113e-11,7.300437201000308281e-09,1.348718260048053113e-11
1.600000000000000000e+03,1.640000000000000000e+03,2.361505154728540408e-08,1.909045281418203594e-11,2.361409726856283717e-08,1.909043189375493436e-11,2.264103240100223630e-08,2.585999157329554351e-11,2.264007812227966939e-08,2.585997612934902488e-11,2.264103240100223630e-08,2.585999157329554351e-11,2.264103240100223630e-08,2.585999157329554351e-11
1.640000000000000000e+03,1.680000000000000000e+03,4.506309683484215997e-08,3.849852522649848333e-11,4.506219465818402584e-08,3.849850591993760192e-11,4.328377881996312525e-08,4.549179682831820461e-11,4.328287664330499111e-08,4.549178048967871794e-11,4.328377881996312525e-08,4.549179682831820461e-11,4.328377881996312525e-08,4.549179682831820461e-11
1.680000000000000000e+03,1.720000000000000000e+03,6.938639313511571089e-08,4.999477341052612147e-11,6.938544730683193043e-08,4.999473500573122410e-11,6.658223384475880117e-08,6.629799664180658066e-11,6.658128801647502070e-08,6.629796768107174839e-11,6.658223384475880117e-08,6.629799664180658066e-11,6.658223384475880117e-08,6.629799664180658066e-11
1.720000000000000000e+03,1.760000000000000000e+03,9.470634853274496503e-08,7.347427499755708863e-11,9.470531287706234993e-08,7.347420575778509331e-11,9.086139127524339363e-08,1.020262983255265685e-10,9.086035561956077854e-08,1.020262484624914803e-10,9.086139127524339363e-08,1.020262983255265685e-10,9.086139127524339363e-08,1.020262983255265685e-10
1.760000000000000000e+03,1.800000000000000000e+03,1.171936779198762091e-07,1.043765639519863914e-10,1.171927239718995635e-07,1.043765041291687154e-10,1.125195367814832930e-07,1.279032990503269257e-10,1.125185828335066474e-07,1.279032502314176004e-10,1.125195367814832930e-07,1.279032990503269257e-10,1.125195367814832930e-07,1.279032990503269257e-10
1.800000000000000000e+03,1.840000000000000000e+03,1.292523966190226682e-07,1.424671119562271662e-10,1.292512854849901267e-07,1.424670818771454124e-10,1.240120112480907614e-07,1.708126464049077712e-10,1.240109001140582198e-07,1.708126213173053297e-10,1.240120112480907614e-07,1.708126464049077712e-10,1.240120112480907614e-07,1.708126464049077712e-10
1.840000000000000000e+03,1.880000000000000000e+03,1.227023008711622016e-07,1.234849338848394382e-10,1.227013058466134833e-07,1.234849069975476343e-10,1.177542959385755912e-07,1.534663664594239416e-10,1.177533009140268728e-07,1.534663448248769118e-10,1.177542959385755912e-07,1.534663664594239416e-10,1.177542959385755912e-07,1.534663664594239416e-10
1.880000000000000000e+03,1.920000000000000000e+03,1.005825687598860578e-07,1.378873649308875855e-10,1.005815289963888527e-07,1.378873386588512478e-10,9.665217573662766565e-08,1.561220187401451997e-10,9.665113597313046059e-08,1.561219955366162270e-10,9.665217573662766565e-08,1.561220187401451997e-10,9.665217573662766565e-08,1.561220187401451997e-10
1.920000000000000000e+03,1.960000000000000000e+03,7.431500097977231495e-08,1.042517921575661993e-10,7.431388772683304278e-08,1.042517632099475952e-10,7.140527767536836196e-08,1.173969112298993257e-10,7.140416442242908980e-08,1.173968855235924367e-10,7.140527767536836196e-08,1.173969112298993257e-10,7.140527767536836196e-08,1.173969112298993257e-10
1.960000000000000000e+03,2.000000000000000000e+03,5.195052334172217784e-08,8.635589498095178982e-11,5.194950141883585730e-08,8.635586254339675026e-11,4.985451380305888010e-08,9.268545615964852644e-11,4.985349188017255956e-08,9.268542593727984564e-11,4.985451380305888010e-08,9.268545615964852644e-11,4.985451380305888010e-08,9.268545615964852644e-11
2.000000000000000000e+03,2.040000000000000000e+03,3.594999272007299700e-08,5.505181527181325607e-11,3.594879003789918465e-08,5.505177082991147240e-11,3.453903507772655931e-08,6.010780049500353819e-11,3.453783239555274696e-08,6.010775979134796769e-11,3.453903507772655931e-08,6.010780049500353819e-11,3.453903507772655931e-08,6.010780049500353819e-11
2.040000000000000000e+03,2.080000000000000000e+03,2.495943231471297472e-08,3.575498552475014697e-11,2.495821434460452806e-08,3.575492950135535312e-11,2.397191086194976882e-08,4.054349712356272665e-11,2.397069289184132216e-08,4.054344771698798874e-11,2.397191086194976882e-08,4.054349712356272665e-11,2.397191086194976882e-08,4.054349712356272665e-11
2.080000000000000000e+03,2.120000000000000000e+03,1.767955034946322754e-08,2.699789051880244628e-11,1.767837637524002796e-08,2.699782048336625662e-11,1.698969910684438055e-08,2.971019049628167142e-11,1.698852513262118097e-08,2.971012685452845898e-11,1.698969910684438055e-08,2.971019049628167142e-11,1.698969910684438055e-08,2.971019049628167142e-11
2.120000000000000000e+03,2.160000000000000000e+03,1.302501194745570378e-08,2.013641787226490663e-11,1.302375737646325573e-08,2.013632583567688111e-11,1.251681756594911532e-08,2.311587704739389939e-11,1.251556299495666727e-08,2.311579687366002671e-11,1.251681756594911532e-08,2.311587704739389939e-11,1.251681756594911532e-08,2.311587704739389939e-11
2.160000000000000000e+03,2.200000000000000000e+03,1.103632821639418613e-08,1.963617189070825737e-11,1.103504817102004292e-08,1.963609479753995570e-11,1.061278137548305678e-08,2.093267454366844304e-11,1.061150133010891357e-08,2.093260222542050619e-11,1.061278137548305678e-08,2.093267454366844304e-11,1.061278137548305678e-08,2.093267454366844304e-11
2.200000000000000000e+03,2.240000000000000000e+03,1.332022913620132267e-08,2.019955387547609142e-11,1.331894171359678426e-08,2.019948378577023613e-11,1.282027236430224060e-08,2.231993701495846540e-11,1.281898494169770219e-08,2.231987358376042342e-11,1.282027236430224060e-08,2.231993701495846540e-11,1.282027236430224060e-08,2.231993701495846540e-11
2.240000000000000000e+03,2.280000000000000000e+03,2.037144026682503873e-08,3.773878283633969107e-11,2.037007150229656214e-08,3.773873908578502021e-11,1.958733591635117513e-08,4.035746844231736054e-11,1.958596715182269854e-08,4.035742753061934548e-11,1.958733591635117513e-08,4.035746844231736054e-11,1.958733591635117513e-08,4.035746844231736054e-11
2.280000000000000000e+03,2.320000000000000000e+03,1.991647279154972433e-08,3.593841540612434552e-11,1.991511236383395243e-08,3.593837380443577446e-11,1.916130699827347942e-08,3.795887618103931565e-11,1.915994657055770752e-08,3.795883679371213287e-11,1.916130699827347942e-08,3.795887618103931565e-11,1.916130699827347942e-08,3.795887618103931565e-11
2.320000000000000000e+03,2.360000000000000000e+03,1.441305599464232742e-08,2.638503942988783982e-11,1.441159706744502740e-08,2.638498147187766235e-11,1.386565997891928293e-08,2.806925890301304260e-11,1.386420105172198291e-08,2.806920442262246494e-11,1.386565997891928293e-08,2.806925890301304260e-11,1.386565997891928293e-08,2.806925890301304260e-11
2.360000000000000000e+03,2.400000000000000000e+03,1.054206900446307105e-08,2.206916195695357786e-11,1.054058639435218654e-08,2.206909654254490686e-11,1.014687914294314368e-08,2.325150064262074680e-11,1.014539653283225917e-08,2.325143855454353720e-11,1.014687914294314368e-08,2.325150064262074680e-11,1.014687914294314368e-08,2.325150064262074680e-11
2.400000000000000000e+03,2.440000000000000000e+03,8.174061573596319462e-09,1.640477446400430785e-11,8.172531254442787163e-09,1.640469108511772818e-11,7.875342850423020474e-09,1.713737531173580785e-11,7.873812531269488175e-09,1.713729549720681900e-11,7.875342850423020474e-09,1.713737531173580785e-11,7.875342850423020474e-09,1.713737531173580785e-11
2.440000000000000000e+03,2.480000000000000000e+03,6.604615971825119351e-09,1.255090785661233667e-11,6.603214421697213144e-09,1.255080359664123459e-11,6.356316082965792537e-09,1.334441323785739164e-11,6.354914532837886330e-09,1.334431517759502055e-11,6.356316082965792537e-09,1.334441323785739164e-11,6.356316082965792537e-09,1.334441323785739164e-11
2.480000000000000000e+03,2.520000000000000000e+03,5.536628869592899618e-09,1.105591749394410469e-11,5.535108323641846166e-09,1.105582988527395569e-11,5.329671713639989910e-09,1.180365798669740808e-11,5.328151167688936458e-09,1.180357592791874975e-11,5.329671713639989910e-09,1.180365798669740808e-11,5.329671713639989910e-09,1.180365798669740808e-11
2.520000000000000000e+03,2.560000000000000000e+03,4.751940108154085981e-09,9.227476743031047686e-12,4.750333116740497604e-09,9.227350661428510538e-12,4.571913288891028068e-09,9.748764364540849095e-12,4.570306297477439691e-09,9.748645024880526546e-12,4.571913288891028068e-09,9.748764364540849095e-12,4.571913288891028068e-09,9.748764364540849095e-12
2.560000000000000000e+03,2.600000000000000000e+03,4.148142756507866792e-09,9.778582814038591209e-12,4.146515805319012227e-09,9.778478415386114789e-12,3.994441234511594860e-09,1.031711696823878586e-11,3.992814283322740295e-09,1.031701801905385384e-11,3.994441234511594860e-09,1.031711696823878586e-11,3.994441234511594860e-09,1.031711696823878586e-11
2.600000000000000000e+03,2.640000000000000000e+03,3.681220042829385351e-09,7.956892030214032010e-12,3.679507777879847458e-09,7.956774429331528816e-12,3.548488908267631011e-09,8.378917118140802238e-12,3.546776643318093117e-09,8.378805440601510587e-12,3.548488908267631011e-09,8.378917118140802238e-12,3.548488908267631011e-09,8.378917118140802238e-12
2.640000000000000000e+03,2.680000000000000000e+03,3.280839956734127411e-09,7.459366089801100661e-12,3.279137493987059870e-09,7.459247092717060115e-12,3.161348616251510804e-09,7.857752759950003004e-12,3.159646153504443263e-09,7.857639796086053078e-12,3.161348616251510804e-09,7.857752759950003004e-12,3.161348616251510804e-09,7.857752759950003004e-12
2.680000000000000000e+03,2.720000000000000000e+03,2.969545536877593709e-09,5.898794202694558366e-12,2.967885058302856675e-09,5.898573238995445843e-12,2.863073077777181014e-09,6.245685581662233910e-12,2.861412599202443980e-09,6.245476890921446388e-12,2.863073077777181014e-09,6.245685581662233910e-12,2.863073077777181014e-09,6.245685581662233910e-12
2.720000000000000000e+03,2.760000000000000000e+03,2.703939409108112491e-09,5.986582668867326612e-12,2.702199996269977543e-09,5.986430174415937856e-12,2.606213648419101682e-09,6.480244494776328213e-12,2.604474235580966734e-09,6.480103617539916445e-12,2.606213648419101682e-09,6.480244494776328213e-12,2.606213648419101682e-09,6.480244494776328213e-12
2.760000000000000000e+03,2.800000000000000000e+03,2.474703619202107931e-09,5.672011384979701615e-12,2.472874739684199796e-09,5.671873506075441817e-12,2.383759670868361825e-09,6.101430889408198530e-12,2.381930791350453690e-09,6.101302714650838233e-12,2.383759670868361825e-09,6.101430889408198530e-12,2.383759670868361825e-09,6.101430889408198530e-12
2.800000000000000000e+03,2.840000000000000000e+03,2.278793970881961321e-09,4.508409226302661769e-12,2.276935225165734244e-09,4.508205145333019782e-12,2.197357904685577920e-09,4.808811515742951947e-12,2.195499158969350843e-09,4.808620184058850568e-12,2.197357904685577920e-09,4.808811515742951947e-12,2.197357904685577920e-09,4.808811515742951947e-12
2.840000000000000000e+03,2.880000000000000000e+03,2.112814024128859192e-09,4.554922004532694581e-12,2.110884074300105641e-09,4.554763728022470299e-12,2.041132549195762429e-09,4.894226018723021878e-12,2.039202599367008878e-09,4.894078715455894121e-12,2.041132549195762429e-09,4.894226018723021878e-12,2.041132549195762429e-09,4.894226018723021878e-12
2.880000000000000000e+03,2.920000000000000000e+03,1.953871206155255630e-09,4.727912074359142812e-12,1.951893073244772078e-09,4.727757323860259532e-12,1.884972291035733547e-09,5.002360304905746765e-12,1.882994158125249995e-09,5.002214044854545480e-12,1.884972291035733547e-09,5.002360304905746765e-12,1.884972291035733547e-09,5.002360304905746765e-12
2.920000000000000000e+03,2.960000000000000000e+03,1.821208658320963137e-09,5.142845737029537397e-12,1.819168755363782630e-09,5.142652094750776965e-12,1.758187347510404409e-09,5.336318266809387871e-12,1.756147444553223903e-09,5.336131645438032628e-12,1.758187347510404409e-09,5.336318266809387871e-12,1.758187347510404409e-09,5.336318266809387871e-12
2.960000000000000000e+03,3.000000000000000000e+03,1.703789479617356512e-09,3.740079859278543766e-12,1.701683455104698366e-09,3.739878987564033630e-12,1.643589146501253738e-09,3.940821164181850469e-12,1.641483121988595591e-09,3.940630525170505272e-12,1.643589146501253738e-09,3.940821164181850469e-12,1.643589146501253738e-09,3.940821164181850469e-12
3.000000000000000000e+03,3.040000000000000000e+03,1.591454482089026461e-09,3.805299726685029304e-12,1.589367291180914876e-09,3.805107978556833187e-12,1.537260568211357769e-09,3.962422890647137932e-12,1.535173377303246184e-09,3.962238746326642738e-12,1.537260568211357769e-09,3.962422890647137932e-12,1.537260568211357769e-09,3.962422890647137932e-12
3.040000000000000000e+03,3.080000000000000000e+03,1.499707671678744386e-09,4.040298248552267381e-12,1.497583637956012092e-09,4.040121411199993541e-12,1.449539072899005349e-09,4.408629236465971658e-12,1.447415039176273056e-09,4.408467174041861995e-12,1.449539072899005349e-09,4.408629236465971658e-12,1.449539072899005349e-09,4.408629236465971658e-12
3.080000000000000000e+03,3.120000000000000000e+03,1.412413662917455944e-09,3.233956143200655623e-12,1.410176999069889850e-09,3.233749339907505588e-12,1.362152147392659458e-09,3.589804398931190991e-12,1.359915483545093364e-09,3.589618096649377620e-12,1.362152147392659458e-09,3.589804398931190991e-12,1.362152147392659458e-09,3.589804398931190991e-12
3.120000000000000000e+03,3.160000000000000000e+03,1.333005263588968460e-09,2.962652668612326358e-12,1.330715637904942119e-09,2.962431755977752498e-12,1.288584276412872699e-09,3.138663451108849192e-12,1.286294650728846358e-09,3.138454927717809982e-12,1.288584276412872699e-09,3.138663451108849192e-12,1.288584276412872699e-09,3.138663451108849192e-12
3.160000000000000000e+03,3.200000000000000000e+03,1.258854362421187881e-09,3.158931381258226913e-12,1.256602860924307441e-09,3.158695297166002454e-12,1.217172123560997627e-09,3.287958183415537051e-12,1.214920622064117187e-09,3.287731364441111125e-12,1.217172123560997627e-09,3.287958183415537051e-12,1.217172123560997627e-09,3.287958183415537051e-12
3.200000000000000000e+03,3.240000000000000000e+03,1.190635922742324958e-09,2.807732878353096809e-12,1.188174112799406823e-09,2.807467150933920761e-12,1.150288548471294456e-09,2.953378213135263261e-12,1.147826738528376321e-09,2.953125591167787737e-12,1.150288548471294456e-09,2.953378213135263261e-12,1.150288548471294456e-09,2.953378213135263261e-12
3.240000000000000000e+03,3.280000000000000000e+03,1.130521178682529197e-09,2.580833903596643756e-12,1.128041985322584946e-09,2.580622483175226507e-12,1.092741174487436763e-09,2.748334786913335681e-12,1.090261981127492512e-09,2.748136252749042977e-12,1.092741174487436763e-09,2.748334786913335681e-12,1.092741174487436763e-09,2.748334786913335681e-12
3.280000000000000000e+03,3.320000000000000000e+03,1.076711239453358353e-09,2.477519802714898470e-12,1.074130137644072874e-09,2.477283510384402916e-12,1.042080308797066720e-09,2.648251010524713224e-12,1.039499206987781241e-09,2.648029953139345050e-12,1.042080308797066720e-09,2.648251010524713224e-12,1.042080308797066720e-09,2.648251010524713224e-12
3.320000000000000000e+03,3.360000000000000000e+03,1.024737059770675604e-09,2.205247744127531037e-12,1.022172527337281514e-09,2.205027147942506888e-12,9.926052803335938892e-10,2.462020600369195171e-12,9.900407479001997989e-10,2.461823012896376859e-12,9.926052803335938892e-10,2.462020600369195171e-12,9.926052803335938892e-10,2.462020600369195171e-12
3.360000000000000000e+03,3.400000000000000000e+03,9.779246444788776431e-10,2.204101684666552218e-12,9.752227619578225243e-10,2.203784352426190422e-12,9.452449962021636648e-10,2.359740647397078063e-12,9.425431136811085461e-10,2.359444247831800399e-12,9.452449962021636648e-10,2.359740647397078063e-12,9.452449962021636648e-10,2.359740647397078063e-12
3.400000000000000000e+03,3.440000000000000000e+03,9.329944412103704078e-10,2.319593309354559800e-12,9.302318853628812638e-10,2.319339229848666631e-12,9.025394126216313118e-10,2.434424380705167418e-12,8.997768567741421677e-10,2.434182287275196444e-12,9.025394126216313118e-10,2.434424380705167418e-12,9.025394126216313118e-10,2.434424380705167418e-12
3.440000000000000000e+03,3.480000000000000000e+03,8.883826514556212643e-10,2.414639983169076881e-12,8.855524786038967548e-10,2.414395984175983188e-12,8.599065626202956578e-10,2.512644720101230411e-12,8.570763897685711483e-10,2.512410239100881586e-12,8.599065626202956578e-10,2.512644720101230411e-12,8.599065626202956578e-10,2.512644720101230411e-12
3.480000000000000000e+03,3.520000000000000000e+03,8.538688933240542295e-10,2.031691417123266133e-12,8.509460105623943629e-10,2.031440166144792613e-12,8.263582383152130511e-10,2.150644361344137380e-12,8.234353555535531846e-10,2.150407008730061163e-12,8.263582383152130511e-10,2.150644361344137380e-12,8.263582383152130511e-10,2.150644361344137380e-12
3.520000000000000000e+03,3.560000000000000000e+03,8.148856710152355862e-10,2.143740492673550442e-12,8.118333087276519143e-10,2.143512832861308898e-12,7.893724316655985811e-10,2.244510011512831128e-12,7.863200693780149092e-10,2.244292573728792020e-12,7.893724316655985811e-10,2.244510011512831128e-12,7.893724316655985811e-10,2.244510011512831128e-12
3.560000000000000000e+03,3.600000000000000000e+03,7.797157558528984676e-10,1.918794010078068521e-12,7.765669374220044093e-10,1.918475816326142226e-12,7.545048028372765573e-10,2.005158071520346825e-12,7.513559844063824990e-10,2.004853584803633476e-12,7.545048028372765573e-10,2.005158071520346825e-12,7.545048028372765573e-10,2.005158071520346825e-12
3.600000000000000000e+03,3.640000000000000000e+03,7.504716211059943223e-10,1.759542809003183828e-12,7.472849547237001438e-10,1.759250217627461914e-12,7.274608507427690546e-10,1.865474276779110170e-12,7.242741843604748761e-10,1.865198302817157040e-12,7.274608507427690546e-10,1.865474276779110170e-12,7.274608507427690546e-10,1.865474276779110170e-12
3.640000000000000000e+03,3.680000000000000000e+03,7.203345661175389994e-10,1.774353543377626788e-12,7.170339051903847978e-10,1.774059919630658535e-12,6.970140848887344412e-10,1.899687380471448418e-12,6.937134239615802396e-10,1.899413131750350033e-12,6.970140848887344412e-10,1.899687380471448418e-12,6.970140848887344412e-10,1.899687380471448418e-12
3.680000000000000000e+03,3.720000000000000000e+03,6.940355494195107459e-10,1.544179550426095488e-12,6.905956358179560679e-10,1.543908471104277350e-12,6.713787683999758687e-10,1.686391580954524209e-12,6.679388547984211907e-10,1.686143365051651902e-12,6.713787683999758687e-10,1.686391580954524209e-12,6.713787683999758687e-10,1.686391580954524209e-12
3.720000000000000000e+03,3.760000000000000000e+03,6.690726164984031579e-10,1.494158093793543988e-12,6.655097745415035482e-10,1.493815657951327461e-12,6.472685570018784676e-10,1.571396207255451747e-12,6.437057150449788579e-10,1.571070606582854809e-12,6.472685570018784676e-10,1.571396207255451747e-12,6.472685570018784676e-10,1.571396207255451747e-12
3.760000000000000000e+03,3.800000000000000000e+03,6.462674479110842961e-10,1.625298227119682365e-12,6.425954756439507378e-10,1.624949547069241737e-12,6.261295639754550381e-10,1.747590971570950827e-12,6.224575917083214798e-10,1.747266696116666520e-12,6.261295639754550381e-10,1.747590971570950827e-12,6.261295639754550381e-10,1.747590971570950827e-12
3.800000000000000000e+03,3.840000000000000000e+03,6.203164684734972981e-10,1.537907602159408187e-12,6.165615632015988487e-10,1.537519753652475724e-12,6.001807259371889267e-10,1.607816267035333932e-12,5.964258206652904772e-10,1.607445286358234167e-12,6.001807259371889267e-10,1.607816267035333932e-12,6.001807259371889267e-10,1.607816267035333932e-12
3.840000000000000000e+03,3.880000000000000000e+03,6.009305699041493792e-10,1.372786737984090071e-12,5.970403436632063620e-10,1.372368597686157255e-12,5.818451335088135427e-10,1.441535757458638616e-12,5.779549072678705254e-10,1.441137564551671121e-12,5.818451335088135427e-10,1.441535757458638616e-12,5.818451335088135427e-10,1.441535757458638616e-12
3.880000000000000000e+03,3.920000000000000000e+03,5.767195057908978004e-10,1.220368663313456618e-12,5.727047367010253756e-10,1.219976946154680149e-12,5.585494226251167147e-10,1.283022776013848283e-12,5.545346535352442899e-10,1.282650193358153177e-12,5.585494226251167147e-10,1.283022776013848283e-12,5.585494226251167147e-10,1.283022776013848283e-12
3.920000000000000000e+03,3.960000000000000000e+03,5.569310185053957374e-10,1.263107061849719693e-12,5.527079034236333466e-10,1.262720462689474807e-12,5.380392893509833134e-10,1.356751071650879454e-12,5.338161742692209226e-10,1.356391163206948723e-12,5.380392893509833134e-10,1.356751071650879454e-12,5.380392893509833134e-10,1.356751071650879454e-12
3.960000000000000000e+03,4.000000000000000000e+03,5.413139948908376744e-10,1.110859275085176742e-12,5.369647208718112561e-10,1.110436205095678839e-12,5.236956840501035977e-10,1.172374446626706294e-12,5.193464100310771794e-10,1.171973583169775888e-12,5.236956840501035977e-10,1.172374446626706294e-12,5.236956840501035977e-10,1.172374446626706294e-12
4.000000000000000000e+03,4.040000000000000000e+03,5.238291469337031743e-10,1.334221820748934844e-12,5.192785460393151350e-10,1.333828021943641805e-12,5.065290919926649505e-10,1.399125760622536384e-12,5.019784910982769111e-10,1.398750234744243759e-12,5.065290919926649505e-10,1.399125760622536384e-12,5.065290919926649505e-10,1.399125760622536384e-12
4.040000000000000000e+03,4.080000000000000000e+03,5.083494595390413828e-10,1.263257481273503734e-12,5.036520589055528730e-10,1.262827134020872634e-12,4.918487029933504444e-10,1.325408114215223447e-12,4.871513023598619346e-10,1.324997953075192093e-12,4.918487029933504444e-10,1.325408114215223447e-12,4.918487029933504444e-10,1.325408114215223447e-12
4.080000000000000000e+03,4.120000000000000000e+03,4.937497788048346794e-10,1.132452647038058079e-12,4.888825446591859083e-10,1.131988894003280112e-12,4.771599479513630522e-10,1.203576790492130552e-12,4.722927138057142810e-10,1.203140452721377886e-12,4.771599479513630522e-10,1.203576790492130552e-12,4.771599479513630522e-10,1.203576790492130552e-12
4.120000000000000000e+03,4.160000000000000000e+03,4.770087442230756585e-10,1.086423676660216951e-12,4.718699954988476295e-10,1.085895742492965384e-12,4.610305119602897938e-10,1.147844424861051645e-12,4.558917632360617648e-10,1.147344752914765114e-12,4.610305119602897938e-10,1.147844424861051645e-12,4.610305119602897938e-10,1.147844424861051645e-12
4.160000000000000000e+03,4.200000000000000000e+03,4.651084209595002000e-10,1.054283837938158763e-12,4.596657778085135365e-10,1.053725095978803213e-12,4.494443195470509542e-10,1.121124882096527636e-12,4.440016763960642907e-10,1.120599468237370151e-12,4.494443195470509542e-10,1.121124882096527636e-12,4.494443195470509542e-10,1.121124882096527636e-12
4.200000000000000000e+03,4.240000000000000000e+03,4.502908908542359197e-10,1.008233631540518425e-12,4.446588194044250053e-10,1.007697471073835280e-12,4.347102537589403329e-10,1.101537012082021417e-12,4.290781823091293668e-10,1.101046287140467357e-12,4.347102537589403329e-10,1.101537012082021417e-12,4.347102537589403329e-10,1.101537012082021417e-12
4.240000000000000000e+03,4.280000000000000000e+03,4.382843591162519117e-10,9.677838582587476811e-13,4.323464669034134491e-10,9.671117729497851118e-13,4.234746698805826817e-10,1.015974012083055589e-12,4.175367776677442191e-10,1.015333826039509821e-12,4.234746698805826817e-10,1.015974012083055589e-12,4.234746698805826817e-10,1.015974012083055589e-12
4.280000000000000000e+03,4.320000000000000000e+03,4.261096335043403210e-10,8.876272090473362402e-13,4.197744130866568592e-10,8.871478157224369309e-13,4.111148737780302688e-10,9.495237475129218693e-13,4.047796533603468070e-10,9.490756196378189758e-13,4.111148737780302688e-10,9.495237475129218693e-13,4.111148737780302688e-10,9.495237475129218693e-13
4.320000000000000000e+03,4.360000000000000000e+03,4.151719043870688149e-10,8.883324449809062543e-13,4.084181002004319486e-10,8.876721734511783540e-13,4.001597231178648809e-10,9.502231172205427921e-13,3.934059189312280146e-10,9.496058799386770727e-13,4.001597231178648809e-10,9.502231172205427921e-13,4.001597231178648809e-10,9.502231172205427921e-13
4.360000000000000000e+03,4.400000000000000000e+03,4.048761969099331600e-10,8.569272444386153281e-13,3.976501548166994488e-10,8.562024805828140564e-13,3.901151122074711811e-10,9.111035841661518137e-13,3.828890701142374699e-10,9.104219497438611675e-13,3.901151122074711811e-10,9.111035841661518137e-13,3.901151122074711811e-10,9.111035841661518137e-13
4.400000000000000000e+03,4.440000000000000000e+03,3.947402652834503583e-10,8.117231618992401949e-13,3.867431014236643326e-10,8.108421110004123394e-13,3.796326700026555230e-10,8.610211332189096255e-13,3.716355061428694973e-10,8.601905772894052315e-13,3.796326700026555230e-10,8.610211332189096255e-13,3.796326700026555230e-10,8.610211332189096255e-13
4.440000000000000000e+03,4.480000000000000000e+03,3.876851599241299396e-10,8.673990154779441668e-13,3.785994446856181945e-10,8.666039256924170246e-13,3.729384988381355914e-10,9.142642346792018344e-13,3.638527835996238462e-10,9.135099357899442118e-13,3.729384988381355914e-10,9.142642346792018344e-13,3.729384988381355914e-10,9.142642346792018344e-13
4.480000000000000000e+03,4.520000000000000000e+03,3.786231088797258048e-10,8.399625976906653861e-13,3.684728914187451053e-10,8.390845666428336322e-13,3.635625576473715342e-10,8.829329670440818072e-13,3.534123401863908347e-10,8.820977092999431923e-13,3.635625576473715342e-10,8.829329670440818072e-13,3.635625576473715342e-10,8.829329670440818072e-13
4.520000000000000000e+03,4.560000000000000000e+03,3.666449396415941906e-10,8.030584286054968329e-13,3.561817078812363369e-10,8.019256546977764092e-13,3.514692322915744951e-10,8.439804626713334890e-13,3.410060005312166414e-10,8.429026855331791840e-13,3.514692322915744951e-10,8.439804626713334890e-13,3.514692322915744951e-10,8.439804626713334890e-13
4.560000000000000000e+03,4.600000000000000000e+03,3.560054554946652899e-10,8.354376254365727045e-13,3.452719405333218006e-10,8.347091031921336754e-13,3.413526419099095649e-10,8.683103035657448283e-13,3.306191269485660756e-10,8.676093845937541570e-13,3.413526419099095649e-10,8.683103035657448283e-13,3.413526419099095649e-10,8.683103035657448283e-13
4.600000000000000000e+03,4.640000000000000000e+03,3.466278817202013254e-10,7.641450497897185113e-13,3.356097827428604399e-10,7.633082743328865299e-13,3.315452384864400114e-10,8.206273287189795768e-13,3.205271395090991259e-10,8.198482037471119748e-13,3.315452384864400114e-10,8.206273287189795768e-13,3.315452384864400114e-10,8.206273287189795768e-13
4.640000000000000000e+03,4.680000000000000000e+03,3.364963345083024264e-10,7.572470189512577536e-13,3.252569322723947466e-10,7.562219777699772655e-13,3.219516225907887074e-10,8.216415379071310877e-13,3.107122203548810276e-10,8.206969286930255633e-13,3.219516225907887074e-10,8.216415379071310877e-13,3.219516225907887074e-10,8.216415379071310877e-13
4.680000000000000000e+03,4.720000000000000000e+03,3.296966762498827618e-10,7.043828071322832187e-13,3.181022188508573583e-10,7.032863861633669664e-13,3.152480768594090922e-10,8.183080294409386815e-13,3.036536194603836887e-10,8.173644432116467884e-13,3.152480768594090922e-10,8.183080294409386815e-13,3.152480768594090922e-10,8.183080294409386815e-13
4.720000000000000000e+03,4.760000000000000000e+03,3.197377611011004111e-10,6.489871414994736035e-13,3.078001925110665303e-10,6.478566645659747798e-13,3.056868615533947613e-10,7.087496643304679888e-13,2.937492929633608805e-10,7.077146562559257540e-13,3.056868615533947613e-10,7.087496643304679888e-13,3.056868615533947613e-10,7.087496643304679888e-13
4.760000000000000000e+03,4.800000000000000000e+03,3.118896967176763499e-10,5.880356986304597469e-13,2.996780731439556493e-10,5.868762058539888474e-13,2.979711160244386416e-10,6.268905264077347483e-13,2.857594924507179410e-10,6.258030283032572709e-13,2.979711160244386416e-10,6.268905264077347483e-13,2.979711160244386416e-10,6.268905264077347483e-13
4.800000000000000000e+03,4.840000000000000000e+03,3.062534248705512573e-10,6.640589756503387617e-13,2.936757344396882620e-10,6.629737510316628459e-13,2.923238486780384261e-10,7.240483928021940089e-13,2.797461582471754308e-10,7.230532114130025532e-13,2.923238486780384261e-10,7.240483928021940089e-13,2.923238486780384261e-10,7.240483928021940089e-13
4.840000000000000000e+03,4.880000000000000000e+03,2.987646302961480897e-10,6.193958808010539946e-13,2.858217466795915463e-10,6.181833875448401503e-13,2.851193419907257429e-10,6.880978706442067955e-13,2.721764583741691996e-10,6.870066397555355315e-13,2.851193419907257429e-10,6.880978706442067955e-13,2.851193419907257429e-10,6.880978706442067955e-13
4.880000000000000000e+03,4.920000000000000000e+03,2.903582838532701899e-10,5.913728073825420681e-13,2.770925929113192207e-10,5.900478848050750360e-13,2.764556303199922531e-10,6.583144476409698442e-13,2.631899393780412839e-10,6.571245095294109611e-13,2.764556303199922531e-10,6.583144476409698442e-13,2.764556303199922531e-10,6.583144476409698442e-13
4.920000000000000000e+03,4.960000000000000000e+03,2.842467760099656401e-10,5.738205609386525631e-13,2.706271993885405555e-10,5.728266480220710825e-13,2.702516819970233378e-10,6.521899266191930516e-13,2.566321053755982532e-10,6.513156169721407607e-13,2.702516819970233378e-10,6.521899266191930516e-13,2.702516819970233378e-10,6.521899266191930516e-13
4.960000000000000000e+03,5.000000000000000000e+03,2.783775937564069093e-10,5.079330450204872992e-13,2.643998268357161107e-10,5.063431926782536924e-13,2.647544851823910643e-10,5.499267840590683231e-13,2.507767182617002658e-10,5.484586751737745817e-13,2.647544851823910643e-10,5.499267840590683231e-13,2.647544851823910643e-10,5.499267840590683231e-13
5.000000000000000000e+03,5.040000000000000000e+03,2.713887826157935349e-10,5.651343492747252955e-13,2.570138610117692281e-10,5.640659417339548798e-13,2.574556240585157544e-10,6.489246408589995994e-13,2.430807024544914476e-10,6.479944007536080508e-13,2.574556240585157544e-10,6.489246408589995994e-13,2.574556240585157544e-10,6.489246408589995994e-13
5.040000000000000000e+03,5.080000000000000000e+03,2.663289030229175490e-10,4.574783262942188103e-13,2.515370167421697369e-10,4.560584463286055935e-13,2.523751796699105730e-10,4.970430547361210614e-13,2.375832933891627609e-10,4.957365083389729137e-13,2.523751796699105730e-10,4.970430547361210614e-13,2.523751796699105730e-10,4.970430547361210614e-13
5.080000000000000000e+03,5.120000000000000000e+03,2.605439565898811534e-10,5.119666628215456427e-13,2.454546565896407739e-10,5.104587568930982082e-13,2.465967648476107585e-10,5.561898088602279625e-13,2.315074648473703790e-10,5.548021107820280875e-13,2.465967648476107585e-10,5.561898088602279625e-13,2.465967648476107585e-10,5.561898088602279625e-13
5.120000000000000000e+03,5.160000000000000000e+03,2.543861669747382698e-10,4.603665207745560492e-13,2.388654135821544961e-10,4.589885198864584143e-13,2.404549601095613657e-10,5.086785788406482483e-13,2.249342067169775920e-10,5.074317929622006518e-13,2.404549601095613657e-10,5.086785788406482483e-13,2.404549601095613657e-10,5.086785788406482483e-13
5.160000000000000000e+03,5.200000000000000000e+03,2.498925420633797512e-10,5.526277955654738119e-13,2.339430869590134079e-10,5.511159798304085067e-13,2.358112113805815014e-10,6.096775504525784452e-13,2.198617562762151322e-10,6.083075359706901185e-13,2.358112113805815014e-10,6.096775504525784452e-13,2.358112113805815014e-10,6.096775504525784452e-13
5.200000000000000000e+03,5.240000000000000000e+03,2.452445374522540720e-10,4.637370780532938116e-13,2.288827389633006846e-10,4.625181008553189362e-13,2.312338344113238208e-10,5.137318238747525646e-13,2.148720359223704334e-10,5.126317420128060116e-13,2.312338344113238208e-10,5.137318238747525646e-13,2.312338344113238208e-10,5.137318238747525646e-13
5.240000000000000000e+03,5.280000000000000000e+03,2.410277431023926454e-10,4.472112379099332504e-13,2.241195879858942363e-10,4.454244861348829434e-13,2.266600007721772077e-10,5.459702817441252103e-13,2.097518456556787987e-10,5.445076951553109466e-13,2.266600007721772077e-10,5.459702817441252103e-13,2.266600007721772077e-10,5.459702817441252103e-13
5.280000000000000000e+03,5.320000000000000000e+03,2.360494458160825738e-10,4.104794313139280343e-13,2.186748511146478484e-10,4.088918008574493106e-13,2.216347706713850365e-10,4.670708806864268154e-13,2.042601759699503110e-10,4.656762275034410533e-13,2.216347706713850365e-10,4.670708806864268154e-13,2.216347706713850365e-10,4.670708806864268154e-13
5.320000000000000000e+03,5.360000000000000000e+03,2.318771277864830491e-10,4.185334654761332040e-13,2.140391864064504195e-10,4.168361956136692655e-13,2.171606608725771595e-10,4.633248998300272989e-13,1.993227194925445299e-10,4.617922856141280689e-13,2.171606608725771595e-10,4.633248998300272989e-13,2.171606608725771595e-10,4.633248998300272989e-13
5.360000000000000000e+03,5.400000000000000000e+03,2.281008762668103194e-10,4.220907719149039047e-13,2.097934397582032182e-10,4.206981823303100725e-13,2.137395838858440306e-10,4.583219188104528541e-13,1.954321473772369294e-10,4.570397380342355773e-13,2.137395838858440306e-10,4.583219188104528541e-13,2.137395838858440306e-10,4.583219188104528541e-13
5.400000000000000000e+03,5.440000000000000000e+03,2.243009147117146659e-10,4.180771287204640483e-13,2.055167241162201433e-10,4.166701900586866664e-13,2.093843039665002529e-10,4.476719598266225098e-13,1.906001133710057303e-10,4.463583149661308668e-13,2.093843039665002529e-10,4.476719598266225098e-13,2.093843039665002529e-10,4.476719598266225098e-13
5.440000000000000000e+03,5.480000000000000000e+03,2.203292475047768762e-10,4.078495840096622189e-13,2.010650393500447882e-10,4.065181817809736963e-13,2.050205326750195274e-10,4.489849198377527376e-13,1.857563245202874394e-10,4.477758447966655062e-13,2.050205326750195274e-10,4.489849198377527376e-13,2.050205326750195274e-10,4.489849198377527376e-13
5.480000000000000000e+03,5.520000000000000000e+03,2.173034547347656992e-10,4.425859239141762119e-13,1.974923527397370706e-10,4.410994955433997334e-13,2.019818883257476424e-10,4.832173893692517232e-13,1.821707863307190139e-10,4.818563170806332259e-13,2.019818883257476424e-10,4.832173893692517232e-13,2.019818883257476424e-10,4.832173893692517232e-13
5.520000000000000000e+03,5.560000000000000000e+03,2.138214015894258911e-10,3.614424370135301706e-13,1.934477293039407588e-10,3.595873993100748227e-13,1.974771651108049381e-10,3.953491178443973974e-13,1.771034928253198058e-10,3.936538929677270753e-13,1.974771651108049381e-10,3.953491178443973974e-13,1.974771651108049381e-10,3.953491178443973974e-13
5.560000000000000000e+03,5.600000000000000000e+03,2.112411819050935450e-10,4.124940656793456922e-13,1.903748244739636895e-10,4.112986312560586959e-13,1.945961910432503375e-10,4.680545563594398872e-13,1.737298336121204561e-10,4.670013678580214306e-13,1.945961910432503375e-10,4.680545563594398872e-13,1.945961910432503375e-10,4.680545563594398872e-13
5.600000000000000000e+03,5.640000000000000000e+03,2.075116160592056510e-10,3.765313110273439229e-13,1.860868147591401312e-10,3.750454590759417519e-13,1.898511555964031122e-10,4.167889766282711571e-13,1.684263542963375924e-10,4.154471316886843849e-13,1.898511555964031122e-10,4.167889766282711571e-13,1.898511555964031122e-10,4.167889766282711571e-13
5.640000000000000000e+03,5.680000000000000000e+03,2.043154760513199891e-10,3.661469895521579430e-13,1.822510176322684030e-10,3.646785896922781906e-13,1.860788970746586291e-10,4.155275617648392966e-13,1.640144386556070430e-10,4.142342458175968283e-13,1.860788970746586291e-10,4.155275617648392966e-13,1.860788970746586291e-10,4.155275617648392966e-13
5.680000000000000000e+03,5.720000000000000000e+03,2.020373213613220613e-10,3.293693061525094568e-13,1.794500575436019912e-10,3.272494499256177924e-13,1.832051930351776558e-10,3.765958226351253577e-13,1.606179292174575858e-10,3.747432137710577888e-13,1.832051930351776558e-10,3.765958226351253577e-13,1.832051930351776558e-10,3.765958226351253577e-13
5.720000000000000000e+03,5.760000000000000000e+03,1.993348283958096389e-10,3.449930225158155733e-13,1.760441405829361553e-10,3.434169658546473606e-13,1.794271365974098673e-10,3.875926235472702269e-13,1.561364487845363836e-10,3.861904564854883887e-13,1.794271365974098673e-10,3.875926235472702269e-13,1.794271365974098673e-10,3.875926235472702269e-13
5.760000000000000000e+03,5.800000000000000000e+03,1.964531057194741293e-10,3.191770705143816318e-13,1.725578631346300397e-10,3.171434679820640105e-13,1.758536791280154828e-10,3.684089742173910195e-13,1.519584365431713931e-10,3.666485363743569529e-13,1.758536791280154828e-10,3.684089742173910195e-13,1.758536791280154828e-10,3.684089742173910195e-13
5.800000000000000000e+03,5.840000000000000000e+03,1.945682901898025772e-10,3.547391715827440110e-13,1.700197002760518122e-10,3.530767464338103524e-13,1.732852500526596246e-10,4.202512469862420745e-13,1.487366601389088596e-10,4.188489221790658287e-13,1.732852500526596246e-10,4.202512469862420745e-13,1.732852500526596246e-10,4.202512469862420745e-13
5.840000000000000000e+03,5.880000000000000000e+03,1.927955224832046464e-10,3.445311294738567193e-13,1.676259603512394879e-10,3.426702204779146341e-13,1.707720228852851258e-10,3.981959867140108168e-13,1.456024607533199673e-10,3.965869698578055193e-13,1.707720228852851258e-10,3.981959867140108168e-13,1.707720228852851258e-10,3.981959867140108168e-13
5.880000000000000000e+03,5.920000000000000000e+03,1.904076986899793380e-10,3.146780067023661527e-13,1.645443228901370270e-10,3.126187193044333579e-13,1.672021838910175284e-10,3.663949484403971979e-13,1.413388080911752173e-10,3.646278568623233835e-13,1.672021838910175284e-10,3.663949484403971979e-13,1.672021838910175284e-10,3.663949484403971979e-13
5.920000000000000000e+03,5.960000000000000000e+03,1.883344623688646905e-10,3.139147423329188297e-13,1.617928479762118435e-10,3.114804655967495584e-13,1.636069214889363957e-10,3.561725595209366413e-13,1.370653070962835487e-10,3.540289637164171685e-13,1.636069214889363957e-10,3.561725595209366413e-13,1.636069214889363957e-10,3.561725595209366413e-13
5.960000000000000000e+03,6.000000000000000000e+03,1.866943650217864993e-10,3.093997503421828003e-13,1.593332562021687317e-10,3.071472941430092021e-13,1.613498843872304914e-10,3.485906272364349433e-13,1.339887755676127238e-10,3.465929603795471718e-13,1.613498843872304914e-10,3.485906272364349433e-13,1.613498843872304914e-10,3.485906272364349433e-13
6.000000000000000000e+03,6.040000000000000000e+03,1.856401676187288146e-10,3.181415934321554524e-13,1.574910831038125647e-10,3.159314056214510815e-13,1.586627105337038316e-10,3.567961507070665088e-13,1.305136260187875816e-10,3.548268207813139481e-13,1.586627105337038316e-10,3.567961507070665088e-13,1.586627105337038316e-10,3.567961507070665088e-13
6.040000000000000000e+03,6.080000000000000000e+03,1.831445882954861427e-10,2.937986343408337546e-13,1.543993351995748893e-10,2.906889106871583352e-13,1.545348302155470518e-10,3.409718627426649992e-13,1.257895771196357984e-10,3.382960485109906589e-13,1.545348302155470518e-10,3.409718627426649992e-13,1.545348302155470518e-10,3.409718627426649992e-13
6.080000000000000000e+03,6.120000000000000000e+03,1.817389100981327674e-10,3.022862701668635391e-13,1.521688885773432785e-10,2.990102391056894826e-13,1.512988251334928603e-10,3.540774406286306571e-13,1.217288036127033715e-10,3.512847390946112109e-13,1.512988251334928603e-10,3.540774406286306571e-13,1.512988251334928603e-10,3.540774406286306571e-13
6.120000000000000000e+03,6.160000000000000000e+03,1.807505379949052749e-10,2.882575729128866855e-13,1.503964205184436887e-10,2.853988071719676077e-13,1.481059746684211126e-10,3.446175405782543431e-13,1.177518571919595264e-10,3.422298935916594211e-13,1.481059746684211126e-10,3.446175405782543431e-13,1.481059746684211126e-10,3.446175405782543431e-13
6.160000000000000000e+03,6.200000000000000000e+03,1.787811849713483581e-10,2.713988311937794020e-13,1.475795377066849350e-10,2.663844526998783575e-13,1.436342701548225378e-10,3.480306983008806323e-13,1.124326228901591147e-10,3.441347381864591636e-13,1.436342701548225378e-10,3.480306983008806323e-13,1.436342701548225378e-10,3.480306983008806323e-13
6.200000000000000000e+03,6.240000000000000000e+03,1.779836156733106092e-10,2.811379028775633922e-13,1.457954847811239527e-10,2.777313652868346915e-13,1.387928493015474803e-10,3.190623348107723077e-13,1.066047184093608109e-10,3.160648103231302486e-13,1.387928493015474803e-10,3.190623348107723077e-13,1.387928493015474803e-10,3.190623348107723077e-13
6.240000000000000000e+03,6.280000000000000000e+03,1.772587538878778474e-10,2.703226141174040099e-13,1.442665729447318391e-10,2.655199169897075206e-13,1.325646064180687544e-10,3.161420582422636263e-13,9.957242547492274611e-11,3.120453678627662169e-13,1.325646064180687544e-10,3.161420582422636263e-13,1.325646064180687544e-10,3.161420582422636263e-13
6.280000000000000000e+03,6.320000000000000000e+03,1.759770676276902553e-10,2.668442852076587164e-13,1.421517134898674950e-10,2.584942711482798109e-13,1.178333735701498734e-10,3.564954414120766296e-13,8.400801943232711316e-11,3.502890455268127012e-13,1.178333735701498734e-10,3.564954414120766296e-13,1.178333735701498734e-10,3.564954414120766296e-13
6.320000000000000000e+03,6.360000000000000000e+03,1.995058498604437866e-11,7.812985554124794153e-14,1.603073402807028905e-11,7.571860807188861931e-14,9.864445136714696676e-12,9.005890760241261860e-14,5.944594178740607064e-12,8.797522446682302771e-14,9.864445136714696676e-12,9.005890760241261860e-14,9.864445136714696676e-12,9.005890760241261860e-14
6.360000000000000000e+03,6.400000000000000000e+03,0.000000000000000000e+00,0.000000000000000000e+00,0.000000000000000000e+00,0.000000000000000000e+00,0.000000000000000000e+00,0.000000000000000000e+00,0.000000000000000000e+00,0.000000000000000000e+00,0.000000000000000000e+00,0.000000000000000000e+00,0.000000000000000000e+00,0.000000000000000000e+00
