# xl,xh,LO,dLO,LOISC,dLOISC,NLO,dNLO,NLOISC,dNLOISC,NLOL,dNLOL,NLOnovp,dNLOnovp
5.200000000000000178e-01,5.622000000000000330e-01,1.226874349597870762e-09,1.924697531709287326e-11,2.307542883087952167e-09,1.905422044601303128e-11,1.142561219038571788e-09,2.014032362240154744e-11,2.223229752528652986e-09,1.995619937672363010e-11,1.142561219038571788e-09,2.014032362240154744e-11,1.142561219038571788e-09,2.014032362240154744e-11
5.622000000000000330e-01,6.044000000000000483e-01,5.418883792855480347e-09,4.397094644407091773e-11,9.498295968432193926e-09,4.363810875079938547e-11,5.083536677913370007e-09,4.594571266392927444e-11,9.162948853490083587e-09,4.562728258789462221e-11,5.083536677913370007e-09,4.594571266392927444e-11,5.083536677913370007e-09,4.594571266392927444e-11
6.044000000000000483e-01,6.466000000000000636e-01,1.317818159571304773e-08,7.250489454751998797e-11,2.143778935536636200e-08,7.197004578138784681e-11,1.254402950503344118e-08,7.554144797121259022e-11,2.080363726468675709e-08,7.502824880013852249e-11,1.254402950503344118e-08,7.554144797121259022e-11,1.254402950503344118e-08,7.554144797121259022e-11
6.465999999999999526e-01,6.887999999999999678e-01,2.685335183233692730e-08,1.177477475648512726e-10,4.000154206489166662e-08,1.171337535014938096e-10,2.573324267982594413e-08,1.226663010282544786e-10,3.888143291238068014e-08,1.220770476408531016e-10,2.573324267982594413e-08,1.226663010282544786e-10,2.573324267982594413e-08,1.226663010282544786e-10
6.888000000000000789e-01,7.310000000000000941e-01,4.840028923957252183e-08,1.732195356485105506e-10,6.750890650947070600e-08,1.723768384754986234e-10,4.674846213449273623e-08,1.798024279726437362e-10,6.585707940439092040e-08,1.789907260652916271e-10,4.674846213449273623e-08,1.798024279726437362e-10,4.674846213449273623e-08,1.798024279726437362e-10
7.309999999999999831e-01,7.731999999999999984e-01,8.082555919164594272e-08,2.513906228421131429e-10,1.075986096154177640e-07,2.506565645295865648e-10,7.862503861341502328e-08,2.619081401952398689e-10,1.053980890371868446e-07,2.612036408424634153e-10,7.862503861341502328e-08,2.619081401952398689e-10,7.862503861341502328e-08,2.619081401952398689e-10
7.732000000000001094e-01,8.154000000000001247e-01,1.293747517813329712e-07,3.468919486378156449e-10,1.658242540422018661e-07,3.459752308848077298e-10,1.265564974140727591e-07,3.621962606110250188e-10,1.630059996749416541e-07,3.613183742306286089e-10,1.265564974140727591e-07,3.621962606110250188e-10,1.265564974140727591e-07,3.621962606110250188e-10
8.154000000000000137e-01,8.576000000000000290e-01,2.026187729240580102e-07,5.232737062750379672e-10,2.512418971436118597e-07,5.223956529538943662e-10,1.996467523408457284e-07,5.465263441445791589e-10,2.482698765603995514e-07,5.456857075188518196e-10,1.996467523408457284e-07,5.465263441445791589e-10,1.996467523408457284e-07,5.465263441445791589e-10
8.575999999999998069e-01,8.997999999999998222e-01,3.165471610501462933e-07,8.066650113006567981e-10,3.799760849814145399e-07,8.058197393281701047e-10,3.143881949564395458e-07,8.381003468908392554e-10,3.778171188877077925e-07,8.372868106525841546e-10,3.143881949564395458e-07,8.381003468908392554e-10,3.143881949564395458e-07,8.381003468908392554e-10
8.997999999999999332e-01,9.419999999999999485e-01,4.999527002987412418e-07,1.181561521707601206e-09,5.815982054605879494e-07,1.180819190577532305e-09,5.031722491014615544e-07,1.236770121140195866e-09,5.848177542633082620e-07,1.236060946637070608e-09,5.031722491014615544e-07,1.236770121140195866e-09,5.031722491014615544e-07,1.236770121140195866e-09
9.419999999999999485e-01,9.841999999999999638e-01,8.077511586745301169e-07,1.759928395508740609e-09,9.117404368614569954e-07,1.759265779465336802e-09,8.297240702903573238e-07,1.858700518515971851e-09,9.337133484772842023e-07,1.858073126389634828e-09,8.297240702903573238e-07,1.858700518515971851e-09,8.297240702903573238e-07,1.858700518515971851e-09
9.842000000000000748e-01,1.026400000000000201e+00,1.443527068136323773e-06,3.651402880147493782e-09,1.575436364597453177e-06,3.650928290294230583e-09,1.505301853170782870e-06,4.165808013439030421e-09,1.637211149631912274e-06,4.165392033477062774e-09,1.505301853170782870e-06,4.165808013439030421e-09,1.505301853170782870e-06,4.165808013439030421e-09
1.026400000000000201e+00,1.068599999999999994e+00,2.703304379355440776e-06,6.576692979977503170e-09,2.871068068669770259e-06,6.576383560185042090e-09,2.884249233315481265e-06,6.968139123837032056e-09,3.052012922629810748e-06,6.967847086936899058e-09,2.884249233315481265e-06,6.968139123837032056e-09,2.884249233315481265e-06,6.968139123837032056e-09
1.068599999999999994e+00,1.110799999999999788e+00,5.800100265715332206e-06,1.279516535990745523e-08,6.016090442415790410e-06,1.279496045801356155e-08,6.290497615172455575e-06,1.377744163136967829e-08,6.506487791872913779e-06,1.377725133836765495e-08,6.290497615172455575e-06,1.377744163136967829e-08,6.290497615172455575e-06,1.377744163136967829e-08
1.110800000000000232e+00,1.153000000000000025e+00,1.411290340743179557e-05,2.945456787212197282e-08,1.439977167288398086e-05,2.945443246243344769e-08,1.496831301054222717e-05,3.225831441389572542e-08,1.525518127599441246e-05,3.225819077345110687e-08,1.496831301054222717e-05,3.225831441389572542e-08,1.496831301054222717e-05,3.225831441389572542e-08
1.153000000000000025e+00,1.195199999999999818e+00,3.306944148534469936e-05,5.143441240862251909e-08,3.345882158197076073e-05,5.143430608453681383e-08,3.388452135412676347e-05,5.700277225983650625e-08,3.427390145075282483e-05,5.700267632211968838e-08,3.388452135412676347e-05,5.700277225983650625e-08,3.388452135412676347e-05,5.700277225983650625e-08
1.195199999999999818e+00,1.237399999999999611e+00,6.226269740528070926e-05,8.091668881135864825e-08,6.276406518593005614e-05,8.091658729214000246e-08,6.014528271586361957e-05,8.970393534119738761e-08,6.064665049651296646e-05,8.970384376664124214e-08,6.014528271586361957e-05,8.970393534119738761e-08,6.014528271586361957e-05,8.970393534119738761e-08
1.237400000000000055e+00,1.279599999999999849e+00,8.056988637224135879e-05,7.861513728748948082e-08,8.112661449564491551e-05,7.861504282287151740e-08,8.490512588521310271e-05,9.842184695226205061e-08,8.546185400861665944e-05,9.842177149800546018e-08,8.490512588521310271e-05,9.842184695226205061e-08,8.490512588521310271e-05,9.842184695226205061e-08
1.279600000000000293e+00,1.321800000000000086e+00,2.582312343004576041e-04,1.296951347336391451e-07,2.591168394611093940e-04,1.296950461857795038e-07,2.777971217041583988e-04,2.613254591363074170e-07,2.786827268648101887e-04,2.613254151902499683e-07,2.777971217041583988e-04,2.613254591363074170e-07,2.777971217041583988e-04,2.613254591363074170e-07
1.321800000000000086e+00,1.363999999999999879e+00,9.622149865668521655e-04,2.755455229648145836e-07,9.637326713319406893e-04,2.755454416705069747e-07,1.032143634795007047e-03,6.877967084160076597e-07,1.033661319560095571e-03,6.877966758478381714e-07,1.032143634795007047e-03,6.877967084160076597e-07,1.032143634795007047e-03,6.877967084160076597e-07
1.363999999999999879e+00,1.406199999999999672e+00,5.171482581899117248e-03,6.338236183210428402e-07,5.174132670603289602e-03,6.338235504929102372e-07,5.650504862510803868e-03,5.302285491550333429e-06,5.653154951214976222e-03,5.302285483442307053e-06,5.650504862510803868e-03,5.302285491550333429e-06,5.650504862510803868e-03,5.302285491550333429e-06
1.406200000000000117e+00,1.448399999999999910e+00,3.009382965708062158e-02,1.646601356870580764e-06,3.009475009913318080e-02,1.646601325985308617e-06,2.920818399435801474e-02,1.802012180381989915e-05,2.920910443641057397e-02,1.802012180099773445e-05,2.920818399435801474e-02,1.802012180381989915e-05,2.920818399435801474e-02,1.802012180381989915e-05
1.448399999999999910e+00,1.490600000000000147e+00,3.303913062623915764e-02,1.793594433625837595e-06,3.303643191078128871e-02,1.793594398609933048e-06,3.122615413207259147e-02,1.416935134109873250e-05,3.122345541661472254e-02,1.416935133666632598e-05,3.122615413207259147e-02,1.416935134109873250e-05,3.122615413207259147e-02,1.416935134109873250e-05
1.490599999999999703e+00,1.532799999999999496e+00,2.894281099179931219e-02,1.711859193791444466e-06,2.894029910246292969e-02,1.711859168946035829e-06,2.752507231319496067e-02,1.541097405224158462e-05,2.752256042385857818e-02,1.541097404948174460e-05,2.752507231319496067e-02,1.541097405224158462e-05,2.752507231319496067e-02,1.541097405224158462e-05
1.532799999999999940e+00,1.574999999999999734e+00,2.743684908393644734e-02,1.504087621705754856e-06,2.743586749157344781e-02,1.504087615644773544e-06,2.612944734773977110e-02,7.520362785782421301e-06,2.612846575537677157e-02,7.520362784570212122e-06,2.612944734773977110e-02,7.520362785782421301e-06,2.612944734773977110e-02,7.520362785782421301e-06
1.575000000000000178e+00,1.617199999999999971e+00,2.759738303477989735e-02,1.542049009321686410e-06,2.759870087257787832e-02,1.542048999729872822e-06,2.627589877221749720e-02,8.719831858935807168e-06,2.627721661001547818e-02,8.719831857239554234e-06,2.627589877221749720e-02,8.719831858935807168e-06,2.627589877221749720e-02,8.719831858935807168e-06
1.617199999999999971e+00,1.659399999999999764e+00,2.943862932515980621e-02,1.568167450295978677e-06,2.944120688095578156e-02,1.568167419545302818e-06,2.798391126981222832e-02,1.201684874482595165e-05,2.798648882560820367e-02,1.201684874081306869e-05,2.798391126981222832e-02,1.201684874482595165e-05,2.798391126981222832e-02,1.201684874482595165e-05
1.659400000000000208e+00,1.701600000000000001e+00,3.447450164089947006e-02,1.692256572075584872e-06,3.447689656335532066e-02,1.692256530341975100e-06,3.251243873051483380e-02,1.453887038106606927e-05,3.251483365297068440e-02,1.453887037620847254e-05,3.251243873051483380e-02,1.453887038106606927e-05,3.251243873051483380e-02,1.453887038106606927e-05
1.701600000000000001e+00,1.743799999999999795e+00,2.458935007446501342e-02,1.480902572340482779e-06,2.458737751506373179e-02,1.480902535919981188e-06,2.429010047766770250e-02,1.208022750458316165e-05,2.428812791826642087e-02,1.208022750011841033e-05,2.429010047766770250e-02,1.208022750458316165e-05,2.429010047766770250e-02,1.208022750458316165e-05
1.743800000000000239e+00,1.786000000000000032e+00,3.447578628069192762e-03,5.389363776888131950e-07,3.445115953039397296e-03,5.389363055921698627e-07,3.799152467050061904e-03,2.668199976368648269e-06,3.796689792020266439e-03,2.668199961806208389e-06,3.799152467050061904e-03,2.668199976368648269e-06,3.799152467050061904e-03,2.668199976368648269e-06
1.786000000000000032e+00,1.828200000000000269e+00,7.421869931906532403e-04,2.407833237740040429e-07,7.407516797430423400e-04,2.407832398834372715e-07,7.921570425900055631e-04,6.908500339134232138e-07,7.907217291423946628e-04,6.908500046748831723e-07,7.921570425900055631e-04,6.908500339134232138e-07,7.921570425900055631e-04,6.908500339134232138e-07
1.828199999999999825e+00,1.870399999999999618e+00,1.975953185990449406e-04,1.173160936806301580e-07,1.967340629439856938e-04,1.173159992870888070e-07,2.140200292511097952e-04,2.013411256359499078e-07,2.131587735960505483e-04,2.013410706353703642e-07,2.140200292511097952e-04,2.013411256359499078e-07,2.140200292511097952e-04,2.013411256359499078e-07
1.870400000000000063e+00,1.912599999999999856e+00,7.458540814673080021e-05,8.100285172545303054e-08,7.398239690227287248e-05,8.100275627781275367e-08,7.643726008860198212e-05,9.523304278366531066e-08,7.583424884414405440e-05,9.523296159829553562e-08,7.643726008860198212e-05,9.523304278366531066e-08,7.643726008860198212e-05,9.523304278366531066e-08
1.912599999999999856e+00,1.954800000000000093e+00,5.888814444560330145e-05,7.513429053006838381e-08,5.834276087924764693e-05,7.513419851333237311e-08,5.719216467504240509e-05,8.444251361224374309e-08,5.664678110868675057e-05,8.444243173865899697e-08,5.719216467504240509e-05,8.444251361224374309e-08,5.719216467504240509e-05,8.444251361224374309e-08
1.954800000000000093e+00,1.997000000000000330e+00,2.859044488759756881e-05,5.110076887998634811e-08,2.816557630713550312e-05,5.110066560274538737e-08,2.964093393435989911e-05,5.554060000045840270e-08,2.921606535389783342e-05,5.554050497905779715e-08,2.964093393435989911e-05,5.554060000045840270e-08,2.964093393435989911e-05,5.554060000045840270e-08
1.996999999999999886e+00,2.039200000000000124e+00,1.256631520313744513e-05,2.561040890398348876e-08,1.224237138139542308e-05,2.561027345319125057e-08,1.332746786420003041e-05,2.823093190342386229e-08,1.300352404245800836e-05,2.823080902584534275e-08,1.332746786420003041e-05,2.823093190342386229e-08,1.332746786420003041e-05,2.823093190342386229e-08
2.039199999999999680e+00,2.081399999999999917e+00,5.353896682980430610e-06,1.174292058393183876e-08,5.099765252907659774e-06,1.174269428725292491e-08,5.768740563065119261e-06,1.287556890158991940e-08,5.514609132992348424e-06,1.287536251229229853e-08,5.768740563065119261e-06,1.287556890158991940e-08,5.768740563065119261e-06,1.287556890158991940e-08
2.081399999999999917e+00,2.123600000000000154e+00,2.742313784767278878e-06,5.747023065384712374e-09,2.538029370491465577e-06,5.746692597728347525e-09,2.883491193526069857e-06,6.060804956845060525e-09,2.679206779250256556e-06,6.060491599172426187e-09,2.883491193526069857e-06,6.060804956845060525e-09,2.883491193526069857e-06,6.060804956845060525e-09
2.123599999999999710e+00,2.165799999999999947e+00,1.567807308843490745e-06,3.131845919198778918e-09,1.402360955136180705e-06,3.131366064265501108e-09,1.620480328388745971e-06,3.316486477531095441e-09,1.455033974681435931e-06,3.316033341581200578e-09,1.620480328388745971e-06,3.316486477531095441e-09,1.620480328388745971e-06,3.316486477531095441e-09
2.165799999999999947e+00,2.208000000000000185e+00,9.629185260350358197e-07,1.669812866918091106e-09,8.288899535694067759e-07,1.669141036874134270e-09,9.782545430332904897e-07,1.767929315832940543e-09,8.442259705676613401e-07,1.767294784758211715e-09,9.782545430332904897e-07,1.767929315832940543e-09,9.782545430332904897e-07,1.767929315832940543e-09
2.208000000000000185e+00,2.250200000000000422e+00,6.380411232446080391e-07,1.081369873327817500e-09,5.301860376144521877e-07,1.080575714264095712e-09,6.398675324918292233e-07,1.129442028587652307e-09,5.320124468616733719e-07,1.128681694392414620e-09,6.398675324918292233e-07,1.129442028587652307e-09,6.398675324918292233e-07,1.129442028587652307e-09
2.250199999999999978e+00,2.292400000000000215e+00,4.353712917231909978e-07,7.422373293889676888e-10,3.494908561293659884e-07,7.413723168203361200e-10,4.327246866726029539e-07,7.824225562640751616e-10,3.468442510787779446e-07,7.816020186513695604e-10,4.327246866726029539e-07,7.824225562640751616e-10,4.327246866726029539e-07,7.824225562640751616e-10
2.292399999999999771e+00,2.334600000000000009e+00,2.995319078724878409e-07,4.987150882342786095e-10,2.324581737427775596e-07,4.977472026185830205e-10,2.965229324512608848e-07,5.207816502348000180e-10,2.294491983215506299e-07,5.198548506106123350e-10,2.965229324512608848e-07,5.207816502348000180e-10,2.965229324512608848e-07,5.207816502348000180e-10
2.334600000000000009e+00,2.376800000000000246e+00,2.039754974072377723e-07,3.561679655384843466e-10,1.527564287139185819e-07,3.553291815988106387e-10,2.013696359062187478e-07,3.709147746191819034e-10,1.501505672128995574e-07,3.701094130803161541e-10,2.013696359062187478e-07,3.709147746191819034e-10,2.013696359062187478e-07,3.709147746191819034e-10
2.376799999999999802e+00,2.419000000000000039e+00,1.360672297419238152e-07,2.329230629500205319e-10,9.807217844877427165e-08,2.320967107954496598e-10,1.339436864837189142e-07,2.449141879661607631e-10,9.594863519056937069e-08,2.441284280356782241e-10,1.339436864837189142e-07,2.449141879661607631e-10,1.339436864837189142e-07,2.449141879661607631e-10
2.418999999999999595e+00,2.461199999999999832e+00,8.798184600978923637e-08,1.621878668093426244e-10,6.118412485001839458e-08,1.614702253409673703e-10,8.640291158695803631e-08,1.720574369355962461e-10,5.960519042718719452e-08,1.713811282969755327e-10,8.640291158695803631e-08,1.720574369355962461e-10,8.640291158695803631e-08,1.720574369355962461e-10
2.461199999999999832e+00,2.503400000000000070e+00,5.314810295489617411e-08,1.075127673273962899e-10,3.567901296208617554e-08,1.068651998010501605e-10,5.211400413458919488e-08,1.141236765045307674e-10,3.464491414177919631e-08,1.135138288008747993e-10,5.211400413458919488e-08,1.141236765045307674e-10,5.211400413458919488e-08,1.141236765045307674e-10
2.503400000000000070e+00,2.545600000000000307e+00,2.862642403930971104e-08,6.587050715677189964e-11,1.861083301876718960e-08,6.538269724395876001e-11,2.803918904276999347e-08,6.993996051963373231e-11,1.802359802222747203e-08,6.948072727953241599e-11,2.803918904276999347e-08,6.993996051963373231e-11,2.803918904276999347e-08,6.993996051963373231e-11
2.545599999999999419e+00,2.587799999999999656e+00,1.230409894029300058e-08,3.747724516584246410e-11,7.760875461138360815e-09,3.716356144623231838e-11,1.202877921633838425e-08,3.950054338599477520e-11,7.485555737183744485e-09,3.920305245686972252e-11,1.202877921633838425e-08,3.950054338599477520e-11,1.202877921633838425e-08,3.950054338599477520e-11
2.587800000000000100e+00,2.630000000000000338e+00,2.296103914724783495e-09,1.369858615384956437e-11,1.406165108020340328e-09,1.353735441688528508e-11,2.235794984877568550e-09,1.445506894888615235e-11,1.345856178173125383e-09,1.430236764703582739e-11,2.235794984877568550e-09,1.445506894888615235e-11,2.235794984877568550e-09,1.445506894888615235e-11
