# xl,xh,LO,dLO,LOISC,dLOISC,NLO,dNLO,NLOISC,dNLOISC,NLOL,dNLOL,NLOnovp,dNLOnovp
6.499999999999999112e-01,6.999999999999999556e-01,4.706517961220017116e-03,6.452766711597296212e-07,4.706358389407557311e-03,6.452766577076213974e-07,4.554158458091689572e-03,4.663362944030758673e-06,4.553998886279229767e-03,4.663362942169369890e-06,4.554158458091689572e-03,4.663362944030758673e-06,4.554158458091689572e-03,4.663362944030758673e-06
6.999999999999999556e-01,7.500000000000000000e-01,4.928647650251599503e-03,6.542280044037957085e-07,4.928471722136671881e-03,6.542279910820535844e-07,4.768919586047612284e-03,4.660000129600298394e-06,4.768743657932684663e-03,4.660000127730029317e-06,4.768919586047612284e-03,4.660000129600298394e-06,4.768919586047612284e-03,4.660000129600298394e-06
7.500000000000000000e-01,7.999999999999998224e-01,5.150174385637532742e-03,6.557361495728389333e-07,5.149966837685985427e-03,6.557361344419932526e-07,4.961898447380392457e-03,6.579732259337123453e-06,4.961690899428845142e-03,6.579732257829183731e-06,4.961898447380392457e-03,6.579732259337123453e-06,4.961898447380392457e-03,6.579732259337123453e-06
8.000000000000000444e-01,8.500000000000000888e-01,5.382398709722820487e-03,6.435449779430990359e-07,5.382152119031436040e-03,6.435449605437763026e-07,5.174455837240771183e-03,5.002944148513816588e-06,5.174209246549386736e-03,5.002944146275685337e-06,5.174455837240771183e-03,5.002944148513816588e-06,5.174455837240771183e-03,5.002944148513816588e-06
8.500000000000000888e-01,9.000000000000001332e-01,5.653604727147770390e-03,6.996324783973904980e-07,5.653319842065736983e-03,6.996324633791986111e-07,5.421338043889937196e-03,4.971828077156346696e-06,5.421053158807903789e-03,4.971828075042996951e-06,5.421338043889937196e-03,4.971828077156346696e-06,5.421338043889937196e-03,4.971828077156346696e-06
8.999999999999999112e-01,9.499999999999997335e-01,5.980379410445255985e-03,7.611424288776470123e-07,5.980077940348508571e-03,7.611424129372721445e-07,5.720326524206870156e-03,4.795059671097666263e-06,5.720025054110122742e-03,4.795059668567374714e-06,5.720326524206870156e-03,4.795059671097666263e-06,5.720326524206870156e-03,4.795059671097666263e-06
9.500000000000001776e-01,1.000000000000000000e+00,6.081649335674265029e-03,7.266773738894264623e-07,6.081389674013864231e-03,7.266773575452018495e-07,5.836133771409100085e-03,5.240738652709608300e-06,5.835874109748699287e-03,5.240738650443328451e-06,5.836133771409100085e-03,5.240738652709608300e-06,5.836133771409100085e-03,5.240738652709608300e-06
1.000000000000000222e+00,1.050000000000000044e+00,5.841118500264095084e-03,7.321785189992458860e-07,5.840916919761906211e-03,7.321785024231928025e-07,5.617669380124466240e-03,4.932013026659259284e-06,5.617467799622277366e-03,4.932013024198472718e-06,5.617669380124466240e-03,4.932013026659259284e-06,5.617669380124466240e-03,4.932013026659259284e-06
1.050000000000000266e+00,1.100000000000000089e+00,5.523408492382407033e-03,7.530779766780769604e-07,5.523249695431375721e-03,7.530779600156625151e-07,5.315497720063954400e-03,4.860768775585989283e-06,5.315338923112923088e-03,4.860768773004484429e-06,5.315497720063954400e-03,4.860768775585989283e-06,5.315497720063954400e-03,4.860768775585989283e-06
1.099999999999999867e+00,1.149999999999999689e+00,5.220151627543857288e-03,7.279253817877231782e-07,5.220022520208162514e-03,7.279253644126215639e-07,5.019294812432965186e-03,4.681279666419490639e-06,5.019165705097270412e-03,4.681279663717713035e-06,5.019294812432965186e-03,4.681279666419490639e-06,5.019294812432965186e-03,4.681279666419490639e-06
1.150000000000000133e+00,1.199999999999999956e+00,4.946814489322057598e-03,6.990791185222938169e-07,4.946706442259472467e-03,6.990791006373006029e-07,4.749733280155050107e-03,3.612952428988317814e-06,4.749625233092464975e-03,3.612952425527706262e-06,4.749733280155050107e-03,3.612952428988317814e-06,4.749733280155050107e-03,3.612952428988317814e-06
1.200000000000000178e+00,1.250000000000000000e+00,4.708319820116809405e-03,6.612941448231445651e-07,4.708225768920821022e-03,6.612941271049011159e-07,4.516784738335289859e-03,4.250717991044334082e-06,4.516690687139301476e-03,4.250717988287865255e-06,4.516784738335289859e-03,4.250717991044334082e-06,4.516784738335289859e-03,4.250717991044334082e-06
1.250000000000000222e+00,1.300000000000000044e+00,4.505083204544508071e-03,6.624826330530482003e-07,4.504997703170269575e-03,6.624826153289827760e-07,4.313572527160289272e-03,4.284588643194190788e-06,4.313487025786050776e-03,4.284588640453697849e-06,4.313572527160289272e-03,4.284588643194190788e-06,4.313572527160289272e-03,4.284588643194190788e-06
1.300000000000000266e+00,1.350000000000000089e+00,4.334433102902964310e-03,6.518909415162779319e-07,4.334354121761989712e-03,6.518909241906340419e-07,4.150936105594019675e-03,5.857859227859571438e-06,4.150857124453045076e-03,5.857859225931489822e-06,4.150936105594019675e-03,5.857859227859571438e-06,4.150936105594019675e-03,5.857859227859571438e-06
1.349999999999999867e+00,1.399999999999999689e+00,4.199131148598452164e-03,6.129211454518265742e-07,4.199058293725577151e-03,6.129211274772148392e-07,4.015340372132576545e-03,5.578094528060224529e-06,4.015267517259701532e-03,5.578094526085174089e-06,4.015340372132576545e-03,5.578094528060224529e-06,4.015340372132576545e-03,5.578094528060224529e-06
1.400000000000000133e+00,1.449999999999999956e+00,4.094769497230633243e-03,6.448050142623989820e-07,4.094701177584628496e-03,6.448049959523266245e-07,3.914726464841212714e-03,3.353878143906727806e-06,3.914658145195207967e-03,3.353878140386496570e-06,3.914726464841212714e-03,3.353878143906727806e-06,3.914726464841212714e-03,3.353878143906727806e-06
1.449999999999999956e+00,1.499999999999999778e+00,4.023426245741333618e-03,5.970237945139159394e-07,4.023360956610734333e-03,5.970237759414842321e-07,3.845111524285685194e-03,5.374773879633267654e-06,3.845046235155085909e-03,5.374773877570263007e-06,3.845111524285685194e-03,5.374773879633267654e-06,3.845111524285685194e-03,5.374773879633267654e-06
1.500000000000000222e+00,1.550000000000000044e+00,3.979743773901587775e-03,6.540066644961352948e-07,3.979680872047640025e-03,6.540066475918684850e-07,3.807152259015197590e-03,3.976704826188185215e-06,3.807089357161249840e-03,3.976704823408118897e-06,3.807152259015197590e-03,3.976704826188185215e-06,3.807152259015197590e-03,3.976704826188185215e-06
1.550000000000000266e+00,1.600000000000000089e+00,3.966521056326948076e-03,5.971794478182120791e-07,3.966459720175725782e-03,5.971794306241030885e-07,3.790472814195109796e-03,3.563250722984730024e-06,3.790411478043887502e-03,3.563250720103100644e-06,3.790472814195109796e-03,3.563250722984730024e-06,3.790472814195109796e-03,3.563250722984730024e-06
1.599999999999999867e+00,1.649999999999999689e+00,3.986484241039486322e-03,6.070263721818326934e-07,3.986424071864707458e-03,6.070263536044707250e-07,3.804844633845003328e-03,3.756302208412099212e-06,3.804784464670224464e-03,3.756302205409958220e-06,3.804844633845003328e-03,3.756302208412099212e-06,3.804844633845003328e-03,3.756302208412099212e-06
1.650000000000000133e+00,1.699999999999999956e+00,4.032908937897587698e-03,6.081483208466834370e-07,4.032850560037281457e-03,6.081483018700771475e-07,3.856815160724335299e-03,3.656122269249938482e-06,3.856756782864029058e-03,3.656122266093427429e-06,3.856815160724335299e-03,3.656122269249938482e-06,3.856815160724335299e-03,3.656122269249938482e-06
1.699999999999999956e+00,1.749999999999999778e+00,4.112047153980724623e-03,6.365455682304099907e-07,4.111991513216410946e-03,6.365455517477695005e-07,3.930327596616439365e-03,4.376885428858560693e-06,3.930271955852125687e-03,4.376885426461433735e-06,3.930327596616439365e-03,4.376885428858560693e-06,3.930327596616439365e-03,4.376885428858560693e-06
1.750000000000000222e+00,1.800000000000000044e+00,4.222416646144843896e-03,6.316514211347500126e-07,4.222364343408832772e-03,6.316514023380623091e-07,4.037788686887928101e-03,3.851967550366103682e-06,4.037736384151916977e-03,3.851967547283794833e-06,4.037788686887928101e-03,3.851967550366103682e-06,4.037788686887928101e-03,3.851967550366103682e-06
1.800000000000000044e+00,1.849999999999999867e+00,4.366525158857533472e-03,6.413542692021191441e-07,4.366478174241162323e-03,6.413542506278346581e-07,4.183933202683530472e-03,3.971109426504878300e-06,4.183886218067159324e-03,3.971109423505037426e-06,4.183933202683530472e-03,3.971109426504878300e-06,4.183933202683530472e-03,3.971109426504878300e-06
1.849999999999999867e+00,1.899999999999999689e+00,4.542332707115220164e-03,6.431789401090729479e-07,4.542292174848252921e-03,6.431789217548951613e-07,4.358591790017061519e-03,3.602782261251801687e-06,4.358551257750094277e-03,3.602782257975161881e-06,4.358591790017061519e-03,3.602782261251801687e-06,4.358591790017061519e-03,3.602782261251801687e-06
1.899999999999999911e+00,1.949999999999999734e+00,4.754415018201685501e-03,6.778900084944837195e-07,4.754383464781423464e-03,6.778899883177511754e-07,4.560628230660105330e-03,4.238028323620876266e-06,4.560596677239843293e-03,4.238028320393524883e-06,4.560628230660105330e-03,4.238028323620876266e-06,4.560628230660105330e-03,4.238028323620876266e-06
1.949999999999999956e+00,1.999999999999999778e+00,5.003453601005950456e-03,6.986913128494993083e-07,5.003433367608627405e-03,6.986912949402990574e-07,4.811014323090258282e-03,3.561392330314879235e-06,4.810994089692935231e-03,3.561392326801364971e-06,4.811014323090258282e-03,3.561392330314879235e-06,4.811014323090258282e-03,3.561392330314879235e-06
2.000000000000000444e+00,2.050000000000000266e+00,5.293157387142085474e-03,7.291704422980424912e-07,5.293151154247459703e-03,7.291704229776003293e-07,5.089042727828926686e-03,4.016254845605007239e-06,5.089036494934300915e-03,4.016254842097287950e-06,5.089042727828926686e-03,4.016254845605007239e-06,5.089042727828926686e-03,4.016254845605007239e-06
2.049999999999999822e+00,2.099999999999999645e+00,5.625821404397758803e-03,7.475015742066566984e-07,5.625832720347606966e-03,7.475015568731305316e-07,5.412425811442688438e-03,3.902470910319704165e-06,5.412437127392536601e-03,3.902470906999541687e-06,5.412425811442688438e-03,3.902470910319704165e-06,5.412425811442688438e-03,3.902470910319704165e-06
2.100000000000000089e+00,2.149999999999999911e+00,6.006269561295427516e-03,7.481320595457957588e-07,6.006300601298410376e-03,7.481320397119547513e-07,5.778842327530590503e-03,4.896239502498821258e-06,5.778873367533573363e-03,4.896239499468264427e-06,5.778842327530590503e-03,4.896239502498821258e-06,5.778842327530590503e-03,4.896239502498821258e-06
2.150000000000000355e+00,2.200000000000000178e+00,6.435971943427231702e-03,7.916819016859682225e-07,6.436027968916682544e-03,7.916818843657044740e-07,6.190150034113160379e-03,4.750189912747729874e-06,6.190206059602611222e-03,4.750189909861078859e-06,6.190150034113160379e-03,4.750189912747729874e-06,6.190150034113160379e-03,4.750189912747729874e-06
2.200000000000000178e+00,2.250000000000000000e+00,6.917306885481202920e-03,7.948291952816737349e-07,6.917397054663968273e-03,7.948291789975263103e-07,6.636228138167497501e-03,5.292248168364090492e-06,6.636318307350262853e-03,5.292248165918415841e-06,6.636228138167497501e-03,5.292248168364090492e-06,6.636228138167497501e-03,5.292248168364090492e-06
2.250000000000000444e+00,2.300000000000000266e+00,7.419743294760717048e-03,8.315331165854710353e-07,7.419882298882773605e-03,8.315331008129704743e-07,7.084764752813709279e-03,4.782739449190691916e-06,7.084903756935765837e-03,4.782739446448465101e-06,7.084764752813709279e-03,4.782739449190691916e-06,7.084764752813709279e-03,4.782739449190691916e-06
2.299999999999999822e+00,2.349999999999999645e+00,7.835645426807546360e-03,8.368619849680090924e-07,7.835845421604929056e-03,8.368619696505172666e-07,7.448337271355356774e-03,4.507562871696179281e-06,7.448537266152739471e-03,4.507562868852374581e-06,7.448337271355356774e-03,4.507562871696179281e-06,7.448337271355356774e-03,4.507562871696179281e-06
2.350000000000000089e+00,2.399999999999999911e+00,7.963094748898244188e-03,8.555048845753499213e-07,7.963353867786907708e-03,8.555048686960408351e-07,7.544380961007377678e-03,5.501838191345380795e-06,7.544640079896041199e-03,5.501838188876237402e-06,7.544380961007377678e-03,5.501838191345380795e-06,7.544380961007377678e-03,5.501838191345380795e-06
2.400000000000000355e+00,2.450000000000000178e+00,7.482841552251048335e-03,8.516399495028204577e-07,7.483126638969516721e-03,8.516399349567517125e-07,7.094425207038353165e-03,4.470253897238527176e-06,7.094710293756821551e-03,4.470253894467316587e-06,7.094425207038353165e-03,4.470253897238527176e-06,7.094425207038353165e-03,4.470253897238527176e-06
2.450000000000000178e+00,2.500000000000000000e+00,6.304680508947104085e-03,7.348020006943955895e-07,6.304908377008444122e-03,7.348019873164114307e-07,6.047930941963226142e-03,4.299068218593780012e-06,6.048158810024566179e-03,4.299068216307198477e-06,6.047930941963226142e-03,4.299068218593780012e-06,6.047930941963226142e-03,4.299068218593780012e-06
2.500000000000000444e+00,2.550000000000000266e+00,5.018078914786156149e-03,7.049762310065845065e-07,5.018221042095676564e-03,7.049762188224431002e-07,4.873443952774455558e-03,4.433467350636818352e-06,4.873586080083975973e-03,4.433467348699388880e-06,4.873443952774455558e-03,4.433467350636818352e-06,4.873443952774455558e-03,4.433467350636818352e-06
2.549999999999999822e+00,2.599999999999999645e+00,3.814928688421174215e-03,5.961661036220332256e-07,3.815088546870066058e-03,5.961660884241993090e-07,3.754728618034157851e-03,4.161969851949838322e-06,3.754888476483049693e-03,4.161969849772880639e-06,3.754728618034157851e-03,4.161969851949838322e-06,3.754728618034157851e-03,4.161969851949838322e-06
2.600000000000000089e+00,2.649999999999999911e+00,2.365441352796760367e-03,4.823073296406545686e-07,2.365679441709762822e-03,4.823073157296841392e-07,2.435047984720124098e-03,3.684203145546041585e-06,2.435286073633126554e-03,3.684203143724924983e-06,2.435047984720124098e-03,3.684203145546041585e-06,2.435047984720124098e-03,3.684203145546041585e-06
2.650000000000000355e+00,2.700000000000000178e+00,1.117934722874154097e-03,3.069118453292472744e-07,1.118180751244517200e-03,3.069118303385845406e-07,1.280767226236314118e-03,3.365615100473672839e-06,1.281013254606677221e-03,3.365615099106667964e-06,1.280767226236314118e-03,3.365615100473672839e-06,1.280767226236314118e-03,3.365615100473672839e-06
2.700000000000000178e+00,2.750000000000000000e+00,4.351087009683940834e-04,1.901354217236020291e-07,4.353159731854210047e-04,1.901354062676804028e-07,5.876529484122808159e-04,2.089787640026099986e-06,5.878602206293077372e-04,2.089787638619871981e-06,5.876529484122808159e-04,2.089787640026099986e-06,5.876529484122808159e-04,2.089787640026099986e-06
