# xl,xh,FSR,dFSR,FULL,dFULL,ISR,dISR
591.0,598.68,3.4611097633959995e-06,5.59663853887066e-08,0.0018046282961161,1.728412258241635e-06,0.0017917972230711,1.6239833949386962e-06
598.68,606.36,4.1573567731790086e-06,6.159005036563047e-08,0.0020870165945501,1.874639158107016e-06,0.0020721034712988,1.759332129244936e-06
606.36,614.04,4.572367067077132e-06,6.484592046429224e-08,0.0022256763791749,1.9442311469573713e-06,0.0022070684620786,1.8241834792802e-06
614.04,621.72,5.0048388736127206e-06,6.824135451192519e-08,0.0023593664720444,2.024432628365009e-06,0.0023450721943697,1.8952876600320793e-06
621.72,629.4,5.233237167479084e-06,7.00969921430015e-08,0.0024964619221808,2.089153977298462e-06,0.0024773332741903,1.9591304647960767e-06
629.4,637.08,5.964023053236879e-06,7.520874822786983e-08,0.0026351345895067,2.1639449423095375e-06,0.002619013893417,2.0281405877732814e-06
637.08,644.76,6.453191666420159e-06,7.860363172608485e-08,0.002770148357485,2.2369744747458454e-06,0.0027593420487537,2.0955175893208987e-06
644.76,652.44,6.852088423987776e-06,8.113765553852834e-08,0.0029118337256956,2.3177181452498594e-06,0.0029001266774282,2.1599105758770215e-06
652.44,660.12,7.599960870139147e-06,8.615242267451842e-08,0.0030535253932382,2.3857855979097285e-06,0.003038517744423,2.2235966769885103e-06
660.12,667.8,8.146816417089322e-06,8.964208624818348e-08,0.0031989741807824,2.4605977322311384e-06,0.0031886880837129,2.302117475790473e-06
667.8,675.48,8.809388046685582e-06,9.368289420148782e-08,0.003347454031861,2.538115712959511e-06,0.0033346484765209,2.371095783736036e-06
675.48,683.16,9.444885375200458e-06,9.749501478926329e-08,0.0034975248640938,2.615814755572318e-06,0.003488818381389,2.441068371155767e-06
683.16,690.84,1.0267677511782632e-05,1.0218251592281126e-07,0.0036523608186577,2.6931994100241037e-06,0.0036500611340702,2.5210090306287284e-06
690.84,698.52,1.1000097232733353e-05,1.062613344449465e-07,0.0038150068501995,2.7778873122603015e-06,0.0038101024971984,2.5923184475140116e-06
698.52,706.2,1.1697090054808586e-05,1.1023098597896415e-07,0.0039828843440554,2.8618769961996733e-06,0.0039739402095888,2.6708760093139924e-06
706.2,713.88,1.2586643907290792e-05,1.1491832261676413e-07,0.0041505714775854,2.943472657140502e-06,0.0041449314498603,2.7492331732409472e-06
713.88,721.56,1.3647097483165015e-05,1.2042770943339346e-07,0.0043271710089124,3.0353705164613297e-06,0.0043238644089969,2.817823707527512e-06
721.56,729.24,1.4793333169803844e-05,1.2614122442768084e-07,0.0045108218131138,3.1270477144317746e-06,0.0045086696658286,2.906834965914676e-06
729.24,736.92,1.560007797567096e-05,1.3024129928299186e-07,0.0047075667449392,3.219622192393422e-06,0.0047036108252973,3.000105131852701e-06
736.92,744.6,1.684466302959834e-05,1.3614979692259992e-07,0.0049019482894498,3.3135730809914433e-06,0.0049098315173821,3.080501138429389e-06
744.6,752.28,1.8216891898236902e-05,1.426213253723988e-07,0.0051169699664547,3.4133154910236076e-06,0.0051204527717883,3.17418961185299e-06
752.28,759.96,1.9203502120097165e-05,1.471748083928851e-07,0.0053317726084784,3.5256129571669824e-06,0.0053437973300132,3.262060405336502e-06
759.96,767.64,2.1079657033490287e-05,1.5531060464330866e-07,0.0055616463132796,3.6247501112514743e-06,0.0055736020238324,3.369029397480639e-06
767.64,775.3199999999998,2.2159584161339065e-05,1.600140027772953e-07,0.0058089871420789,3.7319306189146703e-06,0.0058219766128345,3.471650573903578e-06
775.3199999999998,783.0,2.418439447082707e-05,1.684133126868919e-07,0.0060623285903772,3.852637855056365e-06,0.0060769944637063,3.5776472635445663e-06
783.0,790.6800000000002,2.5693885307826065e-05,1.747457025990864e-07,0.0063300940490564,3.973910244798517e-06,0.0063520841858017,3.686469143392921e-06
790.6800000000002,798.36,2.7828866138505788e-05,1.8311418903420545e-07,0.0066223592781645,4.103664885695849e-06,0.0066479937814625,3.797394630435052e-06
798.36,806.04,2.970496715706599e-05,1.9026498364481477e-07,0.0069217061276681,4.2352199496555645e-06,0.006959640748954,3.9296606086935574e-06
806.04,813.72,3.168906414980233e-05,1.979984895903972e-07,0.0072620280548294,4.374055387971991e-06,0.0072884113528863,4.053430502034172e-06
813.72,821.4,3.435208404975911e-05,2.076245570852742e-07,0.0076056066026299,4.5162101770602275e-06,0.0076522502811085,4.194054188544694e-06
821.4,829.08,3.712844497754738e-05,2.1736592166052277e-07,0.0079771087779287,4.671533586419762e-06,0.0080373900072961,4.3323795787677215e-06
829.08,836.76,3.9842664814209694e-05,2.2671258223445577e-07,0.0083884693263137,4.846009418351408e-06,0.0084439006191505,4.469575910121244e-06
836.76,844.44,4.34870869921556e-05,2.388229089481742e-07,0.0088345667843715,5.016815713537754e-06,0.0088954397536488,4.6434050858948115e-06
844.44,852.12,4.663426871646798e-05,2.4901709952469234e-07,0.0093086941935472,5.201980440057421e-06,0.0093915687198133,4.809962468150858e-06
852.12,859.8,5.082922102742858e-05,2.618663258076892e-07,0.009816443331572,5.391852547467218e-06,0.0099218367112035,4.9794407815202355e-06
859.8,867.48,5.498249712334306e-05,2.744331309929311e-07,0.0103880630456661,5.595225819523628e-06,0.0104940720794652,5.191747408974536e-06
867.48,875.1600000000002,5.990888415187787e-05,2.887822849795861e-07,0.0110238288632224,5.818309610316398e-06,0.0111327563665946,5.387388474384551e-06
875.1600000000002,882.8399999999998,6.599172343815385e-05,3.05505857090186e-07,0.011703406275721,6.072488651154496e-06,0.0118386288973053,5.592097109956203e-06
882.8399999999998,890.52,7.20485059019794e-05,3.214699183688838e-07,0.0124747128904805,6.318667134214963e-06,0.0126275249086221,5.852089694588955e-06
890.52,898.2,7.871452995665211e-05,3.38738644352258e-07,0.013324423581935,6.594274334402648e-06,0.0135012239475,6.100655290524856e-06
898.2,905.88,8.691564064533096e-05,3.5884077967820506e-07,0.0142942866053851,6.9126918781555155e-06,0.0145006501491907,6.380126458849292e-06
905.88,913.56,9.56221506362456e-05,3.795086032534512e-07,0.0153684220172674,7.226115769802453e-06,0.0156101301994891,6.686581004058732e-06
913.56,921.24,0.000107431552044,4.055969813419499e-07,0.0166310350246226,7.603459294811547e-06,0.0168975951201378,7.030538504931067e-06
921.24,928.92,0.000119080742797,4.3020880683928963e-07,0.0180540330751404,8.006441597194109e-06,0.0184026104632384,7.39509512882589e-06
928.92,936.6,0.0001338999481223,4.603094126100528e-07,0.0197496921826487,8.459727793697504e-06,0.0201400993425517,7.815825786185525e-06
936.6,944.28,0.0001515658511695,4.93860029456193e-07,0.0217683531468295,8.978063645142714e-06,0.0222150100755126,8.29048798520516e-06
944.28,951.96,0.0001725830828905,5.313833222027675e-07,0.0241522106685159,9.557885015635575e-06,0.0246886735790374,8.820706400421088e-06
951.96,959.64,0.000199303617319,5.757168397591061e-07,0.0271127315475371,1.0240144516892584e-05,0.0277893961822771,9.444296746808315e-06
959.64,967.32,0.000233485856107,6.28774126144423e-07,0.0308595721061233,1.1045051178243675e-05,0.0316675748172202,1.0186527423317064e-05
967.32,975.0,0.0002664267112649,6.774643053264175e-07,0.0341166484935191,1.1747059421592776e-05,0.0350838303486241,1.082652751148159e-05
