# xl,xh,FSR,dFSR,FULL,dFULL,ISR,dISR
0.0,0.01,0.0,0.0,0.0,0.0,0.0,0.0
0.01,0.02,0.0,0.0,0.0,0.0,0.0,0.0
0.02,0.03,0.0,0.0,0.0,0.0,0.0,0.0
0.03,0.04,0.0,0.0,0.0,0.0,0.0,0.0
0.04,0.05,0.0,0.0,0.0,0.0,0.0,0.0
0.05,0.06,0.0,0.0,0.0,0.0,0.0,0.0
0.06,0.07,0.0,0.0,0.0,0.0,0.0,0.0
0.07,0.08,0.0,0.0,0.0,0.0,0.0,0.0
0.08,0.09,0.0,0.0,0.0,0.0,0.0,0.0
0.09,0.1,0.0,0.0,0.0,0.0,0.0,0.0
0.1,0.11,0.0,0.0,0.0,0.0,0.0,0.0
0.11,0.12,0.0,0.0,0.0,0.0,0.0,0.0
0.12,0.13,0.0,0.0,0.0,0.0,0.0,0.0
0.13,0.14,0.0,0.0,0.0,0.0,0.0,0.0
0.14,0.15,0.0,0.0,0.0,0.0,0.0,0.0
0.15,0.16,0.0,0.0,0.0,0.0,0.0,0.0
0.16,0.17,0.0,0.0,0.0,0.0,0.0,0.0
0.17,0.18,0.0,0.0,0.0,0.0,0.0,0.0
0.18,0.19,0.0,0.0,0.0,0.0,0.0,0.0
0.19,0.2,0.0,0.0,0.0,0.0,0.0,0.0
0.2,0.21,0.0,0.0,0.0,0.0,0.0,0.0
0.21,0.22,0.0,0.0,0.0,0.0,0.0,0.0
0.22,0.23,0.0,0.0,0.0,0.0,0.0,0.0
0.23,0.24,0.0,0.0,0.0,0.0,0.0,0.0
0.24,0.25,0.0,0.0,0.0,0.0,0.0,0.0
0.25,0.26,0.0,0.0,0.0,0.0,0.0,0.0
0.26,0.27,0.0,0.0,0.0,0.0,0.0,0.0
0.27,0.28,0.0,0.0,0.0,0.0,0.0,0.0
0.28,0.29,0.0,0.0,0.0,0.0,0.0,0.0
0.29,0.3,0.0,0.0,0.0,0.0,0.0,0.0
0.3,0.31,0.0,0.0,0.0,0.0,0.0,0.0
0.31,0.32,0.0,0.0,0.0,0.0,0.0,0.0
0.32,0.33,0.0,0.0,0.0,0.0,0.0,0.0
0.33,0.34,0.0,0.0,0.0,0.0,0.0,0.0
0.34,0.35,0.0,0.0,0.0,0.0,0.0,0.0
0.35,0.36,0.0032094746329268,4.724821942364374e-05,1.6536519077211116,0.0014522137663335,1.6418648394460824,0.0013643307254616
0.36,0.37,0.0035306347576195,4.9817770769304346e-05,1.7510162427760665,0.0015051066159705,1.7395008596458608,0.0014137517146875
0.37,0.38,0.0038206175191265,5.2029939919933734e-05,1.84798411697816,0.0015578212801698,1.832906554100844,0.0014599560424551
0.38,0.39,0.0040676465669137,5.396418785223134e-05,1.9390440081974387,0.0016089085445143,1.9256554294160175,0.0015063841134638
0.39,0.4,0.0043731477177973,5.626476922846505e-05,2.02961364865536,0.0016570985930895,2.0131374862173597,0.0015527237291245
0.4,0.41,0.0048066203823911,5.9288301774237664e-05,2.1121193922417607,0.0017026297195447,2.1024421537725906,0.0015965937657764
0.41,0.42,0.00515675613582,6.160424949704766e-05,2.1970320256177707,0.001753842656249,2.1903581912012204,0.001639313722359
0.42,0.43,0.0055447156867638,6.422264387554108e-05,2.2794996800578247,0.0018002177527824,2.2682522996894527,0.0016800666162581
0.43,0.44,0.0058918424513116,6.658101472976884e-05,2.363310980151972,0.0018466734506178,2.351052781279297,0.0017223369557711
0.44,0.45,0.0063450939321838,6.94699029834884e-05,2.441842739646185,0.0018899988922041,2.43389885370158,0.0017620638219065
0.45,0.46,0.0066791069542301,7.165287814729842e-05,2.52043165148112,0.0019361664599462,2.5137107210353995,0.0018127725178155
0.46,0.47,0.0071093104309604,7.418379791436647e-05,2.603290849729951,0.0019830895535498,2.5992861683376502,0.0018523511483318
0.47,0.48,0.0075642180026193,7.703241584508175e-05,2.6821623244667396,0.002027651550672,2.680674993159623,0.0018964932256474
0.48,0.49,0.0080452206656188,7.967054832961671e-05,2.7672130055969206,0.0020774838719797,2.761757008785685,0.0019388261409409
0.49,0.5,0.0083860764666985,8.189560847171595e-05,2.848046086516784,0.002122178474215,2.8418868742131136,0.0019803663308268
0.5,0.51,0.0089363574341461,8.493801753883473e-05,2.930554856239498,0.0021696574118318,2.92664622336166,0.0020264751115985
0.51,0.52,0.0094917239690043,8.797051004250632e-05,3.0131967819410788,0.0022198227948452,3.010998331047781,0.002060039323514
0.52,0.53,0.0101065973101709,9.13028868562519e-05,3.098312674345035,0.0022672324351007,3.0968527428312154,0.0021087442560732
0.53,0.54,0.0105836983759143,9.395232356254428e-05,3.1886690867390466,0.002320584874613,3.1852898621769135,0.0021572301157724
0.54,0.55,0.0111440851252759,9.679651976826586e-05,3.275847535062126,0.0023625114804355,3.280889278224351,0.0022041195928949
0.55,0.56,0.0117751733276939,0.000100151658164,3.368988713472499,0.0024236205016433,3.3701301024727615,0.0022472736772829
0.56,0.57,0.0123053988496171,0.0001029230289417,3.462477949359518,0.0024696494153545,3.4679173692164893,0.002295503976542
0.57,0.58,0.0131615146911068,0.000107078039447,3.557610484857482,0.0025295806044521,3.565412221553499,0.0023420459239367
0.58,0.59,0.0138187390800734,0.0001102373849488,3.6572534838740793,0.0025790674909596,3.6653478001715145,0.0023980539687486
0.59,0.6,0.0142171948042224,0.0001123247605847,3.762732024053792,0.0026334123695252,3.7713715301161583,0.0024485262987439
0.6,0.61,0.0153058132467044,0.000117284663491,3.8680076579681297,0.002687627385368,3.8743699327960415,0.0024976578712981
0.61,0.62,0.0161243737256198,0.0001209957713349,3.974491896265747,0.002753927027376,3.9888246312121383,0.0025544550106924
0.62,0.63,0.0170114624217129,0.0001249558641778,4.090106379423698,0.0028095391213628,4.107184418518242,0.0026039672555077
0.63,0.64,0.0177209979464069,0.0001283130201688,4.214140360715572,0.0028774254014464,4.232127118149323,0.0026675829634696
0.64,0.65,0.0186665127050132,0.0001323264731572,4.333192927412286,0.0029418384064513,4.355246084538875,0.0027258312433334
0.65,0.66,0.0194088691677782,0.0001356738934118,4.469633575301211,0.0030066208469632,4.488753374227989,0.0027870920565153
0.66,0.67,0.0207810911400969,0.0001412848775782,4.603977400921228,0.0030702105382436,4.627833725520512,0.0028494122859364
0.67,0.68,0.0216179278510855,0.0001448524056115,4.748251631116528,0.0031429625193754,4.776709472077797,0.0029176086353534
0.68,0.69,0.0230204785339866,0.0001503755501539,4.891507635748705,0.0032177190557602,4.932449535063271,0.0029775900864492
0.69,0.7,0.023973156958497,0.0001541712586574,5.05463147901156,0.0032997434561924,5.0873401612522455,0.0030437916160665
0.7,0.71,0.0256757929531155,0.0001606042716884,5.2276331151584845,0.0033789125273567,5.2604141212409425,0.0031285261219552
0.71,0.72,0.0266567243141384,0.0001645999226727,5.4017851851951075,0.0034573982876256,5.452052080728447,0.0032002285951468
0.72,0.73,0.0282943225101941,0.0001704778297176,5.587342432075789,0.0035457380877323,5.63830312234356,0.0032735878716654
0.73,0.74,0.0303386564968464,0.000177561711872,5.7807126706008365,0.0036327783710159,5.8415858209607245,0.0033564784083403
0.74,0.75,0.0316122486753171,0.0001822663507333,5.991440818731373,0.0037207903840781,6.057498619267053,0.0034533584946254
0.75,0.76,0.0336206727457579,0.0001891379495618,6.2246815200235055,0.0038213586019579,6.283230133729233,0.0035370839617973
0.76,0.77,0.035762242445834,0.0001961549561988,6.468007641739519,0.0039262697433557,6.533601163260434,0.00362876687437
0.77,0.78,0.0379737977198089,0.0002033828779562,6.717548503110908,0.0040386155504271,6.796770080059408,0.0037195739368075
0.78,0.79,0.0402463176243061,0.0002104232615983,6.997986984247059,0.0041455443252511,7.086083213771215,0.0038384843236865
0.79,0.8,0.0431086977275512,0.0002191568743779,7.293833764885889,0.0042654448611384,7.386463418604325,0.0039458105033193
0.8,0.81,0.045042334566509,0.0002250915348476,7.618056238800402,0.0043837147528076,7.720587908336093,0.0040553707886053
0.81,0.82,0.0487237504199656,0.0002356475914591,7.969563609037875,0.0045252414403295,8.08591544453073,0.0041788377238006
0.82,0.83,0.0517268625906303,0.0002442636711938,8.342469703650234,0.004657120977925,8.4733863831365,0.0043089474350847
0.83,0.84,0.0554899078412578,0.0002543862366798,8.756992561538958,0.0048143273201429,8.900093116909522,0.0044507472095101
0.84,0.85,0.059885478150586,0.0002658860070055,9.220751004132165,0.0049701216526953,9.370428537514158,0.004595286205173
0.85,0.86,0.0641794904925192,0.0002765951059087,9.71544934447602,0.0051408137504932,9.90061444722761,0.0047525042701404
0.86,0.87,0.0687943608013533,0.000288196786022,10.271365638521043,0.0053277598938587,10.480576965587751,0.0049195080639839
0.87,0.88,0.074458065794325,0.0003016847563591,10.906851032114735,0.0055357634512933,11.112545033959504,0.0051010634297397
0.88,0.89,0.0812518042255622,0.0003170265404782,11.608907406175629,0.0057399685901002,11.853157965895928,0.005314143428671
0.89,0.9,0.0874459494326533,0.0003307347749185,12.395515889513886,0.005986806127367,12.66190712163274,0.0055242306314987
0.9,0.91,0.0960870950624017,0.0003485492585597,13.297026323331064,0.0062434207894208,13.605518761656288,0.0057555626871418
0.91,0.92,0.1058413912168893,0.000367997959358,14.330374752117889,0.0065285974772964,14.692738042796265,0.0060275740169667
0.92,0.93,0.117258637453952,0.0003898046472852,15.558529761045191,0.0068562439309229,15.960219327606636,0.0063263527371287
0.93,0.94,0.1300558475444817,0.000412786117641,16.988543725352805,0.0072144198529838,17.441346876211256,0.0066477104571353
0.94,0.95,0.1468051403289489,0.0004412141037256,18.71280778236438,0.0076407543145784,19.256940108483786,0.0070405276896321
0.95,0.96,0.0,0.0,0.0,0.0,0.0,0.0
0.96,0.97,0.0,0.0,0.0,0.0,0.0,0.0
0.97,0.98,0.0,0.0,0.0,0.0,0.0,0.0
0.98,0.99,0.0,0.0,0.0,0.0,0.0,0.0
0.99,1.0,0.0,0.0,0.0,0.0,0.0,0.0
