# xl,xh,FSR,dFSR,FULL,dFULL,ISR,dISR
215.0,220.0,0.0,0.0,0.0,0.0,0.0,0.0
220.0,225.0,0.0,0.0,0.0,0.0,0.0,0.0
225.0,230.0,0.0,0.0,4.920305376499832e-09,3.654730518528959e-09,2.129325465308443e-09,2.129325465308443e-09
230.0,235.0,5.776424084781012e-11,5.4551033694003574e-11,1.575777010272698e-07,2.115782120290469e-08,1.4239530438097185e-07,1.9249663383656505e-08
235.0,240.0,5.666473235088152e-09,2.210790534774928e-09,9.225090722727964e-07,4.9667082044741614e-08,6.992317759066232e-07,4.1572468099028707e-08
240.0,245.0,2.9698089063914536e-08,6.2340033182812664e-09,3.489924461780166e-06,9.99699950112996e-08,3.1217257899887237e-06,8.905570914133555e-08
245.0,250.0,9.83016800618268e-08,1.168438794148264e-08,9.933044418995176e-06,1.6878586289838285e-07,8.997285604065153e-06,1.516102651164007e-07
250.0,255.0,2.385914778430775e-07,1.8394325044496375e-08,2.265316432767395e-05,2.554577788715612e-07,2.0362568835652097e-05,2.28221456108213e-07
255.0,260.0,4.055727786022909e-07,2.3867298237983843e-08,4.701741408749498e-05,3.642830831090353e-07,4.3263519503996254e-05,3.3285010620746837e-07
260.0,265.0,7.379987294753878e-07,3.254490878321924e-08,8.38165300040278e-05,4.839959305716454e-07,7.890950262753898e-05,4.500173222431838e-07
265.0,270.0,1.136358358555215e-06,4.069080980874978e-08,0.0001378516890271,6.181391630984152e-07,0.0001298729653292,5.772749571861897e-07
270.0,275.0,1.507846471303314e-06,4.7173075980552235e-08,0.0002097249157328,7.617339391422356e-07,0.0001977065939088,7.111154172037521e-07
275.0,280.0,2.080558401682738e-06,5.548704361294475e-08,0.0003045331253142,9.170299551299536e-07,0.0002887849981559,8.577341210066298e-07
280.0,285.0,2.799205467750599e-06,6.466214438726089e-08,0.0004318714577684,1.0933060832344417e-06,0.0004094929564797,1.021419562865377e-06
285.0,290.0,3.675904577872762e-06,7.435922114906773e-08,0.0006080427970658,1.3015087325600297e-06,0.000578282001628,1.2139811168431464e-06
290.0,295.0,4.53597069844285e-06,8.304977801105474e-08,0.0009546980017148,1.6331193626722403e-06,0.0009127985871163,1.5194979754857228e-06
295.0,300.0,5.576160735501468e-06,9.247284932092243e-08,0.0017342563288974,2.1986678456348397e-06,0.0016956575556265,2.051596128494946e-06
300.0,305.0,6.626390401207728e-06,1.0114877726395589e-07,0.0024938441608067,2.6567728287613393e-06,0.0024601342378631,2.4794752368332662e-06
305.0,310.0,8.147135206142869e-06,1.1271135143224753e-07,0.003188061115539,3.0271945735571703e-06,0.0031554070923509,2.8260455141242668e-06
310.0,315.0,9.592654031230387e-06,1.2284995236497554e-07,0.0038554289801151,3.357781494944884e-06,0.0038286193274127,3.1347706560859983e-06
315.0,320.0,1.1956033819493884e-05,1.3814619072322108e-07,0.0045180011943475,3.663668516411614e-06,0.0044871386831143,3.417632959859054e-06
320.0,325.0,1.3324297672413775e-05,1.4624931329899426e-07,0.0051602043911592,3.94680982804386e-06,0.0051284068026417,3.679035925744168e-06
325.0,330.0,1.5248721076842224e-05,1.574622517955311e-07,0.0057996793736247,4.216484644460487e-06,0.0057788873489368,3.932831955120197e-06
330.0,335.0,1.801008381745617e-05,1.7208604616335274e-07,0.0064614641776943,4.487546901814122e-06,0.0064250390988431,4.176055181247743e-06
335.0,340.0,1.999135846514807e-05,1.821150669063417e-07,0.0070976783950657,4.740644341773294e-06,0.0070962468985514,4.421107802493236e-06
340.0,345.0,2.2894370360511144e-05,1.962529179085293e-07,0.007767482474477,5.000968712552246e-06,0.0077642666918921,4.6589341161106565e-06
345.0,350.0,2.556390007420108e-05,2.0868937341063186e-07,0.0084430004381025,5.2569789429150386e-06,0.0084403731125634,4.895633736024212e-06
350.0,355.0,2.850325033612096e-05,2.2154207789113266e-07,0.0091045322486089,5.509027195783716e-06,0.0091112232480548,5.127060915164772e-06
355.0,360.0,3.1208845235281746e-05,2.332515447437606e-07,0.0097352879316806,5.753511787385857e-06,0.0097340978678247,5.347697492277533e-06
360.0,365.0,3.43972346747414e-05,2.46763741833961e-07,0.0103152354557549,5.98520014337353e-06,0.0103174702700061,5.562267386400137e-06
365.0,370.0,3.854768296856896e-05,2.634518034615118e-07,0.0109042904681275,6.221671864215672e-06,0.0109126414026153,5.778562328603875e-06
370.0,375.0,4.169322211725647e-05,2.757357839558409e-07,0.0115146419622376,6.465687122192248e-06,0.0115578177127241,6.0087841047961075e-06
375.0,380.0,4.6203441269698615e-05,2.921396126964708e-07,0.012194261561199,6.728719844755625e-06,0.0122164616415994,6.242729070116015e-06
380.0,385.0,5.059089953440715e-05,3.08117976112138e-07,0.0128722434312174,6.993414090594258e-06,0.0129274573181161,6.489184190487815e-06
385.0,390.0,5.560495122103069e-05,3.256109201435596e-07,0.0136222827964178,7.275268533894939e-06,0.013682228438463,6.748033481126814e-06
390.0,395.0,6.017527933683062e-05,3.411355482654197e-07,0.0144411406249445,7.577321703757243e-06,0.0145012957597805,7.023328647957969e-06
395.0,400.0,6.662229438434065e-05,3.622257814333653e-07,0.0153377292962606,7.900501937825886e-06,0.0154081540327935,7.317707725320016e-06
400.0,405.0,7.312225393306264e-05,3.821702446281431e-07,0.0162867548722486,8.239278259791235e-06,0.0164045012058421,7.63545386994498e-06
405.0,410.0,8.174043592743701e-05,4.072593269207313e-07,0.0173478035390531,8.601853395007718e-06,0.0175026132857309,7.975667363294852e-06
410.0,415.0,9.03127298483978e-05,4.317776499041278e-07,0.0185552230731459,9.005456293246135e-06,0.018716001283605,8.339632570002878e-06
415.0,420.0,9.952746513529272e-05,4.569465836922676e-07,0.0198687211423625,9.429508320207684e-06,0.0200467780439686,8.729712676490361e-06
420.0,425.0,0.0001110489158368,4.871848794102902e-07,0.0213597049473226,9.897923760549144e-06,0.0215898946276393,9.166132259718927e-06
425.0,430.0,0.0001252440949608,5.214217328717226e-07,0.0230641832384911,1.0412845791810129e-05,0.0233235133306721,9.637626882993243e-06
430.0,435.0,0.0001395938989241,5.556757949455067e-07,0.0250017266993655,1.0977154078589238e-05,0.0253127232378449,1.0158727766713878e-05
435.0,440.0,0.0001579490105142,5.960754311618843e-07,0.0272778215055866,1.1613346876302723e-05,0.0276475835669719,1.0742812438680372e-05
440.0,445.0,0.0001775849416093,6.381391878943204e-07,0.0299162795578345,1.2322416824554e-05,0.0303533587704718,1.1394291865206004e-05
445.0,450.0,0.0002035596127545,6.89112839529942e-07,0.0330345736770758,1.311978842128636e-05,0.0335938533571279,1.2132213325198892e-05
450.0,455.0,0.0002359301025678,7.487883089227371e-07,0.0368512000421049,1.404530311195987e-05,0.0375378138117726,1.2985770278865452e-05
455.0,460.0,0.0002760981020351,8.18284098870043e-07,0.0415366890207959,1.511931448647613e-05,0.0423253736356229,1.3963030301375151e-05
460.0,465.0,0.000302456293459,8.58789846585503e-07,0.0461513422435717,1.6074272979310223e-05,0.0471446263974597,1.4868811167554885e-05
465.0,470.0,0.0002897859517605,8.340966732074105e-07,0.044430662326922,1.5658811774524603e-05,0.0454148701502988,1.4513923675884597e-05
470.0,475.0,0.0002743602895721,8.140007858251362e-07,0.0407357794494274,1.5093900156201896e-05,0.0416833502695874,1.3984967521747802e-05
475.0,480.0,0.0002583346959084,8.053252012219192e-07,0.0358250268227095,1.454681256783912e-05,0.0367136980974613,1.3424005476787923e-05
480.0,485.0,0.0002292375789288,7.809689429210856e-07,0.0280805307118216,1.3443495569541444e-05,0.0288631869892553,1.233640345127191e-05
485.0,490.0,0.000142693203332,6.338403696861516e-07,0.0128904978375532,9.627647474794792e-06,0.0132821198856508,8.721891244604278e-06
490.0,495.0,2.3764961489073676e-05,2.638848522171671e-07,0.0003780566185348,1.8916735247107184e-06,0.0003627929378171,1.5062939099430436e-06
495.0,500.0,0.0,0.0,0.0,0.0,0.0,0.0
500.0,505.0,0.0,0.0,0.0,0.0,0.0,0.0
505.0,510.0,0.0,0.0,0.0,0.0,0.0,0.0
510.0,515.0,0.0,0.0,0.0,0.0,0.0,0.0
