# xl,xh,FSR,dFSR,FULL,dFULL,ISR,dISR
0.0,5.0,6.64366381650061e-05,3.708317435954229e-07,0.0130762082780908,7.623385471824746e-06,0.0132397521022485,7.087432409546003e-06
5.0,10.0,6.634610332351805e-05,3.709955837235791e-07,0.0130520981411927,7.617317081442548e-06,0.0132342226925317,7.085508341278122e-06
10.0,15.0,6.716359678198376e-05,3.7363701060489234e-07,0.0130652467776795,7.6216934796639484e-06,0.0132272114469115,7.083882952222268e-06
15.0,20.0,6.673453419386819e-05,3.7252824027102866e-07,0.0130754777226813,7.62660737885635e-06,0.013226503112558,7.085793586944411e-06
20.0,25.0,6.640082988553203e-05,3.717793335569911e-07,0.0130656133563346,7.6258725944060596e-06,0.0132329817998904,7.0886856326325405e-06
25.0,30.0,6.634543922817543e-05,3.71587770576495e-07,0.013071773409154,7.6293352987817876e-06,0.013252841819818,7.0955016925733675e-06
30.0,35.0,6.635731331508356e-05,3.7205808004350666e-07,0.0130842522561053,7.634778705757831e-06,0.0132368769280845,7.092888627725537e-06
35.0,40.0,6.692450522603643e-05,3.735599185629422e-07,0.0130957946780854,7.64172757824397e-06,0.0132444639961727,7.09791854116216e-06
40.0,45.0,6.693770029192593e-05,3.737411855300761e-07,0.0130777606796434,7.641339973117423e-06,0.0132637047550292,7.106318719450038e-06
45.0,50.0,6.737400066626593e-05,3.757120895574424e-07,0.0130808121713223,7.64510905280583e-06,0.0132556056595676,7.106977035714598e-06
50.0,55.0,6.645062553340874e-05,3.7281245024424466e-07,0.013098264818861,7.654973184019698e-06,0.0132601249333237,7.111900234579052e-06
55.0,60.0,6.79925999034741e-05,3.78146408934333e-07,0.0130819447217363,7.65447431818291e-06,0.0132747006342818,7.1193129103491785e-06
60.0,65.0,6.656230788602001e-05,3.745760183350319e-07,0.0131121309737845,7.669725018357034e-06,0.0132573290358694,7.118384675566561e-06
65.0,70.0,6.7546298376587e-05,3.778088434578675e-07,0.0131065150920144,7.67240501773901e-06,0.0132826076352284,7.1292221857067446e-06
70.0,75.0,6.692007183837486e-05,3.7635375043028586e-07,0.0131133988894319,7.680963029174737e-06,0.0132819031655061,7.134569312732893e-06
75.0,80.0,6.823427817768762e-05,3.807975096481912e-07,0.0131003930941311,7.680611971597666e-06,0.0132818042935926,7.1395390234481454e-06
80.0,85.0,6.75086370893575e-05,3.793353845312736e-07,0.0131096987877503,7.693101986499113e-06,0.0132765069921586,7.144112632446229e-06
85.0,90.0,6.78747857637456e-05,3.808096887633494e-07,0.0131160455097099,7.70187968812167e-06,0.0132896211594302,7.153169026894562e-06
90.0,95.0,6.756979079300393e-05,3.805769275967387e-07,0.0131114604131729,7.708924754832729e-06,0.0132841292658589,7.157487741457156e-06
95.0,100.0,6.73738983502058e-05,3.808398062054237e-07,0.0131382816916499,7.727838083986281e-06,0.0132876120521444,7.165444443821712e-06
100.0,105.0,6.778404007090998e-05,3.827629346280315e-07,0.0131289830905076,7.733279562200784e-06,0.0132991662832044,7.175420789378913e-06
105.0,110.0,6.815195212078928e-05,3.847531063682623e-07,0.0131014002537209,7.734360529752998e-06,0.013278526443342,7.178087108072409e-06
110.0,115.0,6.813936255859281e-05,3.855366171956582e-07,0.0130757516529039,7.738789055379286e-06,0.0132583758197719,7.1837043553289895e-06
115.0,120.0,6.856313231121954e-05,3.875009506950776e-07,0.0130276320340419,7.74296977882158e-06,0.0131797480206514,7.1760861749206365e-06
120.0,125.0,6.90713004643702e-05,3.898176330437918e-07,0.0129508914858692,7.735140842580049e-06,0.0131136855588206,7.173028557946073e-06
125.0,130.0,6.850490916726856e-05,3.891065563626301e-07,0.0128893846552557,7.737601719562208e-06,0.0130537223157599,7.172091099074835e-06
130.0,135.0,6.876995828369246e-05,3.909572129801008e-07,0.0128146295789531,7.733897915596294e-06,0.012987879096328,7.169984318244322e-06
135.0,140.0,6.826959314526067e-05,3.905237349040958e-07,0.0127711745293756,7.74098354726303e-06,0.0129096403445766,7.1635246916316435e-06
140.0,145.0,6.85706867298209e-05,3.920335584670998e-07,0.0126857957665014,7.731255024811938e-06,0.012841524410709,7.161389992892805e-06
145.0,150.0,6.91065786245228e-05,3.946837004229981e-07,0.0126149957931644,7.731864528033388e-06,0.0127896527214641,7.163427180369404e-06
150.0,155.0,6.84436746970797e-05,3.9353954228303907e-07,0.0125403059608064,7.728661167175284e-06,0.0127170133608255,7.159126674354383e-06
155.0,160.0,6.881571243240684e-05,3.958709680771526e-07,0.0124666831480996,7.724882881822236e-06,0.0126377865011558,7.152656452267834e-06
160.0,165.0,6.968604411513862e-05,3.993454238439381e-07,0.0123900872439416,7.722205502319998e-06,0.0125505125338965,7.144418599917299e-06
165.0,170.0,6.863611383651384e-05,3.9731946539561323e-07,0.012307572046161,7.716486765150736e-06,0.0124740941642134,7.138390143168344e-06
170.0,175.0,6.877532928768783e-05,3.9885155135533674e-07,0.0122489325396194,7.71799959121706e-06,0.0124148911052535,7.137511750784519e-06
175.0,180.0,6.891216743220674e-05,4.002980787529186e-07,0.0121694910757421,7.707457353143271e-06,0.0123252922431636,7.128481527977556e-06
180.0,185.0,6.8486079118325e-05,4.002138057442303e-07,0.0120791291152877,7.700719855267896e-06,0.0122523329554581,7.123187457112192e-06
185.0,190.0,6.918425473176847e-05,4.035090307975552e-07,0.0119959584343837,7.693834965775937e-06,0.0121583589627926,7.108981170077245e-06
190.0,195.0,6.753208623191129e-05,3.9902586240133476e-07,0.0119108564507326,7.683205104316988e-06,0.0120782293128438,7.102320390479649e-06
195.0,200.0,6.838245928336009e-05,4.0312588718166987e-07,0.0118178240394133,7.671357098827411e-06,0.0119701862425686,7.0827457824899105e-06
200.0,205.0,6.797398052867966e-05,4.02141075230491e-07,0.0117126626347319,7.6535147900339e-06,0.0118714019936879,7.068361068277278e-06
205.0,210.0,6.738945436724422e-05,4.017176958995392e-07,0.0116191340599585,7.641919245238777e-06,0.0117568177471115,7.048226851150201e-06
210.0,215.0,6.754103608578915e-05,4.033790398246319e-07,0.0114978157161152,7.615899499453588e-06,0.0116482303422682,7.028689329251078e-06
215.0,220.0,6.674175909078099e-05,4.0154223908091547e-07,0.0113589899415673,7.587576275876464e-06,0.0115034608205271,6.99676470541377e-06
220.0,225.0,6.5933559319536e-05,3.998603448790075e-07,0.0112174477450409,7.557975935586738e-06,0.0113540281533226,6.964725473231824e-06
225.0,230.0,6.59382548189842e-05,4.01247623276234e-07,0.0110366858369634,7.518750248912221e-06,0.0111523602075078,6.9185755289108834e-06
230.0,235.0,6.458425666912224e-05,3.976847627714325e-07,0.0107197766617726,7.4406425559217555e-06,0.0108510615754817,6.852755300514091e-06
235.0,240.0,6.286325143977895e-05,3.929441544008247e-07,0.0103664043101593,7.357934732798176e-06,0.01049995465513,6.772508127280553e-06
240.0,245.0,6.208108718512027e-05,3.913707118068031e-07,0.0099722240818072,7.257664482452083e-06,0.0101144175097798,6.680320484439088e-06
245.0,250.0,6.010075358929539e-05,3.859633289626176e-07,0.0095632457774018,7.1441607991363e-06,0.0096860809614491,6.5705286701007606e-06
250.0,255.0,5.928823396984936e-05,3.837970085407071e-07,0.0091181682149558,7.0185149871894e-06,0.0092257949215054,6.443812331663088e-06
255.0,260.0,5.629302230158493e-05,3.7412769378733044e-07,0.0086301478466626,6.8611347685463695e-06,0.0087320275261624,6.299748662337097e-06
260.0,265.0,5.353896018310524e-05,3.653776744397586e-07,0.0080814783491882,6.6735906958637845e-06,0.0081861523529654,6.1257346056821255e-06
265.0,270.0,4.9664598929478045e-05,3.512729857928093e-07,0.0074928408952972,6.4551418098216175e-06,0.0075879789538336,5.922558825552829e-06
270.0,275.0,4.745557467489437e-05,3.437234699079481e-07,0.0069587691863781,6.261234089091636e-06,0.0070519044802142,5.744332263161542e-06
275.0,280.0,4.626384554038554e-05,3.41778235167215e-07,0.0065878631238,6.171794740886125e-06,0.0066893313854155,5.658711126508615e-06
280.0,285.0,4.5856899258138104e-05,3.43504817506932e-07,0.0062025372231976,6.0717954995106515e-06,0.006300352058868,5.561156175716015e-06
285.0,290.0,4.381904481634979e-05,3.3856225690456354e-07,0.0057542625634613,5.940144168122438e-06,0.0058412114638974,5.426910174516045e-06
290.0,295.0,4.190489514963296e-05,3.343079593496624e-07,0.0052117832979754,5.745950860624695e-06,0.0052986076827002,5.243974766325275e-06
295.0,300.0,3.8760213200884005e-05,3.251368398515031e-07,0.0045671253678673,5.476263443569051e-06,0.0046528850286023,4.992630709150707e-06
300.0,305.0,3.3716015273533374e-05,3.0729432673440977e-07,0.0037521577133993,5.066440593986349e-06,0.0038259574636515,4.605822059783991e-06
305.0,310.0,2.5953312588994183e-05,2.73120371570871e-07,0.0026578700358621,4.3634285539522625e-06,0.0027165279893663,3.9558357237727875e-06
310.0,315.0,1.2811228769781098e-05,1.945453808421932e-07,0.0010576414810104,2.833444112250061e-06,0.0010823604807958,2.5468041634280132e-06
315.0,320.0,7.618490209800025e-07,4.7857201208722766e-08,1.0358781620430027e-05,3.221129632606317e-07,1.0086256708993057e-05,2.552970585291474e-07
320.0,325.0,0.0,0.0,0.0,0.0,0.0,0.0
325.0,330.0,0.0,0.0,0.0,0.0,0.0,0.0
330.0,335.0,0.0,0.0,0.0,0.0,0.0,0.0
335.0,340.0,0.0,0.0,0.0,0.0,0.0,0.0
340.0,345.0,0.0,0.0,0.0,0.0,0.0,0.0
345.0,350.0,0.0,0.0,0.0,0.0,0.0,0.0
350.0,355.0,0.0,0.0,0.0,0.0,0.0,0.0
355.0,360.0,0.0,0.0,0.0,0.0,0.0,0.0
360.0,365.0,0.0,0.0,0.0,0.0,0.0,0.0
365.0,370.0,0.0,0.0,0.0,0.0,0.0,0.0
370.0,375.0,0.0,0.0,0.0,0.0,0.0,0.0
