# xl,xh,FSR,dFSR,FULL,dFULL,ISR,dISR
50.0,51.0,0.0002050903798853,1.601120185468227e-06,0.0324496058483139,2.80007770926179e-05,0.0336306615273618,2.7023753303124257e-05
51.0,52.0,0.0002007610671452,1.5754983572325303e-06,0.032430510876472,2.785825620520196e-05,0.033576271367461,2.686158074393605e-05
52.0,53.0,0.0001980614182122,1.5558622552380942e-06,0.0323249683500672,2.768167300132811e-05,0.0334946682458248,2.670493136379001e-05
53.0,54.0,0.0001944585545161,1.5383185638038362e-06,0.0324119807492991,2.760331960166305e-05,0.033582905561732,2.6631606195673732e-05
54.0,55.0,0.0002048705194184,1.5822536471060697e-06,0.0332528719742047,2.7999330682018576e-05,0.0344021714063098,2.6985104789005303e-05
55.0,56.0,0.000217150211642,1.6350524137797596e-06,0.0351046229729842,2.9003198774959823e-05,0.0364128633411866,2.797394582771206e-05
56.0,57.0,0.0002301853512496,1.688902474996936e-06,0.0366487227784865,2.9760117721737807e-05,0.0380451605822289,2.869829112340494e-05
57.0,58.0,0.0002390571532057,1.7208322495821275e-06,0.0379830562556216,3.0356339896829085e-05,0.0394347797661233,2.926579779084577e-05
58.0,59.0,0.0002481617238378,1.7514446804539084e-06,0.0391825189934734,3.08654950911511e-05,0.0406234466536514,2.9702718086867788e-05
59.0,60.0,0.0002488087581374,1.7498808999287223e-06,0.0402295137004381,3.125079166103901e-05,0.0416862301352448,3.0059961895162156e-05
60.0,61.0,0.0002553382870166,1.7664457091556707e-06,0.0410568803972174,3.1541329161360944e-05,0.0425068411188071,3.0298935121683935e-05
61.0,62.0,0.0002567239831293,1.7662535990081464e-06,0.0418534842417965,3.17882715820818e-05,0.0433341998809825,3.051880212149034e-05
62.0,63.0,0.000257252166234,1.7598904612229055e-06,0.0425777139227805,3.198950946476539e-05,0.044070005531261,3.069470006440849e-05
63.0,64.0,0.0002614794849992,1.7677091686082273e-06,0.0431984243542252,3.215021836153264e-05,0.0446282535528488,3.079448226474248e-05
64.0,65.0,0.0002618032016822,1.7644572686266244e-06,0.0437238517624996,3.2253067744101376e-05,0.0452147286852135,3.089907495209728e-05
65.0,66.0,0.0002615245375274,1.756840251764313e-06,0.0442445391136699,3.23688491991438e-05,0.0457221623361539,3.0974005472603767e-05
66.0,67.0,0.0002612034690246,1.7451082596935311e-06,0.0447298482644766,3.245481532683966e-05,0.0461646937092212,3.101486469087625e-05
67.0,68.0,0.0002651349570539,1.7539493980395504e-06,0.0451358788965928,3.2521030027243715e-05,0.046539850185486,3.104332188973365e-05
68.0,69.0,0.0002580342560639,1.7207914686490471e-06,0.045451238032374,3.2549531319605374e-05,0.0468208588776555,3.104363770733664e-05
69.0,70.0,0.0002617689771518,1.726916918367638e-06,0.0456390655279117,3.2569660590936335e-05,0.047045776419854,3.103684549115688e-05
70.0,71.0,0.0002614036382691,1.7209502414570108e-06,0.0458313757493724,3.2583913666677366e-05,0.0471792046183201,3.10044816921812e-05
71.0,72.0,0.0002629982820347,1.7195946606190656e-06,0.0459674361768201,3.2565886441847535e-05,0.0472439734738873,3.095208357655363e-05
72.0,73.0,0.0002555435840314,1.6904275300150296e-06,0.0461227772977954,3.255669785432333e-05,0.0473193539694003,3.090144045900036e-05
73.0,74.0,0.0002560295235273,1.685875788080318e-06,0.0462854974532713,3.2575895068255704e-05,0.0474334457515601,3.086545166548077e-05
74.0,75.0,0.0002541826042809,1.674333412941581e-06,0.0462719558317771,3.251681374919181e-05,0.0475303204922689,3.0830388024697654e-05
75.0,76.0,0.000253230885187,1.6678537145239582e-06,0.0463669935767544,3.251170329849718e-05,0.047523090525918,3.0762518110055436e-05
76.0,77.0,0.0002519536909688,1.657866017812036e-06,0.0464491340824931,3.2502445793182806e-05,0.0475992354118976,3.072488152331562e-05
77.0,78.0,0.000250987709111,1.6503484116289496e-06,0.046517705090408,3.248180455454971e-05,0.0475906374274019,3.0663710113204635e-05
78.0,79.0,0.0002504249358707,1.6421187865762156e-06,0.0465180693347113,3.2443278431072436e-05,0.0476110086147323,3.0613164537754576e-05
79.0,80.0,0.0002490532726364,1.6364684317324915e-06,0.0465638526438167,3.242859716996721e-05,0.047588528691942,3.055105527189777e-05
80.0,81.0,0.0002508216068899,1.6384571134392724e-06,0.0465908309341295,3.241193294411117e-05,0.047615266225065,3.0512622430990215e-05
81.0,82.0,0.0002469338740456,1.6215310413722186e-06,0.0466456087356159,3.241582629559619e-05,0.0476754238204581,3.0489630925813217e-05
82.0,83.0,0.0002485624088317,1.6225583568810907e-06,0.0466806946885234,3.2417291577989236e-05,0.0476168272608407,3.0432344121239617e-05
83.0,84.0,0.0002479263169254,1.6198789534754956e-06,0.046762470721956,3.2432296098175794e-05,0.0476836447117677,3.042016224680141e-05
84.0,85.0,0.000250143684449,1.625759938841079e-06,0.0468007441685016,3.244426610784509e-05,0.0476256107242347,3.036930865240551e-05
85.0,86.0,0.0002428785648704,1.6010972968712729e-06,0.0468871990760342,3.247721100011723e-05,0.047617933592603,3.0343914910243605e-05
86.0,87.0,0.0002444665062089,1.604538490202994e-06,0.0468389142492321,3.2468696250886895e-05,0.0476578304394694,3.0338309571772778e-05
87.0,88.0,0.0002477613297607,1.6144987897700308e-06,0.0469171762811632,3.251009683160404e-05,0.0476212348591143,3.0310471951037115e-05
88.0,89.0,0.0002448696453353,1.6033818744775164e-06,0.0469111839986187,3.2528904323963076e-05,0.0476502052704167,3.030801405496684e-05
89.0,90.0,0.0002449763338858,1.6017279502732111e-06,0.0469552781805654,3.2564002111940446e-05,0.0476535014714456,3.030654009229912e-05
90.0,91.0,0.0002441224911036,1.5987885492107794e-06,0.0470037693353271,3.2619251618365555e-05,0.0476604773936404,3.031040283469612e-05
91.0,92.0,0.0002449224940576,1.6036436803199955e-06,0.0469974941462785,3.265233450784001e-05,0.0476088095822792,3.0291972725818637e-05
92.0,93.0,0.0002476776144542,1.61427179641562e-06,0.0470840437197136,3.272755470814163e-05,0.0476705866478617,3.0327009479135145e-05
93.0,94.0,0.0002436708352525,1.6006452344825887e-06,0.0470443663591919,3.276245347907125e-05,0.0476733053731742,3.034239160275585e-05
94.0,95.0,0.0002442090980805,1.6029315877110296e-06,0.0472254117129674,3.288310382782533e-05,0.0476177144783176,3.0342620555538984e-05
95.0,96.0,0.0002437395234279,1.603190642141172e-06,0.0471475389372158,3.2920460236657226e-05,0.0477164090909737,3.0400017588435683e-05
96.0,97.0,0.0002472924595993,1.617708186715804e-06,0.0471840320769591,3.29967919777649e-05,0.0477064320800735,3.042874329012373e-05
97.0,98.0,0.0002467786666446,1.619301529373463e-06,0.0473075221231373,3.311842062927e-05,0.0476425541592413,3.044144043256144e-05
98.0,99.0,0.000247930652036,1.627192062737538e-06,0.0473041107418251,3.319557325541084e-05,0.0476776828102647,3.049064291809505e-05
99.0,100.0,0.0002491755292779,1.632477416666955e-06,0.047332892137182,3.3291275543384784e-05,0.0476521813093494,3.052393576694525e-05
100.0,101.0,0.0002489421580419,1.6333384924937384e-06,0.0473393690106016,3.338016705281511e-05,0.0476525805449701,3.0574438938801026e-05
101.0,102.0,0.0002519179908007,1.650319232828117e-06,0.0473356703948642,3.347544675683801e-05,0.0476161162217306,3.061289955512532e-05
102.0,103.0,0.0002512817133621,1.6515515921628789e-06,0.0473302999827098,3.3578362895003804e-05,0.047558302312851,3.065126718987368e-05
103.0,104.0,0.0002521003624991,1.658038369981865e-06,0.047411112612947,3.371416180774931e-05,0.0475786015158937,3.071576170552948e-05
104.0,105.0,0.0002537402244457,1.6679431123053002e-06,0.0473520323795989,3.3795481246154334e-05,0.0474829145837093,3.074496479404833e-05
105.0,106.0,0.0002570939331178,1.6833211707713916e-06,0.0474233362136309,3.3936139096665726e-05,0.0474485174183264,3.0804404979810346e-05
106.0,107.0,0.0002574071978098,1.6902106639199254e-06,0.0473600627078837,3.403497476802698e-05,0.0474127583674191,3.085938277370007e-05
107.0,108.0,0.0002557436289289,1.69027417108523e-06,0.0473825829289124,3.417201184796886e-05,0.0473133374877738,3.089609930221866e-05
108.0,109.0,0.0002581617941676,1.7048102391636745e-06,0.0472520718643464,3.423818590908255e-05,0.0472118255048121,3.0939261986097106e-05
109.0,110.0,0.0002596508552949,1.7157646524996345e-06,0.0472172156608178,3.436488866025499e-05,0.0471248421241301,3.098353604962728e-05
110.0,111.0,0.0002573261862823,1.7128973633024115e-06,0.0470803556811142,3.4439585779114905e-05,0.0470239872773093,3.1028921305738685e-05
111.0,112.0,0.0002621810567156,1.736849512019432e-06,0.0469091689516321,3.4514736402525224e-05,0.0467931996335163,3.103098369933677e-05
112.0,113.0,0.0002605757144394,1.7385121093938188e-06,0.0466896756837117,3.458842756374168e-05,0.0465092538731639,3.1028101977825424e-05
113.0,114.0,0.000261061653782,1.7462026728000343e-06,0.0462982020623085,3.459369766878867e-05,0.0461205998332044,3.099741846684299e-05
114.0,115.0,0.0002600549707695,1.7489935088821152e-06,0.0459139357083545,3.4622134940175294e-05,0.0456608621900304,3.094390060493948e-05
115.0,116.0,0.0002648736811277,1.7725276366779722e-06,0.0454517669933738,3.4610254482938786e-05,0.0451636869866415,3.088153500281032e-05
116.0,117.0,0.0002637368806901,1.776262600566247e-06,0.0449095165364231,3.456107335449558e-05,0.0446770553052014,3.08059703782447e-05
117.0,118.0,0.0002571112108105,1.7603973212053295e-06,0.0443401894836399,3.449096007936727e-05,0.0440092267917085,3.0669231575023135e-05
118.0,119.0,0.0002551418834702,1.7616473559521785e-06,0.043710535701009,3.438736981091568e-05,0.0433128631407092,3.051312681628312e-05
119.0,120.0,0.000256056653757,1.768223019906412e-06,0.0429545339760948,3.422205895597551e-05,0.0424927703973889,3.0283788011104727e-05
120.0,121.0,0.0002515542989553,1.75683533858937e-06,0.0420867865068964,3.3971306105299634e-05,0.0416932139096533,3.0063792039894293e-05
121.0,122.0,0.0002461190472747,1.74763090982683e-06,0.0411196161974066,3.36663478858955e-05,0.0406175279153214,2.969995352505933e-05
122.0,123.0,0.0002439098505205,1.7395304294280572e-06,0.0399704560981678,3.323642836754976e-05,0.0394431272314852,2.9272674889041293e-05
123.0,124.0,0.0002316318384833,1.6933347823761683e-06,0.0385521237412479,3.261383175950334e-05,0.0380426525610582,2.870201692406491e-05
124.0,125.0,0.0002170818954182,1.6363898844688112e-06,0.0369176014803969,3.180492943369872e-05,0.0363492306027896,2.795036163885239e-05
125.0,126.0,0.0002059463937206,1.58549891005987e-06,0.0349605329990688,3.072010511511827e-05,0.0343693347116938,2.696883549386003e-05
126.0,127.0,0.0001939163431467,1.5344178110063428e-06,0.0340287678911068,3.024459112570819e-05,0.0335466278546878,2.6609788702423255e-05
127.0,128.0,0.0001962378510697,1.5485493773165512e-06,0.0340422534030382,3.043883851769607e-05,0.0335287393279852,2.6720716352959856e-05
128.0,129.0,0.0002042479093215,1.5908588014677928e-06,0.0341136152961471,3.0684732263304246e-05,0.0335896461126819,2.6868492552453245e-05
129.0,130.0,0.0002040309846061,1.593559731576483e-06,0.034241441294329,3.09636286050685e-05,0.0336582085394292,2.7029119422493675e-05
