# xl,xh,FSR,dFSR,FULL,dFULL,ISR,dISR
50.0,51.0,2.9715945499988023e-08,1.148875213004691e-08,8.454773360688307e-05,1.5634628610976108e-06,8.71780308722619e-05,1.5388680549245885e-06
51.0,52.0,2.240417423930774e-06,1.626908149308995e-07,0.0005240888684037,4.0691437131187635e-06,0.0005027049102416,3.735627350555561e-06
52.0,53.0,4.991591114297724e-05,8.536159184516787e-07,0.0052567180038092,1.4472553318412667e-05,0.0049562577656557,1.2138231145370212e-05
53.0,54.0,0.0001191152833835,1.3165806005051228e-06,0.0130528976410068,2.2541704772181475e-05,0.0126139349278799,1.919739250035086e-05
54.0,55.0,0.000164758899872,1.5348906877383342e-06,0.0189414900752485,2.6719349503782103e-05,0.0183721929324978,2.28647390662724e-05
55.0,56.0,0.0001929167005072,1.6451545307769951e-06,0.0234518603617738,2.9254728918885376e-05,0.0229027969002071,2.519991189291679e-05
56.0,57.0,0.0002231786321294,1.754012265412334e-06,0.0272385715714587,3.104396821193405e-05,0.0266816871548616,2.6868399983799467e-05
57.0,58.0,0.0002363600834123,1.7883049582533254e-06,0.0304664791206303,3.23716614723549e-05,0.0298044728230905,2.804931916312912e-05
58.0,59.0,0.0002502386958685,1.8221222938484775e-06,0.0331604277009292,3.329241572368781e-05,0.0325943772372681,2.900308070078814e-05
59.0,60.0,0.0002610046847007,1.8460355856394612e-06,0.0355380398260203,3.4007031866735916e-05,0.0349398513013252,2.969996473634396e-05
60.0,61.0,0.000268729388235,1.857433469551392e-06,0.0376774036065134,3.4572099125806617e-05,0.0370882429670715,3.0272103368891233e-05
61.0,62.0,0.000272993644946,1.8598378534027368e-06,0.0396426334756768,3.5015879214732285e-05,0.0390443538486319,3.074454824618914e-05
62.0,63.0,0.0002724617029301,1.8420264875624737e-06,0.0412684616810494,3.530154421765868e-05,0.0408005312179986,3.111182480553171e-05
63.0,64.0,0.0002797072386641,1.8529681489267993e-06,0.0429184368492333,3.557552350171794e-05,0.0423672717094915,3.139829637969452e-05
64.0,65.0,0.0002839465322592,1.8563700882777832e-06,0.0442949895354631,3.572390257947534e-05,0.0438285808818501,3.1642964505034745e-05
65.0,66.0,0.0002805072046355,1.83205911063213e-06,0.0456763342763559,3.589103022042703e-05,0.0452192771596857,3.1847097731040236e-05
66.0,67.0,0.0002788147986457,1.8121373007090352e-06,0.0469265646880281,3.597910763445304e-05,0.0464732862540631,3.2000935394676346e-05
67.0,68.0,0.0002859276845,1.8255481466843832e-06,0.048101865503058,3.604394854479477e-05,0.0477113394550643,3.214397830134128e-05
68.0,69.0,0.0002813581124522,1.7970326736547255e-06,0.0491865866669759,3.607687333318988e-05,0.0487902398996892,3.223234750157135e-05
69.0,70.0,0.0002847376693521,1.8010172388250387e-06,0.0501782931527593,3.607858101493745e-05,0.0498183999490869,3.2306864912098314e-05
70.0,71.0,0.0002818912018847,1.7808210824029435e-06,0.0511309283500757,3.607117312252116e-05,0.0508149968898301,3.236972989387319e-05
71.0,72.0,0.0002814631667831,1.7694160768080311e-06,0.0520936039149213,3.606076427323316e-05,0.0518631967195414,3.2455280626086185e-05
72.0,73.0,0.0002808737781392,1.7577935932869172e-06,0.052916408902342,3.6017723473679434e-05,0.0527589324172984,3.248739830523926e-05
73.0,74.0,0.0002815797296183,1.7494473553229011e-06,0.0538278608524439,3.60101883000187e-05,0.0536464951692452,3.2527950233232264e-05
74.0,75.0,0.0002793784409248,1.7349894400075923e-06,0.0546176165982447,3.596157348487459e-05,0.0545238350934331,3.2563977447447796e-05
75.0,76.0,0.000282078017627,1.73727701979689e-06,0.05547520369324,3.59407369356082e-05,0.0554306008283834,3.261266076528692e-05
76.0,77.0,0.000277755903618,1.7152233364535934e-06,0.0562342029315697,3.589627128613377e-05,0.0562222815161681,3.263187971737501e-05
77.0,78.0,0.0002804104006458,1.7165028817028632e-06,0.0569670994507664,3.584919466018565e-05,0.0570770696566002,3.2675837498003756e-05
78.0,79.0,0.0002770984804876,1.6992781656499096e-06,0.0576853276882151,3.579782436551564e-05,0.0578742419507317,3.270714949624682e-05
79.0,80.0,0.0002781189861573,1.698963392045428e-06,0.0584528944244756,3.5784746315928126e-05,0.0586414512301162,3.273403770286212e-05
80.0,81.0,0.0002793377963431,1.6951389527749783e-06,0.0590391747070054,3.5724134841876094e-05,0.0593279812012078,3.27584243077297e-05
81.0,82.0,0.0002745067615984,1.6762073349597856e-06,0.0593568907576573,3.5626664082088454e-05,0.0596387884979265,3.271622323138981e-05
82.0,83.0,0.0002728334168256,1.6683429933077768e-06,0.0592093388147551,3.547089532235703e-05,0.0596341265236919,3.2642581620720746e-05
83.0,84.0,0.0002722996201365,1.6635631832929474e-06,0.0590404109986245,3.5294216233344725e-05,0.0594385602813169,3.252419531137501e-05
84.0,85.0,0.0002697564607038,1.6539563122726536e-06,0.0590073050001216,3.519061524826028e-05,0.059417792004763,3.246602937656798e-05
85.0,86.0,0.0002701441878047,1.6537896846506736e-06,0.058871564981521,3.505033301107966e-05,0.059403195278938,3.2413324289529294e-05
86.0,87.0,0.0002671251277739,1.6398274661006775e-06,0.0587032373396204,3.491560986414466e-05,0.0593614778310707,3.236834451763758e-05
87.0,88.0,0.0002712120188091,1.6517261946663334e-06,0.0586629920991462,3.4831260425005405e-05,0.0593721134636496,3.2344337127737396e-05
88.0,89.0,0.0002698492439613,1.6481706619848032e-06,0.0586451226764732,3.476441787471612e-05,0.0592743176171535,3.229232132841964e-05
89.0,90.0,0.000268246728839,1.6407104470342715e-06,0.0585740708230319,3.4699138097686614e-05,0.0593049448633181,3.2296240332988344e-05
90.0,91.0,0.000269436095391,1.6478699742376864e-06,0.0585088392382541,3.464534134413501e-05,0.0592501242162806,3.227855951676473e-05
91.0,92.0,0.0002672092629129,1.6392080663285168e-06,0.0584129801324691,3.4584287162319287e-05,0.0592261883467015,3.228258147325161e-05
92.0,93.0,0.0002694464776209,1.648629177663022e-06,0.0584691962088497,3.4589284546458685e-05,0.0593450445983315,3.233587278811167e-05
93.0,94.0,0.0002681365958784,1.643705444138629e-06,0.0584032830180447,3.4557778427956786e-05,0.0593411302333019,3.23575134344737e-05
94.0,95.0,0.0002704074295023,1.6530848527981812e-06,0.0584131848971288,3.457541429492226e-05,0.0593420530955567,3.2394738711901614e-05
95.0,96.0,0.0002721624953916,1.6606502163646914e-06,0.0584347764794041,3.4593677640271694e-05,0.0594640347507729,3.247586446155105e-05
96.0,97.0,0.0002698425551521,1.6566847896054932e-06,0.058387578413475,3.4599587428204934e-05,0.0594994236885574,3.2540145583865584e-05
97.0,98.0,0.0002755074272875,1.6764490005326912e-06,0.0583667865742638,3.462925780321367e-05,0.0595444695596781,3.261554957038681e-05
98.0,99.0,0.0002730175433527,1.6718274623885744e-06,0.0583636471401615,3.467410487241549e-05,0.059683627418781,3.2729895255288696e-05
99.0,100.0,0.0002745264469549,1.680127267642215e-06,0.0580569325139291,3.468676836946502e-05,0.0593330071938488,3.2758080896204395e-05
100.0,101.0,0.0002786374280121,1.697858671779831e-06,0.0573020917905021,3.460726142900551e-05,0.0586574418723879,3.27444020952799e-05
101.0,102.0,0.0002811209385617,1.7133853801783588e-06,0.0564979489797813,3.4537395754390344e-05,0.0578331053424673,3.269673335114097e-05
102.0,103.0,0.000276527333092,1.7051750924033944e-06,0.0557283993601218,3.44748306669225e-05,0.0570713264194665,3.2671170762705706e-05
103.0,104.0,0.0002780667083966,1.717577669654755e-06,0.0548459474889261,3.4392053167590195e-05,0.0561932254818691,3.262468100957458e-05
104.0,105.0,0.0002790358117892,1.726554978031547e-06,0.0539757599539234,3.431842361840511e-05,0.0554207385218403,3.2613180462567484e-05
105.0,106.0,0.000281598443558,1.7417930293827342e-06,0.0531127156168426,3.4253686494562225e-05,0.0545752035248228,3.257926655489625e-05
106.0,107.0,0.0002843942344168,1.7610626772735126e-06,0.0522629488096399,3.419747754450279e-05,0.0537431502337559,3.2560463778249826e-05
107.0,108.0,0.0002809426506506,1.7587640073122451e-06,0.051293112934406,3.4104417214253316e-05,0.0528201957944598,3.251299867818396e-05
108.0,109.0,0.0002798374544301,1.7635417636593653e-06,0.0503205727132314,3.400859740119072e-05,0.0519228235836944,3.247824791448027e-05
109.0,110.0,0.0002825446367226,1.7831075809110512e-06,0.0493698344248299,3.393697866344122e-05,0.0509067505248702,3.240596993045689e-05
110.0,111.0,0.000282760879556,1.7931379476206762e-06,0.0482793727417078,3.379666756930048e-05,0.0498894008450303,3.233019836874697e-05
111.0,112.0,0.0002866202582069,1.8162034865480225e-06,0.0472590260478874,3.370460384442769e-05,0.048810393918229,3.224119750445548e-05
112.0,113.0,0.0002837969801708,1.8204953286600824e-06,0.0460866438320872,3.3543772503405706e-05,0.0476854613047941,3.21365514038489e-05
113.0,114.0,0.0002832726101057,1.8273169718009083e-06,0.0447969292388388,3.3349569321217166e-05,0.0465739084808589,3.203702208741757e-05
114.0,115.0,0.0002826644241648,1.8392472399621064e-06,0.0435520745189277,3.315224084608603e-05,0.0451841195889672,3.183910578758907e-05
115.0,116.0,0.0002788207984343,1.8365822874587068e-06,0.042206616169878,3.292849771711238e-05,0.0438702687580903,3.1659078495140675e-05
116.0,117.0,0.0002776022017471,1.847374403180325e-06,0.040694689503241,3.261894443282288e-05,0.0424167525987695,3.142089801330707e-05
117.0,118.0,0.0002736469701504,1.8482472914179185e-06,0.0391646459914546,3.229916752667072e-05,0.0407876905574684,3.111573417582351e-05
118.0,119.0,0.0002715249910031,1.852863635698945e-06,0.0374243827035045,3.1888588246382306e-05,0.0390951120910086,3.076570506094508e-05
119.0,120.0,0.0002672608304819,1.8536707989321584e-06,0.0354672919817284,3.134752358734536e-05,0.0370942073280366,3.027374075380704e-05
120.0,121.0,0.0002580680549098,1.8346235509477745e-06,0.0334063424750041,3.074197211527088e-05,0.034964736294363,2.971146672780831e-05
121.0,122.0,0.0002473831469043,1.812395500496068e-06,0.0310272829476868,2.9940397181994472e-05,0.0325353108144633,2.897998093743685e-05
122.0,123.0,0.0002379576651287,1.791950913441176e-06,0.0284098356139866,2.8967913253935483e-05,0.0298456955050175,2.8077728118422308e-05
123.0,124.0,0.0002214026938407,1.7434633172468558e-06,0.025241696490473,2.7619961772606056e-05,0.0266531646474378,2.685256276363025e-05
124.0,125.0,0.0001930951966741,1.647121922719951e-06,0.021684818620887,2.5905584999511323e-05,0.0228707344670892,2.5180691336706913e-05
125.0,126.0,0.0001652931718833,1.536535457558009e-06,0.0173685774299633,2.3453805456872244e-05,0.0183526639824155,2.285789198863509e-05
126.0,127.0,0.0001183182446737,1.3138798395118163e-06,0.0119068394949306,1.963713944544582e-05,0.0126581521673386,1.9231033835491652e-05
127.0,128.0,5.097224019481598e-05,8.631083953839391e-07,0.0046724880422639,1.2270641378959843e-05,0.0049383496487937,1.2115483092027732e-05
128.0,129.0,2.590112817817114e-06,1.7991154141523025e-07,0.0004869977463125,3.620693718072624e-06,0.0004934927835774,3.694698335209633e-06
129.0,130.0,2.0471207124882377e-08,1.0409363250296116e-08,7.91723948435381e-05,1.3785522035196945e-06,8.451289569345539e-05,1.5074750940302885e-06
