# xl,xh,FSR,dFSR,FULL,dFULL,ISR,dISR
0.0,1.0,1.6063538560989306e-06,1.0072305105548393e-07,0.003924521473073,9.234724095338233e-06,0.0041480396805912,9.648758264218318e-06
1.0,2.0,1.1352148468534178e-05,2.7984880930552434e-07,0.0088133189869996,1.415925124752346e-05,0.0091565035394909,1.456747322453335e-05
2.0,3.0,3.050482002710097e-05,4.798835033332853e-07,0.0129031327399843,1.7502875079738116e-05,0.0130106840823836,1.7480586021870494e-05
3.0,4.0,0.0001246583546933,1.206940255146519e-06,0.0204508769166462,2.3151824405901515e-05,0.0193905979454759,2.1682484017670822e-05
4.0,5.0,0.0008414888045357,3.392277149550447e-06,0.0924764165387052,5.488471545537288e-05,0.0899194792768062,4.957158789697524e-05
5.0,6.0,0.002129801777105,5.289159776276946e-06,0.2743655963963172,9.197603540398224e-05,0.2803943805616974,8.462190083165287e-05
6.0,7.0,0.0018939751616318,4.9291374254696515e-06,0.2554829572217107,8.729904680429468e-05,0.2621481675813227,8.056656812989282e-05
7.0,8.0,0.0015706742027424,4.443445583583882e-06,0.2190877577427918,7.98065530650112e-05,0.2243900358440284,7.368910974987972e-05
8.0,9.0,0.0013270228175367,4.046745369126887e-06,0.1914211058796516,7.367937474146465e-05,0.1954277462370729,6.803156030564984e-05
9.0,10.0,0.0011391786474133,3.71371219162942e-06,0.1692079127533104,6.845099163821204e-05,0.1725670245709734,6.321371037146692e-05
10.0,11.0,0.0009834036104213,3.4185809639679967e-06,0.1509778453589629,6.388313558528186e-05,0.1540493274532265,5.9097031749323704e-05
11.0,12.0,0.0008654127139383,3.17782358459186e-06,0.136272328311667,6.000492555520967e-05,0.1385810751665948,5.548292754445449e-05
12.0,13.0,0.000763985715369,2.9614362139041006e-06,0.1236977113996162,5.655573532604364e-05,0.1257298361811907,5.230749836224175e-05
13.0,14.0,0.0006794866170413,2.7673771661669205e-06,0.1130180246891983,5.344805752574101e-05,0.1147234385110366,4.944875435487388e-05
14.0,15.0,0.0006007207090287,2.5806464848493144e-06,0.1038085774193254,5.072009782114764e-05,0.1052597622123826,4.688599498047819e-05
15.0,16.0,0.0005435200077271,2.435333310510806e-06,0.0957931937292389,4.8217423001598656e-05,0.097081835880552,4.459477402095287e-05
16.0,17.0,0.0004918250856672,2.299237590142311e-06,0.0886732325331707,4.5921458966829334e-05,0.0897472702415375,4.245991207256787e-05
17.0,18.0,0.0004403893031281,2.1589913316207443e-06,0.0824006654744677,4.382801572961584e-05,0.0834526097309022,4.054842291221507e-05
18.0,19.0,0.0004013692126754,2.045438373336876e-06,0.0768819333727034,4.189408509980451e-05,0.0777415320701969,3.880801752430028e-05
19.0,20.0,0.0003632428509175,1.931779334081336e-06,0.0718123022135946,4.0139371215992695e-05,0.0727524170734056,3.7182031702536745e-05
20.0,21.0,0.0003344120138256,1.84128410564736e-06,0.0673454201743588,3.851020113836664e-05,0.0680164600272244,3.559944032808444e-05
21.0,22.0,0.00030382511988,1.74183305907678e-06,0.0633969705537772,3.7028706900295006e-05,0.0639659762039679,3.4252335693814546e-05
22.0,23.0,0.0002799760934034,1.6605727427423336e-06,0.0596009949925888,3.557902436127582e-05,0.0601252772992759,3.29343304944688e-05
23.0,24.0,0.0002591743000746,1.5889323279176929e-06,0.0562325847619511,3.4251817174029434e-05,0.0566912739922551,3.169709079549458e-05
24.0,25.0,0.0002387481358757,1.5148620584169622e-06,0.0531096474342325,3.297089808881349e-05,0.0535216192199473,3.0566257714600886e-05
25.0,26.0,0.0002192930011648,1.4418282588177884e-06,0.0502778915188159,3.1807256778180325e-05,0.0506847155032883,2.9527198082572084e-05
26.0,27.0,0.0002040526325567,1.3826991090824777e-06,0.0477019119380884,3.074291146892157e-05,0.0479721025448703,2.8481265326750348e-05
27.0,28.0,0.0001893406843343,1.3232676600153318e-06,0.0452190847187754,2.969479871764075e-05,0.0455596056635844,2.75366414330467e-05
28.0,29.0,0.0001771989474948,1.2742385501207171e-06,0.0430102479269119,2.873170716506522e-05,0.043209847167387,2.6618036969015355e-05
29.0,30.0,0.0001622881392958,1.2118308832206628e-06,0.040835682269091,2.7761830247071377e-05,0.0411320825719936,2.5763341122740166e-05
30.0,31.0,0.0001519573038463,1.1663831473251297e-06,0.0389233526043676,2.688626914918332e-05,0.0391383946588723,2.4972231954593215e-05
31.0,32.0,0.0001403044844498,1.1147103864437583e-06,0.0371093293812689,2.6045152511641823e-05,0.0373078882107108,2.4203861582365303e-05
32.0,33.0,0.0001327209053937,1.078238100350592e-06,0.0353790129133136,2.525017215743534e-05,0.0355666559199706,2.345916081264071e-05
33.0,34.0,0.0001230006794751,1.0340970863143047e-06,0.033781331051873,2.452025265065328e-05,0.0339144972915229,2.274416491302804e-05
34.0,35.0,0.0001133646049545,9.867509926242943e-07,0.0321928489470534,2.376484027486521e-05,0.032402257469543,2.2062862053991423e-05
35.0,36.0,0.0001068315122629,9.537332310419578e-07,0.0308219843836945,2.307099979152764e-05,0.0309335614284374,2.1427577896163123e-05
36.0,37.0,9.91577180960162e-05,9.141180218365558e-07,0.0294655693496169,2.2413700015613692e-05,0.0295653579165753,2.081938102910695e-05
37.0,38.0,9.3684420390084e-05,8.83518341652156e-07,0.0281540510504864,2.1735298607465145e-05,0.0282695853438849,2.0234090573966916e-05
38.0,39.0,8.775427826276434e-05,8.521401580441765e-07,0.0269375563701374,2.114142946694951e-05,0.0270428831174989,1.9659762385158136e-05
39.0,40.0,8.310656112895825e-05,8.25665871371946e-07,0.0257620579866797,2.0539627298328426e-05,0.0258557506913804,1.908824074602426e-05
40.0,41.0,7.450966385728558e-05,7.778947116592152e-07,0.0246663471207721,1.9959824683691738e-05,0.0247628403792478,1.856688665202068e-05
41.0,42.0,7.084975097783986e-05,7.558914370445864e-07,0.0236409953211567,1.9415395081252117e-05,0.0237186286204253,1.8086587983882648e-05
42.0,43.0,6.656467985726679e-05,7.295256209907898e-07,0.0226543624034268,1.8870827711047503e-05,0.0226787810981301,1.758094072928039e-05
43.0,44.0,6.334600638659866e-05,7.098770082424409e-07,0.021683974111488,1.836759998402336e-05,0.021759272306494,1.7130684287345097e-05
44.0,45.0,5.9384837020000287e-05,6.83131408352689e-07,0.0207511299745065,1.7850297795928816e-05,0.0208231811783854,1.6653025683796935e-05
45.0,46.0,5.525482355151075e-05,6.582087930830596e-07,0.0198656924059898,1.7358063756547275e-05,0.0199562833425914,1.62096885713782e-05
46.0,47.0,5.0920307530457995e-05,6.282333224373888e-07,0.0190183295613038,1.689913386456209e-05,0.0190464890833662,1.5747673052206945e-05
47.0,48.0,4.839485303419283e-05,6.108107167861477e-07,0.0181743347509174,1.641674754421562e-05,0.0182598889332037,1.532992666179502e-05
48.0,49.0,4.503318877321216e-05,5.869067901074355e-07,0.0173905707087646,1.5972699637937278e-05,0.0174339034418259,1.488256299022113e-05
49.0,50.0,4.2287686633921294e-05,5.665939974337781e-07,0.0166275248835828,1.553297545583661e-05,0.0166857166565688,1.4474104973348692e-05
50.0,51.0,3.9214349057456985e-05,5.442708012530634e-07,0.0158865462663583,1.5108993208055417e-05,0.0159172515082918,1.4063861487419012e-05
51.0,52.0,3.668154819046737e-05,5.240756348154689e-07,0.0151598496830685,1.4688341621954757e-05,0.0152150587361958,1.368266074785152e-05
52.0,53.0,3.397205747394353e-05,5.028903718810681e-07,0.0144452491186486,1.4278231829312464e-05,0.0145157054303628,1.330510499967988e-05
53.0,54.0,3.3035554659639756e-05,4.947438895832494e-07,0.0137452246609318,1.3835412568429026e-05,0.0138509704757163,1.2943553074037214e-05
54.0,55.0,2.966638925908903e-05,4.686083807523786e-07,0.0131032670836756,1.3439627086742992e-05,0.0131621515214817,1.2560635155236362e-05
55.0,56.0,2.7813134616150075e-05,4.5160917212495257e-07,0.0124437672484799,1.3034821087759512e-05,0.01250201817713,1.2191421961016018e-05
56.0,57.0,2.4978072149778025e-05,4.266479412930685e-07,0.0117642682613198,1.2621525908159474e-05,0.0118471931125388,1.1805207791087772e-05
57.0,58.0,2.427120287768668e-05,4.1974293939228403e-07,0.0111177231576555,1.2242274034686164e-05,0.0111838785473077,1.1424283173413626e-05
58.0,59.0,2.212553732934231e-05,4.001952811900737e-07,0.0104341161829576,1.1806966633921492e-05,0.0105304532354368,1.1038319725385566e-05
59.0,60.0,1.908550942213855e-05,3.707395315529971e-07,0.009680167305488,1.13148520554278e-05,0.0098170885049712,1.0610406653748398e-05
