# xl,xh,PS+LOnovp,dPS+LOnovp,PS+LO,dPS+LO
0,1,9.185986771,0.0007934670448,9.417635878,0.0008134208876
1,2,2.649401109,0.0004279941198,2.715834887,0.0004388120824
2,3,1.548460843,0.0003274414381,1.587162669,0.0003357155042
3,4,1.09497627,0.0002754358264,1.122244169,0.000282386156
4,5,0.8488187573,0.0002425490661,0.8704883058,0.0002487479848
5,6,0.6938471761,0.0002193173978,0.7109277324,0.0002248248703
6,7,0.5863779,0.0002016360427,0.6012672758,0.0002067781787
7,8,0.5075175974,0.0001876002998,0.520408807,0.0001923849892
8,9,0.4477227488,0.0001762126604,0.4589903984,0.0001806869896
9,10,0.4003801103,0.0001666456341,0.4101279755,0.0001708095793
10,11,0.3615660326,0.000158371066,0.3708064489,0.0001624222846
11,12,0.3293501263,0.0001511594095,0.3373398308,0.0001549292688
12,13,0.3014795034,0.0001446346593,0.3090852128,0.0001483121422
13,14,0.2765262147,0.0001385453823,0.2836692909,0.0001421121667
14,15,0.2528507386,0.0001325494806,0.2590204194,0.0001358647106
15,16,0.01737329051,3.472360608e-05,0.01778602396,3.558065269e-05
16,17,0.01262305219,2.959448732e-05,0.01298791899,3.040115227e-05
17,18,0.01003129066,2.638170455e-05,0.01030349185,2.707782018e-05
18,19,0.008179999271,2.382343387e-05,0.008366398292,2.440010129e-05
19,20,0.006803238383,2.172617515e-05,0.006994013208,2.230926046e-05
20,21,0.005789889595,2.004290332e-05,0.005929568651,2.054157235e-05
21,22,0.004962588103,1.855586099e-05,0.00509377249,1.903891456e-05
22,23,0.004272549249,1.721747675e-05,0.004376459009,1.764753305e-05
23,24,0.003715681574,1.605630163e-05,0.003795279266,1.643404978e-05
24,25,0.00325504571,1.502812814e-05,0.003350373917,1.544078717e-05
25,26,0.00286941254,1.410986581e-05,0.00296901694,1.453547501e-05
26,27,0.002548030463,1.329624117e-05,0.002600044993,1.360234035e-05
27,28,0.002250584341,1.249609427e-05,0.002291699811,1.277033023e-05
28,29,0.002010102331,1.180961686e-05,0.002080134454,1.216659191e-05
29,30,0.00180285484,1.118425888e-05,0.001827084521,1.140257288e-05
30,31,0.00162412368,1.06154026e-05,0.00164718533,1.082666272e-05
31,32,0.001476822602,1.012257603e-05,0.001521371282,1.040497529e-05
32,33,0.001358524675,9.708693877e-06,0.001419253597,1.00497078e-05
33,34,0.001273043607,9.398283341e-06,0.001290877622,9.584424324e-06
34,35,0.001184858466,9.066931355e-06,0.001200144776,9.241449587e-06
35,36,0.001093063275,8.708624225e-06,0.001136740658,8.994027288e-06
36,37,0.001030201334,8.454497631e-06,0.001061094928,8.689614758e-06
37,38,0.0009701855435,8.204541388e-06,0.0009863041147,8.377779411e-06
38,39,0.0009239077997,8.006477122e-06,0.0009392671102,8.175574965e-06
39,40,0.0008886607433,7.852267007e-06,0.0008979209033,7.993602285e-06
40,41,0.0008416189009,7.641608979e-06,0.0008580708545,7.814212869e-06
41,42,0.0008176128109,7.53183986e-06,0.0008223469368,7.649817107e-06
42,43,0.0007857650559,7.383688576e-06,0.0007931708723,7.512889199e-06
43,44,0.0007550279798,7.237831126e-06,0.000771182085,7.408020052e-06
44,45,0.0007437880246,7.183755732e-06,0.000762643229,7.366896359e-06
45,46,0.0007029909928,6.983963364e-06,0.0007448525146,7.28046199e-06
46,47,0.0007043094497,6.990510142e-06,0.0007200173933,7.158061402e-06
47,48,0.0007009783098,6.973955636e-06,0.0007138965612,7.127566829e-06
48,49,0.0007069458499,7.003580802e-06,0.0007217250472,7.166543494e-06
49,50,0.0007321315372,7.127242093e-06,0.0007383054864,7.248394215e-06
50,51,0.0008299622016,7.588504324e-06,0.000853445305,7.793122587e-06
51,52,0.0008895613839,7.856239141e-06,0.000900412069,8.004685459e-06
52,53,0.0009131537897,7.959745613e-06,0.0009327196756,8.147027735e-06
53,54,0.0009255034087,8.013386619e-06,0.0009359212438,8.160994954e-06
54,55,0.0009038551321,7.919109348e-06,0.0009127946822,8.059540168e-06
55,56,0.0008658328531,7.750753083e-06,0.00088176755,7.921376555e-06
56,57,0.0008218449596,7.551306732e-06,0.0008516662846,7.784996007e-06
57,58,0.0007695303481,7.307017568e-06,0.0008029206607,7.558925821e-06
58,59,0.0007311609879,7.12252003e-06,0.0007405113988,7.259214019e-06
59,60,0.0006835638054,6.886786888e-06,0.0006936859981,7.025948259e-06
60,61,0.0006426968868,6.677750081e-06,0.0006507043647,6.804800559e-06
61,62,0.000593643834,6.417862224e-06,0.0006091461156,6.583917787e-06
62,63,0.0005500020832,6.177456863e-06,0.0005663069106,6.348186959e-06
63,64,0.0005124641811,5.96291612e-06,0.0005290896771,6.136046282e-06
64,65,0.0004706263558,5.714328158e-06,0.0004830469144,5.86297759e-06
65,66,0.0004465506802,5.566248484e-06,0.0004497441054,5.65726846e-06
66,67,0.000409083162,5.327613659e-06,0.0004252637788,5.501143281e-06
67,68,0.0003802892225,5.136697477e-06,0.0003908929574,5.27415528e-06
68,69,0.0003562829169,4.971925993e-06,0.0003689747803,5.124154015e-06
69,70,0.0003335258915,4.810523843e-06,0.0003267753992,4.822234205e-06
70,71,0.0003063963131,4.610721586e-06,0.0003145365296,4.731075112e-06
71,72,0.0002792674554,4.40187073e-06,0.0002895581484,4.539330883e-06
72,73,0.0002659459107,4.295599793e-06,0.0002681381132,4.368204939e-06
73,74,0.0002416616747,4.094783559e-06,0.0002505614199,4.222611205e-06
74,75,0.0002254954363,3.955450847e-06,0.0002402424676,4.134742512e-06
75,76,0.000213075703,3.844978728e-06,0.0002146243697,3.90807853e-06
76,77,0.0001946891027,3.675341809e-06,0.000203238732,3.803008507e-06
77,78,0.0001839354031,3.572402556e-06,0.0001923511426,3.699743973e-06
78,79,0.0001701274765,3.435691485e-06,0.0001724963207,3.503591447e-06
79,80,0.0001606218019,3.33832746e-06,0.0001741337232,3.52018777e-06
80,81,0.0001560429092,3.290404146e-06,0.0001603985791,3.378496665e-06
81,82,0.000145288639,3.174996511e-06,0.0001463797359,3.227481431e-06
82,83,0.0001383504786,3.098261236e-06,0.0001431065306,3.191195098e-06
83,84,0.0001322440829,3.029107885e-06,0.0001325750063,3.071532896e-06
84,85,0.0001298161964,3.001179206e-06,0.0001301548712,3.043361321e-06
85,86,0.000128011794,2.980243439e-06,0.0001286607661,3.025846288e-06
86,87,0.0001195470212,2.880023761e-06,0.0001279489052,3.017461056e-06
87,88,0.0001203107794,2.889215606e-06,0.0001231815608,2.960718479e-06
88,89,0.0001192697386,2.876684775e-06,0.0001216871605,2.942704453e-06
89,90,0.0001176044389,2.856530124e-06,0.0001171324547,2.887102988e-06
90,91,0.0001127476341,2.796924228e-06,0.0001162786895,2.876564057e-06
91,92,0.0001210738081,2.89836071e-06,0.0001184846258,2.903720608e-06
92,93,0.0001126782497,2.796063474e-06,0.0001174880872,2.891480334e-06
93,94,0.000117951706,2.860748735e-06,0.0001194098688,2.915037789e-06
94,95,0.0001201718787,2.887545603e-06,0.0001237503218,2.96753937e-06
95,96,0.0001226692294,2.917389731e-06,0.000128945692,3.029198159e-06
96,97,0.0001317588924,3.023551726e-06,0.0001371292253,3.123842332e-06
97,98,0.0001346730825,3.05680669e-06,0.0001421812634,3.180860072e-06
98,99,0.0001505617502,3.232099514e-06,0.000153496056,3.305004716e-06
99,100,0.0001514637032,3.24176584e-06,0.0001593312876,3.367239077e-06
100,101,0.0001552796784,3.282347186e-06,0.000176054849,3.539550153e-06
101,102,0.0001711679524,3.446178824e-06,0.0001779046634,3.558092667e-06
102,103,0.0001884452537,3.615931947e-06,0.0001908563805,3.68533713e-06
103,104,0.000197464543,3.701447648e-06,0.0002044489511,3.814318841e-06
104,105,0.0002064842986,3.785040154e-06,0.0002208871626,3.964692741e-06
105,106,0.0002269526635,3.968212608e-06,0.0002316318589,4.059968918e-06
106,107,0.0002447842513,4.121156444e-06,0.0002455081293,4.179807093e-06
107,108,0.0002649749287,4.287753959e-06,0.0002655767308,4.347294936e-06
108,109,0.0002822510104,4.425322548e-06,0.0002853591743,4.506294284e-06
109,110,0.0003030659726,4.585595792e-06,0.0003151057366,4.73535336e-06
110,111,0.000332345191,4.801993006e-06,0.0003299069476,4.845288377e-06
111,112,0.0003580173231,4.984011786e-06,0.0003536747454,5.016787808e-06
112,113,0.0003764040485,5.11039286e-06,0.0003843456586,5.229796136e-06
113,114,0.0004083196506,5.322637716e-06,0.0004171507138,5.448412026e-06
114,115,0.0004367668407,5.504928021e-06,0.0004693128671,5.779029413e-06
115,116,0.0004767318186,5.751273427e-06,0.0004900206503,5.905146976e-06
116,117,0.0005098276209,5.947557247e-06,0.0005232540752,6.102111854e-06
117,118,0.0005453527852,6.151288296e-06,0.0005730673846,6.385966806e-06
118,119,0.0005908675355,6.402832107e-06,0.0005988984443,6.528300345e-06
119,120,0.0006328451277,6.626375004e-06,0.0006534803321,6.819303448e-06
120,121,0.0006915434015,6.926869405e-06,0.0006932599457,7.023794948e-06
121,122,0.0007272056981,7.103226996e-06,0.0007289816899,7.202472415e-06
122,123,0.0007788267486,7.351017182e-06,0.0007940962009,7.517271337e-06
123,124,0.0008153921185,7.521602108e-06,0.0008372911208,7.719013487e-06
124,125,0.0008595192099,7.722443255e-06,0.0009029019308,8.015741706e-06
125,126,0.0008998311844,7.901462963e-06,0.0009163526035,8.075231484e-06
126,127,0.0009212011367,7.994737331e-06,0.000937488172,8.167829682e-06
127,128,0.0009170385211,7.976655784e-06,0.0009389813349,8.174326261e-06
128,129,0.0008912274324,7.863596391e-06,0.0008926555107,7.970133301e-06
129,130,0.0008160162326,7.524478949e-06,0.0008293926137,7.682521114e-06
130,131,0.000729842384,7.116093196e-06,0.0007402269488,7.257820669e-06
131,132,0.0006992440498,6.965325099e-06,0.0007272040079,7.193691852e-06
132,133,0.0007063225988,7.000498819e-06,0.0007139686292,7.127931138e-06
133,134,0.000703199352,6.984999245e-06,0.0007172414425,7.144246349e-06
134,135,0.000708957531,7.01353621e-06,0.0007325409547,7.220039847e-06
135,136,0.000738306412,7.157233393e-06,0.0007484094519,7.297819014e-06
136,137,0.0007590522721,7.257094791e-06,0.0007755942426,7.429182124e-06
137,138,0.0007720275322,7.31886112e-06,0.000792601528,7.510192123e-06
138,139,0.0008013777891,7.456689379e-06,0.0008198559196,7.63822046e-06
139,140,0.0008412019401,7.639712989e-06,0.0008481089889,7.768724244e-06
140,141,0.0008714539062,7.775875925e-06,0.0008882437245,7.950414634e-06
141,142,0.000922936887,8.002270852e-06,0.00093442723,8.154480326e-06
142,143,0.0009763620628,8.230622504e-06,0.0009936341584,8.40885438e-06
143,144,0.001036238767,8.479239362e-06,0.001069350339,8.723354784e-06
144,145,0.001101736681,8.743108986e-06,0.001111122697,8.892105077e-06
145,146,0.001161752695,8.978085196e-06,0.001219929626,9.317319468e-06
146,147,0.001256739172,9.337907689e-06,0.001279136231,9.540737694e-06
147,148,0.001354292955,9.693563126e-06,0.001404380592,9.996910907e-06
148,149,0.001482095354,1.014062932e-05,0.001509416314,1.036401436e-05
149,150,0.001623913154,1.061470641e-05,0.001646046621,1.082291942e-05
150,151,0.001783356888,1.112361156e-05,0.001821604536,1.138545862e-05
151,152,0.001987622387,1.174339634e-05,0.002055299363,1.209374573e-05
152,153,0.002246212975,1.248395203e-05,0.002310628651,1.28229608e-05
153,154,0.002532904404,1.325671552e-05,0.002577700526,1.354376706e-05
154,155,0.002867055677,1.410407621e-05,0.00290497307,1.437785502e-05
155,156,0.003279467596,1.508439908e-05,0.003335073966,1.540549042e-05
156,157,0.003681406333,1.598207385e-05,0.003827517304,1.650370292e-05
157,158,0.004281985698,1.723647946e-05,0.004385569767,1.766589645e-05
158,159,0.004961527884,1.855383269e-05,0.005080323058,1.901376352e-05
159,160,0.005761166576,1.999312915e-05,0.005955898482,2.058712782e-05
160,161,0.006844168703,2.179142397e-05,0.007025602518,2.235957408e-05
161,162,0.008199572707,2.385176584e-05,0.008416394273,2.447284447e-05
162,163,0.01001456896,2.635970423e-05,0.01026076837,2.702158306e-05
163,164,0.01262081462,2.959185069e-05,0.01290621339,3.03055304e-05
164,165,0.01740943962,3.47593616e-05,0.01774174143,3.553632795e-05
165,166,0.2527444837,0.0001325224862,0.2589567303,0.0001358500077
166,167,0.2765776285,0.0001385617815,0.2837020836,0.0001421238968
167,168,0.3012161588,0.0001445740776,0.3086252911,0.000148206197
168,169,0.3291565211,0.000151116556,0.3371353319,0.0001548831339
169,170,0.3615041428,0.0001583575113,0.3708644471,0.0001624351896
170,171,0.400105338,0.0001665896204,0.4104844855,0.0001708842674
171,172,0.4479960394,0.0001762675536,0.4585972223,0.0001806108745
172,173,0.5079566425,0.0001876828349,0.5204262212,0.0001923893318
173,174,0.58652874,0.0002016617906,0.6010085031,0.0002067326205
174,175,0.693570818,0.0002192747206,0.7106678972,0.0002247832237
175,176,0.8486618007,0.0002425271073,0.8703559621,0.0002487286536
176,177,1.094348773,0.0002753567253,1.122240275,0.0002823863743
177,178,1.548731142,0.0003274700037,1.587839661,0.0003357872657
178,179,2.649438089,0.0004279969699,2.716326779,0.0004388518097
179,180,9.186027425,0.0007934675598,9.419565512,0.0008135031108
