# xl,xh,PS+LOnovp,dPS+LOnovp,PS+LO,dPS+LO
50,51,1.073067043,0.0002726766855,1.097615379,0.0002792814676
51,52,1.004381092,0.0002638160645,1.026411647,0.000270083871
52,53,0.9430193435,0.0002556404042,0.9643832742,0.0002618052405
53,54,0.8933492507,0.0002488239247,0.9139563768,0.000254876755
54,55,0.8989422911,0.0002495998709,0.9203891489,0.0002557707348
55,56,0.9408159685,0.0002553396404,0.9623243448,0.0002615242286
56,57,0.9624412252,0.0002582537582,0.9844445575,0.0002645081318
57,58,0.9695069648,0.0002591983045,0.992229329,0.0002655511876
58,59,0.9678415649,0.0002589758945,0.9896829914,0.0002652099891
59,60,0.9581798654,0.0002576816771,0.9809954763,0.0002640452185
60,61,0.9445462507,0.000255844068,0.9665361393,0.0002620947579
61,62,0.9272408409,0.0002534929196,0.9492226771,0.0002597393136
62,63,0.9078529723,0.0002508317995,0.9297386857,0.0002570627266
63,64,0.887421834,0.0002479961798,0.9086195829,0.0002541305575
64,65,0.8650704357,0.0002448570878,0.8861127847,0.000250967499
65,66,0.8432176987,0.0002417481128,0.8629362377,0.0002476672928
66,67,0.8201739316,0.0002384258389,0.8399929268,0.0002443565145
67,68,0.7970347763,0.0002350415699,0.8158539014,0.0002408235572
68,69,0.7748683387,0.0002317543709,0.7937588924,0.0002375438863
69,70,0.7526448992,0.0002284099178,0.7708179353,0.0002340896208
70,71,0.7305471458,0.0002250343319,0.7484842935,0.0002306772172
71,72,0.7096925143,0.0002218026431,0.7270098458,0.0002273476464
72,73,0.6881109911,0.0002184071346,0.7050173006,0.0002238853103
73,74,0.6674840209,0.0002151122066,0.6837276356,0.0002204828565
74,75,0.6472702047,0.0002118327639,0.6630496919,0.0002171258842
75,76,0.6277284379,0.0002086135844,0.6430364376,0.0002138270541
76,77,0.60837781,0.0002053753001,0.6233922787,0.0002105380755
77,78,0.5899155858,0.0002022371364,0.6048720907,0.0002073897894
78,79,0.5725192159,0.0001992359871,0.5866231692,0.0002042405398
79,80,0.5553226287,0.0001962227973,0.5697959401,0.0002012918336
80,81,0.5392429472,0.0001933627995,0.5530242877,0.0001983093218
81,82,0.5234254958,0.0001905079523,0.5369288181,0.0001954046077
82,83,0.508296843,0.0001877363706,0.5213415683,0.0001925494353
83,84,0.4936385816,0.0001850113038,0.5063737475,0.0001897667288
84,85,0.4799292925,0.0001824262543,0.4921326625,0.0001870811765
85,86,0.4664053926,0.0001798397584,0.4787268131,0.0001845174005
86,87,0.4533233155,0.0001773011151,0.4649331369,0.0001818414072
87,88,0.4406847417,0.0001748136594,0.452459739,0.0001793868351
88,89,0.428720574,0.000172425077,0.4401954969,0.0001769416977
89,90,0.4171883729,0.000170092045,0.4286431105,0.0001746053608
90,91,0.4063885293,0.000167877419,0.4170386689,0.0001722267931
91,92,0.3956100886,0.0001656369875,0.4061708505,0.0001699687869
92,93,0.3853878084,0.0001634844761,0.3960298181,0.0001678360454
93,94,0.3757713171,0.0001614328017,0.3861048169,0.0001657197285
94,95,0.3663737055,0.0001594025732,0.3760074594,0.0001635406646
95,96,0.3569891977,0.0001573490737,0.3665248168,0.0001614662672
96,97,0.3479772314,0.0001553520784,0.3577044444,0.0001595123401
97,98,0.3396320593,0.0001534784932,0.3491370692,0.0001575911663
98,99,0.3315709903,0.0001516464312,0.3403387659,0.0001555945192
99,100,0.3230845667,0.0001496946529,0.3320916432,0.0001536992408
100,101,0.3156645182,0.0001479672328,0.3245390976,0.00015194218
101,102,0.3080267712,0.0001461666765,0.3169285725,0.0001501514465
102,103,0.3008817182,0.0001444633465,0.3092736446,0.0001483272695
103,104,0.293704205,0.000142730368,0.302044235,0.0001465843665
104,105,0.2867628098,0.0001410346286,0.2948371157,0.0001448262673
105,106,0.2796647091,0.0001392789652,0.287991686,0.0001431375066
106,107,0.2731962529,0.0001376603871,0.2809724452,0.0001413826319
107,108,0.2661223111,0.000135867952,0.2739810792,0.000139613459
108,109,0.2589298475,0.0001340200417,0.2662832914,0.000137639533
109,110,0.251201051,0.0001320064525,0.2581820236,0.0001355318419
110,111,0.2426258206,0.0001297347133,0.24989683,0.0001333406879
111,112,0.2346194496,0.0001275780625,0.241610594,0.0001311129963
112,113,0.2271390868,0.0001255291125,0.2337645083,0.0001289680599
113,114,0.2196315486,0.0001234398393,0.2260833863,0.0001268346839
114,115,0.2121898457,0.0001213314809,0.2185363866,0.0001247012107
115,116,0.2048359977,0.0001192119521,0.2109383328,0.0001225160124
116,117,0.1978921893,0.0001171780578,0.2036040105,0.0001203678851
117,118,0.1909444098,0.0001151008338,0.1965461018,0.0001182677666
118,119,0.1840063758,0.0001129940664,0.1893028643,0.0001160688526
119,120,0.1769370515,0.000110806766,0.1819885076,0.0001138093049
120,121,0.1698581543,0.0001085710925,0.1746702114,0.0001114988986
121,122,0.1625519524,0.0001062117082,0.1674671785,0.0001091799188
122,123,0.1553435304,0.000103831621,0.1598798105,0.0001066785212
123,124,0.147622926,0.0001012202705,0.1518815746,0.0001039792435
124,125,0.1392866543,9.832092526e-05,0.1434681762,0.0001010576611
125,126,0.1303395324,9.511507338e-05,0.1343032088,9.777938714e-05
126,127,0.124365919,9.290714603e-05,0.1281469208,9.551186557e-05
127,128,0.1214313051,9.180533352e-05,0.1248986015,9.429432133e-05
128,129,0.1185308722,9.070689572e-05,0.1220333303,9.320750543e-05
129,130,0.1158918643,8.969478964e-05,0.1194389091,9.221755823e-05
