# xl,xh,PS+LOnovp,dPS+LOnovp,PS+LO,dPS+LO
0,0.25,11.42643388,0.001777410708,11.71614386,0.001822575536
0.25,0.5,8.245444952,0.001510671434,8.450898711,0.001548762666
0.5,0.75,5.453551322,0.00122914929,5.590992537,0.001260341519
0.75,1,4.115108555,0.001067952585,4.220112072,0.001095233234
1,1.25,3.326456364,0.0009603047077,3.410673732,0.0009847462451
1.25,1.5,2.803733135,0.000881707409,2.874230061,0.0009040748013
1.5,1.75,2.427293761,0.0008204365746,2.487955341,0.0008411898348
1.75,2,2.142794349,0.0007708945136,2.195012513,0.0007901567112
2,2.25,1.91641488,0.0007290639177,1.964234464,0.000747494788
2.25,2.5,1.727721556,0.0006922642401,1.771440946,0.0007098886762
2.5,2.75,1.581218894,0.00066228087,1.620287664,0.0006789428856
2.75,3,1.587041982,0.0006634986285,1.625663056,0.0006800697195
3,3.25,1.440684461,0.0006321823279,1.478414921,0.000648555844
3.25,3.5,1.33466406,0.0006084892418,1.367765579,0.0006238260268
3.5,3.75,1.244844478,0.0005876659921,1.276542201,0.000602673789
3.75,4,1.170833624,0.0005699368577,1.199515248,0.000584216302
4,4.25,1.104612767,0.0005535911483,1.133487396,0.0005679191718
4.25,4.5,1.04803167,0.0005392314169,1.074011843,0.0005528242291
4.5,4.75,0.996268742,0.0005257540736,1.021753431,0.000539213537
4.75,5,0.9506083498,0.000513569934,0.9749056073,0.0005267113514
5,5.25,0.9106138219,0.0005026523515,0.9329036305,0.0005152457039
5.25,5.5,0.8723455908,0.0004919819865,0.8946526304,0.0005045756998
5.5,5.75,0.8389353556,0.0004824751404,0.8590927573,0.0004944551962
5.75,6,0.8079404133,0.0004734790801,0.8282747708,0.0004855064796
6,6.25,0.7789444566,0.0004649119366,0.7990795141,0.0004768764589
6.25,6.5,0.7528672353,0.0004570636842,0.7728026675,0.000468972732
6.5,6.75,0.7292064596,0.0004498268377,0.7472096657,0.0004611461631
6.75,7,0.7066782912,0.000442828449,0.7239596382,0.0004539223571
7,7.25,0.6856111157,0.0004361795993,0.7023929699,0.0004471063209
7.25,7.5,0.6655055053,0.0004297414079,0.6819349364,0.0004405520344
7.5,7.75,0.6467398717,0.0004236393106,0.6631597715,0.0004344475385
7.75,8,0.6301731552,0.0004181831032,0.6460973046,0.0004288214996
8,8.25,0.6148924241,0.0004130816227,0.6289878571,0.000423108366
8.25,8.5,0.5988265684,0.0004076544001,0.614395451,0.0004181750421
8.5,8.75,0.5848526573,0.0004028681107,0.6002850095,0.0004133516673
8.75,9,0.5710934264,0.0003981028058,0.5859317499,0.0004083824023
9,9.25,0.559114653,0.0003939126028,0.5725073951,0.0004036779909
9.25,9.5,0.5475639405,0.0003898254574,0.5605534794,0.0003994393105
9.5,9.75,0.5350956792,0.0003853604653,0.5492162713,0.000395389137
9.75,10,0.52401265,0.0003813537513,0.5371160509,0.0003910134003
10,10.25,0.5139801763,0.0003776842193,0.5271231382,0.0003873519078
10.25,10.5,0.5043636602,0.0003741429827,0.5171921062,0.0003836857946
10.5,10.75,0.4951164503,0.0003706969476,0.5078778829,0.0003802224775
10.75,11,0.4861013964,0.000367308151,0.4986206878,0.0003767496932
11,11.25,0.4779169126,0.0003642044034,0.4895662358,0.0003733075814
11.25,11.5,0.46959551,0.000361025455,0.4814262801,0.0003702003187
11.5,11.75,0.4619534002,0.000358075146,0.4730982372,0.0003669895145
11.75,12,0.4540543269,0.0003550060816,0.4657554375,0.0003641279671
12,12.25,0.4472037563,0.0003523217354,0.4588780443,0.0003614340526
12.25,12.5,0.4402534031,0.0003495801488,0.4514127449,0.0003584883159
12.5,12.75,0.4342611971,0.0003471948559,0.4445711179,0.000355765413
12.75,13,0.4281852023,0.0003447623847,0.4385306736,0.0003533543213
13,13.25,0.4215354863,0.0003420968213,0.4317958949,0.0003506406348
13.25,13.5,0.4153801458,0.0003395877749,0.4258294484,0.0003482161921
13.5,13.75,0.4097700422,0.0003372973805,0.4204585561,0.0003460378719
13.75,14,0.4049365924,0.0003353345596,0.4148835978,0.0003437435765
14,14.25,0.3996501412,0.0003331522837,0.4100957062,0.0003417770422
14.25,14.5,0.3944044224,0.0003309917907,0.4039243116,0.0003392269413
14.5,14.75,0.3902390966,0.0003292930595,0.3994467535,0.0003373906816
14.75,15,0.384848948,0.0003270567276,0.3947095064,0.0003354466019
