# xl,xh,PS+LOnovp,dPS+LOnovp,PS+LO,dPS+LO
0,5,0.1133874713,3.965285923e-05,0.116479762,4.070111824e-05
5,10,0.1134654621,3.9666408e-05,0.1163668619,4.068129209e-05
10,15,0.113484738,3.966971663e-05,0.1165235429,4.070891204e-05
15,20,0.1136582258,3.970007091e-05,0.1167371332,4.074597343e-05
20,25,0.1138702269,3.97371416e-05,0.1168842307,4.077158434e-05
25,30,0.1140695659,3.977178235e-05,0.1170945078,4.080841966e-05
30,35,0.1143753023,3.982507651e-05,0.1173751753,4.085710254e-05
35,40,0.1147283586,3.988641505e-05,0.1176299639,4.090140644e-05
40,45,0.1149768084,3.992966384e-05,0.1179774815,4.096175605e-05
45,50,0.1153601927,3.999597529e-05,0.1184340819,4.104094045e-05
50,55,0.1157394584,4.006167861e-05,0.1188311224,4.110959921e-05
55,60,0.1163008102,4.015877228e-05,0.1192478597,4.118161948e-05
60,65,0.1167859994,4.024235251e-05,0.1198143845,4.127929527e-05
65,70,0.1172808452,4.032751492e-05,0.1203844362,4.137723325e-05
70,75,0.1178251044,4.042081812e-05,0.1209241067,4.146986655e-05
75,80,0.1184448499,4.052694552e-05,0.1215054917,4.156928736e-05
80,85,0.1190946994,4.063781825e-05,0.1221918822,4.168661573e-05
85,90,0.1196865631,4.07388352e-05,0.1228622563,4.18006477e-05
90,95,0.1204033057,4.086035654e-05,0.123572243,4.19210606e-05
95,100,0.1208480759,4.09358495e-05,0.1240434551,4.200081823e-05
100,105,0.1212598849,4.100539808e-05,0.1244031639,4.206191988e-05
105,110,0.1216482441,4.10709413e-05,0.1247727903,4.21240476e-05
110,115,0.1220494952,4.113860787e-05,0.12517926,4.219249883e-05
115,120,0.1226488898,4.123946205e-05,0.1257539107,4.228917006e-05
120,125,0.1232192063,4.133512892e-05,0.1263140467,4.238320455e-05
125,130,0.1237436006,4.142281761e-05,0.1270477564,4.250620366e-05
130,135,0.1244292858,4.153745283e-05,0.1275951463,4.259754321e-05
135,140,0.1252724181,4.167786041e-05,0.1284408981,4.273838398e-05
140,145,0.1259749142,4.179438485e-05,0.1291750407,4.286014126e-05
145,150,0.1267900869,4.192932142e-05,0.1299853028,4.299431391e-05
150,155,0.127689366,4.207768605e-05,0.1310915605,4.317676182e-05
155,160,0.1286229609,4.223111418e-05,0.131898186,4.330912361e-05
160,165,0.1296695035,4.240248299e-05,0.1328829902,4.347042603e-05
165,170,0.1306446976,4.256148763e-05,0.1340327239,4.365804221e-05
170,175,0.1317418163,4.27394466e-05,0.1350679275,4.382634403e-05
175,180,0.1327322893,4.289988512e-05,0.1361426186,4.40000755e-05
180,185,0.1340054834,4.310511182e-05,0.137353238,4.419505086e-05
185,190,0.1351367624,4.328626576e-05,0.1385387456,4.438530567e-05
190,195,0.1362950774,4.347119924e-05,0.1396565577,4.456378126e-05
195,200,0.137431304,4.365213278e-05,0.1408780873,4.475805917e-05
200,205,0.1386408698,4.3843581e-05,0.142051532,4.494401811e-05
205,210,0.139782268,4.402361947e-05,0.1432532909,4.513347057e-05
210,215,0.140863323,4.419341711e-05,0.1443712751,4.53093225e-05
215,220,0.1418319294,4.434500649e-05,0.1453667979,4.546508683e-05
220,225,0.1428856885,4.450950068e-05,0.1463150233,4.561296726e-05
225,230,0.1436568617,4.462901725e-05,0.1471238385,4.57388136e-05
230,235,0.1441651225,4.470786928e-05,0.1476510081,4.582063001e-05
235,240,0.1445146745,4.476190063e-05,0.1479751551,4.587065381e-05
240,245,0.144230329,4.471805612e-05,0.1477256648,4.583224442e-05
245,250,0.142708916,4.448186653e-05,0.1462093357,4.559666463e-05
250,255,0.1404002462,4.412090514e-05,0.1437955523,4.52190316e-05
255,260,0.1374901624,4.366158807e-05,0.1407761105,4.474208625e-05
260,265,0.1336565735,4.304906127e-05,0.1368264113,4.411052758e-05
265,270,0.1288381535,4.226659587e-05,0.1317950888,4.329251845e-05
270,275,0.1227442718,4.125568619e-05,0.1257130472,4.228271108e-05
275,280,0.1156456716,4.004578095e-05,0.1184439195,4.104298813e-05
280,285,0.1125911145,3.951365938e-05,0.1153248491,4.04992697e-05
285,290,0.1110526623,3.924307324e-05,0.1138087269,4.023228912e-05
290,295,0.1089524784,3.887040909e-05,0.1115550303,3.983247241e-05
295,300,0.1052813075,3.821054786e-05,0.1077189304,3.914227734e-05
300,305,0.09934824079,3.711935412e-05,0.1016681411,3.802794536e-05
305,310,0.08978796044,3.528911476e-05,0.09190596257,3.615748671e-05
310,315,0.0741969536,3.208149369e-05,0.07587681892,3.285557162e-05
315,320,0.04741055162,2.564766989e-05,0.04853889355,2.628174228e-05
320,325,0.008217293838,1.068107914e-05,0.008405933864,1.093992583e-05
325,330,0,0,0,0
330,335,0,0,0,0
335,340,0,0,0,0
340,345,0,0,0,0
345,350,0,0,0,0
350,355,0,0,0,0
355,360,0,0,0,0
360,365,0,0,0,0
365,370,0,0,0,0
370,375,0,0,0,0
