# xl,xh,PS+LOnovp,dPS+LOnovp,PS+LO,dPS+LO
140,145,0,0,0,0
145,150,0,0,0,0
150,155,0,0,0,0
155,160,0,0,0,0
160,165,0,0,0,0
165,170,0,0,0,0
170,175,0,0,0,0
175,180,0,0,0,0
180,185,0,0,0,0
185,190,0,0,0,0
190,195,0,0,0,0
195,200,0,0,0,0
200,205,0,0,0,0
205,210,0,0,0,0
210,215,0,0,0,0
215,220,0,0,0,0
220,225,0,0,0,0
225,230,0,0,0,0
230,235,0,0,0,0
235,240,0,0,0,0
240,245,4.16276213e-08,2.403371724e-08,9.962905336e-08,3.765624094e-08
245,250,4.329507383e-06,2.451100734e-07,4.426259983e-06,2.509901624e-07
250,255,2.819736713e-05,6.255278447e-07,2.796670461e-05,6.308991723e-07
255,260,9.286254645e-05,1.13534369e-06,9.490150123e-05,1.162358933e-06
260,265,0.0002134645267,1.722213653e-06,0.0002209581298,1.773804321e-06
265,270,0.0004144813837,2.399692631e-06,0.0004239685054,2.457752354e-06
270,275,0.0007508235473,3.229376278e-06,0.0007710249252,3.314333263e-06
275,280,0.001275097197,4.208199477e-06,0.001305921843,4.313006983e-06
280,285,0.001997210758,5.266843628e-06,0.002034519812,5.383569187e-06
285,290,0.002947233336,6.397808259e-06,0.003009538055,6.5471566e-06
290,295,0.004185115651,7.62314226e-06,0.004278853458,7.806452121e-06
295,300,0.005833811402,9.000527457e-06,0.005959996869,9.212984603e-06
300,305,0.00834423583,1.076349818e-05,0.008546378182,1.10313889e-05
305,310,0.01414703763,1.401315604e-05,0.01447869806,1.435698193e-05
310,315,0.02116477126,1.713926875e-05,0.02164092057,1.755186665e-05
315,320,0.02781068878,1.964554586e-05,0.02845776881,2.012604698e-05
320,325,0.03419356329,2.178289635e-05,0.03503303067,2.232962639e-05
325,330,0.04048346928,2.370145465e-05,0.04144360604,2.428607344e-05
330,335,0.04662764437,2.543574284e-05,0.0477782172,2.607548451e-05
335,340,0.05290336436,2.709301039e-05,0.05413800637,2.775603366e-05
340,345,0.05917557115,2.865329463e-05,0.06057188373,2.935830124e-05
345,350,0.06552313325,3.014985668e-05,0.06714824045,3.091022598e-05
350,355,0.07207603946,3.162096463e-05,0.07374611412,3.239228949e-05
355,360,0.07869765943,3.30406607e-05,0.08063163406,3.38697417e-05
360,365,0.08566510216,3.447148802e-05,0.08776923803,3.533612624e-05
365,370,0.09292137412,3.590057439e-05,0.09520845458,3.680215672e-05
370,375,0.1004666279,3.732869973e-05,0.1029424465,3.826666506e-05
375,380,0.1081120888,3.872212278e-05,0.1107328136,3.968689803e-05
380,385,0.1153734686,4.00002502e-05,0.1182346064,4.100793019e-05
385,390,0.1229500088,4.129138492e-05,0.1259041811,4.231618312e-05
390,395,0.1307922333,4.258659475e-05,0.1340506208,4.366219302e-05
395,400,0.1393446804,4.395556514e-05,0.142890751,4.507733425e-05
400,405,0.1487076234,4.540648095e-05,0.1523494951,4.654349149e-05
405,410,0.158843151,4.692672369e-05,0.1627821434,4.810896823e-05
410,415,0.1699770178,4.854144358e-05,0.1741334504,4.975595895e-05
415,420,0.1822481604,5.026077148e-05,0.1866860567,5.151584962e-05
420,425,0.1959616544,5.211511696e-05,0.2008782033,5.343540607e-05
425,430,0.2113720662,5.412239816e-05,0.2166026847,5.548418197e-05
430,435,0.2286484164,5.628752153e-05,0.2342629941,5.769826089e-05
435,440,0.2483452758,5.865781571e-05,0.2545196817,6.013669006e-05
440,445,0.2709420925,6.126345729e-05,0.2779789685,6.284192285e-05
445,450,0.2973751785,6.417654218e-05,0.3047770184,6.579519172e-05
450,455,0.3280414487,6.739762659e-05,0.3364110261,6.911795594e-05
455,460,0.3647104492,7.105604173e-05,0.3739575878,7.286376513e-05
460,465,0.4088685583,7.522342531e-05,0.419544271,7.716502347e-05
465,470,0.4634354564,8.007140923e-05,0.4753989026,8.212560599e-05
470,475,0.5233465208,8.507197556e-05,0.5369093572,8.725805343e-05
475,480,0.4871521549,8.208710673e-05,0.4996670817,8.418754768e-05
480,485,0.4453225124,7.849450461e-05,0.4570624425,8.0530045e-05
485,490,0.438079215,7.785565647e-05,0.4494103417,7.985533541e-05
490,495,0.4319454319,7.731092856e-05,0.4429074136,7.927775532e-05
495,500,0.3465513982,6.926950494e-05,0.3549104581,7.098947238e-05
500,505,0.05925725376,2.868022939e-05,0.06061796352,2.937737532e-05
505,510,3.850770668e-05,7.349383739e-07,3.89397822e-05,7.498717334e-07
510,515,0,0,0,0
