# xl,xh,PS+LOnovp,dPS+LOnovp,PS+LO,dPS+LO
0,1,39.21842487,0.001605406565,40.20643134,0.001644161297
1,2,682.1814412,0.001962368747,699.6967479,0.001404238729
2,3,0.05748972709,2.347553421e-06,0.0574626526,2.346989044e-06
3,4,9832078266,0,9832457233,0
4,5,1e+10,0,1e+10,0
5,6,1000,0,1000,0
6,7,15200486.02,0,22820036.28,0
