# xl,xh,PS+LOnovp,dPS+LOnovp,PS+LO,dPS+LO
0,10,0.4203098166,5.385472452e-05,0.4305878197,5.519698005e-05
10,20,0.04832380407,1.830625639e-05,0.04951097782,1.876552832e-05
20,30,0.03175566742,1.484141232e-05,0.03254493234,1.521587338e-05
30,40,0.02450896384,1.303893408e-05,0.02510712912,1.336515476e-05
40,50,0.02080953914,1.201496034e-05,0.02132307735,1.231719436e-05
50,60,0.01884893493,1.143499092e-05,0.01931837546,1.172386372e-05
60,70,0.01767471516,1.107306135e-05,0.01811272846,1.135205893e-05
70,80,0.01679733464,1.079457984e-05,0.01721241465,1.106626619e-05
80,90,0.01636532702,1.065474208e-05,0.01677462079,1.092450953e-05
90,100,0.01518804748,1.02644289e-05,0.01560235439,1.053594225e-05
100,110,0.01376791855,9.772863295e-06,0.0141027244,1.00169159e-05
110,120,0.01220245069,9.200590345e-06,0.01251835445,9.437583384e-06
120,130,0.01065492674,8.597494149e-06,0.01093010243,8.818686303e-06
130,140,0.009259450804,8.014811007e-06,0.009495941723,8.219871817e-06
140,150,0.008011959917,7.45544622e-06,0.008219923787,7.647750087e-06
150,160,0.006921068509,6.92937426e-06,0.007095855676,7.105676645e-06
160,170,0.005912180581,6.40448294e-06,0.0060508428,6.561665025e-06
170,180,0.005071262486,5.931584864e-06,0.00519251602,6.078516111e-06
180,190,0.004441706995,5.55123184e-06,0.004544351882,5.686519492e-06
190,200,0.003997585324,5.266410037e-06,0.004092516167,5.396436617e-06
200,210,0.00368495051,5.056295608e-06,0.003774343719,5.182430853e-06
210,220,0.003447979387,4.891022895e-06,0.003531810258,5.013167571e-06
220,230,0.00323886561,4.740394365e-06,0.003325105654,4.864260702e-06
230,240,0.003067252197,4.613102875e-06,0.003130598785,4.719852252e-06
240,250,0.002894758957,4.481517865e-06,0.002975110218,4.601153236e-06
250,260,0.002740325732,4.360340285e-06,0.002809209654,4.47103092e-06
260,270,0.002576629615,4.228104803e-06,0.002638435537,4.333006702e-06
270,280,0.002383085732,4.066214601e-06,0.00244493197,4.171095005e-06
280,290,0.002137135772,3.850677799e-06,0.00218929005,3.947018013e-06
290,300,0.001777577912,3.511854084e-06,0.001821916121,3.600664677e-06
300,310,0.001398675744,3.115169793e-06,0.001435799097,3.196439824e-06
310,320,0.001069792124,2.724418484e-06,0.001088806253,2.783530607e-06
320,330,0.0007624384525,2.299997866e-06,0.0007831942933,2.360784756e-06
330,340,0.0004960624714,1.855214199e-06,0.0005096832855,1.904463374e-06
340,350,0.00027377233,1.378228421e-06,0.0002798300421,1.411140236e-06
350,360,9.95718094e-05,8.311798593e-07,0.0001022811248,8.531422784e-07
360,370,8.922646587e-06,2.488130543e-07,9.016214956e-06,2.533004159e-07
370,380,0,0,0,0
380,390,0,0,0,0
390,400,0,0,0,0
400,410,0,0,0,0
410,420,0,0,0,0
420,430,0,0,0,0
430,440,0,0,0,0
440,450,0,0,0,0
450,460,0,0,0,0
460,470,0,0,0,0
470,480,0,0,0,0
480,490,0,0,0,0
490,500,0,0,0,0
