# xl,xh,PS+LOnovp,dPS+LOnovp,PS+LO,dPS+LO
200,205,0,0,0,0
205,210,0,0,0,0
210,215,0,0,0,0
215,220,0,0,0,0
220,225,0,0,0,0
225,230,2.0814196e-07,5.37420205e-08,1.423255979e-07,4.500730379e-08
230,235,4.870710993e-06,2.599793037e-07,5.280220656e-06,2.741353804e-07
235,240,2.596314365e-05,6.002336461e-07,2.477857115e-05,5.938500775e-07
240,245,6.971620485e-05,9.835780596e-07,6.966752626e-05,9.957582645e-07
245,250,0.0001499233048,1.44236978e-06,0.0001566417463,1.493112438e-06
250,255,0.0003158463595,2.09408442e-06,0.0003229758733,2.144561092e-06
255,260,0.0006530270957,3.011895849e-06,0.0006712135486,3.092156815e-06
260,265,0.001239712872,4.150401811e-06,0.001274675538,4.262489186e-06
265,270,0.002116650271,5.422938686e-06,0.002179838005,5.573590214e-06
270,275,0.003348619201,6.821357916e-06,0.003421861662,6.98334305e-06
275,280,0.005040826913,8.368136294e-06,0.005156192275,8.570702101e-06
280,285,0.007473201468,1.018785183e-05,0.007645450743,1.043560448e-05
285,290,0.01170730425,1.274932681e-05,0.01196971457,1.305586447e-05
290,295,0.02308320806,1.789965448e-05,0.02360895129,1.833313156e-05
295,300,0.03899856526,2.326323748e-05,0.03991407665,2.383426573e-05
300,305,0.0470867429,2.556108925e-05,0.04822010269,2.619627548e-05
305,310,0.0537179268,2.73007896e-05,0.05492602426,2.795766973e-05
310,315,0.06012356258,2.888226876e-05,0.06158287027,2.960279116e-05
315,320,0.06696529076,3.048080567e-05,0.06854533281,3.123049735e-05
320,325,0.07414977191,3.207305042e-05,0.07594207276,3.287158112e-05
325,330,0.08198683748,3.372456569e-05,0.08400799954,3.457197117e-05
330,335,0.09072230626,3.547438226e-05,0.09283186618,3.634113842e-05
335,340,0.1004705001,3.733014426e-05,0.1028411228,3.824880476e-05
340,345,0.1115536382,3.933326297e-05,0.114204258,4.03042926e-05
345,350,0.124365476,4.152869686e-05,0.1274499048,4.257532086e-05
350,355,0.139736267,4.401772469e-05,0.143032096,4.510012623e-05
355,360,0.1580590029,4.681151929e-05,0.1619228328,4.798263057e-05
360,365,0.180809758,5.006322469e-05,0.1851148414,5.129953023e-05
365,370,0.209896724,5.393453292e-05,0.2148086292,5.525498674e-05
370,375,0.2484246852,5.866817503e-05,0.2543804201,6.01215325e-05
375,380,0.3024122599,6.471823363e-05,0.3096013878,6.631393055e-05
380,385,0.377440231,7.228317294e-05,0.3864367144,7.4067553e-05
385,390,0.4040550395,7.478185675e-05,0.4137057949,7.662916245e-05
390,395,0.3870600546,7.319657916e-05,0.3963213011,7.500638893e-05
395,400,0.3696301595,7.153336033e-05,0.3787313055,7.332698465e-05
400,405,0.3532201252,6.993111564e-05,0.3618451615,7.167751435e-05
405,410,0.3376877093,6.837943049e-05,0.3460043703,7.009459317e-05
410,415,0.3227352676,6.685142086e-05,0.3309738766,6.855842788e-05
415,420,0.3087278812,6.538756506e-05,0.3164889901,6.704462051e-05
420,425,0.2952040506,6.394206503e-05,0.3028163357,6.558323234e-05
425,430,0.2822460772,6.252541629e-05,0.2897147595,6.415155419e-05
430,435,0.2700316019,6.115988619e-05,0.2771062276,6.274258428e-05
435,440,0.2578937852,5.977181212e-05,0.2647061592,6.132507337e-05
440,445,0.246262973,5.8410508e-05,0.2526168808,5.991072325e-05
445,450,0.2344572468,5.699546474e-05,0.240599845,5.847059064e-05
450,455,0.222480288,5.552271168e-05,0.228549778,5.698977655e-05
455,460,0.2102392395,5.397572012e-05,0.2160770856,5.54150945e-05
460,465,0.196988357,5.224924039e-05,0.2025181378,5.365067038e-05
465,470,0.1823739284,5.027611179e-05,0.1874542165,5.161931222e-05
470,475,0.1648523165,4.780275039e-05,0.1694297924,4.907785759e-05
475,480,0.1414808769,4.428813203e-05,0.1455383682,4.548984627e-05
480,485,0.1042705197,3.80253188e-05,0.107315534,3.906726148e-05
485,490,0.02911049922,2.009672581e-05,0.02995349692,2.064518082e-05
490,495,0.0005283533185,2.707719649e-06,0.0005489145952,2.795055263e-06
495,500,0,0,0,0
