# xl,xh,PS+LOnovp,dPS+LOnovp,PS+LO,dPS+LO
0,0.25,4.849073953,0.0002982330404,5.022260153,0.0003145013884
0.25,0.5,4.095446369e-05,8.777522719e-07,4.173670154e-05,9.177888789e-07
0.5,0.75,1.395877385e-05,5.124426667e-07,1.360270943e-05,5.239567484e-07
0.75,1,6.584321519e-06,3.519467673e-07,6.962823284e-06,3.748657811e-07
1,1.25,3.555538606e-06,2.58627364e-07,4.399680243e-06,2.979839291e-07
1.25,1.5,2.934727247e-06,2.349662155e-07,2.401680229e-06,2.201616535e-07
1.5,1.75,2.088158366e-06,1.981992105e-07,1.977862975e-06,1.997943218e-07
1.75,2,1.467360499e-06,1.661458507e-07,1.271476088e-06,1.60190922e-07
2,2.25,1.147562855e-06,1.469303605e-07,9.485575399e-07,1.383613307e-07
2.25,2.5,7.524959848e-07,1.189800557e-07,8.476548386e-07,1.307959751e-07
2.5,2.75,0.01574162419,1.720792857e-05,0.01628545607,1.812869638e-05
2.75,3,0.1266535902,4.879647312e-05,0.1310627254,5.141457855e-05
3,3.25,0.1165627421,4.681347265e-05,0.120695336,4.934041048e-05
3.25,3.5,0.1080279914,4.506804091e-05,0.1117624606,4.748045102e-05
3.5,3.75,0.1006459939,4.350178226e-05,0.1042459247,4.585685428e-05
3.75,4,0.09422219579,4.209132532e-05,0.09749288075,4.434740708e-05
4,4.25,0.0885453654,4.080423767e-05,0.09164030241,4.299630725e-05
4.25,4.5,0.08356324252,3.964017703e-05,0.08650297132,4.177426003e-05
4.5,4.75,0.07907581346,3.856157664e-05,0.08180118074,4.06235584e-05
4.75,5,0.07510046528,3.758016807e-05,0.07776660709,3.960946366e-05
5,5.25,0.07151594681,3.667269927e-05,0.07399004021,3.863607101e-05
5.25,5.5,0.06823649828,3.582229893e-05,0.07066955452,3.775947748e-05
5.5,5.75,0.06523832006,3.502674913e-05,0.0675462679,3.691592415e-05
5.75,6,0.06256773926,3.430257103e-05,0.06478066666,3.615252691e-05
6,6.25,0.06009741058,3.361878944e-05,0.06214976433,3.541102107e-05
6.25,6.5,0.05774673451,3.295494148e-05,0.05985816404,3.475224007e-05
6.5,6.75,0.05563751358,3.234767332e-05,0.05764805612,3.410481859e-05
6.75,7,0.05370834463,3.178207394e-05,0.05563107419,3.350304241e-05
7,7.25,0.05187844688,3.123610484e-05,0.05369179348,3.29140641e-05
7.25,7.5,0.05013937843,3.070823198e-05,0.05201295926,3.239552921e-05
7.5,7.75,0.0485938901,3.023137594e-05,0.05036898126,3.18795802e-05
7.75,8,0.04713834076,2.977528e-05,0.04878264374,3.137367054e-05
8,8.25,0.04572756615,2.932643917e-05,0.04733270163,3.090401063e-05
8.25,8.5,0.04438551068,2.889298402e-05,0.04607379708,3.049035645e-05
8.5,8.75,0.04316376104,2.849264652e-05,0.04475774105,3.00518325e-05
8.75,9,0.04198944079,2.810247203e-05,0.04353809081,2.963963361e-05
9,9.25,0.04097722042,2.776175019e-05,0.04237892882,2.924248909e-05
9.25,9.5,0.03987357424,2.738542017e-05,0.04139676809,2.890171477e-05
9.5,9.75,0.03897835188,2.70763154e-05,0.04035375297,2.853536538e-05
9.75,10,0.03804975671,2.675191135e-05,0.03946184354,2.821831587e-05
10,10.25,0.03713916557,2.642992765e-05,0.03850343659,2.787360669e-05
10.25,10.5,0.03628006049,2.612250708e-05,0.03767298028,2.757142865e-05
10.5,10.75,0.03554970672,2.585828222e-05,0.03685697544,2.727124594e-05
10.75,11,0.03477228436,2.557402745e-05,0.03607885288,2.698188622e-05
11,11.25,0.03409933543,2.532539735e-05,0.03535187054,2.670870895e-05
11.25,11.5,0.03338858381,2.506011667e-05,0.0346262807,2.643323816e-05
11.5,11.75,0.03270761407,2.480328937e-05,0.03390564007,2.615677469e-05
11.75,12,0.03210975795,2.457559471e-05,0.03325379799,2.590416105e-05
12,12.25,0.03152021483,2.434897882e-05,0.03268833269,2.568300688e-05
12.25,12.5,0.03095123697,2.412824975e-05,0.03214069261,2.546699391e-05
12.5,12.75,0.0303514075,2.389334305e-05,0.03159333083,2.524924148e-05
12.75,13,0.02984663301,2.369385499e-05,0.03102364841,2.502059618e-05
13,13.25,0.02932366959,2.348539153e-05,0.03048498845,2.480246283e-05
13.25,13.5,0.02884820453,2.329424071e-05,0.02998418985,2.459792561e-05
13.5,13.75,0.02837330483,2.310173785e-05,0.02950060292,2.439878806e-05
13.75,14,0.02794822274,2.292805828e-05,0.02903802784,2.420677019e-05
14,14.25,0.02750966859,2.274748273e-05,0.02862094426,2.403232056e-05
14.25,14.5,0.02711254079,2.258271859e-05,0.02819564722,2.38531214e-05
14.5,14.75,0.02671791329,2.241779101e-05,0.02775961081,2.366798675e-05
14.75,15,0.0263454491,2.226100569e-05,0.02733495903,2.348628319e-05
15,15.25,0.02599196607,2.211118136e-05,0.02698788685,2.333672372e-05
15.25,15.5,0.02562802177,2.195585349e-05,0.02666757796,2.319784175e-05
15.5,15.75,0.0252702474,2.180207955e-05,0.02627424538,2.302614891e-05
15.75,16,0.02491576825,2.164864539e-05,0.02592390397,2.287213759e-05
16,16.25,0.02461679733,2.151838385e-05,0.0255559229,2.270924641e-05
16.25,16.5,0.02431044262,2.138408588e-05,0.02526968043,2.258172525e-05
16.5,16.75,0.02399319158,2.124411415e-05,0.02496876475,2.244688533e-05
16.75,17,0.02371617911,2.112113635e-05,0.0246597756,2.230757887e-05
17,17.25,0.0234137901,2.098607037e-05,0.02440156642,2.219049605e-05
17.25,17.5,0.02318307402,2.088242917e-05,0.02408537199,2.204627189e-05
17.5,17.75,0.02290730506,2.075787194e-05,0.02380143077,2.191595113e-05
17.75,18,0.02270042564,2.066393659e-05,0.02356672905,2.180763934e-05
18,18.25,0.02240633219,2.052966077e-05,0.02329677394,2.168239187e-05
18.25,18.5,0.02215738943,2.041530959e-05,0.02308990656,2.158592156e-05
18.5,18.75,0.02195643344,2.03225301e-05,0.02285413827,2.147544513e-05
18.75,19,0.021722257,2.021387651e-05,0.02262698995,2.136846846e-05
19,19.25,0.02148151777,2.010156681e-05,0.02242954693,2.127504315e-05
19.25,19.5,0.02133438511,2.003261502e-05,0.02222094247,2.117588834e-05
19.5,19.75,0.02113911527,1.994073795e-05,0.02201161474,2.107592211e-05
19.75,20,0.02092374783,1.983890798e-05,0.0217765543,2.096309821e-05
20,20.25,0.02075681017,1.975961819e-05,0.02160254248,2.087918246e-05
20.25,20.5,0.02054458776,1.965835595e-05,0.02139103389,2.077672865e-05
20.5,20.75,0.02036361184,1.957158843e-05,0.02122299863,2.06949719e-05
20.75,21,0.02018784952,1.948695175e-05,0.02104925029,2.061009362e-05
21,21.25,0.02003560152,1.941333931e-05,0.02088002067,2.052708407e-05
21.25,21.5,0.01984230124,1.931947198e-05,0.02068469888,2.043085845e-05
21.5,21.75,0.0197106732,1.925529293e-05,0.02052110663,2.034991591e-05
21.75,22,0.01952898315,1.916635007e-05,0.02036618563,2.027296223e-05
22,22.25,0.01941054038,1.910814572e-05,0.0202458991,2.021301094e-05
22.25,22.5,0.01922347215,1.901585582e-05,0.02009229374,2.013619493e-05
22.5,22.75,0.01908601017,1.894775182e-05,0.01992443946,2.005191635e-05
22.75,23,0.01899241822,1.890124206e-05,0.01979741247,1.998790023e-05
23,23.25,0.01886902697,1.883974797e-05,0.0196590219,1.99179224e-05
23.25,23.5,0.01872266747,1.876654688e-05,0.01951817239,1.98464495e-05
23.5,23.75,0.01856372271,1.868672644e-05,0.01940113564,1.978686279e-05
23.75,24,0.0184602536,1.863458066e-05,0.01925318074,1.971127735e-05
24,24.25,0.01836177181,1.85848135e-05,0.01914873955,1.965774714e-05
24.25,24.5,0.01823962253,1.852289933e-05,0.01902748467,1.959541476e-05
24.5,24.75,0.01812355182,1.846387477e-05,0.01893387647,1.954715683e-05
24.75,25,0.01801225609,1.840709904e-05,0.01883486539,1.949598675e-05
25,25.25,0.01790957779,1.835456403e-05,0.01871215772,1.943238122e-05
25.25,25.5,0.0178300964,1.831379479e-05,0.01862549479,1.938733324e-05
25.5,25.75,0.01769310343,1.824331015e-05,0.01854406197,1.934490994e-05
25.75,26,0.01761680156,1.82039344e-05,0.01840555172,1.927253494e-05
26,26.25,0.01751882689,1.815324849e-05,0.01831370081,1.922438917e-05
26.25,26.5,0.01743069061,1.810753079e-05,0.01822461718,1.917757968e-05
26.5,26.75,0.0173555734,1.806847537e-05,0.01811682537,1.912078704e-05
26.75,27,0.01726555618,1.802156119e-05,0.01807394013,1.909814561e-05
27,27.25,0.01718549237,1.797973225e-05,0.01798295825,1.905002005e-05
27.25,27.5,0.01707718898,1.792299306e-05,0.01788531705,1.89982366e-05
27.5,27.75,0.01701604931,1.789088344e-05,0.01780912812,1.895773132e-05
27.75,28,0.01693167508,1.784647568e-05,0.0177194181,1.890992696e-05
28,28.25,0.01686144879,1.78094303e-05,0.01765681363,1.88764952e-05
28.25,28.5,0.01680525773,1.777973372e-05,0.0176230897,1.885846155e-05
28.5,28.75,0.01672379993,1.773659441e-05,0.01753610617,1.881186819e-05
28.75,29,0.01665743071,1.770136855e-05,0.01745616217,1.87689415e-05
29,29.25,0.01662896663,1.768623881e-05,0.0173505472,1.871208017e-05
29.25,29.5,0.01656648943,1.765298484e-05,0.01734088321,1.870687065e-05
29.5,29.75,0.0164804984,1.760711394e-05,0.01728495808,1.867668333e-05
29.75,30,0.01643269624,1.758156262e-05,0.01723956853,1.865214711e-05
30,30.25,0.01638143433,1.755412154e-05,0.01714364101,1.860018416e-05
30.25,30.5,0.01632038758,1.752138505e-05,0.01712678844,1.859104038e-05
30.5,30.75,0.01620929894,1.746165541e-05,0.01709873605,1.857581037e-05
30.75,31,0.01622173597,1.746835366e-05,0.01699043956,1.85168964e-05
31,31.25,0.01614718012,1.742816672e-05,0.01695746142,1.849891841e-05
31.25,31.5,0.01610775031,1.740687704e-05,0.01693512006,1.848672948e-05
31.5,31.75,0.01601769868,1.735815729e-05,0.01689580515,1.846526023e-05
31.75,32,0.01601577794,1.735711551e-05,0.01684145604,1.843554062e-05
32,32.25,0.01596489094,1.732952177e-05,0.01680331022,1.84146515e-05
32.25,32.5,0.01596095833,1.732738699e-05,0.01675854542,1.839010783e-05
32.5,32.75,0.01587122522,1.727861566e-05,0.01671434732,1.836584371e-05
32.75,33,0.01588458041,1.728588247e-05,0.01666249921,1.833733814e-05
33,33.25,0.01585417973,1.726933468e-05,0.01665230797,1.83317304e-05
33.25,33.5,0.01578814918,1.723333819e-05,0.01662308453,1.831563938e-05
33.5,33.75,0.01573938508,1.720670444e-05,0.01659462763,1.829995674e-05
33.75,34,0.01574122979,1.72077133e-05,0.01652328279,1.826057876e-05
34,34.25,0.01569299382,1.718132979e-05,0.01652009526,1.825881819e-05
34.25,34.5,0.0156640593,1.716548376e-05,0.01651870193,1.825804778e-05
34.5,34.75,0.01564263527,1.715374372e-05,0.01645597743,1.822335386e-05
34.75,35,0.01560689168,1.713413568e-05,0.01646273745,1.822709568e-05
35,35.25,0.01560990021,1.713578622e-05,0.01642901257,1.82084176e-05
35.25,35.5,0.01559133401,1.712559436e-05,0.01640416717,1.819464468e-05
35.5,35.75,0.01557457083,1.711638543e-05,0.01642061847,1.820376667e-05
35.75,36,0.01551798586,1.708526775e-05,0.01640374336,1.819440962e-05
36,36.25,0.0155183982,1.708549387e-05,0.01637359317,1.817768362e-05
36.25,36.5,0.01548613416,1.70677245e-05,0.01633754723,1.815766502e-05
36.5,36.75,0.01550667605,1.707903915e-05,0.01634039172,1.815924478e-05
36.75,37,0.01546626882,1.70567751e-05,0.01628487008,1.812836983e-05
37,37.25,0.01545787947,1.705214927e-05,0.01629966292,1.813660074e-05
37.25,37.5,0.01541406359,1.702796548e-05,0.01630214871,1.813798546e-05
37.5,37.75,0.0154377312,1.704103323e-05,0.01628313475,1.812740418e-05
37.75,38,0.01540761336,1.702440394e-05,0.0162997051,1.813662523e-05
38,38.25,0.01538379555,1.701124064e-05,0.01626571765,1.811770746e-05
38.25,38.5,0.01539013539,1.701474526e-05,0.01629790919,1.813562629e-05
38.5,38.75,0.01538033435,1.700932711e-05,0.01624811978,1.810790543e-05
38.75,39,0.0153914907,1.701549478e-05,0.01624170368,1.810433103e-05
39,39.25,0.01538302344,1.701081328e-05,0.0162671333,1.811849755e-05
39.25,39.5,0.01538351316,1.70110844e-05,0.0162172405,1.809069135e-05
39.5,39.75,0.01534231382,1.698829164e-05,0.01624192422,1.810445322e-05
39.75,40,0.01535443101,1.699499943e-05,0.0162843675,1.812809127e-05
40,40.25,0.01536776741,1.700237718e-05,0.01626279271,1.811607945e-05
40.25,40.5,0.01538464028,1.701170657e-05,0.01623786608,1.810219062e-05
40.5,40.75,0.01536150201,1.699891056e-05,0.01626713213,1.811849616e-05
40.75,41,0.0153575325,1.69967143e-05,0.01627962544,1.81254522e-05
41,41.25,0.01534677358,1.699076103e-05,0.01623712056,1.810177574e-05
41.25,41.5,0.01534718886,1.699099168e-05,0.01624967503,1.810877267e-05
41.5,41.75,0.01537205771,1.700475068e-05,0.01627433804,1.812250893e-05
41.75,42,0.01536165598,1.699899779e-05,0.016280715,1.81260585e-05
42,42.25,0.01536415675,1.70003805e-05,0.01626442631,1.811698861e-05
42.25,42.5,0.01535841738,1.69972043e-05,0.01629853548,1.813597503e-05
42.5,42.75,0.01534912427,1.699206166e-05,0.01631823277,1.814692958e-05
42.75,43,0.01539312734,1.701639938e-05,0.01628539577,1.812866301e-05
43,43.25,0.01540939922,1.70253898e-05,0.01632388296,1.815007034e-05
43.25,43.5,0.01539901605,1.701965388e-05,0.01632904919,1.815294164e-05
43.5,43.75,0.01539980432,1.702008848e-05,0.01631665888,1.814605467e-05
43.75,44,0.01538044737,1.700938967e-05,0.0163446903,1.816163287e-05
44,44.25,0.01541299295,1.702737513e-05,0.01632313881,1.814965803e-05
44.25,44.5,0.01539739559,1.701875708e-05,0.01637609417,1.817907086e-05
44.5,44.75,0.015434458,1.703922678e-05,0.01634622484,1.816248587e-05
44.75,45,0.01541171479,1.702666979e-05,0.01636247172,1.817150913e-05
45,45.25,0.01544993807,1.704776738e-05,0.01640544083,1.819535211e-05
45.25,45.5,0.01544636512,1.704579701e-05,0.01643147478,1.82097819e-05
45.5,45.75,0.01547072697,1.705923285e-05,0.01644318067,1.82162668e-05
45.75,46,0.01543897249,1.704171812e-05,0.01644969842,1.821987584e-05
46,46.25,0.01548549526,1.706737284e-05,0.01641444089,1.820034149e-05
46.25,46.5,0.0155009776,1.707590181e-05,0.01647995411,1.823662404e-05
46.5,46.75,0.01552479537,1.708901529e-05,0.01650736012,1.825177941e-05
46.75,47,0.01548891821,1.706925844e-05,0.01650766157,1.825194533e-05
47,47.25,0.01555161991,1.710377047e-05,0.01646961897,1.823090416e-05
47.25,47.5,0.01554921193,1.710244625e-05,0.01651928593,1.825836985e-05
47.5,47.75,0.0155440581,1.709961237e-05,0.01654816814,1.827432374e-05
47.75,48,0.01556825069,1.711291289e-05,0.01656207159,1.828199731e-05
48,48.25,0.01555848743,1.710754669e-05,0.01656261677,1.828229837e-05
48.25,48.5,0.01557504233,1.711664517e-05,0.01659751291,1.8301547e-05
48.5,48.75,0.01560651695,1.71339309e-05,0.01660475849,1.830554109e-05
48.75,49,0.01560967455,1.713566243e-05,0.01662691811,1.831775054e-05
49,49.25,0.01562177339,1.714230278e-05,0.01665216688,1.833165285e-05
49.25,49.5,0.01566139038,1.716402286e-05,0.01665803881,1.833488381e-05
49.5,49.75,0.01563593782,1.715007126e-05,0.01672361169,1.837093291e-05
49.75,50,0.01568885646,1.717906572e-05,0.01669747623,1.835657367e-05
50,50.25,0.01568560121,1.717728303e-05,0.01674030118,1.838009587e-05
50.25,50.5,0.01571500672,1.719337626e-05,0.01673715596,1.837837107e-05
50.5,50.75,0.01570580576,1.718834161e-05,0.01680502689,1.841559264e-05
50.75,51,0.01574004606,1.720706716e-05,0.01676211746,1.839206742e-05
51,51.25,0.01575866657,1.721723927e-05,0.01677099699,1.839693743e-05
51.25,51.5,0.01572226724,1.719734666e-05,0.01683931473,1.84343676e-05
51.5,51.75,0.01577785762,1.722772024e-05,0.01684551171,1.843775961e-05
51.75,52,0.01578560786,1.723195043e-05,0.01686882339,1.845051244e-05
52,52.25,0.01581347064,1.724715119e-05,0.01686926533,1.845075295e-05
52.25,52.5,0.01579794828,1.723868383e-05,0.01687170731,1.84520882e-05
52.5,52.75,0.01579050173,1.72346225e-05,0.01688650058,1.846017511e-05
52.75,53,0.01583261915,1.72575881e-05,0.0169144518,1.847544501e-05
53,53.25,0.01583011885,1.725622645e-05,0.01694430286,1.849174032e-05
53.25,53.5,0.01586640759,1.727599226e-05,0.01693065994,1.848429515e-05
53.5,53.75,0.01586460122,1.727500868e-05,0.01694959115,1.849462587e-05
53.75,54,0.01589780609,1.729307683e-05,0.01694733171,1.849339367e-05
54,54.25,0.01586311649,1.727420122e-05,0.01699320407,1.851840245e-05
54.25,54.5,0.01589931017,1.729389432e-05,0.01698611976,1.851454209e-05
54.5,54.75,0.01593811946,1.73149861e-05,0.01702981279,1.853833638e-05
54.75,55,0.01591656122,1.730327317e-05,0.01704999642,1.854931884e-05
55,55.25,0.01594487323,1.731865406e-05,0.01705806813,1.855370807e-05
55.25,55.5,0.01597245348,1.733362536e-05,0.0170843474,1.85679943e-05
55.5,55.75,0.01596665919,1.733048128e-05,0.01708063383,1.856597621e-05
55.75,56,0.01598422974,1.734001345e-05,0.01712660765,1.859094269e-05
56,56.25,0.01600695498,1.735233433e-05,0.01711116911,1.85825626e-05
56.25,56.5,0.01600022035,1.734868403e-05,0.01715131216,1.860434593e-05
56.5,56.75,0.01602890794,1.73642278e-05,0.01712741481,1.85913806e-05
56.75,57,0.01605520919,1.737846785e-05,0.01719827366,1.862979523e-05
57,57.25,0.01604017588,1.73703292e-05,0.01716340035,1.861089987e-05
57.25,57.5,0.01604696919,1.737400792e-05,0.01715397586,1.860579033e-05
57.5,57.75,0.01607720038,1.739036439e-05,0.01721777036,1.864035143e-05
57.75,58,0.0160959935,1.740052439e-05,0.01723276522,1.864846574e-05
58,58.25,0.0161356685,1.742195455e-05,0.01728402835,1.867618027e-05
58.25,58.5,0.01613689212,1.742261551e-05,0.01726090132,1.866368316e-05
58.5,58.75,0.01611303682,1.74097331e-05,0.01727756974,1.867269066e-05
58.75,59,0.01613083252,1.741934314e-05,0.01728673277,1.867764127e-05
59,59.25,0.01617049045,1.744074192e-05,0.01730542126,1.868773375e-05
59.25,59.5,0.0161813828,1.74466145e-05,0.01738132679,1.872866997e-05
59.5,59.75,0.01618136557,1.744660594e-05,0.01732752101,1.869966156e-05
59.75,60,0.01621535698,1.746491812e-05,0.01737521145,1.872537525e-05
60,60.25,0.01621001637,1.746204315e-05,0.0174132948,1.874588343e-05
60.25,60.5,0.01622036291,1.746761461e-05,0.01740056134,1.873902953e-05
60.5,60.75,0.01628929115,1.75046862e-05,0.01742360871,1.875143423e-05
60.75,61,0.0163000889,1.751048621e-05,0.01741930927,1.874912032e-05
61,61.25,0.01630627716,1.751380888e-05,0.01745323438,1.876736681e-05
61.25,61.5,0.01633844846,1.753107704e-05,0.01748843383,1.878628157e-05
61.5,61.75,0.0163376376,1.753064092e-05,0.01751321642,1.879958597e-05
61.75,62,0.01633918043,1.753146876e-05,0.01749301619,1.878874296e-05
62,62.25,0.0163617564,1.754357587e-05,0.01753826342,1.881302399e-05
62.25,62.5,0.01635795372,1.754153587e-05,0.01760522716,1.884890194e-05
62.5,62.75,0.01637985336,1.75532742e-05,0.01757174548,1.883097164e-05
62.75,63,0.0163778576,1.755220397e-05,0.01758704407,1.883916691e-05
63,63.25,0.01639962625,1.75638653e-05,0.01760228104,1.884732504e-05
63.25,63.5,0.01640592733,1.756723841e-05,0.01763792339,1.886639587e-05
63.5,63.75,0.01644302488,1.758708701e-05,0.01765588662,1.88760004e-05
63.75,64,0.01648205989,1.7607948e-05,0.01763110034,1.88627459e-05
64,64.25,0.01647664282,1.760505495e-05,0.01766904312,1.888303018e-05
64.25,64.5,0.01645337235,1.759261974e-05,0.01768355518,1.889078298e-05
64.5,64.75,0.01647641513,1.760493224e-05,0.0177178847,1.890910894e-05
64.75,65,0.01650642332,1.76209567e-05,0.01772862023,1.891483559e-05
65,65.25,0.01650168265,1.761842646e-05,0.01775286147,1.892776293e-05
65.25,65.5,0.01651336408,1.762466021e-05,0.01776527252,1.893437693e-05
65.5,65.75,0.0165669425,1.76532271e-05,0.01776977214,1.89367739e-05
65.75,66,0.01656812812,1.765385898e-05,0.01779714051,1.895135067e-05
66,66.25,0.01655890786,1.764894525e-05,0.01780571939,1.895591806e-05
66.25,66.5,0.01659327949,1.766725212e-05,0.01779673623,1.895113508e-05
66.5,66.75,0.01658138864,1.766092054e-05,0.01783708039,1.897260158e-05
66.75,67,0.01662785428,1.768564604e-05,0.01787340648,1.899190863e-05
67,67.25,0.01665906582,1.77022363e-05,0.0178631146,1.898644079e-05
67.25,67.5,0.01665366594,1.769936702e-05,0.01790420639,1.90082648e-05
67.5,67.75,0.01665434433,1.769972799e-05,0.01788727275,1.899927406e-05
67.75,68,0.01667381485,1.771007033e-05,0.01790812213,1.901034332e-05
68,68.25,0.01667189525,1.770905049e-05,0.01794426788,1.902951703e-05
68.25,68.5,0.01670357675,1.772586814e-05,0.01793018053,1.902204637e-05
68.5,68.75,0.01669505422,1.772134561e-05,0.01796227057,1.903905967e-05
68.75,69,0.01673659183,1.774337541e-05,0.01797837576,1.90475923e-05
69,69.25,0.01672464343,1.773703995e-05,0.01803946635,1.907992343e-05
69.25,69.5,0.01674390971,1.774725366e-05,0.01800146447,1.905981832e-05
69.5,69.75,0.01673237739,1.774114126e-05,0.01810039608,1.911211538e-05
69.75,70,0.01675726692,1.775433074e-05,0.01805337401,1.908727748e-05
70,70.25,0.01678407397,1.776852454e-05,0.0180592042,1.909035771e-05
70.25,70.5,0.01683522639,1.77955788e-05,0.01811329492,1.911892481e-05
70.5,70.75,0.01676723787,1.775961174e-05,0.01807559307,1.909901789e-05
70.75,71,0.01681003403,1.778225896e-05,0.01812782494,1.912659032e-05
71,71.25,0.01684500885,1.780074796e-05,0.01812402956,1.912458766e-05
71.25,71.5,0.01687134304,1.78146538e-05,0.01812956062,1.912750591e-05
71.5,71.75,0.01684624856,1.780140185e-05,0.01813692695,1.913139096e-05
71.75,72,0.01688810631,1.782350185e-05,0.01813351738,1.912959344e-05
72,72.25,0.01690007144,1.782981441e-05,0.01814784713,1.913714992e-05
72.25,72.5,0.01689374859,1.782647799e-05,0.01817991688,1.915405022e-05
72.5,72.75,0.01689946883,1.782949621e-05,0.01822623036,1.917842767e-05
72.75,73,0.01692648322,1.784373972e-05,0.01820673595,1.916817017e-05
73,73.25,0.01692791361,1.784449394e-05,0.01823109577,1.918098789e-05
73.25,73.5,0.0169376773,1.784963893e-05,0.01823531539,1.918320815e-05
73.5,73.75,0.01693780886,1.784970825e-05,0.01825039223,1.919113645e-05
73.75,74,0.0169563011,1.785944849e-05,0.01824504271,1.91883232e-05
74,74.25,0.01698986044,1.78771106e-05,0.01827008729,1.920148651e-05
74.25,74.5,0.01698577986,1.78749647e-05,0.01829915174,1.921675325e-05
74.5,74.75,0.01696845502,1.786584799e-05,0.01831156239,1.922326742e-05
74.75,75,0.0169816983,1.787281756e-05,0.01834092927,1.923867535e-05
75,75.25,0.01704407972,1.790561181e-05,0.01834304698,1.923978514e-05
75.25,75.5,0.01699802596,1.788140617e-05,0.01830052263,1.921747222e-05
75.5,75.75,0.01700653017,1.788587892e-05,0.0183562883,1.924672853e-05
75.75,76,0.01702489172,1.789553125e-05,0.01836137221,1.92493924e-05
76,76.25,0.01706793196,1.791813441e-05,0.01833899053,1.923765788e-05
76.25,76.5,0.01702028295,1.789310923e-05,0.0183686399,1.925320228e-05
76.5,76.75,0.01708223104,1.792563873e-05,0.01836746745,1.925258685e-05
76.75,77,0.01707596553,1.792235079e-05,0.01838809307,1.926339239e-05
77,77.25,0.01706584409,1.791703855e-05,0.01839749758,1.926831724e-05
77.25,77.5,0.01707227983,1.792041747e-05,0.01842466306,1.928253661e-05
77.5,77.75,0.01709143107,1.79304651e-05,0.01842143356,1.928084655e-05
77.75,78,0.01707555256,1.792213457e-05,0.01845986018,1.930094383e-05
78,78.25,0.01713022089,1.795079828e-05,0.01846859939,1.930551187e-05
78.25,78.5,0.01708872041,1.792904255e-05,0.01845533993,1.929858112e-05
78.5,78.75,0.01711701493,1.794387843e-05,0.01843519775,1.928804777e-05
78.75,79,0.01706451007,1.791633928e-05,0.01844175567,1.929147711e-05
79,79.25,0.01713912051,1.795546088e-05,0.01845455507,1.929817191e-05
79.25,79.5,0.01713178244,1.795161642e-05,0.01844837968,1.929494322e-05
79.5,79.75,0.01714717436,1.79596799e-05,0.01849895438,1.932136965e-05
79.75,80,0.01718605644,1.798002724e-05,0.01851645114,1.933050343e-05
80,80.25,0.01716837204,1.797077456e-05,0.01849719745,1.932045167e-05
80.25,80.5,0.01716519214,1.796911e-05,0.01855574541,1.935100138e-05
80.5,80.75,0.01720863128,1.799183116e-05,0.01853336296,1.933932781e-05
80.75,81,0.0171814274,1.797760517e-05,0.01853832807,1.93419181e-05
81,81.25,0.01712982531,1.795059071e-05,0.01853719936,1.934133009e-05
81.25,81.5,0.01717072449,1.797200608e-05,0.01855550383,1.935087579e-05
81.5,81.75,0.01719183043,1.798304636e-05,0.01855925986,1.935283516e-05
81.75,82,0.01718133526,1.797755799e-05,0.01855396897,1.935007497e-05
82,82.25,0.01719361865,1.798398198e-05,0.01854240726,1.934404703e-05
82.25,82.5,0.01718767374,1.798087288e-05,0.01858026884,1.936378443e-05
82.5,82.75,0.01719527557,1.798484918e-05,0.01858668579,1.936712709e-05
82.75,83,0.01719064596,1.798242733e-05,0.0186088656,1.937867799e-05
83,83.25,0.01721444407,1.799486925e-05,0.01859713985,1.937257215e-05
83.25,83.5,0.01722674387,1.80012944e-05,0.01858850197,1.936807307e-05
83.5,83.75,0.0172465002,1.801161461e-05,0.01855877347,1.935258064e-05
83.75,84,0.01723340598,1.80047759e-05,0.01860511129,1.937672299e-05
84,84.25,0.01724937679,1.801311564e-05,0.01858890788,1.936828562e-05
84.25,84.5,0.01728273484,1.803052508e-05,0.01858315379,1.936528688e-05
84.5,84.75,0.01724652103,1.801162652e-05,0.01861298273,1.938082133e-05
84.75,85,0.01724823073,1.801251808e-05,0.01858474715,1.936611647e-05
85,85.25,0.01725974423,1.801852848e-05,0.01860614194,1.937726025e-05
85.25,85.5,0.01725133599,1.801413988e-05,0.01862458731,1.938686146e-05
85.5,85.75,0.01725425043,1.801566055e-05,0.01862145887,1.938523313e-05
85.75,86,0.01728006123,1.802912938e-05,0.01862924821,1.938928631e-05
86,86.25,0.01726362054,1.802055204e-05,0.01863809004,1.939388761e-05
86.25,86.5,0.01726053342,1.801893992e-05,0.01862458824,1.938686245e-05
86.5,86.75,0.0172827879,1.803055099e-05,0.01863302146,1.939124918e-05
86.75,87,0.01726525753,1.802140648e-05,0.01864380147,1.939685864e-05
87,87.25,0.01726931884,1.802352464e-05,0.01867066304,1.941082519e-05
87.25,87.5,0.01730378408,1.804149984e-05,0.01865474002,1.940254743e-05
87.5,87.75,0.01731354586,1.804658671e-05,0.01865843476,1.940446936e-05
87.75,88,0.01729561832,1.803724214e-05,0.0186707229,1.941085591e-05
88,88.25,0.01726841602,1.802305368e-05,0.01864079395,1.939529399e-05
88.25,88.5,0.0172763929,1.802721576e-05,0.01861855372,1.938372164e-05
88.5,88.75,0.01727693759,1.802749955e-05,0.01861191321,1.938026464e-05
88.75,89,0.0172542133,1.801564144e-05,0.01867593038,1.941356277e-05
89,89.25,0.01728980429,1.803420998e-05,0.01865088543,1.940054301e-05
89.25,89.5,0.01729475448,1.803679256e-05,0.01865029919,1.940023763e-05
89.5,89.75,0.01729723733,1.803808686e-05,0.01863671974,1.939317587e-05
89.75,90,0.01728858384,1.803357475e-05,0.01866125819,1.94059362e-05
90,90.25,0.01726787057,1.802276913e-05,0.01861243804,1.938053793e-05
90.25,90.5,0.01726416552,1.802083619e-05,0.01865292352,1.940160272e-05
90.5,90.75,0.01728348422,1.803091438e-05,0.01864876524,1.939943983e-05
90.75,91,0.01727818097,1.802814907e-05,0.01867476115,1.941295571e-05
91,91.25,0.01727729724,1.80276883e-05,0.01868616351,1.941888053e-05
91.25,91.5,0.01727689971,1.802747953e-05,0.01864618312,1.939809746e-05
91.5,91.75,0.01726318658,1.802032489e-05,0.01865871498,1.940461374e-05
91.75,92,0.01727247854,1.802517292e-05,0.01864894813,1.939953566e-05
92,92.25,0.01726294163,1.802019694e-05,0.01862375685,1.938642753e-05
92.25,92.5,0.01728911041,1.803384928e-05,0.01862059386,1.938478437e-05
92.5,92.75,0.01725944186,1.801836991e-05,0.01869141175,1.942160764e-05
92.75,93,0.01728372998,1.803104317e-05,0.0186637607,1.940723712e-05
93,93.25,0.01728341041,1.803087661e-05,0.01861419243,1.938145041e-05
93.25,93.5,0.01727082379,1.802430991e-05,0.01863316574,1.93913258e-05
93.5,93.75,0.01723348091,1.800481492e-05,0.01863964256,1.939469456e-05
93.75,94,0.01724798699,1.80123912e-05,0.01862246881,1.938575918e-05
94,94.25,0.01724960472,1.801323574e-05,0.0186162921,1.938254381e-05
94.25,94.5,0.01726262234,1.802003058e-05,0.01859479808,1.937135219e-05
94.5,94.75,0.01728408764,1.803122977e-05,0.01861796819,1.938341668e-05
94.75,95,0.01723372779,1.800494502e-05,0.01863752458,1.939359333e-05
95,95.25,0.01722396125,1.799984136e-05,0.01860914669,1.937882348e-05
95.25,95.5,0.01724898163,1.801290926e-05,0.01859633519,1.93721545e-05
95.5,95.75,0.01724800712,1.801240236e-05,0.01856832085,1.935755797e-05
95.75,96,0.01718153924,1.797766315e-05,0.01857637288,1.93617539e-05
96,96.25,0.01725105365,1.801399237e-05,0.01857724126,1.936220669e-05
96.25,96.5,0.01719096454,1.798259319e-05,0.01860125774,1.9374717e-05
96.5,96.75,0.01726042118,1.801888171e-05,0.01858916709,1.936841899e-05
96.75,97,0.01722424479,1.799999029e-05,0.0185667041,1.935671411e-05
97,97.25,0.01721988171,1.799771124e-05,0.01859620989,1.937208691e-05
97.25,97.5,0.01719021438,1.798220217e-05,0.01855972165,1.935307458e-05
97.5,97.75,0.01720108746,1.798788745e-05,0.0185579259,1.935213857e-05
97.75,98,0.01722680416,1.800132796e-05,0.01854636097,1.934610797e-05
98,98.25,0.01716822156,1.797069577e-05,0.01857663521,1.936189061e-05
98.25,98.5,0.0171958737,1.798515993e-05,0.01856060996,1.935353793e-05
98.5,98.75,0.01718093925,1.797735033e-05,0.01854763153,1.934677016e-05
98.75,99,0.01720215788,1.798844605e-05,0.01853390816,1.933961236e-05
99,99.25,0.01718244506,1.797813842e-05,0.01852181985,1.933330542e-05
99.25,99.5,0.01719850932,1.798653911e-05,0.01853281996,1.933904557e-05
99.5,99.75,0.01718755896,1.798081178e-05,0.01849257546,1.931803776e-05
99.75,100,0.01714687074,1.795951952e-05,0.01850062845,1.932224324e-05
100,100.25,0.01715356573,1.796302387e-05,0.01850355688,1.932377338e-05
100.25,100.5,0.01712450158,1.794780139e-05,0.0184958257,1.931973562e-05
100.5,100.75,0.01713518856,1.79534013e-05,0.01849118498,1.931731267e-05
100.75,101,0.0171232025,1.794712022e-05,0.01846573611,1.930401667e-05
101,101.25,0.01713456715,1.795307546e-05,0.01844577349,1.929357914e-05
101.25,101.5,0.01712013586,1.7945513e-05,0.01847180816,1.93071886e-05
101.5,101.75,0.01709650756,1.793312614e-05,0.01844153644,1.929136392e-05
101.75,102,0.01711090257,1.794067545e-05,0.01844157512,1.929138319e-05
102,102.25,0.01709925698,1.793456935e-05,0.01845552287,1.929867741e-05
102.25,102.5,0.01710296137,1.793651088e-05,0.01843866898,1.928986338e-05
102.5,102.75,0.01708492129,1.792705015e-05,0.01842589405,1.928318065e-05
102.75,103,0.01705401135,1.791082676e-05,0.01843669269,1.928883045e-05
103,103.25,0.01705613822,1.79119441e-05,0.01839907263,1.926914239e-05
103.25,103.5,0.01706362729,1.791587669e-05,0.01838855673,1.926363495e-05
103.5,103.75,0.01707365417,1.792113912e-05,0.0183957418,1.926739789e-05
103.75,104,0.01705820813,1.791303115e-05,0.01840403813,1.927174245e-05
104,104.25,0.01701141961,1.788844867e-05,0.01833249229,1.92342498e-05
104.25,104.5,0.01703566865,1.790119254e-05,0.01834379235,1.92401753e-05
104.5,104.75,0.0169889977,1.787665812e-05,0.01833158199,1.923377119e-05
104.75,105,0.01700160135,1.788328708e-05,0.01828252072,1.920801903e-05
105,105.25,0.01700175332,1.788336779e-05,0.01832950471,1.923268216e-05
105.25,105.5,0.01700438672,1.788475243e-05,0.01830714275,1.922094773e-05
105.5,105.75,0.01697906331,1.787143034e-05,0.01827188446,1.920243127e-05
105.75,106,0.01696026999,1.78615381e-05,0.01827697225,1.920510521e-05
106,106.25,0.01695295186,1.785768443e-05,0.01826288273,1.919770073e-05
106.25,106.5,0.01693158022,1.784642526e-05,0.01825703173,1.919462648e-05
106.5,106.75,0.01690970035,1.783489083e-05,0.01824694009,1.918932095e-05
106.75,107,0.01694546577,1.785374205e-05,0.01820171245,1.916552689e-05
107,107.25,0.01692025582,1.784045704e-05,0.01819111586,1.915994721e-05
107.25,107.5,0.01692887217,1.784499866e-05,0.01819944946,1.916433421e-05
107.5,107.75,0.01693000124,1.784559381e-05,0.01815704726,1.914199823e-05
107.75,108,0.01687282828,1.781543737e-05,0.01817809876,1.915309156e-05
108,108.25,0.01687230307,1.78151609e-05,0.01814588636,1.913611452e-05
108.25,108.5,0.01685211857,1.780450302e-05,0.01816233551,1.914478557e-05
108.5,108.75,0.01683456732,1.779523022e-05,0.01814487874,1.913558408e-05
108.75,109,0.0168527189,1.780481924e-05,0.01813442314,1.913006989e-05
109,109.25,0.01681970226,1.778737071e-05,0.01809718994,1.911042432e-05
109.25,109.5,0.01681517254,1.778497775e-05,0.01810352525,1.911376774e-05
109.5,109.75,0.01682589455,1.7790646e-05,0.0180638873,1.909283296e-05
109.75,110,0.01680051341,1.777722225e-05,0.01808919685,1.910620332e-05
110,110.25,0.016753315,1.775223654e-05,0.01805195913,1.908652846e-05
110.25,110.5,0.01675747273,1.775443911e-05,0.0180075779,1.906305332e-05
110.5,110.75,0.01675004139,1.775050202e-05,0.01802231218,1.90708506e-05
110.75,111,0.01669734881,1.7722563e-05,0.01801143354,1.90650943e-05
111,111.25,0.01672315895,1.77362537e-05,0.01799553145,1.905667767e-05
111.25,111.5,0.01669847986,1.772316435e-05,0.01797869828,1.904776284e-05
111.5,111.75,0.01668214762,1.771449413e-05,0.01797076911,1.904356366e-05
111.75,112,0.01667627874,1.771137843e-05,0.01795216027,1.903370162e-05
112,112.25,0.01667135047,1.77087617e-05,0.0179589409,1.903729528e-05
112.25,112.5,0.01663950271,1.769184109e-05,0.01791588902,1.901446325e-05
112.5,112.75,0.01663822128,1.769115869e-05,0.01787764746,1.899416282e-05
112.75,113,0.01664379054,1.769411948e-05,0.01784723144,1.897799874e-05
113,113.25,0.01660970261,1.767599217e-05,0.01788729252,1.899928432e-05
113.25,113.5,0.01658633489,1.766355342e-05,0.01785048213,1.897972755e-05
113.5,113.75,0.01657497376,1.765750426e-05,0.0178407731,1.897456495e-05
113.75,114,0.01659000692,1.766551042e-05,0.01779425466,1.894981431e-05
114,114.25,0.01654683127,1.764250935e-05,0.0178189762,1.89629713e-05
114.25,114.5,0.01652517789,1.76309627e-05,0.01780404296,1.895502515e-05
114.5,114.75,0.01656660381,1.765304661e-05,0.01776767525,1.893565773e-05
114.75,115,0.01648520203,1.760962643e-05,0.01773754384,1.891959653e-05
115,115.25,0.01650117418,1.761815466e-05,0.01770942694,1.890459484e-05
115.25,115.5,0.01648360333,1.760877284e-05,0.01771855079,1.890946434e-05
115.5,115.75,0.01648123157,1.760750528e-05,0.01765802387,1.887714168e-05
115.75,116,0.01647325663,1.760324599e-05,0.01766633968,1.888158609e-05
116,116.25,0.01648903963,1.761167579e-05,0.01765838526,1.887733382e-05
116.25,116.5,0.01640474113,1.756660273e-05,0.01767364612,1.888549018e-05
116.5,116.75,0.01639766691,1.756281467e-05,0.01762331139,1.885858001e-05
116.75,117,0.01637411541,1.755019956e-05,0.01761626687,1.885481024e-05
117,117.25,0.01638892026,1.755813082e-05,0.01757921271,1.883497201e-05
117.25,117.5,0.0163520469,1.753836885e-05,0.01753574037,1.881167066e-05
117.5,117.75,0.01634362115,1.753385129e-05,0.01753497382,1.881125967e-05
117.75,118,0.0163758838,1.755114717e-05,0.01753055331,1.880888829e-05
118,118.25,0.01634516461,1.753467959e-05,0.01754003809,1.881397502e-05
118.25,118.5,0.01634320775,1.753362977e-05,0.0175060913,1.879576127e-05
118.5,118.75,0.01630511003,1.751318174e-05,0.01747763605,1.878048145e-05
118.75,119,0.01627732573,1.749825603e-05,0.01747226581,1.877759514e-05
119,119.25,0.01626639716,1.749238222e-05,0.01746809264,1.87753553e-05
119.25,119.5,0.01627091205,1.749480937e-05,0.0174611683,1.87716329e-05
119.5,119.75,0.01622374716,1.746943546e-05,0.01741757447,1.874818721e-05
119.75,120,0.01620990374,1.746198274e-05,0.0174030431,1.874036542e-05
120,120.25,0.01621780311,1.746623564e-05,0.01739446437,1.873574544e-05
120.25,120.5,0.01620723206,1.746054361e-05,0.01736643216,1.872064423e-05
120.5,120.75,0.01616486464,1.743770749e-05,0.01734112346,1.870699903e-05
120.75,121,0.0161488395,1.742906428e-05,0.01733819768,1.870542143e-05
121,121.25,0.01617361495,1.744242762e-05,0.01731234517,1.869147222e-05
121.25,121.5,0.01613828269,1.742336525e-05,0.01729026658,1.867955107e-05
121.5,121.75,0.01610222182,1.740389116e-05,0.01725730818,1.866174024e-05
121.75,122,0.01608993541,1.739724947e-05,0.01725361377,1.865974218e-05
122,122.25,0.01609285137,1.739882582e-05,0.01725210022,1.865892381e-05
122.25,122.5,0.0160879794,1.739619239e-05,0.01724661027,1.865595482e-05
122.5,122.75,0.01605394721,1.7377784e-05,0.01719345115,1.862718377e-05
122.75,123,0.01603417627,1.736708145e-05,0.01718749625,1.862395743e-05
123,123.25,0.01605167028,1.737655136e-05,0.01719066628,1.862567549e-05
123.25,123.5,0.01602016083,1.735949e-05,0.01714658791,1.860178292e-05
123.5,123.75,0.01601312542,1.735567829e-05,0.01716531978,1.861194166e-05
123.75,124,0.01600956914,1.735375074e-05,0.01711627626,1.858533587e-05
124,124.25,0.01598973955,1.734300036e-05,0.01708358176,1.856757892e-05
124.25,124.5,0.01599169723,1.734406254e-05,0.01706392342,1.85568932e-05
124.5,124.75,0.0159442921,1.731833956e-05,0.01706916992,1.855974508e-05
124.75,125,0.01594773405,1.732020824e-05,0.01703296356,1.854005238e-05
125,125.25,0.01592122617,1.73058082e-05,0.01703911954,1.854340236e-05
125.25,125.5,0.01594718865,1.731991222e-05,0.0170304403,1.853867888e-05
125.5,125.75,0.01592449969,1.730758711e-05,0.01701518258,1.853037324e-05
125.75,126,0.01589507784,1.72915928e-05,0.0169658984,1.850351979e-05
126,126.25,0.01586345429,1.727438465e-05,0.01693576449,1.848708037e-05
126.25,126.5,0.01586471485,1.727507104e-05,0.01694032722,1.848957124e-05
126.5,126.75,0.01586205982,1.727362416e-05,0.01694559489,1.849244552e-05
126.75,127,0.01584795221,1.726594246e-05,0.01692109464,1.847907389e-05
127,127.25,0.0158644331,1.727491784e-05,0.01691380901,1.847509567e-05
127.25,127.5,0.01582193465,1.725176499e-05,0.01690450527,1.847001421e-05
127.5,127.75,0.01577904504,1.722836972e-05,0.01686894305,1.845057703e-05
127.75,128,0.01584733123,1.726560416e-05,0.0168479531,1.843909519e-05
128,128.25,0.0157933969,1.723620124e-05,0.01683887166,1.84341255e-05
128.25,128.5,0.01578000261,1.722889142e-05,0.01682698516,1.842761915e-05
128.5,128.75,0.0157754307,1.722639535e-05,0.01682849806,1.842844702e-05
128.75,129,0.01572520076,1.719895022e-05,0.01679923342,1.841241762e-05
129,129.25,0.01571336943,1.719248022e-05,0.0167480321,1.83843398e-05
129.25,129.5,0.01572964347,1.7201381e-05,0.01678191719,1.840292636e-05
129.5,129.75,0.01571667909,1.719428988e-05,0.01674623487,1.838335301e-05
129.75,130,0.0157147622,1.719324252e-05,0.01671935369,1.836859439e-05
130,130.25,0.01568136996,1.717496723e-05,0.01671135973,1.836420198e-05
130.25,130.5,0.0156957596,1.718284384e-05,0.01668808861,1.835141166e-05
130.5,130.75,0.01563339793,1.714867833e-05,0.01667836399,1.834606592e-05
130.75,131,0.01561366281,1.713785121e-05,0.01662780648,1.831824009e-05
131,131.25,0.01564063963,1.715264867e-05,0.01664768594,1.832918611e-05
131.25,131.5,0.0156021513,1.713153386e-05,0.01661638237,1.83119462e-05
131.5,131.75,0.0155764151,1.711739912e-05,0.01658399042,1.82940904e-05
131.75,132,0.01557895556,1.711879533e-05,0.01658165135,1.829280147e-05
132,132.25,0.01555444191,1.710532207e-05,0.01653117547,1.826493984e-05
132.25,132.5,0.01552413663,1.708865261e-05,0.01654653349,1.82734213e-05
132.5,132.75,0.01552530137,1.708929275e-05,0.01653313243,1.826602056e-05
132.75,133,0.01553026883,1.709202688e-05,0.01651722872,1.825723369e-05
133,133.25,0.0155004148,1.707559279e-05,0.01648213178,1.823782773e-05
133.25,133.5,0.01553388116,1.709401456e-05,0.01648116303,1.823729176e-05
133.5,133.75,0.01548335183,1.706619234e-05,0.01646665345,1.822926356e-05
133.75,134,0.01548931496,1.706947789e-05,0.01643871965,1.821379539e-05
134,134.25,0.0154853643,1.706730114e-05,0.01643296929,1.821061051e-05
134.25,134.5,0.01543784293,1.704109432e-05,0.01640725654,1.819635858e-05
134.5,134.75,0.01546850727,1.705800916e-05,0.01638394612,1.818342882e-05
134.75,135,0.01544286713,1.704386761e-05,0.01639437968,1.81892169e-05
135,135.25,0.01547575169,1.706200367e-05,0.0163634001,1.817202452e-05
135.25,135.5,0.01545554509,1.705086085e-05,0.0164070743,1.819625719e-05
135.5,135.75,0.01542819131,1.70357664e-05,0.01638457157,1.818377576e-05
135.75,136,0.01538784005,1.701347641e-05,0.01636745674,1.817427667e-05
136,136.25,0.01538052252,1.700943115e-05,0.01636755735,1.817433237e-05
136.25,136.5,0.01535760872,1.699675706e-05,0.0163239251,1.815009464e-05
136.5,136.75,0.01538435963,1.701155224e-05,0.01630723334,1.814081293e-05
136.75,137,0.015388857,1.701403914e-05,0.01630785878,1.814116061e-05
137,137.25,0.01537933618,1.70087746e-05,0.01628360007,1.812766385e-05
137.25,137.5,0.01535926452,1.699767328e-05,0.01629522492,1.813413277e-05
137.5,137.75,0.01536426771,1.700044084e-05,0.01626902766,1.811955083e-05
137.75,138,0.01535380818,1.699465376e-05,0.01627484079,1.812278786e-05
138,138.25,0.01537111668,1.700423011e-05,0.01628826207,1.813025838e-05
138.25,138.5,0.01533176126,1.698244943e-05,0.0162748211,1.812277716e-05
138.5,138.75,0.01532549505,1.697897792e-05,0.01625362994,1.811097556e-05
138.75,139,0.01535070541,1.699293728e-05,0.01624729227,1.810744435e-05
139,139.25,0.01536494617,1.70008168e-05,0.0162752659,1.812302524e-05
139.25,139.5,0.01534319973,1.698878302e-05,0.01623114755,1.80984468e-05
139.5,139.75,0.01537892262,1.700854616e-05,0.01625712168,1.811292088e-05
139.75,140,0.01533887183,1.698638645e-05,0.01624660621,1.810706212e-05
140,140.25,0.0153571381,1.699649648e-05,0.01627871596,1.812494527e-05
140.25,140.5,0.0153896845,1.701449639e-05,0.01621455604,1.808919397e-05
140.5,140.75,0.01536866853,1.700287455e-05,0.01626101514,1.811508867e-05
140.75,141,0.01537941044,1.70088151e-05,0.01626353955,1.811649546e-05
141,141.25,0.01536850118,1.700278306e-05,0.01627758598,1.812431632e-05
141.25,141.5,0.0153750851,1.700642417e-05,0.01624828225,1.810799645e-05
141.5,141.75,0.01540317263,1.702195005e-05,0.01624660473,1.810706051e-05
141.75,142,0.01539692731,1.701849933e-05,0.01624945342,1.810864945e-05
142,142.25,0.01539816818,1.701918467e-05,0.01626260971,1.811597679e-05
142.25,142.5,0.01545161406,1.704869289e-05,0.01626353923,1.81164951e-05
142.5,142.75,0.01541293616,1.70273435e-05,0.01627625387,1.812357467e-05
142.75,143,0.01542173886,1.703220399e-05,0.01632676925,1.815167472e-05
143,143.25,0.01547268622,1.706031431e-05,0.01626028832,1.811468364e-05
143.25,143.5,0.01548393456,1.706651321e-05,0.01633165579,1.815439203e-05
143.5,143.75,0.01550912422,1.70803885e-05,0.0163262635,1.815139301e-05
143.75,144,0.0155251144,1.708919058e-05,0.01636632812,1.817365107e-05
144,144.25,0.01551499189,1.708361808e-05,0.01639607686,1.819015929e-05
144.25,144.5,0.01554170799,1.709832056e-05,0.01639742887,1.819090915e-05
144.5,144.75,0.01556943792,1.71135665e-05,0.01646624978,1.822904013e-05
144.75,145,0.01558185319,1.712038745e-05,0.0164330894,1.821067654e-05
145,145.25,0.01564370715,1.715433107e-05,0.01649799615,1.824660269e-05
145.25,145.5,0.01565407126,1.71600114e-05,0.0164521619,1.82212407e-05
145.5,145.75,0.0156869005,1.71779951e-05,0.01648806696,1.824111169e-05
145.75,146,0.01567474568,1.717133822e-05,0.01653387837,1.826643213e-05
146,146.25,0.01574822928,1.721153913e-05,0.01655448683,1.827781303e-05
146.25,146.5,0.01577834694,1.722798747e-05,0.01659224504,1.829864249e-05
146.5,146.75,0.01582308189,1.725239029e-05,0.01662219384,1.831514733e-05
146.75,147,0.01582806703,1.725510747e-05,0.01665787895,1.833479672e-05
147,147.25,0.01586934288,1.727759046e-05,0.01669156074,1.835332083e-05
147.25,147.5,0.01589018803,1.728893385e-05,0.01673319789,1.837619673e-05
147.5,147.75,0.01590548029,1.729724922e-05,0.0167248406,1.83716066e-05
147.75,148,0.01598293019,1.733930778e-05,0.01679798284,1.841173268e-05
148,148.25,0.01601425497,1.735629077e-05,0.01684004137,1.843476529e-05
148.25,148.5,0.01607586499,1.738964231e-05,0.01688853904,1.846128921e-05
148.5,148.75,0.0160936979,1.73992834e-05,0.01693528149,1.848681747e-05
148.75,149,0.01615214702,1.743084703e-05,0.01696230854,1.850156371e-05
149,149.25,0.01620508511,1.745938583e-05,0.01701221452,1.852875635e-05
149.25,149.5,0.01628443689,1.750207767e-05,0.01704474798,1.854646326e-05
149.5,149.75,0.01629455783,1.750751518e-05,0.01710475049,1.857907697e-05
149.75,150,0.01635308149,1.753892361e-05,0.01717769037,1.861864583e-05
150,150.25,0.01641602762,1.757264363e-05,0.01720529872,1.863360029e-05
150.25,150.5,0.01649359266,1.761410707e-05,0.01730536194,1.868770224e-05
150.5,150.75,0.01653650321,1.763700286e-05,0.0173507095,1.871216832e-05
150.75,151,0.01658389104,1.766225328e-05,0.01743499301,1.875755947e-05
151,151.25,0.01665464565,1.769988836e-05,0.01746746372,1.877501547e-05
151.25,151.5,0.01670884498,1.77286634e-05,0.01754199588,1.881502493e-05
151.5,151.75,0.01676428237,1.775804559e-05,0.01758417839,1.883763224e-05
151.75,152,0.01688436374,1.782152761e-05,0.01766676305,1.888181208e-05
152,152.25,0.01691340765,1.783684645e-05,0.01774965315,1.892605302e-05
152.25,152.5,0.01699704948,1.788089354e-05,0.01780260917,1.895426147e-05
152.5,152.75,0.01709571979,1.793271424e-05,0.01789875559,1.900537051e-05
152.75,153,0.01716545699,1.796924945e-05,0.01797421718,1.904538877e-05
153,153.25,0.0172721581,1.802500536e-05,0.01806489645,1.909336627e-05
153.25,153.5,0.01738021888,1.808129916e-05,0.0181419932,1.913406282e-05
153.5,153.75,0.01742280741,1.810343558e-05,0.0182174936,1.917383199e-05
153.75,154,0.01751835892,1.815300716e-05,0.01831400558,1.922455027e-05
154,154.25,0.01761179971,1.820135132e-05,0.01841493637,1.927744723e-05
154.25,154.5,0.01771223711,1.825317167e-05,0.0184807694,1.931187095e-05
154.5,154.75,0.01776278706,1.827919826e-05,0.01861859292,1.938374148e-05
154.75,155,0.01792334805,1.836161805e-05,0.01870907004,1.943077818e-05
155,155.25,0.01801137169,1.840664704e-05,0.0188414037,1.949936966e-05
155.25,155.5,0.01811077658,1.845736587e-05,0.01895573688,1.955843839e-05
155.5,155.75,0.0182207919,1.851333649e-05,0.01903362045,1.959857388e-05
155.75,156,0.01835998388,1.858390831e-05,0.01914193669,1.96542545e-05
156,156.25,0.01845893746,1.863391688e-05,0.01926074947,1.971515131e-05
156.25,156.5,0.01859722549,1.870357859e-05,0.01940458848,1.978862415e-05
156.5,156.75,0.01869343249,1.875189048e-05,0.0195110902,1.984284976e-05
156.75,157,0.01884176606,1.882613413e-05,0.01965991206,1.99183744e-05
157,157.25,0.01899401683,1.890203718e-05,0.01982112608,1.999986608e-05
157.25,157.5,0.01912043484,1.896482907e-05,0.01991840591,2.004888084e-05
157.5,157.75,0.01924510246,1.902654816e-05,0.02007798399,2.012902357e-05
157.75,158,0.01936717965,1.908679417e-05,0.02024458888,2.021235774e-05
158,158.25,0.01954062834,1.917206328e-05,0.02036334062,2.027154662e-05
158.25,158.5,0.01971500049,1.925740646e-05,0.02054782641,2.036315803e-05
158.5,158.75,0.01986519743,1.933061482e-05,0.02069707023,2.043696657e-05
158.75,159,0.02003464015,1.941287268e-05,0.0208682977,2.052132288e-05
159,159.25,0.02016327908,1.947508989e-05,0.02104351854,2.060728762e-05
159.25,159.5,0.02037128769,1.957527655e-05,0.02122142559,2.069420561e-05
159.5,159.75,0.02056266385,1.966700004e-05,0.02140090432,2.078152178e-05
159.75,160,0.02075212513,1.975738806e-05,0.02155503537,2.085621488e-05
160,160.25,0.02088416983,1.982013957e-05,0.02175328583,2.095189752e-05
160.25,160.5,0.02111505278,1.992938595e-05,0.02195300624,2.104784801e-05
160.5,160.75,0.02133581448,2.003328578e-05,0.02223426521,2.118223597e-05
160.75,161,0.02151475853,2.011711149e-05,0.02239832635,2.126023342e-05
161,161.25,0.0217205285,2.021307346e-05,0.02260797783,2.135948999e-05
161.25,161.5,0.02198519839,2.033583673e-05,0.0228737973,2.148467947e-05
161.5,161.75,0.02216523324,2.041892202e-05,0.02306865475,2.157598673e-05
161.75,162,0.02244307053,2.054648152e-05,0.02331631047,2.16914804e-05
162,162.25,0.02267596935,2.065280355e-05,0.0235878027,2.181738805e-05
162.25,162.5,0.0229078296,2.075810857e-05,0.0238197548,2.19243841e-05
162.5,162.75,0.02318143684,2.088169178e-05,0.02410561354,2.20555324e-05
162.75,163,0.02345643663,2.100517119e-05,0.02437278472,2.217740596e-05
163,163.25,0.02375523205,2.113851625e-05,0.02470163495,2.232650255e-05
163.25,163.5,0.02401722921,2.125474989e-05,0.02494696728,2.243708604e-05
163.5,163.75,0.02426512339,2.1364147e-05,0.02524975862,2.25728222e-05
163.75,164,0.02462812593,2.152333561e-05,0.02558771002,2.272336347e-05
164,164.25,0.02490790475,2.164522943e-05,0.02588010853,2.285281179e-05
164.25,164.5,0.02528140445,2.180689186e-05,0.02622899819,2.300631664e-05
164.5,164.75,0.02562482275,2.19544829e-05,0.02663106847,2.31819587e-05
164.75,165,0.02599446566,2.211224324e-05,0.02702084529,2.335096772e-05
165,165.25,0.0263242818,2.225206082e-05,0.02736006596,2.349706544e-05
165.25,165.5,0.02671153706,2.241511659e-05,0.02775876583,2.366762767e-05
165.5,165.75,0.02707173559,2.256572021e-05,0.02816113569,2.383852078e-05
165.75,166,0.02753032488,2.275602009e-05,0.02859137903,2.40199071e-05
166,166.25,0.02795192856,2.2929578e-05,0.0289892695,2.418644228e-05
166.25,166.5,0.02841433415,2.311843238e-05,0.02949360087,2.439589316e-05
166.5,166.75,0.02888323274,2.330837626e-05,0.02998988096,2.460025938e-05
166.75,167,0.02933715799,2.349079161e-05,0.03048765406,2.480354771e-05
167,167.25,0.02986426105,2.370085038e-05,0.03102605033,2.502156465e-05
167.25,167.5,0.0303677323,2.389976516e-05,0.03153054394,2.522414326e-05
167.5,167.75,0.03094072185,2.412415191e-05,0.03207937737,2.544269348e-05
167.75,168,0.03155144655,2.436103818e-05,0.03268413781,2.568136024e-05
168,168.25,0.03210733031,2.457466552e-05,0.03324636849,2.590126671e-05
168.25,168.5,0.032753704,2.482075597e-05,0.03390858662,2.615791101e-05
168.5,168.75,0.03344629874,2.508176225e-05,0.03460087484,2.6423542e-05
168.75,169,0.03408966243,2.532180437e-05,0.03530430171,2.669073668e-05
169,169.25,0.03480844346,2.558731933e-05,0.03608932724,2.698580173e-05
169.25,169.5,0.03554438297,2.585634647e-05,0.03686779205,2.727524603e-05
169.5,169.75,0.03635041777,2.614781922e-05,0.03768422011,2.757553995e-05
169.75,170,0.03717150217,2.644142845e-05,0.03848728868,2.786776154e-05
170,170.25,0.03800680777,2.673681171e-05,0.03936943096,2.818526199e-05
170.25,170.5,0.03887589853,2.704071407e-05,0.04034178623,2.853113526e-05
170.5,170.75,0.03991692275,2.740030071e-05,0.04138766222,2.88985353e-05
170.75,171,0.04097913881,2.776239971e-05,0.04244409818,2.926496058e-05
171,171.25,0.04201833349,2.811213584e-05,0.04360384712,2.966200422e-05
171.25,171.5,0.04315849183,2.849090714e-05,0.0447573362,3.005169635e-05
171.5,171.75,0.04438189732,2.889180771e-05,0.04601412355,3.047061099e-05
171.75,172,0.04564572738,2.93001892e-05,0.04735134732,3.091009479e-05
172,172.25,0.04709779846,2.976247537e-05,0.0487611494,3.136675941e-05
172.25,172.5,0.04853936558,3.021441298e-05,0.05033801675,3.186978056e-05
172.5,172.75,0.05022604782,3.073475472e-05,0.05199406868,3.238964732e-05
172.75,173,0.05184067447,3.122473519e-05,0.05370751135,3.291887901e-05
173,173.25,0.05371552662,3.178419689e-05,0.05560082017,3.349393306e-05
173.25,173.5,0.05562334602,3.23435552e-05,0.05761194921,3.409413913e-05
173.5,173.75,0.05782117371,3.297616833e-05,0.05983099869,3.474435549e-05
173.75,174,0.06011966531,3.362501169e-05,0.06222149426,3.543144449e-05
174,174.25,0.06256152453,3.430086615e-05,0.06477027199,3.614962699e-05
174.25,174.5,0.06531902158,3.504839879e-05,0.06757220106,3.692300772e-05
174.5,174.75,0.06817218103,3.58054189e-05,0.07065565137,3.775576502e-05
174.75,175,0.0714900567,3.6666062e-05,0.07394404768,3.862406601e-05
175,175.25,0.07512815655,3.758709298e-05,0.07769385337,3.959093909e-05
175.25,175.5,0.07903329834,3.855121345e-05,0.08182881007,4.063041556e-05
175.5,175.75,0.08356599968,3.964082882e-05,0.08652440574,4.177943334e-05
175.75,176,0.08856024583,4.080766417e-05,0.09168766821,4.300741199e-05
176,176.25,0.0941933435,4.208488475e-05,0.09746138946,4.434024589e-05
176.25,176.5,0.1007194333,4.351764157e-05,0.1041371018,4.583292473e-05
176.5,176.75,0.1080057404,4.506340264e-05,0.1118442214,4.749780645e-05
176.75,177,0.1166169728,4.682435369e-05,0.1206482578,4.933079356e-05
177,177.25,0.1266742665,4.88004537e-05,0.1311064562,5.142314934e-05
177.25,177.5,0.01573865402,1.720630633e-05,0.01629435719,1.813365011e-05
177.5,177.75,7.148711557e-07,1.159674094e-07,7.669206584e-07,1.244109529e-07
177.75,178,1.185175338e-06,1.493180501e-07,1.069647573e-06,1.46927387e-07
178,178.25,9.970663683e-07,1.36957592e-07,1.493469899e-06,1.736123402e-07
178.25,178.5,1.937678572e-06,1.909251336e-07,2.220054041e-06,2.116738358e-07
178.5,178.75,2.821844641e-06,2.304026367e-07,2.603485218e-06,2.292240802e-07
178.75,179,3.724840169e-06,2.647128493e-07,3.915340643e-06,2.811050585e-07
179,179.25,6.358568426e-06,3.458605054e-07,7.326133524e-06,3.845222614e-07
179.25,179.5,1.44479117e-05,5.213440626e-07,1.370366293e-05,5.258982742e-07
179.5,179.75,4.244065275e-05,8.93536792e-07,4.125230699e-05,9.12447174e-07
179.75,180,4.863835476,0.0002986749843,5.022376349,0.000314504935
