# xl,xh,PS+LOnovp,dPS+LOnovp,PS+LO,dPS+LO
0,1,1.212288566,7.455886169e-05,1.255585251,7.862596429e-05
1,2,0,0,0,0
2,3,0.03559838972,1.293442821e-05,0.0368368385,1.362827345e-05
3,4,0.1048644862,2.218379212e-05,0.1085486964,2.337824546e-05
4,5,0.0815708219,1.957011882e-05,0.0844274576,2.06225536e-05
5,6,0.06688940035,1.772435805e-05,0.06924635483,1.867938452e-05
6,7,0.05679751964,1.63343467e-05,0.0588217798,1.721776618e-05
7,8,0.04943746231,1.524046262e-05,0.05121392793,1.606695535e-05
8,9,0.04381640035,1.434873463e-05,0.04542550192,1.513260235e-05
9,10,0.03946966467,1.361903819e-05,0.0408978183,1.435928287e-05
10,11,0.03593521493,1.299543051e-05,0.03727797048,1.370957388e-05
11,12,0.0330762899,1.246814245e-05,0.03428439732,1.314796675e-05
12,13,0.03066743422,1.200584873e-05,0.03186147087,1.267515796e-05
13,14,0.02862319053,1.159904736e-05,0.02975186144,1.224859737e-05
14,15,0.02692120952,1.124911115e-05,0.02797750778,1.187794248e-05
15,16,2.351554764e-07,3.325600483e-08,3.027312969e-07,3.908244036e-08
16,17,0,0,0,0
17,18,0,0,0,0
18,19,0,0,0,0
19,20,0,0,0,0
20,21,0,0,0,0
21,22,0,0,0,0
22,23,0,0,0,0
23,24,0,0,0,0
24,25,0,0,0,0
25,26,0,0,0,0
26,27,0,0,0,0
27,28,0,0,0,0
28,29,0,0,0,0
29,30,0,0,0,0
30,31,0,0,0,0
31,32,0,0,0,0
32,33,0,0,0,0
33,34,0,0,0,0
34,35,0,0,0,0
35,36,0,0,0,0
36,37,0,0,0,0
37,38,0,0,0,0
38,39,0,0,0,0
39,40,0,0,0,0
40,41,0,0,0,0
41,42,0,0,0,0
42,43,0,0,0,0
43,44,0,0,0,0
44,45,0,0,0,0
45,46,0,0,0,0
46,47,0,0,0,0
47,48,0,0,0,0
48,49,0,0,0,0
49,50,0,0,0,0
50,51,0,0,0,0
51,52,0,0,0,0
52,53,0,0,0,0
53,54,0,0,0,0
54,55,0,0,0,0
55,56,0,0,0,0
56,57,0,0,0,0
57,58,0,0,0,0
58,59,0,0,0,0
59,60,0,0,0,0
60,61,0,0,0,0
61,62,0,0,0,0
62,63,0,0,0,0
63,64,0,0,0,0
64,65,0,0,0,0
65,66,0,0,0,0
66,67,0,0,0,0
67,68,0,0,0,0
68,69,0,0,0,0
69,70,0,0,0,0
70,71,0,0,0,0
71,72,0,0,0,0
72,73,0,0,0,0
73,74,0,0,0,0
74,75,0,0,0,0
75,76,0,0,0,0
76,77,0,0,0,0
77,78,0,0,0,0
78,79,0,0,0,0
79,80,0,0,0,0
80,81,0,0,0,0
81,82,0,0,0,0
82,83,0,0,0,0
83,84,0,0,0,0
84,85,0,0,0,0
85,86,0,0,0,0
86,87,0,0,0,0
87,88,0,0,0,0
88,89,0,0,0,0
89,90,0,0,0,0
90,91,0,0,0,0
91,92,0,0,0,0
92,93,0,0,0,0
93,94,0,0,0,0
94,95,0,0,0,0
95,96,0,0,0,0
96,97,0,0,0,0
97,98,0,0,0,0
98,99,0,0,0,0
99,100,0,0,0,0
100,101,0,0,0,0
101,102,0,0,0,0
102,103,0,0,0,0
103,104,0,0,0,0
104,105,0,0,0,0
105,106,0,0,0,0
106,107,0,0,0,0
107,108,0,0,0,0
108,109,0,0,0,0
109,110,0,0,0,0
110,111,0,0,0,0
111,112,0,0,0,0
112,113,0,0,0,0
113,114,0,0,0,0
114,115,0,0,0,0
115,116,0,0,0,0
116,117,0,0,0,0
117,118,0,0,0,0
118,119,0,0,0,0
119,120,0,0,0,0
120,121,0,0,0,0
121,122,0,0,0,0
122,123,0,0,0,0
123,124,0,0,0,0
124,125,0,0,0,0
125,126,0,0,0,0
126,127,0,0,0,0
127,128,0,0,0,0
128,129,0,0,0,0
129,130,0,0,0,0
130,131,0,0,0,0
131,132,0,0,0,0
132,133,0,0,0,0
133,134,0,0,0,0
134,135,0,0,0,0
135,136,0,0,0,0
136,137,0,0,0,0
137,138,0,0,0,0
138,139,0,0,0,0
139,140,0,0,0,0
140,141,0,0,0,0
141,142,0,0,0,0
142,143,0,0,0,0
143,144,0,0,0,0
144,145,0,0,0,0
145,146,0,0,0,0
146,147,0,0,0,0
147,148,0,0,0,0
148,149,0,0,0,0
149,150,0,0,0,0
150,151,0,0,0,0
151,152,0,0,0,0
152,153,0,0,0,0
153,154,0,0,0,0
154,155,0,0,0,0
155,156,0,0,0,0
156,157,0,0,0,0
157,158,0,0,0,0
158,159,0,0,0,0
159,160,0,0,0,0
160,161,0,0,0,0
161,162,0,0,0,0
162,163,0,0,0,0
163,164,0,0,0,0
164,165,2.022328966e-07,3.084022609e-08,2.421872084e-07,3.495671079e-08
165,166,0.02690915473,1.124659353e-05,0.02796737748,1.187579328e-05
166,167,0.02864681856,1.160383086e-05,0.0297403284,1.224622469e-05
167,168,0.0306808194,1.200846689e-05,0.03182977004,1.266885464e-05
168,169,0.03309954046,1.24725206e-05,0.03426528014,1.314430296e-05
169,170,0.03596849377,1.300144203e-05,0.03728194006,1.371030297e-05
170,171,0.03944420755,1.361464912e-05,0.04088553249,1.435712765e-05
171,172,0.04380152167,1.434629997e-05,0.04543186537,1.513366149e-05
172,173,0.04942561885,1.523863868e-05,0.05119985354,1.606474926e-05
173,174,0.05682024773,1.633761048e-05,0.05881677473,1.721703439e-05
174,175,0.06688527268,1.772381149e-05,0.06923492242,1.867784465e-05
175,176,0.08157101742,1.957014195e-05,0.08443279633,2.062320465e-05
176,177,0.104884498,2.218590423e-05,0.108523232,2.337550879e-05
177,178,0.03560249175,1.293517304e-05,0.03684958779,1.363062985e-05
178,179,0,0,0,0
179,180,1.215979158,7.4669353e-05,1.255614411,7.862685433e-05
