# xl,xh,PS+LOnovp,dPS+LOnovp,PS+LO,dPS+LO
0,5,0,0,0,0
5,10,0,0,0,0
10,15,0,0,0,0
15,20,0,0,0,0
20,25,0,0,0,0
25,30,0,0,0,0
30,35,0,0,0,0
35,40,0,0,0,0
40,45,0,0,0,0
45,50,0,0,0,0
50,55,0,0,0,0
55,60,0,0,0,0
60,65,0,0,0,0
65,70,0,0,0,0
70,75,0,0,0,0
75,80,0,0,0,0
80,85,0,0,0,0
85,90,0,0,0,0
90,95,0,0,0,0
95,100,0,0,0,0
100,105,0,0,0,0
105,110,0,0,0,0
110,115,0,0,0,0
115,120,0,0,0,0
120,125,0,0,0,0
125,130,0,0,0,0
130,135,0,0,0,0
135,140,0,0,0,0
140,145,0,0,0,0
145,150,0,0,0,0
150,155,0,0,0,0
155,160,0,0,0,0
160,165,0,0,0,0
165,170,0,0,0,0
170,175,0,0,0,0
175,180,0,0,0,0
180,185,0,0,0,0
185,190,0,0,0,0
190,195,0,0,0,0
195,200,0,0,0,0
200,205,0,0,0,0
205,210,0,0,0,0
210,215,0,0,0,0
215,220,0,0,0,0
220,225,0,0,0,0
225,230,0,0,0,0
230,235,0,0,0,0
235,240,0,0,0,0
240,245,0,0,0,0
245,250,0,0,0,0
250,255,0,0,0,0
255,260,0,0,0,0
260,265,0,0,0,0
265,270,0,0,0,0
270,275,0,0,0,0
275,280,0,0,0,0
280,285,0,0,0,0
285,290,0,0,0,0
290,295,0,0,0,0
295,300,0,0,0,0
300,305,0,0,0,0
305,310,0,0,0,0
310,315,0,0,0,0
315,320,0,0,0,0
320,325,0,0,0,0
325,330,0,0,0,0
330,335,0,0,0,0
335,340,0,0,0,0
340,345,0,0,0,0
345,350,0,0,0,0
350,355,0,0,0,0
355,360,0,0,0,0
360,365,0,0,0,0
365,370,0,0,0,0
370,375,0,0,0,0
375,380,0,0,0,0
380,385,0,0,0,0
385,390,0,0,0,0
390,395,0,0,0,0
395,400,0,0,0,0
400,405,0,0,0,0
405,410,0,0,0,0
410,415,0,0,0,0
415,420,0,0,0,0
420,425,0,0,0,0
425,430,0,0,0,0
430,435,0,0,0,0
435,440,0,0,0,0
440,445,0,0,0,0
445,450,0,0,0,0
450,455,0,0,0,0
455,460,0,0,0,0
460,465,0,0,0,0
465,470,0,0,0,0
470,475,0,0,0,0
475,480,0,0,0,0
480,485,0,0,0,0
485,490,0,0,0,0
490,495,0,0,0,0
495,500,0,0,0,0
500,505,0,0,0,0
505,510,0,0,0,0
