# xl,xh,PS+LOnovp,dPS+LOnovp,PS+LO,dPS+LO
50,51,0.0004778805571,1.499163415e-06,0.0004980145933,1.585158128e-06
51,52,0.001574358096,2.721047747e-06,0.001623411873,2.861945018e-06
52,53,0.006622195512,5.580367939e-06,0.00684478513,5.876313692e-06
53,54,0.01440091268,8.228525383e-06,0.01492578635,8.676805949e-06
54,55,0.02024282732,9.75520546e-06,0.02096630772,1.028316973e-05
55,56,0.02486216125,1.081059482e-05,0.02575930862,1.139759134e-05
56,57,0.02865147639,1.160477398e-05,0.0297290814,1.224391009e-05
57,58,0.03186550868,1.223796516e-05,0.03310953991,1.292087201e-05
58,59,0.0346550691,1.276202747e-05,0.0360228844,1.34769719e-05
59,60,0.0371233244,1.320835295e-05,0.0385716714,1.394526092e-05
60,61,0.03929443341,1.358879742e-05,0.04084461368,1.434994722e-05
61,62,0.04123157811,1.39194414e-05,0.04292309691,1.471023929e-05
62,63,0.04302872989,1.421929409e-05,0.04477775778,1.502441736e-05
63,64,0.04464046319,1.448291218e-05,0.04649248409,1.530913667e-05
64,65,0.04612697864,1.472185045e-05,0.04801967487,1.555831327e-05
65,66,0.04751204161,1.49410299e-05,0.04942247396,1.578371649e-05
66,67,0.0487926088,1.514084034e-05,0.05072943128,1.59908508e-05
67,68,0.05001128644,1.532856529e-05,0.05194131421,1.618053866e-05
68,69,0.05115354868,1.550244724e-05,0.05307657899,1.635623025e-05
69,70,0.05218872905,1.565835346e-05,0.05415040453,1.65206874e-05
70,71,0.05318769005,1.58073412e-05,0.05515233699,1.667266516e-05
71,72,0.05418383702,1.595451767e-05,0.05608330929,1.681264302e-05
72,73,0.05514860459,1.609576945e-05,0.05705571714,1.69576115e-05
73,74,0.0560366207,1.622469193e-05,0.05792314764,1.70858879e-05
74,75,0.05686233315,1.634365299e-05,0.05880723834,1.721564013e-05
75,76,0.05774345748,1.646964512e-05,0.05962487347,1.733477075e-05
76,77,0.05851026718,1.657850836e-05,0.06046810734,1.745677531e-05
77,78,0.05933291243,1.669450553e-05,0.06126857723,1.757180538e-05
78,79,0.06010449447,1.680257092e-05,0.06201127114,1.767786055e-05
79,80,0.06086775864,1.690878875e-05,0.06280614822,1.779066306e-05
80,81,0.06160240925,1.701039507e-05,0.06345907636,1.788278672e-05
81,82,0.06183161562,1.704197115e-05,0.06374920507,1.792356928e-05
82,83,0.0618009174,1.703774538e-05,0.06369537824,1.791600984e-05
83,84,0.06170310686,1.702427459e-05,0.06359410184,1.790177866e-05
84,85,0.06157499981,1.700661515e-05,0.06353889725,1.789401635e-05
85,86,0.06155704783,1.7004139e-05,0.0634359984,1.787953873e-05
86,87,0.06148583844,1.699431344e-05,0.0634265165,1.787820393e-05
87,88,0.0614520514,1.698964941e-05,0.0633435595,1.786652294e-05
88,89,0.0614096436,1.698379359e-05,0.06335556758,1.786821427e-05
89,90,0.0614120676,1.69841286e-05,0.06328611949,1.785843015e-05
90,91,0.06138450422,1.69803211e-05,0.06331586026,1.786262097e-05
91,92,0.06140258833,1.698281912e-05,0.06333077324,1.786472174e-05
92,93,0.06142990505,1.698659165e-05,0.06334823532,1.78671814e-05
93,94,0.06141701776,1.698481199e-05,0.06335080853,1.786754377e-05
94,95,0.06152984482,1.70003861e-05,0.06340282185,1.787486817e-05
95,96,0.0615295113,1.700034009e-05,0.06349671476,1.788808253e-05
96,97,0.06158552934,1.700806725e-05,0.06354175818,1.789441869e-05
97,98,0.06168651269,1.702198793e-05,0.0636212228,1.790559032e-05
98,99,0.06176020399,1.70321397e-05,0.06371054494,1.791814012e-05
99,100,0.06147106264,1.699227408e-05,0.06337261238,1.787061482e-05
100,101,0.06071962596,1.68882267e-05,0.06267355745,1.777189693e-05
101,102,0.05995377096,1.678151612e-05,0.06188578901,1.765998687e-05
102,103,0.0591261394,1.666542551e-05,0.06107427166,1.754395254e-05
103,104,0.05834671705,1.655534959e-05,0.06031045861,1.743403071e-05
104,105,0.05751744915,1.643742048e-05,0.05945130839,1.730955043e-05
105,106,0.05665486542,1.631384492e-05,0.05859629084,1.718477042e-05
106,107,0.05576473948,1.618532962e-05,0.05771442591,1.705511082e-05
107,108,0.05489108164,1.605818747e-05,0.05678881094,1.691794507e-05
108,109,0.05393269603,1.591754146e-05,0.05586353164,1.677970387e-05
109,110,0.05295180117,1.577228755e-05,0.05491691091,1.663707974e-05
110,111,0.05194796332,1.562223159e-05,0.05384320891,1.647380878e-05
111,112,0.05087691241,1.54605162e-05,0.05275777245,1.630708429e-05
112,113,0.04970938423,1.528227581e-05,0.05162835047,1.613176718e-05
113,114,0.04844942431,1.508755285e-05,0.05042580997,1.594297195e-05
114,115,0.04722154144,1.489532803e-05,0.04910749236,1.573338726e-05
115,116,0.04580993513,1.467121764e-05,0.04771624987,1.550912578e-05
116,117,0.04431922993,1.443075659e-05,0.04616020111,1.525438025e-05
117,118,0.04267711951,1.416112992e-05,0.04444060331,1.496779555e-05
118,119,0.0409296299,1.386842324e-05,0.04254421005,1.464522483e-05
119,120,0.0389371912,1.352693539e-05,0.04050151458,1.428959715e-05
120,121,0.03674689406,1.314126706e-05,0.03818455353,1.387515672e-05
121,122,0.03429254647,1.269514851e-05,0.03560973511,1.339951796e-05
122,123,0.03148510854,1.216474708e-05,0.03269136201,1.28390685e-05
123,124,0.02828233447,1.152981803e-05,0.02931180121,1.215772709e-05
124,125,0.02446993869,1.072502598e-05,0.02535160542,1.130707906e-05
125,126,0.01985646027,9.661698724e-06,0.02055931902,1.018291416e-05
126,127,0.01402814035,8.12135902e-06,0.01451768741,8.557397179e-06
127,128,0.006295104853,5.440825158e-06,0.00650948335,5.730594795e-06
128,129,0.001542828675,2.693663878e-06,0.00159488887,2.836691997e-06
129,130,0.0004783086084,1.499834801e-06,0.0004947249341,1.579914132e-06
