# xl,xh,PS+LOnovp,dPS+LOnovp,PS+LO,dPS+LO
0,1,3.695675348,0.000126716276,3.82423105,0.0001336989799
1,2,47.03093704,8.22128611e-05,50.45550392,8.610608474e-05
2,3,0.07857966603,2.690813687e-06,0.07579412969,2.646680461e-06
3,4,1.000001543e+10,0,1.000002821e+10,0
4,5,1e+10,0,1e+10,0
5,6,1000,0,1000,0
6,7,2711915.93,0,6419794.97,0
