# xl,xh,PS+LOnovp,dPS+LOnovp,PS+LO,dPS+LO
165,165.25,0.0263242818,2.225206082e-05,0.02736006596,2.349706544e-05
165.25,165.5,0.02671153706,2.241511659e-05,0.02775876583,2.366762767e-05
165.5,165.75,0.02707173559,2.256572021e-05,0.02816113569,2.383852078e-05
165.75,166,0.02753032488,2.275602009e-05,0.02859137903,2.40199071e-05
166,166.25,0.02795192856,2.2929578e-05,0.0289892695,2.418644228e-05
166.25,166.5,0.02841433415,2.311843238e-05,0.02949360087,2.439589316e-05
166.5,166.75,0.02888323274,2.330837626e-05,0.02998988096,2.460025938e-05
166.75,167,0.02933715799,2.349079161e-05,0.03048765406,2.480354771e-05
167,167.25,0.02986426105,2.370085038e-05,0.03102605033,2.502156465e-05
167.25,167.5,0.0303677323,2.389976516e-05,0.03153054394,2.522414326e-05
167.5,167.75,0.03094072185,2.412415191e-05,0.03207937737,2.544269348e-05
167.75,168,0.03155144655,2.436103818e-05,0.03268413781,2.568136024e-05
168,168.25,0.03210733031,2.457466552e-05,0.03324636849,2.590126671e-05
168.25,168.5,0.032753704,2.482075597e-05,0.03390858662,2.615791101e-05
168.5,168.75,0.03344629874,2.508176225e-05,0.03460087484,2.6423542e-05
168.75,169,0.03408966243,2.532180437e-05,0.03530430171,2.669073668e-05
169,169.25,0.03480844346,2.558731933e-05,0.03608932724,2.698580173e-05
169.25,169.5,0.03554438297,2.585634647e-05,0.03686779205,2.727524603e-05
169.5,169.75,0.03635041777,2.614781922e-05,0.03768422011,2.757553995e-05
169.75,170,0.03717150217,2.644142845e-05,0.03848728868,2.786776154e-05
170,170.25,0.03800680777,2.673681171e-05,0.03936943096,2.818526199e-05
170.25,170.5,0.03887589853,2.704071407e-05,0.04034178623,2.853113526e-05
170.5,170.75,0.03991692275,2.740030071e-05,0.04138766222,2.88985353e-05
170.75,171,0.04097913881,2.776239971e-05,0.04244409818,2.926496058e-05
171,171.25,0.04201833349,2.811213584e-05,0.04360384712,2.966200422e-05
171.25,171.5,0.04315849183,2.849090714e-05,0.0447573362,3.005169635e-05
171.5,171.75,0.04438189732,2.889180771e-05,0.04601412355,3.047061099e-05
171.75,172,0.04564572738,2.93001892e-05,0.04735134732,3.091009479e-05
172,172.25,0.04709779846,2.976247537e-05,0.0487611494,3.136675941e-05
172.25,172.5,0.04853936558,3.021441298e-05,0.05033801675,3.186978056e-05
172.5,172.75,0.05022604782,3.073475472e-05,0.05199406868,3.238964732e-05
172.75,173,0.05184067447,3.122473519e-05,0.05370751135,3.291887901e-05
173,173.25,0.05371552662,3.178419689e-05,0.05560082017,3.349393306e-05
173.25,173.5,0.05562334602,3.23435552e-05,0.05761194921,3.409413913e-05
173.5,173.75,0.05782117371,3.297616833e-05,0.05983099869,3.474435549e-05
173.75,174,0.06011966531,3.362501169e-05,0.06222149426,3.543144449e-05
174,174.25,0.06256152453,3.430086615e-05,0.06477027199,3.614962699e-05
174.25,174.5,0.06531902158,3.504839879e-05,0.06757220106,3.692300772e-05
174.5,174.75,0.06817218103,3.58054189e-05,0.07065565137,3.775576502e-05
174.75,175,0.0714900567,3.6666062e-05,0.07394404768,3.862406601e-05
175,175.25,0.07512815655,3.758709298e-05,0.07769385337,3.959093909e-05
175.25,175.5,0.07903329834,3.855121345e-05,0.08182881007,4.063041556e-05
175.5,175.75,0.08356599968,3.964082882e-05,0.08652440574,4.177943334e-05
175.75,176,0.08856024583,4.080766417e-05,0.09168766821,4.300741199e-05
176,176.25,0.0941933435,4.208488475e-05,0.09746138946,4.434024589e-05
176.25,176.5,0.1007194333,4.351764157e-05,0.1041371018,4.583292473e-05
176.5,176.75,0.1080057404,4.506340264e-05,0.1118442214,4.749780645e-05
176.75,177,0.1166169728,4.682435369e-05,0.1206482578,4.933079356e-05
177,177.25,0.1266742665,4.88004537e-05,0.1311064562,5.142314934e-05
177.25,177.5,0.01573865402,1.720630633e-05,0.01629435719,1.813365011e-05
177.5,177.75,7.148711557e-07,1.159674094e-07,7.669206584e-07,1.244109529e-07
177.75,178,1.185175338e-06,1.493180501e-07,1.069647573e-06,1.46927387e-07
178,178.25,9.970663683e-07,1.36957592e-07,1.493469899e-06,1.736123402e-07
178.25,178.5,1.937678572e-06,1.909251336e-07,2.220054041e-06,2.116738358e-07
178.5,178.75,2.821844641e-06,2.304026367e-07,2.603485218e-06,2.292240802e-07
178.75,179,3.724840169e-06,2.647128493e-07,3.915340643e-06,2.811050585e-07
179,179.25,6.358568426e-06,3.458605054e-07,7.326133524e-06,3.845222614e-07
179.25,179.5,1.44479117e-05,5.213440626e-07,1.370366293e-05,5.258982742e-07
179.5,179.75,4.244065275e-05,8.93536792e-07,4.125230699e-05,9.12447174e-07
179.75,180,4.863835476,0.0002986749843,5.022376349,0.000314504935
