# xl,xh,PS+LOnovp,dPS+LOnovp,PS+LO,dPS+LO
0,5,0,0,0,0
5,10,0,0,0,0
10,15,0,0,0,0
15,20,0,0,0,0
20,25,0.0001775452701,4.086552013e-07,0.0001822629603,4.288585553e-07
25,30,0.00139281152,1.144514923e-06,0.001437946641,1.204508858e-06
30,35,0.002566642916,1.553573338e-06,0.002650367744,1.635182892e-06
35,40,0.003822442183,1.895794981e-06,0.003948912279,1.995836113e-06
40,45,0.01114004868,3.235195627e-06,0.01148543472,3.402532454e-06
45,50,0.03918222756,6.05860087e-06,0.04043634542,6.375410323e-06
50,55,0.03560699601,5.776646192e-06,0.03679702477,6.082818676e-06
55,60,0.03262232918,5.530095324e-06,0.03374832649,5.826242338e-06
60,65,0.03009636556,5.312376881e-06,0.03116663152,5.599657478e-06
65,70,0.02790926563,5.116289971e-06,0.02892656709,5.395254148e-06
70,75,0.02602882584,4.941404831e-06,0.02700088474,5.213060994e-06
75,80,0.0243778259,4.782529714e-06,0.02531594327,5.048195308e-06
80,85,0.02292259147,4.637935437e-06,0.02380840879,4.895937299e-06
85,90,0.02161584665,4.504102682e-06,0.02247656244,4.75733246e-06
90,95,0.02044462591,4.380644505e-06,0.02127451063,4.628641112e-06
95,100,0.01939349097,4.266777439e-06,0.02019953281,4.510418951e-06
100,105,0.01843809564,4.160556741e-06,0.01921043747,4.398813578e-06
105,110,0.01756152562,4.060637185e-06,0.01831709681,4.295502173e-06
110,115,0.01676272654,3.967375527e-06,0.01749771428,4.198493041e-06
115,120,0.016037187,3.88071135e-06,0.01674182083,4.106954915e-06
120,125,0.01535303189,3.797166666e-06,0.0160528135,4.021689975e-06
125,130,0.01473774506,3.720419341e-06,0.0154075728,3.9401578e-06
130,135,0.01415084767,3.645698539e-06,0.01480380492,3.862298304e-06
135,140,0.0136117879,3.575684576e-06,0.01424357798,3.788614418e-06
140,145,0.01310720648,3.508875724e-06,0.01372476667,3.719068671e-06
145,150,0.01263734952,3.445493592e-06,0.01323319719,3.651946345e-06
150,155,0.01219165296,3.384267867e-06,0.01277578413,3.588354533e-06
155,160,0.01177968511,3.32666835e-06,0.01234266126,3.527077736e-06
160,165,0.01138277683,3.270210242e-06,0.01193599609,3.468554048e-06
165,170,0.01100885062,3.216110294e-06,0.01155114669,3.412241251e-06
170,175,0.01065927636,3.164693327e-06,0.01118799183,3.358233109e-06
175,180,0.01032742645,3.11509473e-06,0.0108340122,3.304736463e-06
180,185,0.01000385527,3.065957688e-06,0.01050842394,3.254751062e-06
185,190,0.009700497815,3.019160949e-06,0.01019496394,3.205888306e-06
190,195,0.009416487844,2.974678895e-06,0.009901844323,3.159509853e-06
195,200,0.009137526958,2.930327755e-06,0.009630647092,3.115982995e-06
200,205,0.008884954169,2.889582601e-06,0.009402400855,3.078870994e-06
205,210,0.008623372248,2.846767129e-06,0.009119911059,3.032308495e-06
210,215,0.008386637754,2.807453826e-06,0.008521401924,2.931204105e-06
215,220,0.008133166008,2.764739271e-06,0.008221592468,2.879219578e-06
220,225,0.007880676044,2.721521394e-06,0.007980107995,2.836653207e-06
225,230,0.00763514039,2.678823112e-06,0.007730042734,2.791888203e-06
230,235,0.007394459553,2.636295707e-06,0.007477339509,2.74590762e-06
235,240,0.007163901449,2.594901515e-06,0.007230142246,2.700169026e-06
240,245,0.006940466914,2.554144229e-06,0.006996497457,2.656212105e-06
245,250,0.006719101083,2.513110676e-06,0.006758146451,2.610605194e-06
250,255,0.006507699201,2.473286898e-06,0.00653876993,2.567911336e-06
255,260,0.006292473674,2.4320712e-06,0.006313898117,2.52339636e-06
260,265,0.006084335024,2.391535379e-06,0.00610104231,2.480522446e-06
265,270,0.005879654822,2.350989821e-06,0.005895389097,2.43838161e-06
270,275,0.005676550016,2.310051226e-06,0.00569190571,2.395954362e-06
275,280,0.005475455688,2.268788556e-06,0.00549009662,2.353119123e-06
280,285,0.005273761788,2.226633064e-06,0.005292703962,2.310451421e-06
285,290,0.005073956769,2.18406849e-06,0.005092380124,2.26632733e-06
290,295,0.004870949194,2.139952958e-06,0.004889544309,2.220755022e-06
295,300,0.004664270884,2.094083175e-06,0.004682100193,2.173157242e-06
300,305,0.004457449996,2.047151207e-06,0.004484048913,2.126719036e-06
305,310,0.004251584443,1.999340152e-06,0.004269855803,2.075324582e-06
310,315,0.004031063304,1.94682103e-06,0.004057193596,2.023003985e-06
315,320,0.003801342094,1.890557309e-06,0.003827887938,1.965025843e-06
320,325,0.003565381577,1.83096337e-06,0.003592009215,1.903541345e-06
325,330,0.003311356852,1.764555587e-06,0.003342286367,1.836202762e-06
330,335,0.003019212263,1.684944912e-06,0.003049800633,1.754044641e-06
335,340,0.00183127565,1.31232783e-06,0.001845778269,1.364645485e-06
340,345,0,0,0,0
345,350,0,0,0,0
350,355,0,0,0,0
355,360,0,0,0,0
360,365,0,0,0,0
365,370,0,0,0,0
370,375,0,0,0,0
375,380,0,0,0,0
380,385,0,0,0,0
385,390,0,0,0,0
390,395,0,0,0,0
395,400,0,0,0,0
400,405,0,0,0,0
405,410,0,0,0,0
410,415,0,0,0,0
415,420,0,0,0,0
420,425,0,0,0,0
425,430,0,0,0,0
430,435,0,0,0,0
435,440,0,0,0,0
440,445,0,0,0,0
445,450,0,0,0,0
450,455,0,0,0,0
455,460,0,0,0,0
460,465,0,0,0,0
465,470,0,0,0,0
470,475,0,0,0,0
475,480,0,0,0,0
480,485,0,0,0,0
485,490,0,0,0,0
490,495,0,0,0,0
495,500,0,0,0,0
500,505,0,0,0,0
505,510,0,0,0,0
