# xl,xh,PS+LOnovp,dPS+LOnovp,PS+LO,dPS+LO
0,10,0,0,0,0
10,20,0,0,0,0
20,30,0,0,0,0
30,40,0,0,0,0
40,50,0,0,0,0
50,60,0,0,0,0
60,70,0,0,0,0
70,80,0,0,0,0
80,90,0,0,0,0
90,100,0,0,0,0
100,110,0.06286410969,5.402075324e-06,0.06499137377,5.690478374e-06
110,120,0.003906137236,1.354847149e-06,0.004040316972,1.427225087e-06
120,130,0.001897721239,9.445451186e-07,0.001964396605,9.953735947e-07
130,140,0.001329338654,7.905871748e-07,0.001375653308,8.330108342e-07
140,150,0.001054700986,7.042209171e-07,0.001090746969,7.417713489e-07
150,160,0.0008952837756,6.488312235e-07,0.0009259936221,6.834691917e-07
160,170,0.0007902502171,6.095907929e-07,0.0008180393719,6.424015357e-07
170,180,0.0007176863458,5.809338654e-07,0.0007405756569,6.112338404e-07
180,190,0.0006643928412,5.589516057e-07,0.0006864467186,5.884754854e-07
190,200,0.0006247585292,5.420253628e-07,0.0006454991331,5.706561398e-07
200,210,0.0005949785178,5.289510268e-07,0.0006148409612,5.569411991e-07
210,220,0.0005733518763,5.192498986e-07,0.0005923373581,5.46655154e-07
220,230,0.0005564094557,5.115213968e-07,0.000575336933,5.387542699e-07
230,240,0.0005443845681,5.059644215e-07,0.0005633583438,5.331169248e-07
240,250,0.0005372857584,5.02655074e-07,0.0005561361477,5.296890111e-07
250,260,0.0005336563892,5.009546649e-07,0.0005523999388,5.279069406e-07
260,270,0.0005340007044,5.011162521e-07,0.0005513570279,5.274084245e-07
270,280,0.0005361537397,5.021253324e-07,0.0005547153467,5.290120427e-07
280,290,0.0005425193876,5.050970327e-07,0.0005624526592,5.326882605e-07
290,300,0.0005526375439,5.09784822e-07,0.0005712899605,5.368563349e-07
300,310,0.0005659463871,5.158860417e-07,0.0005853356772,5.434150723e-07
310,320,0.000531995748,5.001747134e-07,0.0005490174193,5.262883629e-07
320,330,0.0004457449194,4.578410411e-07,0.0004582194652,4.808075382e-07
330,340,0.0003627824342,4.130459191e-07,0.0003711410871,4.327206936e-07
340,350,0.0002846194631,3.65856679e-07,0.0002880264555,3.812043079e-07
350,360,0.0002077606945,3.125818977e-07,0.0002092368816,3.249107103e-07
360,370,0.0001322385541,2.49381695e-07,0.0001327480288,2.587986995e-07
370,380,5.668630502e-05,1.632781292e-07,5.682585475e-05,1.69326235e-07
380,390,2.280524918e-06,3.274979675e-08,2.358280939e-06,3.449459637e-08
390,400,0,0,0,0
400,410,0,0,0,0
410,420,0,0,0,0
420,430,0,0,0,0
430,440,0,0,0,0
440,450,0,0,0,0
450,460,0,0,0,0
460,470,0,0,0,0
470,480,0,0,0,0
480,490,0,0,0,0
490,500,0,0,0,0
