# xl,xh,PS+LOnovp,dPS+LOnovp,PS+LO,dPS+LO
214.68,222.36,0,0,0,0
222.36,230.04,0,0,0,0
230.04,237.72,0,0,0,0
237.72,245.4,0,0,0,0
245.4,253.08,0,0,0,0
253.08,260.76,0,0,0,0
260.76,268.44,0,0,0,0
268.44,276.12,0,0,0,0
276.12,283.8,0,0,0,0
283.8,291.48,0,0,0,0
291.48,299.16,0,0,0,0
299.16,306.84,1.408446802e-08,2.936814459e-09,2.168030867e-08,3.774057136e-09
306.84,314.52,2.902694094e-07,1.333251466e-08,2.765855115e-07,1.347995209e-08
314.52,322.2,8.42634532e-07,2.271590192e-08,8.448653602e-07,2.355954895e-08
322.2,329.88,1.646080065e-06,3.174945284e-08,1.666735077e-06,3.309072392e-08
329.88,337.56,2.654676298e-06,4.031966441e-08,2.685696111e-06,4.200503193e-08
337.56,345.24,3.78574349e-06,4.814891822e-08,3.872836846e-06,5.044140221e-08
345.24,352.92,5.120118413e-06,5.599518653e-08,5.140141842e-06,5.811128748e-08
352.92,360.6,6.714141497e-06,6.412180293e-08,6.817387467e-06,6.692399069e-08
360.6,368.28,8.532912881e-06,7.228681576e-08,8.824434035e-06,7.614058629e-08
368.28,375.96,1.082874404e-05,8.143286617e-08,1.093265243e-05,8.474917114e-08
375.96,383.64,1.325191889e-05,9.008441585e-08,1.356775379e-05,9.441183541e-08
383.64,391.32,8.010738546e-05,2.214850059e-07,8.146371938e-05,2.313409457e-07
391.32,399,0.0001288204728,2.808657996e-07,0.0001308567706,2.932020042e-07
399,406.68,0.0001570983626,3.101638874e-07,0.0001583050164,3.224892903e-07
406.68,414.36,0.0001766670236,3.289141157e-07,0.0001796204355,3.435145586e-07
414.36,422.04,0.0001933170493,3.440640275e-07,0.0001963028729,3.591121002e-07
422.04,429.72,0.0002069253923,3.559677307e-07,0.0002107155181,3.720613273e-07
429.72,437.4,0.0002194730816,3.666012466e-07,0.0002220620446,3.819469577e-07
437.4,445.08,0.0002300268611,3.753118056e-07,0.0002328586899,3.911215585e-07
445.08,452.76,0.0002379829082,3.817469287e-07,0.0002414532141,3.982738376e-07
452.76,460.44,0.0002469775646,3.888938826e-07,0.0002501633202,4.053935252e-07
460.44,468.12,0.0002577682962,3.972983055e-07,0.0002613948799,4.143937121e-07
468.12,475.8,0.0002695603373,4.062838663e-07,0.000272598865,4.231811237e-07
475.8,483.48,0.0002815905525,4.152505361e-07,0.0002855576387,4.33122514e-07
483.48,491.16,0.0002966067865,4.261781839e-07,0.000300823017,4.445482577e-07
491.16,498.84,0.0003179323309,4.412322799e-07,0.0003207397277,4.59027925e-07
498.84,506.52,0.0003599403933,4.694767802e-07,0.0003640971565,4.890688134e-07
506.52,514.2,0.0005000183884,5.533334788e-07,0.0005063642522,5.767509408e-07
514.2,521.88,0.0006715413419,6.412452197e-07,0.0006781384838,6.674372969e-07
521.88,529.56,0.0008358927762,7.15413941e-07,0.0008469918079,7.459083327e-07
529.56,537.24,0.0009972986541,7.814283821e-07,0.001010159003,8.145832454e-07
537.24,544.92,0.001153597331,8.404237533e-07,0.001165694974,8.750403753e-07
544.92,552.6,0.001305544418,8.940499938e-07,0.0013206402,9.313714168e-07
552.6,560.28,0.001455316173,9.439293502e-07,0.001473293884,9.837175816e-07
560.28,567.96,0.001604036635,9.909753373e-07,0.001620868038,1.031798394e-06
567.96,575.64,0.001746805241,1.034124983e-06,0.001767224646,1.07736333e-06
575.64,583.32,0.001890210177,1.075724114e-06,0.001911107178,1.120351285e-06
583.32,591,0.00203346809,1.115731267e-06,0.002053819773,1.161417302e-06
591,598.68,0.002175769723,1.15409754e-06,0.002193924662,1.200365423e-06
598.68,606.36,0.002312972495,1.189916723e-06,0.00233399139,1.238077238e-06
606.36,614.04,0.002455414167,1.225995325e-06,0.002477901058,1.275661632e-06
614.04,621.72,0.002597018632,1.260837428e-06,0.002615949589,1.310701385e-06
621.72,629.4,0.002737910359,1.294572344e-06,0.002755819354,1.345271543e-06
629.4,637.08,0.002883401681,1.328508328e-06,0.002901329966,1.380315866e-06
637.08,644.76,0.003030085864,1.361865213e-06,0.003044296635,1.413900381e-06
644.76,652.44,0.003173201754,1.393639918e-06,0.003190602817,1.447461454e-06
652.44,660.12,0.003319579388,1.425404892e-06,0.0033351001,1.47985928e-06
660.12,667.8,0.00347371805,1.458104632e-06,0.003487443051,1.513263829e-06
667.8,675.48,0.00362819912,1.490155708e-06,0.003642157239,1.54644855e-06
675.48,683.16,0.003786987562,1.522395753e-06,0.003800383295,1.57966409e-06
683.16,690.84,0.003949843791,1.554765856e-06,0.003959363684,1.612347462e-06
690.84,698.52,0.004117582117,1.587414668e-06,0.004127208546,1.646147537e-06
698.52,706.2,0.004289130426,1.620123002e-06,0.00430184308,1.680591708e-06
706.2,713.88,0.004468957835,1.653713607e-06,0.004480147766,1.715044473e-06
713.88,721.56,0.004654517898,1.687672376e-06,0.004673291243,1.751597988e-06
721.56,729.24,0.004848964809,1.722537221e-06,0.004871851585,1.788395905e-06
729.24,736.92,0.005045246394,1.757027406e-06,0.005081199141,1.826387894e-06
736.92,744.6,0.005260847399,1.794145994e-06,0.00530592059,1.866306916e-06
744.6,752.28,0.005476617466,1.830537843e-06,0.005535279766,1.906185321e-06
752.28,759.96,0.005707338805,1.868664771e-06,0.005781183796,1.948030785e-06
759.96,767.64,0.005948930404,1.907768606e-06,0.006028836942,1.989281522e-06
767.64,775.32,0.006203334838,1.948094908e-06,0.006275163756,2.029476872e-06
775.32,783,0.006473361249,1.990000241e-06,0.006602927631,2.081753526e-06
783,790.68,0.006752743521,2.032444621e-06,0.007230976275,2.178408781e-06
790.68,798.36,0.007059702587,2.078075068e-06,0.007501963363,2.218807516e-06
798.36,806.04,0.007378712886,2.124454147e-06,0.007799201912,2.26228696e-06
806.04,813.72,0.007725147691,2.173694583e-06,0.008141843004,2.311388571e-06
813.72,821.4,0.008089369329,2.224282402e-06,0.008524271746,2.364982634e-06
821.4,829.08,0.008490161613,2.278645552e-06,0.008928008452,2.420268968e-06
829.08,836.76,0.008918343417,2.335318676e-06,0.009374240196,2.479933513e-06
836.76,844.44,0.009374997389,2.394274391e-06,0.009849664687,2.54195262e-06
844.44,852.12,0.009875622404,2.457272605e-06,0.01036205332,2.607132913e-06
852.12,859.8,0.01041770999,2.523704879e-06,0.01092162367,2.676491561e-06
859.8,867.48,0.01101409075,2.59481395e-06,0.01153313125,2.750275703e-06
867.48,875.16,0.01166330633,2.670056126e-06,0.01220770045,2.82942289e-06
875.16,882.84,0.01238804787,2.751604547e-06,0.01294988566,2.914003282e-06
882.84,890.52,0.01318075236,2.838097908e-06,0.01377484139,3.005203252e-06
890.52,898.2,0.01407926078,2.933028283e-06,0.01468863466,3.103072162e-06
898.2,905.88,0.01507462414,3.034696559e-06,0.01572085566,3.210007556e-06
905.88,913.56,0.01621431334,3.147038297e-06,0.01689567834,3.327499407e-06
913.56,921.24,0.01751755859,3.270729451e-06,0.01823534713,3.456559892e-06
921.24,928.92,0.01901520228,3.407271004e-06,0.01976705256,3.598394223e-06
928.92,936.6,0.02076919011,3.560454972e-06,0.02157138988,3.75853641e-06
936.6,944.28,0.0228367942,3.732862241e-06,0.02369678174,3.938727614e-06
944.28,951.96,0.02532710485,3.930350068e-06,0.02625097303,4.144782075e-06
951.96,959.64,0.02839112471,4.160293588e-06,0.02938667583,4.384329532e-06
959.64,967.32,0.0322402928,4.43199447e-06,0.03332125696,4.667257893e-06
967.32,975,0.03723637276,4.761137394e-06,0.03839866906,5.008358286e-06
975,982.68,0.04400902931,5.173251619e-06,0.04528583274,5.436208416e-06
982.68,990.36,0.05372311049,5.711323303e-06,0.05510544837,5.992316174e-06
990.36,998.04,0.06895058209,6.462440392e-06,0.07036694986,6.763749046e-06
998.04,1005.72,0.09660251306,7.632355802e-06,0.0976075789,7.949864937e-06
1005.72,1013.4,0.1651529634,9.924330291e-06,0.1626471126,1.021205359e-05
1013.4,1021.08,1.728703229,2.772932211e-05,1.84917646,2.971310251e-05
