# xl,xh,PS+LOnovp,dPS+LOnovp,PS+LO,dPS+LO
214.68,222.36,0,0,0,0
222.36,230.04,0,0,0,0
230.04,237.72,0,0,0,0
237.72,245.4,0,0,0,0
245.4,253.08,0,0,0,0
253.08,260.76,0,0,0,0
260.76,268.44,0,0,0,0
268.44,276.12,0,0,0,0
276.12,283.8,0,0,0,0
283.8,291.48,0,0,0,0
291.48,299.16,0,0,0,0
299.16,306.84,0,0,0,0
306.84,314.52,0,0,0,0
314.52,322.2,0,0,0,0
322.2,329.88,0,0,0,0
329.88,337.56,0,0,0,0
337.56,345.24,0,0,0,0
345.24,352.92,0,0,0,0
352.92,360.6,0,0,0,0
360.6,368.28,0,0,0,0
368.28,375.96,0,0,0,0
375.96,383.64,0,0,0,0
383.64,391.32,0,0,0,0
391.32,399,0,0,0,0
399,406.68,0,0,0,0
406.68,414.36,0,0,0,0
414.36,422.04,0,0,0,0
422.04,429.72,0,0,0,0
429.72,437.4,0,0,0,0
437.4,445.08,0,0,0,0
445.08,452.76,0,0,0,0
452.76,460.44,0,0,0,0
460.44,468.12,0,0,0,0
468.12,475.8,0,0,0,0
475.8,483.48,0,0,0,0
483.48,491.16,2.143314201e-08,3.622862041e-09,2.036628547e-08,3.657892669e-09
491.16,498.84,2.876969849e-06,4.197383837e-08,2.934690262e-06,4.390906403e-08
498.84,506.52,2.269422286e-05,1.178890693e-07,2.29079165e-05,1.226775483e-07
506.52,514.2,0.0001356375739,2.882021979e-07,0.0001372379399,3.002657132e-07
514.2,521.88,0.0002802004632,4.142243699e-07,0.0002823509809,4.306838966e-07
521.88,529.56,0.000419000916,5.065285576e-07,0.0004244367026,5.280388633e-07
529.56,537.24,0.0005552355021,5.830830078e-07,0.0005618939745,6.075501943e-07
537.24,544.92,0.0006859947974,6.481084597e-07,0.0006942139087,6.753010417e-07
544.92,552.6,0.0008154864549,7.0662859e-07,0.0008242698198,7.358364266e-07
552.6,560.28,0.0009404715616,7.588419953e-07,0.0009524803012,7.909890437e-07
560.28,567.96,0.001064614035,8.073657901e-07,0.001075320076,8.404413347e-07
567.96,575.64,0.001184283018,8.515259209e-07,0.001197983691,8.870743687e-07
575.64,583.32,0.001304753726,8.937792388e-07,0.001319215214,9.308689004e-07
583.32,591,0.001424414793,9.338564157e-07,0.001438344434,9.719822257e-07
591,598.68,0.001543235181,9.720169919e-07,0.001555207729,1.010688506e-06
598.68,606.36,0.001657355483,1.007306679e-06,0.001673797445,1.048505604e-06
606.36,614.04,0.001775903329,1.042700232e-06,0.001794295244,1.085581439e-06
614.04,621.72,0.001894014325,1.076805734e-06,0.001908437986,1.11956887e-06
621.72,629.4,0.002010085107,1.109299886e-06,0.002024943904,1.153226327e-06
629.4,637.08,0.002131012588,1.142169588e-06,0.002145486998,1.187044865e-06
637.08,644.76,0.002253319134,1.174477573e-06,0.002263325161,1.219196982e-06
644.76,652.44,0.002372420472,1.205105605e-06,0.002385149253,1.251567483e-06
652.44,660.12,0.002492790192,1.235287395e-06,0.002506063942,1.282887786e-06
660.12,667.8,0.002620973125,1.266636553e-06,0.002629871997,1.31418323e-06
667.8,675.48,0.00274950085,1.297308429e-06,0.002759048434,1.346059153e-06
675.48,683.16,0.00288001206,1.327727565e-06,0.002889358563,1.377466412e-06
683.16,690.84,0.003014701129,1.358405178e-06,0.003021522715,1.408604228e-06
690.84,698.52,0.003153039731,1.389207607e-06,0.003160625125,1.440648668e-06
698.52,706.2,0.003294824415,1.4200829e-06,0.003304119265,1.472973153e-06
706.2,713.88,0.003443593777,1.451771947e-06,0.003451333445,1.505413188e-06
713.88,721.56,0.00359830623,1.484007768e-06,0.003609236878,1.539447457e-06
721.56,729.24,0.003758917364,1.51674644e-06,0.003776037291,1.574598978e-06
729.24,736.92,0.003921788667,1.549237803e-06,0.003948691764,1.610174318e-06
736.92,744.6,0.004098204027,1.583677381e-06,0.004134004095,1.647501331e-06
744.6,752.28,0.004277601696,1.617945652e-06,0.00432257729,1.684634394e-06
752.28,759.96,0.004467641933,1.653470307e-06,0.004526246021,1.723839432e-06
759.96,767.64,0.004668511432,1.69020553e-06,0.004732287189,1.76261176e-06
767.64,775.32,0.004879644469,1.727973721e-06,0.004936535729,1.800220536e-06
775.32,783,0.005102880016,1.767026408e-06,0.005208407137,1.849091031e-06
783,790.68,0.005338412122,1.807312725e-06,0.005715622426,1.936963177e-06
790.68,798.36,0.005593675218,1.849980278e-06,0.005943884105,1.975228653e-06
798.36,806.04,0.005859231922,1.893344692e-06,0.006193253854,2.016200154e-06
806.04,813.72,0.006148726398,1.939509729e-06,0.006481625851,2.062561546e-06
813.72,821.4,0.006454570373,1.987112824e-06,0.006800815143,2.112687033e-06
821.4,829.08,0.006788691517,2.037841464e-06,0.007137859404,2.16435175e-06
829.08,836.76,0.007149069864,2.091171862e-06,0.007514701333,2.220688329e-06
836.76,844.44,0.007533844971,2.146644156e-06,0.007915002381,2.279000493e-06
844.44,852.12,0.007957287966,2.206071968e-06,0.00834714129,2.340312699e-06
852.12,859.8,0.008414919654,2.268539647e-06,0.008821328569,2.405784772e-06
859.8,867.48,0.008918034774,2.33527832e-06,0.00933834273,2.475187259e-06
867.48,875.16,0.009470312127,2.406396613e-06,0.009913664678,2.55018555e-06
875.16,882.84,0.01008699481,2.483388813e-06,0.0105474922,2.630321891e-06
882.84,890.52,0.01076451479,2.565297399e-06,0.01125374254,2.716815111e-06
890.52,898.2,0.0115323109,2.655047072e-06,0.01203356583,2.809206736e-06
898.2,905.88,0.01238805513,2.751605346e-06,0.01292321821,2.911007145e-06
905.88,913.56,0.01337291551,2.858667877e-06,0.01393394725,3.022473559e-06
913.56,921.24,0.01449915259,2.976344286e-06,0.01509348064,3.145450414e-06
921.24,928.92,0.01580055576,3.106727748e-06,0.0164276643,3.281203305e-06
928.92,936.6,0.01733284618,3.253487492e-06,0.01800203226,3.43443531e-06
936.6,944.28,0.01914365391,3.418725175e-06,0.01986691027,3.60744506e-06
944.28,951.96,0.02133774841,3.608696844e-06,0.02211946197,3.805829552e-06
951.96,959.64,0.02405790413,3.830991213e-06,0.02490198305,4.037285085e-06
959.64,967.32,0.02748961932,4.094003101e-06,0.02841726627,4.31171801e-06
967.32,975,0.03198310047,4.414371633e-06,0.03298140073,4.643512436e-06
975,982.68,0.03812423041,4.817224312e-06,0.03923750674,5.062452175e-06
982.68,990.36,0.04703175991,5.346673399e-06,0.04823972432,5.609470596e-06
990.36,998.04,0.06117718382,6.091052185e-06,0.0624414596,6.375239376e-06
998.04,1005.72,0.08738580948,7.264510695e-06,0.08830196248,7.566689902e-06
1005.72,1013.4,0.1546862132,9.612867996e-06,0.1523214414,9.890304744e-06
1013.4,1021.08,1.726617651,2.771888796e-05,1.847201334,2.970319307e-05
