# xl,xh,PS+LOnovp,dPS+LOnovp,PS+LO,dPS+LO
200,205,8.415387193e-08,5.140515591e-09,6.135466518e-07,2.738392526e-08
205,210,6.364933073e-07,1.413731396e-08,4.682275956e-06,7.564858865e-08
210,215,1.832864162e-06,2.399027838e-08,1.399059115e-05,1.307645324e-07
215,220,4.140194036e-06,3.605623107e-08,3.252780078e-05,1.993880141e-07
220,225,9.367793422e-06,5.423606698e-08,7.420876546e-05,3.011610211e-07
225,230,1.895665669e-05,7.715247414e-08,0.0001547289965,4.348661634e-07
230,235,3.422936376e-05,1.036733927e-07,0.0002837450525,5.888864903e-07
235,240,5.652799415e-05,1.332288123e-07,0.0004834219482,7.686475578e-07
240,245,8.927933449e-05,1.674324648e-07,0.0007866990658,9.80535149e-07
245,250,0.0001396201412,2.09379838e-07,0.001256483641,1.239165267e-06
250,255,0.0002184310645,2.618862424e-07,0.00200762751,1.56631645e-06
255,260,0.0004039793196,3.561414979e-07,0.00362706246,2.105172573e-06
260,265,0.001065826248,5.7841768e-07,0.00898141013,3.312002763e-06
265,270,0.00126059689,6.290328652e-07,0.01158694125,3.76147483e-06
270,275,0.00143435433,6.709678462e-07,0.01451528895,4.209556913e-06
275,280,0.001607146202,7.102144651e-07,0.01802290035,4.690031091e-06
280,285,0.00178089674,7.476002814e-07,0.02230966755,5.217186729e-06
285,290,0.001962051276,7.846808138e-07,0.0275615488,5.797643352e-06
290,295,0.002147408523,8.208856903e-07,0.03405781167,6.443124235e-06
295,300,0.0023412177,8.571033147e-07,0.04207872161,7.159481857e-06
300,305,0.002544325499,8.934801341e-07,0.05200095167,7.955827695e-06
305,310,0.002756863924,9.300191372e-07,0.06412981595,8.830819228e-06
310,315,0.002982254294,9.672557929e-07,0.07858328966,9.769832321e-06
315,320,0.003220777767,1.00515556e-06,0.09521814472,1.074719032e-05
320,325,0.003477957501,1.044474107e-06,0.113214146,1.17104775e-05
325,330,0.003760413807,1.086011163e-06,0.1307570513,1.25763143e-05
330,335,0.004067557972,1.129438531e-06,0.1453401789,1.325137996e-05
335,340,0.004405670655,1.175381651e-06,0.1571109793,1.377106288e-05
340,345,0.00478632664,1.225034587e-06,0.1653203233,1.412163145e-05
345,350,0.005220610675,1.27931796e-06,0.1695016282,1.429670989e-05
350,355,0.005725238321,1.339616665e-06,0.1696788102,1.430407889e-05
355,360,0.006330768264,1.408546058e-06,0.1660377711,1.41518347e-05
360,365,0.007081730633,1.48957301e-06,0.1575743573,1.379110052e-05
365,370,0.007975391134,1.580547943e-06,0.144429259,1.321026826e-05
370,375,0.00839524056,1.621510874e-06,0.136265626,1.283567206e-05
375,380,0.008555645414,1.636887515e-06,0.1266246741,1.237802924e-05
380,385,0.008704490687,1.651026557e-06,0.116827925,1.189419657e-05
385,390,0.00884783499,1.664528333e-06,0.1075619359,1.141697981e-05
390,395,0.008986937597,1.677525534e-06,0.09904265554,1.095923398e-05
395,400,0.009124550236,1.69028409e-06,0.09137044787,1.052941767e-05
400,405,0.009256492419,1.702426121e-06,0.08446922112,1.012674252e-05
405,410,0.009377360873,1.71347269e-06,0.07830806563,9.752815074e-06
410,415,0.009484734899,1.723225879e-06,0.07281199408,9.406388753e-06
415,420,0.009577680508,1.731623589e-06,0.06784591283,9.081735524e-06
420,425,0.009645341062,1.737710955e-06,0.06332437241,8.775468451e-06
425,430,0.009684755557,1.741247106e-06,0.0591349544,8.481625893e-06
430,435,0.009675676371,1.740433191e-06,0.05518010599,8.194383604e-06
435,440,0.009608628808,1.734410658e-06,0.05130889542,7.902926697e-06
440,445,0.009449453688,1.720027329e-06,0.0473831504,7.595757711e-06
445,450,0.009151740626,1.692793501e-06,0.04321105788,7.254847826e-06
450,455,0.008617772094,1.642803975e-06,0.0384035993,6.840682674e-06
455,460,0.007667711647,1.549834656e-06,0.03231375014,6.276416715e-06
460,465,0.005720709337,1.339087638e-06,0.02289285688,5.284815395e-06
465,470,0.001321807506,6.441175993e-07,0.005102599793,2.496782187e-06
470,475,1.852238695e-05,7.626363998e-08,7.088919604e-05,2.943479919e-07
475,480,0,0,0,0
480,485,0,0,0,0
485,490,0,0,0,0
490,495,0,0,0,0
495,500,0,0,0,0
