# xl,xh,PS+LOnovp,dPS+LOnovp,PS+LO,dPS+LO
0,10,0,0,0,0
10,20,0,0,0,0
20,30,0,0,0,0
30,40,0,0,0,0
40,50,0,0,0,0
50,60,0,0,0,0
60,70,0,0,0,0
70,80,0,0,0,0
80,90,0,0,0,0
90,100,0,0,0,0
100,110,0,0,0,0
110,120,0,0,0,0
120,130,0,0,0,0
130,140,0.08904861345,3.634231167e-06,1.185038409,2.426482895e-05
140,150,0.01517149106,1.536077953e-06,0.2022607685,1.093882536e-05
150,160,0.003792920104,7.707789906e-07,0.04955525646,5.481479059e-06
160,170,0.002463336426,6.214190816e-07,0.03184677279,4.400441251e-06
170,180,0.001914214762,5.478885353e-07,0.02445800825,3.858587292e-06
180,190,0.001622175674,5.044118218e-07,0.0204406797,3.528609265e-06
190,200,0.00145157691,4.771768511e-07,0.0179645748,3.308639577e-06
200,210,0.001327722346,4.563832512e-07,0.01627030713,3.149177016e-06
210,220,0.001123141187,4.1977914e-07,0.01461627179,2.985205984e-06
220,230,0.0009480686041,3.856978197e-07,0.01327519332,2.845263392e-06
230,240,0.0008124431589,3.570607425e-07,0.01221330804,2.729324375e-06
240,250,0.0007025324107,3.32042464e-07,0.01135948808,2.632371555e-06
250,260,0.000613365021,3.102644248e-07,0.01064322293,2.548173365e-06
260,270,0.0005379144353,2.905622985e-07,0.01002953166,2.473738466e-06
270,280,0.0004746690175,2.729522254e-07,0.009487872172,2.406115404e-06
280,290,0.0004199628705,2.567461953e-07,0.008993436465,2.342673922e-06
290,300,0.0003726433061,2.418530775e-07,0.008525573944,2.281008287e-06
300,310,0.0003301249153,2.276406628e-07,0.008060484227,2.218000185e-06
310,320,0.0002928143586,2.1439365e-07,0.007574268262,2.150146387e-06
320,330,0.0002591247749,2.016855344e-07,0.007036368214,2.072480312e-06
330,340,0.0002285523252,1.894162388e-07,0.006423071667,1.980197722e-06
340,350,0.0001999535902,1.771710866e-07,0.005720088092,1.86879918e-06
350,360,0.000174303415,1.654187321e-07,0.004908250614,1.731220854e-06
360,370,0.0001500561878,1.534835892e-07,0.003851214139,1.533642687e-06
370,380,0.0001274831081,1.414700035e-07,0.00281418256,1.311103668e-06
380,390,0.0001057460784,1.288466481e-07,0.001936117425,1.087569057e-06
390,400,8.513067138e-05,1.156077072e-07,0.001268332992,8.802996645e-07
400,410,6.492079963e-05,1.009574507e-07,0.0007927783636,6.959949208e-07
410,420,4.526595879e-05,8.430143942e-08,0.0004594299752,5.298479411e-07
420,430,2.585995212e-05,6.371849991e-08,0.0002221819118,3.684716348e-07
430,440,6.651943488e-06,3.231682248e-08,5.029565109e-05,1.753157201e-07
440,450,0,0,0,0
450,460,0,0,0,0
460,470,0,0,0,0
470,480,0,0,0,0
480,490,0,0,0,0
490,500,0,0,0,0
