# xl,xh,PS+LOnovp,dPS+LOnovp,PS+LO,dPS+LO
0,5,0.005400511896,1.301137399e-06,0.08090507651,9.912195756e-06
5,10,0.005400320287,1.301114351e-06,0.08079217605,9.9053216e-06
10,15,0.005398565566,1.300903303e-06,0.08058329151,9.892590393e-06
15,20,0.005395553047,1.300540903e-06,0.080276523,9.873862879e-06
20,25,0.005388674751,1.299713066e-06,0.07984380631,9.847384385e-06
25,30,0.005384553401,1.299216779e-06,0.07933610515,9.816224114e-06
30,35,0.005375804209,1.298162584e-06,0.07875077391,9.780172935e-06
35,40,0.005368521595,1.297284433e-06,0.07811412542,9.740805588e-06
40,45,0.005356808898,1.295870866e-06,0.07735891256,9.693894401e-06
45,50,0.005350078646,1.295057887e-06,0.07654904314,9.643328268e-06
50,55,0.005333596383,1.293064792e-06,0.07574563329,9.592895556e-06
55,60,0.005319591365,1.291368817e-06,0.07484171969,9.535827139e-06
60,65,0.005306598909,1.289793454e-06,0.07392391327,9.477521429e-06
65,70,0.005288836858,1.287636641e-06,0.07313735729,9.427260004e-06
70,75,0.005272740217,1.285678902e-06,0.0723946978,9.379550681e-06
75,80,0.005256425252,1.283691527e-06,0.07166809414,9.332631096e-06
80,85,0.005233889802,1.280941319e-06,0.07094542085,9.285724695e-06
85,90,0.005210912352,1.278131058e-06,0.07022879977,9.23897061e-06
90,95,0.005186778398,1.27517263e-06,0.06949337431,9.190736662e-06
95,100,0.00516359741,1.272324499e-06,0.06876966508,9.143017544e-06
100,105,0.005135213583,1.268828354e-06,0.06806462797,9.09628325e-06
105,110,0.005106753119,1.265312999e-06,0.06737647545,9.050430448e-06
110,115,0.005075352218,1.261423009e-06,0.06667444188,9.003406891e-06
115,120,0.005039304315,1.256942444e-06,0.06598865012,8.957227644e-06
120,125,0.005003566313,1.252484427e-06,0.06526419423,8.908179455e-06
125,130,0.00494979093,1.245746195e-06,0.06450691495,8.856612339e-06
130,135,0.004891521714,1.238403208e-06,0.06371562713,8.802400199e-06
135,140,0.004836197663,1.231390604e-06,0.06293206363,8.748379293e-06
140,145,0.004774425991,1.223512936e-06,0.06215221232,8.694274298e-06
145,150,0.004709879187,1.215226486e-06,0.06139433167,8.641362561e-06
150,155,0.004646313637,1.207010082e-06,0.06062376714,8.587224433e-06
155,160,0.004583620237,1.19885095e-06,0.0598515925,8.532621841e-06
160,165,0.004515777795,1.189958283e-06,0.0590957417,8.478826482e-06
165,170,0.004447034212,1.180878812e-06,0.05833581933,8.424388488e-06
170,175,0.004377867498,1.171672076e-06,0.05758551876,8.370285769e-06
175,180,0.004304371445,1.161808647e-06,0.05681403338,8.314281593e-06
180,185,0.004230607477,1.151823885e-06,0.05603352319,8.257228732e-06
185,190,0.004154939797,1.141490211e-06,0.05525532522,8.199942537e-06
190,195,0.00407828857,1.130925445e-06,0.05446441133,8.141299958e-06
195,200,0.003994876879,1.119315038e-06,0.05366225589,8.081381524e-06
200,205,0.003910029598,1.107379246e-06,0.05282146693,8.018088406e-06
205,210,0.003824521962,1.095218368e-06,0.05196379422,7.952996586e-06
210,215,0.00372808229,1.081337831e-06,0.05105689887,7.883574576e-06
215,220,0.003611752287,1.064352521e-06,0.04998372886,7.800613229e-06
220,225,0.003466720227,1.042787233e-06,0.04864576059,7.695909078e-06
225,230,0.003314295816,1.019629129e-06,0.04714732628,7.576903042e-06
230,235,0.003153126531,9.945535636e-07,0.04549817209,7.443694171e-06
235,240,0.002989550701,9.684372358e-07,0.04366397683,7.292639127e-06
240,245,0.002815534991,9.39854706e-07,0.04155237388,7.114711478e-06
245,250,0.00263787119,9.097436591e-07,0.03914320336,6.906037873e-06
250,255,0.00245197864,8.771283329e-07,0.0362759997,6.649051974e-06
255,260,0.002259451923,8.420140609e-07,0.03285702564,6.328822059e-06
260,265,0.002059831503,8.0398346e-07,0.02883629727,5.929902476e-06
265,270,0.001880168131,7.681423874e-07,0.02432162275,5.446927293e-06
270,275,0.001731507709,7.371665769e-07,0.01960010065,4.890637626e-06
275,280,0.001572834169,7.025958667e-07,0.01535240161,4.329097303e-06
280,285,0.00140654377,6.644341794e-07,0.01175571708,3.788745463e-06
285,290,0.001225479927,6.202126992e-07,0.008726129149,3.264627418e-06
290,295,0.001025657039,5.674167246e-07,0.00627187651,2.767984262e-06
295,300,0.0007952198677,4.996434621e-07,0.004211605009,2.268422757e-06
300,305,0.0005159921506,4.024917477e-07,0.002388056552,1.708259056e-06
305,310,0.0001605217426,2.245051575e-07,0.0006647570645,9.013478427e-07
310,315,8.236421058e-07,1.608197261e-08,3.150843611e-06,6.205621976e-08
315,320,0,0,0,0
320,325,0,0,0,0
325,330,0,0,0,0
330,335,0,0,0,0
335,340,0,0,0,0
340,345,0,0,0,0
345,350,0,0,0,0
350,355,0,0,0,0
355,360,0,0,0,0
360,365,0,0,0,0
365,370,0,0,0,0
370,375,0,0,0,0
