# xl,xh,PS+LOnovp,dPS+LOnovp,PS+LO,dPS+LO
140,145,0,0,0,0
145,150,0,0,0,0
150,155,0,0,0,0
155,160,0,0,0,0
160,165,0,0,0,0
165,170,0,0,0,0
170,175,0,0,0,0
175,180,0,0,0,0
180,185,0,0,0,0
185,190,0,0,0,0
190,195,0,0,0,0
195,200,0,0,0,0
200,205,0,0,0,0
205,210,0,0,0,0
210,215,0,0,0,0
215,220,0,0,0,0
220,225,0,0,0,0
225,230,2.260854499e-08,2.664442441e-09,1.539973127e-07,1.371917032e-08
230,235,3.108671772e-07,9.880006522e-09,2.352744516e-06,5.362401683e-08
235,240,1.529847335e-06,2.191766734e-08,1.203142146e-05,1.212637264e-07
240,245,7.390174249e-06,4.817226413e-08,5.781527915e-05,2.658230789e-07
245,250,1.951150937e-05,7.827343443e-08,0.0001563923606,4.371972474e-07
250,255,3.826373855e-05,1.096128172e-07,0.0003175072595,6.22936349e-07
255,260,6.615956763e-05,1.441325572e-07,0.0005702401386,8.34817323e-07
260,265,0.0001095130669,1.854367564e-07,0.0009792723995,1.093974765e-06
265,270,0.0001560744318,2.213734554e-07,0.001470739088,1.34064866e-06
270,275,0.0002078794753,2.55483004e-07,0.002099781986,1.601856002e-06
275,280,0.0002729566574,2.927511867e-07,0.002966487691,1.903894036e-06
280,285,0.0003579356491,3.352343861e-07,0.004166959947,2.256371423e-06
285,290,0.0006333469141,4.459111576e-07,0.007305878289,2.987331138e-06
290,295,0.0009154176536,5.36065827e-07,0.01146584645,3.74178559e-06
295,300,0.001159577522,6.033119007e-07,0.01618198799,4.444377028e-06
300,305,0.001395832972,6.619006242e-07,0.0218387498,5.16192628e-06
305,310,0.001628829292,7.149869684e-07,0.02852854726,5.898246346e-06
310,315,0.001862965798,7.646223439e-07,0.03629788818,6.651051888e-06
315,320,0.002095159226,8.108441636e-07,0.04509747801,7.410961535e-06
320,325,0.002330201916,8.550859881e-07,0.05473303887,8.161265493e-06
325,330,0.002568598917,8.977286261e-07,0.06496723653,8.887994431e-06
330,335,0.002805809856,9.38231554e-07,0.07543283191,9.573186341e-06
335,340,0.003031431835,9.751908014e-07,0.08477463306,1.014491046e-05
340,345,0.00323256231,1.006990945e-06,0.09331892972,1.064027209e-05
345,350,0.003437667468,1.038413184e-06,0.1013189597,1.10834539e-05
350,355,0.003647747197,1.069637065e-06,0.108636844,1.147339451e-05
355,360,0.003863912676,1.100837285e-06,0.1150881414,1.180611877e-05
360,365,0.004097798165,1.133623814e-06,0.120612399,1.208348813e-05
365,370,0.004337880139,1.166316028e-06,0.1249561063,1.229702194e-05
370,375,0.00459690807,1.200584929e-06,0.128632006,1.247475773e-05
375,380,0.004873836026,1.236165826e-06,0.1315593189,1.261443334e-05
380,385,0.005172332394,1.273398469e-06,0.1336148781,1.271155722e-05
385,390,0.005495103088,1.312463455e-06,0.1347310608,1.276397343e-05
390,395,0.005841360894,1.353109453e-06,0.1348540827,1.276973668e-05
395,400,0.006227007731,1.396977961e-06,0.1339075205,1.27253215e-05
400,405,0.00664987655,1.443537499e-06,0.1318027003,1.262597362e-05
405,410,0.00711783084,1.493356452e-06,0.1284980355,1.246832628e-05
410,415,0.007642935445,1.547334655e-06,0.12402175,1.225141623e-05
415,420,0.00823296148,1.605803158e-06,0.1184524185,1.197583106e-05
420,425,0.008906067783,1.66998183e-06,0.1122079795,1.1658791e-05
425,430,0.009677907718,1.74063326e-06,0.1060348129,1.133633167e-05
430,435,0.01057334757,1.819123621e-06,0.1010985089,1.107148661e-05
435,440,0.01162766111,1.907351734e-06,0.09684960971,1.083816755e-05
440,445,0.01288821317,2.00768524e-06,0.0936800663,1.066068769e-05
445,450,0.0144304579,2.123903941e-06,0.09194207812,1.056206355e-05
450,455,0.01625036499,2.253217143e-06,0.09150052569,1.053685561e-05
455,460,0.01685886505,2.294797698e-06,0.08666678175,1.02567309e-05
460,465,0.01582103757,2.223402389e-06,0.07599906268,9.608833319e-06
465,470,0.01302122126,2.017976593e-06,0.05921235514,8.487148628e-06
470,475,0.009028001432,1.681342964e-06,0.03898116843,6.891773347e-06
475,480,0.004249266204,1.154357756e-06,0.01733459241,4.599726425e-06
480,485,0.0003207030894,3.173219758e-07,0.001254924122,1.238396099e-06
485,490,2.826110346e-09,9.420367365e-10,1.099994564e-08,3.666648377e-09
490,495,0,0,0,0
495,500,0,0,0,0
500,505,0,0,0,0
505,510,0,0,0,0
510,515,0,0,0,0
