# xl,xh,PS+LOnovp,dPS+LOnovp,PS+LO,dPS+LO
214.68,222.36,0,0,0,0
222.36,230.04,0,0,0,0
230.04,237.72,0,0,0,0
237.72,245.4,0,0,0,0
245.4,253.08,0,0,0,0
253.08,260.76,0,0,0,0
260.76,268.44,0,0,0,0
268.44,276.12,0,0,0,0
276.12,283.8,0,0,0,0
283.8,291.48,0,0,0,0
291.48,299.16,0,0,0,0
299.16,306.84,0,0,0,0
306.84,314.52,0,0,0,0
314.52,322.2,0,0,0,0
322.2,329.88,0,0,0,0
329.88,337.56,0,0,0,0
337.56,345.24,0,0,0,0
345.24,352.92,0,0,0,0
352.92,360.6,0,0,0,0
360.6,368.28,0,0,0,0
368.28,375.96,0,0,0,0
375.96,383.64,0,0,0,0
383.64,391.32,0,0,0,0
391.32,399,0,0,0,0
399,406.68,0,0,0,0
406.68,414.36,0,0,0,0
414.36,422.04,0,0,0,0
422.04,429.72,0,0,0,0
429.72,437.4,0,0,0,0
437.4,445.08,0,0,0,0
445.08,452.76,0,0,0,0
452.76,460.44,0,0,0,0
460.44,468.12,0,0,0,0
468.12,475.8,0,0,0,0
475.8,483.48,0,0,0,0
483.48,491.16,0,0,0,0
491.16,498.84,0,0,0,0
498.84,506.52,0,0,0,0
506.52,514.2,0,0,0,0
514.2,521.88,0,0,0,0
521.88,529.56,0,0,0,0
529.56,537.24,0,0,0,0
537.24,544.92,0,0,0,0
544.92,552.6,0,0,0,0
552.6,560.28,0,0,0,0
560.28,567.96,0,0,0,0
567.96,575.64,0,0,0,0
575.64,583.32,0,0,0,0
583.32,591,0,0,0,0
591,598.68,0,0,0,0
598.68,606.36,0,0,0,0
606.36,614.04,0,0,0,0
614.04,621.72,0,0,0,0
621.72,629.4,0,0,0,0
629.4,637.08,0,0,0,0
637.08,644.76,0,0,0,0
644.76,652.44,0,0,0,0
652.44,660.12,0,0,0,0
660.12,667.8,0,0,0,0
667.8,675.48,0,0,0,0
675.48,683.16,0,0,0,0
683.16,690.84,0,0,0,0
690.84,698.52,0,0,0,0
698.52,706.2,0,0,0,0
706.2,713.88,0,0,0,0
713.88,721.56,0,0,0,0
721.56,729.24,0,0,0,0
729.24,736.92,0,0,0,0
736.92,744.6,0,0,0,0
744.6,752.28,0,0,0,0
752.28,759.96,0,0,0,0
759.96,767.64,0,0,0,0
767.64,775.32,0,0,0,0
775.32,783,0,0,0,0
783,790.68,0,0,0,0
790.68,798.36,0,0,0,0
798.36,806.04,0,0,0,0
806.04,813.72,0,0,0,0
813.72,821.4,0,0,0,0
821.4,829.08,0,0,0,0
829.08,836.76,0,0,0,0
836.76,844.44,0,0,0,0
844.44,852.12,0,0,0,0
852.12,859.8,0,0,0,0
859.8,867.48,0,0,0,0
867.48,875.16,0,0,0,0
875.16,882.84,0,0,0,0
882.84,890.52,0,0,0,0
890.52,898.2,0,0,0,0
898.2,905.88,0,0,0,0
905.88,913.56,0,0,0,0
913.56,921.24,0,0,0,0
921.24,928.92,0,0,0,0
928.92,936.6,0,0,0,0
936.6,944.28,0,0,0,0
944.28,951.96,0,0,0,0
951.96,959.64,0,0,0,0
959.64,967.32,0,0,0,0
967.32,975,0,0,0,0
975,982.68,0,0,0,0
982.68,990.36,0,0,0,0
990.36,998.04,0,0,0,0
998.04,1005.72,0,0,0,0
1005.72,1013.4,0,0,0,0
1013.4,1021.08,0,0,0,0
