# xl,xh,PS+LOnovp,dPS+LOnovp,PS+LO,dPS+LO
214.68,222.36,0,0,0,0
222.36,230.04,0,0,0,0
230.04,237.72,0,0,0,0
237.72,245.4,0,0,0,0
245.4,253.08,0,0,0,0
253.08,260.76,0,0,0,0
260.76,268.44,0,0,0,0
268.44,276.12,0,0,0,0
276.12,283.8,0,0,0,0
283.8,291.48,0,0,0,0
291.48,299.16,0,0,0,0
299.16,306.84,0,0,0,0
306.84,314.52,0,0,0,0
314.52,322.2,0,0,0,0
322.2,329.88,0,0,0,0
329.88,337.56,0,0,0,0
337.56,345.24,0,0,0,0
345.24,352.92,0,0,0,0
352.92,360.6,0,0,0,0
360.6,368.28,0,0,0,0
368.28,375.96,0,0,0,0
375.96,383.64,0,0,0,0
383.64,391.32,0,0,0,0
391.32,399,0,0,0,0
399,406.68,0,0,0,0
406.68,414.36,0,0,0,0
414.36,422.04,0,0,0,0
422.04,429.72,0,0,0,0
429.72,437.4,0,0,0,0
437.4,445.08,0,0,0,0
445.08,452.76,0,0,0,0
452.76,460.44,0,0,0,0
460.44,468.12,0,0,0,0
468.12,475.8,0,0,0,0
475.8,483.48,0,0,0,0
483.48,491.16,3.67975946e-09,8.673275809e-10,1.591409161e-08,3.558498863e-09
491.16,498.84,2.17720408e-07,6.671512328e-09,7.272752582e-07,2.405612522e-08
498.84,506.52,1.036675204e-06,1.455780096e-08,3.690486857e-06,5.418987787e-08
506.52,514.2,2.646170061e-06,2.325858048e-08,9.826979907e-06,8.842728898e-08
514.2,521.88,6.595797726e-06,3.672040991e-08,2.58644841e-05,1.434590776e-07
521.88,529.56,2.225796248e-05,6.745513373e-08,9.208723002e-05,2.706911073e-07
529.56,537.24,7.102219632e-05,1.204936922e-07,0.0003098405552,4.965210825e-07
537.24,544.92,0.0001243189022,1.594154239e-07,0.0005736009053,6.755640658e-07
544.92,552.6,0.0001775957553,1.905340081e-07,0.0008662932153,8.30207002e-07
552.6,560.28,0.0002301335998,2.168906277e-07,0.001192787923,9.74152509e-07
560.28,567.96,0.0002832223811,2.406074379e-07,0.001556041895,1.112618849e-06
567.96,575.64,0.000335428621,2.618423581e-07,0.001965641999,1.250481333e-06
575.64,583.32,0.0003871166932,2.812907626e-07,0.002428721349,1.389957891e-06
583.32,591,0.0004394045499,2.996825068e-07,0.002947468006,1.531171061e-06
591,598.68,0.0004913961516,3.169126701e-07,0.003537081483,1.677282274e-06
598.68,606.36,0.0005425315811,3.329898036e-07,0.004206985645,1.829159287e-06
606.36,614.04,0.0005945514021,3.485842306e-07,0.004977149116,1.989463813e-06
614.04,621.72,0.0006469686602,3.636212293e-07,0.005850078276,2.156768824e-06
621.72,629.4,0.0006983980897,3.777929122e-07,0.006864305809,2.336115701e-06
629.4,637.08,0.0007513645516,3.918520506e-07,0.008037861608,2.527757434e-06
637.08,644.76,0.0008042667103,4.054070884e-07,0.009389314391,2.731784732e-06
644.76,652.44,0.000857654359,4.186411398e-07,0.0109715946,2.952723113e-06
652.44,660.12,0.0009122941599,4.317650988e-07,0.0128139404,3.190660951e-06
660.12,667.8,0.0009664521698,4.443903977e-07,0.01496600489,3.447748117e-06
667.8,675.48,0.001023211307,4.572474164e-07,0.01749955139,3.727599552e-06
675.48,683.16,0.001080340942,4.698325463e-07,0.02044413238,4.028306268e-06
683.16,690.84,0.001138623496,4.823326986e-07,0.02387765399,4.352546109e-06
690.84,698.52,0.001198052921,4.947530358e-07,0.02787788853,4.701884015e-06
698.52,706.2,0.001258262528,5.070255719e-07,0.03248029232,5.073765457e-06
706.2,713.88,0.001321369552,5.195769113e-07,0.0377117048,5.465378901e-06
713.88,721.56,0.001386833813,5.322836385e-07,0.04354662922,5.8709066e-06
721.56,729.24,0.001452521736,5.447351644e-07,0.04989308297,6.281742643e-06
729.24,736.92,0.001522071845,5.576150204e-07,0.05651699636,6.683040352e-06
736.92,744.6,0.001594414705,5.707028439e-07,0.0631310466,7.060423367e-06
744.6,752.28,0.001670615311,5.841706227e-07,0.06938083623,7.39883327e-06
752.28,759.96,0.001747757638,5.974947528e-07,0.0748758234,7.683665068e-06
759.96,767.64,0.001830627036,6.114836211e-07,0.07961508903,7.920807028e-06
767.64,775.32,0.001915733615,6.255235044e-07,0.08414765972,8.140897858e-06
775.32,783,0.002007179603,6.402649221e-07,0.08505968315,8.184439086e-06
783,790.68,0.002102723678,6.553114989e-07,0.06612735525,7.224709065e-06
790.68,798.36,0.002204504713,6.709677473e-07,0.06588638156,7.211639483e-06
798.36,806.04,0.002312118058,6.871316845e-07,0.065229322,7.175877811e-06
806.04,813.72,0.002427635807,7.040682294e-07,0.06297317668,7.051657954e-06
813.72,821.4,0.002550674226,7.216684598e-07,0.06006490956,6.888123827e-06
821.4,829.08,0.002683152242,7.401489834e-07,0.05697421249,6.70983127e-06
829.08,836.76,0.002825190059,7.594611969e-07,0.05394117487,6.529996896e-06
836.76,844.44,0.00297805075,7.797079182e-07,0.05109160907,6.356280081e-06
844.44,852.12,0.003144371007,8.011531264e-07,0.04848753851,6.193159086e-06
852.12,859.8,0.003327273684,8.240886404e-07,0.04615465015,6.043195411e-06
859.8,867.48,0.003525154738,8.481999083e-07,0.04412490718,5.909551313e-06
867.48,875.16,0.003744827654,8.741827971e-07,0.04235921062,5.790728937e-06
875.16,882.84,0.003985409404,9.01774274e-07,0.04087970006,5.689214154e-06
882.84,890.52,0.004254525059,9.316632731e-07,0.03967552037,5.605206143e-06
890.52,898.2,0.004556396761,9.640795308e-07,0.03874129667,5.539136232e-06
898.2,905.88,0.004895398562,9.992195672e-07,0.03805680919,5.49021373e-06
905.88,913.56,0.005284559566,1.038080158e-06,0.03766387704,5.461927903e-06
913.56,921.24,0.005726143316,1.080467565e-06,0.03754551555,5.453378142e-06
921.24,928.92,0.006243019248,1.128039394e-06,0.03773792995,5.467270088e-06
928.92,936.6,0.006850577355,1.181482735e-06,0.03826684797,5.505272981e-06
936.6,944.28,0.007576142962,1.242259859e-06,0.03920903932,5.57231564e-06
944.28,951.96,0.008455583087,1.312105336e-06,0.04064094167,5.672658318e-06
951.96,959.64,0.009552842961,1.394277064e-06,0.04272647049,5.81564791e-06
959.64,967.32,0.01092068199,1.490271005e-06,0.04552474237,6.002046021e-06
967.32,975,0.01259841917,1.600013399e-06,0.0490792381,6.230607737e-06
975,982.68,0.01486592987,1.737101478e-06,0.05421131223,6.546219776e-06
982.68,990.36,0.01812512855,1.91659077e-06,0.06187085778,6.990137568e-06
990.36,998.04,0.0232340262,2.167287731e-06,0.07432133682,7.655421175e-06
998.04,1005.72,0.03249037246,2.557171673e-06,0.09718287549,8.741769701e-06
1005.72,1013.4,0.05547315917,3.322707562e-06,0.1530921648,1.093420568e-05
1013.4,1021.08,0.596310341,9.339502555e-06,1.540956824,3.157856287e-05
