# xl,xh,ISR,dISR,FULL,dFULL,FSR,dFSR
316.0,326.1,1.0030520885725742e-10,4.9315482276251705e-12,0.000264659001814,2.75982350650991e-07,6.909156542076963e-12,1.9840954148184315e-12
326.1,336.2,9.937695938848082e-11,4.962426701397096e-12,0.0002640894745002,2.810668237318514e-07,7.473778493844194e-12,2.042030758885593e-12
336.2,346.3,9.660208364801092e-11,4.970129952178329e-12,0.0002565935438419,2.825839342183213e-07,7.850959926075012e-12,2.0847532660750114e-12
346.3,356.4,9.428556273281947e-11,4.977983889390641e-12,0.0002515671318163,2.849044768126704e-07,8.238161628018878e-12,2.126320334604462e-12
356.4,366.5,9.251486930963768e-11,4.999995635916589e-12,0.0002471754271415,2.8748309612440017e-07,8.734428379221875e-12,2.173679295040018e-12
366.5,376.6,9.0821126157135e-11,5.025356787335801e-12,0.0002443117326986,2.910326159916141e-07,9.192607721794412e-12,2.216521191680701e-12
376.6,386.7,8.924138281278972e-11,5.038369947097335e-12,0.0002416267975746,2.949791470077867e-07,9.640946912467842e-12,2.2566141187518835e-12
386.7,396.8,8.766950306301265e-11,5.059087856586831e-12,0.0002385549204789,2.976636134365667e-07,1.0108191612958462e-11,2.2963720820832e-12
396.8,406.9,8.633041268725537e-11,5.0860611817478144e-12,0.0002357047206744,2.997642438230937e-07,1.0641272493685556e-11,2.338639015855785e-12
406.9,417.0,8.563560490941636e-11,5.1237735742335305e-12,0.0002344867476537,3.031975664836356e-07,1.1223244401505979e-11,2.3817620586068095e-12
417.0,427.1,8.555024896104672e-11,5.173177266238354e-12,0.0002356828149702,3.087603631796624e-07,1.1964372010838284e-11,2.432339747176004e-12
427.1,437.2,8.608805468727419e-11,5.2294248751051175e-12,0.0002389242744743,3.15600126935082e-07,1.276792580757552e-11,2.484513187670202e-12
437.2,447.3,8.716494653981595e-11,5.29457008787938e-12,0.0002426455768857,3.225239562426675e-07,1.3723000179230754e-11,2.542633832612466e-12
447.3,457.4,8.868625967052548e-11,5.361299203113125e-12,0.000248452361121,3.315333519401142e-07,1.4744937086212504e-11,2.6005380357940913e-12
457.4,467.5,9.062120922701149e-11,5.445600044170908e-12,0.0002551219548615,3.412741207885691e-07,1.5973106714068983e-11,2.666102696387334e-12
467.5,477.6,9.281857589874172e-11,5.5299811013540596e-12,0.0002636924128306,3.525325218738162e-07,1.736189594134531e-11,2.7348857810419015e-12
477.6,487.7,9.566416887392172e-11,5.628030419826307e-12,0.0002732117079501,3.641729306308985e-07,1.896106583386324e-11,2.808737824168301e-12
487.7,497.8,9.871308864644104e-11,5.7306976857031255e-12,0.0002845449079144,3.78284440400344e-07,2.0726414037739524e-11,2.8846573516235488e-12
497.8,507.9,1.0250252927694375e-10,5.8435871590147e-12,0.000297930529946,3.928251242921763e-07,2.279654256484032e-11,2.966843652391073e-12
507.9,518.0,1.0665573618037258e-10,5.9567021102116746e-12,0.0003127198413299,4.094175877569929e-07,2.513298874567857e-11,3.053291767841377e-12
518.0,528.1,1.1168711531587795e-10,6.084864321603723e-12,0.0003302845313863,4.26513586906872e-07,2.7978243413156224e-11,3.147961936877698e-12
528.1,538.2,1.1717827468724143e-10,6.21201836893495e-12,0.0003512985221704,4.469045204584033e-07,3.1224835615830404e-11,3.2475537448387048e-12
538.2,548.3,1.2358256066902844e-10,6.347487632558455e-12,0.0003720875471256,4.6744819366892747e-07,3.500957658753205e-11,3.351922542743176e-12
548.3,558.4,1.304017184778655e-10,6.479485745095607e-12,0.0003994575532566,4.92819115038911e-07,3.960248981400395e-11,3.466069417333325e-12
558.4,568.5,1.3835713443346644e-10,6.629592727509126e-12,0.0004304545355094,5.196058221098354e-07,4.5197717462837e-11,3.589368013278121e-12
568.5,578.6,1.4827622365741487e-10,6.789916775599781e-12,0.000468784606836,5.527658420060519e-07,5.215191101023809e-11,3.722335418016939e-12
578.6,588.7,1.5963866541098014e-10,6.961115678535741e-12,0.0005164749607345,5.914648962053181e-07,6.133607181307742e-11,3.87145165548491e-12
588.7,598.8,1.7253319787826339e-10,7.128288483897133e-12,0.0005695673840032,6.320509505111816e-07,7.271297930193312e-11,4.025725589307211e-12
598.8,608.9,1.8602618303128152e-10,7.30537919986543e-12,0.0006329353242742,6.775071520271713e-07,8.639356500812203e-11,4.175584544030008e-12
608.9,619.0,1.9911167328197235e-10,7.45798761164546e-12,0.0006948570559514,7.224942765406441e-07,1.0091627336146327e-10,4.311666188436596e-12
619.0,629.1,2.0846306371456304e-10,7.584163689291952e-12,0.0007415250566484,7.565051662624544e-07,1.1320243690765344e-10,4.431956945518105e-12
629.1,639.2,2.1624185730529517e-10,7.696828469011565e-12,0.0007823928064652,7.878835513334321e-07,1.2370579912334283e-10,4.538219207163337e-12
639.2,649.3,2.2266181682574116e-10,7.801597467728729e-12,0.0008168356403546,8.167101929302156e-07,1.3310727641807608e-10,4.639528837831594e-12
649.3,659.4,2.2858843231672266e-10,7.889712160634681e-12,0.0008473031814781,8.419931234825866e-07,1.419598292059065e-10,4.738487607558616e-12
659.4,669.5,2.3440071398030713e-10,7.993609623373335e-12,0.000882012227466,8.690948061630954e-07,1.5140756579719387e-10,4.8402949128874305e-12
669.5,679.6,2.4094502882702436e-10,8.105022608924682e-12,0.0009168228363481,8.977153396163663e-07,1.6151574520287847e-10,4.94501195475184e-12
679.6,689.7,2.480252719284075e-10,8.21104728473561e-12,0.0009568813416321,9.282811054332684e-07,1.7294918872370037e-10,5.057459919813287e-12
689.7,699.8,2.5590511937174927e-10,8.32691090595975e-12,0.0009996888221591,9.60207533420083e-07,1.8463938471810183e-10,5.167898393666036e-12
699.8,709.9,2.64499563113997e-10,8.446328366786615e-12,0.0010451887758607,9.929283032663691e-07,1.9778825272745328e-10,5.2862859781950725e-12
709.9,720.0,2.7336685564347885e-10,8.553444135184113e-12,0.0010962843610619,1.0311194922124318e-06,2.1190204430014068e-10,5.4071936274731095e-12
720.0,730.1,2.829186046718832e-10,8.682468242201733e-12,0.0011511057840555,1.0696398966204474e-06,2.2704878361597543e-10,5.5317910318812775e-12
730.1,740.2,2.9368578673939393e-10,8.814583658157409e-12,0.0012102640899259,1.1084603593964416e-06,2.433089952534898e-10,5.6585468982433335e-12
740.2,750.3,3.0518806538050667e-10,8.943503075039006e-12,0.0012727083398495,1.1515861097059734e-06,2.619722599641589e-10,5.796662669061348e-12
750.3,760.4,3.1727536752116735e-10,9.082169118202852e-12,0.0013450003301463,1.1987552714692684e-06,2.8184641265130044e-10,5.936378790013724e-12
760.4,770.5,3.312678036833277e-10,9.242992262730328e-12,0.0014206609399998,1.2457678776718583e-06,3.0374366420445684e-10,6.081906973171123e-12
770.5,780.6,3.457969895781435e-10,9.392084106589628e-12,0.0015044163933678,1.2965955809873967e-06,3.282094495384274e-10,6.2360265464176355e-12
780.6,790.7,3.6268563859853816e-10,9.558081588926228e-12,0.0015989815151076,1.355378048096806e-06,3.548757283560096e-10,6.3947187979201046e-12
790.7,800.8,3.8066038652688133e-10,9.718536304930975e-12,0.0017014684284605,1.4138085103716485e-06,3.8430194139552376e-10,6.5603940895769726e-12
800.8,810.9,4.0043563586478006e-10,9.89935558074217e-12,0.0018155195077171,1.4789909467634085e-06,4.1723077796347076e-10,6.734253298715293e-12
810.9,821.0,4.2211689903739863e-10,1.00850249622394e-11,0.0019430072156651,1.5478625937038808e-06,4.5375545601072316e-10,6.9165317524671655e-12
821.0,831.1,4.4659911377479277e-10,1.0275245192181651e-11,0.0020868284324449,1.6233035428163518e-06,4.946347997267825e-10,7.1076865779008384e-12
831.1,841.2,4.74313970131639e-10,1.0491195841475194e-11,0.0022402511609597,1.7044607760001634e-06,5.417045211649474e-10,7.313125690296994e-12
841.2,851.3,5.047789900361566e-10,1.0701893185161642e-11,0.0024207080567177,1.791744754036185e-06,5.938689659511698e-10,7.525694048689267e-12
851.3,861.4,5.392564242427007e-10,1.0930773225405998e-11,0.0026289761988703,1.890601200280378e-06,6.53575015936905e-10,7.752194933962022e-12
861.4,871.5,5.789951082931591e-10,1.1194560460320469e-11,0.0028620932570355,1.9958850799805164e-06,7.223805971380544e-10,7.994351696956028e-12
871.5,881.6,6.245399787443781e-10,1.1444681982608432e-11,0.00312959739053,2.1132222823742887e-06,8.016030455858125e-10,8.252460984357859e-12
881.6,891.7,6.759916983989043e-10,1.1739339453336816e-11,0.0034423863661678,2.2425307040647206e-06,8.951486375969614e-10,8.531958500428835e-12
891.7,901.8,7.36761572650826e-10,1.2042428249009831e-11,0.0038138705481715,2.390213398591366e-06,1.004020969462182e-09,8.830901545467282e-12
901.8,911.9,8.107338504999333e-10,1.2377436529053415e-11,0.0042491814097865,2.552141692621184e-06,1.1338919379444335e-09,9.155292715597376e-12
911.9,922.0,8.925785476506403e-10,1.2729203980564466e-11,0.0047522982445011,2.732433097270929e-06,1.2848773449367983e-09,9.499875239417612e-12
