# xl,xh,ISR,dISR,FULL,dFULL,FSR,dFSR
50.0,51.0,0.0066732474374405,5.19298635687513e-06,0.0116185414361522,1.1746804374716285e-05,0.0035829523386352,3.1474441049908393e-06
51.0,52.0,0.0066261485769719,5.167479859605101e-06,0.0116575920106079,1.1725502131530122e-05,0.0036721135061963,3.177257757247573e-06
52.0,53.0,0.0065693357498153,5.138431747829835e-06,0.0117149554754009,1.17186267715837e-05,0.003764542343237,3.210290220762096e-06
53.0,54.0,0.0065330524753849,5.11682344886327e-06,0.0117300718933567,1.1694209722657272e-05,0.0038453368297773,3.236473897404373e-06
54.0,55.0,0.0064946179776489,5.094322432242805e-06,0.0117604295006107,1.166888707045016e-05,0.0039293126151916,3.2644176043445234e-06
55.0,56.0,0.006452543961655,5.0711406299543625e-06,0.0118022299882628,1.166385886873539e-05,0.0040045459689774,3.288487092802869e-06
56.0,57.0,0.0064105299885492,5.046615498949084e-06,0.0118343456894402,1.1640651065025494e-05,0.0040853818850243,3.3154198653595604e-06
57.0,58.0,0.0063625267426254,5.021055668552599e-06,0.0118402580355245,1.160412368226923e-05,0.0041619042410546,3.3388665004721683e-06
58.0,59.0,0.0063256268686039,4.998604435216502e-06,0.0119065419804372,1.1621789470337e-05,0.004243859260639,3.3657129157967325e-06
59.0,60.0,0.0062883985211683,4.977469913743536e-06,0.011953325650495,1.1608615799500496e-05,0.0043193488431454,3.388378213333409e-06
60.0,61.0,0.0062525788068313,4.954927416809105e-06,0.011995254600745,1.160180398684473e-05,0.0043952920628567,3.413930067652604e-06
61.0,62.0,0.0062305213103803,4.9382418918415366e-06,0.0120084408848045,1.157906565343308e-05,0.0044613491519271,3.433827446829908e-06
62.0,63.0,0.0062003454650087,4.920212382734352e-06,0.0120880362946012,1.15992894846584e-05,0.0045339162522449,3.4566476509527472e-06
63.0,64.0,0.0061838397241711,4.906178856886885e-06,0.0121236138933498,1.1588246196068794e-05,0.0046047172011732,3.4789084825484097e-06
64.0,65.0,0.0061447190759134,4.883763833210714e-06,0.0121622446418411,1.158331096731067e-05,0.0046661264852638,3.497903281158878e-06
65.0,66.0,0.0061223703147358,4.86712510647555e-06,0.0121870444603352,1.157642033483536e-05,0.0047346553862606,3.51922589479401e-06
66.0,67.0,0.0061065693853122,4.853028160720636e-06,0.0122647172063915,1.1604413715154113e-05,0.0047951649799469,3.537969345840966e-06
67.0,68.0,0.006085447962328,4.838098378780879e-06,0.012281066882953,1.1577099152820777e-05,0.0048583651220355,3.5579781721137744e-06
68.0,69.0,0.0060672542144927,4.8237045898913485e-06,0.0123303838255364,1.1584581016101695e-05,0.0049109429541839,3.5747348488713712e-06
69.0,70.0,0.00605468446334,4.811112477715083e-06,0.012340100500208,1.1564443527359992e-05,0.0049738122881284,3.595370771621942e-06
70.0,71.0,0.0060395119343422,4.7972275528407755e-06,0.01241553321367,1.1592516283752014e-05,0.0050205778384161,3.6091462031858423e-06
71.0,72.0,0.0060345833014384,4.788296271118943e-06,0.012437206842478,1.1589463184637962e-05,0.0050651764373633,3.62344401505656e-06
72.0,73.0,0.0060352534606758,4.782307095393839e-06,0.0125008870316184,1.1609419417674004e-05,0.0051149655622051,3.6389587389356905e-06
73.0,74.0,0.0060236863310526,4.76921823753516e-06,0.0125138773522006,1.1593933910961534e-05,0.0051574407008572,3.6533149103398672e-06
74.0,75.0,0.006016068767238,4.760578057994074e-06,0.0125351755453074,1.159126224458695e-05,0.0052074401477911,3.6696199422026697e-06
75.0,76.0,0.0060073386223532,4.750615702956534e-06,0.012604653006834,1.161312889197233e-05,0.0052446816490997,3.6812010552994487e-06
76.0,77.0,0.0060050085026245,4.744051521306618e-06,0.0126352524039857,1.1623783273271962e-05,0.0052837421645865,3.694219912527327e-06
77.0,78.0,0.0059869458646186,4.732428111146054e-06,0.0126742389546731,1.1634009804016198e-05,0.0053154434290955,3.7039382446486977e-06
78.0,79.0,0.0059879303250875,4.727422509147381e-06,0.0126695440450423,1.1613641352698275e-05,0.0053440262517097,3.712998435795351e-06
79.0,80.0,0.0059846779479032,4.720787006694342e-06,0.0126929536112715,1.1618214196931736e-05,0.0053805742215949,3.7259356291562697e-06
80.0,81.0,0.005975748518188,4.7129564395043e-06,0.0127407779170517,1.164210757085352e-05,0.0054008183113153,3.7322861887192217e-06
81.0,82.0,0.005973517578383,4.707773171975274e-06,0.0127210700306163,1.1617556852234136e-05,0.0054295321352974,3.7407354568206465e-06
82.0,83.0,0.0059658131330802,4.702077480460619e-06,0.0127637666411757,1.16357316864852e-05,0.0054505259668172,3.747352228595077e-06
83.0,84.0,0.0059655911473281,4.699215978865532e-06,0.0127896798361355,1.164948907415238e-05,0.0054659955973297,3.7530944556701543e-06
84.0,85.0,0.0059619164272756,4.695341167760454e-06,0.0128063498723779,1.165046975155442e-05,0.0054839788189364,3.7588085636691863e-06
85.0,86.0,0.0059707207141298,4.6962119627822265e-06,0.0128106330163818,1.1641620348445004e-05,0.0054938451569182,3.762296533062908e-06
86.0,87.0,0.0059597374671416,4.688887306223532e-06,0.0128196437544685,1.164518904000124e-05,0.0055062014977997,3.76559184018068e-06
87.0,88.0,0.005966118602433,4.691839657161385e-06,0.0128198075695185,1.1647437593032592e-05,0.0055139862220557,3.769104633524259e-06
88.0,89.0,0.0059582320754218,4.686807362441021e-06,0.012811491702419,1.1639639261104712e-05,0.0055162496343838,3.7691229928512817e-06
89.0,90.0,0.0059551031483238,4.684820396212004e-06,0.0128171386356241,1.16399148462784e-05,0.0055186255691451,3.7703410490837e-06
90.0,91.0,0.0059619103271954,4.689138777781431e-06,0.0128281678022226,1.1643936939064436e-05,0.0055216838745059,3.77085827386579e-06
91.0,92.0,0.005963629136859,4.68756987358506e-06,0.0128257072689529,1.1648392996136648e-05,0.0055142324397905,3.768456329608708e-06
92.0,93.0,0.0059541937284253,4.685735806014036e-06,0.012814262066103,1.1641456475978716e-05,0.0055132585752306,3.768296457485199e-06
93.0,94.0,0.0059606126940758,4.689330024078969e-06,0.0128111108370025,1.1641210544128645e-05,0.0055022875083545,3.764514221510791e-06
94.0,95.0,0.0059667388988859,4.694182726486809e-06,0.0128190863293073,1.1651295507606404e-05,0.0054884429075976,3.760706485766293e-06
95.0,96.0,0.0059614438697152,4.693369814840008e-06,0.0127756605205679,1.162990739945411e-05,0.0054820541198393,3.757638765489401e-06
96.0,97.0,0.0059685499914882,4.7005550156833975e-06,0.0127659031251081,1.1620838865974074e-05,0.0054689916684818,3.754291989295504e-06
97.0,98.0,0.0059669702132656,4.7020208937605555e-06,0.0127700232723367,1.1640044838359508e-05,0.005446909899348,3.7463223941917646e-06
98.0,99.0,0.0059769950320377,4.710765251478922e-06,0.0127339611667777,1.1628479317486685e-05,0.0054265092889893,3.7403556585171417e-06
99.0,100.0,0.0059799309864605,4.714870063686589e-06,0.0127029190203214,1.1617412275570109e-05,0.0053940501268085,3.730132474259311e-06
100.0,101.0,0.0059697580195901,4.714314186760434e-06,0.0127028179851535,1.1624535276130772e-05,0.0053824772117359,3.7260946090985354e-06
101.0,102.0,0.0059945119257916,4.7297910146355125e-06,0.0126693724317009,1.161057510810462e-05,0.0053494470140244,3.715055302665953e-06
102.0,103.0,0.0059959287635372,4.735353569001078e-06,0.0126575714541972,1.1619391705434397e-05,0.0053165681566769,3.704244806167933e-06
103.0,104.0,0.0059979033898986,4.741682680636806e-06,0.0126349059025007,1.1622917068146692e-05,0.0052742847397277,3.6904072959395062e-06
104.0,105.0,0.0060055561382962,4.750842470958883e-06,0.0126050373258257,1.1616958070201724e-05,0.0052483586038456,3.68261358413103e-06
105.0,106.0,0.0060129178504068,4.759351903287405e-06,0.0125349214839372,1.1588283089226084e-05,0.0052113834074845,3.6706719108138087e-06
106.0,107.0,0.0060260730113561,4.7710786401392755e-06,0.0125155491216309,1.159044074294652e-05,0.005163826814945,3.654663163110823e-06
107.0,108.0,0.0060200822375204,4.7749459446628545e-06,0.0124733847730393,1.1583045368540809e-05,0.005120338358688,3.640934074877712e-06
108.0,109.0,0.0060246120263592,4.785257962656707e-06,0.0124212980988564,1.158217058087594e-05,0.00506890197469,3.624830223254197e-06
109.0,110.0,0.0060366634963943,4.796202866539895e-06,0.0124061992008042,1.1588062755586502e-05,0.005020836428314,3.6097628283935e-06
110.0,111.0,0.0060509977823352,4.810722485335021e-06,0.0123572614694009,1.1587688820521414e-05,0.0049646784353904,3.591189750858837e-06
111.0,112.0,0.0060704583953639,4.825684455508108e-06,0.0123126964035445,1.157798906981734e-05,0.0049109740058609,3.574476748829109e-06
112.0,113.0,0.0060859642764402,4.837519203189457e-06,0.0122852963848546,1.158793329880858e-05,0.0048559325389379,3.557513639116532e-06
113.0,114.0,0.0061148338341676,4.85800713315666e-06,0.0122376940438553,1.157372007371709e-05,0.0047986541586646,3.5399033470724596e-06
114.0,115.0,0.0061288942571996,4.869921919134409e-06,0.0121925920973125,1.1577518546414828e-05,0.0047355925693227,3.51976585548815e-06
115.0,116.0,0.0061480709900773,4.885245613815318e-06,0.0121509005991913,1.1583086625795096e-05,0.0046681674417091,3.497841746608059e-06
116.0,117.0,0.0061695564135777,4.899806031464374e-06,0.0121045061576571,1.158519571750984e-05,0.0046071700878099,3.479642081881063e-06
117.0,118.0,0.0061907882453819,4.915971661039346e-06,0.0120765501766874,1.1597355824592965e-05,0.0045389503931844,3.458629515187645e-06
118.0,119.0,0.0062283667023052,4.938752009748683e-06,0.0120327803207926,1.1596860965682344e-05,0.0044699311767253,3.436393945661129e-06
119.0,120.0,0.006253704983811,4.95620853117325e-06,0.0119859710005594,1.1593512418758144e-05,0.0043944222740661,3.4135027196850275e-06
120.0,121.0,0.0062869189308816,4.975355379158598e-06,0.0119417089770622,1.1607154268560307e-05,0.0043225453890266,3.390839322344178e-06
121.0,122.0,0.0063231048417341,4.997462266086128e-06,0.0119105837080913,1.1619454269223497e-05,0.0042427383620973,3.3645166457449577e-06
122.0,123.0,0.0063668089139175,5.023461777728426e-06,0.0118712561058302,1.1627510208792213e-05,0.0041661970558824,3.340849408513257e-06
123.0,124.0,0.0063992740425958,5.042543513877521e-06,0.0118359448737376,1.1648724545026064e-05,0.0040961539443055,3.3198443568259113e-06
124.0,125.0,0.0064487789725343,5.069789546153486e-06,0.0117976455109542,1.1663147171562482e-05,0.0040066916330577,3.2889349532162408e-06
125.0,126.0,0.0064924701067026,5.093552981913082e-06,0.0117672043978797,1.1679686652699013e-05,0.0039268417866728,3.263043548370436e-06
126.0,127.0,0.0065253074926013,5.113424989686311e-06,0.0117433380410279,1.1697733341803729e-05,0.0038491642137143,3.2375842121682005e-06
127.0,128.0,0.0065794244999932,5.142000083804205e-06,0.0117110139617221,1.1716405834039423e-05,0.0037624655603439,3.2083746790269003e-06
128.0,129.0,0.0066307738120688,5.169899701860764e-06,0.011645771320467,1.1730319991874211e-05,0.0036766475148012,3.1802073153333837e-06
129.0,130.0,0.0066784705561443,5.194517824193396e-06,0.0116275572145831,1.1759025060362331e-05,0.0035829964009726,3.147271901365642e-06
