# xl,xh,LO,dLO,CS+LOnovp,dCS+LOnovp,CS+LO,dCS+LO
0,1,0.01750008027,2.231075467e-06,0.01617284162,8.20174752e-07,0.01693341236,8.589192039e-07
1,2,0.07399803064,7.809293166e-07,0.03679738432,1.698497872e-07,0.03851152875,2.007416332e-07
2,3,0.23649387,3.004699169e-05,0.4395106302,2.219642457e-05,0.4396972267,2.218484243e-05
3,4,200000000,0,500000330.8,0,500568854.4,0
4,5,200000000,0,500000000,0,500000000,0
5,6,200,0,500,0,500,0
6,7,94531.82,0,214137.82,0,644984.04,0
