# xl,xh,LO,dLO,CS+LOnovp,dCS+LOnovp,CS+LO,dCS+LO
0,40,0,0,0,0,0,0
40,80,0,0,0,0,0,0
80,120,0,0,0,0,0,0
120,160,0,0,0,0,0,0
160,200,0,0,0,0,0,0
200,240,0,0,0,0,0,0
240,280,0,0,0,0,0,0
280,320,0,0,0,0,0,0
320,360,0,0,0,0,0,0
360,400,0,0,0,0,0,0
400,440,0,0,0,0,0,0
440,480,0,0,0,0,0,0
480,520,0,0,0,0,0,0
520,560,0,0,0,0,0,0
560,600,0,0,0,0,0,0
600,640,0,0,0,0,0,0
640,680,0,0,0,0,0,0
680,720,0,0,0,0,0,0
720,760,0,0,0,0,0,0
760,800,0,0,0,0,0,0
800,840,0,0,0,0,0,0
840,880,0,0,0,0,0,0
880,920,0,0,0,0,0,0
920,960,0,0,0,0,0,0
960,1000,0,0,0,0,0,0
1000,1040,0,0,0,0,0,0
1040,1080,0,0,0,0,0,0
1080,1120,0,0,0,0,0,0
1120,1160,0,0,0,0,0,0
1160,1200,0,0,0,0,0,0
1200,1240,0,0,0,0,0,0
1240,1280,0,0,0,0,0,0
1280,1320,0,0,0,0,0,0
1320,1360,0,0,0,0,0,0
1360,1400,0,0,0,0,0,0
1400,1440,0,0,0,0,0,0
1440,1480,0,0,0,0,0,0
1480,1520,0,0,0,0,0,0
1520,1560,0,0,0,0,0,0
1560,1600,0,0,0,0,0,0
1600,1640,0,0,0,0,0,0
1640,1680,0,0,0,0,0,0
1680,1720,0,0,0,0,0,0
1720,1760,0,0,0,0,0,0
1760,1800,0,0,0,0,0,0
1800,1840,0,0,0,0,0,0
1840,1880,0,0,0,0,0,0
1880,1920,0,0,0,0,0,0
1920,1960,0,0,0,0,0,0
1960,2000,0,0,0,0,0,0
2000,2040,0,0,0,0,0,0
2040,2080,0,0,0,0,0,0
2080,2120,0,0,0,0,0,0
2120,2160,0,0,0,0,0,0
2160,2200,0,0,0,0,0,0
2200,2240,0,0,0,0,0,0
2240,2280,0,0,0,0,0,0
2280,2320,0,0,0,0,0,0
2320,2360,0,0,0,0,0,0
2360,2400,0,0,0,0,0,0
2400,2440,0,0,0,0,0,0
2440,2480,0,0,0,0,0,0
2480,2520,0,0,0,0,0,0
2520,2560,0,0,0,0,0,0
2560,2600,0,0,0,0,0,0
2600,2640,0,0,0,0,0,0
2640,2680,0,0,0,0,0,0
2680,2720,0,0,0,0,0,0
2720,2760,0,0,0,0,0,0
2760,2800,0,0,0,0,0,0
2800,2840,0,0,0,0,0,0
2840,2880,0,0,0,0,0,0
2880,2920,0,0,0,0,0,0
2920,2960,0,0,0,0,0,0
2960,3000,0,0,0,0,0,0
3000,3040,0,0,0,0,0,0
3040,3080,0,0,0,0,0,0
3080,3120,0,0,0,0,0,0
3120,3160,0,0,0,0,0,0
3160,3200,0,0,0,0,0,0
3200,3240,0,0,0,0,0,0
3240,3280,0,0,0,0,0,0
3280,3320,0,0,0,0,0,0
3320,3360,0,0,0,0,0,0
3360,3400,0,0,0,0,0,0
3400,3440,0,0,0,0,0,0
3440,3480,0,0,0,0,0,0
3480,3520,0,0,0,0,0,0
3520,3560,0,0,0,0,0,0
3560,3600,0,0,0,0,0,0
3600,3640,0,0,0,0,0,0
3640,3680,0,0,0,0,0,0
3680,3720,0,0,0,0,0,0
3720,3760,0,0,0,0,0,0
3760,3800,0,0,0,0,0,0
3800,3840,0,0,0,0,0,0
3840,3880,0,0,0,0,0,0
3880,3920,0,0,0,0,0,0
3920,3960,0,0,0,0,0,0
3960,4000,0,0,0,0,0,0
4000,4040,0,0,0,0,0,0
4040,4080,0,0,0,0,0,0
4080,4120,0,0,0,0,0,0
4120,4160,0,0,0,0,0,0
4160,4200,0,0,0,0,0,0
4200,4240,0,0,0,0,0,0
4240,4280,0,0,0,0,0,0
4280,4320,0,0,0,0,0,0
4320,4360,0,0,0,0,0,0
4360,4400,0,0,0,0,0,0
4400,4440,0,0,0,0,0,0
4440,4480,0,0,0,0,0,0
4480,4520,0,0,0,0,0,0
4520,4560,0,0,0,0,0,0
4560,4600,0,0,0,0,0,0
4600,4640,0,0,0,0,0,0
4640,4680,0,0,3.073713791e-13,3.073712292e-13,0,0
4680,4720,0,0,0,0,0,0
4720,4760,0,0,0,0,0,0
4760,4800,0,0,0,0,0,0
4800,4840,0,0,0,0,0,0
4840,4880,0,0,0,0,0,0
4880,4920,0,0,0,0,0,0
4920,4960,0,0,0,0,0,0
4960,5000,0,0,6.148354099e-13,4.347540758e-13,0,0
5000,5040,0,0,0,0,0,0
5040,5080,0,0,6.147267035e-13,4.346772102e-13,0,0
5080,5120,0,0,0,0,0,0
5120,5160,0,0,3.073786143e-13,3.073784643e-13,0,0
5160,5200,0,0,9.222528166e-13,5.324626543e-13,9.489484525e-13,9.489480115e-13
5200,5240,0,0,0,0,0,0
5240,5280,0,0,9.222657172e-13,5.324701059e-13,0,0
5280,5320,0,0,6.147963229e-13,4.34726438e-13,0,0
5320,5360,0,0,1.844128605e-12,7.528619905e-13,0,0
5360,5400,0,0,9.222066585e-13,5.324360034e-13,0,0
5400,5440,0,0,9.22072116e-13,5.323583287e-13,0,0
5440,5480,0,0,9.220774987e-13,5.323614375e-13,0,0
5480,5520,0,0,2.458999838e-12,8.693873137e-13,9.491546599e-13,9.491542176e-13
5520,5560,0,0,3.381268082e-12,1.019490201e-12,0,0
5560,5600,0,0,3.074091757e-12,9.721127128e-13,0,0
5600,5640,0,0,4.611059816e-12,1.190569879e-12,1.898294332e-12,1.342296175e-12
5640,5680,0,0,5.840460411e-12,1.339892878e-12,9.489855473e-13,9.489851074e-13
5680,5720,0,0,6.455358091e-12,1.408673952e-12,2.846876936e-12,1.643644418e-12
5720,5760,0,0,7.376972152e-12,1.505817409e-12,9.491130217e-13,9.491125867e-13
5760,5800,0,0,6.147968564e-12,1.3747269e-12,1.898092287e-12,1.342153367e-12
5800,5840,0,0,8.299449769e-12,1.597229092e-12,1.897773904e-12,1.341928197e-12
5840,5880,0,0,9.528653825e-12,1.71139594e-12,3.797055378e-12,1.898526847e-12
5880,5920,0,0,1.506147718e-11,2.151638483e-12,2.846791689e-12,1.643595247e-12
5920,5960,0,0,1.352475358e-11,2.03893217e-12,5.692979459e-12,2.324148214e-12
5960,6000,0,0,1.690640247e-11,2.27965765e-12,1.043773584e-11,3.147094673e-12
6000,6040,0,0,1.844315333e-11,2.380999684e-12,6.642206805e-12,2.510517086e-12
6040,6080,0,0,2.213105366e-11,2.608168333e-12,8.540375937e-12,2.846790676e-12
6080,6120,0,0,2.85865737e-11,2.964287916e-12,1.5183547e-11,3.795884941e-12
6120,6160,0,0,3.319783649e-11,3.194461555e-12,2.087515595e-11,4.450596239e-12
6160,6200,0,0,4.026709174e-11,3.518150186e-12,2.941791703e-11,5.283611287e-12
6200,6240,0,0,4.61079171e-11,3.764693247e-12,2.467234509e-11,4.838642248e-12
6240,6280,0,0,5.348421808e-11,4.054625364e-12,4.175142061e-11,6.294260943e-12
6280,6320,0,0,6.14761629e-11,4.34701819e-12,4.839404405e-11,6.776518293e-12
6320,6360,0,0,6.701126739e-11,4.538572626e-12,7.401612352e-11,8.380671627e-12
6360,6400,0,0,7.684491525e-11,4.860095576e-12,6.452647698e-11,7.824980695e-12
6400,6440,0,0,8.053507083e-11,4.975469561e-12,1.081783765e-10,1.013182788e-11
6440,6480,0,0,1.038952429e-10,5.651151901e-12,1.119726723e-10,1.030791479e-11
6480,6520,0,0,1.146523921e-10,5.936470996e-12,1.290558777e-10,1.106644443e-11
6520,6560,0,0,1.226460958e-10,6.139979023e-12,1.793494745e-10,1.304574679e-11
6560,6600,0,0,1.413964404e-10,6.592636818e-12,2.429232063e-10,1.518269044e-11
6600,6640,0,0,1.727493486e-10,7.286983899e-12,2.894205041e-10,1.657215734e-11
6640,6680,0,0,1.921143858e-10,7.684566485e-12,2.799343165e-10,1.629839402e-11
6680,6720,0,0,2.077917149e-10,7.991979677e-12,3.75780193e-10,1.888365061e-11
6720,6760,0,0,2.354551664e-10,8.507331118e-12,3.786142625e-10,1.895440592e-11
6760,6800,0,0,2.680390002e-10,9.076933541e-12,4.3270159e-10,2.02630921e-11
6800,6840,0,0,2.990825672e-10,9.588132988e-12,4.858548758e-10,2.147193549e-11
6840,6880,0,0,3.402719774e-10,1.022708135e-11,5.427641039e-10,2.269408495e-11
6880,6920,0,0,3.501083947e-10,1.037385047e-11,6.5379745e-10,2.490767246e-11
6920,6960,0,0,3.986767408e-10,1.107006411e-11,7.16428618e-10,2.607347801e-11
6960,7000,0,0,4.66301062e-10,1.197216739e-11,7.657691896e-10,2.695632251e-11
7000,7040,0,0,5.068718982e-10,1.248208111e-11,8.42647338e-10,2.827735762e-11
7040,7080,0,0,5.465261155e-10,1.296116643e-11,9.707427558e-10,3.035049246e-11
7080,7120,0,0,6.387424053e-10,1.401205698e-11,1.099810372e-09,3.230542186e-11
7120,7160,0,0,6.830074775e-10,1.44894625e-11,1.234555464e-09,3.422718972e-11
7160,7200,0,0,7.21734598e-10,1.489454597e-11,1.306670262e-09,3.521261717e-11
7200,7240,0,0,8.413127992e-10,1.608121015e-11,1.384479627e-09,3.624583817e-11
7240,7280,0,0,8.941835222e-10,1.657881032e-11,1.496453544e-09,3.768309714e-11
7280,7320,0,0,1.002375307e-09,1.755308124e-11,1.762151745e-09,4.08918157e-11
7320,7360,0,0,1.051867649e-09,1.798123159e-11,1.939594167e-09,4.290119924e-11
7360,7400,0,0,1.159452253e-09,1.88784014e-11,2.04494343e-09,4.405108634e-11
7400,7440,0,0,1.323900381e-09,2.017278418e-11,2.262249874e-09,4.63325607e-11
7440,7480,0,0,1.447471432e-09,2.109324725e-11,2.565903206e-09,4.934414898e-11
7480,7520,0,0,1.574110711e-09,2.19965969e-11,2.787953131e-09,5.143493438e-11
7520,7560,0,0,1.734567028e-09,2.309050737e-11,3.085927968e-09,5.411392566e-11
7560,7600,0,0,1.875954416e-09,2.401307611e-11,3.349697528e-09,5.63789053e-11
7600,7640,0,0,2.077614825e-09,2.527090201e-11,3.713176563e-09,5.935932057e-11
7640,7680,0,0,2.288469032e-09,2.652218628e-11,4.031971186e-09,6.185462415e-11
7680,7720,0,0,2.442776859e-09,2.740177118e-11,4.432456881e-09,6.485411332e-11
7720,7760,0,0,2.674852232e-09,2.867387416e-11,4.875561294e-09,6.80182307e-11
7760,7800,0,0,2.97670407e-09,3.024850931e-11,5.322530823e-09,7.106782787e-11
7800,7840,0,0,3.246892032e-09,3.15914494e-11,5.90229789e-09,7.48381868e-11
7840,7880,0,0,3.608976359e-09,3.330629401e-11,6.455569471e-09,7.826748769e-11
7880,7920,0,0,4.008584476e-09,3.510183754e-11,7.39404206e-09,8.376336745e-11
7920,7960,0,0,4.486874634e-09,3.713690821e-11,8.28884435e-09,8.868677085e-11
7960,8000,0,0,5.168330949e-09,3.985726212e-11,1.018386399e-08,9.830322093e-11
8000,8040,0,0,2.081109767e-08,7.997586273e-11,9.192046651e-08,2.953132331e-10
8040,8080,0,0,2.32148454e-08,8.446778538e-11,1.052480614e-07,3.159934654e-10
8080,8120,0,0,2.639283328e-08,9.006300238e-11,1.189697618e-07,3.359572265e-10
8120,8160,0,0,2.987522626e-08,9.581964967e-11,1.348127774e-07,3.576218898e-10
8160,8200,0,0,3.382076596e-08,1.019494786e-10,1.519294016e-07,3.796401364e-10
8200,8240,0,0,3.821856307e-08,1.08373918e-10,1.704165196e-07,4.020679174e-10
8240,8280,0,0,4.324916728e-08,1.152840767e-10,1.91621024e-07,4.263398858e-10
8280,8320,0,0,4.899417891e-08,1.227000838e-10,2.153424554e-07,4.519489638e-10
8320,8360,0,0,5.505851718e-08,1.300697734e-10,2.410509091e-07,4.781544544e-10
8360,8400,0,0,6.220487286e-08,1.382504291e-10,2.697412354e-07,5.057955296e-10
8400,8440,0,0,7.01522483e-08,1.468128497e-10,3.006899066e-07,5.340082162e-10
8440,8480,0,0,7.888932984e-08,1.556827132e-10,3.373960159e-07,5.656434539e-10
8480,8520,0,0,8.860666124e-08,1.649875283e-10,3.756918275e-07,5.968599822e-10
8520,8560,0,0,1.006976034e-07,1.758777319e-10,4.225231467e-07,6.329391667e-10
8560,8600,0,0,1.145086589e-07,1.87543239e-10,4.7925382e-07,6.740552326e-10
8600,8640,0,0,1.322889494e-07,2.01567038e-10,5.612181988e-07,7.293631821e-10
8640,8680,0,0,1.464657682e-07,2.120831719e-10,5.874802126e-07,7.462137681e-10
8680,8720,0,0,1.591671577e-07,2.210789321e-10,6.081046183e-07,7.591843242e-10
8720,8760,0,0,1.717879765e-07,2.296674959e-10,6.281658143e-07,7.715901939e-10
8760,8800,0,0,1.844920903e-07,2.37998631e-10,6.508729031e-07,7.853949564e-10
8800,8840,0,0,1.979118641e-07,2.464921247e-10,6.749210085e-07,7.997534279e-10
8840,8880,0,0,2.1095486e-07,2.544743392e-10,6.998182829e-07,8.14351356e-10
8880,8920,0,0,2.246174219e-07,2.625742112e-10,7.253699553e-07,8.290640643e-10
8920,8960,0,0,2.399441534e-07,2.713715249e-10,7.559082414e-07,8.46310856e-10
8960,9000,0,0,2.546625256e-07,2.795576086e-10,7.85920715e-07,8.629227621e-10
9000,9040,0,0,2.697907938e-07,2.877276312e-10,8.18566889e-07,8.806344096e-10
9040,9080,0,0,2.852752631e-07,2.958548562e-10,8.566108966e-07,9.008332096e-10
9080,9120,0,0,3.009895121e-07,3.03878908e-10,8.943809509e-07,9.204449467e-10
9120,9160,0,0,3.172298345e-07,3.119532356e-10,9.366262017e-07,9.418934381e-10
9160,9200,0,0,3.356981291e-07,3.208865285e-10,9.838128364e-07,9.652835779e-10
9200,9240,0,0,3.534454597e-07,3.292408142e-10,1.034650478e-06,9.898602764e-10
9240,9280,0,0,3.766419057e-07,3.398480598e-10,1.0929555e-06,1.017310269e-09
9280,9320,0,0,4.001238574e-07,3.502557487e-10,1.154877103e-06,1.045668143e-09
9320,9360,0,0,4.271267916e-07,3.618504341e-10,1.224836293e-06,1.07680049e-09
9360,9400,0,0,4.572854296e-07,3.743714457e-10,1.303701469e-06,1.110840794e-09
9400,9440,0,0,4.917434314e-07,3.88177822e-10,1.394593664e-06,1.148809526e-09
9440,9480,0,0,5.307015558e-07,4.03211368e-10,1.496532006e-06,1.189936784e-09
9480,9520,0,0,5.752853427e-07,4.197469685e-10,1.614631657e-06,1.235854827e-09
9520,9560,0,0,6.275915836e-07,4.383410373e-10,1.753919935e-06,1.287882587e-09
9560,9600,0,0,6.891833991e-07,4.592569021e-10,1.914654075e-06,1.345390246e-09
9600,9640,0,0,7.624894853e-07,4.829517849e-10,2.108803331e-06,1.411687578e-09
9640,9680,0,0,8.529996135e-07,5.106648124e-10,2.350440735e-06,1.490021098e-09
9680,9720,0,0,9.648590611e-07,5.429231969e-10,2.654287359e-06,1.582932268e-09
9720,9760,0,0,1.111111812e-06,5.823478801e-10,3.039618504e-06,1.693299361e-09
9760,9800,0,0,1.306179894e-06,6.310070897e-10,3.561127448e-06,1.831873959e-09
9800,9840,0,0,1.582946329e-06,6.940343963e-10,4.307743602e-06,2.013297441e-09
9840,9880,0,0,2.011348164e-06,7.812578579e-10,5.455289696e-06,2.263086378e-09
9880,9920,0,0,2.765376596e-06,9.138459328e-10,7.501086629e-06,2.648356598e-09
9920,9960,0,0,4.519036722e-06,1.161569516e-09,1.226797791e-05,3.370867734e-09
9960,10000,0.0002603505154,1.784542361e-08,5.860584898e-05,3.363816816e-09,0.0001772627742,1.048973483e-08
