# xl,xh,LO,dLO,CS+LOnovp,dCS+LOnovp,CS+LO,dCS+LO
0,0.05,0,0,0,0,0,0
0.05,0.1,0,0,0,0,0,0
0.1,0.15,0,0,0,0,0,0
0.15,0.2,0,0,0,0,0,0
0.2,0.25,0,0,0,0,0,0
0.25,0.3,0,0,0,0,0,0
0.3,0.35,0,0,0,0,0,0
0.35,0.4,0,0,0,0,0,0
0.4,0.45,0,0,0,0,0,0
0.45,0.5,0,0,0,0,0,0
0.5,0.55,0,0,0,0,0,0
0.55,0.6,0,0,0,0,0,0
0.6,0.65,0.01068121391,4.486529069e-06,0.002887150216,8.328929381e-07,0.01019375928,2.747017259e-06
0.65,0.7,0.00989362048,4.322087431e-06,0.002734062755,8.110141489e-07,0.009491422602,2.653022262e-06
0.7,0.75,0.009075820773,4.143712791e-06,0.00257751822,7.879532857e-07,0.008747635685,2.549314733e-06
0.75,0.8,0.008341463693,3.976068193e-06,0.002424441205,7.646706392e-07,0.008054945994,2.448409041e-06
0.8,0.85,0.00769083763,3.820860239e-06,0.002282246277,7.423341406e-07,0.007428931247,2.35317222e-06
0.85,0.9,0.007116142347,3.677882175e-06,0.002149553409,7.208168087e-07,0.006871999421,2.264812719e-06
0.9,0.95,0.006602102696,3.544749458e-06,0.002026921573,7.002999096e-07,0.006371630826,2.182153505e-06
0.95,1,0.00614957699,3.422974977e-06,0.001914372764,6.808880996e-07,0.005920921374,2.104732928e-06
1,1.05,0.005754866199,3.312873599e-06,0.001811781409,6.626660903e-07,0.005523050438,2.033787394e-06
1.05,1.1,0.005402237397,3.211131853e-06,0.001720456747,6.459862166e-07,0.005176681107,1.969824581e-06
1.1,1.15,0.005092913984,3.119002848e-06,0.001637522505,6.304341754e-07,0.00487379573,1.912044359e-06
1.15,1.2,0.004821136021,3.03563011e-06,0.001566559967,6.167987042e-07,0.004611390624,1.860462267e-06
1.2,1.25,0.004591792194,2.963362911e-06,0.001502342327,6.041800185e-07,0.00438309336,1.814334673e-06
1.25,1.3,0.004393161772,2.899248872e-06,0.001449478935,5.935810049e-07,0.004190262286,1.774397309e-06
1.3,1.35,0.004235746761,2.847369881e-06,0.001402773944,5.840489579e-07,0.004029548169,1.740381719e-06
1.35,1.4,0.004105660944,2.803742295e-06,0.001364472049,5.761087327e-07,0.003904843594,1.713502744e-06
1.4,1.45,0.004001969844,2.768454114e-06,0.001335234882,5.699697603e-07,0.003803640245,1.691362904e-06
1.45,1.5,0.003932705506,2.744619237e-06,0.001312912792,5.65235949e-07,0.003733715767,1.675888374e-06
1.5,1.55,0.003896608343,2.732112426e-06,0.00129631671,5.616895186e-07,0.00369452342,1.667149788e-06
1.55,1.6,0.003877752749,2.725555666e-06,0.001288570028,5.600260354e-07,0.003686896558,1.665443667e-06
1.6,1.65,0.003898289585,2.732695852e-06,0.001287385005,5.597711484e-07,0.003697965507,1.667919105e-06
1.65,1.7,0.003940761006,2.747403262e-06,0.001291639735,5.606858112e-07,0.003745395079,1.678483358e-06
1.7,1.75,0.004017150493,2.773649795e-06,0.001303764985,5.632840138e-07,0.003821661573,1.695327337e-06
1.75,1.8,0.004123356119,2.809718029e-06,0.001322009992,5.671702151e-07,0.003921141271,1.717040508e-06
1.8,1.85,0.004255841024,2.854046769e-06,0.001347948783,5.726477762e-07,0.004057225399,1.746288562e-06
1.85,1.9,0.004425128132,2.909666712e-06,0.001377009879,5.787203644e-07,0.004218711651,1.780348519e-06
1.9,1.95,0.004627934159,2.974873019e-06,0.001412950618,5.861397903e-07,0.004417377908,1.821340195e-06
1.95,2,0.004871112874,3.051140949e-06,0.00145237452,5.941667006e-07,0.004645761578,1.867303632e-06
2,2.05,0.005136755133,3.132233502e-06,0.00149648917,6.030160504e-07,0.004912295824,1.919490243e-06
2.05,2.1,0.005450029664,3.225119052e-06,0.001542400326,6.120834666e-07,0.005208673169,1.9758241e-06
2.1,2.15,0.00580706643,3.32765668e-06,0.001587050561,6.20768339e-07,0.005537781711,2.03646061e-06
2.15,2.2,0.006193661221,3.435039914e-06,0.00162809823,6.286412766e-07,0.005882722815,2.098032037e-06
2.2,2.25,0.006595830244,3.543092317e-06,0.001658883499,6.344784144e-07,0.00621718623,2.155956856e-06
2.25,2.3,0.006897600256,3.62192022e-06,0.001670295386,6.366277796e-07,0.006442667321,2.194091214e-06
2.3,2.35,0.006836206013,3.606032224e-06,0.001652154619,6.332073786e-07,0.006345724955,2.177782967e-06
2.35,2.4,0.006009994806,3.384472903e-06,0.001581846045,6.197626069e-07,0.005574791566,2.043161176e-06
2.4,2.45,0.004004144578,2.76919943e-06,0.0014254285,5.886926899e-07,0.003831751348,1.697542746e-06
2.45,2.5,0.001496686553,1.698104084e-06,0.001171712304,5.34278859e-07,0.001660917931,1.12060762e-06
2.5,2.55,2.967143217e-05,2.395109787e-07,0.001005471663,4.952576774e-07,0.0003258137225,4.971332483e-07
2.55,2.6,3.269566012e-06,7.950903223e-08,0.0009873373456,4.908067497e-07,0.0001617636996,3.503609557e-07
2.6,2.65,1.461741569e-06,5.31629101e-08,0.00100581047,4.953404007e-07,7.218352744e-05,2.340676506e-07
2.65,2.7,1.131091128e-06,4.676478329e-08,0.001049086677,5.057970133e-07,2.29077937e-05,1.318682153e-07
2.7,2.75,0,0,0,0,0,0
2.75,2.8,0,0,0,0,0,0
2.8,2.85,0,0,0,0,0,0
2.85,2.9,0,0,0,0,0,0
2.9,2.95,0,0,0,0,0,0
2.95,3,0,0,0,0,0,0
3,3.05,0,0,0,0,0,0
3.05,3.1,0,0,0,0,0,0
3.1,3.15,0,0,0,0,0,0
