# xl,xh,LO,dLO,CS+LOnovp,dCS+LOnovp,CS+LO,dCS+LO
0,40,0,0,0,0,0,0
40,80,0,0,0,0,0,0
80,120,0,0,0,0,0,0
120,160,0,0,0,0,0,0
160,200,0,0,0,0,0,0
200,240,0,0,0,0,0,0
240,280,2.417151998e-11,7.643701815e-12,1.936559401e-11,2.439834215e-12,2.751864088e-11,5.110081143e-12
280,320,3.676218324e-07,9.422693004e-10,2.375210234e-07,2.699998535e-10,3.560302941e-07,5.810433402e-10
320,360,1.307946846e-06,1.775749056e-09,7.562045596e-07,4.809669341e-10,1.269730049e-06,1.096308731e-09
360,400,2.21247512e-06,2.307553888e-09,1.103897184e-06,5.804675987e-10,2.150153819e-06,1.425402994e-09
400,440,3.038113373e-06,2.701922755e-09,1.280010982e-06,6.24706495e-10,2.951620996e-06,1.668752912e-09
440,480,3.928372879e-06,3.069785319e-09,1.358335644e-06,6.433744893e-10,3.81758551e-06,1.89621151e-09
480,520,5.021094164e-06,3.466944572e-09,1.380991086e-06,6.486706719e-10,4.900625174e-06,2.14612648e-09
520,560,6.549340022e-06,3.953756987e-09,1.374170226e-06,6.470808333e-10,6.400882038e-06,2.449101829e-09
560,600,8.865483688e-06,4.589804036e-09,1.348863148e-06,6.411466993e-10,8.694916224e-06,2.847955448e-09
600,640,1.276505486e-05,5.486738678e-09,1.311311366e-06,6.322350335e-10,1.249336655e-05,3.400924247e-09
640,680,1.972810688e-05,6.774635082e-09,1.271421725e-06,6.226240097e-10,1.924762782e-05,4.192691081e-09
680,720,3.232812707e-05,8.563934595e-09,1.228871372e-06,6.122000286e-10,3.122041793e-05,5.274585049e-09
720,760,4.805643256e-05,1.027411656e-08,1.185060351e-06,6.012723072e-10,4.59469733e-05,6.300134187e-09
760,800,4.532516412e-05,1.000628299e-08,1.14310448e-06,5.906118997e-10,4.291152897e-05,6.108244853e-09
800,840,2.646330822e-05,7.794059768e-09,1.102159118e-06,5.800135684e-10,2.500663715e-05,4.75096672e-09
840,880,1.484536001e-05,5.904977349e-09,1.061905259e-06,5.69396465e-10,1.401751838e-05,3.596913301e-09
880,920,8.655407571e-06,4.536017262e-09,1.025370239e-06,5.595809269e-10,8.168633169e-06,2.761861624e-09
920,960,5.433679497e-06,3.60514767e-09,9.878493973e-07,5.493131508e-10,5.128275199e-06,2.194916105e-09
960,1000,3.624821472e-06,2.949652496e-09,9.530130154e-07,5.396005303e-10,3.425807744e-06,1.796971082e-09
1000,1040,2.566097525e-06,2.484293126e-09,9.207754224e-07,5.30450027e-10,2.423571531e-06,1.512914811e-09
1040,1080,1.938941325e-06,2.16076773e-09,8.89642099e-07,5.214568737e-10,1.831003583e-06,1.31578006e-09
1080,1120,1.473294582e-06,1.884356656e-09,8.601701816e-07,5.127950016e-10,1.389521404e-06,1.146724022e-09
1120,1160,1.149894897e-06,1.665254834e-09,8.330941226e-07,5.047032195e-10,1.086230192e-06,1.014182472e-09
1160,1200,9.19300935e-07,1.489278606e-09,8.071658344e-07,4.968283523e-10,8.683820546e-07,9.069908929e-10
1200,1240,7.423016149e-07,1.338474996e-09,7.812762268e-07,4.888359733e-10,6.994063983e-07,8.14111971e-10
1240,1280,5.990388272e-07,1.202559184e-09,7.58816283e-07,4.817927637e-10,5.652043232e-07,7.319457216e-10
1280,1320,4.772608844e-07,1.073513015e-09,7.362629332e-07,4.746130116e-10,4.46213142e-07,6.50425964e-10
1320,1360,3.627226963e-07,9.359737186e-10,7.158970548e-07,4.680332125e-10,3.386209553e-07,5.666685499e-10
1360,1400,2.513224543e-07,7.791803907e-10,6.954194859e-07,4.613209347e-10,2.337715033e-07,4.70882481e-10
1400,1440,1.493212384e-07,6.006553639e-10,6.772530123e-07,4.552818123e-10,1.386313684e-07,3.626501795e-10
1440,1480,6.939766777e-08,4.095145042e-10,6.596460338e-07,4.493499169e-10,6.366053067e-08,2.457672011e-10
1480,1520,1.985219783e-08,2.190397328e-10,6.429465562e-07,4.436492648e-10,1.941408774e-08,1.357270401e-10
1520,1560,3.117776821e-09,8.680578871e-11,6.26507998e-07,4.379639141e-10,4.447610576e-09,6.496466019e-11
1560,1600,7.569620196e-09,1.352570468e-10,6.115096884e-07,4.327105886e-10,9.388612929e-09,9.438680881e-11
1600,1640,2.336133613e-08,2.376098862e-10,5.985128886e-07,4.281052748e-10,2.461225078e-08,1.528202267e-10
1640,1680,4.47651097e-08,3.289100253e-10,5.847618372e-07,4.231771849e-10,4.490037296e-08,2.064059188e-10
1680,1720,6.935191571e-08,4.093799876e-10,5.719005243e-07,4.185148279e-10,6.79097465e-08,2.538357685e-10
1720,1760,9.520474871e-08,4.79639787e-10,5.59654545e-07,4.140259077e-10,9.086151908e-08,2.936076614e-10
1760,1800,1.175441792e-07,5.329397162e-10,5.483867519e-07,4.098515094e-10,1.118574294e-07,3.257623533e-10
1800,1840,1.286812147e-07,5.57610163e-10,5.370621741e-07,4.056122117e-10,1.217794526e-07,3.399001564e-10
1840,1880,1.234121745e-07,5.460769184e-10,5.272800154e-07,4.019137932e-10,1.146263978e-07,3.297688404e-10
1880,1920,1.010078827e-07,4.94039528e-10,5.174655739e-07,3.981682106e-10,9.355071513e-08,2.979199917e-10
1920,1960,7.539880478e-08,4.268514909e-10,5.078100504e-07,3.944480792e-10,6.859212107e-08,2.55107892e-10
1960,2000,5.26684874e-08,3.567635412e-10,4.987565825e-07,3.909273014e-10,4.803545914e-08,2.13489265e-10
2000,2040,3.594347411e-08,2.947272985e-10,4.911803656e-07,3.879562042e-10,3.294578075e-08,1.768080643e-10
2040,2080,2.513297623e-08,2.464549802e-10,4.834744681e-07,3.849103531e-10,2.326011414e-08,1.485636097e-10
2080,2120,1.765766475e-08,2.065788974e-10,4.751932576e-07,3.816096922e-10,1.677701894e-08,1.26172987e-10
2120,2160,1.310664603e-08,1.779779409e-10,4.67586716e-07,3.785522557e-10,1.233217568e-08,1.081756373e-10
2160,2200,1.095564513e-08,1.627198088e-10,4.617796716e-07,3.762012304e-10,1.060612243e-08,1.003204137e-10
2200,2240,1.342091706e-08,1.800995638e-10,4.549550967e-07,3.734190553e-10,1.289779262e-08,1.106287666e-10
2240,2280,2.030650958e-08,2.215314658e-10,4.496437665e-07,3.712392011e-10,1.918347314e-08,1.349184485e-10
2280,2320,1.973856426e-08,2.184117319e-10,4.440012859e-07,3.689092228e-10,1.835605911e-08,1.319770345e-10
2320,2360,1.445766311e-08,1.869255872e-10,4.388331737e-07,3.667619098e-10,1.329255151e-08,1.123089739e-10
2360,2400,1.044320959e-08,1.588683554e-10,4.342415637e-07,3.648434698e-10,9.77868257e-09,9.632788814e-11
2400,2440,8.118257326e-09,1.400729476e-10,4.29705157e-07,3.629379785e-10,7.712847035e-09,8.554988645e-11
2440,2480,6.593256243e-09,1.262335793e-10,4.25912566e-07,3.613370945e-10,6.109160169e-09,7.613831187e-11
2480,2520,5.59505738e-09,1.162857674e-10,4.216830035e-07,3.595433353e-10,5.203903832e-09,7.02713223e-11
2520,2560,4.722549521e-09,1.068346508e-10,4.187272264e-07,3.582843972e-10,4.45994526e-09,6.505467846e-11
2560,2600,4.077228892e-09,9.926718534e-11,4.15080786e-07,3.567250814e-10,3.867824282e-09,6.05825847e-11
2600,2640,3.813831962e-09,9.600775335e-11,4.12380957e-07,3.555661106e-10,3.418964546e-09,5.695879887e-11
2640,2680,3.308634179e-09,8.94222333e-11,4.095577237e-07,3.543500723e-10,3.015694186e-09,5.349447112e-11
2680,2720,3.011407849e-09,8.531180157e-11,4.070291184e-07,3.532573108e-10,2.786036852e-09,5.141708577e-11
2720,2760,2.745571418e-09,8.145959461e-11,4.049746273e-07,3.523669525e-10,2.52414117e-09,4.894085638e-11
2760,2800,2.383079935e-09,7.58925185e-11,4.033996366e-07,3.516829103e-10,2.356185029e-09,4.728461304e-11
2800,2840,2.240452582e-09,7.35859324e-11,4.012275798e-07,3.507372201e-10,2.186345637e-09,4.554875078e-11
2840,2880,1.996309731e-09,6.946033467e-11,3.994051612e-07,3.499418163e-10,1.91301189e-09,4.260606305e-11
2880,2920,2.037441976e-09,7.017306908e-11,3.981864108e-07,3.494088768e-10,1.856093513e-09,4.196763314e-11
2920,2960,1.81505802e-09,6.623226397e-11,3.971800306e-07,3.489681549e-10,1.735587836e-09,4.058250119e-11
2960,3000,1.781203454e-09,6.561133405e-11,3.956563552e-07,3.482998597e-10,1.624558825e-09,3.926292994e-11
3000,3040,1.621720423e-09,6.260570147e-11,3.947363337e-07,3.478956766e-10,1.534410546e-09,3.81580126e-11
3040,3080,1.471879386e-09,5.964345757e-11,3.944771546e-07,3.477817157e-10,1.360748403e-09,3.59337459e-11
3080,3120,1.45734948e-09,5.93477563e-11,3.93246738e-07,3.472402615e-10,1.375937798e-09,3.613383337e-11
3120,3160,1.38969e-09,5.795397778e-11,3.934234406e-07,3.473180555e-10,1.261106402e-09,3.459302281e-11
3160,3200,1.290626288e-09,5.585077471e-11,3.931369734e-07,3.471919018e-10,1.2402414e-09,3.430581265e-11
3200,3240,1.172165176e-09,5.322519691e-11,3.923361935e-07,3.468389993e-10,1.143459635e-09,3.29402313e-11
3240,3280,1.109340257e-09,5.177949148e-11,3.921601126e-07,3.467613781e-10,1.079881316e-09,3.201136836e-11
3280,3320,1.034439151e-09,5.00014323e-11,3.925593993e-07,3.469373999e-10,1.03905345e-09,3.14000413e-11
3320,3360,1.000584404e-09,4.917597554e-11,3.918619369e-07,3.466298633e-10,9.109743378e-10,2.940153168e-11
3360,3400,1.061011866e-09,5.063926365e-11,3.931047162e-07,3.471777183e-10,9.422934724e-10,2.99027404e-11
3400,3440,9.208215869e-10,4.717506166e-11,3.940084648e-07,3.475755706e-10,8.692132439e-10,2.871957677e-11
3440,3480,8.337910454e-10,4.488974272e-11,3.940616133e-07,3.475989667e-10,8.483331815e-10,2.837246988e-11
3480,3520,8.773276285e-10,4.604770478e-11,3.943108649e-07,3.477085648e-10,7.695801149e-10,2.702358046e-11
3520,3560,7.444067697e-10,4.241646476e-11,3.950065278e-07,3.480144139e-10,7.885503003e-10,2.735447363e-11
3560,3600,8.434737518e-10,4.515006098e-11,3.960657297e-07,3.484795038e-10,7.894978521e-10,2.737087993e-11
3600,3640,7.613191769e-10,4.289542795e-11,3.963042232e-07,3.485841301e-10,7.316290521e-10,2.634894661e-11
3640,3680,7.468106904e-10,4.248452574e-11,3.982503416e-07,3.494368405e-10,6.908237594e-10,2.560360337e-11
3680,3720,6.40475762e-10,3.934407403e-11,3.994112934e-07,3.499444945e-10,6.509615251e-10,2.485380022e-11
3720,3760,6.114632203e-10,3.844232571e-11,4.011231171e-07,3.50691697e-10,6.414812144e-10,2.467232758e-11
3760,3800,6.839563998e-10,4.065694638e-11,4.022020511e-07,3.511618384e-10,6.224946607e-10,2.430430856e-11
3800,3840,5.244480516e-10,3.56018192e-11,4.036755522e-07,3.518027998e-10,5.845390759e-10,2.355172729e-11
3840,3880,5.316963523e-10,3.584692704e-11,4.053807142e-07,3.525431673e-10,5.883253238e-10,2.362769003e-11
3880,3920,5.848898066e-10,3.759810492e-11,4.068674281e-07,3.531873256e-10,5.33295355e-10,2.249568656e-11
3920,3960,4.978630948e-10,3.46877326e-11,4.093637995e-07,3.542664079e-10,5.06723199e-10,2.19280379e-11
3960,4000,4.737191526e-10,3.383705204e-11,4.109118056e-07,3.549338675e-10,5.276080719e-10,2.237554546e-11
4000,4040,5.196202142e-10,3.543777243e-11,4.130671192e-07,3.558610459e-10,4.697237934e-10,2.111249574e-11
4040,4080,5.534581129e-10,3.657350786e-11,4.148646503e-07,3.566324474e-10,4.820493669e-10,2.138746279e-11
4080,4120,5.002734971e-10,3.47713811e-11,4.170047091e-07,3.575486707e-10,4.773119014e-10,2.12822679e-11
4120,4160,4.785426382e-10,3.400851522e-11,4.196122075e-07,3.58661815e-10,4.355520024e-10,2.03298102e-11
4160,4200,4.374663311e-10,3.251659124e-11,4.218240369e-07,3.596032578e-10,4.431404693e-10,2.050607687e-11
4200,4240,4.302244851e-10,3.224666288e-11,4.241482826e-07,3.605900066e-10,4.232207709e-10,2.004006785e-11
4240,4280,4.011902038e-10,3.113837452e-11,4.262319205e-07,3.614721624e-10,4.33662443e-10,2.028585709e-11
4280,4320,4.156938759e-10,3.169633572e-11,4.290872777e-07,3.626776472e-10,3.852641361e-10,1.912032323e-11
4320,4360,3.891122144e-10,3.066631628e-11,4.318061142e-07,3.63821716e-10,4.336663645e-10,2.028603898e-11
4360,4400,3.987809417e-10,3.104503117e-11,4.34767162e-07,3.650635816e-10,3.824090454e-10,1.904913555e-11
4400,4440,3.601195083e-10,2.950211849e-11,4.371067353e-07,3.660418297e-10,3.85267955e-10,1.912051239e-11
4440,4480,3.794477326e-10,3.028320291e-11,4.403811659e-07,3.674064404e-10,3.359197676e-10,1.785392054e-11
4480,4520,3.649470467e-10,2.969894677e-11,4.416491877e-07,3.679335267e-10,3.624876618e-10,1.854646759e-11
4520,4560,3.770349721e-10,3.01869316e-11,4.425332719e-07,3.683006052e-10,3.330730385e-10,1.777811004e-11
4560,4600,3.359313614e-10,2.849330465e-11,4.443052263e-07,3.690350566e-10,3.112424234e-10,1.718547507e-11
4600,4640,3.335229877e-10,2.839134049e-11,4.44746362e-07,3.692177404e-10,3.292721807e-10,1.767624279e-11
4640,4680,3.38360033e-10,2.859662253e-11,4.456020161e-07,3.695716898e-10,3.32124816e-10,1.775280543e-11
4680,4720,3.021102033e-10,2.702154053e-11,4.468510705e-07,3.700878987e-10,2.808777415e-10,1.632567714e-11
4720,4760,3.166073805e-10,2.766209515e-11,4.478561929e-07,3.705026988e-10,2.789950001e-10,1.627130662e-11
4760,4800,2.900182122e-10,2.64749015e-11,4.492843422e-07,3.710912978e-10,2.979605262e-10,1.681487309e-11
4800,4840,2.972687532e-10,2.680380053e-11,4.504580929e-07,3.715742791e-10,2.704451056e-10,1.601977428e-11
4840,4880,3.069414145e-10,2.723662871e-11,4.528210625e-07,3.725448186e-10,2.495684035e-10,1.538903652e-11
4880,4920,3.045269715e-10,2.712939888e-11,4.533023351e-07,3.727421401e-10,2.619024508e-10,1.5764664e-11
4920,4960,2.876125846e-10,2.636538422e-11,4.547497768e-07,3.733350385e-10,2.619017763e-10,1.576462274e-11
4960,5000,2.489385724e-10,2.452863124e-11,4.561825996e-07,3.739210584e-10,2.476656258e-10,1.533010782e-11
5000,5040,2.054327387e-10,2.228229529e-11,4.580446869e-07,3.74681193e-10,2.362864035e-10,1.497403264e-11
5040,5080,2.586153306e-10,2.500127182e-11,4.588432301e-07,3.750066918e-10,2.002225293e-10,1.378387873e-11
5080,5120,2.41687624e-10,2.416874657e-11,4.613511958e-07,3.760271806e-10,2.457782296e-10,1.52719055e-11
5120,5160,2.054280936e-10,2.228179194e-11,4.617425516e-07,3.761861705e-10,2.154008353e-10,1.429664651e-11
5160,5200,2.706913205e-10,2.557790667e-11,4.636135294e-07,3.76945304e-10,2.087623113e-10,1.407474234e-11
5200,5240,2.296089626e-10,2.355736816e-11,4.656030429e-07,3.777508473e-10,2.258457057e-10,1.463939362e-11
5240,5280,1.933544617e-10,2.161767331e-11,4.663892392e-07,3.780686866e-10,2.030709626e-10,1.388163619e-11
5280,5320,1.86100487e-10,2.120810712e-11,4.686831114e-07,3.789944723e-10,1.77447387e-10,1.297622985e-11
5320,5360,2.295990904e-10,2.355635685e-11,4.70340276e-07,3.796619091e-10,1.897827386e-10,1.341965762e-11
5360,5400,1.74024317e-10,2.050895117e-11,4.718412344e-07,3.802654239e-10,1.973786946e-10,1.368574227e-11
5400,5440,2.441063118e-10,2.428946925e-11,4.730493723e-07,3.807505298e-10,1.821946089e-10,1.314875594e-11
5440,5480,2.126800854e-10,2.267176022e-11,4.743197023e-07,3.812598153e-10,1.992707527e-10,1.375097942e-11
5480,5520,1.885026883e-10,2.134371365e-11,4.740685543e-07,3.811592112e-10,1.489843912e-10,1.189024179e-11
5520,5560,1.788410241e-10,2.07898329e-11,4.747598349e-07,3.814361437e-10,1.679598594e-10,1.262462895e-11
5560,5600,1.933464876e-10,2.161677938e-11,4.757448587e-07,3.818305096e-10,1.518282733e-10,1.200307125e-11
5600,5640,1.788528875e-10,2.07912139e-11,4.763210799e-07,3.820609103e-10,1.480314507e-10,1.185199471e-11
5640,5680,1.860985243e-10,2.120788191e-11,4.753433605e-07,3.816698056e-10,1.375933979e-10,1.142650397e-11
5680,5720,1.59517901e-10,1.963528577e-11,4.760012472e-07,3.819329685e-10,1.480325971e-10,1.18520871e-11
5720,5760,1.861079958e-10,2.120896115e-11,4.765772886e-07,3.821632847e-10,1.546836189e-10,1.211574876e-11
5760,5800,1.377551293e-10,1.824610169e-11,4.754776331e-07,3.817235347e-10,1.280981123e-10,1.102492394e-11
5800,5840,1.78849875e-10,2.079086357e-11,4.759163444e-07,3.818991107e-10,1.470792715e-10,1.181368471e-11
5840,5880,1.981838119e-10,2.188572703e-11,4.751355778e-07,3.815866543e-10,1.385436033e-10,1.146594384e-11
5880,5920,1.232665315e-10,1.726075809e-11,4.739744987e-07,3.811215078e-10,1.328497531e-10,1.122784734e-11
5920,5960,1.377560163e-10,1.824622208e-11,4.719101119e-07,3.802931165e-10,1.31898654e-10,1.118749151e-11
5960,6000,1.861032194e-10,2.120841705e-11,4.702310747e-07,3.796179469e-10,1.252565461e-10,1.09021766e-11
6000,6040,1.498422791e-10,1.90299775e-11,4.667793404e-07,3.782262988e-10,1.252591886e-10,1.090240678e-11
6040,6080,1.32934219e-10,1.792483695e-11,4.630517054e-07,3.76717528e-10,1.262071008e-10,1.094353761e-11
6080,6120,1.595108503e-10,1.963441671e-11,4.58346816e-07,3.748043639e-10,1.167198363e-10,1.052426763e-11
6120,6160,1.764302099e-10,2.064958254e-11,4.514860003e-07,3.719967754e-10,1.015340547e-10,9.815662909e-12
6160,6200,1.740239413e-10,2.050890516e-11,4.429162703e-07,3.684594458e-10,1.034316141e-10,9.906946599e-12
6200,6240,1.329170903e-10,1.792252657e-11,4.298363019e-07,3.629931694e-10,1.024839066e-10,9.861513398e-12
6240,6280,1.474283353e-10,1.887625333e-11,4.088101192e-07,3.540273631e-10,8.91978049e-11,9.200046366e-12
6280,6320,1.256837958e-10,1.742919722e-11,3.622046171e-07,3.332862052e-10,8.730290182e-11,9.101952449e-12
6320,6360,1.208113641e-11,5.402845179e-12,3.130391209e-08,9.808352626e-11,5.693354037e-12,2.324301041e-12
6360,6400,0,0,0,0,0,0
