xl,xh,LO,dLO,LOISR,dLOISR,NLO,dNLO
0.0,10.0,0.0,0.0,0.0,0.0,0.0,0.0
10.0,20.0,0.0,0.0,0.0,0.0,0.0,0.0
20.0,30.0,0.0,0.0,0.0,0.0,0.0,0.0
30.0,40.0,0.0,0.0,0.0,0.0,0.0,0.0
40.0,50.0,0.0,0.0,0.0,0.0,0.0,0.0
50.0,60.0,0.0,0.0,0.0,0.0,0.0,0.0
60.0,70.0,0.0,0.0,0.0,0.0,0.0,0.0
70.0,80.0,0.0,0.0,0.0,0.0,0.0,0.0
80.0,90.0,0.0,0.0,0.0,0.0,0.0,0.0
90.0,100.0,0.0,0.0,0.0,0.0,0.0,0.0
100.0,110.0,0.0,0.0,0.0,0.0,0.0,0.0
110.0,120.0,0.0,0.0,0.0,0.0,0.0,0.0
120.0,130.0,0.0,0.0,0.0,0.0,0.0,0.0
130.0,140.0,1.6457075082583614,2.039369592581761e-05,1.6440046742732737,2.0230163410631107e-05,1.0532094753350203,4.14514094157589e-05
140.0,150.0,0.0,0.0,0.0,0.0,0.31824392371406857,1.1383151061764654e-05
150.0,160.0,0.0,0.0,0.0,0.0,0.05983143861425848,5.0494692262839115e-06
160.0,170.0,0.0,0.0,0.0,0.0,0.034202193449818265,3.7231139561328726e-06
170.0,180.0,0.0,0.0,0.0,0.0,0.023766824121224592,3.0149434635785717e-06
180.0,190.0,0.0,0.0,0.0,0.0,0.01809912517692889,2.55564308777587e-06
190.0,200.0,0.0,0.0,0.0,0.0,0.014530998712901925,2.2254009819303797e-06
200.0,210.0,0.0,0.0,0.0,0.0,0.012002232511490268,1.966253336500757e-06
210.0,220.0,0.0,0.0,0.0,0.0,0.010069258022545095,1.751826148297702e-06
220.0,230.0,0.0,0.0,0.0,0.0,0.008611937685334345,1.5765343578433618e-06
230.0,240.0,0.0,0.0,0.0,0.0,0.007481131094017934,1.432018035242856e-06
240.0,250.0,0.0,0.0,0.0,0.0,0.006572307520717914,1.3096309093687784e-06
250.0,260.0,0.0,0.0,0.0,0.0,0.005822170264073465,1.2053743419997436e-06
260.0,270.0,0.0,0.0,0.0,0.0,0.005187925718838438,1.1152904089684215e-06
270.0,280.0,0.0,0.0,0.0,0.0,0.004634905929771567,1.0360422536200355e-06
280.0,290.0,0.0,0.0,0.0,0.0,0.00413816211266621,9.64137627584672e-07
290.0,300.0,0.0,0.0,0.0,0.0,0.003682496729764499,8.980945617512886e-07
300.0,310.0,0.0,0.0,0.0,0.0,0.003250332870036884,8.350795929022735e-07
310.0,320.0,0.0,0.0,0.0,0.0,0.002834061904398801,7.734616215159317e-07
320.0,330.0,0.0,0.0,0.0,0.0,0.0024259610652482572,7.115156640266666e-07
330.0,340.0,0.0,0.0,0.0,0.0,0.002019390317568121,6.46710563581546e-07
340.0,350.0,0.0,0.0,0.0,0.0,0.0016202031661629716,5.776281718386429e-07
350.0,360.0,0.0,0.0,0.0,0.0,0.0012284261865883243,4.987462375451398e-07
360.0,370.0,0.0,0.0,0.0,0.0,0.0008662278441159772,4.111571866854251e-07
370.0,380.0,0.0,0.0,0.0,0.0,0.0005763012152373607,3.2703171703965106e-07
380.0,390.0,0.0,0.0,0.0,0.0,0.0003630643949994803,2.514199834715371e-07
390.0,400.0,0.0,0.0,0.0,0.0,0.00021665331692265452,1.8736798889372852e-07
400.0,410.0,0.0,0.0,0.0,0.0,0.00011919073017139595,1.3397408543590697e-07
410.0,420.0,0.0,0.0,0.0,0.0,5.67261384882681e-05,8.904245493113158e-08
420.0,430.0,0.0,0.0,0.0,0.0,1.891469177898601e-05,4.9256176821564094e-08
430.0,440.0,0.0,0.0,0.0,0.0,1.786781189528136e-06,1.4548434510139337e-08
440.0,450.0,0.0,0.0,0.0,0.0,0.0,0.0
450.0,460.0,0.0,0.0,0.0,0.0,0.0,0.0
460.0,470.0,0.0,0.0,0.0,0.0,0.0,0.0
470.0,480.0,0.0,0.0,0.0,0.0,0.0,0.0
480.0,490.0,0.0,0.0,0.0,0.0,0.0,0.0
490.0,500.0,0.0,0.0,0.0,0.0,0.0,0.0
