xl,xh,LO,dLO,LOISR,dLOISR,NLO,dNLO
215.0,220.0,0.0,0.0,0.0,0.0,1.2469023449971915e-07,1.03593847067625e-08
220.0,225.0,0.0,0.0,0.0,0.0,9.458308743245123e-07,2.8890805429842113e-08
225.0,230.0,1.7804270330584873e-07,9.033072948135429e-09,1.7995500358756726e-07,9.009147410322093e-09,3.5720240644293503e-06,5.683987413514509e-08
230.0,235.0,2.428276324056039e-06,3.380138445106524e-08,2.405624743447532e-06,3.3272228523652704e-08,1.163147678679638e-05,1.1333910323636124e-07
235.0,240.0,9.831392134489344e-06,6.897879867880776e-08,9.68359862721529e-06,6.751543062688319e-08,3.058214680848029e-05,1.91069887710212e-07
240.0,245.0,2.5589856949408043e-05,1.1282806044784165e-07,2.5389759528704762e-05,1.1058200802152677e-07,7.222638880199815e-05,3.020396890197855e-07
245.0,250.0,5.4702032171087516e-05,1.6728966691637233e-07,5.439389769015672e-05,1.6372731706740474e-07,0.0001450464203606699,4.308697805393432e-07
250.0,255.0,0.00010291560731392093,2.327543525846887e-07,0.00010202080269839818,2.268320337208096e-07,0.0002606105892831096,5.922089390662356e-07
255.0,260.0,0.00017925879218204765,3.115333712129538e-07,0.0001777757510024807,3.028459534220049e-07,0.0004333449435796556,7.793427965625145e-07
260.0,265.0,0.00029695490082971566,4.0652294706818574e-07,0.000295788482454225,3.9502830009006976e-07,0.0006813566373280402,9.9680535925558e-07
265.0,270.0,0.00047878286316335077,5.23240737814297e-07,0.00047707197269410536,5.071994475005393e-07,0.0010321363040927012,1.2753956759656205e-06
270.0,275.0,0.0007557720562974628,6.658264937910646e-07,0.0007532325504560053,6.438956346925085e-07,0.0015200724743548956,1.5975256815999255e-06
275.0,280.0,0.0011974518401618134,8.477301265343134e-07,0.0011941182709081745,8.181994466531799e-07,0.0022358002992453932,2.010572325870076e-06
280.0,285.0,0.001992305129881689,1.1012972001397557e-06,0.001986782295763593,1.0615903594062666e-06,0.0033973799728419627,2.5856201910604883e-06
285.0,290.0,0.00450300965092068,1.6240175826416324e-06,0.0044975505338723035,1.5698875120784245e-06,0.006164157625404108,3.778293184417161e-06
290.0,295.0,0.008267185774729147,2.2133741193302527e-06,0.008261500912458329,2.1346061431941232e-06,0.010071424339200314,5.097771661639683e-06
295.0,300.0,0.012603085870636554,2.7789128337471483e-06,0.012597178978651272,2.6686940928171383e-06,0.014584365198956938,6.331834932880193e-06
300.0,305.0,0.01778852268900163,3.3625986531748525e-06,0.017776317400167028,3.214468686572588e-06,0.019954404731417776,7.614998361880827e-06
305.0,310.0,0.02395859883859576,3.9717822593808615e-06,0.023951196726891583,3.7815387014264877e-06,0.026289230254381304,8.929058018758999e-06
310.0,315.0,0.031180173464538382,4.601607770099463e-06,0.03117487623124545,4.3648366643107045e-06,0.033620994774844114,1.0266261161531565e-05
315.0,320.0,0.039378743444331336,5.236363079919113e-06,0.039372506912478365,4.9507819793383465e-06,0.041926765886909016,1.1617598467310786e-05
320.0,325.0,0.04838099447904125,5.859342782547431e-06,0.04836625889942205,5.52443180187451e-06,0.050946579129371714,1.2905171195651015e-05
325.0,330.0,0.05793615083832297,6.4576787835778804e-06,0.057908505661386264,6.0751190375529965e-06,0.06051153088229355,1.4145318930825796e-05
330.0,335.0,0.06764784324189671,7.01409889049277e-06,0.06764113641787621,6.589156871822797e-06,0.07017613294799775,1.528204668185797e-05
335.0,340.0,0.07625817199613376,7.4521686314825104e-06,0.0762301710013206,6.991647527965552e-06,0.07882214672077249,1.6159625885764686e-05
340.0,345.0,0.0840848846934416,7.82343316384549e-06,0.08407065932872979,7.334535834152092e-06,0.08664458804350242,1.686764164189536e-05
345.0,350.0,0.09150498608434343,8.160648441555063e-06,0.0914667327390206,7.645879766865082e-06,0.09398761391809728,1.7512200341618455e-05
350.0,355.0,0.09835931417510152,8.460819420298701e-06,0.0983310792821958,7.926337510499271e-06,0.10074492874153394,1.8077530678011032e-05
355.0,360.0,0.1046612464596397,8.727631100145563e-06,0.1046244861203428,8.177398161178591e-06,0.10683033698167628,1.8562512291252303e-05
360.0,365.0,0.11035114709356633,8.960546318481904e-06,0.1103243739495184,8.400514020068772e-06,0.11218130863462483,1.8985852152104653e-05
365.0,370.0,0.11543837037188988,9.16149295878369e-06,0.1154002829790138,8.596117023461075e-06,0.11682232279576675,1.9347149339481187e-05
370.0,375.0,0.11987931721098385,9.32971734515652e-06,0.11983558358170747,8.765174996366105e-06,0.12066520533073788,1.9621934370756908e-05
375.0,380.0,0.12367448651671245,9.46525977786675e-06,0.12363585096129115,8.908430817136485e-06,0.12385446545256985,1.9851868754651016e-05
380.0,385.0,0.12673981841451673,9.565206136104226e-06,0.12669312151316772,9.02283367379043e-06,0.12617082799758975,1.9983715997068453e-05
385.0,390.0,0.1289924083541006,9.626385055529598e-06,0.12892928486352567,9.106938073330859e-06,0.1276272857870096,2.0057141872593427e-05
390.0,395.0,0.13036629170963662,9.646570664902733e-06,0.13030200059708658,9.160339825677737e-06,0.12815193111919218,2.004769730214745e-05
395.0,400.0,0.13071574475804398,9.619988973086193e-06,0.13065405153492154,9.17902344734017e-06,0.12762167450031736,1.9939593053126014e-05
400.0,405.0,0.12992476781397758,9.54270538614948e-06,0.12983529847906922,9.160257820978495e-06,0.1259206424422208,1.9725900030697962e-05
405.0,410.0,0.1278605205179996,9.410885546192874e-06,0.12777264060119414,9.1050831647602e-06,0.12307358263079657,1.9409163810804724e-05
410.0,415.0,0.1245286415411904,9.226628489757427e-06,0.12442515245427806,9.017281056662815e-06,0.11898263608879164,1.8965900221289262e-05
415.0,420.0,0.11996005505099785,8.994736102848134e-06,0.11986405315122013,8.906238044160512e-06,0.11376451599100425,1.842163722136041e-05
420.0,425.0,0.11445095178582496,8.72900689964955e-06,0.1143140183743518,8.786183687541674e-06,0.10781470511579587,1.781531448803766e-05
425.0,430.0,0.10882010376499608,8.473933228641401e-06,0.10867834835794378,8.703208075289935e-06,0.10187064544867244,1.7240524758330452e-05
430.0,435.0,0.10446153494306444,8.30532548971925e-06,0.10430781629739236,8.723419598679803e-06,0.0970888470977565,1.6863759629064154e-05
435.0,440.0,0.10081747895363892,8.165458685424167e-06,0.10064902978258433,8.800199745550866e-06,0.092999385716891,1.6560991171615226e-05
440.0,445.0,0.09834123638508843,8.0629512364665e-06,0.09814150854168872,8.945399440230061e-06,0.08992907530395512,1.6337563141044948e-05
445.0,450.0,0.0973950967813491,8.00693584961279e-06,0.09717068634338538,9.173252261436354e-06,0.08826788875652093,1.6238650060254618e-05
450.0,455.0,0.09791214586186532,7.997111738372342e-06,0.0976353167099146,9.478578095088023e-06,0.087876644895594,1.622440682846085e-05
455.0,460.0,0.0926181545636161,7.826763414237183e-06,0.09234684869988828,9.507913494326918e-06,0.08296566042995858,1.5812383459777813e-05
460.0,465.0,0.0811675550626446,7.325376761464592e-06,0.08090589764631256,9.081435913681813e-06,0.07240704223279716,1.4798068330762977e-05
465.0,470.0,0.06579000994146694,6.4394488344635325e-06,0.06556173128274848,8.190858669491894e-06,0.057302741248709516,1.3121948930754202e-05
470.0,475.0,0.0462506750643504,5.100978756558905e-06,0.04606693544532202,6.732468245531385e-06,0.03859968379433755,1.0659809299408477e-05
475.0,480.0,0.021859527711571985,3.1897154305476064e-06,0.021747601648235103,4.44103195031735e-06,0.01720104523080325,6.997117960275116e-06
480.0,485.0,0.0014898811761955345,7.704692011869469e-07,0.0014629055760988444,1.1221789923062e-06,0.001107690092844942,1.9329693614997377e-06
485.0,490.0,1.2676666126229652e-08,2.1193008222356213e-09,9.067070771004604e-09,2.733849210658185e-09,1.8363273841635966e-09,1.1417446703597578e-09
490.0,495.0,0.0,0.0,0.0,0.0,0.0,0.0
495.0,500.0,0.0,0.0,0.0,0.0,0.0,0.0
500.0,505.0,0.0,0.0,0.0,0.0,0.0,0.0
505.0,510.0,0.0,0.0,0.0,0.0,0.0,0.0
510.0,515.0,0.0,0.0,0.0,0.0,0.0,0.0
