xl,xh,LO,dLO,LOISR,dLOISR,NLO,dNLO
200.0,205.0,0.0,0.0,0.0,0.0,3.040169143293981e-08,2.2351244327968587e-09
205.0,210.0,0.0,0.0,0.0,0.0,4.6966912588118706e-07,9.317986195487088e-09
210.0,215.0,2.050096039025801e-08,3.029398991524947e-09,2.4177835353534294e-08,3.2902083334391343e-09,2.1254000835964272e-06,2.1271272525551584e-08
215.0,220.0,1.7534777802784042e-06,2.8800436117481087e-08,1.7179978891826093e-06,2.8168009226029777e-08,7.699273255550068e-06,7.200176923464006e-08
220.0,225.0,1.6487588083374048e-05,9.074708896709673e-08,1.6327110958895922e-05,8.876940701332512e-08,3.0648543316842026e-05,2.119306150395245e-07
225.0,230.0,5.450624769676657e-05,1.6708896697691624e-07,5.415003342446187e-05,1.6344070655086643e-07,8.761269381852809e-05,3.9967923961113383e-07
230.0,235.0,0.00012091950271735659,2.5114537481432003e-07,0.0001202603847163721,2.45588888455647e-07,0.00018788882891787912,6.006355243054807e-07
235.0,240.0,0.00022626259731949126,3.4652911038971713e-07,0.0002251388124489824,3.38548752921834e-07,0.00034869041302306716,8.164438196399192e-07
240.0,245.0,0.0003910727674653227,4.5918193900875817e-07,0.0003890129293826051,4.481439712046624e-07,0.0006056972720497,1.096575300596007e-06
245.0,250.0,0.0006513996872395412,5.968356980836078e-07,0.0006488168036888216,5.823993266370396e-07,0.0010045879967031318,1.4206224240338718e-06
250.0,255.0,0.0011011666324780023,7.803805825757891e-07,0.0010970192876237571,7.611459176859931e-07,0.0016701084156723644,1.8457602285931587e-06
255.0,260.0,0.002391258591918015,1.1398621274972624e-06,0.0023865103298959444,1.1148095891454208e-06,0.0032854722650032873,2.6856466616791166e-06
260.0,265.0,0.0063133331663929575,1.8181918764729861e-06,0.0063108388845405285,1.7826123878185432e-06,0.007394033689939333,4.276014274522586e-06
265.0,270.0,0.008780509602769543,2.172643748678977e-06,0.008775210875914048,2.1231609763113805e-06,0.01013542165475987,5.083855575589429e-06
270.0,275.0,0.01125878069004895,2.497504679535878e-06,0.011254852532556238,2.4316736669955537e-06,0.012884075247683178,5.795817649013189e-06
275.0,280.0,0.014209035789579941,2.850771557007878e-06,0.014203002158463134,2.7644266755207347e-06,0.016150986811669786,6.575697438212861e-06
280.0,285.0,0.0178351586394712,3.2477175668616864e-06,0.017820726617808126,3.135703278393904e-06,0.02011272681436029,7.442828027204295e-06
285.0,290.0,0.02232761868823249,3.6974097587513335e-06,0.022316289651263168,3.5554232713403168e-06,0.024990410858185808,8.416903782440363e-06
290.0,295.0,0.027978271134482147,4.213163324409716e-06,0.02796084404030404,4.033983444135319e-06,0.03106647856006708,9.538495253208556e-06
295.0,300.0,0.035098723497438915,4.803996269395442e-06,0.03507978674875646,4.5804439764856596e-06,0.03858844821741141,1.079247761127254e-05
300.0,305.0,0.044076297018170216,5.478039448377422e-06,0.0440625108983726,5.202183620612749e-06,0.047947416987161665,1.2229677108642846e-05
305.0,310.0,0.05530014169822376,6.2363046354402825e-06,0.05528242885452003,5.8988299350140125e-06,0.05941810161711361,1.3824860965517938e-05
310.0,315.0,0.0690453533572548,7.066099408988306e-06,0.0690274620982332,6.6593501908717655e-06,0.07319668913118729,1.555740230823595e-05
315.0,320.0,0.08526661017402726,7.934679674768988e-06,0.08524158505738451,7.453423298906354e-06,0.08911137080769928,1.7352357745695226e-05
320.0,325.0,0.10319079422305527,8.78548374369573e-06,0.10316604872987488,8.230578146567654e-06,0.10637884073855232,1.9091737330647297e-05
325.0,330.0,0.12116912506127644,9.541986123996145e-06,0.1211369209682768,8.921551000103454e-06,0.12331319438462643,2.0608655688941845e-05
330.0,335.0,0.13629671584616482,1.0092335063583135e-05,0.1362610232985075,9.42420040993962e-06,0.13738291467412975,2.165234349716969e-05
335.0,340.0,0.14861722658368018,1.0499140168379823e-05,0.148576358308197,9.79972801514078e-06,0.14872096681298436,2.240296324905753e-05
340.0,345.0,0.15745850433345626,1.0757145277937994e-05,0.15740987628211858,1.0045876482620224e-05,0.15652356690420238,2.281578232625256e-05
345.0,350.0,0.16249631606786355,1.086265405782015e-05,0.16243933410465186,1.0162375746135446e-05,0.16059290686936925,2.292210943436613e-05
350.0,355.0,0.16356886717293,1.0813417655015723e-05,0.16351658335190192,1.0152021599644259e-05,0.16074249816706182,2.268597860272543e-05
355.0,360.0,0.16089825986967554,1.060862263540806e-05,0.1608461065086181,1.0019913514817004e-05,0.15725562286560654,2.215532579259557e-05
360.0,365.0,0.15358308507895782,1.014640904583752e-05,0.15349089305952146,9.682376800835789e-06,0.14922378804656988,2.1106840217555773e-05
365.0,370.0,0.1427851842962574,9.455807115459782e-06,0.1426729978174158,9.183604813263298e-06,0.1378653924251534,1.961529671799288e-05
370.0,375.0,0.13510115151880348,9.173974981689979e-06,0.13498284612209854,9.012852805614076e-06,0.1296604728022274,1.8961372333002155e-05
375.0,380.0,0.1260974419771056,8.899074150397301e-06,0.12598178171978708,8.822905436981496e-06,0.12050103600963764,1.831274780799592e-05
380.0,385.0,0.1168845563092162,8.609472287710242e-06,0.11675187310945423,8.624642223643483e-06,0.11123176257331396,1.7651043052425104e-05
385.0,390.0,0.10810746044333587,8.329303185741477e-06,0.1079715629116948,8.441186394457729e-06,0.10239035910124457,1.7002031031830152e-05
390.0,395.0,0.10003626704985104,8.068494317167948e-06,0.09989626507901132,8.280590278172131e-06,0.09435851036500026,1.642410403747331e-05
395.0,400.0,0.09276077312133788,7.82863023351429e-06,0.09262755040886173,8.143568982626666e-06,0.08708633031429706,1.58810320064144e-05
400.0,405.0,0.0862357940213816,7.604408607778421e-06,0.08608055980723334,8.023661868178372e-06,0.08053411780441237,1.5374224970984156e-05
405.0,410.0,0.08037879207926725,7.393289860801271e-06,0.08022578480661822,7.919799758462556e-06,0.07472004371646895,1.4913289957776727e-05
410.0,415.0,0.07515600993148824,7.195346546755672e-06,0.07500558443092786,7.830234955822645e-06,0.06949545691627836,1.4478234064099806e-05
415.0,420.0,0.07043058012322616,7.005527876017905e-06,0.07028030352576613,7.749699154417744e-06,0.06479280717261016,1.4060229021746804e-05
420.0,425.0,0.06614000175596267,6.822769729704607e-06,0.06599675638223068,7.67631266725866e-06,0.06050477287417114,1.3666011252513118e-05
425.0,430.0,0.0621735786776873,6.642798239939489e-06,0.062021514292846025,7.603926824320754e-06,0.056559854090464524,1.3279297515160922e-05
430.0,435.0,0.058386549185690015,6.459228152663846e-06,0.05822091917153593,7.524942883667085e-06,0.05277590777229819,1.2882028212246253e-05
435.0,440.0,0.0546730251696002,6.266756464565545e-06,0.05452644435976065,7.434908573351488e-06,0.04908776513266812,1.2469250431750133e-05
440.0,445.0,0.05087237042440318,6.056504477258762e-06,0.05071236193166461,7.317011768332394e-06,0.04536490799182793,1.2027651306087191e-05
445.0,450.0,0.04674945233271487,5.812823906238732e-06,0.046601523869767916,7.154509827378403e-06,0.04139036652592615,1.1526456956403207e-05
450.0,455.0,0.04190138012011392,5.505853193141162e-06,0.041766785468547576,6.905082099128828e-06,0.036803374954351334,1.0899682856779382e-05
455.0,460.0,0.03560761639335062,5.074450516513012e-06,0.035482331540765674,6.484500811719305e-06,0.03098495310365182,1.0019981255069176e-05
460.0,465.0,0.025497738330887396,4.288457073361846e-06,0.02540657527767081,5.583057844585172e-06,0.02196121600701616,8.438402399051124e-06
465.0,470.0,0.005645603691228757,2.0354984532781847e-06,0.005611406846407032,2.6663343190863024e-06,0.004878993080630692,4.0436838473208776e-06
470.0,475.0,7.011427702155244e-05,2.4163200209469964e-07,6.795876884358308e-05,3.004742400005907e-07,5.7602906039417613e-05,5.151778576643626e-07
475.0,480.0,0.0,0.0,0.0,0.0,0.0,0.0
480.0,485.0,0.0,0.0,0.0,0.0,0.0,0.0
485.0,490.0,0.0,0.0,0.0,0.0,0.0,0.0
490.0,495.0,0.0,0.0,0.0,0.0,0.0,0.0
495.0,500.0,0.0,0.0,0.0,0.0,0.0,0.0
