xl,xh,LO,dLO,LOISR,dLOISR,NLO,dNLO
0.0,0.25,6.88333238838964,0.0002777135992473834,6.883118422073388,0.00027923480810107624,5.387462223545153,0.0005749170999536608
0.25,0.5,4.213009914118043,0.00024314036247690521,4.2130444553028745,0.0002455181234994084,3.7435421730211065,0.000504394430392695
0.5,0.75,2.5545392362618204,0.00019158111565977805,2.5544966309720483,0.00019355734169208138,2.4187327847838263,0.0003990588877485485
0.75,1.0,1.828163464529972,0.0001626378212120128,1.828042964629489,0.000164344293760092,1.7911890273687536,0.0003393179817556748
1.0,1.25,1.4227722067110642,0.00014371193839979275,1.4226390787220466,0.0001452213601470028,1.4261920803253592,0.00030033617325559613
1.25,1.5,1.1646878085701076,0.00013014527863948057,1.164595409329345,0.00013152217298035817,1.1872211902690777,0.00027236623172265985
1.5,1.75,0.9856522250775896,0.00011979481763387251,0.9856034665286236,0.00012106829531070715,1.0180812530714791,0.0002511008555923829
1.75,2.0,0.8546691895942676,0.00011160103683179811,0.8546135670915532,0.00011277876758467075,0.8912564278847688,0.0002340212522489725
2.0,2.25,0.7542121302300525,0.00010487105816343665,0.7540267312331821,0.00010596760944034016,0.7932247507732509,0.00021996312559557872
2.25,2.5,0.6748983451492953,9.922689070418863e-05,0.6746525732393159,0.0001002556414734641,0.7147983109634559,0.00020839717512298702
2.5,2.75,0.6107458491636429,9.441383664611836e-05,0.6104697764581123,9.5382113238125e-05,0.6509533475212004,0.00019848923693210877
2.75,3.0,0.5577764116412077,9.024320194560009e-05,0.5575850542509101,9.117206479829749e-05,0.5974787996027526,0.0001897542206863232
3.0,3.25,0.5132081563283168,8.65734130348904e-05,0.5129633856545552,8.745214359040834e-05,0.5520777194426456,0.0001821630010728453
3.25,3.5,0.4754386726151815,8.33401512765335e-05,0.4752138141624069,8.418386920810553e-05,0.5129796949543871,0.00017508221136461894
3.5,3.75,0.4426554426965355,8.042495492341637e-05,0.4424501051614109,8.122972055675968e-05,0.4796654393267827,0.00016925694300941847
3.75,4.0,0.414110555756056,7.779633445796257e-05,0.4138510137433155,7.856301121534109e-05,0.4500023340593901,0.00016363505614779464
4.0,4.25,0.3894000558090049,7.54504779469687e-05,0.389090482218505,7.618060743648375e-05,0.424222077611378,0.00015882942897712572
4.25,4.5,0.3670314715110092,7.32559556009813e-05,0.36672070073860974,7.396285637985904e-05,0.40101544652568544,0.0001541896092825166
4.5,4.75,0.3473636003656125,7.127435734557473e-05,0.3470107343254418,7.194337645872907e-05,0.3803318475650964,0.00015010257319279406
4.75,5.0,0.32966212161722136,6.944136237817158e-05,0.32930748888603284,7.008365948587875e-05,0.3614960611760684,0.0001460944670131611
5.0,5.25,0.31375047497915165,6.774990982784622e-05,0.31330528866958884,6.835852060151276e-05,0.34501737013363176,0.00014285585243916648
5.25,5.5,0.29925279304135083,6.617354798303708e-05,0.2988741348161045,6.676466227670563e-05,0.3292182282166697,0.00013917157688486946
5.5,5.75,0.2860587054012861,6.470337543714774e-05,0.2855915605044385,6.526458053741587e-05,0.3153068306164938,0.00013627832777592284
5.75,6.0,0.2739993570724293,6.333159694546842e-05,0.27354488390618137,6.387522544707973e-05,0.3023529601151043,0.0001333754363490337
6.0,6.25,0.2629388396329163,6.204521928372981e-05,0.2625511415363468,6.25679976254053e-05,0.29061139739534825,0.0001306954027079703
6.25,6.5,0.252793913760646,6.084222436899592e-05,0.2523608717030322,6.134397760136966e-05,0.2797311790857003,0.00012831410860434528
6.5,6.75,0.24332045997703305,5.9697190343550086e-05,0.2428772912466227,6.0177155827570225e-05,0.2693952913323949,0.00012567199735902482
6.75,7.0,0.2346692687220908,5.863119155308938e-05,0.2341027141081325,5.907481126990615e-05,0.2598785680431821,0.00012349408613545587
7.0,7.25,0.2264389763922821,5.7601798885858474e-05,0.22587956339534684,5.802288996944294e-05,0.2511793104888119,0.00012128764850769243
7.25,7.5,0.21896487340989887,5.664841682603081e-05,0.21837096258151611,5.705103358947553e-05,0.2430918894711764,0.00011939037857585727
7.5,7.75,0.2117809487930845,5.571696979534761e-05,0.21117687861800516,5.6099431319432935e-05,0.2352441440067072,0.00011731078356956065
7.75,8.0,0.20518877933309446,5.484871473115786e-05,0.20465890317138105,5.5222782768701095e-05,0.228286680038172,0.00011565690410669292
8.0,8.25,0.19908861597884486,5.403408012087812e-05,0.1984292952575416,5.437351243247782e-05,0.2213902377043668,0.00011389504581115923
8.25,8.5,0.19322461942239064,5.323694964968694e-05,0.1926193409727773,5.356924277096652e-05,0.21528927082297167,0.0001124442696912471
8.5,8.75,0.1877232306484013,5.247756647588015e-05,0.18705604471138387,5.2785930434511735e-05,0.20902681204155005,0.00011067260067856116
8.75,9.0,0.18256051671315493,5.175618889626348e-05,0.1818775009242032,5.204707384572756e-05,0.2033337273941277,0.00010911837281461613
9.0,9.25,0.1776378821607479,5.105974088670567e-05,0.1769329887548327,5.133130810198106e-05,0.19806887879632926,0.00010775432998744172
9.25,9.5,0.17314789330336314,5.04158218032794e-05,0.1724694111339857,5.067391485481285e-05,0.1929986268889286,0.00010633033307063832
9.5,9.75,0.16863648179403246,4.9761428709118126e-05,0.16793776128762986,4.9997071913075764e-05,0.1882208088583332,0.0001051181559442388
9.75,10.0,0.16450594975789706,4.915330738183429e-05,0.16375017955872534,4.9366472437799156e-05,0.1837304993667176,0.00010377690669543941
10.0,10.25,0.16057185380755484,4.856918977134898e-05,0.15977166949674834,4.8757799559683085e-05,0.1791525200831511,0.00010243767556813528
10.25,10.5,0.1568271988667168,4.8006229499092935e-05,0.15602623407785432,4.818059205365588e-05,0.1751040716926005,0.00010130621905067594
10.5,10.75,0.1533315900884238,4.747376989523963e-05,0.15253692616202352,4.762946785988319e-05,0.1713297542249203,0.00010035101662771833
10.75,11.0,0.14984006545249495,4.693360720444752e-05,0.14904738028194608,4.708123218228872e-05,0.16756141717084386,9.923788945435016e-05
11.0,11.25,0.14658171624373828,4.642869346568899e-05,0.14569726250237264,4.654096868082329e-05,0.16380661339514468,9.804540674531496e-05
11.25,11.5,0.14357127986963109,4.5954677958877705e-05,0.1426674530247065,4.6050313224755155e-05,0.16046677235921847,9.712550364007272e-05
11.5,11.75,0.14050079897718296,4.546433852545354e-05,0.13958589178779107,4.554722072068253e-05,0.15716428751368805,9.619350455834386e-05
11.75,12.0,0.1376239924885557,4.500327316058729e-05,0.1367456699411545,4.50719980264133e-05,0.15388947783881762,9.509154350667607e-05
12.0,12.25,0.13497819576411127,4.4576535740211025e-05,0.13403098363189211,4.462267298926852e-05,0.15095710760010694,9.428853859003252e-05
12.25,12.5,0.13234143484860872,4.414452225243145e-05,0.13137903140356794,4.4173849026797616e-05,0.14797998418214575,9.330753900423815e-05
12.5,12.75,0.1298715967365447,4.373549419743366e-05,0.1288635006182761,4.374264135740119e-05,0.14516997470578155,9.24116289876678e-05
12.75,13.0,0.12743850189620598,4.332904660350893e-05,0.12643792882475188,4.331996581479336e-05,0.14241426485427766,9.156132470931364e-05
13.0,13.25,0.12509425179136516,4.293497205671223e-05,0.12409331557234425,4.2911768606813425e-05,0.13991153209909346,9.086456887822109e-05
13.25,13.5,0.122958085076598,4.257508789936945e-05,0.12191585833197015,4.253200744411562e-05,0.13749621089934802,9.017488180150495e-05
13.5,13.75,0.12075727490745145,4.219658760967522e-05,0.11974832208812795,4.214542651519671e-05,0.13494649635496184,8.916302392736797e-05
13.75,14.0,0.1187213037032332,4.184783178661592e-05,0.11766979441343718,4.1774245541573636e-05,0.1327446395656965,8.850196692278133e-05
14.0,14.25,0.11669131393598647,4.149477653089594e-05,0.11565953815475186,4.141048302211029e-05,0.13058060634901758,8.787255811911148e-05
14.25,14.5,0.11475855121128856,4.115622051222826e-05,0.11363709300048133,4.104052091873963e-05,0.1282135208672074,8.693711296361459e-05
14.5,14.75,0.11289550963421838,4.0824594783250315e-05,0.11183603550004252,4.071266970570597e-05,0.12633149591829146,8.651057733353292e-05
14.75,15.0,0.1111371192989578,4.0514922400463314e-05,0.10997207714168786,4.036016173781103e-05,0.12441168517195787,8.597279822051762e-05
