-------------- Generation parameters -------------------------------
20000000      ------------- number of generated events
20000000      ------------- events to determine the maximum
""     ------------- output file
0             ------------- printing in .dat (1) or in .csv (2), nonprinting(0) generated events
0            -------------  ph0  Born: 1ph(0), Born: 0ph(1), only Born: 0ph(-1)
0            -------------  1 photon : Born(0), NLO(1)
0            -------------  full NLO : No(0), Yes(1)
.00001d0       ------------- soft photon cutoff
1         mu+mu-(0), pi+pi-(1), 2pi0pi+pi-(2), 2pi+2pi-(3), ppbar(4), nnbar(5), K+K-(6), K0K0bar(7), pi+pi-pi0(8), lamb(->pi-p)lambbar(->pi+pbar)(9), eta pi+ pi- (10), chi_c1 production (11), chi_c2 production (12)
2             ------------- ISR only(0), ISR+FSR(1), ISR+INT+FSR(2) 
0             ------------- IFSNLO: no(0), yes(1)
0             ------------- ivac : vacuum polarization switch: off (0), on (1,[by Fred Jegerlehner]), on (2,[by Thomas Teubner])
3             ------------- FF_pion: KS PionFormFactor(0),GS old (1),GS new (2), Strong2020 (3)
2             ------------- for pi+pi- only: f0+f0(600): K+K- model(0), "no structure" model(1), no f0+f0(600)(2), f0 KLOE(3)
0             ------------- FF_kaon: KaonFormFactor constrained (0),KaonFormFactor unconstrained (1),KaonFormFactor old (2)
0             ------------- narr_res: no narrow resonances (0), J/psi (1) and psi(2S) (2) only for pion = 0,1,6,7
0	       ------------- FF_pp: ProtonFormFactor old(0), ProtonFormFactor new(1)
0             ------------- FF_Pgg: fit1(0) fit2(1)
0            -------------- chi_sw: Radiative return(0), Chi production(1), Radiative return + Chi production (2)
0            --------------be_r: without beam resolution(0), with beam resolution(1)
-------------- Collider parameter ---------------------------------- 
10.0d0        GeV ---------- CMS-Energy
0.001d0          GeV ---------- beamres - beam resolution
-------------- Experimental cuts -----------------------------------
8.0d0    GeV^2 -------- minimal hadrons(muons)-gamma-inv. mass squared
0.01d0    GeV^2 -------- minimal inv. mass squared of the hadrons(muons)
1000d0    GeV^2 -------- maximal inv. mass squared of the hadrons(muons)
3d0   GeV ---------- minimal photon energy/missing energy
0.0d0   grad --------- minimal photon angle/missing momentum angle
180.0d0  grad --------- maximal photon angle/missing momentum angle 
0.0d0    grad --------- minimal pions(muons,nucleons,kaons) angle 
180.0d0  grad --------- maximal pions(muons,nucleons,kaons) angle
-------------- Histograms ------------------------------------------
13                                                --------- total number of histograms (printed variables, can't exceed 60, bearing in mind that there is a histogram generated for each posible final state)
"LO.dat"        --------- output file for printing histograms IFSNLO
0                                                 --------- nonoprinting (0) or printing (1) unweighted histograms
0                                                 --------- print histograms with final state photons summed (0) or explicitly (1)
"p+"                                             --------- title
1000d0,5000d0,100                                    --------- histogram limits and number of bins
"th+"
0.65d0,2.75d0,42
"p-"
1000d0,5000d0,100
"th-"
0.65d0,2.75d0,42
"Eg"
3000,5000,100
"thg"
0.6,2.7,42
"thav"
0.52,2.63,50
"dphi"
0,1,100
"xi"
0,1,100
"mxx"
0,6400,160
"mxxrw"
0,2400,600
"mxxg"
8000,10000,50
"thgg"
0,0.3,60
-----------------------------------------------------------
