# xl,xh,LO,dLO,LOwvp,dLOwvp,PS+LOnovp,dPS+LOnovp,PS+LO,dPS+LO
0,0.04,299.6985835,0.05159668985,310.6711265,0.05348667977,238.5447818,0.1079774971,247.0088327,0.1117574382
0.04,0.08,28.59606886,0.01710940328,29.72559371,0.01776049659,32.88880562,0.04442873703,34.20579658,0.04608253541
0.08,0.12,15.89773245,0.01279647984,16.53905887,0.0132889445,17.73421319,0.03551691725,18.30778585,0.0367449835
0.12,0.16,10.80273224,0.01056154524,11.26192897,0.01097939915,11.33771409,0.0310507716,11.79037511,0.03220293893
0.16,0.2,8.116126538,0.009160585619,8.442440366,0.009512478538,7.876066139,0.0287113545,8.116835932,0.02967441528
0.2,0.24,6.37878838,0.008124501102,6.653977962,0.008448541152,5.439667403,0.0272524092,5.687373321,0.02822870158
0.24,0.28,4.892551558,0.00711819725,5.085670958,0.007388914614,4.174718211,0.02451182115,4.352246228,0.02535575251
0.28,0.32,3.840815518,0.006308433501,4.01464603,0.006566640727,3.321948729,0.02198366472,3.498838714,0.02272053574
0.32,0.36,3.112273636,0.005679812102,3.246612443,0.005906312979,2.665432816,0.019949786,2.824546332,0.02065075483
0.36,0.4,2.585105244,0.005177192113,2.696224942,0.005383256326,2.25774698,0.01824625223,2.332908017,0.01882086461
0.4,0.44,2.18053143,0.004755444175,2.28865504,0.004960598847,1.873534242,0.01682256572,1.967111012,0.01737983921
0.44,0.48,1.865642083,0.00439923441,1.950163471,0.004579505868,1.592480303,0.01557034656,1.669485948,0.01611881414
0.48,0.52,1.619690654,0.004099377041,1.685025816,0.00425732005,1.351641172,0.01448224986,1.447056783,0.01501113032
0.52,0.56,1.427403571,0.003848384312,1.482258996,0.003992928248,1.200607763,0.01353535836,1.253133056,0.01398101684
0.56,0.6,1.269974151,0.00363109983,1.316901552,0.00376463621,1.059820404,0.01265415132,1.111751868,0.01313268687
0.6,0.64,1.125458276,0.003419226472,1.175832699,0.003558035592,0.9399175369,0.01190955344,0.9782286383,0.0122954946
0.64,0.68,1.014672742,0.00324629866,1.054237544,0.00336920594,0.8356181527,0.01122045111,0.8602899996,0.01161462466
0.68,0.72,0.9120955498,0.003078077685,0.9513757213,0.003200973708,0.7892570337,0.01063943462,0.7841022419,0.0109907591
0.72,0.76,0.8325256715,0.002940736985,0.8639656924,0.003050773069,0.6972645565,0.01006768569,0.7217802242,0.01046696405
0.76,0.8,0.7586650417,0.002809367617,0.7787180156,0.002896709267,0.6430289684,0.009568912601,0.6564694424,0.009846055545
0.8,0.84,0.6978421383,0.002694709383,0.7200625926,0.002788124543,0.6007134763,0.009079077916,0.5994434475,0.00936512559
0.84,0.88,0.639361352,0.002580051921,0.6620208926,0.002673036287,0.5502179794,0.00858993248,0.5509802975,0.008913758812
0.88,0.92,0.5915872745,0.002482853827,0.6112026156,0.002568926126,0.4989988729,0.008185335374,0.5168145028,0.008445203512
0.92,0.96,0.5477512194,0.00239302166,0.5639825498,0.002470298804,0.4799393183,0.007795187603,0.4798300882,0.008057184444
0.96,1,0.5073499854,0.002301242724,0.5236335767,0.002379499251,0.4248828508,0.007422981027,0.4524422621,0.007623330116
1,1.04,0.4696363717,0.002212379441,0.4890081878,0.002299446596,0.4117159944,0.007110939732,0.415394973,0.007258436402
1.04,1.08,0.4401371827,0.002146211528,0.4563919866,0.002232827556,0.3996018445,0.006808284852,0.3994165164,0.006987391393
1.08,1.12,0.4112485774,0.002077758291,0.4201971241,0.002133979313,0.3544999075,0.006421169058,0.3724185314,0.006633823368
1.12,1.16,0.3831170193,0.002005914935,0.3969503651,0.002083362469,0.3429025459,0.00618834652,0.3558353997,0.006329620177
1.16,1.2,0.3570285132,0.001934324626,0.366564647,0.001998984318,0.3113694822,0.005803345675,0.3300363639,0.006037164129
1.2,1.24,0.3360589884,0.001878624397,0.3441242956,0.00193962258,0.3049290474,0.00559393107,0.3200685389,0.005815475886
1.24,1.28,0.3121745073,0.001819204318,0.3256771288,0.001891132269,0.2941746741,0.005368771946,0.2963345024,0.005500883137
1.28,1.32,0.2884762972,0.001748472402,0.3027288966,0.00182087873,0.2761147034,0.005063401903,0.285586106,0.005252506963
1.32,1.36,0.2750594106,0.001711012596,0.2828568244,0.001769481874,0.2653159115,0.004875859263,0.269015964,0.005059944289
1.36,1.4,0.2550265978,0.001658536731,0.2619079031,0.001716300051,0.2537915101,0.004749767015,0.2507197727,0.004835687088
1.4,1.44,0.2425270658,0.001619137714,0.2489216938,0.001690350919,0.2384584375,0.004583422717,0.2403930718,0.00453109583
1.44,1.48,0.2204913718,0.001557941152,0.2323958591,0.001646315419,0.2206455896,0.004409553492,0.228261511,0.004361317505
1.48,1.52,0.2070632701,0.001530456288,0.2147918538,0.001572439654,0.208809736,0.004258152415,0.2154997075,0.004062561091
1.52,1.56,0.1935655974,0.001472763524,0.2012861707,0.001514185158,0.1973839145,0.004072403505,0.2007504444,0.003920339276
1.56,1.6,0.1799734352,0.00143822197,0.1866452288,0.001471576026,0.1793385684,0.003610220658,0.192571238,0.003844129808
1.6,1.64,0.1635522651,0.001362492746,0.1724592403,0.001431060225,0.1701610503,0.003438382764,0.1782550447,0.003627546778
1.64,1.68,0.1505455822,0.001332486246,0.1573139739,0.001379724968,0.1624059004,0.003329897807,0.1650973381,0.003663410391
1.68,1.72,0.1383960582,0.001264003486,0.1452200401,0.001391502317,0.1517320767,0.003191287629,0.1568274948,0.0034993716
1.72,1.76,0.1275196539,0.001260338695,0.1302376622,0.001286344075,0.1384517598,0.003008034312,0.1439771589,0.003517728387
1.76,1.8,0.1148080136,0.001213035383,0.1212213747,0.001300718876,0.1143291684,0.002841882865,0.1209167273,0.002994861773
1.8,1.84,0.1001200655,0.001191488977,0.1018552233,0.00121670684,0.1048595497,0.002777631303,0.1010193587,0.002982772665
1.84,1.88,0.06849658211,0.0008967377073,0.06934105914,0.0009732222586,0.07324272466,0.002084658431,0.07350253331,0.002231630123
1.88,1.92,0.0501604166,0.0007219881955,0.05033904709,0.0007359921528,0.05324735206,0.001736605019,0.05605051061,0.001828027212
1.92,1.96,0.04416424433,0.0006772581722,0.04493837738,0.0006954006453,0.05122832057,0.001650871869,0.05358000532,0.001747799782
1.96,2,0.04208968329,0.0006610681139,0.04275771763,0.0006787484456,0.04712324707,0.00154495839,0.04801175096,0.001597449673
2,2.04,0.04172287089,0.0006590636082,0.04320930841,0.0006832681115,0.0470726632,0.001528244235,0.04979863697,0.001609198314
2.04,2.08,0.05331662844,0.0008432729055,0.05342599303,0.0008219565432,0.05929272606,0.002023680851,0.05982390327,0.002015512581
2.08,2.12,0.06884072335,0.001213312269,0.07065535198,0.001397176521,0.07487071046,0.003070350403,0.07941606865,0.004750559296
2.12,2.16,0.06299293783,0.001227785912,0.06272427683,0.0011785229,0.06143684675,0.002705616184,0.06543794289,0.002337743745
2.16,2.2,0.05318128068,0.001164869979,0.05315776501,0.001119838074,0.05570112565,0.00437245824,0.05668234228,0.004377060069
2.2,2.24,0.04449820247,0.001042333745,0.04457179288,0.001168024969,0.04357257965,0.001515456586,0.04537101695,0.001670288952
2.24,2.28,0.03327472822,0.0009434439268,0.03432369777,0.001142476497,0.03602873977,0.001435705295,0.03535263478,0.001438771168
2.28,2.32,0.0232208667,0.0009254914424,0.02589257507,0.001044945704,0.02543705862,0.001203896993,0.02823828138,0.001334067392
2.32,2.36,0.009457442641,0.001749361338,0.005812224735,0.0005062479672,0.006681236049,0.0007390543662,0.006163023496,0.0006212431728
2.36,2.4,0,0,0,0,0,0,0,0
