# xl,xh,LO,dLO,LOwvp,dLOwvp,PS+LOnovp,dPS+LOnovp,PS+LO,dPS+LO
0,20,0,0,0,0,0,0,0,0
20,40,0,0,0,0,0,0,0,0
40,60,0,0,0,0,0,0,0,0
60,80,0,0,0,0,0,0,0,0
80,100,0,0,0,0,0,0,0,0
100,120,0,0,0,0,0,0,0,0
120,140,0,0,0,0,0,0,0,0
140,160,0,0,0,0,0,0,0,0
160,180,0,0,0,0,0,0,0,0
180,200,0,0,0,0,0,0,0,0
200,220,0,0,0,0,0,0,0,0
220,240,0,0,0,0,0,0,0,0
240,260,0,0,0,0,0,0,0,0
260,280,0,0,0,0,0,0,0,0
280,300,0,0,2.151845975e-08,2.151844901e-08,0,0,0,0
300,320,0.006148045594,1.135560171e-05,0.006370597785,1.178948839e-05,0.006270012222,2.68220938e-05,0.006503824677,2.782742079e-05
320,340,0.006465643984,1.193344187e-05,0.006692240487,1.208112201e-05,0.006546101855,2.764407609e-05,0.006773572721,2.85249393e-05
340,360,0.00679625315,1.193387716e-05,0.007024193593,1.235930327e-05,0.006871857621,2.810357873e-05,0.007030707462,2.923161204e-05
360,380,0.007150592186,1.223153793e-05,0.007400428033,1.266753618e-05,0.007237637125,2.907184584e-05,0.007429396702,3.02263842e-05
380,400,0.007531200103,1.262831926e-05,0.007812958106,1.301651947e-05,0.007556044427,3.014753744e-05,0.007796749611,3.066318806e-05
400,420,0.007957028441,1.2913985e-05,0.008237417517,1.335786132e-05,0.007921727247,3.047131636e-05,0.008173045638,3.145810747e-05
420,440,0.00843295064,1.328108609e-05,0.00872507934,1.372931108e-05,0.008306440679,3.168844245e-05,0.008600774212,3.263741298e-05
440,460,0.008980794253,1.370885165e-05,0.009239536189,1.411734398e-05,0.008838579508,3.226460144e-05,0.009145387924,3.402332756e-05
460,480,0.009552202055,1.416153196e-05,0.009868262492,1.461356007e-05,0.009271064607,3.319894508e-05,0.009596023702,3.435271564e-05
480,500,0.01018684843,1.45555625e-05,0.0105469591,1.517677536e-05,0.009884768353,3.443966388e-05,0.01025997019,3.564341266e-05
500,520,0.01091723303,1.508194622e-05,0.01128103462,1.55967531e-05,0.01050122328,3.561535189e-05,0.01082967766,3.67869858e-05
520,540,0.01175169674,1.563499111e-05,0.0121511278,1.61977398e-05,0.01129975715,3.703077114e-05,0.0115656057,3.814721421e-05
540,560,0.01272746222,1.62769256e-05,0.01313906616,1.686088664e-05,0.0119352512,3.830882963e-05,0.01232610238,3.956624453e-05
560,580,0.01379405256,1.694422727e-05,0.01426788322,1.754013615e-05,0.01281705074,3.991856166e-05,0.01327351012,4.129144667e-05
580,600,0.01502455987,1.767787321e-05,0.01550097428,1.825307361e-05,0.01362286028,4.157663953e-05,0.01406708039,4.289908503e-05
600,620,0.01591036427,1.81551999e-05,0.01642899414,1.881001985e-05,0.01404325786,4.263179544e-05,0.0145432054,4.411787436e-05
620,640,0.01623415729,1.833822766e-05,0.01682825078,1.901769078e-05,0.01407409309,4.313300894e-05,0.01452097209,4.456123355e-05
640,660,0.01537985964,1.784887189e-05,0.01585653973,1.846867305e-05,0.01317765251,4.268478927e-05,0.01348979198,4.423847316e-05
660,680,0.01420166991,1.714744104e-05,0.01471538503,1.777528187e-05,0.01209959445,4.197114062e-05,0.01252877167,4.339117721e-05
680,700,0.01318619635,1.652536772e-05,0.01360615331,1.70955374e-05,0.01108386378,4.132550054e-05,0.01163629519,4.280362189e-05
700,720,0.01224390431,1.592978548e-05,0.0126903986,1.651588828e-05,0.01051240976,4.076843843e-05,0.0108509938,4.220908474e-05
720,740,0.01152859399,1.54620331e-05,0.01193739745,1.602043022e-05,0.01036511149,4.042078263e-05,0.01085026996,4.173380425e-05
740,760,0.01116031153,1.521168664e-05,0.01156469807,1.576089702e-05,0.01086312947,4.035692798e-05,0.01117479957,4.169676718e-05
760,780,0.01261979597,1.618380549e-05,0.01307661742,1.676664046e-05,0.01249364281,4.184906892e-05,0.01295251443,4.329834921e-05
780,800,0.02185510266,2.12529146e-05,0.02263398065,2.201812729e-05,0.01905278885,4.854371953e-05,0.01971557601,5.016507319e-05
800,820,0.02432433784,2.241114301e-05,0.02514835578,2.320166454e-05,0.02040228643,4.959075894e-05,0.02106620454,5.117865733e-05
820,840,0.023922646,2.222666435e-05,0.02469126005,2.299100876e-05,0.020195924,4.907561757e-05,0.0208042738,5.070674335e-05
840,860,0.02343681977,2.200614208e-05,0.02423259275,2.277898613e-05,0.01967491918,4.833573945e-05,0.02025065251,4.989846543e-05
860,880,0.02281434678,2.170789321e-05,0.02356506471,2.2465297e-05,0.01907066959,4.759807292e-05,0.01975050509,4.924938221e-05
880,900,0.02215840535,2.139691794e-05,0.02289351163,2.214146483e-05,0.01836816775,4.678985045e-05,0.01902782043,4.844055698e-05
900,920,0.02141327929,2.103314491e-05,0.02218379865,2.179852872e-05,0.01775231825,4.605553461e-05,0.01828812637,4.74909261e-05
920,940,0.02074451042,2.07081181e-05,0.02145784021,2.144255742e-05,0.01716671286,4.521739967e-05,0.01757247034,4.664387156e-05
940,960,0.02002338056,2.034493649e-05,0.02069621517,2.106063515e-05,0.01625918955,4.425408009e-05,0.01682878448,4.569989826e-05
960,980,0.01904866592,1.984680931e-05,0.0197661632,2.058254053e-05,0.01533767226,4.313885904e-05,0.0157553598,4.450348485e-05
980,1000,0.01787855361,1.922659916e-05,0.01851061619,1.991924675e-05,0.01401458912,4.160384723e-05,0.01456391836,4.310832966e-05
1000,1020,0.01602798217,1.821028087e-05,0.01660670394,1.887905132e-05,0.01213614893,3.932442996e-05,0.01254047595,4.069838629e-05
1020,1040,0.01011300014,1.447627967e-05,0.01049226166,1.50145584e-05,0.008091691234,3.383859578e-05,0.008365153756,3.505423189e-05
1040,1060,0.008558099646,1.331898938e-05,0.008918012915,1.384639181e-05,0.007007808217,3.226638438e-05,0.00725469889,3.341969625e-05
1060,1080,0.007892700966,1.279264347e-05,0.008193523561,1.326920884e-05,0.006417384166,3.131544639e-05,0.006638177896,3.239739835e-05
1080,1100,0.007404761611,1.239706491e-05,0.00772375065,1.288614122e-05,0.006000585367,3.058902553e-05,0.00631578207,3.180352548e-05
1100,1120,0.007041619438,1.20845753e-05,0.007329954924,1.255272806e-05,0.005863965018,3.014350864e-05,0.006016554034,3.126734658e-05
1120,1140,0.006761461958,1.184333127e-05,0.007029899093,1.229227088e-05,0.005613062644,2.96617385e-05,0.005821402078,3.069413206e-05
1140,1160,0.006564393347,1.166765147e-05,0.006827318797,1.211876598e-05,0.005515499193,2.938163003e-05,0.005698593886,3.035221966e-05
1160,1180,0.006485785288,1.159967267e-05,0.0067738076,1.206881093e-05,0.005618939953,2.933505824e-05,0.005842515484,3.03955978e-05
1180,1200,0.006879819336,1.194591253e-05,0.007166942561,1.241211466e-05,0.006108299761,3.000002881e-05,0.006363984699,3.100496403e-05
1200,1220,0.009850520607,1.428469546e-05,0.01027354885,1.485415258e-05,0.008056336049,3.27346985e-05,0.008337473184,3.392042408e-05
1220,1240,0.01010123718,1.446464907e-05,0.0104895513,1.500825731e-05,0.008052068701,3.261495159e-05,0.008431254104,3.382038288e-05
1240,1260,0.009870245671,1.429917815e-05,0.01026106713,1.484380293e-05,0.00794046201,3.218753819e-05,0.008267729462,3.344476398e-05
1260,1280,0.009593295186,1.409642714e-05,0.009980877292,1.463951323e-05,0.00763422617,3.161364549e-05,0.007990162602,3.28330061e-05
1280,1300,0.009265594422,1.385484258e-05,0.009634295837,1.438439795e-05,0.007374297317,3.103652598e-05,0.007675334871,3.216538683e-05
1300,1320,0.008914987868,1.359094047e-05,0.009309639937,1.413989225e-05,0.007171380585,3.055368791e-05,0.007408621465,3.160178413e-05
1320,1340,0.00861419367,1.336088867e-05,0.008982677495,1.389206037e-05,0.006853656313,2.988134563e-05,0.007169289673,3.107132151e-05
1340,1360,0.008313608204,1.312578146e-05,0.008640848805,1.36239955e-05,0.006575235028,2.925223492e-05,0.006850479929,3.031251056e-05
1360,1380,0.00799037342,1.286746487e-05,0.008315634592,1.336614115e-05,0.006356214011,2.877410311e-05,0.006559808669,2.974318599e-05
1380,1400,0.007670492688,1.260776116e-05,0.007997184934,1.310778953e-05,0.006106263044,2.816626871e-05,0.006396937997,2.921803998e-05
1400,1420,0.007379510398,1.236657003e-05,0.007693823944,1.285700741e-05,0.005843190319,2.752356813e-05,0.00608059291,2.852560341e-05
1420,1440,0.00707866903,1.211276516e-05,0.007411200485,1.261897572e-05,0.005579459624,2.69029035e-05,0.005840682446,2.7942158e-05
1440,1460,0.00680531539,1.18765329e-05,0.00709375369,1.234613546e-05,0.005365514422,2.633734633e-05,0.005620193073,2.738184092e-05
1460,1480,0.006554774005,1.165615919e-05,0.006818744825,1.21046936e-05,0.005125785791,2.577891769e-05,0.005390826543,2.676307544e-05
1480,1500,0.006295057265,1.142371282e-05,0.006544602117,1.185910949e-05,0.004861693,2.502981409e-05,0.005175760458,2.615456695e-05
1500,1520,0.005976856225,1.113174055e-05,0.006251422556,1.159051591e-05,0.004710660969,2.454826677e-05,0.004906070962,2.542791086e-05
1520,1540,0.005718792509,1.088863242e-05,0.005984297101,1.134104389e-05,0.004536325322,2.395025585e-05,0.004727515224,2.490453616e-05
1540,1560,0.005451927884,1.063169099e-05,0.005679710493,1.104846457e-05,0.004247124589,2.322634747e-05,0.004437212638,2.418865579e-05
1560,1580,0.005140878654,1.032428913e-05,0.005373093118,1.074693893e-05,0.004011538433,2.257695581e-05,0.004232359219,2.361776939e-05
1580,1600,0.004786993508,9.963048887e-06,0.005007708715,1.037516523e-05,0.00375196591,2.180239584e-05,0.003927596571,2.27067142e-05
1600,1620,0.004367354036,9.516918804e-06,0.004557543725,9.898464552e-06,0.003434014251,2.093394645e-05,0.003661718481,2.182244086e-05
1620,1640,0.004171628749,9.301435818e-06,0.004368073853,9.69063098e-06,0.003308507993,2.040790914e-05,0.003483957723,2.12484278e-05
1640,1660,0.004013763879,9.123770143e-06,0.004185203527,9.485788164e-06,0.003198692867,1.991009003e-05,0.003353190999,2.078368839e-05
1660,1680,0.003853492742,8.93995514e-06,0.004046387298,9.327211017e-06,0.003111915256,1.952688048e-05,0.003278274294,2.040740791e-05
1680,1700,0.00372191481,8.786000654e-06,0.003894632293,9.150731351e-06,0.00303470601,1.915629675e-05,0.003135290929,1.978196563e-05
1700,1720,0.003589597869,8.628551819e-06,0.003773024154,9.006862705e-06,0.002918151006,1.868151043e-05,0.003047465434,1.937480046e-05
1720,1740,0.003471686559,8.485771625e-06,0.003634070967,8.839596415e-06,0.002838454071,1.827295271e-05,0.002961875155,1.898348779e-05
1740,1760,0.003383813904,8.377780115e-06,0.003537533409,8.721494724e-06,0.002730511345,1.776606876e-05,0.002878064857,1.85594825e-05
1760,1780,0.003273625744,8.240357282e-06,0.003448011052,8.610522341e-06,0.002702255414,1.757468466e-05,0.002817663749,1.819897942e-05
1780,1800,0.003199681863,8.146831954e-06,0.003365308874,8.5067109e-06,0.002633542363,1.721077646e-05,0.002731300077,1.78940058e-05
1800,1820,0.003136594928,8.066178876e-06,0.003276562336,8.3938844e-06,0.002573047019,1.696178426e-05,0.002703331894,1.763193577e-05
1820,1840,0.003053497713,7.958694482e-06,0.003222181231,8.323988458e-06,0.00255463447,1.6762159e-05,0.002640489071,1.729642099e-05
1840,1860,0.003040273936,7.941454222e-06,0.003178667303,8.267632203e-06,0.002479785359,1.644159866e-05,0.002570153029,1.706986517e-05
1860,1880,0.003002409462,7.891882966e-06,0.00314464577,8.223302365e-06,0.002462919115,1.629904061e-05,0.002589926415,1.694570521e-05
1880,1900,0.00301947338,7.914261003e-06,0.003156222909,8.238414662e-06,0.0024555323,1.615910808e-05,0.002547245457,1.673337765e-05
1900,1920,0.003044342215,7.946761525e-06,0.003200962734,8.296556201e-06,0.002462019811,1.601036387e-05,0.002604943078,1.675296453e-05
1920,1940,0.003140685061,8.071433016e-06,0.003301524809,8.425774077e-06,0.00251722189,1.60887583e-05,0.002655750219,1.680084703e-05
1940,1960,0.003378250416,8.370896484e-06,0.003558815152,8.747666647e-06,0.002629956393,1.628513498e-05,0.002761472192,1.697960888e-05
1960,1980,0.003945757861,9.046102961e-06,0.004143810401,9.438652141e-06,0.002924635325,1.700265008e-05,0.003050784303,1.765099652e-05
1980,2000,0.00733428548,1.232815422e-05,0.007709811861,1.286921139e-05,0.004644234944,2.122254221e-05,0.004841492713,2.20434961e-05
