# xl,xh,LO,dLO,LOwvp,dLOwvp,PS+LOnovp,dPS+LOnovp,PS+LO,dPS+LO
0.3,0.35,0,0,0,0,0,0,0,0
0.35,0.4,0.0009130745284,1.189510406e-05,0.0009954034572,1.278030247e-05,0.0008673538309,2.164994867e-05,0.0009803656926,2.36248704e-05
0.4,0.45,0.006188352485,3.096460537e-05,0.006905800761,3.365965482e-05,0.006292468054,5.831191211e-05,0.006855169686,6.247031865e-05
0.45,0.5,0.01184035673,4.282731241e-05,0.01331980188,4.674219108e-05,0.01193431909,8.030361013e-05,0.01347008436,8.756633126e-05
0.5,0.55,0.01759681051,5.220536144e-05,0.01975284559,5.69157585e-05,0.01762261632,9.757981743e-05,0.01966825557,0.0001058091243
0.55,0.6,0.02290897394,5.956124898e-05,0.02577072149,6.500416926e-05,0.02291372419,0.00011126594,0.02601445179,0.0001216845472
0.6,0.65,0.02813776004,6.600382406e-05,0.03169490627,7.208309762e-05,0.02797787331,0.0001229452685,0.03145372127,0.0001337992854
0.65,0.7,0.03441630344,7.298984803e-05,0.03823542567,7.9164126e-05,0.03430065205,0.000136126721,0.03852127504,0.0001480658421
0.7,0.75,0.04158467429,8.022260676e-05,0.04591214742,8.673781278e-05,0.04179011886,0.0001502498918,0.04587685234,0.000161579866
0.75,0.8,0.0491336537,8.719002153e-05,0.05384436567,9.392091803e-05,0.04902400758,0.0001627299683,0.05411831378,0.0001754877926
0.8,0.85,0.05625460798,9.328383727e-05,0.06129578771,0.0001001977996,0.05660316311,0.000174851112,0.06095753481,0.0001862410779
0.85,0.9,0.06309164528,9.87791522e-05,0.06847233489,0.0001058894927,0.06312797417,0.0001846485647,0.06867693313,0.0001976753764
0.9,0.95,0.06941823334,0.0001036028697,0.07523931725,0.0001109872033,0.06917462914,0.0001932843341,0.07531632851,0.0002070041746
0.95,1,0.07590599423,0.0001083247215,0.08188288582,0.0001157718622,0.07565509472,0.0002021293159,0.08202401742,0.0002160191407
1,1.05,0.08177898057,0.0001124266292,0.08825898586,0.0001201831887,0.0822702288,0.0002107747729,0.0882068184,0.000224006699
1.05,1.1,0.08822829775,0.0001167634857,0.09481279631,0.0001245530328,0.08813951523,0.0002181578805,0.09472497447,0.000232129244
1.1,1.15,0.09446173617,0.0001208056654,0.1012970327,0.0001287289467,0.09446022366,0.0002258384289,0.1011070439,0.0002398149392
1.15,1.2,0.1008799138,0.0001248293282,0.1081723102,0.0001330118463,0.1015129424,0.0002341099631,0.107894421,0.0002477262491
1.2,1.25,0.1081815596,0.0001292527062,0.1156097785,0.0001374928815,0.1084826062,0.0002420057182,0.1154032256,0.0002561930379
1.25,1.3,0.1166305859,0.0001341868482,0.1238202966,0.0001422736215,0.1170993505,0.0002514234298,0.1239685978,0.0002655203961
1.3,1.35,0.1271152792,0.0001400647743,0.1342549812,0.0001481236726,0.1273065936,0.0002621403352,0.1343694821,0.0002764219817
1.35,1.4,0.1403714278,0.0001471554221,0.1477974673,0.0001553827751,0.1398115688,0.0002746978624,0.1476619225,0.0002897552
1.4,1.45,0.1580779043,0.0001561162628,0.1663282641,0.000164789726,0.1581501118,0.0002921346216,0.166819572,0.0003079528205
1.45,1.5,0.1850300145,0.0001688834871,0.1934574507,0.0001776658584,0.1850006853,0.0003159424988,0.193612016,0.0003317566113
1.5,1.55,0.2187874257,0.0001844664272,0.2272828868,0.0001931655111,0.2182340567,0.0003462778648,0.2276510089,0.0003612003815
1.55,1.6,0.2378992297,0.0001928413473,0.2475600694,0.0002018314534,0.2382739476,0.0003646571891,0.2472792005,0.0003776608316
1.6,1.65,0.2253992796,0.0001865947658,0.2348531264,0.0001961031776,0.2252352728,0.0003501709153,0.2345647242,0.0003677128748
1.65,1.7,0.2009486596,0.0001759148574,0.2102814791,0.0001852039927,0.2017844157,0.0003299722474,0.2106195025,0.0003459784949
1.7,1.75,0.1836877259,0.0001682181766,0.1928724475,0.0001773803333,0.1840271055,0.0003150920346,0.1923114673,0.0003306099313
1.75,1.8,0.1726995557,0.000163138021,0.1818966843,0.0001722881103,0.1734193006,0.0003058904871,0.1811629008,0.0003208986244
1.8,1.85,0.1661541413,0.0001600336114,0.175251781,0.0001691290546,0.1662383898,0.0002995002015,0.1753359402,0.0003157038324
1.85,1.9,0.1620443803,0.000158052545,0.1706904334,0.0001669252204,0.1620140702,0.0002956760805,0.1710096968,0.0003117905445
1.9,1.95,0.159132042,0.0001566331945,0.1680486617,0.0001656351087,0.1587743539,0.0002927092445,0.168473963,0.000309473749
1.95,2,0.1573572017,0.0001557617449,0.1664692494,0.0001648589033,0.1572087667,0.0002912645406,0.1660782624,0.0003072687434
2,2.05,0.1558109373,0.0001549984381,0.1652209667,0.0001642427758,0.1563036217,0.0002904261061,0.1651787659,0.0003064367369
2.05,2.1,0.1546361096,0.00015441591,0.1643581469,0.0001638155237,0.1553492624,0.0002895393391,0.164103278,0.000305438905
2.1,2.15,0.1533015056,0.0001537514226,0.1628356741,0.0001630588334,0.1535966967,0.0002879037506,0.1628883995,0.0003043078796
2.15,2.2,0.1518954995,0.0001530482401,0.1613479755,0.0001623159414,0.1520792537,0.0002864800715,0.161504362,0.0003030141068
2.2,2.25,0.1498413889,0.000152014912,0.1591802891,0.0001612272688,0.1500089787,0.0002845261442,0.1592037538,0.0003008511884
2.25,2.3,0.1470093491,0.0001505784038,0.1564216562,0.0001598308315,0.1466093402,0.0002812879593,0.1559483876,0.0002977636824
2.3,2.35,0.1430368867,0.0001485395719,0.1520037217,0.0001575682025,0.1426605635,0.0002774789712,0.1514012017,0.0002933962418
2.35,2.4,0.137053411,0.0001454136326,0.1459596068,0.000154418014,0.137741753,0.0002726594387,0.146346822,0.0002884637088
2.4,2.45,0.130165827,0.0001417284714,0.1383988778,0.0001503827621,0.1298783535,0.0002647717925,0.138129301,0.0002802580321
2.45,2.5,0.1205094481,0.0001363913941,0.1283824977,0.0001448608868,0.120210524,0.0002547379742,0.128332991,0.0002701487131
2.5,2.55,0.1087584979,0.0001295956901,0.115725637,0.000137561532,0.108938128,0.0002425127191,0.1151732158,0.0002559378639
2.55,2.6,0.09358525609,0.0001202456067,0.09971186968,0.0001277208493,0.09365224931,0.0002248712584,0.09962111603,0.0002380477284
2.6,2.65,0.07526022606,0.0001078640731,0.0799360589,0.0001143907129,0.07497638064,0.0002012212726,0.08004337188,0.0002133969449
2.65,2.7,0.05127438957,8.90661171e-05,0.05435879857,9.436776925e-05,0.05119749372,0.0001662964765,0.05442516749,0.0001759843848
2.7,2.75,0.02483368577,6.20109076e-05,0.02624249338,6.559599266e-05,0.02479382255,0.0001157397875,0.02627177557,0.0001222847488
2.75,2.8,0.001626083757,1.587382158e-05,0.001744172253,1.691731501e-05,0.001616350499,2.955452229e-05,0.00170453799,3.115138426e-05
