# xl,xh,LO,dLO,LOwvp,dLOwvp,PS+LOnovp,dPS+LOnovp,PS+LO,dPS+LO
0,20,0,0,0,0,0,0,0,0
20,40,0,0,0,0,0,0,0,0
40,60,0,0,0,0,0,0,0,0
60,80,0,0,0,0,0,0,0,0
80,100,0,0,0,0,0,0,0,0
100,120,0,0,0,0,0,0,0,0
120,140,0,0,0,0,0,0,0,0
140,160,0,0,0,0,0,0,0,0
160,180,0,0,0,0,0,0,0,0
180,200,0,0,0,0,0,0,0,0
200,220,0,0,0,0,0,0,0,0
220,240,0,0,0,0,0,0,0,0
240,260,0,0,0,0,0,0,0,0
260,280,0,0,0,0,0,0,0,0
280,300,0,0,0,0,0,0,0,0
300,320,1.351056335e-05,7.241400593e-08,1.402032783e-05,7.58333543e-08,1.36377641e-05,1.357384883e-07,1.381736869e-05,1.402328429e-07
320,340,2.474821188e-05,9.790751545e-08,2.526606621e-05,1.018042805e-07,2.428206255e-05,1.811157739e-07,2.520902929e-05,1.894175077e-07
340,360,3.1620083e-05,1.106628053e-07,3.252309591e-05,1.154883125e-07,3.147045445e-05,2.062026311e-07,3.29404406e-05,2.165296327e-07
360,380,3.75225587e-05,1.205505565e-07,3.861471349e-05,1.259058098e-07,3.753414227e-05,2.251798477e-07,3.884976282e-05,2.351441064e-07
380,400,4.22745691e-05,1.279860836e-07,4.368401277e-05,1.338451936e-07,4.256407276e-05,2.397839335e-07,4.322266644e-05,2.480107048e-07
400,420,4.624170983e-05,1.338386252e-07,4.783276603e-05,1.400587305e-07,4.630158278e-05,2.504391434e-07,4.793141907e-05,2.612144303e-07
420,440,5.014437039e-05,1.395095723e-07,5.16410305e-05,1.456059158e-07,5.039210789e-05,2.609784643e-07,5.178021388e-05,2.714908137e-07
440,460,5.367455557e-05,1.442761541e-07,5.521686539e-05,1.504762359e-07,5.357454285e-05,2.690621728e-07,5.544750984e-05,2.809073453e-07
460,480,5.661815526e-05,1.480801063e-07,5.847028466e-05,1.5485671e-07,5.670581075e-05,2.7677631e-07,5.802364923e-05,2.874897618e-07
480,500,5.946035556e-05,1.517921746e-07,6.147705253e-05,1.587755052e-07,5.941172834e-05,2.83322582e-07,6.143865035e-05,2.958600537e-07
500,520,6.227491524e-05,1.554387392e-07,6.360485354e-05,1.615061506e-07,6.276283668e-05,2.911802516e-07,6.404954795e-05,3.019402912e-07
520,540,6.478808305e-05,1.584263501e-07,6.653159113e-05,1.651962224e-07,6.484590874e-05,2.96038267e-07,6.685791696e-05,3.085029427e-07
540,560,6.684947368e-05,1.608937822e-07,6.921700943e-05,1.686470761e-07,6.71668368e-05,3.014056756e-07,6.892465024e-05,3.254633884e-07
560,580,6.922484222e-05,1.640624149e-07,7.105412759e-05,1.709239387e-07,6.937242959e-05,3.11305702e-07,7.110619518e-05,3.182790432e-07
580,600,7.094680923e-05,1.658159862e-07,7.357117235e-05,1.761765137e-07,7.140915146e-05,3.106692394e-07,7.399560184e-05,3.245788082e-07
600,620,7.32331391e-05,1.700626435e-07,7.565876097e-05,1.762925311e-07,7.327365432e-05,3.147333176e-07,7.501875955e-05,3.269625812e-07
620,640,7.513482959e-05,1.706279409e-07,7.753318536e-05,1.784606366e-07,7.56521688e-05,3.212636545e-07,7.72462595e-05,3.317553961e-07
640,660,7.721175771e-05,1.729390183e-07,7.935976284e-05,1.804287222e-07,7.718126795e-05,3.231847151e-07,7.96808081e-05,3.3734645e-07
660,680,7.942550087e-05,1.755411373e-07,8.124926714e-05,1.827913555e-07,7.925507297e-05,3.275915977e-07,8.126400001e-05,3.408121306e-07
680,700,8.092236883e-05,1.771941431e-07,8.349100487e-05,1.850968051e-07,8.13451006e-05,3.317085312e-07,8.332747466e-05,3.44577388e-07
700,720,8.25999714e-05,1.790066447e-07,8.530832395e-05,1.875384877e-07,8.305785476e-05,3.373255818e-07,8.521094839e-05,3.484359366e-07
720,740,8.471639793e-05,1.815769191e-07,8.724623084e-05,1.893165913e-07,8.491094569e-05,3.39221926e-07,8.733799582e-05,3.527410855e-07
740,760,8.626810334e-05,1.830351404e-07,8.911594699e-05,1.913973233e-07,8.582928014e-05,3.42821208e-07,8.932323907e-05,3.572302463e-07
760,780,8.797169813e-05,1.868568762e-07,9.08564932e-05,1.931931525e-07,8.807007529e-05,3.502524887e-07,9.118607088e-05,3.608764806e-07
780,800,9.00427013e-05,1.872208071e-07,9.314540625e-05,1.956030733e-07,9.035128271e-05,3.561651881e-07,9.261895778e-05,3.634974476e-07
800,820,9.176976501e-05,1.896871286e-07,9.506036558e-05,1.976427448e-07,9.183466782e-05,3.541902252e-07,9.507574544e-05,3.681496928e-07
820,840,9.360877808e-05,1.915871853e-07,9.648858866e-05,1.992964851e-07,9.411285648e-05,3.576798592e-07,9.680626149e-05,3.715757223e-07
840,860,9.533717808e-05,1.926206196e-07,9.833745839e-05,2.02517585e-07,9.532437278e-05,3.618096631e-07,9.772143275e-05,3.736781195e-07
860,880,9.674441796e-05,1.946353965e-07,0.0001001920111,2.038678311e-07,9.712016849e-05,3.629023855e-07,9.978511718e-05,3.773524567e-07
880,900,9.852523466e-05,1.960995492e-07,0.0001015403335,2.049574865e-07,9.825274571e-05,3.661095217e-07,0.000101531067,3.882597701e-07
900,920,9.983682043e-05,1.971316618e-07,0.0001033131165,2.061433303e-07,0.0001004134675,3.693269654e-07,0.0001041279667,3.907829449e-07
920,940,0.0001017899477,1.998218724e-07,0.0001055928041,2.089164015e-07,0.0001015291068,3.791283308e-07,0.0001060631019,3.90345225e-07
940,960,0.0001039481326,2.024029647e-07,0.0001074140994,2.103442403e-07,0.0001038603548,3.925356169e-07,0.0001073184236,3.929848125e-07
960,980,0.0001055099661,2.032144055e-07,0.0001093926703,2.132609325e-07,0.0001048953526,3.804021261e-07,0.0001088425265,3.996048119e-07
980,1000,0.0001077181954,2.053289184e-07,0.0001117833489,2.145038656e-07,0.0001084572242,3.840277673e-07,0.0001126426057,4.013413542e-07
1000,1020,0.000109998529,2.063162818e-07,0.0001138352239,2.159667899e-07,0.0001106529296,3.866659898e-07,0.0001139362812,4.026717394e-07
1020,1040,0.0001125076047,2.086255828e-07,0.0001164332048,2.183980209e-07,0.000112137075,3.891492945e-07,0.000116633466,4.073525795e-07
1040,1060,0.0001149226056,2.108492989e-07,0.0001188052133,2.206082412e-07,0.000114823933,3.93781328e-07,0.0001187925991,4.111042244e-07
1060,1080,0.0001177879755,2.134577195e-07,0.0001216485815,2.23228693e-07,0.0001170140184,3.975175688e-07,0.0001222441686,4.17031482e-07
1080,1100,0.0001201353564,2.155709654e-07,0.000124733168,2.26036857e-07,0.0001201402586,4.027904363e-07,0.0001243279008,4.205692545e-07
1100,1120,0.000123583007,2.186374487e-07,0.0001274017588,2.284383042e-07,0.0001241501485,4.094543303e-07,0.0001277565585,4.263262618e-07
1120,1140,0.0001266951595,2.213688082e-07,0.0001312005878,2.318136978e-07,0.0001276195002,4.151332799e-07,0.0001305833033,4.310149073e-07
1140,1160,0.0001301447661,2.24357265e-07,0.0001340738872,2.343342062e-07,0.0001297175517,4.185300036e-07,0.0001342837683,4.370762874e-07
1160,1180,0.000133502529,2.272281187e-07,0.0001382591562,2.379575339e-07,0.000133166687,4.240551601e-07,0.0001377096664,4.426140127e-07
1180,1200,0.0001373062462,2.304368003e-07,0.0001435738021,2.424800523e-07,0.0001372806325,4.305524552e-07,0.0001436633137,4.520758925e-07
1200,1220,0.000141174628,2.336544988e-07,0.0001533276409,2.505663979e-07,0.0001407350846,4.359330453e-07,0.0001540092952,4.680627429e-07
1220,1240,0.0001449950046,2.367890867e-07,0.0001579887669,2.543392204e-07,0.0001446301593,4.419214175e-07,0.0001578222789,4.738182481e-07
1240,1260,0.0001496266148,2.40534022e-07,0.0001622405029,2.577321784e-07,0.0001487019782,4.480955401e-07,0.0001613619293,4.790991099e-07
1260,1280,0.0001536809575,2.437646753e-07,0.0001664237067,2.610270536e-07,0.0001531090159,4.546834809e-07,0.0001657230168,4.855266239e-07
1280,1300,0.0001583427843,2.474268302e-07,0.0001714856404,2.649588172e-07,0.0001581794164,4.621466846e-07,0.0001706917691,4.92747245e-07
1300,1320,0.000163596227,2.514893506e-07,0.0001762087288,2.685750533e-07,0.0001636063884,4.700030097e-07,0.0001760433645,5.004073442e-07
1320,1340,0.0001687241197,2.55391916e-07,0.0001813736336,2.724742158e-07,0.0001677634793,4.759331798e-07,0.000181874592,5.086223639e-07
1340,1360,0.0001745300232,2.597391204e-07,0.0001879034138,2.773245762e-07,0.0001746725281,4.856283637e-07,0.0001875834154,5.165380013e-07
1360,1380,0.000180484281,2.641223867e-07,0.0001941246988,2.818674551e-07,0.0001812452302,4.946749495e-07,0.0001943568754,5.257748747e-07
1380,1400,0.0001870177525,2.688491172e-07,0.0002011660121,2.869215418e-07,0.0001878070077,5.035437604e-07,0.0002004315343,5.339226071e-07
1400,1420,0.0001936740449,2.735799669e-07,0.0002082024453,2.918838908e-07,0.000193471953,5.110765998e-07,0.0002083450227,5.443532074e-07
1420,1440,0.0002009618164,2.786665891e-07,0.0002165499976,2.976625479e-07,0.0002017156398,5.218432894e-07,0.0002168165452,5.55301811e-07
1440,1460,0.0002094614393,2.844829975e-07,0.0002247547688,3.032339358e-07,0.0002100285796,5.324796897e-07,0.0002245948041,5.651668776e-07
1460,1480,0.0002181598107,2.90313509e-07,0.0002336663758,3.091703352e-07,0.0002181184983,5.426299797e-07,0.000233510416,5.762663561e-07
1480,1500,0.0002280924976,2.968297451e-07,0.0002433226065,3.154753477e-07,0.0002256596749,5.519228055e-07,0.0002435844196,5.88555188e-07
1500,1520,0.0002377052022,3.030011864e-07,0.0002536770356,3.22097461e-07,0.000238827997,5.677846361e-07,0.0002548384231,6.019859141e-07
1520,1540,0.000248790098,3.09963431e-07,0.0002660658213,3.298438554e-07,0.0002495228301,5.803472175e-07,0.000265217192,6.141110706e-07
1540,1560,0.0002605440445,3.171767884e-07,0.0002784292275,3.373948708e-07,0.0002627776016,5.955475034e-07,0.0002788181393,6.296455649e-07
1560,1580,0.0002742331808,3.253736814e-07,0.0002922177391,3.456191402e-07,0.0002744382747,6.08604981e-07,0.0002917402402,6.440565885e-07
1580,1600,0.0002853808187,3.318971087e-07,0.0003042951924,3.526630684e-07,0.0002861689459,6.214625609e-07,0.0003033558438,6.567396624e-07
1600,1620,0.0002429101928,3.062903052e-07,0.0002599959525,3.260717952e-07,0.0002433161291,5.730901875e-07,0.000260833345,6.090190295e-07
1620,1640,0.0002256176445,2.95219779e-07,0.0002411823715,3.140889145e-07,0.0002262595593,5.526554592e-07,0.0002408887806,5.852923897e-07
1640,1660,0.0002177468139,2.900393701e-07,0.0002340770423,3.094411566e-07,0.0002170860977,5.413450361e-07,0.0002344896838,5.774725737e-07
1660,1680,0.0002125619723,2.865750349e-07,0.0002285486721,3.05775512e-07,0.0002124427714,5.355288363e-07,0.000227771661,5.691469142e-07
1680,1700,0.0002082031118,2.836295166e-07,0.0002234608823,3.023622472e-07,0.0002083357075,5.30331009e-07,0.0002234277006,5.636977136e-07
1700,1720,0.0002042312683,2.809183067e-07,0.0002194159144,2.996205456e-07,0.0002042678532,5.251319165e-07,0.0002186653932,5.576625493e-07
1720,1740,0.0002014422088,2.789986225e-07,0.0002168752905,2.978854213e-07,0.0002014104453,5.214488059e-07,0.0002169574367,5.554819883e-07
1740,1760,0.0002001509354,2.781052953e-07,0.0002161335766,2.973769577e-07,0.0001997972582,5.193577512e-07,0.0002152836804,5.533368041e-07
1760,1780,0.0002000986433,2.780690273e-07,0.0002157742325,2.9713031e-07,0.0002007593529,5.206060022e-07,0.0002149805261,5.52947414e-07
1780,1800,0.000201115236,2.787726605e-07,0.0002163719656,2.975405129e-07,0.0002006159019,5.204197771e-07,0.0002169431977,5.554638215e-07
1800,1820,0.000202562639,2.797713939e-07,0.0002178725937,2.985677624e-07,0.0002030018694,5.235032272e-07,0.000218178646,5.570420202e-07
1820,1840,0.0002056426454,2.818847669e-07,0.0002212660853,3.008777249e-07,0.0002057565938,5.270405559e-07,0.0002204743614,5.599626621e-07
1840,1860,0.0002097163813,2.846556106e-07,0.0002264219528,3.043533762e-07,0.0002100772313,5.325413749e-07,0.0002268948331,5.680511337e-07
1860,1880,0.0002176755507,2.89992034e-07,0.0002339441112,3.093535183e-07,0.0002177494706,5.421708632e-07,0.0002340085577,5.768802049e-07
1880,1900,0.0002293086295,2.976176929e-07,0.0002462713928,3.173754595e-07,0.0002274985198,5.541653696e-07,0.000246610369,5.921964815e-07
1900,1920,0.0002471439468,3.089395544e-07,0.0002648018994,3.290620073e-07,0.0002483853021,5.790240866e-07,0.0002645609536,6.133513958e-07
1920,1940,0.0002762066932,3.265381629e-07,0.0002965067972,3.481371833e-07,0.0002766309504,6.110288993e-07,0.0002973651072,6.502293142e-07
1940,1960,0.0003354034461,3.596949501e-07,0.0003578100525,3.822932731e-07,0.0003342664671,6.716023224e-07,0.0003575905094,7.129659307e-07
1960,1980,0.0004879221984,4.334077383e-07,0.0005178172276,4.594449533e-07,0.0004879483799,8.112063104e-07,0.0005172105114,8.572117089e-07
1980,2000,0.001108502267,6.506310117e-07,0.001167675223,6.871803368e-07,0.00111120335,1.222778749e-06,0.001166652447,1.285968921e-06
