# xl,xh,LO,dLO,LOwvp,dLOwvp,PS+LOnovp,dPS+LOnovp,PS+LO,dPS+LO
0,0.04,0.9340253558,0.0004202205451,0.9871046301,0.0004446231236,0.9359958593,0.000792452796,0.9873026326,0.0008353366385
0.04,0.08,0.6947702974,0.000363568081,0.7366850279,0.0003853636476,0.6934935541,0.0006827571763,0.7363333262,0.0007220225975
0.08,0.12,0.5460201888,0.0003230583468,0.5815206345,0.0003429243488,0.547023342,0.0006066780164,0.58136844,0.0006419178082
0.12,0.16,0.4646657629,0.0002982445899,0.4958721806,0.0003170073926,0.4650526287,0.0005595691046,0.4957362485,0.000592962324
0.16,0.2,0.4159321814,0.0002824186133,0.4447897442,0.0003004237276,0.4162928692,0.0005295156515,0.4444762962,0.0005615651938
0.2,0.24,0.3769846782,0.0002689442681,0.4040206511,0.0002864623091,0.3775413731,0.0005043223328,0.4042511396,0.0005356249355
0.24,0.28,0.3077424977,0.0002431985918,0.3322180494,0.0002600149764,0.3081409001,0.0004557946974,0.3317239971,0.0004853607377
0.28,0.32,0.2524547316,0.000220843012,0.2746235006,0.0002365569783,0.2523414601,0.0004125106052,0.2744687513,0.000441554537
0.32,0.36,0.2127381603,0.0002024576558,0.2328532212,0.0002179344946,0.2126989314,0.0003787801854,0.2333655848,0.0004072303875
0.36,0.4,0.1825676427,0.0001876530453,0.2014452143,0.0002027908801,0.1823425761,0.0003507502874,0.2016561042,0.0003786400123
0.4,0.44,0.1592522487,0.0001753080047,0.1769593765,0.0001901432242,0.1595961361,0.0003282166953,0.1771293293,0.0003548488332
0.44,0.48,0.1409535597,0.0001649661204,0.1586256317,0.00018004513,0.1411723109,0.0003087478298,0.1580897644,0.0003352848137
0.48,0.52,0.1262959071,0.0001561711448,0.1369113394,0.0001673980739,0.1265206088,0.0002922821033,0.1366782731,0.0003117625205
0.52,0.56,0.1142357566,0.000148561772,0.1179678588,0.0001553493256,0.1136506568,0.000278970293,0.117578137,0.0002892687912
0.56,0.6,0.1039944509,0.0001417562173,0.1078334916,0.0001485459598,0.1042009035,0.0002653050523,0.1075897959,0.0002766462715
0.6,0.64,0.09562478519,0.0001360322153,0.09915157968,0.0001424629761,0.09596109198,0.000254580993,0.09907122319,0.0002654583995
0.64,0.68,0.08834518233,0.0001306973174,0.09143929937,0.0001368339657,0.08844720022,0.0002445987142,0.09206552437,0.0002559235865
0.68,0.72,0.08253729403,0.0001263491723,0.08554671502,0.0001323969169,0.08259641292,0.0002387955347,0.0856626545,0.0002491261576
0.72,0.76,0.07724202809,0.000122306541,0.07995407588,0.000128042929,0.07771042579,0.0002291220088,0.08038062557,0.0002391360038
0.76,0.8,0.07289945684,0.0001188150283,0.07525423904,0.0001250485031,0.07273410153,0.0002216320796,0.0750114746,0.0002310676291
0.8,0.84,0.06896296943,0.0001155516875,0.07111124202,0.0001206884128,0.0687482367,0.0002174780496,0.07077660606,0.0002245011604
0.84,0.88,0.06536165046,0.0001127785001,0.06729552764,0.0001174346406,0.06556426458,0.000210519641,0.06734144218,0.0002189864438
0.88,0.92,0.06221241794,0.0001098200498,0.06423806534,0.0001147432909,0.06208961512,0.0002048085879,0.06437837223,0.0002148598049
0.92,0.96,0.05939807713,0.0001072436042,0.06139492366,0.0001121706075,0.05946611562,0.0002004338739,0.06120244863,0.0002087495562
0.96,1,0.05681816129,0.0001050149063,0.05866782527,0.000109640797,0.05691149432,0.0001965184178,0.05845416526,0.0002039584496
1,1.04,0.05443510809,0.0001026668747,0.056228474,0.0001075274809,0.05449217031,0.0001919554861,0.05605427829,0.0001997802309
1.04,1.08,0.05252467714,0.0001008771375,0.05416382074,0.0001054728094,0.05220486315,0.0001878071832,0.05414141456,0.0001963807752
1.08,1.12,0.05057822091,9.912526548e-05,0.05198738957,0.0001032990075,0.05060730596,0.0001849317592,0.05192819311,0.0001930737385
1.12,1.16,0.04879110934,9.720220422e-05,0.05032199804,0.0001021238788,0.04879133859,0.0001816611918,0.05006069551,0.0001887775752
1.16,1.2,0.04732693976,9.573647436e-05,0.04855490432,9.990307845e-05,0.0476352524,0.0001794826766,0.04855773356,0.0001860143374
1.2,1.24,0.0457297502,9.415134552e-05,0.04695358732,9.816838219e-05,0.04581811412,0.0001759617564,0.04684347808,0.0001826531001
1.24,1.28,0.04432270635,9.270492039e-05,0.04553663141,9.667280947e-05,0.04429168245,0.0001730496637,0.04540651983,0.0001797931084
1.28,1.32,0.04273500659,9.09789244e-05,0.04388032389,9.495898991e-05,0.04311352686,0.0001711136299,0.04387704288,0.0001767402418
1.32,1.36,0.04148698906,8.96723947e-05,0.04265504118,9.352516652e-05,0.04174480972,0.0001680246503,0.04261368265,0.0001742713658
1.36,1.4,0.04010694407,8.815794758e-05,0.0411446528,9.191759635e-05,0.04014718886,0.0001655801234,0.04104901771,0.0001709808371
1.4,1.44,0.03891870996,8.722132144e-05,0.03976993158,9.032914263e-05,0.03884375791,0.0001620541812,0.03994304417,0.0001689017338
1.44,1.48,0.03743930447,8.522766935e-05,0.03848680318,8.888005584e-05,0.03723065616,0.0001587903372,0.03843019267,0.0001654505713
1.48,1.52,0.03618005535,8.378758143e-05,0.03681388569,8.69141552e-05,0.03612663113,0.0001564646779,0.03705482414,0.0001624717299
1.52,1.56,0.03476337306,8.225969364e-05,0.03541882149,8.545546517e-05,0.03470346869,0.00015394013,0.03552634767,0.0001591836979
1.56,1.6,0.03315292778,8.022586937e-05,0.03403474765,8.364553767e-05,0.03317293903,0.0001528896847,0.03384745545,0.0001554080288
1.6,1.64,0.03163611268,7.859724001e-05,0.03239533327,8.153278536e-05,0.0317844191,0.0001467791574,0.03255198395,0.0001526516627
1.64,1.68,0.03006928441,7.665912053e-05,0.03052420137,7.915068981e-05,0.02968254101,0.0001417006051,0.03057420127,0.0001476869729
1.68,1.72,0.02809452876,7.479745899e-05,0.02851625454,7.654014784e-05,0.02827484214,0.0001384688245,0.02861403086,0.0001440491169
1.72,1.76,0.02566105775,7.07563752e-05,0.02627439516,7.357763247e-05,0.02597712224,0.0001335573764,0.02642878313,0.0001372815826
1.76,1.8,0.02292006907,6.680076653e-05,0.02340857298,6.949700594e-05,0.02285733217,0.0001263539553,0.02320226473,0.0001288166955
1.8,1.84,0.01884002383,6.067688471e-05,0.01925199808,6.294920158e-05,0.01868154549,0.0001125678664,0.01911755103,0.000119345793
1.84,1.88,0.01221822668,4.869876228e-05,0.01250927112,5.077513684e-05,0.01230215056,9.120566508e-05,0.01239779072,9.407080713e-05
1.88,1.92,0.0087422336,4.115712848e-05,0.008939114973,4.281573792e-05,0.00866986511,7.65285892e-05,0.008852120161,7.937945477e-05
1.92,1.96,0.008201116882,3.985352682e-05,0.008327643401,4.132569814e-05,0.008068944571,7.38262305e-05,0.008373244258,7.719095396e-05
1.96,2,0.008937116768,4.16033465e-05,0.009069361133,4.312644939e-05,0.008886633575,7.747845049e-05,0.009121207819,8.05647517e-05
2,2.04,0.01077068644,4.567526143e-05,0.01086980393,4.722190502e-05,0.01072268265,8.510600646e-05,0.01080325146,8.770113386e-05
2.04,2.08,0.01473259822,5.34926228e-05,0.01500216779,5.558737106e-05,0.01454885022,9.920070577e-05,0.01499273931,0.0001123246453
2.08,2.12,0.01771607656,5.878739595e-05,0.01791605441,6.080786603e-05,0.01764222967,0.0001233271825,0.01799108526,0.0001168001255
2.12,2.16,0.01590559281,5.577630415e-05,0.01614728997,5.789457602e-05,0.01589099608,0.0001049712475,0.01611442888,0.000107563658
2.16,2.2,0.013339317,5.127041694e-05,0.01348983412,5.272878467e-05,0.01326598407,9.637175371e-05,0.01336860507,9.777963068e-05
2.2,2.24,0.01047815187,4.589752605e-05,0.01057485943,4.689696948e-05,0.01057635909,8.716143901e-05,0.01071132972,8.781122658e-05
2.24,2.28,0.007389603326,3.954308926e-05,0.007609251495,4.044650808e-05,0.007479518821,7.208613605e-05,0.007544819941,7.559701932e-05
2.28,2.32,0.004270640105,2.947081417e-05,0.004302701607,3.034351255e-05,0.004288845894,5.685312325e-05,0.004316965362,5.719644414e-05
2.32,2.36,0.0006181529859,1.119521934e-05,0.0006447943052,1.18062923e-05,0.0006077035523,2.049570764e-05,0.000577933877,2.058525056e-05
2.36,2.4,0,0,0,0,0,0,0,0
