# xl,xh,LOnovp,dLOnovp,LO,dLO,PS+LOnovp,dPS+LOnovp,PS+LO,dPS+LO
0,20,0,0,0,0,0,0,0,0
20,40,0,0,0,0,0,0,0,0
40,60,0,0,0,0,0,0,0,0
60,80,0,0,0,0,0,0,0,0
80,100,0,0,0,0,0,0,0,0
100,120,0,0,0,0,0,0,0,0
120,140,0,0,0,0,0,0,0,0
140,160,0,0,0,0,0,0,0,0
160,180,0,0,0,0,0,0,0,0
180,200,0,0,0,0,0,0,0,0
200,220,0,0,0,0,0,0,0,0
220,240,0,0,0,0,0,0,0,0
240,260,0,0,0,0,0,0,0,0
260,280,0,0,0,0,0,0,0,0
280,300,0,0,0,0,0,0,0,0
300,320,1.106711557e-06,1.070019447e-08,6.610031269e-06,1.397894427e-08,1.105669014e-06,2.042970551e-08,6.594427121e-06,1.785505683e-08
320,340,2.109345082e-06,1.477195735e-08,1.246193972e-05,1.918460224e-08,2.087518431e-06,2.807123395e-08,1.249378652e-05,2.456920377e-08
340,360,2.932161702e-06,1.7416043e-08,1.673292694e-05,2.222239014e-08,2.876473067e-06,3.295143736e-08,1.669687899e-05,2.83968401e-08
360,380,3.674172449e-06,1.949518019e-08,2.053180412e-05,2.460821946e-08,3.6820387e-06,3.728088304e-08,2.048000686e-05,3.144377662e-08
380,400,4.39694733e-06,2.132631445e-08,2.414248625e-05,2.667633854e-08,4.449852226e-06,4.098382789e-08,2.408761885e-05,3.409476018e-08
400,420,5.126547858e-06,2.302740778e-08,2.753050518e-05,2.847861345e-08,5.184446545e-06,4.423731721e-08,2.754586046e-05,3.64538474e-08
420,440,5.87642417e-06,2.465364827e-08,3.071706122e-05,3.00736061e-08,5.888843539e-06,4.714662047e-08,3.067987532e-05,3.846568204e-08
440,460,6.625787586e-06,2.617794941e-08,3.376270319e-05,3.152123513e-08,6.637785772e-06,5.005472824e-08,3.388312963e-05,4.041740705e-08
460,480,7.282446406e-06,2.744407523e-08,3.683547536e-05,3.291589289e-08,7.404089374e-06,5.286486358e-08,3.684422694e-05,4.214019087e-08
480,500,8.069672155e-06,2.888881131e-08,3.972089171e-05,3.41724968e-08,8.110748523e-06,5.53298637e-08,3.957242803e-05,4.366650883e-08
500,520,8.805892961e-06,3.017732156e-08,4.246830001e-05,3.53263968e-08,8.649428319e-06,5.713751617e-08,4.241991322e-05,4.520377211e-08
520,540,9.459552744e-06,3.127681116e-08,4.52078827e-05,3.64396186e-08,9.468577516e-06,5.978160546e-08,4.521147792e-05,4.666089198e-08
540,560,1.025371565e-05,3.256263679e-08,4.776713613e-05,3.744880088e-08,1.021714192e-05,6.20994648e-08,4.779616972e-05,4.796987093e-08
560,580,1.1001417e-05,3.372837207e-08,5.03679277e-05,3.844636487e-08,1.092229058e-05,6.420633475e-08,5.027648889e-05,4.919264728e-08
580,600,1.174084431e-05,3.484279541e-08,5.276678294e-05,3.93432949e-08,1.172370508e-05,6.651984655e-08,5.277936826e-05,5.039586468e-08
600,620,1.251235626e-05,3.596871783e-08,5.507223939e-05,4.01857813e-08,1.243753716e-05,6.851471893e-08,5.497483998e-05,5.142765343e-08
620,640,1.323584452e-05,3.699334485e-08,5.738215762e-05,4.101190764e-08,1.329368462e-05,7.083321316e-08,5.733371744e-05,5.251314416e-08
640,660,1.398065638e-05,3.801927277e-08,5.955498678e-05,4.177351763e-08,1.397278986e-05,7.261960559e-08,5.954834997e-05,5.351177444e-08
660,680,1.474967111e-05,3.905018351e-08,6.155172031e-05,4.24608649e-08,1.47949619e-05,7.472516176e-08,6.155131263e-05,5.43987718e-08
680,700,1.547627064e-05,3.999976873e-08,6.350746264e-05,4.312305569e-08,1.546954047e-05,7.640940349e-08,6.352662005e-05,5.52592528e-08
700,720,1.628119023e-05,4.102597994e-08,6.540290603e-05,4.375484207e-08,1.631209764e-05,7.846221607e-08,6.538492079e-05,5.60564035e-08
720,740,1.697375625e-05,4.188878503e-08,6.709392856e-05,4.431055575e-08,1.69572216e-05,7.999835345e-08,6.726666949e-05,5.685191353e-08
740,760,1.771649463e-05,4.27946864e-08,6.887533933e-05,4.488819255e-08,1.78016738e-05,8.196563243e-08,6.882025923e-05,5.750016986e-08
760,780,1.857034753e-05,4.381290451e-08,7.044383364e-05,4.539041787e-08,1.868651553e-05,8.397751893e-08,7.034398197e-05,5.812875425e-08
780,800,1.93062574e-05,4.467179172e-08,7.193465512e-05,4.586243534e-08,1.933503291e-05,8.5421932e-08,7.190024128e-05,5.876361324e-08
800,820,2.009254811e-05,4.557152438e-08,7.325363051e-05,4.627582856e-08,2.001451698e-05,8.690955517e-08,7.326928333e-05,5.931632523e-08
820,840,2.076307567e-05,4.632494568e-08,7.426860341e-05,4.659131156e-08,2.097560783e-05,8.897120985e-08,7.420702385e-05,5.969187362e-08
840,860,2.153085015e-05,4.717279575e-08,7.509562431e-05,4.684673152e-08,2.141802945e-05,8.990435642e-08,7.501467229e-05,6.001337884e-08
860,880,2.219568641e-05,4.789480169e-08,7.572043794e-05,4.703872645e-08,2.218697505e-05,9.150351694e-08,7.571748092e-05,6.029171059e-08
880,900,2.297712148e-05,4.872970548e-08,7.635680458e-05,4.723343083e-08,2.295440584e-05,9.307210836e-08,7.63332497e-05,6.053447934e-08
900,920,2.376559087e-05,4.955779962e-08,7.68544872e-05,4.738511385e-08,2.362672603e-05,9.442487844e-08,7.688868545e-05,6.075262366e-08
920,940,2.443673136e-05,5.025186649e-08,7.721489384e-05,4.749464493e-08,2.4495323e-05,9.614432731e-08,7.73114827e-05,6.091811599e-08
940,960,2.519674834e-05,5.102640533e-08,7.766197002e-05,4.763014731e-08,2.509477964e-05,9.731328109e-08,7.763444504e-05,6.104423142e-08
960,980,2.589810466e-05,5.173082055e-08,7.795341377e-05,4.771825323e-08,2.593771925e-05,9.893362071e-08,7.792967168e-05,6.115926864e-08
980,1000,2.671771666e-05,5.254198858e-08,7.815517734e-05,4.777915771e-08,2.669080728e-05,1.003590744e-07,7.817016854e-05,6.125283101e-08
1000,1020,2.752087424e-05,5.332483764e-08,7.828860966e-05,4.781940872e-08,2.758583606e-05,1.020272767e-07,7.828113938e-05,6.1296039e-08
1020,1040,2.833252348e-05,5.410440158e-08,7.824152626e-05,4.780529029e-08,2.828418835e-05,1.033101589e-07,7.839660665e-05,6.134103536e-08
1040,1060,2.928611493e-05,5.500610088e-08,7.82291233e-05,4.780150973e-08,2.932380189e-05,1.051909555e-07,7.832956018e-05,6.131482217e-08
1060,1080,3.007799033e-05,5.574373932e-08,7.81595918e-05,4.778372324e-08,3.013502362e-05,1.066354658e-07,7.822387569e-05,6.127376979e-08
1080,1100,3.086325355e-05,5.646564297e-08,7.794397377e-05,4.771626677e-08,3.083451321e-05,1.078654687e-07,7.79813697e-05,6.117970086e-08
1100,1120,3.195251304e-05,5.745196333e-08,7.770510939e-05,4.76436612e-08,3.191375309e-05,1.097361478e-07,7.773717567e-05,6.108437122e-08
1120,1140,3.28845813e-05,5.828257355e-08,7.739330971e-05,4.755934751e-08,3.301376492e-05,1.116105275e-07,7.736351001e-05,6.093872191e-08
1140,1160,3.388532025e-05,5.916180451e-08,7.698694805e-05,4.742752974e-08,3.393558912e-05,1.131573165e-07,7.689699957e-05,6.075612696e-08
1160,1180,3.501278057e-05,6.013813303e-08,7.643429002e-05,4.726062697e-08,3.509166258e-05,1.150694762e-07,7.655613903e-05,6.062331537e-08
1180,1200,3.608109669e-05,6.104670694e-08,7.589492107e-05,4.710981312e-08,3.606954765e-05,1.16659269e-07,7.589889211e-05,6.036429154e-08
1200,1220,3.716197038e-05,6.195146772e-08,7.511059435e-05,4.685542164e-08,3.715521258e-05,1.184010703e-07,7.499461322e-05,6.000554225e-08
1220,1240,3.81984728e-05,6.280855201e-08,7.436324183e-05,4.663008678e-08,3.824587399e-05,1.201255993e-07,7.424262602e-05,5.974122537e-08
1240,1260,3.95282357e-05,6.390611909e-08,7.322752905e-05,4.626889226e-08,3.936569423e-05,1.218727181e-07,7.321354325e-05,5.93017806e-08
1260,1280,4.074196878e-05,6.486273022e-08,7.195475591e-05,4.587236825e-08,4.069539905e-05,1.23910695e-07,7.186212969e-05,5.874877003e-08
1280,1300,4.196627053e-05,6.582665475e-08,7.048015955e-05,4.540643979e-08,4.223294801e-05,1.262285347e-07,7.040640413e-05,5.81552946e-08
1300,1320,4.330364028e-05,6.686947285e-08,6.887951256e-05,4.489394872e-08,4.325486422e-05,1.27747064e-07,6.881736848e-05,5.749934757e-08
1320,1340,4.483955968e-05,6.803809648e-08,6.715457939e-05,4.437241238e-08,4.470243093e-05,1.298656622e-07,6.732553283e-05,5.687841852e-08
1340,1360,4.625397796e-05,6.910160347e-08,6.545232696e-05,4.377439943e-08,4.614172624e-05,1.319370658e-07,6.539891107e-05,5.608069719e-08
1360,1380,4.792538185e-05,7.033486873e-08,6.355467403e-05,4.314037893e-08,4.779824456e-05,1.34283183e-07,6.358602797e-05,5.529329812e-08
1380,1400,4.961690728e-05,7.156417273e-08,6.162355731e-05,4.249243067e-08,4.946855496e-05,1.366076248e-07,6.151869933e-05,5.438674235e-08
1400,1420,5.14253416e-05,7.285260824e-08,5.950938795e-05,4.176067973e-08,5.155466606e-05,1.394791999e-07,5.944768936e-05,5.346946126e-08
1420,1440,5.352373708e-05,7.431997755e-08,5.728951314e-05,4.098452634e-08,5.35074566e-05,1.420741989e-07,5.726563308e-05,5.248482239e-08
1440,1460,5.54535157e-05,7.564373755e-08,5.504586663e-05,4.017812143e-08,5.560238072e-05,1.448235967e-07,5.508243584e-05,5.14791413e-08
1460,1480,5.783164723e-05,7.725622762e-08,5.261458018e-05,3.928886989e-08,5.77500129e-05,1.475954092e-07,5.267950072e-05,5.03485692e-08
1480,1500,6.011649649e-05,7.875244892e-08,5.012896793e-05,3.835790367e-08,6.03380016e-05,1.508601501e-07,5.017842494e-05,4.914822201e-08
1500,1520,6.294757266e-05,8.057825967e-08,4.761014917e-05,3.740595707e-08,6.267843689e-05,1.537557669e-07,4.768142779e-05,4.791264387e-08
1520,1540,6.58814604e-05,8.24289379e-08,4.486677765e-05,3.630334085e-08,6.540850667e-05,1.570658718e-07,4.492953235e-05,4.651770572e-08
1540,1560,6.882897642e-05,8.424661978e-08,4.213922973e-05,3.519501981e-08,6.871949919e-05,1.609886735e-07,4.214377214e-05,4.505727136e-08
1560,1580,7.257129186e-05,8.649887176e-08,3.92477994e-05,3.397029078e-08,7.26705879e-05,1.655476219e-07,3.929198186e-05,4.351650909e-08
1580,1600,7.492142012e-05,8.788478701e-08,3.619919934e-05,3.263327061e-08,7.494845885e-05,1.681197531e-07,3.627533917e-05,4.181479792e-08
1600,1620,6.490510884e-05,8.181769187e-08,3.308712217e-05,3.120660417e-08,6.501018441e-05,1.565872191e-07,3.307217363e-05,3.993447339e-08
1620,1640,6.061371576e-05,7.907472216e-08,2.971600022e-05,2.958239753e-08,6.065556986e-05,1.512576842e-07,2.973148191e-05,3.786960089e-08
1640,1660,5.877945543e-05,7.787249674e-08,2.620441061e-05,2.778816634e-08,5.846073427e-05,1.484966133e-07,2.624050336e-05,3.558198244e-08
1660,1680,5.721667275e-05,7.683331684e-08,2.241331716e-05,2.570753952e-08,5.70243899e-05,1.466624567e-07,2.25306112e-05,3.297704717e-08
1680,1700,5.633904373e-05,7.624329276e-08,1.822830182e-05,2.319122057e-08,5.622901103e-05,1.456367802e-07,1.819455168e-05,2.964081353e-08
1700,1720,5.543811065e-05,7.563286403e-08,1.319112002e-05,1.973669505e-08,5.520979683e-05,1.44311827e-07,1.321087492e-05,2.526354209e-08
1720,1740,5.494450064e-05,7.52963007e-08,7.361758315e-06,1.475149909e-08,5.514033015e-05,1.442210367e-07,7.345861715e-06,1.884420289e-08
1740,1760,5.445555926e-05,7.49614157e-08,3.187285017e-06,9.70973362e-09,5.44548126e-05,1.433224072e-07,3.198454113e-06,1.243703615e-08
1760,1780,5.418210958e-05,7.477345477e-08,1.817576224e-06,7.333187478e-09,5.407279671e-05,1.428191659e-07,1.806957076e-06,9.348701318e-09
1780,1800,5.42807055e-05,7.484128083e-08,1.246679548e-06,6.073577786e-09,5.434307673e-05,1.431754077e-07,1.252854206e-06,7.78466508e-09
1800,1820,5.457536962e-05,7.504360378e-08,9.57532849e-07,5.322978446e-09,5.449709445e-05,1.433780077e-07,9.532091692e-07,6.790316546e-09
1820,1840,5.51089048e-05,7.54085645e-08,7.603960114e-07,4.743562619e-09,5.499575332e-05,1.44031991e-07,7.663315388e-07,6.088474401e-09
1840,1860,5.595800266e-05,7.598572786e-08,6.250858659e-07,4.300902315e-09,5.60485766e-05,1.454031e-07,6.41956181e-07,5.572572296e-09
1860,1880,5.767222154e-05,7.713762218e-08,5.380155053e-07,3.990157688e-09,5.762422512e-05,1.474312184e-07,5.451531423e-07,5.135275478e-09
1880,1900,5.995363156e-05,7.86442225e-08,4.755692905e-07,3.751473741e-09,6.019643786e-05,1.506832181e-07,4.730248647e-07,4.783529247e-09
1900,1920,6.418761903e-05,8.136550302e-08,4.362967736e-07,3.593252825e-09,6.415858499e-05,1.555591376e-07,4.31420532e-07,4.568330172e-09
1920,1940,7.143965077e-05,8.582392271e-08,4.150766973e-07,3.504787367e-09,7.155813205e-05,1.642768291e-07,4.158434762e-07,4.485103123e-09
1940,1960,8.59761031e-05,9.411855196e-08,4.140116088e-07,3.50028943e-09,8.614887202e-05,1.802310477e-07,4.114416254e-07,4.461304585e-09
1960,1980,0.0001250906984,1.134196572e-07,4.287488004e-07,3.562032913e-09,0.0001251613334,2.171839157e-07,4.277450521e-07,4.548835113e-09
1980,2000,0.0001947060401,1.412644644e-07,3.449651112e-07,3.195123732e-09,0.000194006437,2.702728679e-07,3.475844664e-07,4.100522558e-09
