# xl,xh,LOnovp,dLOnovp,LO,dLO,PS+LOnovp,dPS+LOnovp,PS+LO,dPS+LO
0,20,0,0,0,0,0,0,0,0
20,40,0,0,0,0,0,0,0,0
40,60,0,0,0,0,0,0,0,0
60,80,0,0,0,0,0,0,0,0
80,100,0,0,0,0,0,0,0,0
100,120,0,0,0,0,0,0,0,0
120,140,0,0,0,0,0,0,0,0
140,160,0,0,0,0,0,0,0,0
160,180,0,0,0,0,0,0,0,0
180,200,0,0,0,0,0,0,0,0
200,220,0,0,0,0,0,0,0,0
220,240,0,0,0,0,0,0,0,0
240,260,0,0,0,0,0,0,0,0
260,280,0,0,0,0,0,0,0,0
280,300,0,0,0,0,0,0,0,0
300,320,1.052977985e-05,3.299869952e-08,6.242362681e-05,4.276425832e-08,1.041400031e-05,6.269546542e-08,6.26263623e-05,5.487063026e-08
320,340,1.150507719e-05,3.449615771e-08,6.625259061e-05,4.404168636e-08,1.147497055e-05,6.581061017e-08,6.621436284e-05,5.641317334e-08
340,360,1.261114114e-05,3.61275416e-08,6.987643394e-05,4.521541736e-08,1.266680753e-05,6.915199145e-08,6.992202337e-05,5.795779296e-08
360,380,1.346746356e-05,3.731656367e-08,7.326255671e-05,4.627995662e-08,1.371729026e-05,7.195290948e-08,7.329719317e-05,5.936288441e-08
380,400,1.46245733e-05,3.890810541e-08,7.638449212e-05,4.724383761e-08,1.451151726e-05,7.400617852e-08,7.63128015e-05,6.052713473e-08
400,420,1.564139394e-05,4.02150762e-08,7.934822325e-05,4.814094592e-08,1.53838469e-05,7.619750214e-08,7.931716891e-05,6.169981801e-08
420,440,1.655938833e-05,4.137508942e-08,8.206059374e-05,4.895503775e-08,1.655675009e-05,7.905022229e-08,8.206394157e-05,6.275376036e-08
440,460,1.759585928e-05,4.265146026e-08,8.449273414e-05,4.965834853e-08,1.773210917e-05,8.184491641e-08,8.446430192e-05,6.365314241e-08
460,480,1.859964393e-05,4.384937778e-08,8.668405014e-05,5.028670534e-08,1.861598092e-05,8.381907119e-08,8.669510727e-05,6.448070325e-08
480,500,1.956080662e-05,4.496744832e-08,8.860591225e-05,5.083011814e-08,1.945487591e-05,8.568917054e-08,8.858321557e-05,6.518485291e-08
500,520,2.048224758e-05,4.601244356e-08,9.033926646e-05,5.131842859e-08,2.045371577e-05,8.786381219e-08,9.033739381e-05,6.580759627e-08
520,540,2.139951237e-05,4.702991689e-08,9.178859921e-05,5.172530355e-08,2.144263165e-05,8.995800968e-08,9.177402817e-05,6.632426111e-08
540,560,2.241996183e-05,4.813894795e-08,9.311411064e-05,5.20865262e-08,2.230087779e-05,9.173883824e-08,9.314524117e-05,6.681401589e-08
560,580,2.312880493e-05,4.8891589e-08,9.419957697e-05,5.238473162e-08,2.315985918e-05,9.348780737e-08,9.409303881e-05,6.714900381e-08
580,600,2.405458361e-05,4.985815195e-08,9.506343069e-05,5.263522397e-08,2.394381539e-05,9.505618663e-08,9.487302337e-05,6.742471796e-08
600,620,2.487159789e-05,5.069792948e-08,9.539439965e-05,5.271025358e-08,2.46712697e-05,9.648897216e-08,9.534069193e-05,6.758800645e-08
620,640,2.575687926e-05,5.158975087e-08,9.530512512e-05,5.271993908e-08,2.579691081e-05,9.866479255e-08,9.527363904e-05,6.756641859e-08
640,660,2.643461037e-05,5.226355753e-08,9.468140677e-05,5.252228301e-08,2.652362273e-05,1.00046077e-07,9.473309318e-05,6.737426396e-08
660,680,2.717397026e-05,5.298844247e-08,9.369071422e-05,5.224545305e-08,2.720645544e-05,1.013235275e-07,9.365517361e-05,6.699933321e-08
680,700,2.779755849e-05,5.35923965e-08,9.238880155e-05,5.188593601e-08,2.783686793e-05,1.0249029e-07,9.238204813e-05,6.654208206e-08
700,720,2.853856186e-05,5.430056578e-08,9.087353264e-05,5.146586398e-08,2.848086446e-05,1.036686066e-07,9.086460273e-05,6.599696562e-08
720,740,2.924835909e-05,5.498994177e-08,8.920813672e-05,5.099882124e-08,2.926427619e-05,1.050844281e-07,8.92143153e-05,6.54006593e-08
740,760,2.966167104e-05,5.535716588e-08,8.72645406e-05,5.044851855e-08,2.974847965e-05,1.059496226e-07,8.729616008e-05,6.469992559e-08
760,780,3.045661413e-05,5.609375529e-08,8.549031534e-05,4.994999262e-08,3.029658685e-05,1.069208157e-07,8.547318657e-05,6.40265565e-08
780,800,3.107300064e-05,5.665862583e-08,8.361092986e-05,4.939718862e-08,3.103836007e-05,1.082212963e-07,8.361430449e-05,6.333263369e-08
800,820,3.165492546e-05,5.718416878e-08,8.161108968e-05,4.881005424e-08,3.184769814e-05,1.096225747e-07,8.15920418e-05,6.256846881e-08
820,840,3.223420837e-05,5.770423553e-08,7.981451968e-05,4.827865497e-08,3.228597307e-05,1.103739915e-07,7.979218144e-05,6.18800888e-08
840,860,3.313844569e-05,5.850672527e-08,7.803978201e-05,4.774449809e-08,3.305189035e-05,1.116749222e-07,7.803471529e-05,6.120023629e-08
860,880,3.38122804e-05,5.909760783e-08,7.650061632e-05,4.727734682e-08,3.36883364e-05,1.127445214e-07,7.652266854e-05,6.060897359e-08
880,900,3.451207591e-05,5.970501489e-08,7.499213406e-05,4.681486209e-08,3.455505236e-05,1.141849797e-07,7.510131282e-05,6.004780251e-08
900,920,3.526061734e-05,6.034793937e-08,7.369211448e-05,4.641244596e-08,3.535570114e-05,1.154996168e-07,7.367599924e-05,5.947950665e-08
920,940,3.591023198e-05,6.090034591e-08,7.22724041e-05,4.596866148e-08,3.589061011e-05,1.163696596e-07,7.223205492e-05,5.889806635e-08
940,960,3.662453009e-05,6.150200385e-08,7.084530173e-05,4.551803666e-08,3.639532123e-05,1.171846444e-07,7.09004251e-05,5.835658458e-08
960,980,3.738372843e-05,6.213504905e-08,6.938787126e-05,4.505295505e-08,3.729714274e-05,1.186268616e-07,6.94094297e-05,5.774415008e-08
980,1000,3.806200425e-05,6.269515868e-08,6.771000999e-05,4.451121717e-08,3.817518413e-05,1.200143968e-07,6.76944401e-05,5.703115554e-08
1000,1020,3.897534666e-05,6.344152916e-08,6.590270877e-05,4.391985648e-08,3.877237552e-05,1.209490033e-07,6.604660093e-05,5.633743933e-08
1020,1040,3.979547193e-05,6.410425795e-08,6.399909298e-05,4.328784429e-08,3.96549434e-05,1.223170948e-07,6.387518044e-05,5.540967069e-08
1040,1060,4.059967019e-05,6.474748315e-08,6.179127017e-05,4.254255579e-08,4.056167566e-05,1.237068886e-07,6.189803501e-05,5.455082411e-08
1060,1080,4.127557287e-05,6.528314966e-08,5.956166529e-05,4.177583556e-08,4.14181984e-05,1.250054869e-07,5.958525368e-05,5.352824332e-08
1080,1100,4.223381617e-05,6.603507521e-08,5.722998342e-05,4.095801447e-08,4.212674075e-05,1.260695766e-07,5.738282101e-05,5.25354975e-08
1100,1120,4.307485358e-05,6.668799725e-08,5.497976013e-05,4.015234341e-08,4.299082706e-05,1.273552531e-07,5.499810174e-05,5.143846939e-08
1120,1140,4.405233483e-05,6.743881976e-08,5.26846586e-05,3.931293456e-08,4.391001146e-05,1.287087598e-07,5.271155934e-05,5.0363662e-08
1140,1160,4.482994545e-05,6.803015821e-08,5.04026366e-05,3.845949224e-08,4.454381278e-05,1.296337756e-07,5.038277058e-05,4.924435539e-08
1160,1180,4.574246824e-05,6.871754569e-08,4.812806637e-05,3.75888663e-08,4.56483498e-05,1.312302024e-07,4.812944019e-05,4.813601219e-08
1180,1200,4.640761175e-05,6.921425077e-08,4.606066109e-05,3.677906867e-08,4.652714816e-05,1.324866142e-07,4.598515504e-05,4.705659624e-08
1200,1220,4.721200906e-05,6.981017294e-08,4.38549581e-05,3.589430567e-08,4.721833219e-05,1.33466445e-07,4.39160483e-05,4.599055419e-08
1220,1240,4.807528571e-05,7.044406445e-08,4.179108911e-05,3.504559349e-08,4.803446337e-05,1.346142088e-07,4.176044825e-05,4.485251777e-08
1240,1260,4.881532922e-05,7.098290542e-08,3.974255484e-05,3.418175365e-08,4.900726643e-05,1.359696354e-07,3.969671349e-05,4.373475682e-08
1260,1280,4.963410714e-05,7.157431742e-08,3.769566945e-05,3.329560065e-08,4.958065938e-05,1.367622202e-07,3.76527621e-05,4.259832641e-08
1280,1300,5.031984148e-05,7.20658565e-08,3.578356441e-05,3.244536646e-08,5.038546854e-05,1.378669896e-07,3.579736695e-05,4.15393985e-08
1300,1320,5.135082477e-05,7.27985694e-08,3.379365639e-05,3.153559732e-08,5.123180322e-05,1.390192914e-07,3.37991349e-05,4.036744023e-08
1320,1340,5.218171215e-05,7.338370085e-08,3.18831454e-05,3.063611656e-08,5.220082697e-05,1.403269671e-07,3.190206394e-05,3.922196632e-08
1340,1360,5.299811679e-05,7.395408588e-08,3.006684219e-05,2.975522424e-08,5.292446839e-05,1.412955899e-07,3.008963753e-05,3.809500847e-08
1360,1380,5.369636893e-05,7.443840313e-08,2.829901609e-05,2.887150731e-08,5.397426435e-05,1.426890658e-07,2.825810933e-05,3.692080859e-08
1380,1400,5.464963859e-05,7.509451318e-08,2.647019538e-05,2.792730246e-08,5.465639693e-05,1.435872663e-07,2.648868458e-05,3.57493766e-08
1400,1420,5.530351702e-05,7.554124848e-08,2.476789191e-05,2.70182294e-08,5.547101863e-05,1.446525462e-07,2.474351038e-05,3.45546955e-08
1420,1440,5.600393808e-05,7.601682275e-08,2.30542549e-05,2.607056036e-08,5.60319693e-05,1.453815863e-07,2.303626061e-05,3.33441569e-08
1440,1460,5.659996322e-05,7.641915331e-08,2.139866015e-05,2.512050837e-08,5.664501299e-05,1.461741446e-07,2.145054257e-05,3.217863641e-08
1460,1480,5.722103179e-05,7.683612609e-08,1.977472559e-05,2.41517963e-08,5.684432189e-05,1.464308743e-07,1.9741107e-05,3.087248357e-08
1480,1500,5.749749616e-05,7.702102158e-08,1.818778704e-05,2.316550878e-08,5.729995795e-05,1.470161247e-07,1.819924481e-05,2.964463197e-08
1500,1520,5.784314342e-05,7.725153392e-08,1.657308276e-05,2.211629067e-08,5.771142007e-05,1.475426238e-07,1.657085513e-05,2.828964408e-08
1520,1540,5.751579854e-05,7.703323703e-08,1.504397373e-05,2.107402718e-08,5.75713656e-05,1.473636244e-07,1.50082496e-05,2.69249046e-08
1540,1560,5.723812182e-05,7.684758346e-08,1.348405559e-05,1.995414805e-08,5.721048905e-05,1.469013746e-07,1.345555833e-05,2.549610963e-08
1560,1580,5.638219294e-05,7.627241401e-08,1.192558511e-05,1.876805988e-08,5.655479457e-05,1.460577683e-07,1.197751529e-05,2.405684718e-08
1580,1600,5.416709828e-05,7.476310955e-08,1.035652177e-05,1.749216252e-08,5.4032406e-05,1.427658579e-07,1.037021014e-05,2.238639772e-08
1600,1620,5.089984521e-05,7.247898788e-08,8.768488751e-06,1.609743191e-08,5.095284217e-05,1.386405507e-07,8.717183012e-06,2.052647809e-08
1620,1640,4.910553584e-05,7.119309675e-08,7.065269124e-06,1.44517489e-08,4.926168934e-05,1.363218882e-07,7.019852711e-06,1.84216078e-08
1640,1660,4.7990541e-05,7.038208426e-08,5.371254091e-06,1.260246444e-08,4.803634962e-05,1.346168488e-07,5.374231425e-06,1.611972339e-08
1660,1680,4.676858652e-05,6.948230928e-08,3.898847096e-06,1.073838595e-08,4.675855361e-05,1.3281547e-07,3.902425761e-06,1.373721511e-08
1680,1700,4.595268529e-05,6.887490681e-08,2.668179766e-06,8.884298864e-09,4.582765121e-05,1.314875202e-07,2.665397341e-06,1.135375856e-08
1700,1720,4.515025171e-05,6.827222644e-08,1.64349663e-06,6.973284206e-09,4.523953165e-05,1.30641618e-07,1.615432938e-06,8.839461393e-09
1720,1740,4.450994294e-05,6.778744264e-08,8.833660591e-07,5.112706629e-09,4.459251472e-05,1.29704586e-07,8.882858526e-07,6.555007312e-09
1740,1760,4.409847811e-05,6.747405723e-08,5.261779107e-07,3.946023387e-09,4.385301435e-05,1.286252442e-07,5.135174712e-07,4.984066575e-09
1760,1780,4.370036589e-05,6.7169435e-08,3.872568048e-07,3.38530625e-09,4.369521851e-05,1.283937373e-07,3.877363047e-07,4.330878929e-09
1780,1800,4.336587948e-05,6.691242704e-08,3.211407069e-07,3.082823141e-09,4.349136969e-05,1.280940687e-07,3.234932983e-07,3.955873197e-09
1800,1820,4.295110827e-05,6.659233961e-08,2.758892392e-07,2.857393049e-09,4.30580185e-05,1.27454678e-07,2.774865785e-07,3.663794717e-09
1820,1840,4.251057422e-05,6.625064789e-08,2.444882582e-07,2.689878305e-09,4.249215818e-05,1.266148864e-07,2.430916582e-07,3.429229221e-09
1840,1860,4.195220513e-05,6.581499794e-08,2.173198485e-07,2.536030933e-09,4.211655199e-05,1.260543475e-07,2.127606288e-07,3.2081807e-09
1860,1880,4.120180632e-05,6.522490486e-08,1.944127066e-07,2.398654952e-09,4.132232348e-05,1.248608119e-07,1.941837655e-07,3.064924615e-09
1880,1900,4.11537031e-05,6.51869008e-08,1.773063378e-07,2.290698753e-09,4.096710015e-05,1.243232578e-07,1.715430706e-07,2.880712158e-09
1900,1920,4.089660065e-05,6.49833628e-08,1.596674823e-07,2.173775911e-09,4.086026321e-05,1.241611158e-07,1.605613588e-07,2.786979001e-09
1920,1940,4.073013039e-05,6.485122111e-08,1.404307101e-07,2.038631363e-09,4.056619631e-05,1.237137565e-07,1.37147203e-07,2.575770994e-09
1940,1960,4.120811697e-05,6.522989219e-08,1.223476394e-07,1.902855072e-09,4.116868217e-05,1.246285809e-07,1.215214313e-07,2.424600579e-09
1960,1980,4.222390206e-05,6.602735601e-08,9.624402833e-08,1.687698447e-09,4.23404102e-05,1.263887256e-07,9.530180992e-08,2.147166716e-09
1980,2000,2.574778021e-05,5.158065691e-08,3.79415386e-08,1.059666871e-09,2.571046032e-05,9.849937706e-08,4.194229483e-08,1.42443131e-09
