# xl,xh,LOnovp,dLOnovp,LO,dLO,PS+LOnovp,dPS+LOnovp,PS+LO,dPS+LO
0,0.03,0.08748110012,7.743850967e-05,0.06536018993,3.561730416e-05,0.08777546629,0.0001484960132,0.06540322278,4.570077378e-05
0.03,0.06,0.08720449551,7.731106463e-05,0.06556890051,3.567296382e-05,0.08725530265,0.0001480561252,0.06561563155,4.577453102e-05
0.06,0.09,0.08715219828,7.728804138e-05,0.06595759974,3.577668843e-05,0.08698072695,0.0001478233964,0.06595210784,4.589005476e-05
0.09,0.12,0.08664698366,7.70649596e-05,0.06658838769,3.594320523e-05,0.08695154529,0.0001477986484,0.06662120567,4.612056519e-05
0.12,0.15,0.08648519904,7.699327449e-05,0.06743466533,3.616738892e-05,0.08640443459,0.0001473337421,0.06737720934,4.637899829e-05
0.15,0.18,0.08595996145,7.676055155e-05,0.06833418339,3.640323758e-05,0.08585153559,0.0001468623899,0.06837996222,4.671954244e-05
0.18,0.21,0.08542951027,7.652478876e-05,0.06945710891,3.669577217e-05,0.08534192177,0.0001464266079,0.06953059712,4.710590992e-05
0.21,0.24,0.08470783974,7.620294471e-05,0.07091074547,3.707113927e-05,0.08449935654,0.0001457031937,0.0708239887,4.753750756e-05
0.24,0.27,0.08392055052,7.585115004e-05,0.07244098947,3.746198763e-05,0.083923061,0.0001452063252,0.07234081093,4.803934065e-05
0.27,0.3,0.0829492786,7.541258645e-05,0.07413941397,3.789130002e-05,0.08295348825,0.0001443665579,0.07401133811,4.858325766e-05
0.3,0.33,0.08209233338,7.50248694e-05,0.07586510576,3.832070905e-05,0.08219824326,0.0001437104678,0.07585605503,4.91819086e-05
0.33,0.36,0.0809307333,7.449510811e-05,0.07781707953,3.88008785e-05,0.08087026548,0.0001425452642,0.07783340175,4.980807798e-05
0.36,0.39,0.07967729954,7.391937268e-05,0.07970365806,3.926364728e-05,0.07960688149,0.0001414296586,0.07975675048,5.041168043e-05
0.39,0.42,0.07843975152,7.334624706e-05,0.08154920054,3.970089172e-05,0.07821617086,0.0001401902426,0.08166826267,5.100481593e-05
0.42,0.45,0.07686221337,7.26089482e-05,0.08343657938,4.014810477e-05,0.07709578125,0.0001391840957,0.08334981539,5.152069549e-05
0.45,0.48,0.07543547698,7.193559152e-05,0.08484730559,4.049804861e-05,0.07538298459,0.0001376316732,0.08492815367,5.200041232e-05
0.48,0.51,0.07383237611,7.117139316e-05,0.08617951618,4.07883507e-05,0.07378785676,0.0001361803762,0.0860676694,5.235097184e-05
0.51,0.54,0.07200338969,7.02888262e-05,0.08738755121,4.107565439e-05,0.07180543543,0.0001343314921,0.08735302544,5.272749417e-05
0.54,0.57,0.07003866403,6.93282676e-05,0.08878749829,4.13869815e-05,0.07038330501,0.0001329959162,0.08876297676,5.314533714e-05
0.57,0.6,0.06796055952,6.829711542e-05,0.09026181773,4.172292482e-05,0.06800563116,0.0001307333128,0.09039938194,5.362692484e-05
0.6,0.63,0.06580818821,6.721212904e-05,0.09210156685,4.21353246e-05,0.06572792902,0.0001285283818,0.0921037,5.412266842e-05
0.63,0.66,0.06343006755,6.599320738e-05,0.09387130167,4.253565585e-05,0.06319049618,0.0001260276506,0.09374783258,5.459681262e-05
0.66,0.69,0.0606370501,6.453053095e-05,0.0960195638,4.30002149e-05,0.06055427871,0.0001233725631,0.09601757884,5.524405956e-05
0.69,0.72,0.05784999435,6.303593552e-05,0.09871185186,4.358405526e-05,0.0576846724,0.0001204174103,0.09878164023,5.602341478e-05
0.72,0.75,0.0545815124,6.12430238e-05,0.1024876759,4.438813121e-05,0.05456542223,0.0001171198008,0.1025246083,5.705986455e-05
0.75,0.78,0.05132600233,5.938915032e-05,0.1074016716,4.541127931e-05,0.05108169383,0.0001133233168,0.1074645685,5.839397205e-05
0.78,0.81,0.04807772195,5.748593508e-05,0.112803595,4.650703118e-05,0.04809041874,0.0001099600211,0.1127453745,5.978652321e-05
0.81,0.84,0.04462776446,5.539154261e-05,0.1169088514,4.731953884e-05,0.04462007258,0.0001059204094,0.1167823567,6.082920114e-05
0.84,0.87,0.04068371971,5.289489957e-05,0.1169598798,4.733002681e-05,0.04064164356,0.0001010922216,0.1170313777,6.089222577e-05
0.87,0.9,0.03637669442,5.002539705e-05,0.1108439112,4.611462441e-05,0.03629818608,9.554235674e-05,0.110842713,5.928872368e-05
0.9,0.93,0.03178921958,4.677524291e-05,0.09956743536,4.377005743e-05,0.03178068608,8.940296849e-05,0.09958910168,5.626312551e-05
0.93,0.96,3.158987895e-05,1.476095704e-06,9.474488526e-05,1.367222821e-06,3.19607663e-05,2.836057184e-06,9.613965782e-05,1.760833085e-06
0.96,0.99,0,0,0,0,0,0,0,0
0.99,1.02,0,0,0,0,0,0,0,0
