# xl,xh,PS+NLOnovp,dPS+NLOnovp,PS+NLO,dPS+NLO
0.45,0.46,22.22345803,0.01449492337,22.74112877,0.01483650034
0.46,0.47,23.08338252,0.01477461676,23.61436003,0.01512068229
0.47,0.48,23.92097464,0.01504368786,24.51408822,0.01540993879
0.48,0.49,24.86922575,0.01534162934,25.44431902,0.01570215558
0.49,0.5,25.80226109,0.01562980271,26.43805355,0.01600892869
0.5,0.51,26.8110553,0.01593484441,27.45613732,0.01631855147
0.51,0.52,27.88604077,0.01625571508,28.48660983,0.01662435363
0.52,0.53,28.95179146,0.01656679538,29.64081081,0.01696151988
0.53,0.54,30.13509563,0.01690607357,30.80132532,0.01729462395
0.54,0.55,31.32871135,0.01724327705,32.05893377,0.01764973031
0.55,0.56,32.601375,0.01759471483,33.37503605,0.01801324297
0.56,0.57,33.98066075,0.01796883098,34.75943125,0.01838897334
0.57,0.58,35.43051072,0.01835294324,36.23916521,0.01878284684
0.58,0.59,36.95712857,0.01875118797,37.83066504,0.01919755092
0.59,0.6,38.61115997,0.01917385129,39.52166604,0.01962933132
0.6,0.61,40.34271041,0.01960823295,41.29362691,0.02007136269
0.61,0.62,42.19831072,0.02006121695,43.2098035,0.02054058162
0.62,0.63,44.22756627,0.02054634238,45.21609787,0.02102012365
0.63,0.64,46.32107353,0.02103553021,47.42538048,0.02153682741
0.64,0.65,48.63078826,0.02156506126,49.78227734,0.02207862233
0.65,0.66,51.09255873,0.02211596978,52.30428247,0.02264287273
0.66,0.67,53.80686083,0.0227081408,55.0446428,0.023239785
0.67,0.68,56.6442519,0.02331182839,57.99261603,0.02386634439
0.68,0.69,59.81875292,0.02397034063,61.19826595,0.02453406186
0.69,0.7,63.20305711,0.02465475596,64.68866883,0.02523973272
0.7,0.71,66.94073311,0.02539206865,68.52950794,0.02599599483
0.71,0.72,71.00988398,0.02616957873,72.66556873,0.02678684308
0.72,0.73,75.54930762,0.02701266555,77.29104777,0.02764728323
0.73,0.74,80.4900072,0.02790329812,82.35577024,0.02856244181
0.74,0.75,86.06628046,0.02887728013,88.12263293,0.02956591375
0.75,0.76,92.33990281,0.02993536777,94.49998346,0.03064130135
0.76,0.77,99.38607059,0.03107899632,101.7540702,0.03182055612
0.77,0.78,107.5312222,0.03235455415,110.1002213,0.03312706314
0.78,0.79,117.023177,0.03377501317,119.817314,0.03457975366
0.79,0.8,128.6033228,0.03542737148,131.6516475,0.03627112899
0.8,0.81,145.6520217,0.03770477461,149.0733912,0.03859716584
0.81,0.82,168.8592008,0.0405798956,172.6861869,0.04152812227
0.82,0.83,194.6865563,0.04356325707,199.3407735,0.04460238987
0.83,0.84,223.4144429,0.04666062586,228.5729007,0.04775594703
0.84,0.85,255.2784124,0.04987538919,261.300629,0.05105790132
0.85,0.86,291.0657893,0.05325709397,298.0816215,0.05453398399
0.86,0.87,331.9553423,0.05688236528,339.5507608,0.05821815207
0.87,0.88,379.0122248,0.06080033909,387.9337237,0.0622432763
0.88,0.89,434.6650908,0.06513652323,444.8152143,0.06667665707
0.89,0.9,501.9640295,0.07002174136,513.6918258,0.07167566857
0.9,0.91,585.4786217,0.07562892759,599.2486597,0.07742517054
0.91,0.92,692.8443331,0.08225946947,709.2707528,0.08422207714
0.92,0.93,836.7617255,0.09034900564,856.4756152,0.0924946609
0.93,0.94,1036.843033,0.1004802489,1061.335177,0.1028710021
0.94,0.95,1285.665661,0.1118264067,1315.804898,0.11447792
0.95,0.96,1578.800513,0.1239596395,1616.126398,0.1269088176
0.96,0.97,2020.309234,0.1402229021,2068.24219,0.1435592176
0.97,0.98,2797.110808,0.1647406083,2863.333498,0.1686644379
0.98,0.99,4693.763393,0.2110247141,4806.158964,0.2160746526
0.99,1,71536.02631,0.4216954108,73253.75905,0.4318841364
