# xl,xh,PS+NLOnovp,dPS+NLOnovp,PS+NLO,dPS+NLO
0.45,0.46,0.4716280909,0.002108592649,0.4748959805,0.002139593305
0.46,0.47,0.5393802571,0.002254035043,0.5481637045,0.00229880397
0.47,0.48,0.5940705947,0.002364871269,0.610356967,0.002425953141
0.48,0.49,0.6495572224,0.002473140987,0.6624448231,0.002527028894
0.49,0.5,0.7010835839,0.002569170177,0.7137783113,0.002623417664
0.5,0.51,0.7474556388,0.002653481125,0.7597050631,0.002706305203
0.51,0.52,0.7826705269,0.002714534909,0.8023847004,0.002781101
0.52,0.53,0.8216367714,0.002781600122,0.8359755204,0.002838888286
0.53,0.54,0.8434676183,0.002818157507,0.8651133122,0.002887816387
0.54,0.55,0.8535740153,0.002834727473,0.8756353326,0.002905682655
0.55,0.56,0.8733390355,0.002867749197,0.8894423996,0.002928078179
0.56,0.57,0.8587230722,0.002843279461,0.8761322257,0.002906148672
0.57,0.58,0.8448463542,0.002820461562,0.8612877576,0.002881916238
0.58,0.59,0.8207065975,0.002779937006,0.8328963014,0.002833453381
0.59,0.6,0.7780957392,0.002706462132,0.7916351801,0.00276238017
0.6,0.61,0.7194389947,0.002602483698,0.7291601667,0.002651253732
0.61,0.62,0.6692464616,0.002510121436,0.674422773,0.002549927472
0.62,0.63,0.6204402678,0.002416774397,0.6334344855,0.002471014024
0.63,0.64,0.5852674597,0.002347377543,0.5905258371,0.00238616594
0.64,0.65,0.5537381672,0.002283235399,0.5659778848,0.002335827886
0.65,0.66,0.5264323824,0.002226281185,0.5355464957,0.00227211193
0.66,0.67,0.5147266346,0.002201456429,0.5206513851,0.002240698009
0.67,0.68,0.49484007,0.002158610166,0.5057703689,0.002208163342
0.68,0.69,0.4936329902,0.002155685518,0.5048204811,0.002206026748
0.69,0.7,0.4902189409,0.002148337027,0.5035672056,0.002203805045
0.7,0.71,0.4999948579,0.002169671939,0.5112747897,0.002220058996
0.71,0.72,0.5101362477,0.002191463806,0.524804491,0.002249344007
0.72,0.73,0.5306271575,0.002235185531,0.5428170991,0.002287723103
0.73,0.74,0.5548094991,0.002285405838,0.563637427,0.002331134703
0.74,0.75,0.5783083061,0.00233342315,0.5916346848,0.002388281332
0.75,0.76,0.6044256217,0.002385420699,0.6232088447,0.002450983738
0.76,0.77,0.6426125502,0.00245964963,0.6567494621,0.002516130291
0.77,0.78,0.6825986137,0.002534984647,0.7004827935,0.002598615586
0.78,0.79,0.7348764206,0.002630325115,0.7511775517,0.00269090385
0.79,0.8,0.7929410506,0.002732309827,0.8163435921,0.002805160566
0.8,0.81,0.8818752937,0.002881311135,0.896761309,0.00294011412
0.81,0.82,0.987681498,0.003049237237,1.00398576,0.00311088008
0.82,0.83,1.119358669,0.003246208034,1.136634755,0.003310037411
0.83,0.84,1.25141484,0.003432315105,1.284656209,0.003518935272
0.84,0.85,1.413717174,0.003648061765,1.450450404,0.003739109397
0.85,0.86,1.601019576,0.003882200089,1.633314051,0.003967764863
0.86,0.87,1.828136372,0.004148427235,1.854610701,0.004228108937
0.87,0.88,2.078678142,0.004423567845,2.119776889,0.004520243403
0.88,0.89,2.378805203,0.004732123053,2.432076631,0.00484171733
0.89,0.9,2.753110483,0.00509082998,2.82158808,0.005215059662
0.9,0.91,3.220494573,0.005505974877,3.291257663,0.005632335477
0.91,0.92,3.830643593,0.006004950801,3.91495646,0.006142853219
0.92,0.93,4.626434248,0.006599235272,4.738886713,0.006758381253
0.93,0.94,5.709935114,0.007331344935,5.862934071,0.00751726085
0.94,0.95,7.022278396,0.008130225854,7.191565222,0.008325515246
0.95,0.96,8.521946508,0.008956332326,8.71281602,0.009163771509
0.96,0.97,10.74459317,0.01005678765,11.01886581,0.01030544468
0.97,0.98,15.64883493,0.01227523745,15.99807681,0.01256024262
0.98,0.99,32.44073046,0.01808877493,33.17677934,0.01850779945
0.99,1,311.553379,0.05414416499,318.9356602,0.0554330648
