# xl,xh,PS+NLOnovp,dPS+NLOnovp,PS+NLO,dPS+NLO
1,1.022831853,2584.159902,0.1010685081,2642.973343,0.1034316329
1.022831853,1.045663706,2383.145638,0.09725874119,2438.118401,0.09954658665
1.045663706,1.068495559,2201.667877,0.09365539161,2252.643206,0.09586203158
1.068495559,1.091327412,2037.316611,0.0902420207,2085.011793,0.09237952704
1.091327412,1.114159265,1888.30925,0.08701052499,1932.647542,0.08907317908
1.114159265,1.136991118,1752.83238,0.08394436153,1794.609046,0.08594928388
1.136991118,1.159822972,1629.962916,0.08104686073,1668.89505,0.08298552435
1.159822972,1.182654825,1517.741248,0.07829374661,1554.259135,0.0801724867
1.182654825,1.205486678,1415.726119,0.07569134908,1449.747401,0.07750683029
1.205486678,1.228318531,1322.285233,0.07321726426,1354.426547,0.074982457
1.228318531,1.251150384,1237.004189,0.07087419204,1267.301886,0.0725896781
1.251150384,1.273982237,1158.75693,0.06864685947,1187.278644,0.07031263109
1.273982237,1.29681409,1087.221067,0.06653826994,1113.9,0.06815047787
1.29681409,1.319645943,1021.375965,0.06453155684,1046.920423,0.06610982974
1.319645943,1.342477796,961.1258453,0.0626335975,985.0374339,0.06416109351
1.342477796,1.365309649,905.6675605,0.06083062018,928.1526609,0.06231297208
1.365309649,1.388141502,854.5416365,0.05911573638,875.7895106,0.06055709404
1.388141502,1.410973355,807.5508128,0.05749131725,827.676527,0.05889499152
1.410973355,1.433805208,764.1283503,0.05594436577,783.1843703,0.05731186426
1.433805208,1.456637061,723.8712988,0.05447100297,741.9689407,0.05580184696
1.456637061,1.479468915,686.8279998,0.0530754624,703.9885445,0.05437247198
1.479468915,1.502300768,652.3749076,0.05174271604,668.7629938,0.05301093076
1.502300768,1.525132621,620.623043,0.05048031808,636.1567179,0.05171567019
1.525132621,1.547964474,591.1499826,0.04927895331,605.9711147,0.05048633886
1.547964474,1.570796327,563.7843896,0.04813582344,577.8994423,0.04931428282
1.570796327,1.59362818,538.4462611,0.04705111355,551.6950225,0.04819272593
1.59362818,1.616460033,514.6001578,0.04600630515,527.5114384,0.0471335016
1.616460033,1.639291886,492.6555649,0.04502237093,504.7949412,0.04611566706
1.639291886,1.662123739,472.1422808,0.04408211884,483.762525,0.04515105763
1.662123739,1.684955592,452.8581563,0.04317877908,464.0901429,0.04423050941
1.684955592,1.707787445,435.0082521,0.04232474594,445.6626249,0.04334924558
1.707787445,1.730619298,418.201061,0.04150443553,428.3300195,0.04250374826
1.730619298,1.753451151,402.503624,0.04072285482,412.2683542,0.04170353123
1.753451151,1.776283004,387.7712154,0.03997487238,397.0925877,0.04093357936
1.776283004,1.799114858,373.9656006,0.03926070147,382.9022023,0.04019962697
1.799114858,1.821946711,360.9422058,0.03857433497,369.5206019,0.03949473904
1.821946711,1.844778564,348.696384,0.03791757634,356.8881748,0.0388165966
1.844778564,1.867610417,337.0953988,0.03728471905,345.0156556,0.03816906276
1.867610417,1.89044227,326.2752954,0.03668435545,333.788796,0.03754555738
1.89044227,1.913274123,315.9298539,0.03610044071,323.2269909,0.03694959589
1.913274123,1.936105976,306.1366063,0.03553917608,313.09559,0.03636813795
1.936105976,1.958937829,296.7379424,0.03499124416,303.5226389,0.03581002302
1.958937829,1.981769682,287.9027974,0.03446851378,294.404345,0.03527017375
1.981769682,2.004601535,279.4957622,0.03396362557,285.6973369,0.0347469912
2.004601535,2.027433388,271.355803,0.03346706224,277.4126735,0.03424138679
2.027433388,2.050265241,263.6887486,0.03299310267,269.5150498,0.03375210928
2.050265241,2.073097094,256.3138178,0.03252939388,261.8691536,0.03327175548
2.073097094,2.095928947,249.1775372,0.03207550026,254.5317596,0.0328037702
2.095928947,2.118760801,242.2555585,0.03162840178,247.4314766,0.03234438735
2.118760801,2.141592654,235.6993461,0.03119888499,240.6488308,0.03189957011
