# xl,xh,PS+NLOnovp,dPS+NLOnovp,PS+NLO,dPS+NLO
0,0.005,11761.40797,0.07170231575,11785.83194,0.0718830083
0.005,0.01,674.9580384,0.03161951033,676.3634164,0.03168975752
0.01,0.015,399.281399,0.02453180378,400.1410003,0.02458709827
0.015,0.02,284.0748309,0.02076653009,284.6745891,0.02081290077
0.02,0.025,220.1917742,0.01831922195,220.6625297,0.01836036114
0.025,0.03,179.3965624,0.01655618466,179.8629567,0.01659714168
0.03,0.035,151.1088499,0.01520815244,151.4824869,0.01524482052
0.035,0.04,130.2712701,0.01412973674,130.6074443,0.01416456266
0.04,0.045,114.2924259,0.01324132969,114.6222622,0.01327597457
0.045,0.05,101.6851163,0.01249451999,101.94891,0.01252540309
0.05,0.055,91.44268368,0.01185227607,91.71407559,0.01188377449
0.055,0.06,82.9589864,0.01129202698,83.21539144,0.01132272821
0.06,0.065,75.87025718,0.01080115688,76.11917673,0.0108315466
0.065,0.07,69.77891767,0.0103604258,70.0508215,0.01039275176
0.07,0.075,64.59568898,0.009969793392,64.80663035,0.009997771528
0.075,0.08,60.03179251,0.009612485421,60.2691776,0.009642758258
0.08,0.085,56.04569956,0.009289003904,56.2506211,0.009316881614
0.085,0.09,52.51389785,0.008992532928,52.72084433,0.009020796177
0.09,0.095,49.38354599,0.00872122749,49.56558484,0.0087475335
0.095,0.1,46.54617376,0.00846771325,46.74249437,0.008495497962
0.1,0.105,44.01063781,0.008234488822,44.19639865,0.008261521933
0.105,0.11,41.71388173,0.008017308498,41.89661203,0.008044267772
0.11,0.115,39.62970736,0.007814953378,39.81092654,0.007841981921
0.115,0.12,37.72704623,0.007625487389,37.9047116,0.007652379932
0.12,0.125,35.97625182,0.007446846269,36.15753997,0.007474333765
0.125,0.13,34.38231584,0.007280364804,34.542348,0.007305843518
0.13,0.135,32.89488322,0.007121467359,33.05238751,0.007146864842
0.135,0.14,31.5216017,0.006971522985,31.68374622,0.006997622805
0.14,0.145,30.25430088,0.006830207425,30.41801395,0.006856688838
0.145,0.15,29.0773341,0.006696274371,29.22398238,0.00672100952
0.15,0.155,27.97372016,0.006568189841,28.13028641,0.006594264429
0.155,0.16,26.95339,0.006447492016,27.10814447,0.006473552758
0.16,0.165,25.98903346,0.0063312865,26.13059457,0.006355948688
0.165,0.17,25.09927256,0.006222132678,25.23074087,0.006245721848
0.17,0.175,24.24163188,0.006115063881,24.38996998,0.006140933399
0.175,0.18,23.4533721,0.006014965789,23.60215663,0.006041086135
0.18,0.185,22.70383781,0.00591820617,22.84510067,0.005943547383
0.185,0.19,21.99605571,0.005825352949,22.1436604,0.005851715186
0.19,0.195,21.32441946,0.005735844217,21.47116414,0.005762290757
0.195,0.2,20.69383453,0.005650509219,20.82930335,0.005675618896
0.2,0.205,20.11009894,0.005570342968,20.24500312,0.005595546496
0.205,0.21,19.5410773,0.00549106555,19.65919985,0.005514094976
0.21,0.215,18.99469212,0.005413844173,19.12410272,0.005438622853
0.215,0.22,18.47151008,0.005338850477,18.61872814,0.005366363505
0.22,0.225,17.99290891,0.005269308047,18.11617742,0.005293525712
0.225,0.23,17.52574889,0.005200527324,17.65476349,0.005225751819
0.23,0.235,17.08032012,0.005134084322,17.21106437,0.005159737012
0.235,0.24,16.66524954,0.005071382833,16.78296102,0.005095228413
0.24,0.245,16.25615779,0.00500881362,16.38001348,0.005033751992
0.245,0.25,15.86782886,0.004948685294,15.98144947,0.004972193829
