# xl,xh,PS+NLOnovp,dPS+NLOnovp,PS+NLO,dPS+NLO
0.45,0.46,0.07562283842,0.0002416855776,0.07636192978,0.0002431490318
0.46,0.47,0.09596830195,0.0002722623171,0.09707188838,0.000274144934
0.47,0.48,0.1110312548,0.0002928504627,0.1128887729,0.0002956368484
0.48,0.49,0.1238935386,0.0003093479459,0.1256001074,0.0003118370999
0.49,0.5,0.1350202198,0.0003229401312,0.1367792769,0.0003254188008
0.5,0.51,0.1458093753,0.0003355946915,0.1480289489,0.0003385365763
0.51,0.52,0.1551772789,0.0003462072811,0.1569813975,0.0003486230484
0.52,0.53,0.1639233643,0.0003558298037,0.1648924934,0.0003572993256
0.53,0.54,0.1690105207,0.0003613088841,0.1721239236,0.0003650499449
0.54,0.55,0.1738512397,0.0003664464379,0.1759486078,0.0003690833407
0.55,0.56,0.1761854771,0.0003688982448,0.1778129312,0.0003710334877
0.56,0.57,0.1750871363,0.0003677466558,0.1776944814,0.000370909895
0.57,0.58,0.1704186454,0.0003628108746,0.1720797318,0.0003650030175
0.58,0.59,0.159137459,0.0003505970253,0.1613604889,0.0003534520597
0.59,0.6,0.1370231296,0.0003253265806,0.1390013465,0.0003280514514
0.6,0.61,0.09355680664,0.0002688198749,0.09500087437,0.0002712048702
0.61,0.62,0.06648045728,0.0002266059782,0.06724838992,0.0002281787418
0.62,0.63,0.04914278351,0.000194829526,0.04905160755,0.0001948774024
0.63,0.64,0.03555517909,0.0001657206794,0.03580136254,0.0001664887841
0.64,0.65,0.02495991946,0.0001388504013,0.02520906716,0.000139705625
0.65,0.66,0.01694608488,0.0001144090801,0.01703236798,0.0001148346872
0.66,0.67,0.01050180643,9.006543143e-05,0.0106155163,9.065802543e-05
0.67,0.68,0.005886596092,6.743076434e-05,0.006016569276,6.825119939e-05
0.68,0.69,0.00270887543,4.574262252e-05,0.002721427195,4.590224887e-05
0.69,0.7,0.0007175731591,2.354280965e-05,0.0007525551405,2.413821516e-05
0.7,0.71,3.089735481e-05,4.885300527e-06,3.483997607e-05,5.193636756e-06
0.71,0.72,0,0,0,0
0.72,0.73,0,0,0,0
0.73,0.74,0,0,0,0
0.74,0.75,0,0,0,0
0.75,0.76,0,0,0,0
0.76,0.77,0,0,0,0
0.77,0.78,0,0,0,0
0.78,0.79,0,0,0,0
0.79,0.8,0,0,0,0
0.8,0.81,0,0,0,0
0.81,0.82,0,0,0,0
0.82,0.83,0,0,0,0
0.83,0.84,0,0,0,0
0.84,0.85,0,0,0,0
0.85,0.86,0,0,0,0
0.86,0.87,0,0,0,0
0.87,0.88,0,0,0,0
0.88,0.89,0,0,0,0
0.89,0.9,0,0,0,0
0.9,0.91,0.00240221296,4.307558931e-05,0.00231496285,4.233585667e-05
0.91,0.92,0.3337626372,0.0005077339779,0.3357202848,0.0005098190341
0.92,0.93,0.8755877963,0.0008223428104,0.8824860147,0.0008265454579
0.93,0.94,0.8185616131,0.0007951155046,0.8245043446,0.0007989338471
0.94,0.95,0.002444702476,4.345493174e-05,0.00248761523,4.388617776e-05
0.95,0.96,0,0,0,0
0.96,0.97,0,0,0,0
0.97,0.98,0,0,0,0
0.98,0.99,0,0,0,0
0.99,1,0,0,0,0
