# xl,xh,PS+NLOnovp,dPS+NLOnovp,PS+NLO,dPS+NLO
0,1,77.20979001,0.0001869009168,77.39096801,0.0001872975662
1,2,77.24181958,0.0001863154209,77.42341462,0.0001867042629
2,3,0.9995853338,2.035913085e-07,0.99958092,2.046715245e-07
3,4,1e+10,0,1e+10,0
4,5,1e+10,0,1e+10,0
5,6,1000,0,1000,0
6,7,224610.3,0,241799.4,0
