# xl,xh,PS+NLOnovp,dPS+NLOnovp,PS+NLO,dPS+NLO
0,0.005,4308.613871,0.01729241159,104572.017,0.3925601009
0.005,0.01,133.0084138,0.007863460655,2871.664084,0.1785886717
0.01,0.015,72.21730758,0.005829988566,1481.27336,0.1290221752
0.015,0.02,47.2232857,0.004726227626,941.4884769,0.1030955484
0.02,0.025,33.80406989,0.004004088982,662.6743768,0.08659441146
0.025,0.03,25.73776671,0.003496666029,497.4408833,0.0750776445
0.03,0.035,20.43964807,0.003117702624,389.8381118,0.06649320544
0.035,0.04,16.7195837,0.002820795095,315.123057,0.05980130559
0.04,0.045,13.98523601,0.002580547433,260.8420473,0.05441989856
0.045,0.05,11.9075755,0.002381652218,219.7165925,0.04995452571
0.05,0.055,10.2788288,0.002213139529,187.6682311,0.04617392821
0.055,0.06,8.969606387,0.002067664977,162.4165174,0.0429598016
0.06,0.065,7.909954189,0.00194189694,141.8043372,0.04014479366
0.065,0.07,7.027389553,0.001830519149,124.9844112,0.03769144843
0.07,0.075,6.289022541,0.001731811784,110.9167123,0.03550903305
0.075,0.08,5.663305115,0.001643505164,99.14871183,0.03357416264
0.08,0.085,5.126235557,0.001563718373,89.01267556,0.03181309372
0.085,0.09,4.660656376,0.00149108662,80.30606997,0.03021829236
0.09,0.095,4.253567768,0.001424536416,72.81887941,0.02877605638
0.095,0.1,3.901781566,0.001364405671,66.32288192,0.02746329991
0.1,0.105,3.587286613,0.001308303904,60.58356251,0.02624876117
0.105,0.11,3.312853031,0.001257298812,55.5687531,0.02513945206
0.11,0.115,3.063431169,0.001209072187,51.02407145,0.0240899687
0.115,0.12,2.843648457,0.001164918662,47.07277925,0.02313879551
0.12,0.125,2.643409509,0.001123177763,43.47415219,0.02223708767
0.125,0.13,2.464561509,0.001084535597,40.22603474,0.02139054426
0.13,0.135,2.300492205,0.001047831468,37.38588993,0.02062183072
0.135,0.14,2.154424694,0.001014035182,34.7688883,0.01988719333
0.14,0.145,2.016585411,0.0009810736182,32.39547282,0.01919660947
0.145,0.15,1.892263945,0.0009503629738,30.19899274,0.01853457185
