# xl,xh,PS+NLOnovp,dPS+NLOnovp,PS+NLO,dPS+NLO
-0.64,-0.62,0.05589776436,8.168454095e-05,0.5522400974,0.001253345728
-0.62,-0.6,0.1829349385,0.0001477634434,1.982797626,0.002374847934
-0.6,-0.58,0.3674390841,0.0002094013719,4.474974839,0.003567580996
-0.58,-0.56,0.6756666426,0.0002839226056,9.547406647,0.005210562554
-0.56,-0.54,1.721370866,0.0004529920918,32.30564783,0.009581124223
-0.54,-0.52,16.20574483,0.00138189308,390.6896351,0.03311948093
-0.52,-0.5,17.45492888,0.00143344439,418.671351,0.03426881731
-0.5,-0.48,18.19089891,0.001462918951,434.5581922,0.03490357742
-0.48,-0.46,18.80672028,0.001487106382,447.8382508,0.03542493913
-0.46,-0.44,19.35041504,0.001508118721,459.8504114,0.03588960079
-0.44,-0.42,19.84529669,0.001526977294,470.789316,0.03630724515
-0.42,-0.4,20.2601773,0.001542597993,480.8314094,0.03668619217
-0.4,-0.38,20.65204994,0.001557198932,490.253738,0.03703799186
-0.38,-0.36,21.02479421,0.001570952635,499.2385771,0.0373701629
-0.36,-0.34,21.37569221,0.001583783509,507.7908551,0.03768343381
-0.34,-0.32,21.70821905,0.001595840674,515.8306577,0.03797540981
-0.32,-0.3,22.01926276,0.001607031107,523.5303375,0.03825279469
-0.3,-0.28,22.31759313,0.001617686099,530.6821613,0.03850852206
-0.28,-0.26,22.58854595,0.001627298362,537.4080434,0.03874736533
-0.26,-0.24,22.84546783,0.001636356771,543.630794,0.03896694002
-0.24,-0.22,23.08157432,0.001644633948,549.3588917,0.03916788991
-0.22,-0.2,23.29892099,0.001652213967,554.6138738,0.03935126994
-0.2,-0.18,23.4977027,0.001659113861,559.6619271,0.0395265655
-0.18,-0.16,23.67784631,0.001665340161,564.0641864,0.03967875391
-0.16,-0.14,23.83683734,0.001670814595,568.0189599,0.03981493717
-0.14,-0.12,23.97723081,0.001675632576,571.4862715,0.03993392174
-0.12,-0.1,24.09630889,0.001679707385,574.4095371,0.04003394031
-0.1,-0.08,24.19887869,0.001683208735,576.9917142,0.04012206436
-0.08,-0.06,24.28403741,0.001686109749,578.9812635,0.04018982072
-0.06,-0.04,24.34393018,0.00168814683,580.728609,0.0402492265
-0.04,-0.02,24.38883416,0.001689672359,581.9460606,0.04029056179
-0.02,-1.734723476e-17,24.41724579,0.001690636834,582.5441421,0.04031085101
0,0.02,24.42007458,0.001690732828,582.8164948,0.0403200863
0.02,0.04,24.40695951,0.001690287721,582.6354308,0.0403139468
0.04,0.06,24.37366358,0.00168915713,581.9462622,0.04029056858
0.06,0.08,24.32379857,0.001687462414,580.7917836,0.0402513729
0.08,0.1,24.25423053,0.001685094954,579.1054911,0.0401940475
0.1,0.12,24.16370118,0.001682008794,576.9948234,0.04012217045
0.12,0.14,24.053643,0.001678248603,574.5439544,0.04003853307
0.14,0.16,23.92485916,0.001673837055,571.5225019,0.03993516335
0.16,0.18,23.77708611,0.001668759491,568.0456556,0.03981585474
0.18,0.2,23.60694232,0.001662892521,564.0778773,0.03967922616
0.2,0.22,23.42375325,0.001656550628,559.6736034,0.03952697022
0.22,0.24,23.21753819,0.001649380116,554.8411172,0.03935917937
0.24,0.26,22.99297211,0.001641533087,549.4021246,0.03916940232
0.26,0.28,22.74644198,0.001632871771,543.6071467,0.03896610794
0.28,0.3,22.48179155,0.001623518472,537.2290463,0.03874102947
0.3,0.32,22.19641011,0.001613367114,530.5560935,0.03850403047
0.32,0.34,21.89469407,0.001602559573,523.1968938,0.0382408269
0.34,0.36,21.57201536,0.001590913877,515.5721539,0.03796605927
0.36,0.38,21.22918546,0.001578439946,507.3888175,0.03766876946
0.38,0.4,20.86615727,0.001565114963,498.674419,0.03734939882
0.4,0.42,20.48490956,0.001550989342,489.5543718,0.03701200247
0.42,0.44,20.07890431,0.001535793735,479.8891568,0.03665081316
0.44,0.46,19.60148885,0.001517717643,469.3394075,0.03625218232
0.46,0.48,19.07913194,0.001497673557,457.8954223,0.03581441347
0.48,0.5,18.50036708,0.001475126455,445.4207158,0.03533063716
0.5,0.52,17.82616315,0.001448391205,430.798267,0.03475445887
0.52,0.54,16.78337744,0.001405978833,407.5728626,0.03381788892
0.54,0.56,1.407176531,0.0004096206896,25.82486879,0.008567284707
0.56,0.58,0.5554118544,0.0002574317048,7.370507121,0.004578321877
0.58,0.6,0.3092013916,0.0001920956963,3.495168534,0.003152969166
0.6,0.62,0.1555468197,0.0001362554684,1.564040314,0.002109228274
0.62,0.64,0.04773768148,7.548724505e-05,0.433472256,0.001110423047
