# xl,xh,PS+NLOnovp,dPS+NLOnovp,PS+NLO,dPS+NLO
300,305,0,0,0,0
305,310,0,0,0,0
310,315,0,0,0,0
315,320,0,0,0,0
320,325,0,0,0,0
325,330,0,0,0,0
330,335,0,0,0,0
335,340,0,0,0,0
340,345,0,0,0,0
345,350,0,0,0,0
350,355,0,0,0,0
355,360,0,0,0,0
360,365,0,0,0,0
365,370,0,0,0,0
370,375,0,0,0,0
375,380,0,0,0,0
380,385,0,0,0,0
385,390,0,0,0,0
390,395,0,0,0,0
395,400,0,0,0,0
400,405,0,0,0,0
405,410,0,0,0,0
410,415,0,0,0,0
415,420,2.721697166e-08,3.6049758e-09,2.275500577e-08,1.609021819e-08
420,425,1.377927997e-05,8.111343571e-08,3.135892646e-05,5.973398718e-07
425,430,3.264664243e-05,1.248527045e-07,7.663366508e-05,9.337930538e-07
430,435,4.220495283e-05,1.419580466e-07,0.0001015183036,1.074763823e-06
435,440,4.789276916e-05,1.512213361e-07,0.0001169132568,1.15338052e-06
440,445,5.12972664e-05,1.565038991e-07,0.0001312613567,1.222106371e-06
445,450,5.500681692e-05,1.620637939e-07,0.00014385719,1.279399639e-06
450,455,5.929034249e-05,1.682556083e-07,0.0001608112322,1.352691904e-06
455,460,6.302812552e-05,1.734781141e-07,0.0001717117274,1.397785782e-06
460,465,6.751696509e-05,1.795493117e-07,0.0001915215663,1.476214473e-06
465,470,7.283757332e-05,1.864896556e-07,0.0002082250459,1.539242429e-06
470,475,7.801207982e-05,1.930001743e-07,0.0002302766562,1.618697452e-06
475,480,8.396014749e-05,2.00222643e-07,0.0002560374826,1.706838797e-06
480,485,9.010061023e-05,2.074150107e-07,0.0002813770197,1.789306827e-06
485,490,9.644208895e-05,2.145899236e-07,0.0003102895995,1.878988275e-06
490,495,0.000102871396,2.216271597e-07,0.0003425586689,1.974275679e-06
495,500,0.0001112445962,2.304702067e-07,0.0003799823821,2.079323349e-06
500,505,0.0001197887342,2.391569297e-07,0.0004246426376,2.198123023e-06
505,510,0.0001284135585,2.476167683e-07,0.0004693369462,2.310906779e-06
510,515,0.0001378959679,2.565960824e-07,0.0005273557875,2.449581709e-06
515,520,0.0001495403992,2.672101712e-07,0.0005857610081,2.581666331e-06
520,525,0.0001736305202,2.879292125e-07,0.0007766793247,2.972763509e-06
525,530,0.0002336256462,3.339876201e-07,0.001263175278,3.79114577e-06
530,535,0.0002690417462,3.584086216e-07,0.001541297795,4.187756514e-06
535,540,0.0002985407851,3.775453742e-07,0.001791577558,4.514976641e-06
540,545,0.0003315803265,3.978874273e-07,0.002103949443,4.892770001e-06
545,550,0.0003714418476,4.211235977e-07,0.00247239419,5.30390033e-06
550,555,0.0004176700824,4.465589968e-07,0.00291751802,5.761591565e-06
555,560,0.0004701820854,4.737977064e-07,0.003471714315,6.285019368e-06
560,565,0.0005332517236,5.045722081e-07,0.004119101316,6.845965787e-06
565,570,0.0006087227053,5.3909303e-07,0.004936775932,7.494689805e-06
570,575,0.0007003821877,5.782525142e-07,0.005979961989,8.248582734e-06
575,580,0.0008110997227,6.22275004e-07,0.007250897841,9.082883348e-06
580,585,0.0009465357905,6.722146034e-07,0.008864823201,1.004291854e-05
585,590,0.001116820923,7.301697362e-07,0.0109475286,1.116038497e-05
590,595,0.001336192222,7.986510794e-07,0.01364200689,1.245820302e-05
595,600,0.001624641726,8.806208715e-07,0.01717295748,1.397759439e-05
600,605,0.002017101956,9.811993051e-07,0.02213483813,1.586861842e-05
605,610,0.002595941877,1.113053127e-06,0.02927990399,1.82504188e-05
610,615,0.00363914566,1.31772023e-06,0.04151675499,2.173089323e-05
615,620,0.006185438197,1.71750819e-06,0.0693420538,2.808108682e-05
620,625,0.01119905836,2.30987252e-06,0.1242020533,3.757341823e-05
625,630,0.01864692741,2.978373399e-06,0.2086486619,4.868231959e-05
630,635,0.02069211035,3.136818958e-06,0.2442414951,5.266337978e-05
635,640,0.0228714023,3.297153642e-06,0.2852380251,5.690211919e-05
640,645,0.02547548798,3.478895137e-06,0.3362042851,6.176379689e-05
645,650,0.02864887501,3.68804698e-06,0.4003377623,6.737974425e-05
650,655,0.03259099517,3.932064516e-06,0.4821089113,7.391631512e-05
655,660,0.03716163652,4.196826292e-06,0.58123577,8.112672005e-05
660,665,0.04235128795,4.477974109e-06,0.6986995851,8.890363808e-05
665,670,0.04897143017,4.812069641e-06,0.8527169327,9.815140546e-05
670,675,0.05795886061,5.230330887e-06,1.065677511,0.0001096273532
675,680,0.07085003762,5.775330492e-06,1.377379617,0.0001244696995
680,685,0.0909959556,6.531846018e-06,1.872031211,0.0001448061378
685,690,0.1271764748,7.693702834e-06,2.771231421,0.0001755130421
690,695,0.2133812097,9.877956402e-06,4.928087489,0.0002318912143
695,700,2.542622724,2.453060235e-05,63.31320851,0.0005837162778
