# xl,xh,LO,dLO,YFSLO,dYFSLO
0.000000000000000000e+00,5.000000000000000000e+00,4.277501999999999867e-03,3.844259999999999951e-04,4.464211000000000047e-03,1.284210999999999926e-05
5.000000000000000000e+00,1.000000000000000000e+01,4.630763999999999887e-03,3.904350999999999915e-04,4.428009000000000112e-03,1.279295999999999991e-05
1.000000000000000000e+01,1.500000000000000000e+01,4.779443000000000406e-03,4.132081000000000122e-04,4.422396000000000313e-03,1.274713999999999973e-05
1.500000000000000000e+01,2.000000000000000000e+01,3.962984000000000125e-03,3.572696999999999787e-04,4.451675000000000423e-03,1.281333000000000019e-05
2.000000000000000000e+01,2.500000000000000000e+01,4.191437999999999588e-03,3.698118000000000022e-04,4.441971000000000287e-03,1.290284000000000062e-05
2.500000000000000000e+01,3.000000000000000000e+01,4.084092999999999578e-03,3.695548000000000214e-04,4.431565999999999630e-03,1.289904000000000076e-05
3.000000000000000000e+01,3.500000000000000000e+01,3.860867999999999939e-03,3.489295000000000005e-04,4.420671999999999623e-03,1.281563000000000015e-05
3.500000000000000000e+01,4.000000000000000000e+01,3.871257999999999817e-03,3.504385999999999959e-04,4.418375000000000427e-03,1.291267000000000050e-05
4.000000000000000000e+01,4.500000000000000000e+01,4.715305000000000364e-03,4.069432000000000106e-04,4.428894000000000060e-03,1.297403999999999920e-05
4.500000000000000000e+01,5.000000000000000000e+01,3.972304000000000286e-03,3.619159999999999955e-04,4.403638999999999991e-03,1.292679999999999963e-05
5.000000000000000000e+01,5.500000000000000000e+01,4.475195000000000388e-03,3.875031999999999934e-04,4.400835999999999984e-03,1.295742999999999937e-05
5.500000000000000000e+01,6.000000000000000000e+01,4.040512999999999917e-03,3.690958000000000043e-04,4.413290999999999742e-03,1.312456000000000026e-05
6.000000000000000000e+01,6.500000000000000000e+01,4.602778000000000078e-03,3.938856000000000020e-04,4.375696000000000099e-03,1.297638999999999927e-05
6.500000000000000000e+01,7.000000000000000000e+01,4.565371999999999833e-03,3.954537999999999847e-04,4.392257000000000106e-03,1.315949999999999996e-05
7.000000000000000000e+01,7.500000000000000000e+01,4.466646999999999805e-03,3.824418000000000218e-04,4.372123999999999802e-03,1.315563999999999929e-05
7.500000000000000000e+01,8.000000000000000000e+01,4.001906000000000387e-03,3.583236000000000060e-04,4.340608999999999613e-03,1.305845000000000031e-05
8.000000000000000000e+01,8.500000000000000000e+01,4.451425000000000173e-03,3.975598000000000218e-04,4.359837000000000087e-03,1.327609999999999983e-05
8.500000000000000000e+01,9.000000000000000000e+01,4.143164000000000395e-03,3.757667999999999816e-04,4.328493000000000097e-03,1.323552000000000029e-05
9.000000000000000000e+01,9.500000000000000000e+01,5.464440999999999569e-03,4.326649999999999919e-04,4.582624999999999893e-03,1.345773000000000032e-05
9.500000000000000000e+01,1.000000000000000000e+02,4.654046999999999698e-03,3.904242999999999950e-04,4.537354999999999861e-03,1.351764999999999923e-05
1.000000000000000000e+02,1.050000000000000000e+02,4.277841000000000109e-03,3.751418000000000070e-04,4.491204000000000376e-03,1.359150999999999923e-05
1.050000000000000000e+02,1.100000000000000000e+02,4.697749000000000195e-03,4.002532000000000052e-04,4.430812999999999592e-03,1.359870000000000077e-05
1.100000000000000000e+02,1.150000000000000000e+02,5.119173999999999773e-03,4.167528999999999787e-04,4.360829999999999568e-03,1.353460000000000082e-05
1.150000000000000000e+02,1.200000000000000000e+02,3.872591999999999788e-03,3.548493000000000112e-04,4.317139999999999693e-03,1.358734999999999960e-05
1.200000000000000000e+02,1.250000000000000000e+02,4.839023999999999930e-03,4.137311999999999869e-04,4.289987000000000314e-03,1.378170000000000054e-05
1.250000000000000000e+02,1.300000000000000000e+02,4.259699999999999945e-03,3.647697999999999783e-04,4.202143000000000198e-03,1.363720000000000049e-05
1.300000000000000000e+02,1.350000000000000000e+02,3.284182999999999981e-03,3.278870000000000135e-04,4.177741999999999914e-03,1.381625000000000007e-05
1.350000000000000000e+02,1.400000000000000000e+02,3.990791999999999951e-03,3.631363999999999881e-04,4.089671999999999925e-03,1.380153999999999932e-05
1.400000000000000000e+02,1.450000000000000000e+02,3.362309999999999865e-03,3.241682999999999978e-04,4.019331000000000119e-03,1.381224000000000076e-05
1.450000000000000000e+02,1.500000000000000000e+02,3.544104000000000178e-03,3.378473000000000001e-04,3.939255000000000013e-03,1.377702000000000011e-05
1.500000000000000000e+02,1.550000000000000000e+02,4.002903000000000364e-03,3.773294000000000062e-04,3.872962000000000193e-03,1.378952999999999941e-05
1.550000000000000000e+02,1.600000000000000000e+02,3.388012000000000142e-03,3.350207000000000228e-04,3.822667999999999986e-03,1.387043000000000062e-05
1.600000000000000000e+02,1.650000000000000000e+02,3.508091999999999981e-03,3.469990999999999961e-04,3.751153000000000126e-03,1.402435999999999967e-05
1.650000000000000000e+02,1.700000000000000000e+02,4.293151000000000259e-03,3.847716999999999739e-04,3.669958999999999982e-03,1.396845000000000007e-05
1.700000000000000000e+02,1.750000000000000000e+02,3.910074999999999835e-03,3.750946000000000119e-04,3.618702000000000116e-03,1.404375999999999986e-05
1.750000000000000000e+02,1.800000000000000000e+02,2.797936999999999907e-03,3.056018000000000189e-04,3.499487999999999818e-03,1.388029999999999990e-05
1.800000000000000000e+02,1.850000000000000000e+02,3.669330000000000161e-03,3.589986000000000088e-04,3.408695000000000214e-03,1.388968000000000048e-05
1.850000000000000000e+02,1.900000000000000000e+02,3.834909999999999968e-03,3.556491999999999965e-04,3.316173999999999858e-03,1.381449000000000061e-05
1.900000000000000000e+02,1.950000000000000000e+02,3.774995000000000173e-03,3.726696999999999736e-04,3.254879000000000019e-03,1.400536000000000036e-05
1.950000000000000000e+02,2.000000000000000000e+02,2.873984999999999908e-03,3.078506999999999967e-04,3.132508999999999901e-03,1.388704000000000045e-05
2.000000000000000000e+02,2.050000000000000000e+02,3.210142000000000030e-03,3.332984000000000207e-04,3.005799999999999878e-03,1.360916999999999967e-05
2.050000000000000000e+02,2.100000000000000000e+02,3.289789999999999902e-03,3.364352000000000141e-04,2.910511000000000174e-03,1.374324000000000024e-05
2.100000000000000000e+02,2.150000000000000000e+02,2.968444000000000204e-03,3.087529000000000098e-04,2.815016000000000046e-03,1.368791999999999955e-05
2.150000000000000000e+02,2.200000000000000000e+02,2.897054999999999943e-03,3.162457999999999936e-04,2.659061999999999797e-03,1.336280999999999920e-05
2.200000000000000000e+02,2.250000000000000000e+02,2.506794000000000123e-03,2.878097999999999833e-04,2.527600999999999980e-03,1.309865999999999937e-05
2.250000000000000000e+02,2.300000000000000000e+02,1.892791000000000005e-03,2.472538000000000145e-04,2.377724999999999804e-03,1.287729999999999951e-05
2.300000000000000000e+02,2.350000000000000000e+02,2.748466000000000190e-03,3.206684000000000010e-04,2.260872000000000142e-03,1.273003999999999950e-05
2.350000000000000000e+02,2.400000000000000000e+02,2.277386000000000167e-03,2.774388000000000245e-04,2.083375000000000157e-03,1.231445999999999932e-05
2.400000000000000000e+02,2.450000000000000000e+02,1.633125999999999935e-03,2.338619000000000114e-04,1.943885000000000014e-03,1.208013000000000016e-05
2.450000000000000000e+02,2.500000000000000000e+02,2.166630000000000118e-03,2.820189000000000181e-04,1.795376999999999910e-03,1.180286000000000070e-05
2.500000000000000000e+02,2.550000000000000000e+02,1.873866999999999981e-03,2.656917999999999758e-04,1.596371000000000075e-03,1.101853000000000003e-05
2.550000000000000000e+02,2.600000000000000000e+02,1.393502999999999929e-03,2.180136999999999960e-04,1.457582999999999926e-03,1.075639999999999920e-05
2.600000000000000000e+02,2.650000000000000000e+02,1.090159000000000050e-03,1.899765999999999998e-04,1.234971000000000072e-03,9.602149999999999198e-06
2.650000000000000000e+02,2.700000000000000000e+02,1.043461000000000085e-03,2.027067000000000018e-04,1.117184000000000016e-03,9.266124999999999311e-06
2.700000000000000000e+02,2.750000000000000000e+02,9.151759000000000413e-04,1.728548999999999906e-04,9.560789000000000527e-04,8.325796999999999256e-06
2.750000000000000000e+02,2.800000000000000000e+02,8.683522000000000376e-04,1.772668999999999883e-04,8.111038999999999576e-04,7.408012999999999778e-06
2.800000000000000000e+02,2.850000000000000000e+02,5.779694999999999624e-04,1.374093000000000059e-04,6.671357999999999629e-04,6.514766000000000197e-06
2.850000000000000000e+02,2.900000000000000000e+02,4.623501000000000238e-04,1.584675999999999869e-04,5.481044000000000237e-04,5.897782999999999840e-06
2.900000000000000000e+02,2.950000000000000000e+02,5.601755999999999836e-04,1.521527999999999910e-04,4.258436999999999899e-04,5.077645000000000070e-06
2.950000000000000000e+02,3.000000000000000000e+02,5.091324999999999844e-04,1.319179999999999929e-04,3.136821999999999831e-04,4.219005000000000105e-06
3.000000000000000000e+02,3.050000000000000000e+02,2.568099000000000228e-04,9.031758999999999664e-05,2.200469000000000090e-04,3.451184999999999891e-06
3.050000000000000000e+02,3.100000000000000000e+02,2.273545000000000134e-04,9.257354999999999393e-05,1.295784999999999927e-04,2.548966999999999799e-06
3.100000000000000000e+02,3.150000000000000000e+02,5.077077000000000315e-05,5.077077000000000315e-05,5.409552999999999942e-05,1.559661000000000059e-06
3.150000000000000000e+02,3.200000000000000000e+02,6.799377999999999802e-05,6.799377999999999802e-05,9.159735999999999879e-06,6.390819999999999783e-07
3.200000000000000000e+02,3.250000000000000000e+02,0.000000000000000000e+00,0.000000000000000000e+00,0.000000000000000000e+00,0.000000000000000000e+00
3.250000000000000000e+02,3.300000000000000000e+02,0.000000000000000000e+00,0.000000000000000000e+00,0.000000000000000000e+00,0.000000000000000000e+00
