# xl,xh,LO,dLO,NLO,dNLO,NLOISC,dNLOISC,NLOL,dNLOL,NLOnovp,dNLOnovp,NNLO,dNNLO,NNLOL,dNNLOL,NNLOnovp,dNNLOnovp
4.500000000000001776e-01,4.599999999999999645e-01,0.000000000000000000e+00,0.000000000000000000e+00,0.000000000000000000e+00,0.000000000000000000e+00,0.000000000000000000e+00,0.000000000000000000e+00,0.000000000000000000e+00,0.000000000000000000e+00,0.000000000000000000e+00,0.000000000000000000e+00,4.707622667401570871e-01,1.018729352508481248e-02,4.707622667401570871e-01,1.018729352508481248e-02,4.707622667401570871e-01,1.018729352508481248e-02
4.600000000000000755e-01,4.699999999999998623e-01,0.000000000000000000e+00,0.000000000000000000e+00,0.000000000000000000e+00,0.000000000000000000e+00,0.000000000000000000e+00,0.000000000000000000e+00,0.000000000000000000e+00,0.000000000000000000e+00,0.000000000000000000e+00,0.000000000000000000e+00,5.299095009698510106e-01,1.086837102915590679e-02,5.299095009698510106e-01,1.086837102915590679e-02,5.299095009698510106e-01,1.086837102915590679e-02
4.700000000000000844e-01,4.799999999999998712e-01,0.000000000000000000e+00,0.000000000000000000e+00,0.000000000000000000e+00,0.000000000000000000e+00,0.000000000000000000e+00,0.000000000000000000e+00,0.000000000000000000e+00,0.000000000000000000e+00,0.000000000000000000e+00,0.000000000000000000e+00,6.020719971094400380e-01,1.189677052242285073e-02,6.020719971094400380e-01,1.189677052242285073e-02,6.020719971094400380e-01,1.189677052242285073e-02
4.800000000000000933e-01,4.899999999999998801e-01,0.000000000000000000e+00,0.000000000000000000e+00,0.000000000000000000e+00,0.000000000000000000e+00,0.000000000000000000e+00,0.000000000000000000e+00,0.000000000000000000e+00,0.000000000000000000e+00,0.000000000000000000e+00,0.000000000000000000e+00,6.763747628611567198e-01,1.937373592091524294e-02,6.763747628611567198e-01,1.937373592091524294e-02,6.763747628611567198e-01,1.937373592091524294e-02
4.900000000000001021e-01,4.999999999999998890e-01,0.000000000000000000e+00,0.000000000000000000e+00,0.000000000000000000e+00,0.000000000000000000e+00,0.000000000000000000e+00,0.000000000000000000e+00,0.000000000000000000e+00,0.000000000000000000e+00,0.000000000000000000e+00,0.000000000000000000e+00,7.386302996116036468e-01,1.763571082291387135e-02,7.386302996116036468e-01,1.763571082291387135e-02,7.386302996116036468e-01,1.763571082291387135e-02
5.000000000000000000e-01,5.099999999999997868e-01,0.000000000000000000e+00,0.000000000000000000e+00,0.000000000000000000e+00,0.000000000000000000e+00,0.000000000000000000e+00,0.000000000000000000e+00,0.000000000000000000e+00,0.000000000000000000e+00,0.000000000000000000e+00,0.000000000000000000e+00,7.770673762410190699e-01,1.687894182595307824e-02,7.770673762410190699e-01,1.687894182595307824e-02,7.770673762410190699e-01,1.687894182595307824e-02
5.100000000000000089e-01,5.199999999999997957e-01,0.000000000000000000e+00,0.000000000000000000e+00,0.000000000000000000e+00,0.000000000000000000e+00,0.000000000000000000e+00,0.000000000000000000e+00,0.000000000000000000e+00,0.000000000000000000e+00,0.000000000000000000e+00,0.000000000000000000e+00,8.228245284205197851e-01,1.228240892673510692e-02,8.228245284205197851e-01,1.228240892673510692e-02,8.228245284205197851e-01,1.228240892673510692e-02
5.200000000000001288e-01,5.299999999999999156e-01,0.000000000000000000e+00,0.000000000000000000e+00,0.000000000000000000e+00,0.000000000000000000e+00,0.000000000000000000e+00,0.000000000000000000e+00,0.000000000000000000e+00,0.000000000000000000e+00,0.000000000000000000e+00,0.000000000000000000e+00,8.692214602254911826e-01,1.851237470860157483e-02,8.692214602254911826e-01,1.851237470860157483e-02,8.692214602254911826e-01,1.851237470860157483e-02
5.300000000000000266e-01,5.399999999999998135e-01,0.000000000000000000e+00,0.000000000000000000e+00,0.000000000000000000e+00,0.000000000000000000e+00,0.000000000000000000e+00,0.000000000000000000e+00,0.000000000000000000e+00,0.000000000000000000e+00,0.000000000000000000e+00,0.000000000000000000e+00,9.185760157261415593e-01,1.843321231630258919e-02,9.185760157261415593e-01,1.843321231630258919e-02,9.185760157261415593e-01,1.843321231630258919e-02
5.400000000000000355e-01,5.499999999999998224e-01,0.000000000000000000e+00,0.000000000000000000e+00,0.000000000000000000e+00,0.000000000000000000e+00,0.000000000000000000e+00,0.000000000000000000e+00,0.000000000000000000e+00,0.000000000000000000e+00,0.000000000000000000e+00,0.000000000000000000e+00,9.367088212623845278e-01,1.744961211533855444e-02,9.367088212623845278e-01,1.744961211533855444e-02,9.367088212623845278e-01,1.744961211533855444e-02
5.500000000000000444e-01,5.599999999999998312e-01,0.000000000000000000e+00,0.000000000000000000e+00,0.000000000000000000e+00,0.000000000000000000e+00,0.000000000000000000e+00,0.000000000000000000e+00,0.000000000000000000e+00,0.000000000000000000e+00,0.000000000000000000e+00,0.000000000000000000e+00,9.164003945020924302e-01,9.425092279222014799e-03,9.164003945020924302e-01,9.425092279222014799e-03,9.164003945020924302e-01,9.425092279222014799e-03
5.600000000000001643e-01,5.699999999999999512e-01,0.000000000000000000e+00,0.000000000000000000e+00,0.000000000000000000e+00,0.000000000000000000e+00,0.000000000000000000e+00,0.000000000000000000e+00,0.000000000000000000e+00,0.000000000000000000e+00,0.000000000000000000e+00,0.000000000000000000e+00,9.329911525788705529e-01,1.482091410466458876e-02,9.329911525788705529e-01,1.482091410466458876e-02,9.329911525788705529e-01,1.482091410466458876e-02
5.700000000000000622e-01,5.799999999999998490e-01,0.000000000000000000e+00,0.000000000000000000e+00,0.000000000000000000e+00,0.000000000000000000e+00,0.000000000000000000e+00,0.000000000000000000e+00,0.000000000000000000e+00,0.000000000000000000e+00,0.000000000000000000e+00,0.000000000000000000e+00,8.750896050809096050e-01,7.620608028336468658e-03,8.750896050809096050e-01,7.620608028336468658e-03,8.750896050809096050e-01,7.620608028336468658e-03
5.800000000000001821e-01,5.899999999999999689e-01,0.000000000000000000e+00,0.000000000000000000e+00,0.000000000000000000e+00,0.000000000000000000e+00,0.000000000000000000e+00,0.000000000000000000e+00,0.000000000000000000e+00,0.000000000000000000e+00,0.000000000000000000e+00,0.000000000000000000e+00,8.526768722305991810e-01,8.881227318347036451e-03,8.526768722305991810e-01,8.881227318347036451e-03,8.526768722305991810e-01,8.881227318347036451e-03
5.900000000000000799e-01,5.999999999999998668e-01,0.000000000000000000e+00,0.000000000000000000e+00,0.000000000000000000e+00,0.000000000000000000e+00,0.000000000000000000e+00,0.000000000000000000e+00,0.000000000000000000e+00,0.000000000000000000e+00,0.000000000000000000e+00,0.000000000000000000e+00,8.109986046081034683e-01,8.833614302480871996e-03,8.109986046081034683e-01,8.833614302480871996e-03,8.109986046081034683e-01,8.833614302480871996e-03
6.000000000000001998e-01,6.099999999999999867e-01,0.000000000000000000e+00,0.000000000000000000e+00,0.000000000000000000e+00,0.000000000000000000e+00,0.000000000000000000e+00,0.000000000000000000e+00,0.000000000000000000e+00,0.000000000000000000e+00,0.000000000000000000e+00,0.000000000000000000e+00,7.278243841468385877e-01,7.483271543277368945e-03,7.278243841468385877e-01,7.483271543277368945e-03,7.278243841468385877e-01,7.483271543277368945e-03
6.100000000000000977e-01,6.199999999999998845e-01,0.000000000000000000e+00,0.000000000000000000e+00,0.000000000000000000e+00,0.000000000000000000e+00,0.000000000000000000e+00,0.000000000000000000e+00,0.000000000000000000e+00,0.000000000000000000e+00,0.000000000000000000e+00,0.000000000000000000e+00,6.746601886517393787e-01,7.052443750490674200e-03,6.746601886517393787e-01,7.052443750490674200e-03,6.746601886517393787e-01,7.052443750490674200e-03
6.199999999999999956e-01,6.299999999999997824e-01,0.000000000000000000e+00,0.000000000000000000e+00,0.000000000000000000e+00,0.000000000000000000e+00,0.000000000000000000e+00,0.000000000000000000e+00,0.000000000000000000e+00,0.000000000000000000e+00,0.000000000000000000e+00,0.000000000000000000e+00,6.214495641987677343e-01,6.981140579138714677e-03,6.214495641987677343e-01,6.981140579138714677e-03,6.214495641987677343e-01,6.981140579138714677e-03
6.300000000000001155e-01,6.399999999999999023e-01,0.000000000000000000e+00,0.000000000000000000e+00,0.000000000000000000e+00,0.000000000000000000e+00,0.000000000000000000e+00,0.000000000000000000e+00,0.000000000000000000e+00,0.000000000000000000e+00,0.000000000000000000e+00,0.000000000000000000e+00,5.712715618800325856e-01,7.158430815872099395e-03,5.712715618800325856e-01,7.158430815872099395e-03,5.712715618800325856e-01,7.158430815872099395e-03
6.400000000000000133e-01,6.499999999999998002e-01,0.000000000000000000e+00,0.000000000000000000e+00,0.000000000000000000e+00,0.000000000000000000e+00,0.000000000000000000e+00,0.000000000000000000e+00,0.000000000000000000e+00,0.000000000000000000e+00,0.000000000000000000e+00,0.000000000000000000e+00,5.389210620899085313e-01,5.592130886055672254e-03,5.389210620899085313e-01,5.592130886055672254e-03,5.389210620899085313e-01,5.592130886055672254e-03
6.500000000000000222e-01,6.599999999999998090e-01,0.000000000000000000e+00,0.000000000000000000e+00,0.000000000000000000e+00,0.000000000000000000e+00,0.000000000000000000e+00,0.000000000000000000e+00,0.000000000000000000e+00,0.000000000000000000e+00,0.000000000000000000e+00,0.000000000000000000e+00,5.274641992544663038e-01,6.220739319560384534e-03,5.274641992544663038e-01,6.220739319560384534e-03,5.274641992544663038e-01,6.220739319560384534e-03
6.600000000000000311e-01,6.699999999999998179e-01,0.000000000000000000e+00,0.000000000000000000e+00,0.000000000000000000e+00,0.000000000000000000e+00,0.000000000000000000e+00,0.000000000000000000e+00,0.000000000000000000e+00,0.000000000000000000e+00,0.000000000000000000e+00,0.000000000000000000e+00,4.830874124993825847e-01,5.234799230750430098e-03,4.830874124993825847e-01,5.234799230750430098e-03,4.830874124993825847e-01,5.234799230750430098e-03
6.700000000000001510e-01,6.799999999999999378e-01,0.000000000000000000e+00,0.000000000000000000e+00,0.000000000000000000e+00,0.000000000000000000e+00,0.000000000000000000e+00,0.000000000000000000e+00,0.000000000000000000e+00,0.000000000000000000e+00,0.000000000000000000e+00,0.000000000000000000e+00,4.719670434455912611e-01,5.509026433466022825e-03,4.719670434455912611e-01,5.509026433466022825e-03,4.719670434455912611e-01,5.509026433466022825e-03
6.800000000000000488e-01,6.899999999999998357e-01,0.000000000000000000e+00,0.000000000000000000e+00,0.000000000000000000e+00,0.000000000000000000e+00,0.000000000000000000e+00,0.000000000000000000e+00,0.000000000000000000e+00,0.000000000000000000e+00,0.000000000000000000e+00,0.000000000000000000e+00,4.547984094456131721e-01,4.904342388303797873e-03,4.547984094456131721e-01,4.904342388303797873e-03,4.547984094456131721e-01,4.904342388303797873e-03
6.900000000000000577e-01,6.999999999999998446e-01,0.000000000000000000e+00,0.000000000000000000e+00,0.000000000000000000e+00,0.000000000000000000e+00,0.000000000000000000e+00,0.000000000000000000e+00,0.000000000000000000e+00,0.000000000000000000e+00,0.000000000000000000e+00,0.000000000000000000e+00,4.577006907461452778e-01,4.808176108072780702e-03,4.577006907461452778e-01,4.808176108072780702e-03,4.577006907461452778e-01,4.808176108072780702e-03
7.000000000000000666e-01,7.099999999999998535e-01,0.000000000000000000e+00,0.000000000000000000e+00,0.000000000000000000e+00,0.000000000000000000e+00,0.000000000000000000e+00,0.000000000000000000e+00,0.000000000000000000e+00,0.000000000000000000e+00,0.000000000000000000e+00,0.000000000000000000e+00,4.676871100533564474e-01,4.371394667158710889e-03,4.676871100533564474e-01,4.371394667158710889e-03,4.676871100533564474e-01,4.371394667158710889e-03
7.100000000000001865e-01,7.199999999999999734e-01,0.000000000000000000e+00,0.000000000000000000e+00,0.000000000000000000e+00,0.000000000000000000e+00,0.000000000000000000e+00,0.000000000000000000e+00,0.000000000000000000e+00,0.000000000000000000e+00,0.000000000000000000e+00,0.000000000000000000e+00,4.796451176890066392e-01,5.395656274565451514e-03,4.796451176890066392e-01,5.395656274565451514e-03,4.796451176890066392e-01,5.395656274565451514e-03
7.200000000000000844e-01,7.299999999999998712e-01,0.000000000000000000e+00,0.000000000000000000e+00,0.000000000000000000e+00,0.000000000000000000e+00,0.000000000000000000e+00,0.000000000000000000e+00,0.000000000000000000e+00,0.000000000000000000e+00,0.000000000000000000e+00,0.000000000000000000e+00,4.926551290900211821e-01,4.780354163967328977e-03,4.926551290900211821e-01,4.780354163967328977e-03,4.926551290900211821e-01,4.780354163967328977e-03
7.300000000000000933e-01,7.399999999999998801e-01,0.000000000000000000e+00,0.000000000000000000e+00,0.000000000000000000e+00,0.000000000000000000e+00,0.000000000000000000e+00,0.000000000000000000e+00,0.000000000000000000e+00,0.000000000000000000e+00,0.000000000000000000e+00,0.000000000000000000e+00,5.176312921045302939e-01,4.369951225649229727e-03,5.176312921045302939e-01,4.369951225649229727e-03,5.176312921045302939e-01,4.369951225649229727e-03
7.400000000000001021e-01,7.499999999999998890e-01,0.000000000000000000e+00,0.000000000000000000e+00,0.000000000000000000e+00,0.000000000000000000e+00,0.000000000000000000e+00,0.000000000000000000e+00,0.000000000000000000e+00,0.000000000000000000e+00,0.000000000000000000e+00,0.000000000000000000e+00,5.403818959414965484e-01,4.717804736539163782e-03,5.403818959414965484e-01,4.717804736539163782e-03,5.403818959414965484e-01,4.717804736539163782e-03
7.500000000000000000e-01,7.599999999999997868e-01,0.000000000000000000e+00,0.000000000000000000e+00,0.000000000000000000e+00,0.000000000000000000e+00,0.000000000000000000e+00,0.000000000000000000e+00,0.000000000000000000e+00,0.000000000000000000e+00,0.000000000000000000e+00,0.000000000000000000e+00,5.752850097002202290e-01,4.585837477776980899e-03,5.752850097002202290e-01,4.585837477776980899e-03,5.752850097002202290e-01,4.585837477776980899e-03
7.600000000000000089e-01,7.699999999999997957e-01,0.000000000000000000e+00,0.000000000000000000e+00,0.000000000000000000e+00,0.000000000000000000e+00,0.000000000000000000e+00,0.000000000000000000e+00,0.000000000000000000e+00,0.000000000000000000e+00,0.000000000000000000e+00,0.000000000000000000e+00,6.069883184320769010e-01,4.432286115608340300e-03,6.069883184320769010e-01,4.432286115608340300e-03,6.069883184320769010e-01,4.432286115608340300e-03
7.700000000000001288e-01,7.799999999999999156e-01,0.000000000000000000e+00,0.000000000000000000e+00,0.000000000000000000e+00,0.000000000000000000e+00,0.000000000000000000e+00,0.000000000000000000e+00,0.000000000000000000e+00,0.000000000000000000e+00,0.000000000000000000e+00,0.000000000000000000e+00,6.493240191867701849e-01,4.689698996332466140e-03,6.493240191867701849e-01,4.689698996332466140e-03,6.493240191867701849e-01,4.689698996332466140e-03
7.800000000000001377e-01,7.899999999999999245e-01,0.000000000000000000e+00,0.000000000000000000e+00,0.000000000000000000e+00,0.000000000000000000e+00,0.000000000000000000e+00,0.000000000000000000e+00,0.000000000000000000e+00,0.000000000000000000e+00,0.000000000000000000e+00,0.000000000000000000e+00,6.983531260264616014e-01,5.467801544284064431e-03,6.983531260264616014e-01,5.467801544284064431e-03,6.983531260264616014e-01,5.467801544284064431e-03
7.900000000000000355e-01,7.999999999999998224e-01,0.000000000000000000e+00,0.000000000000000000e+00,0.000000000000000000e+00,0.000000000000000000e+00,0.000000000000000000e+00,0.000000000000000000e+00,0.000000000000000000e+00,0.000000000000000000e+00,0.000000000000000000e+00,0.000000000000000000e+00,7.640258886543132011e-01,5.757672490349018471e-03,7.640258886543132011e-01,5.757672490349018471e-03,7.640258886543132011e-01,5.757672490349018471e-03
8.000000000000000444e-01,8.099999999999998312e-01,0.000000000000000000e+00,0.000000000000000000e+00,0.000000000000000000e+00,0.000000000000000000e+00,0.000000000000000000e+00,0.000000000000000000e+00,0.000000000000000000e+00,0.000000000000000000e+00,0.000000000000000000e+00,0.000000000000000000e+00,8.353710626665968864e-01,5.532509424689222716e-03,8.353710626665968864e-01,5.532509424689222716e-03,8.353710626665968864e-01,5.532509424689222716e-03
8.100000000000001643e-01,8.199999999999999512e-01,0.000000000000000000e+00,0.000000000000000000e+00,0.000000000000000000e+00,0.000000000000000000e+00,0.000000000000000000e+00,0.000000000000000000e+00,0.000000000000000000e+00,0.000000000000000000e+00,0.000000000000000000e+00,0.000000000000000000e+00,9.529832435828128334e-01,7.647865967724296749e-03,9.529832435828128334e-01,7.647865967724296749e-03,9.529832435828128334e-01,7.647865967724296749e-03
8.200000000000000622e-01,8.299999999999998490e-01,0.000000000000000000e+00,0.000000000000000000e+00,0.000000000000000000e+00,0.000000000000000000e+00,0.000000000000000000e+00,0.000000000000000000e+00,0.000000000000000000e+00,0.000000000000000000e+00,0.000000000000000000e+00,0.000000000000000000e+00,1.099608288559134506e+00,9.071143706278950516e-03,1.099608288559134506e+00,9.071143706278950516e-03,1.099608288559134506e+00,9.071143706278950516e-03
8.300000000000000711e-01,8.399999999999998579e-01,0.000000000000000000e+00,0.000000000000000000e+00,0.000000000000000000e+00,0.000000000000000000e+00,0.000000000000000000e+00,0.000000000000000000e+00,0.000000000000000000e+00,0.000000000000000000e+00,0.000000000000000000e+00,0.000000000000000000e+00,1.236968532087456829e+00,9.737936414498890927e-03,1.236968532087456829e+00,9.737936414498890927e-03,1.236968532087456829e+00,9.737936414498890927e-03
8.400000000000001910e-01,8.499999999999999778e-01,0.000000000000000000e+00,0.000000000000000000e+00,0.000000000000000000e+00,0.000000000000000000e+00,0.000000000000000000e+00,0.000000000000000000e+00,0.000000000000000000e+00,0.000000000000000000e+00,0.000000000000000000e+00,0.000000000000000000e+00,1.431635740255289502e+00,1.358441176904804162e-02,1.431635740255289502e+00,1.358441176904804162e-02,1.431635740255289502e+00,1.358441176904804162e-02
8.500000000000001998e-01,8.599999999999999867e-01,0.000000000000000000e+00,0.000000000000000000e+00,0.000000000000000000e+00,0.000000000000000000e+00,0.000000000000000000e+00,0.000000000000000000e+00,0.000000000000000000e+00,0.000000000000000000e+00,0.000000000000000000e+00,0.000000000000000000e+00,1.663115868577070167e+00,2.244411518071537381e-02,1.663115868577070167e+00,2.244411518071537381e-02,1.663115868577070167e+00,2.244411518071537381e-02
8.600000000000000977e-01,8.699999999999998845e-01,0.000000000000000000e+00,0.000000000000000000e+00,0.000000000000000000e+00,0.000000000000000000e+00,0.000000000000000000e+00,0.000000000000000000e+00,0.000000000000000000e+00,0.000000000000000000e+00,0.000000000000000000e+00,0.000000000000000000e+00,1.874196646866703064e+00,2.292139900425078577e-02,1.874196646866703064e+00,2.292139900425078577e-02,1.874196646866703064e+00,2.292139900425078577e-02
8.699999999999998845e-01,8.799999999999996714e-01,0.000000000000000000e+00,0.000000000000000000e+00,0.000000000000000000e+00,0.000000000000000000e+00,0.000000000000000000e+00,0.000000000000000000e+00,0.000000000000000000e+00,0.000000000000000000e+00,0.000000000000000000e+00,0.000000000000000000e+00,2.128473780814808869e+00,1.536263205057753975e-02,2.128473780814808869e+00,1.536263205057753975e-02,2.128473780814808869e+00,1.536263205057753975e-02
8.800000000000001155e-01,8.899999999999999023e-01,0.000000000000000000e+00,0.000000000000000000e+00,0.000000000000000000e+00,0.000000000000000000e+00,0.000000000000000000e+00,0.000000000000000000e+00,0.000000000000000000e+00,0.000000000000000000e+00,0.000000000000000000e+00,0.000000000000000000e+00,2.461694549240230678e+00,1.472730093434485021e-02,2.461694549240230678e+00,1.472730093434485021e-02,2.461694549240230678e+00,1.472730093434485021e-02
8.900000000000000133e-01,8.999999999999998002e-01,0.000000000000000000e+00,0.000000000000000000e+00,0.000000000000000000e+00,0.000000000000000000e+00,0.000000000000000000e+00,0.000000000000000000e+00,0.000000000000000000e+00,0.000000000000000000e+00,0.000000000000000000e+00,0.000000000000000000e+00,2.893237637311006694e+00,1.808237506788867160e-02,2.893237637311006694e+00,1.808237506788867160e-02,2.893237637311006694e+00,1.808237506788867160e-02
9.000000000000000222e-01,9.099999999999998090e-01,0.000000000000000000e+00,0.000000000000000000e+00,0.000000000000000000e+00,0.000000000000000000e+00,0.000000000000000000e+00,0.000000000000000000e+00,0.000000000000000000e+00,0.000000000000000000e+00,0.000000000000000000e+00,0.000000000000000000e+00,3.395753423995969467e+00,1.885539817269967985e-02,3.395753423995969467e+00,1.885539817269967985e-02,3.395753423995969467e+00,1.885539817269967985e-02
9.099999999999999201e-01,9.199999999999997069e-01,0.000000000000000000e+00,0.000000000000000000e+00,0.000000000000000000e+00,0.000000000000000000e+00,0.000000000000000000e+00,0.000000000000000000e+00,0.000000000000000000e+00,0.000000000000000000e+00,0.000000000000000000e+00,0.000000000000000000e+00,4.127887858336726445e+00,2.387337972291966176e-02,4.127887858336726445e+00,2.387337972291966176e-02,4.127887858336726445e+00,2.387337972291966176e-02
9.200000000000001510e-01,9.299999999999999378e-01,0.000000000000000000e+00,0.000000000000000000e+00,0.000000000000000000e+00,0.000000000000000000e+00,0.000000000000000000e+00,0.000000000000000000e+00,0.000000000000000000e+00,0.000000000000000000e+00,0.000000000000000000e+00,0.000000000000000000e+00,5.056575228517340648e+00,2.525487135691625168e-02,5.056575228517340648e+00,2.525487135691625168e-02,5.056575228517340648e+00,2.525487135691625168e-02
9.300000000000002709e-01,9.400000000000000577e-01,0.000000000000000000e+00,0.000000000000000000e+00,0.000000000000000000e+00,0.000000000000000000e+00,0.000000000000000000e+00,0.000000000000000000e+00,0.000000000000000000e+00,0.000000000000000000e+00,0.000000000000000000e+00,0.000000000000000000e+00,6.417850846403864828e+00,3.043969503106461541e-02,6.417850846403864828e+00,3.043969503106461541e-02,6.417850846403864828e+00,3.043969503106461541e-02
9.400000000000000577e-01,9.499999999999998446e-01,0.000000000000000000e+00,0.000000000000000000e+00,0.000000000000000000e+00,0.000000000000000000e+00,0.000000000000000000e+00,0.000000000000000000e+00,0.000000000000000000e+00,0.000000000000000000e+00,0.000000000000000000e+00,0.000000000000000000e+00,8.278564531778835445e+00,3.813677564764195171e-02,8.278564531778835445e+00,3.813677564764195171e-02,8.278564531778835445e+00,3.813677564764195171e-02
9.500000000000001776e-01,9.599999999999999645e-01,0.000000000000000000e+00,0.000000000000000000e+00,0.000000000000000000e+00,0.000000000000000000e+00,0.000000000000000000e+00,0.000000000000000000e+00,0.000000000000000000e+00,0.000000000000000000e+00,0.000000000000000000e+00,0.000000000000000000e+00,1.035381350114264976e+01,4.060253251791547807e-02,1.035381350114264976e+01,4.060253251791547807e-02,1.035381350114264976e+01,4.060253251791547807e-02
9.600000000000001865e-01,9.699999999999999734e-01,0.000000000000000000e+00,0.000000000000000000e+00,3.575606232408407975e-05,7.613713983012500569e-06,3.575606232408407975e-05,7.613713983012500569e-06,3.575606232408407975e-05,7.613713983012500569e-06,3.575606232408407975e-05,7.613713983012500569e-06,1.381384510017345235e+01,5.481957739202542729e-02,1.381384501155894995e+01,5.481957739202201335e-02,1.381384440905257271e+01,5.481957739179662420e-02
9.700000000000000844e-01,9.799999999999998712e-01,0.000000000000000000e+00,0.000000000000000000e+00,1.539524687938063519e+00,2.162568970444837899e-03,1.539524687938063519e+00,2.162568970444837899e-03,1.539524687938063519e+00,2.162568970444837899e-03,1.539524687938063519e+00,2.162568970444837899e-03,2.154816834941146553e+01,7.423684708664296528e-02,2.154370496274963642e+01,7.423684676067944521e-02,2.151320936378164106e+01,7.423683240014113116e-02
9.800000000000000933e-01,9.899999999999998801e-01,0.000000000000000000e+00,0.000000000000000000e+00,1.673588101447949228e+01,6.875650135612631879e-03,1.673588101447949228e+01,6.875650135612631879e-03,1.673588101447949228e+01,6.875650135612631879e-03,1.673588101447949228e+01,6.875650135612631879e-03,4.534347173859443103e+01,1.413060230357326419e-01,4.529356038883562974e+01,1.413060215768957573e-01,4.495945906758143451e+01,1.413059611292516726e-01
9.899999999999999911e-01,9.999999999999997780e-01,0.000000000000000000e+00,0.000000000000000000e+00,4.274405948784201428e+02,2.403872239639685479e-02,4.274405948784201428e+02,2.403872239639685479e-02,4.274405948784201428e+02,2.403872239639685479e-02,4.274405948784201428e+02,2.403872239639685479e-02,2.990456357207092992e+02,4.701840763744916107e-01,2.977029711322491607e+02,4.701840679030336312e-01,2.890190504546427519e+02,4.701838406373803902e-01
