# xl,xh,LO,dLO,NLO,dNLO,NLOISC,dNLOISC,NLOL,dNLOL,NLOnovp,dNLOnovp,NNLO,dNNLO,NNLOL,dNNLOL,NNLOnovp,dNNLOnovp
4.500000000000001776e-01,4.599999999999999645e-01,0.000000000000000000e+00,0.000000000000000000e+00,2.264538201991886268e+01,1.265263547926579434e-02,2.264538201991886268e+01,1.265263547926579434e-02,2.264538201991886268e+01,1.265263547926579434e-02,2.264538201991886268e+01,1.265263547926579434e-02,2.294264238236930353e+01,1.553912390543102096e-01,2.287151597427595817e+01,1.553912311405893087e-01,2.241227369786758317e+01,1.553910102900139256e-01
4.600000000000000755e-01,4.699999999999998623e-01,0.000000000000000000e+00,0.000000000000000000e+00,2.343592675359124655e+01,1.143807346359109259e-02,2.343592675359124655e+01,1.143807346359109259e-02,2.343592675359124655e+01,1.143807346359109259e-02,2.343592675359124655e+01,1.143807346359109259e-02,2.386269426616735601e+01,1.365979044870322678e-01,2.378915088205204142e+01,1.365978976165365122e-01,2.331343659148182823e+01,1.365976988438639406e-01
4.700000000000000844e-01,4.799999999999998712e-01,0.000000000000000000e+00,0.000000000000000000e+00,2.427658785726955770e+01,1.110913874504044704e-02,2.427658785726955770e+01,1.110913874504044704e-02,2.427658785726955770e+01,1.110913874504044704e-02,2.427658785726955770e+01,1.110913874504044704e-02,2.471122792893325126e+01,1.071602128880556060e-01,2.463505485929864136e+01,1.071602070795821676e-01,2.414177227039571605e+01,1.071599809040414825e-01
4.800000000000000933e-01,4.899999999999998801e-01,0.000000000000000000e+00,0.000000000000000000e+00,2.515204318784356374e+01,1.001398404393464420e-02,2.515204318784356374e+01,1.001398404393464420e-02,2.515204318784356374e+01,1.001398404393464420e-02,2.515204318784356374e+01,1.001398404393464420e-02,2.561635129139371259e+01,1.821662785454803701e-01,2.553749226144295292e+01,1.821662753933057932e-01,2.502702519855953511e+01,1.821661608991213543e-01
4.900000000000001021e-01,4.999999999999998890e-01,0.000000000000000000e+00,0.000000000000000000e+00,2.608709614631480278e+01,9.999980423393247872e-03,2.608709614631480278e+01,9.999980423393247872e-03,2.608709614631480278e+01,9.999980423393247872e-03,2.608709614631480278e+01,9.999980423393247872e-03,2.666261052007450161e+01,1.249911318712464692e-01,2.658080771429822420e+01,1.249911266993195130e-01,2.605146668315291691e+01,1.249909496545637544e-01
5.000000000000000000e-01,5.099999999999997868e-01,0.000000000000000000e+00,0.000000000000000000e+00,2.704205030028609613e+01,1.036866618040674023e-02,2.704205030028609613e+01,1.036866618040674023e-02,2.704205030028609613e+01,1.036866618040674023e-02,2.704205030028609613e+01,1.036866618040674023e-02,2.777658061231722186e+01,1.926762436509979193e-01,2.769172501480741388e+01,1.926762406119160442e-01,2.714215280062856195e+01,1.926761223438687998e-01
5.100000000000000089e-01,5.199999999999997957e-01,0.000000000000000000e+00,0.000000000000000000e+00,2.807821280616560955e+01,1.048715201077577742e-02,2.807821280616560955e+01,1.048715201077577742e-02,2.807821280616560955e+01,1.048715201077577742e-02,2.807821280616560955e+01,1.048715201077577742e-02,2.861938827667085405e+01,1.940287161159595097e-01,2.853137457887842032e+01,1.940287132518469237e-01,2.796141077702693423e+01,1.940285942656959361e-01
5.200000000000001288e-01,5.299999999999999156e-01,0.000000000000000000e+00,0.000000000000000000e+00,2.915953731414261441e+01,1.143401355538325483e-02,2.915953731414261441e+01,1.143401355538325483e-02,2.915953731414261441e+01,1.143401355538325483e-02,2.915953731414261441e+01,1.143401355538325483e-02,3.005688679184822831e+01,1.693213009655996915e-01,2.996546964203412600e+01,1.693212970547888219e-01,2.937382197202013856e+01,1.693211516998475996e-01
5.300000000000000266e-01,5.399999999999998135e-01,0.000000000000000000e+00,0.000000000000000000e+00,3.028191491133016200e+01,1.184361191167906946e-02,3.028191491133016200e+01,1.184361191167906946e-02,3.028191491133016200e+01,1.184361191167906946e-02,3.028191491133016200e+01,1.184361191167906946e-02,3.099701085791996036e+01,1.802646446806659142e-01,3.090209539243036474e+01,1.802646409410593176e-01,3.028695975207819657e+01,1.802644849237247937e-01
5.400000000000000355e-01,5.499999999999998224e-01,0.000000000000000000e+00,0.000000000000000000e+00,3.149345484161759146e+01,1.210173112805711451e-02,3.149345484161759146e+01,1.210173112805711451e-02,3.149345484161759146e+01,1.210173112805711451e-02,3.149345484161759146e+01,1.210173112805711451e-02,3.238657357391912939e+01,1.994307327118905460e-01,3.228791807193411501e+01,1.994307289601791877e-01,3.164893619887809351e+01,1.994305783164331825e-01
5.500000000000000444e-01,5.599999999999998312e-01,0.000000000000000000e+00,0.000000000000000000e+00,3.275726293575632297e+01,1.257335660537334775e-02,3.275726293575632297e+01,1.257335660537334775e-02,3.275726293575632297e+01,1.257335660537334775e-02,3.275726293575632297e+01,1.257335660537334775e-02,3.382611143017484778e+01,1.154027601146528914e-01,3.372343100390635584e+01,1.154027532730452221e-01,3.305819963597872402e+01,1.154025018580640272e-01
5.600000000000001643e-01,5.699999999999999512e-01,0.000000000000000000e+00,0.000000000000000000e+00,3.409184931473556901e+01,1.270947193661059633e-02,3.409184931473556901e+01,1.270947193661059633e-02,3.409184931473556901e+01,1.270947193661059633e-02,3.409184931473556901e+01,1.270947193661059633e-02,3.507580562908327693e+01,1.330532656969550254e-01,3.496899155518886460e+01,1.330532589069370886e-01,3.427658255503818907e+01,1.330530098074376721e-01
5.700000000000000622e-01,5.799999999999998490e-01,0.000000000000000000e+00,0.000000000000000000e+00,3.552501668139778701e+01,1.347130483241235598e-02,3.552501668139778701e+01,1.347130483241235598e-02,3.552501668139778701e+01,1.347130483241235598e-02,3.552501668139778701e+01,1.347130483241235598e-02,3.671073921565189835e+01,1.278893852410174226e-01,3.659943084386392087e+01,1.278893775725061799e-01,3.587833876134467914e+01,1.278891015781093432e-01
5.800000000000001821e-01,5.899999999999999689e-01,0.000000000000000000e+00,0.000000000000000000e+00,3.703831976260084247e+01,1.377468197979261205e-02,3.703831976260084247e+01,1.377468197979261205e-02,3.703831976260084247e+01,1.377468197979261205e-02,3.703831976260084247e+01,1.377468197979261205e-02,3.817540202409824701e+01,1.293008963456963034e-01,3.805948956225589797e+01,1.293008874489614823e-01,3.730701727039112114e+01,1.293005750981745805e-01
5.900000000000000799e-01,5.999999999999998668e-01,0.000000000000000000e+00,0.000000000000000000e+00,3.865597809280242103e+01,1.433664788344551910e-02,3.865597809280242103e+01,1.433664788344551910e-02,3.865597809280242103e+01,1.433664788344551910e-02,3.865597809280242103e+01,1.433664788344551910e-02,4.001460832162913306e+01,1.632090726322936447e-01,3.989362260048637410e+01,1.632090653908890021e-01,3.910963612802215295e+01,1.632087892337381330e-01
6.000000000000001998e-01,6.099999999999999867e-01,0.000000000000000000e+00,0.000000000000000000e+00,4.036349769816808930e+01,1.441257714647358260e-02,4.036349769816808930e+01,1.441257714647358260e-02,4.036349769816808930e+01,1.441257714647358260e-02,4.036349769816808930e+01,1.441257714647358260e-02,4.173635597525458962e+01,2.118346771261296058e-01,4.161006905665428945e+01,2.118346713152390315e-01,4.079135562022572969e+01,2.118344757849619231e-01
6.100000000000000977e-01,6.199999999999998845e-01,0.000000000000000000e+00,0.000000000000000000e+00,4.218231554639164926e+01,1.502808423733688337e-02,4.218231554639164926e+01,1.502808423733688337e-02,4.218231554639164926e+01,1.502808423733688337e-02,4.218231554639164926e+01,1.502808423733688337e-02,4.370021183535537546e+01,1.363781552450614165e-01,4.356828435553816092e+01,1.363781454882315169e-01,4.271285383193634289e+01,1.363778549088640601e-01
6.199999999999999956e-01,6.299999999999997824e-01,0.000000000000000000e+00,0.000000000000000000e+00,4.410705812449992891e+01,1.527867579768619685e-02,4.410705812449992891e+01,1.527867579768619685e-02,4.410705812449992891e+01,1.527867579768619685e-02,4.410705812449992891e+01,1.527867579768619685e-02,4.595094844325500105e+01,1.995114024403627229e-01,4.581284311451167923e+01,1.995113962149503151e-01,4.491732862741935861e+01,1.995111355073295456e-01
6.300000000000001155e-01,6.399999999999999023e-01,0.000000000000000000e+00,0.000000000000000000e+00,4.618480234641118898e+01,1.445085761861960097e-02,4.618480234641118898e+01,1.445085761861960097e-02,4.618480234641118898e+01,1.445085761861960097e-02,4.618480234641118898e+01,1.445085761861960097e-02,4.804804193692953618e+01,1.713877222763521280e-01,4.790369348584260223e+01,1.713877134953067372e-01,4.696625331002574910e+01,1.713874342963989106e-01
6.400000000000000133e-01,6.499999999999998002e-01,0.000000000000000000e+00,0.000000000000000000e+00,4.842199809437288849e+01,1.538477835959046330e-02,4.842199809437288849e+01,1.538477835959046330e-02,4.842199809437288849e+01,1.538477835959046330e-02,4.842199809437288849e+01,1.538477835959046330e-02,5.066967587602978540e+01,1.745538892595457081e-01,5.051821991015503954e+01,1.745538815425563550e-01,4.953553458755568073e+01,1.745535869386954653e-01
6.500000000000000222e-01,6.599999999999998090e-01,0.000000000000000000e+00,0.000000000000000000e+00,5.084953090368553319e+01,1.587260258738217369e-02,5.084953090368553319e+01,1.587260258738217369e-02,5.084953090368553319e+01,1.587260258738217369e-02,5.084953090368553319e+01,1.587260258738217369e-02,5.328650884891064266e+01,1.758008228502937753e-01,5.312762512856821218e+01,1.758008154234216580e-01,5.209666428168869601e+01,1.758005168594245216e-01
6.600000000000000311e-01,6.699999999999998179e-01,0.000000000000000000e+00,0.000000000000000000e+00,5.339056112033136969e+01,1.663429770991545903e-02,5.339056112033136969e+01,1.663429770991545903e-02,5.339056112033136969e+01,1.663429770991545903e-02,5.339056112033136969e+01,1.663429770991545903e-02,5.570238524416818393e+01,3.131522877581345288e-01,5.553556750493964245e+01,3.131522827068555781e-01,5.445172413565532565e+01,3.131520992477873633e-01
6.700000000000001510e-01,6.799999999999999378e-01,0.000000000000000000e+00,0.000000000000000000e+00,5.617637405573872655e+01,1.723708472867070685e-02,5.617637405573872655e+01,1.723708472867070685e-02,5.617637405573872655e+01,1.723708472867070685e-02,5.617637405573872655e+01,1.723708472867070685e-02,5.900059782237809713e+01,1.924527207607140966e-01,5.882516920666620308e+01,1.924527122115629874e-01,5.768527751978399465e+01,1.924524031984984340e-01
6.800000000000000488e-01,6.899999999999998357e-01,0.000000000000000000e+00,0.000000000000000000e+00,5.922613744061175822e+01,1.764798588705759549e-02,5.922613744061175822e+01,1.764798588705759549e-02,5.922613744061175822e+01,1.764798588705759549e-02,5.922613744061175822e+01,1.764798588705759549e-02,6.227666155170167883e+01,2.164368041339687632e-01,6.209192115009231827e+01,2.164367966511685504e-01,6.089095964886731593e+01,2.164365077687146199e-01
6.900000000000000577e-01,6.999999999999998446e-01,0.000000000000000000e+00,0.000000000000000000e+00,6.251639142081388911e+01,1.748213908088164931e-02,6.251639142081388911e+01,1.748213908088164931e-02,6.251639142081388911e+01,1.748213908088164931e-02,6.251639142081388911e+01,1.748213908088164931e-02,6.588906134677169746e+01,2.406493171809365172e-01,6.569424991089515231e+01,2.406493093913335546e-01,6.442726997327311267e+01,2.406490301102112428e-01
7.000000000000000666e-01,7.099999999999998535e-01,0.000000000000000000e+00,0.000000000000000000e+00,6.600235970503774752e+01,1.929243792131956833e-02,6.600235970503774752e+01,1.929243792131956833e-02,6.600235970503774752e+01,1.929243792131956833e-02,6.600235970503774752e+01,1.929243792131956833e-02,6.957157676237068245e+01,2.119245131429820517e-01,6.936560775606432117e+01,2.119245035139853406e-01,6.802659524945714509e+01,2.119241492299204777e-01
7.100000000000001865e-01,7.199999999999999734e-01,0.000000000000000000e+00,0.000000000000000000e+00,6.996162416156943209e+01,1.840843938731957785e-02,6.996162416156943209e+01,1.840843938731957785e-02,6.996162416156943209e+01,1.840843938731957785e-02,6.996162416156943209e+01,1.840843938731957785e-02,7.406780293705335794e+01,2.694933545003058151e-01,7.384982022027462278e+01,2.694933471484815546e-01,7.243185370796547318e+01,2.694930877263932434e-01
7.200000000000000844e-01,7.299999999999998712e-01,0.000000000000000000e+00,0.000000000000000000e+00,7.426339226652179093e+01,1.853857148987491169e-02,7.426339226652179093e+01,1.853857148987491169e-02,7.426339226652179093e+01,1.853857148987491169e-02,7.426339226652179093e+01,1.853857148987491169e-02,7.882666175615999293e+01,1.731160318543729371e-01,7.859553563152711320e+01,1.731160205492906223e-01,7.709029622952419913e+01,1.731156060953968623e-01
7.300000000000000933e-01,7.399999999999998801e-01,0.000000000000000000e+00,0.000000000000000000e+00,7.897880641629146226e+01,2.022317036093270251e-02,7.897880641629146226e+01,2.022317036093270251e-02,7.897880641629146226e+01,2.022317036093270251e-02,7.897880641629146226e+01,2.022317036093270251e-02,8.407848228186313122e+01,2.098522809064118366e-01,8.383291254267395232e+01,2.098522691876056334e-01,8.223272128028223449e+01,2.098518909346729633e-01
7.400000000000001021e-01,7.499999999999998890e-01,0.000000000000000000e+00,0.000000000000000000e+00,8.424437048040243781e+01,2.006054066378776257e-02,8.424437048040243781e+01,2.006054066378776257e-02,8.424437048040243781e+01,2.006054066378776257e-02,8.424437048040243781e+01,2.006054066378776257e-02,8.998350443107463548e+01,2.067041131521459574e-01,8.972182829772549439e+01,2.067041025630538820e-01,8.801531602662770126e+01,2.067037478644525028e-01
7.500000000000000000e-01,7.599999999999997868e-01,0.000000000000000000e+00,0.000000000000000000e+00,9.008057230938902649e+01,2.132269145631595850e-02,9.008057230938902649e+01,2.132269145631595850e-02,9.008057230938902649e+01,2.132269145631595850e-02,9.008057230938902649e+01,2.132269145631595850e-02,9.654561143450156635e+01,2.516633414245135203e-01,9.626596642258468250e+01,2.516633327999877601e-01,9.444141641917559582e+01,2.516630043960068619e-01
7.600000000000000089e-01,7.699999999999997957e-01,0.000000000000000000e+00,0.000000000000000000e+00,9.670813321173181976e+01,2.103645039559502716e-02,9.670813321173181976e+01,2.103645039559502716e-02,9.670813321173181976e+01,2.103645039559502716e-02,9.670813321173181976e+01,2.103645039559502716e-02,1.040465278674186322e+02,2.286693320238439853e-01,1.037468343440134078e+02,2.286693210911222018e-01,1.017891252697169335e+02,2.286689354683162922e-01
7.700000000000001288e-01,7.799999999999999156e-01,0.000000000000000000e+00,0.000000000000000000e+00,1.043039538852755328e+02,2.176613890420692546e-02,1.043039538852755328e+02,2.176613890420692546e-02,1.043039538852755328e+02,2.176613890420692546e-02,1.043039538852755328e+02,2.176613890420692546e-02,1.128363659151521858e+02,1.949075136273804298e-01,1.125137582532000096e+02,1.949074993740937400e-01,1.104039644499944472e+02,1.949070036357530844e-01
7.800000000000001377e-01,7.899999999999999245e-01,0.000000000000000000e+00,0.000000000000000000e+00,1.130861190672227110e+02,2.391414749311049012e-02,1.130861190672227110e+02,2.391414749311049012e-02,1.130861190672227110e+02,2.391414749311049012e-02,1.130861190672227110e+02,2.391414749311049012e-02,1.229701262202018484e+02,2.187427050513331139e-01,1.226212315541906577e+02,2.187426914450797955e-01,1.203340803811975235e+02,2.187422457871192050e-01
7.900000000000000355e-01,7.999999999999998224e-01,0.000000000000000000e+00,0.000000000000000000e+00,1.238393654533773969e+02,2.321837920637761718e-02,1.238393654533773969e+02,2.321837920637761718e-02,1.238393654533773969e+02,2.321837920637761718e-02,1.238393654533773969e+02,2.321837920637761718e-02,1.354428383434016894e+02,2.974126563686819158e-01,1.350623941730006266e+02,2.974126468779997867e-01,1.325610251329021025e+02,2.974122495200004490e-01
8.000000000000000444e-01,8.099999999999998312e-01,0.000000000000000000e+00,0.000000000000000000e+00,1.412419508426675634e+02,2.501138722794389938e-02,1.412419508426675634e+02,2.501138722794389938e-02,1.412419508426675634e+02,2.501138722794389938e-02,1.412419508426675634e+02,2.501138722794389938e-02,1.539878896850186720e+02,3.119932209221517594e-01,1.535602349613820650e+02,3.119932096809588384e-01,1.507188673220656767e+02,3.119927920744157701e-01
8.100000000000001643e-01,8.199999999999999512e-01,0.000000000000000000e+00,0.000000000000000000e+00,1.666079228126507701e+02,2.689471371901499056e-02,1.666079228126507701e+02,2.689471371901499056e-02,1.666079228126507701e+02,2.689471371901499056e-02,1.666079228126507701e+02,2.689471371901499056e-02,1.782216875691398457e+02,2.996445391747660225e-01,1.777264265675971160e+02,2.996445270433303332e-01,1.743905682792132268e+02,2.996440919334547037e-01
8.200000000000000622e-01,8.299999999999998490e-01,0.000000000000000000e+00,0.000000000000000000e+00,1.955526087049607327e+02,2.693379878163711105e-02,1.955526087049607327e+02,2.693379878163711105e-02,1.955526087049607327e+02,2.693379878163711105e-02,1.955526087049607327e+02,2.693379878163711105e-02,2.054077081689953275e+02,6.314247655584579455e-01,2.048343413409250786e+02,6.314247592142950838e-01,2.009299793560681167e+02,6.314245396601836369e-01
8.300000000000000711e-01,8.399999999999998579e-01,0.000000000000000000e+00,0.000000000000000000e+00,2.277331949037774450e+02,2.999425074602759395e-02,2.277331949037774450e+02,2.999425074602759395e-02,2.277331949037774450e+02,2.999425074602759395e-02,2.277331949037774450e+02,2.999425074602759395e-02,2.359446284849269091e+02,5.268823358616694374e-01,2.352824152812087561e+02,5.268823273934928331e-01,2.307416395813668828e+02,5.268820100645694726e-01
8.400000000000001910e-01,8.499999999999999778e-01,0.000000000000000000e+00,0.000000000000000000e+00,2.637500713432953603e+02,3.007384005628243803e-02,2.637500713432953603e+02,3.007384005628243803e-02,2.637500713432953603e+02,3.007384005628243803e-02,2.637500713432953603e+02,3.007384005628243803e-02,2.691537159868947811e+02,7.944175471838793579e-01,2.683901694643844280e+02,7.944175401550954696e-01,2.631305922281580933e+02,7.944172871722469109e-01
8.500000000000001998e-01,8.599999999999999867e-01,0.000000000000000000e+00,0.000000000000000000e+00,3.044460907608636830e+02,3.310856214976716505e-02,3.044460907608636830e+02,3.310856214976716505e-02,3.044460907608636830e+02,3.310856214976716505e-02,3.044460907608636830e+02,3.310856214976716505e-02,3.076058185929656474e+02,5.470111053499504550e-01,3.067264127776999771e+02,5.470110954497706679e-01,3.006465075977762353e+02,5.470107001242896505e-01
8.600000000000000977e-01,8.699999999999998845e-01,0.000000000000000000e+00,0.000000000000000000e+00,3.511682408654608594e+02,3.381715291693008357e-02,3.511682408654608594e+02,3.381715291693008357e-02,3.511682408654608594e+02,3.381715291693008357e-02,3.511682408654608594e+02,3.381715291693008357e-02,3.499674005066594304e+02,4.563726870128300139e-01,3.489544873164353476e+02,4.563726729806143467e-01,3.419291812288570895e+02,4.563721495730097000e-01
8.699999999999998845e-01,8.799999999999996714e-01,0.000000000000000000e+00,0.000000000000000000e+00,4.057608444196565074e+02,3.575115340248349177e-02,4.057608444196565074e+02,3.575115340248349177e-02,4.057608444196565074e+02,3.575115340248349177e-02,4.057608444196565074e+02,3.575115340248349177e-02,3.995827483419470809e+02,6.069205577199963120e-01,3.984129904325658345e+02,6.069205468869715014e-01,3.902771571170933953e+02,6.069201149797992523e-01
8.800000000000001155e-01,8.899999999999999023e-01,0.000000000000000000e+00,0.000000000000000000e+00,4.709576648871538964e+02,3.914900147686311421e-02,4.709576648871538964e+02,3.914900147686311421e-02,4.709576648871538964e+02,3.914900147686311421e-02,4.709576648871538964e+02,3.914900147686311421e-02,4.594368512929054873e+02,4.405611250327740591e-01,4.580796328121923580e+02,4.405611072052693644e-01,4.486130268020696690e+02,4.405604586094278852e-01
8.900000000000000133e-01,8.999999999999998002e-01,0.000000000000000000e+00,0.000000000000000000e+00,5.507180713546823654e+02,3.799473179945508927e-02,5.507180713546823654e+02,3.799473179945508927e-02,5.507180713546823654e+02,3.799473179945508927e-02,5.507180713546823654e+02,3.799473179945508927e-02,5.306562647636127394e+02,5.177390670744221879e-01,5.290690708611709852e+02,5.177390525729179682e-01,5.179682582681614349e+02,5.177384554024088148e-01
9.000000000000000222e-01,9.099999999999998090e-01,0.000000000000000000e+00,0.000000000000000000e+00,6.516270642710256880e+02,4.558550369965620741e-02,6.516270642710256880e+02,4.558550369965620741e-02,6.516270642710256880e+02,4.558550369965620741e-02,6.516270642710256880e+02,4.558550369965620741e-02,6.186803297449785077e+02,6.569688721607409576e-01,6.168023597131891620e+02,6.569688581909246539e-01,6.036399088922396459e+02,6.569682329295589707e-01
9.099999999999999201e-01,9.199999999999997069e-01,0.000000000000000000e+00,0.000000000000000000e+00,7.838767256008708273e+02,5.499063415989256104e-02,7.838767256008708273e+02,5.499063415989256104e-02,7.838767256008708273e+02,5.499063415989256104e-02,7.838767256008708273e+02,5.499063415989256104e-02,7.343924895829809429e+02,7.195420998356921727e-01,7.321327099474955276e+02,7.195420799934184597e-01,7.162739227637147224e+02,7.195412311718730747e-01
9.200000000000001510e-01,9.299999999999999378e-01,0.000000000000000000e+00,0.000000000000000000e+00,9.650571133331628744e+02,6.486436988822517902e-02,9.650571133331628744e+02,6.486436988822517902e-02,9.650571133331628744e+02,6.486436988822517902e-02,9.650571133331628744e+02,6.486436988822517902e-02,8.858428562962408250e+02,1.107621970080217233e+00,8.830608862813478481e+02,1.107621950637293518e+00,8.635300604710732841e+02,1.107621127887674417e+00
9.300000000000002709e-01,9.400000000000000577e-01,0.000000000000000000e+00,0.000000000000000000e+00,1.225373362549778449e+03,8.893847643693125748e-02,1.225373362549778449e+03,8.893847643693125748e-02,1.225373362549778449e+03,8.893847643693125748e-02,1.225373362549778449e+03,8.893847643693125748e-02,1.097639762665113039e+03,1.080436907407785307e+00,1.094114488828113508e+03,1.080436870817526485e+00,1.069353633820085861e+03,1.080435368448387612e+00
9.400000000000000577e-01,9.499999999999998446e-01,0.000000000000000000e+00,0.000000000000000000e+00,1.561262638267816783e+03,1.298802163859081038e-01,1.561262638267816783e+03,1.298802163859081038e-01,1.561262638267816783e+03,1.298802163859081038e-01,1.561262638267816783e+03,1.298802163859081038e-01,1.355351286220658949e+03,1.441913521382400365e+00,1.350850496768415951e+03,1.441913472580705680e+00,1.319354602991754064e+03,1.441911172719626100e+00
9.500000000000001776e-01,9.599999999999999645e-01,0.000000000000000000e+00,0.000000000000000000e+00,1.962037244341062433e+03,1.766769208582940065e-01,1.962037244341062433e+03,1.766769208582940065e-01,1.962037244341062433e+03,1.766769208582940065e-01,1.962037244341062433e+03,1.766769208582940065e-01,1.664991699302545840e+03,1.519833860808392778e+00,1.659263923406898357e+03,1.519833780566451242e+00,1.619611265918528261e+03,1.519829881329229693e+00
9.600000000000001865e-01,9.699999999999999734e-01,0.000000000000000000e+00,0.000000000000000000e+00,2.585949351348058826e+03,2.390662599956089318e-01,2.585949351348058826e+03,2.390662599956089318e-01,2.585949351348058826e+03,2.390662599956089318e-01,2.585949351348058826e+03,2.390662599956089318e-01,2.130588963454860277e+03,1.514865139378386516e+00,2.122941241643217381e+03,1.514864998512453376e+00,2.070569555583093461e+03,1.514857112865453104e+00
9.700000000000000844e-01,9.799999999999998712e-01,0.000000000000000000e+00,0.000000000000000000e+00,3.729441752942794210e+03,3.549721424360848254e-01,3.729441752942794210e+03,3.549721424360848254e-01,3.729441752942794210e+03,3.549721424360848254e-01,3.729441752942794210e+03,3.549721424360848254e-01,2.944837308736542127e+03,2.346202394926479418e+00,2.933655252826447395e+03,2.346202198778631676e+00,2.857964552566928432e+03,2.346191220407388478e+00
9.800000000000000933e-01,9.899999999999998801e-01,0.000000000000000000e+00,0.000000000000000000e+00,6.552178654442826883e+03,6.406265216425448550e-01,6.552178654442826883e+03,6.406265216425448550e-01,6.552178654442826883e+03,6.406265216425448550e-01,6.552178654442826883e+03,6.406265216425448550e-01,4.824217213147467191e+03,3.974080191186839528e+00,4.804303378213096039e+03,3.974079811924975392e+00,4.671049706130779668e+03,3.974060035944117164e+00
9.899999999999999911e-01,9.999999999999997780e-01,9.905290481875014666e+04,2.622818715099904385e-01,6.911598631086020032e+04,3.546377748822835851e+00,6.911598631086020032e+04,3.546377748822835851e+00,6.880340981639933307e+04,3.546377675998325874e+00,6.678851502399668971e+04,3.546376994796170301e+00,7.280283981321459578e+04,9.854295261647635584e+00,7.258884312731148384e+04,9.854292170852563260e+00,7.128193315973550489e+04,9.854067488805359432e+00
