# xl,xh,LO,dLO,NLO,dNLO,NLOISC,dNLOISC,NLOL,dNLOL,NLOnovp,dNLOnovp,NNLO,dNNLO,NNLOL,dNNLOL,NNLOnovp,dNNLOnovp
4.500000000000001776e-01,4.599999999999999645e-01,0.000000000000000000e+00,0.000000000000000000e+00,0.000000000000000000e+00,0.000000000000000000e+00,0.000000000000000000e+00,0.000000000000000000e+00,0.000000000000000000e+00,0.000000000000000000e+00,0.000000000000000000e+00,0.000000000000000000e+00,3.332705467245089537e-02,4.241061748113350121e-05,3.332705467245089537e-02,4.241061748113350121e-05,3.332705467245089537e-02,4.241061748113350121e-05
4.600000000000000755e-01,4.699999999999998623e-01,0.000000000000000000e+00,0.000000000000000000e+00,0.000000000000000000e+00,0.000000000000000000e+00,0.000000000000000000e+00,0.000000000000000000e+00,0.000000000000000000e+00,0.000000000000000000e+00,0.000000000000000000e+00,0.000000000000000000e+00,4.068955550168597279e-02,4.232005854803512127e-05,4.068955550168597279e-02,4.232005854803512127e-05,4.068955550168597279e-02,4.232005854803512127e-05
4.700000000000000844e-01,4.799999999999998712e-01,0.000000000000000000e+00,0.000000000000000000e+00,0.000000000000000000e+00,0.000000000000000000e+00,0.000000000000000000e+00,0.000000000000000000e+00,0.000000000000000000e+00,0.000000000000000000e+00,0.000000000000000000e+00,0.000000000000000000e+00,4.710581785592240361e-02,4.010146554862281280e-05,4.710581785592240361e-02,4.010146554862281280e-05,4.710581785592240361e-02,4.010146554862281280e-05
4.800000000000000933e-01,4.899999999999998801e-01,0.000000000000000000e+00,0.000000000000000000e+00,0.000000000000000000e+00,0.000000000000000000e+00,0.000000000000000000e+00,0.000000000000000000e+00,0.000000000000000000e+00,0.000000000000000000e+00,0.000000000000000000e+00,0.000000000000000000e+00,5.298839832575465841e-02,4.098848078676632363e-05,5.298839832575465841e-02,4.098848078676632363e-05,5.298839832575465841e-02,4.098848078676632363e-05
4.900000000000001021e-01,4.999999999999998890e-01,0.000000000000000000e+00,0.000000000000000000e+00,0.000000000000000000e+00,0.000000000000000000e+00,0.000000000000000000e+00,0.000000000000000000e+00,0.000000000000000000e+00,0.000000000000000000e+00,0.000000000000000000e+00,0.000000000000000000e+00,5.838115616608788999e-02,3.853109254321201321e-05,5.838115616608788999e-02,3.853109254321201321e-05,5.838115616608788999e-02,3.853109254321201321e-05
5.000000000000000000e-01,5.099999999999997868e-01,0.000000000000000000e+00,0.000000000000000000e+00,0.000000000000000000e+00,0.000000000000000000e+00,0.000000000000000000e+00,0.000000000000000000e+00,0.000000000000000000e+00,0.000000000000000000e+00,0.000000000000000000e+00,0.000000000000000000e+00,6.342398619125395876e-02,3.974513488092150864e-05,6.342398619125395876e-02,3.974513488092150864e-05,6.342398619125395876e-02,3.974513488092150864e-05
5.100000000000000089e-01,5.199999999999997957e-01,0.000000000000000000e+00,0.000000000000000000e+00,0.000000000000000000e+00,0.000000000000000000e+00,0.000000000000000000e+00,0.000000000000000000e+00,0.000000000000000000e+00,0.000000000000000000e+00,0.000000000000000000e+00,0.000000000000000000e+00,6.804908991131182472e-02,3.890621258888315277e-05,6.804908991131182472e-02,3.890621258888315277e-05,6.804908991131182472e-02,3.890621258888315277e-05
5.200000000000001288e-01,5.299999999999999156e-01,0.000000000000000000e+00,0.000000000000000000e+00,0.000000000000000000e+00,0.000000000000000000e+00,0.000000000000000000e+00,0.000000000000000000e+00,0.000000000000000000e+00,0.000000000000000000e+00,0.000000000000000000e+00,0.000000000000000000e+00,7.206426605587604173e-02,3.694334604286252511e-05,7.206426605587604173e-02,3.694334604286252511e-05,7.206426605587604173e-02,3.694334604286252511e-05
5.300000000000000266e-01,5.399999999999998135e-01,0.000000000000000000e+00,0.000000000000000000e+00,0.000000000000000000e+00,0.000000000000000000e+00,0.000000000000000000e+00,0.000000000000000000e+00,0.000000000000000000e+00,0.000000000000000000e+00,0.000000000000000000e+00,0.000000000000000000e+00,7.535483471420574564e-02,3.518229617935573610e-05,7.535483471420574564e-02,3.518229617935573610e-05,7.535483471420574564e-02,3.518229617935573610e-05
5.400000000000000355e-01,5.499999999999998224e-01,0.000000000000000000e+00,0.000000000000000000e+00,0.000000000000000000e+00,0.000000000000000000e+00,0.000000000000000000e+00,0.000000000000000000e+00,0.000000000000000000e+00,0.000000000000000000e+00,0.000000000000000000e+00,0.000000000000000000e+00,7.788527165451013257e-02,3.455383794400574017e-05,7.788527165451013257e-02,3.455383794400574017e-05,7.788527165451013257e-02,3.455383794400574017e-05
5.500000000000000444e-01,5.599999999999998312e-01,0.000000000000000000e+00,0.000000000000000000e+00,0.000000000000000000e+00,0.000000000000000000e+00,0.000000000000000000e+00,0.000000000000000000e+00,0.000000000000000000e+00,0.000000000000000000e+00,0.000000000000000000e+00,0.000000000000000000e+00,7.938629225128310263e-02,3.395583447012151122e-05,7.938629225128310263e-02,3.395583447012151122e-05,7.938629225128310263e-02,3.395583447012151122e-05
5.600000000000001643e-01,5.699999999999999512e-01,0.000000000000000000e+00,0.000000000000000000e+00,0.000000000000000000e+00,0.000000000000000000e+00,0.000000000000000000e+00,0.000000000000000000e+00,0.000000000000000000e+00,0.000000000000000000e+00,0.000000000000000000e+00,0.000000000000000000e+00,7.951303347319428616e-02,3.298049111173308759e-05,7.951303347319428616e-02,3.298049111173308759e-05,7.951303347319428616e-02,3.298049111173308759e-05
5.700000000000000622e-01,5.799999999999998490e-01,0.000000000000000000e+00,0.000000000000000000e+00,0.000000000000000000e+00,0.000000000000000000e+00,0.000000000000000000e+00,0.000000000000000000e+00,0.000000000000000000e+00,0.000000000000000000e+00,0.000000000000000000e+00,0.000000000000000000e+00,7.803355703616315919e-02,3.273193106701245827e-05,7.803355703616315919e-02,3.273193106701245827e-05,7.803355703616315919e-02,3.273193106701245827e-05
5.800000000000001821e-01,5.899999999999999689e-01,0.000000000000000000e+00,0.000000000000000000e+00,0.000000000000000000e+00,0.000000000000000000e+00,0.000000000000000000e+00,0.000000000000000000e+00,0.000000000000000000e+00,0.000000000000000000e+00,0.000000000000000000e+00,0.000000000000000000e+00,7.435324105818433282e-02,2.987613006224716265e-05,7.435324105818433282e-02,2.987613006224716265e-05,7.435324105818433282e-02,2.987613006224716265e-05
5.900000000000000799e-01,5.999999999999998668e-01,0.000000000000000000e+00,0.000000000000000000e+00,0.000000000000000000e+00,0.000000000000000000e+00,0.000000000000000000e+00,0.000000000000000000e+00,0.000000000000000000e+00,0.000000000000000000e+00,0.000000000000000000e+00,0.000000000000000000e+00,6.758347088631172506e-02,2.759717016200957803e-05,6.758347088631172506e-02,2.759717016200957803e-05,6.758347088631172506e-02,2.759717016200957803e-05
6.000000000000001998e-01,6.099999999999999867e-01,0.000000000000000000e+00,0.000000000000000000e+00,0.000000000000000000e+00,0.000000000000000000e+00,0.000000000000000000e+00,0.000000000000000000e+00,0.000000000000000000e+00,0.000000000000000000e+00,0.000000000000000000e+00,0.000000000000000000e+00,5.775617485360827474e-02,2.406594554074341019e-05,5.775617485360827474e-02,2.406594554074341019e-05,5.775617485360827474e-02,2.406594554074341019e-05
6.100000000000000977e-01,6.199999999999998845e-01,0.000000000000000000e+00,0.000000000000000000e+00,0.000000000000000000e+00,0.000000000000000000e+00,0.000000000000000000e+00,0.000000000000000000e+00,0.000000000000000000e+00,0.000000000000000000e+00,0.000000000000000000e+00,0.000000000000000000e+00,4.908616732839529706e-02,2.298866930173431249e-05,4.908616732839529706e-02,2.298866930173431249e-05,4.908616732839529706e-02,2.298866930173431249e-05
6.199999999999999956e-01,6.299999999999997824e-01,0.000000000000000000e+00,0.000000000000000000e+00,0.000000000000000000e+00,0.000000000000000000e+00,0.000000000000000000e+00,0.000000000000000000e+00,0.000000000000000000e+00,0.000000000000000000e+00,0.000000000000000000e+00,0.000000000000000000e+00,4.197233528616291925e-02,2.021679278461976914e-05,4.197233528616291925e-02,2.021679278461976914e-05,4.197233528616291925e-02,2.021679278461976914e-05
6.300000000000001155e-01,6.399999999999999023e-01,0.000000000000000000e+00,0.000000000000000000e+00,0.000000000000000000e+00,0.000000000000000000e+00,0.000000000000000000e+00,0.000000000000000000e+00,0.000000000000000000e+00,0.000000000000000000e+00,0.000000000000000000e+00,0.000000000000000000e+00,3.611544461331854527e-02,1.908523970276179439e-05,3.611544461331854527e-02,1.908523970276179439e-05,3.611544461331854527e-02,1.908523970276179439e-05
6.400000000000000133e-01,6.499999999999998002e-01,0.000000000000000000e+00,0.000000000000000000e+00,0.000000000000000000e+00,0.000000000000000000e+00,0.000000000000000000e+00,0.000000000000000000e+00,0.000000000000000000e+00,0.000000000000000000e+00,0.000000000000000000e+00,0.000000000000000000e+00,3.126910197677605641e-02,1.729148857835617590e-05,3.126910197677605641e-02,1.729148857835617590e-05,3.126910197677605641e-02,1.729148857835617590e-05
6.500000000000000222e-01,6.599999999999998090e-01,0.000000000000000000e+00,0.000000000000000000e+00,0.000000000000000000e+00,0.000000000000000000e+00,0.000000000000000000e+00,0.000000000000000000e+00,0.000000000000000000e+00,0.000000000000000000e+00,0.000000000000000000e+00,0.000000000000000000e+00,2.729445325005890044e-02,1.596531401137677673e-05,2.729445325005890044e-02,1.596531401137677673e-05,2.729445325005890044e-02,1.596531401137677673e-05
6.600000000000000311e-01,6.699999999999998179e-01,0.000000000000000000e+00,0.000000000000000000e+00,0.000000000000000000e+00,0.000000000000000000e+00,0.000000000000000000e+00,0.000000000000000000e+00,0.000000000000000000e+00,0.000000000000000000e+00,0.000000000000000000e+00,0.000000000000000000e+00,2.397271927116914614e-02,1.426950332961678062e-05,2.397271927116914614e-02,1.426950332961678062e-05,2.397271927116914614e-02,1.426950332961678062e-05
6.700000000000001510e-01,6.799999999999999378e-01,0.000000000000000000e+00,0.000000000000000000e+00,0.000000000000000000e+00,0.000000000000000000e+00,0.000000000000000000e+00,0.000000000000000000e+00,0.000000000000000000e+00,0.000000000000000000e+00,0.000000000000000000e+00,0.000000000000000000e+00,2.139909961955226841e-02,1.334854689787585446e-05,2.139909961955226841e-02,1.334854689787585446e-05,2.139909961955226841e-02,1.334854689787585446e-05
6.800000000000000488e-01,6.899999999999998357e-01,0.000000000000000000e+00,0.000000000000000000e+00,0.000000000000000000e+00,0.000000000000000000e+00,0.000000000000000000e+00,0.000000000000000000e+00,0.000000000000000000e+00,0.000000000000000000e+00,0.000000000000000000e+00,0.000000000000000000e+00,1.938496298824666716e-02,1.274591498519653944e-05,1.938496298824666716e-02,1.274591498519653944e-05,1.938496298824666716e-02,1.274591498519653944e-05
6.900000000000000577e-01,6.999999999999998446e-01,0.000000000000000000e+00,0.000000000000000000e+00,0.000000000000000000e+00,0.000000000000000000e+00,0.000000000000000000e+00,0.000000000000000000e+00,0.000000000000000000e+00,0.000000000000000000e+00,0.000000000000000000e+00,0.000000000000000000e+00,1.790884809971711802e-02,1.275193799109136955e-05,1.790884809971711802e-02,1.275193799109136955e-05,1.790884809971711802e-02,1.275193799109136955e-05
7.000000000000000666e-01,7.099999999999998535e-01,0.000000000000000000e+00,0.000000000000000000e+00,0.000000000000000000e+00,0.000000000000000000e+00,0.000000000000000000e+00,0.000000000000000000e+00,0.000000000000000000e+00,0.000000000000000000e+00,0.000000000000000000e+00,0.000000000000000000e+00,1.694537046987107734e-02,1.189269254781671747e-05,1.694537046987107734e-02,1.189269254781671747e-05,1.694537046987107734e-02,1.189269254781671747e-05
7.100000000000001865e-01,7.199999999999999734e-01,0.000000000000000000e+00,0.000000000000000000e+00,0.000000000000000000e+00,0.000000000000000000e+00,0.000000000000000000e+00,0.000000000000000000e+00,0.000000000000000000e+00,0.000000000000000000e+00,0.000000000000000000e+00,0.000000000000000000e+00,1.631841382903477869e-02,1.210007293865001591e-05,1.631841382903477869e-02,1.210007293865001591e-05,1.631841382903477869e-02,1.210007293865001591e-05
7.200000000000000844e-01,7.299999999999998712e-01,0.000000000000000000e+00,0.000000000000000000e+00,0.000000000000000000e+00,0.000000000000000000e+00,0.000000000000000000e+00,0.000000000000000000e+00,0.000000000000000000e+00,0.000000000000000000e+00,0.000000000000000000e+00,0.000000000000000000e+00,1.595359549553952705e-02,1.151933636561944247e-05,1.595359549553952705e-02,1.151933636561944247e-05,1.595359549553952705e-02,1.151933636561944247e-05
7.300000000000000933e-01,7.399999999999998801e-01,0.000000000000000000e+00,0.000000000000000000e+00,0.000000000000000000e+00,0.000000000000000000e+00,0.000000000000000000e+00,0.000000000000000000e+00,0.000000000000000000e+00,0.000000000000000000e+00,0.000000000000000000e+00,0.000000000000000000e+00,1.573602775489538197e-02,1.156673047698074870e-05,1.573602775489538197e-02,1.156673047698074870e-05,1.573602775489538197e-02,1.156673047698074870e-05
7.400000000000001021e-01,7.499999999999998890e-01,0.000000000000000000e+00,0.000000000000000000e+00,0.000000000000000000e+00,0.000000000000000000e+00,0.000000000000000000e+00,0.000000000000000000e+00,0.000000000000000000e+00,0.000000000000000000e+00,0.000000000000000000e+00,0.000000000000000000e+00,1.573744745042696472e-02,1.170485479367792130e-05,1.573744745042696472e-02,1.170485479367792130e-05,1.573744745042696472e-02,1.170485479367792130e-05
7.500000000000000000e-01,7.599999999999997868e-01,0.000000000000000000e+00,0.000000000000000000e+00,0.000000000000000000e+00,0.000000000000000000e+00,0.000000000000000000e+00,0.000000000000000000e+00,0.000000000000000000e+00,0.000000000000000000e+00,0.000000000000000000e+00,0.000000000000000000e+00,1.584735329913842389e-02,1.172035474568426720e-05,1.584735329913842389e-02,1.172035474568426720e-05,1.584735329913842389e-02,1.172035474568426720e-05
7.600000000000000089e-01,7.699999999999997957e-01,0.000000000000000000e+00,0.000000000000000000e+00,0.000000000000000000e+00,0.000000000000000000e+00,0.000000000000000000e+00,0.000000000000000000e+00,0.000000000000000000e+00,0.000000000000000000e+00,0.000000000000000000e+00,0.000000000000000000e+00,1.605480211457149461e-02,1.211295022306381998e-05,1.605480211457149461e-02,1.211295022306381998e-05,1.605480211457149461e-02,1.211295022306381998e-05
7.700000000000001288e-01,7.799999999999999156e-01,0.000000000000000000e+00,0.000000000000000000e+00,0.000000000000000000e+00,0.000000000000000000e+00,0.000000000000000000e+00,0.000000000000000000e+00,0.000000000000000000e+00,0.000000000000000000e+00,0.000000000000000000e+00,0.000000000000000000e+00,1.643917637355364614e-02,1.217065702392054001e-05,1.643917637355364614e-02,1.217065702392054001e-05,1.643917637355364614e-02,1.217065702392054001e-05
7.800000000000001377e-01,7.899999999999999245e-01,0.000000000000000000e+00,0.000000000000000000e+00,0.000000000000000000e+00,0.000000000000000000e+00,0.000000000000000000e+00,0.000000000000000000e+00,0.000000000000000000e+00,0.000000000000000000e+00,0.000000000000000000e+00,0.000000000000000000e+00,1.698550448855919506e-02,1.275057444476660250e-05,1.698550448855919506e-02,1.275057444476660250e-05,1.698550448855919506e-02,1.275057444476660250e-05
7.900000000000000355e-01,7.999999999999998224e-01,0.000000000000000000e+00,0.000000000000000000e+00,0.000000000000000000e+00,0.000000000000000000e+00,0.000000000000000000e+00,0.000000000000000000e+00,0.000000000000000000e+00,0.000000000000000000e+00,0.000000000000000000e+00,0.000000000000000000e+00,1.761382019648612476e-02,1.331662650584525716e-05,1.761382019648612476e-02,1.331662650584525716e-05,1.761382019648612476e-02,1.331662650584525716e-05
8.000000000000000444e-01,8.099999999999998312e-01,0.000000000000000000e+00,0.000000000000000000e+00,0.000000000000000000e+00,0.000000000000000000e+00,0.000000000000000000e+00,0.000000000000000000e+00,0.000000000000000000e+00,0.000000000000000000e+00,0.000000000000000000e+00,0.000000000000000000e+00,1.846140155466860153e-02,1.358126045442577192e-05,1.846140155466860153e-02,1.358126045442577192e-05,1.846140155466860153e-02,1.358126045442577192e-05
8.100000000000001643e-01,8.199999999999999512e-01,0.000000000000000000e+00,0.000000000000000000e+00,0.000000000000000000e+00,0.000000000000000000e+00,0.000000000000000000e+00,0.000000000000000000e+00,0.000000000000000000e+00,0.000000000000000000e+00,0.000000000000000000e+00,0.000000000000000000e+00,1.946041470063269996e-02,1.410194662053440130e-05,1.946041470063269996e-02,1.410194662053440130e-05,1.946041470063269996e-02,1.410194662053440130e-05
8.200000000000000622e-01,8.299999999999998490e-01,0.000000000000000000e+00,0.000000000000000000e+00,0.000000000000000000e+00,0.000000000000000000e+00,0.000000000000000000e+00,0.000000000000000000e+00,0.000000000000000000e+00,0.000000000000000000e+00,0.000000000000000000e+00,0.000000000000000000e+00,2.068628661536558305e-02,1.483631974121818560e-05,2.068628661536558305e-02,1.483631974121818560e-05,2.068628661536558305e-02,1.483631974121818560e-05
8.300000000000000711e-01,8.399999999999998579e-01,0.000000000000000000e+00,0.000000000000000000e+00,0.000000000000000000e+00,0.000000000000000000e+00,0.000000000000000000e+00,0.000000000000000000e+00,0.000000000000000000e+00,0.000000000000000000e+00,0.000000000000000000e+00,0.000000000000000000e+00,2.223939904316336522e-02,1.599233588429454503e-05,2.223939904316336522e-02,1.599233588429454503e-05,2.223939904316336522e-02,1.599233588429454503e-05
8.400000000000001910e-01,8.499999999999999778e-01,0.000000000000000000e+00,0.000000000000000000e+00,0.000000000000000000e+00,0.000000000000000000e+00,0.000000000000000000e+00,0.000000000000000000e+00,0.000000000000000000e+00,0.000000000000000000e+00,0.000000000000000000e+00,0.000000000000000000e+00,2.412413470988617609e-02,1.741941872149580742e-05,2.412413470988617609e-02,1.741941872149580742e-05,2.412413470988617609e-02,1.741941872149580742e-05
8.500000000000001998e-01,8.599999999999999867e-01,0.000000000000000000e+00,0.000000000000000000e+00,0.000000000000000000e+00,0.000000000000000000e+00,0.000000000000000000e+00,0.000000000000000000e+00,0.000000000000000000e+00,0.000000000000000000e+00,0.000000000000000000e+00,0.000000000000000000e+00,2.659844902393400726e-02,2.082437912677140892e-05,2.659844902393400726e-02,2.082437912677140892e-05,2.659844902393400726e-02,2.082437912677140892e-05
8.600000000000000977e-01,8.699999999999998845e-01,0.000000000000000000e+00,0.000000000000000000e+00,0.000000000000000000e+00,0.000000000000000000e+00,0.000000000000000000e+00,0.000000000000000000e+00,0.000000000000000000e+00,0.000000000000000000e+00,0.000000000000000000e+00,0.000000000000000000e+00,2.978826505382446699e-02,2.369119492656015716e-05,2.978826505382446699e-02,2.369119492656015716e-05,2.978826505382446699e-02,2.369119492656015716e-05
8.699999999999998845e-01,8.799999999999996714e-01,0.000000000000000000e+00,0.000000000000000000e+00,0.000000000000000000e+00,0.000000000000000000e+00,0.000000000000000000e+00,0.000000000000000000e+00,0.000000000000000000e+00,0.000000000000000000e+00,0.000000000000000000e+00,0.000000000000000000e+00,3.437746289490341278e-02,2.793874948122250209e-05,3.437746289490341278e-02,2.793874948122250209e-05,3.437746289490341278e-02,2.793874948122250209e-05
8.800000000000001155e-01,8.899999999999999023e-01,0.000000000000000000e+00,0.000000000000000000e+00,0.000000000000000000e+00,0.000000000000000000e+00,0.000000000000000000e+00,0.000000000000000000e+00,0.000000000000000000e+00,0.000000000000000000e+00,0.000000000000000000e+00,0.000000000000000000e+00,4.148702546647983075e-02,3.507249540343967828e-05,4.148702546647983075e-02,3.507249540343967828e-05,4.148702546647983075e-02,3.507249540343967828e-05
8.900000000000000133e-01,8.999999999999998002e-01,0.000000000000000000e+00,0.000000000000000000e+00,0.000000000000000000e+00,0.000000000000000000e+00,0.000000000000000000e+00,0.000000000000000000e+00,0.000000000000000000e+00,0.000000000000000000e+00,0.000000000000000000e+00,0.000000000000000000e+00,5.387649825716882279e-02,4.452438585173349470e-05,5.387649825716882279e-02,4.452438585173349470e-05,5.387649825716882279e-02,4.452438585173349470e-05
9.000000000000000222e-01,9.099999999999998090e-01,0.000000000000000000e+00,0.000000000000000000e+00,2.333610235182141841e-03,3.533282414440485405e-05,1.384689119437960535e-03,3.098696883027006943e-05,2.333610235182141841e-03,3.533282414440485405e-05,2.333610235182141841e-03,3.533282414440485405e-05,8.473879994141760019e-02,7.982589926323252537e-05,8.477225900869495012e-02,7.982411916409211394e-05,8.472107905045087040e-02,7.982060303491509887e-05
9.099999999999999201e-01,9.199999999999997069e-01,0.000000000000000000e+00,0.000000000000000000e+00,3.337961980018522290e-01,5.086751171177313026e-04,2.001814278731236241e-01,4.243451785929102803e-04,3.337961980018522290e-01,5.086751171177313026e-04,3.337961980018522290e-01,5.086751171177313026e-04,3.816359538470593948e-01,5.965844867431457270e-04,3.861612743355650745e-01,5.965431484978404864e-04,3.789351027881756040e-01,5.964389061820721131e-04
9.200000000000001510e-01,9.299999999999999378e-01,0.000000000000000000e+00,0.000000000000000000e+00,8.756663982389907286e-01,7.804433591489497515e-04,5.049755020770693159e-01,6.845367672314646868e-04,8.756663982389907286e-01,7.804433591489497515e-04,8.756663982389907286e-01,7.804433591489497515e-04,7.548265151795481298e-01,9.123032263747577484e-04,7.669316463293135433e-01,9.122464111778273753e-04,7.478899502438773883e-01,9.120995587411094606e-04
9.300000000000002709e-01,9.400000000000000577e-01,0.000000000000000000e+00,0.000000000000000000e+00,8.182242538318519331e-01,6.112832185158321736e-04,4.898263703538077718e-01,5.690718305380360097e-04,8.182242538318519331e-01,6.112832185158321736e-04,8.182242538318519331e-01,6.112832185158321736e-04,5.763526271358508923e-01,7.002637836675031915e-04,5.877452792166988349e-01,7.002107491306253095e-04,5.699300154104154359e-01,7.000945853024129369e-04
9.400000000000000577e-01,9.499999999999998446e-01,0.000000000000000000e+00,0.000000000000000000e+00,2.481962759854606636e-03,3.615976806014824132e-05,1.855421514628742292e-03,3.579881261640552656e-05,2.481962759854606636e-03,3.615976806014824132e-05,2.481962759854606636e-03,3.615976806014824132e-05,1.154668672518271294e-03,4.039358474620911990e-05,1.186721696375454870e-03,4.039224643280702419e-05,1.132336018529015408e-03,4.038781696223400568e-05
9.500000000000001776e-01,9.599999999999999645e-01,0.000000000000000000e+00,0.000000000000000000e+00,0.000000000000000000e+00,0.000000000000000000e+00,0.000000000000000000e+00,0.000000000000000000e+00,0.000000000000000000e+00,0.000000000000000000e+00,0.000000000000000000e+00,0.000000000000000000e+00,0.000000000000000000e+00,0.000000000000000000e+00,0.000000000000000000e+00,0.000000000000000000e+00,0.000000000000000000e+00,0.000000000000000000e+00
9.600000000000001865e-01,9.699999999999999734e-01,0.000000000000000000e+00,0.000000000000000000e+00,0.000000000000000000e+00,0.000000000000000000e+00,0.000000000000000000e+00,0.000000000000000000e+00,0.000000000000000000e+00,0.000000000000000000e+00,0.000000000000000000e+00,0.000000000000000000e+00,0.000000000000000000e+00,0.000000000000000000e+00,0.000000000000000000e+00,0.000000000000000000e+00,0.000000000000000000e+00,0.000000000000000000e+00
9.700000000000000844e-01,9.799999999999998712e-01,0.000000000000000000e+00,0.000000000000000000e+00,0.000000000000000000e+00,0.000000000000000000e+00,0.000000000000000000e+00,0.000000000000000000e+00,0.000000000000000000e+00,0.000000000000000000e+00,0.000000000000000000e+00,0.000000000000000000e+00,0.000000000000000000e+00,0.000000000000000000e+00,0.000000000000000000e+00,0.000000000000000000e+00,0.000000000000000000e+00,0.000000000000000000e+00
9.800000000000000933e-01,9.899999999999998801e-01,0.000000000000000000e+00,0.000000000000000000e+00,0.000000000000000000e+00,0.000000000000000000e+00,0.000000000000000000e+00,0.000000000000000000e+00,0.000000000000000000e+00,0.000000000000000000e+00,0.000000000000000000e+00,0.000000000000000000e+00,0.000000000000000000e+00,0.000000000000000000e+00,0.000000000000000000e+00,0.000000000000000000e+00,0.000000000000000000e+00,0.000000000000000000e+00
9.899999999999999911e-01,9.999999999999997780e-01,0.000000000000000000e+00,0.000000000000000000e+00,0.000000000000000000e+00,0.000000000000000000e+00,0.000000000000000000e+00,0.000000000000000000e+00,0.000000000000000000e+00,0.000000000000000000e+00,0.000000000000000000e+00,0.000000000000000000e+00,0.000000000000000000e+00,0.000000000000000000e+00,0.000000000000000000e+00,0.000000000000000000e+00,0.000000000000000000e+00,0.000000000000000000e+00
