# xl,xh,LO,dLO,NLO,dNLO,NLOISC,dNLOISC,NLOL,dNLOL,NLOnovp,dNLOnovp,NNLO,dNNLO,NNLOL,dNNLOL,NNLOnovp,dNNLOnovp
-6.399999999999999023e-01,-6.200000000000001066e-01,0.000000000000000000e+00,0.000000000000000000e+00,4.250690047542979855e-01,7.434250671196477624e-04,4.790971234915064048e-01,7.300751012048238781e-04,4.250690047542979855e-01,7.434250671196477624e-04,4.250690047542979855e-01,7.434250671196477624e-04,3.860921672043953201e-01,7.599237961571919534e-04,3.860921672043953201e-01,7.599237961571919534e-04,3.860921672043953201e-01,7.599237961571919534e-04
-6.199999999999998845e-01,-6.000000000000000888e-01,0.000000000000000000e+00,0.000000000000000000e+00,1.523169626371300822e+00,9.225116979247057576e-04,1.718864050309170777e+00,8.898781445101972996e-04,1.523169626371300822e+00,9.225116979247057576e-04,1.523169626371300822e+00,9.225116979247057576e-04,1.373346434165762631e+00,9.539113635835513904e-04,1.373346434165762631e+00,9.539113635835513904e-04,1.373346434165762631e+00,9.539113635835513904e-04
-5.999999999999998668e-01,-5.800000000000000711e-01,0.000000000000000000e+00,0.000000000000000000e+00,3.433036410822931650e+00,1.322392398901245944e-03,3.883723773978417171e+00,1.272042550038680539e-03,3.433036410822931650e+00,1.322392398901245944e-03,3.433036410822931650e+00,1.322392398901245944e-03,3.058994822054853291e+00,1.373014553442557066e-03,3.058994822054853291e+00,1.373014553442557066e-03,3.058994822054853291e+00,1.373014553442557066e-03
-5.799999999999998490e-01,-5.600000000000000533e-01,0.000000000000000000e+00,0.000000000000000000e+00,7.276516320175399066e+00,2.163588935312806081e-03,8.278430323273846980e+00,2.063927528995516784e-03,7.276516320175399066e+00,2.163588935312806081e-03,7.276516320175399066e+00,2.163588935312806081e-03,6.358721659824581707e+00,2.246926736094237865e-03,6.358721659824581707e+00,2.246926736094237865e-03,6.358721659824581707e+00,2.246926736094237865e-03
-5.599999999999998312e-01,-5.400000000000000355e-01,6.872905549873753017e+00,1.594968040971250778e-02,2.598099751458436657e+01,2.809063874537734429e-02,2.908581776698984100e+01,2.706765065260386544e-02,2.598099751458436657e+01,2.809063874537734429e-02,2.598099751458436657e+01,2.809063874537734429e-02,2.240335085226021405e+01,2.837662080905370074e-02,2.240330326172291109e+01,2.837662080658781213e-02,2.240321907283277625e+01,2.837662075442411516e-02
-5.399999999999998135e-01,-5.200000000000000178e-01,4.618611096118300452e+02,7.830089489308501849e-02,3.953546203805949517e+02,1.066815945006241162e-01,3.975050221993278114e+02,1.044115384096383631e-01,3.953546203805949517e+02,1.066815945006241162e-01,3.953546203805949517e+02,1.066815945006241162e-01,4.008549714064739646e+02,1.081940039813460430e-01,4.008517845111867928e+02,1.081940039622584504e-01,4.008462374685196323e+02,1.081940038495565887e-01
-5.199999999999997957e-01,-5.000000000000000000e-01,4.752100397985514064e+02,1.108578979575217949e-01,4.190562549428505577e+02,1.312979224918771337e-01,4.232019574541341171e+02,1.293510763016997855e-01,4.190562549428505577e+02,1.312979224918771337e-01,4.190562549428505577e+02,1.312979224918771337e-01,4.220728132205400698e+02,1.323261300610470426e-01,4.220695352968346015e+02,1.323261300344270586e-01,4.220638326776833082e+02,1.323261299131491819e-01
-4.999999999999999445e-01,-4.800000000000001488e-01,4.879203554936049159e+02,1.273837014406020984e-01,4.336454123045908773e+02,1.466744624303495947e-01,4.382137905227646684e+02,1.444537748858322757e-01,4.336454123045908773e+02,1.466744624303495947e-01,4.336454123045908773e+02,1.466744624303495947e-01,4.362964011099342088e+02,1.477635181869903502e-01,4.362930332323396669e+02,1.477635181583807633e-01,4.362871776244826947e+02,1.477635180091398104e-01
-4.799999999999999267e-01,-4.600000000000001310e-01,5.003727315701921157e+02,1.482690691237959768e-01,4.463519881091557409e+02,1.774518747699467824e-01,4.510655287772397628e+02,1.750989979913815109e-01,4.463519881091557409e+02,1.774518747699467824e-01,4.463519881091557409e+02,1.774518747699467824e-01,4.488589893509354738e+02,1.786039887021042549e-01,4.488555390113489807e+02,1.786039886686944800e-01,4.488495349043255374e+02,1.786039884868271255e-01
-4.599999999999999090e-01,-4.400000000000001132e-01,5.122879209479533529e+02,1.530450302076710178e-01,4.582211785670519930e+02,1.973478023511980595e-01,4.629508558259892084e+02,1.951573094523555985e-01,4.582211785670519930e+02,1.973478023511980595e-01,4.582211785670519930e+02,1.973478023511980595e-01,4.607223643884140643e+02,1.982210855796263105e-01,4.607188265227179613e+02,1.982210855555389950e-01,4.607126742415888430e+02,1.982210853078343327e-01
-4.399999999999998912e-01,-4.200000000000000955e-01,5.233989057150007511e+02,1.654053773103777714e-01,4.686318053571856126e+02,1.955342081460838266e-01,4.733320942060320249e+02,1.929496567520461170e-01,4.686318053571856126e+02,1.955342081460838266e-01,4.686318053571856126e+02,1.955342081460838266e-01,4.711454780541692458e+02,1.963383348686670304e-01,4.711418671625166894e+02,1.963383348405430828e-01,4.711355868993336458e+02,1.963383346867553225e-01
-4.199999999999999845e-01,-4.000000000000001887e-01,5.343010702617494871e+02,1.951567901414527351e-01,4.786252713417833320e+02,2.137112569176426724e-01,4.831626814269514512e+02,2.112866251765759817e-01,4.786252713417833320e+02,2.137112569176426724e-01,4.786252713417833320e+02,2.137112569176426724e-01,4.811841013403796410e+02,2.148652414592459314e-01,4.811804176477655233e+02,2.148652414362135499e-01,4.811740091893597082e+02,2.148652413501127012e-01
-3.999999999999999667e-01,-3.800000000000001710e-01,5.446515547758342564e+02,1.729170346429148575e-01,4.881225270452192149e+02,2.015362223258263252e-01,4.925154469991854853e+02,1.976850847561379132e-01,4.881225270452192149e+02,2.015362223258263252e-01,4.881225270452192149e+02,2.015362223258263252e-01,4.907359303068780036e+02,2.021456145351467615e-01,4.907321707891750293e+02,2.021456145036942820e-01,4.907256153651224508e+02,2.021456143373510650e-01
-3.799999999999999489e-01,-3.600000000000001532e-01,5.542480155682178520e+02,1.841219878060066373e-01,4.968395777634566457e+02,2.105972782065207438e-01,5.010865143338480152e+02,2.088381536356656853e-01,4.968395777634566457e+02,2.105972782065207438e-01,4.968395777634566457e+02,2.105972782065207438e-01,4.995136926283446996e+02,2.113196652530061892e-01,4.995098710798913544e+02,2.113196652228629124e-01,4.995032258217353274e+02,2.113196650603970383e-01
-3.599999999999999312e-01,-3.400000000000001354e-01,5.636701427270384102e+02,2.101964096125173431e-01,5.055057457064941673e+02,2.346873592763723815e-01,5.095847679619062660e+02,2.323621120694837061e-01,5.055057457064941673e+02,2.346873592763723815e-01,5.055057457064941673e+02,2.346873592763723815e-01,5.082346165449328055e+02,2.357876299103565665e-01,5.082307279511869069e+02,2.357876298869364118e-01,5.082239589787636191e+02,2.357876297038860869e-01
-3.399999999999999134e-01,-3.200000000000001177e-01,5.721982967218052636e+02,2.016202079638835798e-01,5.132409641351608798e+02,2.247073927796807147e-01,5.171267095723036391e+02,2.224769190535609842e-01,5.132409641351608798e+02,2.247073927796807147e-01,5.132409641351608798e+02,2.247073927796807147e-01,5.159937764267849616e+02,2.262389416252086338e-01,5.159898260339218723e+02,2.262389415979807195e-01,5.159829560097265357e+02,2.262389414060788639e-01
-3.199999999999998956e-01,-3.000000000000000999e-01,5.806508381004379089e+02,2.192196924539391578e-01,5.211059623782392691e+02,2.389285443781958840e-01,5.247907213469104590e+02,2.367030144879520293e-01,5.211059623782392691e+02,2.389285443781958840e-01,5.211059623782392691e+02,2.389285443781958840e-01,5.239040439082115199e+02,2.398793602431298910e-01,5.239000431266562146e+02,2.398793602197311636e-01,5.238930834149839484e+02,2.398793601482950844e-01
-2.999999999999998779e-01,-2.800000000000000822e-01,5.880379780548256576e+02,2.146553458354752975e-01,5.278665927168088956e+02,2.444609930482109506e-01,5.313868670890865360e+02,2.424919349989880235e-01,5.278665927168088956e+02,2.444609930482109506e-01,5.278665927168088956e+02,2.444609930482109506e-01,5.307211692530073606e+02,2.453829125104651510e-01,5.307171069019622109e+02,2.453829124932735140e-01,5.307100461834212410e+02,2.453829124002013806e-01
-2.799999999999999156e-01,-2.600000000000001199e-01,5.956205343969180603e+02,2.032361691009148263e-01,5.349838535900526040e+02,2.282642942700714717e-01,5.383005054919899521e+02,2.258096493898974488e-01,5.349838535900526040e+02,2.282642942700714717e-01,5.349838535900526040e+02,2.282642942700714717e-01,5.378877174487359980e+02,2.290784482891271567e-01,5.378836111682487626e+02,2.290784482581511572e-01,5.378764703423584024e+02,2.290784481177109144e-01
-2.599999999999998979e-01,-2.400000000000001021e-01,6.022170844887384646e+02,2.160172827197864576e-01,5.410426480504836491e+02,2.414614099950467829e-01,5.441048267367713152e+02,2.384619799275533303e-01,5.410426480504836491e+02,2.414614099950467829e-01,5.410426480504836491e+02,2.414614099950467829e-01,5.439730248344865231e+02,2.425487247405045677e-01,5.439688700579926035e+02,2.425487247189544726e-01,5.439616444890895082e+02,2.425487246012691112e-01
-2.399999999999999079e-01,-2.200000000000001121e-01,6.082060171840088287e+02,2.754762217023544180e-01,5.466554569422556824e+02,3.121526194866686144e-01,5.495189027159253783e+02,3.105913550892996366e-01,5.466554569422556824e+02,3.121526194866686144e-01,5.466554569422556824e+02,3.121526194866686144e-01,5.496186662426767953e+02,3.133822786773238778e-01,5.496144694336500152e+02,3.133822786561870632e-01,5.496071539961008057e+02,3.133822785076469386e-01
-2.199999999999998901e-01,-2.000000000000000944e-01,6.139115342576722014e+02,2.864939019320280611e-01,5.519978448725099724e+02,3.113806792312761584e-01,5.546433576499190394e+02,3.094662807252482328e-01,5.519978448725099724e+02,3.113806792312761584e-01,5.519978448725099724e+02,3.113806792312761584e-01,5.549803175158821205e+02,3.124446834692069519e-01,5.549760820270111026e+02,3.124446834515318683e-01,5.549687182793699094e+02,3.124446833203177731e-01
-1.999999999999998723e-01,-1.800000000000000766e-01,6.189290567325542725e+02,2.787373692796912827e-01,5.566345698698144133e+02,3.120715609148689285e-01,5.590332950682517321e+02,3.092095559149442563e-01,5.566345698698144133e+02,3.120715609148689285e-01,5.566345698698144133e+02,3.120715609148689285e-01,5.596601601867351974e+02,3.131543485433114782e-01,5.596558905038762077e+02,3.131543485254919545e-01,5.596484541586228261e+02,3.131543484052254911e-01
-1.799999999999999101e-01,-1.600000000000001144e-01,6.238130081273752694e+02,3.193317903941977898e-01,5.613595935533189731e+02,3.390015788800724850e-01,5.635157105806231357e+02,3.370764231305491410e-01,5.613595935533189731e+02,3.390015788800724850e-01,5.613595935533189731e+02,3.390015788800724850e-01,5.644139285521622469e+02,3.396620689535138626e-01,5.644096233193563421e+02,3.396620689298946449e-01,5.644021319550561202e+02,3.396620688555892498e-01
-1.599999999999999201e-01,-1.400000000000001243e-01,6.274509546011337306e+02,3.404704200132935843e-01,5.648244466988602426e+02,3.549171246324153151e-01,5.667599993049668683e+02,3.523438789602679755e-01,5.648244466988602426e+02,3.549171246324153151e-01,5.648244466988602426e+02,3.549171246324153151e-01,5.678955110058753917e+02,3.556224948977280698e-01,5.678911824878439347e+02,3.556224948815055464e-01,5.678836606382824357e+02,3.556224947913529388e-01
-1.399999999999999023e-01,-1.200000000000001066e-01,6.316391924085799019e+02,3.551566005859268516e-01,5.688549281922346381e+02,3.816148876662338041e-01,5.705142417104906372e+02,3.788151799961259059e-01,5.688549281922346381e+02,3.816148876662338041e-01,5.688549281922346381e+02,3.816148876662338041e-01,5.719498069382559606e+02,3.822366501053519605e-01,5.719454503890419801e+02,3.822366500914556875e-01,5.719378700053662214e+02,3.822366499853488420e-01
-1.199999999999998984e-01,-1.000000000000001027e-01,6.343423292332337269e+02,4.130839495113031168e-01,5.714584235998951272e+02,4.280274046611498573e-01,5.729026051637985120e+02,4.266131679781378083e-01,5.714584235998951272e+02,4.280274046611498573e-01,5.714584235998951272e+02,4.280274046611498573e-01,5.745745970460941408e+02,4.290037078596169451e-01,5.745702184823910557e+02,4.290037078456925834e-01,5.745625971865931660e+02,4.290037077495433282e-01
-9.999999999999990841e-02,-8.000000000000011269e-02,6.372993625771174493e+02,4.160892528128228851e-01,5.744546129933211205e+02,4.344793770785262965e-01,5.756365587869549927e+02,4.332383029723641532e-01,5.744546129933211205e+02,4.344793770785262965e-01,5.744546129933211205e+02,4.344793770785262965e-01,5.775785368255959611e+02,4.350766978508856520e-01,5.775741426477915184e+02,4.350766978370186333e-01,5.775664923659687702e+02,4.350766977812282610e-01
-7.999999999999989064e-02,-6.000000000000009492e-02,6.388737051120029946e+02,4.217419444384765681e-01,5.760437303617169391e+02,4.365022084607740327e-01,5.769431667478736472e+02,4.350112785098603219e-01,5.760437303617169391e+02,4.365022084607740327e-01,5.760437303617169391e+02,4.365022084607740327e-01,5.791855137380632641e+02,4.370862841045203839e-01,5.791811029627233438e+02,4.370862840895715640e-01,5.791734350260534256e+02,4.370862840218084355e-01
-5.999999999999990757e-02,-4.000000000000011185e-02,6.408195402648834715e+02,4.595773883270907190e-01,5.781400663666014452e+02,4.737629783207145673e-01,5.788033102168838013e+02,4.726969831129611554e-01,5.781400663666014452e+02,4.737629783207145673e-01,5.781400663666014452e+02,4.737629783207145673e-01,5.812681456858184674e+02,4.748101453930618776e-01,5.812637289864736658e+02,4.748101453765247171e-01,5.812560374066263194e+02,4.748101453100281311e-01
-3.999999999999989675e-02,-2.000000000000010103e-02,6.417260353795345509e+02,4.611137496318295503e-01,5.790753693030692375e+02,4.765533855503625293e-01,5.794367853926905809e+02,4.753219223051673437e-01,5.790753693030692375e+02,4.765533855503625293e-01,5.790753693030692375e+02,4.765533855503625293e-01,5.822456038702345040e+02,4.772110916088470600e-01,5.822411763649561181e+02,4.772110915960691147e-01,5.822334742634538998e+02,4.772110914920734137e-01
-1.999999999999989980e-02,-1.023486850826316186e-16,6.419948372761065229e+02,4.599159300003926587e-01,5.796176983242750111e+02,4.744478143841436291e-01,5.797556101386571754e+02,4.729557148042421999e-01,5.796176983242750111e+02,4.744478143841436291e-01,5.796176983242750111e+02,4.744478143841436291e-01,5.827461130747057041e+02,4.749913827730388172e-01,5.827416797386088092e+02,4.749913827595655391e-01,5.827339712537315108e+02,4.749913826846990372e-01
1.023486850826316186e-16,1.999999999999989980e-02,6.422058114399305850e+02,5.284248086577908454e-01,5.801883374957565138e+02,5.405745328686546447e-01,5.800437756625030943e+02,5.391743417399590399e-01,5.801883374957565138e+02,5.405745328686546447e-01,5.801883374957565138e+02,5.405745328686546447e-01,5.833434974272396403e+02,5.410657919361228085e-01,5.833390680513747384e+02,5.410657919263703874e-01,5.833313569352344530e+02,5.410657918789555376e-01
2.000000000000010103e-02,3.999999999999989675e-02,6.418507692131731801e+02,4.941211776431104763e-01,5.800380273718865283e+02,5.118130140458679866e-01,5.796501010116868429e+02,5.106834603332542910e-01,5.800380273718865283e+02,5.118130140458679866e-01,5.800380273718865283e+02,5.118130140458679866e-01,5.831917927438425977e+02,5.123360827071882229e-01,5.831873677927482049e+02,5.123360826921841138e-01,5.831796720772404115e+02,5.123360826209567565e-01
4.000000000000009798e-02,5.999999999999989370e-02,6.404994864795525018e+02,4.362363139719611649e-01,5.791287902576618762e+02,4.520299751265604571e-01,5.784760325027106092e+02,4.508037380993686338e-01,5.791287902576618762e+02,4.520299751265604571e-01,5.791287902576618762e+02,4.520299751265604571e-01,5.822631017936324724e+02,4.526004839732205576e-01,5.822586799669638822e+02,4.526004839582769557e-01,5.822509980171561210e+02,4.526004838892513371e-01
6.000000000000010880e-02,7.999999999999990452e-02,6.391830378289262171e+02,5.094163777241634827e-01,5.781435592530642680e+02,5.238424841927417086e-01,5.772216188450629488e+02,5.228203746979446231e-01,5.781435592530642680e+02,5.238424841927417086e-01,5.781435592530642680e+02,5.238424841927417086e-01,5.812871827624780963e+02,5.244382334712246463e-01,5.812827739842512074e+02,5.244382334586422667e-01,5.812750933069984285e+02,5.244382333961743470e-01
8.000000000000011269e-02,9.999999999999990841e-02,6.371514838488427586e+02,4.087619763157740449e-01,5.766334994548527675e+02,4.251530571975812300e-01,5.754778868805558432e+02,4.239247907859717834e-01,5.766334994548527675e+02,4.251530571975812300e-01,5.766334994548527675e+02,4.251530571975812300e-01,5.797565651881387794e+02,4.259822223955341824e-01,5.797521699413799752e+02,4.259822223793816587e-01,5.797445301414836649e+02,4.259822222930898517e-01
1.000000000000000888e-01,1.199999999999998845e-01,6.342935465967841537e+02,3.864031194680807579e-01,5.742975882617434991e+02,4.005766872404470935e-01,5.728835579919209522e+02,3.992574810154361220e-01,5.742975882617434991e+02,4.005766872404470935e-01,5.742975882617434991e+02,4.005766872404470935e-01,5.773927568359939642e+02,4.011697009703097949e-01,5.773883824415056552e+02,4.011697009568393479e-01,5.773807554015985488e+02,4.011697008951427001e-01
1.200000000000000788e-01,1.399999999999998745e-01,6.314617472631389319e+02,3.679035808689278264e-01,5.720348417561617680e+02,3.839264272618195806e-01,5.703681279256776406e+02,3.826822651637152850e-01,5.720348417561617680e+02,3.839264272618195806e-01,5.720348417561617680e+02,3.839264272618195806e-01,5.751446721374137496e+02,3.848525639029661827e-01,5.751403142771980583e+02,3.848525638850444630e-01,5.751327422501724413e+02,3.848525636921482085e-01
1.400000000000000966e-01,1.599999999999998923e-01,6.279751106566694716e+02,3.601417454107052052e-01,5.691421843919447383e+02,3.759215103239006428e-01,5.672123807530866770e+02,3.741621524728583337e-01,5.691421843919447383e+02,3.759215103239006428e-01,5.691421843919447383e+02,3.759215103239006428e-01,5.722174111682214743e+02,3.767618448352716420e-01,5.722130791212881604e+02,3.767618448184388846e-01,5.722055463363235503e+02,3.767618446899749229e-01
1.600000000000001144e-01,1.799999999999999101e-01,6.235116896553420247e+02,3.347062986199865753e-01,5.653626868310072950e+02,3.516430565539071518e-01,5.631907139670647666e+02,3.502396137125906028e-01,5.653626868310072950e+02,3.516430565539071518e-01,5.653626868310072950e+02,3.516430565539071518e-01,5.684102443285756863e+02,3.522591884120082617e-01,5.684059412590069087e+02,3.522591883962237769e-01,5.683984403042717304e+02,3.522591882599671598e-01
1.800000000000000766e-01,1.999999999999998723e-01,6.190818394596293501e+02,2.617388042770747436e-01,5.616336823078588623e+02,2.817532155636334190e-01,5.592442526490027603e+02,2.798940728818507528e-01,5.616336823078588623e+02,2.817532155636334190e-01,5.616336823078588623e+02,2.817532155636334190e-01,5.646540589350072423e+02,2.825542919243212991e-01,5.646497885385803102e+02,2.825542919041890144e-01,5.646423604878750666e+02,2.825542918236506051e-01
2.000000000000000944e-01,2.199999999999998901e-01,6.138508018649978339e+02,3.156250106606265371e-01,5.572204531286115525e+02,3.360666453019857114e-01,5.545737244522068750e+02,3.341996370492635315e-01,5.572204531286115525e+02,3.360666453019857114e-01,5.572204531286115525e+02,3.360666453019857114e-01,5.602113446247340107e+02,3.368309379227417133e-01,5.602071088407827801e+02,3.368309379056072528e-01,5.601997332973262473e+02,3.368309377046908581e-01
2.200000000000000844e-01,2.399999999999998801e-01,6.084013801974108446e+02,2.811252978652628021e-01,5.525806953165233608e+02,3.035957028987850692e-01,5.497108840148057425e+02,3.016922722338009066e-01,5.525806953165233608e+02,3.035957028987850692e-01,5.525806953165233608e+02,3.035957028987850692e-01,5.555535997575520923e+02,3.044044002923346759e-01,5.555494024362000118e+02,3.044044002701212226e-01,5.555420965990050490e+02,3.044044001796681331e-01
2.400000000000001021e-01,2.599999999999998979e-01,6.021422185245850187e+02,2.683062253477623837e-01,5.472007080605698093e+02,2.938106524713751111e-01,5.440972487335218375e+02,2.908402621576240410e-01,5.472007080605698093e+02,2.938106524713751111e-01,5.472007080605698093e+02,2.938106524713751111e-01,5.501375463934360823e+02,2.946122065193599315e-01,5.501333925322419418e+02,2.946122064986899658e-01,5.501261649771279281e+02,2.946122063056316187e-01
2.600000000000001199e-01,2.799999999999999156e-01,5.952318177923862095e+02,2.105718689189086945e-01,5.410371983892262051e+02,2.298930652311772238e-01,5.377576398879508588e+02,2.277083750945914642e-01,5.410371983892262051e+02,2.298930652311772238e-01,5.410371983892262051e+02,2.298930652311772238e-01,5.439161443918351324e+02,2.311785554817659682e-01,5.439120355198515426e+02,2.311785554519606434e-01,5.439048901711482813e+02,2.311785553614437438e-01
2.800000000000000822e-01,2.999999999999998779e-01,5.883290310323178574e+02,2.247752356059420920e-01,5.352746628351596883e+02,2.457741774293679127e-01,5.317635733221146666e+02,2.437477868593171948e-01,5.352746628351596883e+02,2.457741774293679127e-01,5.352746628351596883e+02,2.457741774293679127e-01,5.381506079076776814e+02,2.467822532295942950e-01,5.381465484963348445e+02,2.467822532091304699e-01,5.381394839020692871e+02,2.467822531089565452e-01
3.000000000000000999e-01,3.199999999999998956e-01,5.806065049072881266e+02,2.203742690663466064e-01,5.284518811720422491e+02,2.392158104610617730e-01,5.247505872553981590e+02,2.372447662226676579e-01,5.284518811720422491e+02,2.392158104610617730e-01,5.284518811720422491e+02,2.392158104610617730e-01,5.312660580203305472e+02,2.401041761167159172e-01,5.312620535325302171e+02,2.401041760913897039e-01,5.312550799681558829e+02,2.401041759743256510e-01
3.200000000000001177e-01,3.399999999999999134e-01,5.722885661852450312e+02,2.421450930569403470e-01,5.211270314504959060e+02,2.565876185693358180e-01,5.172469252350711031e+02,2.547344796172394399e-01,5.211270314504959060e+02,2.565876185693358180e-01,5.211270314504959060e+02,2.565876185693358180e-01,5.239042126544160283e+02,2.574922981178300319e-01,5.239002670329770126e+02,2.574922980981033671e-01,5.238933989555773678e+02,2.574922979924591515e-01
3.400000000000001354e-01,3.599999999999999312e-01,5.633936756174368838e+02,2.144666420567707121e-01,5.133926139336101642e+02,2.346489768950278387e-01,5.092955720878887291e+02,2.319998808410334568e-01,5.133926139336101642e+02,2.346489768950278387e-01,5.133926139336101642e+02,2.346489768950278387e-01,5.161112277713123149e+02,2.355720067538905060e-01,5.161073376639217258e+02,2.355720067333917922e-01,5.161005744220527731e+02,2.355720065747712588e-01
3.600000000000000422e-01,3.799999999999998379e-01,5.544644937931276445e+02,1.673684623932810700e-01,5.055032360841466925e+02,1.984880077749117122e-01,5.012660401503085268e+02,1.956772704837787813e-01,5.055032360841466925e+02,1.984880077749117122e-01,5.055032360841466925e+02,1.984880077749117122e-01,5.081772574759000918e+02,1.996057693364201024e-01,5.081734336357579878e+02,1.996057693081100815e-01,5.081667614136896418e+02,1.996057690797689854e-01
3.800000000000000600e-01,3.999999999999998557e-01,5.446718604996665363e+02,1.634337636942036764e-01,4.969638651386343895e+02,1.914762284212263022e-01,4.925681515682454688e+02,1.888443824327970533e-01,4.969638651386343895e+02,1.914762284212263022e-01,4.969638651386343895e+02,1.914762284212263022e-01,4.995833466366333369e+02,1.922591787056257273e-01,4.995795890791274587e+02,1.922591786779249412e-01,4.995730536833769975e+02,1.922591785254324781e-01
4.000000000000000777e-01,4.199999999999998734e-01,5.342161627695910511e+02,1.623473160261905412e-01,4.876396667398445288e+02,1.903778666051648416e-01,4.830902363207679286e+02,1.881673182667143729e-01,4.876396667398445288e+02,1.903778666051648416e-01,4.876396667398445288e+02,1.903778666051648416e-01,4.901943788642568052e+02,1.912494886134653294e-01,4.901906936966650505e+02,1.912494885914235165e-01,4.901842869080092555e+02,1.912494884973607034e-01
4.200000000000000955e-01,4.399999999999998912e-01,5.234371554052514739e+02,1.733134724038869756e-01,4.780824576971368174e+02,1.942183579963456252e-01,4.734227173284335208e+02,1.920435306902988082e-01,4.780824576971368174e+02,1.942183579963456252e-01,4.780824576971368174e+02,1.942183579963456252e-01,4.806003408869440250e+02,1.954526411226426286e-01,4.805967288644649784e+02,1.954526410926818725e-01,4.805904456569032845e+02,1.954526409827335998e-01
4.400000000000001132e-01,4.599999999999999090e-01,5.122021770631746449e+02,1.596996907892925810e-01,4.674119069773806245e+02,1.860469566064566760e-01,4.626724622635746869e+02,1.841047813271406153e-01,4.674119069773806245e+02,1.860469566064566760e-01,4.674119069773806245e+02,1.860469566064566760e-01,4.699028777953980693e+02,1.867335806842104762e-01,4.698993452577685730e+02,1.867335806597670012e-01,4.698931917241170027e+02,1.867335805652484138e-01
4.600000000000001310e-01,4.799999999999999267e-01,5.003476957922794668e+02,1.505235767674497072e-01,4.558192585178783816e+02,1.776374340864691204e-01,4.511045940056590666e+02,1.748033093100964108e-01,4.558192585178783816e+02,1.776374340864691204e-01,4.558192585178783816e+02,1.776374340864691204e-01,4.583433136212551631e+02,1.784895682690817720e-01,4.583398616226096465e+02,1.784895682417469709e-01,4.583338617812254370e+02,1.784895681699057712e-01
4.800000000000001488e-01,4.999999999999999445e-01,4.880512472011412797e+02,1.303733238617499346e-01,4.429040578397624017e+02,1.500995241433199512e-01,4.383374062625443912e+02,1.473209751499205689e-01,4.429040578397624017e+02,1.500995241433199512e-01,4.429040578397624017e+02,1.500995241433199512e-01,4.455402598697808685e+02,1.510221713962665302e-01,4.455368929486479033e+02,1.510221713537739374e-01,4.455310291193931675e+02,1.510221712643994851e-01
5.000000000000002220e-01,5.200000000000000178e-01,4.752854124064745633e+02,1.107854870662206836e-01,4.274189163984260631e+02,1.279564236994180371e-01,4.232792874475780422e+02,1.257628757532316954e-01,4.274189163984260631e+02,1.279564236994180371e-01,4.274189163984260631e+02,1.279564236994180371e-01,4.304443135830375127e+02,1.287886171479717679e-01,4.304410359656655487e+02,1.287886171162739568e-01,4.304353220460073430e+02,1.287886167811179150e-01
5.200000000000000178e-01,5.399999999999998135e-01,4.617608105312036173e+02,8.182261926018040421e-02,3.995444661720553086e+02,1.161019483409718028e-01,3.973916504332455020e+02,1.136179081096764659e-01,3.995444661720553086e+02,1.161019483409718028e-01,3.995444661720553086e+02,1.161019483409718028e-01,4.050386461124000448e+02,1.177489538267370850e-01,4.050354594582054801e+02,1.177489538103543842e-01,4.050299212238444966e+02,1.177489536484493948e-01
5.400000000000000355e-01,5.599999999999998312e-01,6.908917615982050009e+00,2.810161147572569698e-02,3.221397773513589158e+01,4.084963499015721589e-02,2.910790129648605529e+01,4.040406644355116345e-02,3.221397773513589158e+01,4.084963499015721589e-02,3.221397773513589158e+01,4.084963499015721589e-02,2.864283272982376616e+01,4.115714695182148136e-02,2.864278437721204185e+01,4.115714694556848324e-02,2.864270269287992576e+01,4.115714692620309895e-02
5.600000000000000533e-01,5.799999999999998490e-01,0.000000000000000000e+00,0.000000000000000000e+00,9.277378954950451728e+00,2.293847237532361302e-03,8.277113893697105595e+00,2.198066063895882331e-03,9.277378954950451728e+00,2.293847237532361302e-03,9.277378954950451728e+00,2.293847237532361302e-03,8.360239651600327448e+00,2.384785247623096450e-03,8.360239651600327448e+00,2.384785247623096450e-03,8.360239651600327448e+00,2.384785247623096450e-03
5.800000000000000711e-01,5.999999999999998668e-01,0.000000000000000000e+00,0.000000000000000000e+00,4.336279712663885455e+00,1.392191896949545324e-03,3.885135992399984417e+00,1.331176344783797753e-03,4.336279712663885455e+00,1.392191896949545324e-03,4.336279712663885455e+00,1.392191896949545324e-03,3.963049629886445047e+00,1.463729655228228430e-03,3.963049629886445047e+00,1.463729655228228430e-03,3.963049629886445047e+00,1.463729655228228430e-03
6.000000000000000888e-01,6.199999999999998845e-01,0.000000000000000000e+00,0.000000000000000000e+00,1.914956688652518890e+00,9.745320013406386052e-04,1.719912019130551251e+00,9.225321609458356480e-04,1.914956688652518890e+00,9.745320013406386052e-04,1.914956688652518890e+00,9.745320013406386052e-04,1.764636469164767130e+00,1.007701865220690402e-03,1.764636469164767130e+00,1.007701865220690402e-03,1.764636469164767130e+00,1.007701865220690402e-03
6.200000000000001066e-01,6.399999999999999023e-01,0.000000000000000000e+00,0.000000000000000000e+00,5.316523011948580679e-01,6.809973199773903130e-04,4.774444060870960960e-01,6.566053444416646359e-04,5.316523011948580679e-01,6.809973199773903130e-04,5.316523011948580679e-01,6.809973199773903130e-04,4.929653808786628733e-01,7.001783037366943012e-04,4.929653808786628733e-01,7.001783037366943012e-04,4.929653808786628733e-01,7.001783037366943012e-04
