# xl,xh,LO,dLO,NLO,dNLO,NLOISC,dNLOISC,NLOL,dNLOL,NLOnovp,dNLOnovp,NNLO,dNNLO,NNLOL,dNNLOL,NNLOnovp,dNNLOnovp
4.500000000000001776e-01,4.599999999999999645e-01,0.000000000000000000e+00,0.000000000000000000e+00,4.222071951560639469e-02,5.542376489025635858e-04,4.254403214254757343e-02,4.779668648323382005e-04,4.222071951560639469e-02,5.542376489025635858e-04,4.222071951560639469e-02,5.542376489025635858e-04,6.181352299919785909e-02,6.152306595369886385e-04,6.181352299919785909e-02,6.152306595369886385e-04,6.181352299919785909e-02,6.152306595369886385e-04
4.600000000000000755e-01,4.699999999999998623e-01,0.000000000000000000e+00,0.000000000000000000e+00,4.922641261960784831e-02,5.652292387794547509e-04,4.915809164124724379e-02,5.062569418641072816e-04,4.922641261960784831e-02,5.652292387794547509e-04,4.922641261960784831e-02,5.652292387794547509e-04,7.402106297754247610e-02,6.177110434699865709e-04,7.402106297754247610e-02,6.177110434699865709e-04,7.402106297754247610e-02,6.177110434699865709e-04
4.700000000000000844e-01,4.799999999999998712e-01,0.000000000000000000e+00,0.000000000000000000e+00,5.571213012124607428e-02,6.170356211852762217e-04,5.580230748815631636e-02,5.594015755162906091e-04,5.571213012124607428e-02,6.170356211852762217e-04,5.571213012124607428e-02,6.170356211852762217e-04,8.535784808765375931e-02,6.656465567121204029e-04,8.535784808765375931e-02,6.656465567121204029e-04,8.535784808765375931e-02,6.656465567121204029e-04
4.800000000000000933e-01,4.899999999999998801e-01,0.000000000000000000e+00,0.000000000000000000e+00,6.368930390924881779e-02,6.511601818317667859e-04,6.345836672470542283e-02,5.863120831395530422e-04,6.368930390924881779e-02,6.511601818317667859e-04,6.368930390924881779e-02,6.511601818317667859e-04,9.922646072514330895e-02,7.022391731859346786e-04,9.922646072514330895e-02,7.022391731859346786e-04,9.922646072514330895e-02,7.022391731859346786e-04
4.900000000000001021e-01,4.999999999999998890e-01,0.000000000000000000e+00,0.000000000000000000e+00,7.175282873658100913e-02,7.130674796385868316e-04,7.226807370595002278e-02,6.463404313597344124e-04,7.175282873658100913e-02,7.130674796385868316e-04,7.175282873658100913e-02,7.130674796385868316e-04,1.129404202998671169e-01,7.512225494020467092e-04,1.129404202998671169e-01,7.512225494020467092e-04,1.129404202998671169e-01,7.512225494020467092e-04
5.000000000000000000e-01,5.099999999999997868e-01,0.000000000000000000e+00,0.000000000000000000e+00,8.300782722383466539e-02,7.464441829741989137e-04,8.289105587808352771e-02,6.586938732405864120e-04,8.300782722383466539e-02,7.464441829741989137e-04,8.300782722383466539e-02,7.464441829741989137e-04,1.308146371456579415e-01,7.721752105090411329e-04,1.308146371456579415e-01,7.721752105090411329e-04,1.308146371456579415e-01,7.721752105090411329e-04
5.100000000000000089e-01,5.199999999999997957e-01,0.000000000000000000e+00,0.000000000000000000e+00,9.534875112198390457e-02,7.338324373985860094e-04,9.511972177714704546e-02,6.321691867499514656e-04,9.534875112198390457e-02,7.338324373985860094e-04,9.534875112198390457e-02,7.338324373985860094e-04,1.503232100003745464e-01,7.594050189152999879e-04,1.503232100003745464e-01,7.594050189152999879e-04,1.503232100003745464e-01,7.594050189152999879e-04
5.200000000000001288e-01,5.299999999999999156e-01,0.000000000000000000e+00,0.000000000000000000e+00,1.090203623449616660e-01,7.365021881685622105e-04,1.085345644725174696e-01,6.232010244845954342e-04,1.090203623449616660e-01,7.365021881685622105e-04,1.090203623449616660e-01,7.365021881685622105e-04,1.720475971746248112e-01,7.671337660096830139e-04,1.720475971746248112e-01,7.671337660096830139e-04,1.720475971746248112e-01,7.671337660096830139e-04
5.300000000000000266e-01,5.399999999999998135e-01,0.000000000000000000e+00,0.000000000000000000e+00,1.263730768422065553e-01,6.995782816043735709e-04,1.257167609208887649e-01,5.872330541884661533e-04,1.263730768422065553e-01,6.995782816043735709e-04,1.263730768422065553e-01,6.995782816043735709e-04,1.980980593350985530e-01,7.287453777287864441e-04,1.980980593350985530e-01,7.287453777287864441e-04,1.980980593350985530e-01,7.287453777287864441e-04
5.400000000000000355e-01,5.499999999999998224e-01,0.000000000000000000e+00,0.000000000000000000e+00,1.442293981585952289e-01,7.475014824702161473e-04,1.440658532879014186e-01,6.050918361107345596e-04,1.442293981585952289e-01,7.475014824702161473e-04,1.442293981585952289e-01,7.475014824702161473e-04,2.263697830346486917e-01,7.825725266496052612e-04,2.263697830346486917e-01,7.825725266496052612e-04,2.263697830346486917e-01,7.825725266496052612e-04
5.500000000000000444e-01,5.599999999999998312e-01,0.000000000000000000e+00,0.000000000000000000e+00,1.656472951772789415e-01,7.996791316055367697e-04,1.654578366127108235e-01,6.704599670376764839e-04,1.656472951772789415e-01,7.996791316055367697e-04,1.656472951772789415e-01,7.996791316055367697e-04,2.596947113799630280e-01,8.351085571146031356e-04,2.596947113799630280e-01,8.351085571146031356e-04,2.596947113799630280e-01,8.351085571146031356e-04
5.600000000000001643e-01,5.699999999999999512e-01,0.000000000000000000e+00,0.000000000000000000e+00,1.923245298980253704e-01,9.318603605641282090e-04,1.920295828507719571e-01,8.118967616374030962e-04,1.923245298980253704e-01,9.318603605641282090e-04,1.923245298980253704e-01,9.318603605641282090e-04,2.996862531145685904e-01,9.792497476512143379e-04,2.996862531145685904e-01,9.792497476512143379e-04,2.996862531145685904e-01,9.792497476512143379e-04
5.700000000000000622e-01,5.799999999999998490e-01,0.000000000000000000e+00,0.000000000000000000e+00,2.225737231533791161e-01,9.528829575312124708e-04,2.233652480430977361e-01,8.376453510204102558e-04,2.225737231533791161e-01,9.528829575312124708e-04,2.225737231533791161e-01,9.528829575312124708e-04,3.459190700915220074e-01,9.931004703658435125e-04,3.459190700915220074e-01,9.931004703658435125e-04,3.459190700915220074e-01,9.931004703658435125e-04
5.800000000000001821e-01,5.899999999999999689e-01,0.000000000000000000e+00,0.000000000000000000e+00,2.584480826741584192e-01,1.009369995412609956e-03,2.588106948182822276e-01,8.922976814192331175e-04,2.584480826741584192e-01,1.009369995412609956e-03,2.584480826741584192e-01,1.009369995412609956e-03,3.995905490962556872e-01,1.050740316883588474e-03,3.995905490962556872e-01,1.050740316883588474e-03,3.995905490962556872e-01,1.050740316883588474e-03
5.900000000000000799e-01,5.999999999999998668e-01,0.000000000000000000e+00,0.000000000000000000e+00,3.016569621870018314e-01,1.122572594637430074e-03,3.013947798573409775e-01,9.961658410380278775e-04,3.016569621870018314e-01,1.122572594637430074e-03,3.016569621870018314e-01,1.122572594637430074e-03,4.643993678566276095e-01,1.171344469855723934e-03,4.643993678566276095e-01,1.171344469855723934e-03,4.643993678566276095e-01,1.171344469855723934e-03
6.000000000000001998e-01,6.099999999999999867e-01,0.000000000000000000e+00,0.000000000000000000e+00,3.538780278824601444e-01,1.280239944347321551e-03,3.532312597636553253e-01,1.151455756963494070e-03,3.538780278824601444e-01,1.280239944347321551e-03,3.538780278824601444e-01,1.280239944347321551e-03,5.405255621989251136e-01,1.320872063679810618e-03,5.405255621989251136e-01,1.320872063679810618e-03,5.405255621989251136e-01,1.320872063679810618e-03
6.100000000000000977e-01,6.199999999999998845e-01,0.000000000000000000e+00,0.000000000000000000e+00,4.119334502494654271e-01,1.498695656450206234e-03,4.133819395331361779e-01,1.363478091864811980e-03,4.119334502494654271e-01,1.498695656450206234e-03,4.119334502494654271e-01,1.498695656450206234e-03,6.280863786325775466e-01,1.534326555107421754e-03,6.280863786325775466e-01,1.534326555107421754e-03,6.280863786325775466e-01,1.534326555107421754e-03
6.199999999999999956e-01,6.299999999999997824e-01,0.000000000000000000e+00,0.000000000000000000e+00,4.899909120487456748e-01,1.492870691914314346e-03,4.895851421134030379e-01,1.343704550863895767e-03,4.899909120487456748e-01,1.492870691914314346e-03,4.899909120487456748e-01,1.492870691914314346e-03,7.400475566209629985e-01,1.560114708449311183e-03,7.400475566209629985e-01,1.560114708449311183e-03,7.400475566209629985e-01,1.560114708449311183e-03
6.300000000000001155e-01,6.399999999999999023e-01,0.000000000000000000e+00,0.000000000000000000e+00,5.785115884212480575e-01,1.650500758988232780e-03,5.787740192939890838e-01,1.488940022895555038e-03,5.785115884212480575e-01,1.650500758988232780e-03,5.785115884212480575e-01,1.650500758988232780e-03,8.691459327338705299e-01,1.706134552861291896e-03,8.691459327338705299e-01,1.706134552861291896e-03,8.691459327338705299e-01,1.706134552861291896e-03
6.400000000000000133e-01,6.499999999999998002e-01,0.000000000000000000e+00,0.000000000000000000e+00,6.893946796352939943e-01,1.570620237102498444e-03,6.908367843333822478e-01,1.381360009969185079e-03,6.893946796352939943e-01,1.570620237102498444e-03,6.893946796352939943e-01,1.570620237102498444e-03,1.028092367856695333e+00,1.622426588678994386e-03,1.028092367856695333e+00,1.622426588678994386e-03,1.028092367856695333e+00,1.622426588678994386e-03
6.500000000000000222e-01,6.599999999999998090e-01,0.000000000000000000e+00,0.000000000000000000e+00,8.268678930077464351e-01,1.538435462071203672e-03,8.272488564121351917e-01,1.316590899730740944e-03,8.268678930077464351e-01,1.538435462071203672e-03,8.268678930077464351e-01,1.538435462071203672e-03,1.223912154733472146e+00,1.602795646303928085e-03,1.223912154733472146e+00,1.602795646303928085e-03,1.223912154733472146e+00,1.602795646303928085e-03
6.600000000000000311e-01,6.699999999999998179e-01,0.000000000000000000e+00,0.000000000000000000e+00,9.966694881473021628e-01,1.568107089372922916e-03,9.964856748907336970e-01,1.295148469187886115e-03,9.966694881473021628e-01,1.568107089372922916e-03,9.966694881473021628e-01,1.568107089372922916e-03,1.463681889289158100e+00,1.636428101321084003e-03,1.463681889289158100e+00,1.636428101321084003e-03,1.463681889289158100e+00,1.636428101321084003e-03
6.700000000000001510e-01,6.799999999999999378e-01,0.000000000000000000e+00,0.000000000000000000e+00,1.207197561018139131e+00,1.664745692724492595e-03,1.207079188858732444e+00,1.397435622568055091e-03,1.207197561018139131e+00,1.664745692724492595e-03,1.207197561018139131e+00,1.664745692724492595e-03,1.758725135064784340e+00,1.726320781809474519e-03,1.758725135064784340e+00,1.726320781809474519e-03,1.758725135064784340e+00,1.726320781809474519e-03
6.800000000000000488e-01,6.899999999999998357e-01,0.000000000000000000e+00,0.000000000000000000e+00,1.479452802138550238e+00,1.698484256775339594e-03,1.479061619664539418e+00,1.392490127707258097e-03,1.479452802138550238e+00,1.698484256775339594e-03,1.479452802138550238e+00,1.698484256775339594e-03,2.135575524469865538e+00,1.760375774675105752e-03,2.135575524469865538e+00,1.760375774675105752e-03,2.135575524469865538e+00,1.760375774675105752e-03
6.900000000000000577e-01,6.999999999999998446e-01,0.000000000000000000e+00,0.000000000000000000e+00,1.827829807264010897e+00,1.911949972012750047e-03,1.828852990293833969e+00,1.587626458503387569e-03,1.827829807264010897e+00,1.911949972012750047e-03,1.827829807264010897e+00,1.911949972012750047e-03,2.612831193283117415e+00,1.974117723404154347e-03,2.612831193283117415e+00,1.974117723404154347e-03,2.612831193283117415e+00,1.974117723404154347e-03
7.000000000000000666e-01,7.099999999999998535e-01,0.000000000000000000e+00,0.000000000000000000e+00,2.293395540518798903e+00,1.965722993681052414e-03,2.294166551201821669e+00,1.547693844157787234e-03,2.293395540518798903e+00,1.965722993681052414e-03,2.293395540518798903e+00,1.965722993681052414e-03,3.240401712264127099e+00,2.044627038301890555e-03,3.240401712264127099e+00,2.044627038301890555e-03,3.240401712264127099e+00,2.044627038301890555e-03
7.100000000000001865e-01,7.199999999999999734e-01,0.000000000000000000e+00,0.000000000000000000e+00,2.938982711719438701e+00,2.165728847886602085e-03,2.938655884343114089e+00,1.757597835211985576e-03,2.938982711719438701e+00,2.165728847886602085e-03,2.938982711719438701e+00,2.165728847886602085e-03,4.093537987283248469e+00,2.232772971267250276e-03,4.093537987283248469e+00,2.232772971267250276e-03,4.093537987283248469e+00,2.232772971267250276e-03
7.200000000000000844e-01,7.299999999999998712e-01,0.000000000000000000e+00,0.000000000000000000e+00,4.035495459920186434e+00,2.534124849283033668e-03,4.034913396426100363e+00,2.145784703284509595e-03,4.035495459920186434e+00,2.534124849283033668e-03,4.035495459920186434e+00,2.534124849283033668e-03,5.433865664562722131e+00,2.617820868584094709e-03,5.433865664562722131e+00,2.617820868584094709e-03,5.433865664562722131e+00,2.617820868584094709e-03
7.300000000000000933e-01,7.399999999999998801e-01,0.000000000000000000e+00,0.000000000000000000e+00,6.260107535206684837e+00,2.850258870135370052e-03,6.262382302190563799e+00,2.419787408582863356e-03,6.260107535206684837e+00,2.850258870135370052e-03,6.260107535206684837e+00,2.850258870135370052e-03,7.829533990619795603e+00,2.975396383762881226e-03,7.829533990619795603e+00,2.975396383762881226e-03,7.829533990619795603e+00,2.975396383762881226e-03
7.400000000000001021e-01,7.499999999999998890e-01,0.000000000000000000e+00,0.000000000000000000e+00,9.534366669507967629e+00,3.548754962645001790e-03,9.531696198898563566e+00,3.091215017673426980e-03,9.534366669507967629e+00,3.548754962645001790e-03,9.534366669507967629e+00,3.548754962645001790e-03,1.123128679274075381e+01,3.685482917693287588e-03,1.123128679274075381e+01,3.685482917693287588e-03,1.123128679274075381e+01,3.685482917693287588e-03
7.500000000000000000e-01,7.599999999999997868e-01,0.000000000000000000e+00,0.000000000000000000e+00,1.404489364095493542e+01,3.810324556260753087e-03,1.404311354770350029e+01,3.363973692469547118e-03,1.404489364095493542e+01,3.810324556260753087e-03,1.404489364095493542e+01,3.810324556260753087e-03,1.583286329780237267e+01,3.989917572193078452e-03,1.583286329780237267e+01,3.989917572193078452e-03,1.583286329780237267e+01,3.989917572193078452e-03
7.600000000000000089e-01,7.699999999999997957e-01,0.000000000000000000e+00,0.000000000000000000e+00,2.019465496772507151e+01,4.643093350383885147e-03,2.019652840069811361e+01,4.178375235850907178e-03,2.019465496772507151e+01,4.643093350383885147e-03,2.019465496772507151e+01,4.643093350383885147e-03,2.200085201983794647e+01,4.865937977433649510e-03,2.200085201983794647e+01,4.865937977433649510e-03,2.200085201983794647e+01,4.865937977433649510e-03
7.700000000000001288e-01,7.799999999999999156e-01,0.000000000000000000e+00,0.000000000000000000e+00,2.852635424870244663e+01,5.390044382457965556e-03,2.852610078638065261e+01,4.837998438558302125e-03,2.852635424870244663e+01,5.390044382457965556e-03,2.852635424870244663e+01,5.390044382457965556e-03,3.022775711713229896e+01,5.706131302385765436e-03,3.022775711713229896e+01,5.706131302385765436e-03,3.022775711713229896e+01,5.706131302385765436e-03
7.800000000000001377e-01,7.899999999999999245e-01,0.000000000000000000e+00,0.000000000000000000e+00,3.974585699015044327e+01,6.447347226882078203e-03,3.974679175458062019e+01,5.948114903027653527e-03,3.974585699015044327e+01,6.447347226882078203e-03,3.974585699015044327e+01,6.447347226882078203e-03,4.115449189447554801e+01,6.807981981042321440e-03,4.115449189447554801e+01,6.807981981042321440e-03,4.115449189447554801e+01,6.807981981042321440e-03
7.900000000000000355e-01,7.999999999999998224e-01,0.000000000000000000e+00,0.000000000000000000e+00,5.481505880160909783e+01,7.627528238337923788e-03,5.481145479202184845e+01,7.133049554547973327e-03,5.481505880160909783e+01,7.627528238337923788e-03,5.481505880160909783e+01,7.627528238337923788e-03,5.562488680058244483e+01,8.134302845786318958e-03,5.562488680058244483e+01,8.134302845786318958e-03,5.562488680058244483e+01,8.134302845786318958e-03
8.000000000000000444e-01,8.099999999999998312e-01,0.000000000000000000e+00,0.000000000000000000e+00,7.497905125097400969e+01,8.671079466694294260e-03,7.498339045424283711e+01,8.104906202986972980e-03,7.497905125097400969e+01,8.671079466694294260e-03,7.497905125097400969e+01,8.671079466694294260e-03,7.473618631590358063e+01,9.242708642779236608e-03,7.473618631590358063e+01,9.242708642779236608e-03,7.473618631590358063e+01,9.242708642779236608e-03
8.100000000000001643e-01,8.199999999999999512e-01,0.000000000000000000e+00,0.000000000000000000e+00,1.018608258338067145e+02,1.044593493938764800e-02,1.018571135283978606e+02,9.820991103085983595e-03,1.018608258338067145e+02,1.044593493938764800e-02,1.018608258338067145e+02,1.044593493938764800e-02,9.987984528215903879e+01,1.138636299587737245e-02,9.987984528215903879e+01,1.138636299587737245e-02,9.987984528215903879e+01,1.138636299587737245e-02
8.200000000000000622e-01,8.299999999999998490e-01,0.000000000000000000e+00,0.000000000000000000e+00,1.375863422413662533e+02,1.140749768541533121e-02,1.375877567309591996e+02,1.078989866195297076e-02,1.375863422413662533e+02,1.140749768541533121e-02,1.375863422413662533e+02,1.140749768541533121e-02,1.328547977835115432e+02,1.266040415768876146e-02,1.328547977835115432e+02,1.266040415768876146e-02,1.328547977835115432e+02,1.266040415768876146e-02
8.300000000000000711e-01,8.399999999999998579e-01,0.000000000000000000e+00,0.000000000000000000e+00,1.850916430558585262e+02,1.347410179709016345e-02,1.850943555061377879e+02,1.278013012303229334e-02,1.850916430558585262e+02,1.347410179709016345e-02,1.850916430558585262e+02,1.347410179709016345e-02,1.760981797638316948e+02,1.464308142511841319e-02,1.760981797638316948e+02,1.464308142511841319e-02,1.760981797638316948e+02,1.464308142511841319e-02
8.400000000000001910e-01,8.499999999999999778e-01,0.000000000000000000e+00,0.000000000000000000e+00,2.483907099500387687e+02,1.612007982531859021e-02,2.483854415136110845e+02,1.500080547770295085e-02,2.483907099500387687e+02,1.612007982531859021e-02,2.483907099500387687e+02,1.612007982531859021e-02,2.328150681525516461e+02,1.771650755639441605e-02,2.328150681525516461e+02,1.771650755639441605e-02,2.328150681525516461e+02,1.771650755639441605e-02
8.500000000000001998e-01,8.599999999999999867e-01,0.000000000000000000e+00,0.000000000000000000e+00,3.293608250184988151e+02,1.981818361787658286e-02,3.293646233682432012e+02,1.790979421712669828e-02,3.293608250184988151e+02,1.981818361787658286e-02,3.293608250184988151e+02,1.981818361787658286e-02,3.043333802554229806e+02,2.198425120825573884e-02,3.043333802554229806e+02,2.198425120825573884e-02,3.043333802554229806e+02,2.198425120825573884e-02
8.600000000000000977e-01,8.699999999999998845e-01,0.000000000000000000e+00,0.000000000000000000e+00,4.367547850226126229e+02,2.627446080896297595e-02,4.367599978133044374e+02,2.411490235377339308e-02,4.367547850226126229e+02,2.627446080896297595e-02,4.367547850226126229e+02,2.627446080896297595e-02,3.983835255882447086e+02,2.952910302888716101e-02,3.983835255882447086e+02,2.952910302888716101e-02,3.983835255882447086e+02,2.952910302888716101e-02
8.699999999999998845e-01,8.799999999999996714e-01,0.000000000000000000e+00,0.000000000000000000e+00,6.006986821440061703e+02,3.600587046805147490e-02,6.006932100719461687e+02,3.309999484908968809e-02,6.006986821440061703e+02,3.600587046805147490e-02,6.006986821440061703e+02,3.600587046805147490e-02,5.394895205386848147e+02,3.910875561975748343e-02,5.394895205386848147e+02,3.910875561975748343e-02,5.394895205386848147e+02,3.910875561975748343e-02
8.800000000000001155e-01,8.899999999999999023e-01,0.000000000000000000e+00,0.000000000000000000e+00,8.777469125706737714e+02,5.340029048211691193e-02,8.777643922866369621e+02,4.953017092023254131e-02,8.777469125706737714e+02,5.340029048211691193e-02,8.777469125706737714e+02,5.340029048211691193e-02,7.728045806328839262e+02,5.798567685912582592e-02,7.728045806328839262e+02,5.798567685912582592e-02,7.728045806328839262e+02,5.798567685912582592e-02
8.900000000000000133e-01,8.999999999999998002e-01,0.000000000000000000e+00,0.000000000000000000e+00,1.429902054327085580e+03,8.301803440921756705e-02,1.429900469023960568e+03,7.606072385666354241e-02,1.429902054327085580e+03,8.301803440921756705e-02,1.429902054327085580e+03,8.301803440921756705e-02,1.223935809972921106e+03,8.980155092440481046e-02,1.223935809972921106e+03,8.980155092440481046e-02,1.223935809972921106e+03,8.980155092440481046e-02
9.000000000000000222e-01,9.099999999999998090e-01,0.000000000000000000e+00,0.000000000000000000e+00,3.051445508140536276e+03,1.683006343422502327e-01,3.051492315646575207e+03,1.532283215106860497e-01,3.051445508140536276e+03,1.683006343422502327e-01,3.051445508140536276e+03,1.683006343422502327e-01,2.483309758171959402e+03,1.791073871103851523e-01,2.483309758171959402e+03,1.791073871103851523e-01,2.483309758171959402e+03,1.791073871103851523e-01
9.099999999999999201e-01,9.199999999999997069e-01,6.265077884114000335e+04,7.062766493485411745e-02,4.897029861887091829e+04,3.925380670410942852e+00,4.897025457465462387e+04,3.560810324781511493e+00,4.897029861887091829e+04,3.925380670410942852e+00,4.897029861887091829e+04,3.925380670410942852e+00,5.028788829628834355e+04,4.060477886677537285e+00,5.028745606051934737e+04,4.060477886675136538e+00,5.028670367374576017e+04,4.060477885938059472e+00
9.200000000000001510e-01,9.299999999999999378e-01,0.000000000000000000e+00,0.000000000000000000e+00,0.000000000000000000e+00,0.000000000000000000e+00,0.000000000000000000e+00,0.000000000000000000e+00,0.000000000000000000e+00,0.000000000000000000e+00,0.000000000000000000e+00,0.000000000000000000e+00,0.000000000000000000e+00,0.000000000000000000e+00,0.000000000000000000e+00,0.000000000000000000e+00,0.000000000000000000e+00,0.000000000000000000e+00
9.300000000000002709e-01,9.400000000000000577e-01,0.000000000000000000e+00,0.000000000000000000e+00,0.000000000000000000e+00,0.000000000000000000e+00,0.000000000000000000e+00,0.000000000000000000e+00,0.000000000000000000e+00,0.000000000000000000e+00,0.000000000000000000e+00,0.000000000000000000e+00,0.000000000000000000e+00,0.000000000000000000e+00,0.000000000000000000e+00,0.000000000000000000e+00,0.000000000000000000e+00,0.000000000000000000e+00
9.400000000000000577e-01,9.499999999999998446e-01,0.000000000000000000e+00,0.000000000000000000e+00,0.000000000000000000e+00,0.000000000000000000e+00,0.000000000000000000e+00,0.000000000000000000e+00,0.000000000000000000e+00,0.000000000000000000e+00,0.000000000000000000e+00,0.000000000000000000e+00,0.000000000000000000e+00,0.000000000000000000e+00,0.000000000000000000e+00,0.000000000000000000e+00,0.000000000000000000e+00,0.000000000000000000e+00
9.500000000000001776e-01,9.599999999999999645e-01,0.000000000000000000e+00,0.000000000000000000e+00,0.000000000000000000e+00,0.000000000000000000e+00,0.000000000000000000e+00,0.000000000000000000e+00,0.000000000000000000e+00,0.000000000000000000e+00,0.000000000000000000e+00,0.000000000000000000e+00,0.000000000000000000e+00,0.000000000000000000e+00,0.000000000000000000e+00,0.000000000000000000e+00,0.000000000000000000e+00,0.000000000000000000e+00
9.600000000000001865e-01,9.699999999999999734e-01,0.000000000000000000e+00,0.000000000000000000e+00,0.000000000000000000e+00,0.000000000000000000e+00,0.000000000000000000e+00,0.000000000000000000e+00,0.000000000000000000e+00,0.000000000000000000e+00,0.000000000000000000e+00,0.000000000000000000e+00,0.000000000000000000e+00,0.000000000000000000e+00,0.000000000000000000e+00,0.000000000000000000e+00,0.000000000000000000e+00,0.000000000000000000e+00
9.700000000000000844e-01,9.799999999999998712e-01,0.000000000000000000e+00,0.000000000000000000e+00,0.000000000000000000e+00,0.000000000000000000e+00,0.000000000000000000e+00,0.000000000000000000e+00,0.000000000000000000e+00,0.000000000000000000e+00,0.000000000000000000e+00,0.000000000000000000e+00,0.000000000000000000e+00,0.000000000000000000e+00,0.000000000000000000e+00,0.000000000000000000e+00,0.000000000000000000e+00,0.000000000000000000e+00
9.800000000000000933e-01,9.899999999999998801e-01,0.000000000000000000e+00,0.000000000000000000e+00,0.000000000000000000e+00,0.000000000000000000e+00,0.000000000000000000e+00,0.000000000000000000e+00,0.000000000000000000e+00,0.000000000000000000e+00,0.000000000000000000e+00,0.000000000000000000e+00,0.000000000000000000e+00,0.000000000000000000e+00,0.000000000000000000e+00,0.000000000000000000e+00,0.000000000000000000e+00,0.000000000000000000e+00
9.899999999999999911e-01,9.999999999999997780e-01,0.000000000000000000e+00,0.000000000000000000e+00,0.000000000000000000e+00,0.000000000000000000e+00,0.000000000000000000e+00,0.000000000000000000e+00,0.000000000000000000e+00,0.000000000000000000e+00,0.000000000000000000e+00,0.000000000000000000e+00,0.000000000000000000e+00,0.000000000000000000e+00,0.000000000000000000e+00,0.000000000000000000e+00,0.000000000000000000e+00,0.000000000000000000e+00
