# xl,xh,LO,dLO,YFSLO,dYFSLO
0.000000000000000000e+00,5.000000000000000104e-03,1.615511799999999857e+04,2.562156123268056973e+00,1.145877399999999943e+04,2.185932295383367752e+00
5.000000000000000104e-03,1.000000000000000021e-02,0.000000000000000000e+00,0.000000000000000000e+00,6.015506000000000313e+02,4.909105824893164605e-01
1.000000000000000021e-02,1.499999999999999944e-02,0.000000000000000000e+00,0.000000000000000000e+00,3.639200000000000728e+02,3.808055671861955149e-01
1.499999999999999944e-02,2.000000000000000042e-02,0.000000000000000000e+00,0.000000000000000000e+00,2.635533999999999537e+02,3.230342396712769237e-01
2.000000000000000042e-02,2.500000000000000139e-02,0.000000000000000000e+00,0.000000000000000000e+00,2.066253999999999280e+02,2.853763830452687444e-01
2.500000000000000139e-02,2.999999999999999889e-02,0.000000000000000000e+00,0.000000000000000000e+00,1.702398600000000783e+02,2.588965816692064270e-01
2.999999999999999889e-02,3.500000000000000333e-02,0.000000000000000000e+00,0.000000000000000000e+00,1.451587199999998745e+02,2.388010050230105208e-01
3.500000000000000333e-02,4.000000000000000083e-02,0.000000000000000000e+00,0.000000000000000000e+00,1.262662400000000531e+02,2.224525117862238277e-01
4.000000000000000083e-02,4.499999999999999833e-02,0.000000000000000000e+00,0.000000000000000000e+00,1.116188600000000690e+02,2.088737417676047869e-01
4.499999999999999833e-02,5.000000000000000278e-02,0.000000000000000000e+00,0.000000000000000000e+00,1.003307199999999142e+02,1.974856146659799694e-01
5.000000000000000278e-02,5.500000000000000028e-02,0.000000000000000000e+00,0.000000000000000000e+00,9.098088000000004172e+01,1.878857844542796418e-01
5.500000000000000028e-02,5.999999999999999778e-02,0.000000000000000000e+00,0.000000000000000000e+00,8.280198000000004299e+01,1.790068713764922381e-01
5.999999999999999778e-02,6.500000000000000222e-02,0.000000000000000000e+00,0.000000000000000000e+00,7.636369999999993752e+01,1.716705099893396091e-01
6.500000000000000222e-02,7.000000000000000666e-02,0.000000000000000000e+00,0.000000000000000000e+00,7.045551999999993598e+01,1.647930338333509492e-01
7.000000000000000666e-02,7.499999999999999722e-02,0.000000000000000000e+00,0.000000000000000000e+00,6.578400000000011971e+01,1.591520028149193688e-01
7.499999999999999722e-02,8.000000000000000167e-02,0.000000000000000000e+00,0.000000000000000000e+00,6.141445999999994854e+01,1.536945021788351240e-01
8.000000000000000167e-02,8.500000000000000611e-02,0.000000000000000000e+00,0.000000000000000000e+00,5.798081999999995162e+01,1.492596395547033383e-01
8.500000000000000611e-02,8.999999999999999667e-02,0.000000000000000000e+00,0.000000000000000000e+00,5.449544000000009447e+01,1.447653826023337642e-01
8.999999999999999667e-02,9.500000000000000111e-02,0.000000000000000000e+00,0.000000000000000000e+00,5.110905999999994975e+01,1.402431887829136969e-01
9.500000000000000111e-02,1.000000000000000056e-01,0.000000000000000000e+00,0.000000000000000000e+00,4.856503999999995358e+01,1.367582099912102722e-01
1.000000000000000056e-01,1.049999999999999961e-01,0.000000000000000000e+00,0.000000000000000000e+00,4.621242000000008687e+01,1.333646129976016892e-01
1.049999999999999961e-01,1.100000000000000006e-01,0.000000000000000000e+00,0.000000000000000000e+00,4.402997999999995926e+01,1.301213126278703280e-01
1.100000000000000006e-01,1.150000000000000050e-01,0.000000000000000000e+00,0.000000000000000000e+00,4.206077999999995853e+01,1.271820899340782574e-01
1.150000000000000050e-01,1.199999999999999956e-01,0.000000000000000000e+00,0.000000000000000000e+00,4.011296000000007211e+01,1.244583464457087174e-01
1.199999999999999956e-01,1.250000000000000000e-01,0.000000000000000000e+00,0.000000000000000000e+00,3.838553999999997046e+01,1.217514353098146096e-01
1.250000000000000000e-01,1.300000000000000044e-01,0.000000000000000000e+00,0.000000000000000000e+00,3.674599999999996669e+01,1.191562839299714627e-01
1.300000000000000044e-01,1.350000000000000089e-01,0.000000000000000000e+00,0.000000000000000000e+00,3.528729999999996636e+01,1.168326153092533459e-01
1.350000000000000089e-01,1.400000000000000133e-01,0.000000000000000000e+00,0.000000000000000000e+00,3.387571999999996564e+01,1.143627037106065419e-01
1.400000000000000133e-01,1.449999999999999900e-01,0.000000000000000000e+00,0.000000000000000000e+00,3.258568000000015275e+01,1.119925890405258778e-01
1.449999999999999900e-01,1.499999999999999944e-01,0.000000000000000000e+00,0.000000000000000000e+00,3.139247999999997418e+01,1.097024885770599978e-01
1.499999999999999944e-01,1.549999999999999989e-01,0.000000000000000000e+00,0.000000000000000000e+00,3.019991999999997390e+01,1.075170312090135000e-01
1.549999999999999989e-01,1.600000000000000033e-01,0.000000000000000000e+00,0.000000000000000000e+00,2.919353999999997384e+01,1.057798090374528072e-01
1.600000000000000033e-01,1.650000000000000078e-01,0.000000000000000000e+00,0.000000000000000000e+00,2.831879999999997466e+01,1.042180214742151889e-01
1.650000000000000078e-01,1.700000000000000122e-01,0.000000000000000000e+00,0.000000000000000000e+00,2.724177999999997368e+01,1.022342799651857620e-01
1.700000000000000122e-01,1.749999999999999889e-01,0.000000000000000000e+00,0.000000000000000000e+00,2.636134000000012279e+01,1.006324798462211040e-01
1.749999999999999889e-01,1.799999999999999933e-01,0.000000000000000000e+00,0.000000000000000000e+00,2.563087999999997635e+01,9.921824429004971746e-02
1.799999999999999933e-01,1.849999999999999978e-01,0.000000000000000000e+00,0.000000000000000000e+00,2.472033999999997533e+01,9.743024171169843706e-02
1.849999999999999978e-01,1.900000000000000022e-01,0.000000000000000000e+00,0.000000000000000000e+00,2.394933999999997809e+01,9.579716070949068074e-02
1.900000000000000022e-01,1.950000000000000067e-01,0.000000000000000000e+00,0.000000000000000000e+00,2.330987999999997839e+01,9.444634455604930534e-02
1.950000000000000067e-01,2.000000000000000111e-01,0.000000000000000000e+00,0.000000000000000000e+00,2.255933999999998107e+01,9.267051310961856025e-02
2.000000000000000111e-01,2.049999999999999878e-01,0.000000000000000000e+00,0.000000000000000000e+00,2.188962000000010377e+01,9.133621406649214403e-02
2.049999999999999878e-01,2.099999999999999922e-01,0.000000000000000000e+00,0.000000000000000000e+00,2.135325999999998103e+01,9.022352243179150577e-02
2.099999999999999922e-01,2.149999999999999967e-01,0.000000000000000000e+00,0.000000000000000000e+00,2.059371999999997982e+01,8.868582750360953781e-02
2.149999999999999967e-01,2.200000000000000011e-01,0.000000000000000000e+00,0.000000000000000000e+00,2.014837999999998175e+01,8.774004786868984385e-02
2.200000000000000011e-01,2.250000000000000056e-01,0.000000000000000000e+00,0.000000000000000000e+00,1.953750399999998422e+01,8.642090024988161034e-02
2.250000000000000056e-01,2.300000000000000100e-01,0.000000000000000000e+00,0.000000000000000000e+00,1.902190599999998355e+01,8.533833839488548512e-02
2.300000000000000100e-01,2.349999999999999867e-01,0.000000000000000000e+00,0.000000000000000000e+00,1.834925600000008572e+01,8.384473746157276863e-02
2.349999999999999867e-01,2.399999999999999911e-01,0.000000000000000000e+00,0.000000000000000000e+00,1.778137799999998592e+01,8.261360662747987971e-02
2.399999999999999911e-01,2.449999999999999956e-01,0.000000000000000000e+00,0.000000000000000000e+00,1.686985599999998442e+01,8.048855819307480786e-02
2.449999999999999956e-01,2.500000000000000000e-01,0.000000000000000000e+00,0.000000000000000000e+00,1.602684599999998483e+01,7.843302875702294619e-02
