# xl,xh,LO,dLO,CS+LOnovp,dCS+LOnovp,CS+LO,dCS+LO
0,0.03,0.2479403828,6.337846316e-05,0.2466954441,2.55045578e-05,0.2622338826,2.718453449e-05
0.03,0.06,0.2483081756,6.342510656e-05,0.2470367247,2.552187088e-05,0.262656378,2.720926955e-05
0.06,0.09,0.2490060198,6.351351158e-05,0.2476943694,2.555519839e-05,0.2633807855,2.724430198e-05
0.09,0.12,0.2500856545,6.365003447e-05,0.248759803,2.560909121e-05,0.2644573166,2.730017188e-05
0.12,0.15,0.2515107626,6.382978122e-05,0.250108835,2.567715585e-05,0.2659331368,2.737886519e-05
0.15,0.18,0.2533179293,6.405696785e-05,0.251844633,2.576444872e-05,0.2677668861,2.746697466e-05
0.18,0.21,0.2554085653,6.431876169e-05,0.2538984093,2.58673233e-05,0.2699730271,2.758221216e-05
0.21,0.24,0.2578988762,6.462917718e-05,0.2563286035,2.598848611e-05,0.2725199962,2.770906782e-05
0.24,0.27,0.2607052975,6.497716235e-05,0.2591309032,2.612744851e-05,0.2754961202,2.785638088e-05
0.27,0.3,0.264131442,6.539940486e-05,0.2622646875,2.628190924e-05,0.2787660361,2.80214149e-05
0.3,0.33,0.2676489248,6.582999444e-05,0.265747062,2.645240967e-05,0.2824754183,2.820580269e-05
0.33,0.36,0.2714605147,6.629332926e-05,0.2695737247,2.663840504e-05,0.2865680149,2.840478839e-05
0.36,0.39,0.2760047933,6.684139456e-05,0.2737049339,2.683763694e-05,0.2909726842,2.861849757e-05
0.39,0.42,0.2804975992,6.73787284e-05,0.2782494252,2.705496329e-05,0.2956750178,2.88476414e-05
0.42,0.45,0.285334979,6.795235831e-05,0.2830484163,2.728242032e-05,0.3008773598,2.909075919e-05
0.45,0.48,0.2907363718,6.858701205e-05,0.2882481952,2.752656816e-05,0.3062957761,2.93455261e-05
0.48,0.51,0.2962334567,6.922672626e-05,0.2937039905,2.778022597e-05,0.3121112432,2.962145453e-05
0.51,0.54,0.302119394,6.990497262e-05,0.2994487849,2.804461696e-05,0.3181331679,2.990137212e-05
0.54,0.57,0.3080744983,7.058431654e-05,0.3052927362,2.831080447e-05,0.3244216612,3.019088619e-05
0.57,0.6,0.3142161078,7.127790292e-05,0.3113635164,2.858445247e-05,0.3308115158,3.048451323e-05
0.6,0.63,0.3201937428,7.194631121e-05,0.3173134954,2.884989528e-05,0.3371986638,3.07703666e-05
0.63,0.66,0.3260624593,7.259632188e-05,0.3230427969,2.91029808e-05,0.3432430908,3.103929143e-05
0.66,0.69,0.3310349468,7.314237149e-05,0.3281892089,2.932826946e-05,0.3485348941,3.127400673e-05
0.69,0.72,0.3345143172,7.352194675e-05,0.3321143059,2.949882021e-05,0.3525511578,3.144893551e-05
0.72,0.75,0.3359097976,7.367361332e-05,0.3339361197,2.957761149e-05,0.3543524354,3.153496693e-05
0.75,0.78,0.3332588195,7.338521527e-05,0.3321848871,2.950187695e-05,0.3524737516,3.145400685e-05
0.78,0.81,0.3251489066,7.249553645e-05,0.3258685551,2.922691779e-05,0.34589201,3.116355808e-05
0.81,0.84,0.3143009971,7.128744159e-05,0.3167605339,2.882533966e-05,0.3364160459,3.074860251e-05
0.84,0.87,0.3066530723,7.042278055e-05,0.3095788516,2.850430562e-05,0.3287825641,3.040861143e-05
0.87,0.9,0.3009317925,6.97686741e-05,0.3031277943,2.821251344e-05,0.3214859616,3.007390287e-05
0.9,0.93,0.2756850764,6.680298783e-05,0.2782414042,2.705458112e-05,0.2952346998,2.885032293e-05
0.93,0.96,0.2118214286,5.861186699e-05,0.2175306003,2.397537189e-05,0.231827912,2.563125157e-05
0.96,0.99,0.1082548886,4.196524946e-05,0.1091800419,1.705322477e-05,0.1174735602,1.834124495e-05
0.99,1.02,0,0,0,0,0,0
