# xl,xh,LO,dLO,CS+LOnovp,dCS+LOnovp,CS+LO,dCS+LO
0,0.03,0.2478867963,6.337166345e-05,0.2466602385,2.550277088e-05,0.2623063333,2.719030938e-05
0.03,0.06,0.2482315845,6.341539515e-05,0.2470061133,2.552031837e-05,0.2626332501,2.720502501e-05
0.06,0.09,0.2490403899,6.351786169e-05,0.2476777501,2.555435642e-05,0.2633587891,2.724689103e-05
0.09,0.12,0.2500585973,6.364661614e-05,0.2487572072,2.560896013e-05,0.264488532,2.73031177e-05
0.12,0.15,0.2514415936,6.382106835e-05,0.2501176285,2.567759877e-05,0.2659173807,2.737510884e-05
0.15,0.18,0.2533360293,6.405923993e-05,0.2518341731,2.576392367e-05,0.2677698484,2.747267452e-05
0.18,0.21,0.2555293847,6.433385801e-05,0.2539369724,2.586925097e-05,0.2699605006,2.75815225e-05
0.21,0.24,0.2579205225,6.46318692e-05,0.2563056937,2.598734653e-05,0.2725177387,2.771045636e-05
0.24,0.27,0.2607457281,6.498216248e-05,0.2591354152,2.612767164e-05,0.2754720944,2.785513609e-05
0.27,0.3,0.2640568477,6.539024013e-05,0.2622680085,2.62820729e-05,0.2787719214,2.801436929e-05
0.3,0.33,0.2676643132,6.583187146e-05,0.2657358534,2.645186297e-05,0.2824504859,2.820105213e-05
0.33,0.36,0.2715713357,6.630675093e-05,0.2695929571,2.663933658e-05,0.2865674759,2.840762688e-05
0.36,0.39,0.2757805703,6.681446232e-05,0.2737067007,2.683772164e-05,0.2908881406,2.861945143e-05
0.39,0.42,0.2804713167,6.737559776e-05,0.2782491189,2.705494882e-05,0.295712609,2.884541811e-05
0.42,0.45,0.2854331963,6.796395401e-05,0.2830886416,2.728431812e-05,0.3008688484,2.909136018e-05
0.45,0.48,0.290638142,6.857552405e-05,0.2882520622,2.75267488e-05,0.3063409342,2.934884022e-05
0.48,0.51,0.2963932642,6.924523143e-05,0.2936791295,2.77790756e-05,0.3121627578,2.962738359e-05
0.51,0.54,0.3020882492,6.990140113e-05,0.2993699005,2.804100453e-05,0.318105122,2.989727686e-05
0.54,0.57,0.3081468397,7.059252781e-05,0.3053716706,2.83143816e-05,0.3244289263,3.019261522e-05
0.57,0.6,0.3141887007,7.127482492e-05,0.311339409,2.858337163e-05,0.3308462895,3.048233295e-05
0.6,0.63,0.3202681004,7.19545864e-05,0.3173372895,2.885095101e-05,0.3371459359,3.077123918e-05
0.63,0.66,0.3258308406,7.257078439e-05,0.3230222472,2.910207742e-05,0.3432469826,3.104348775e-05
0.66,0.69,0.3310349927,7.314237671e-05,0.3281921081,2.932839603e-05,0.3485437088,3.127114232e-05
0.69,0.72,0.3347518258,7.354778333e-05,0.3320912793,2.949782287e-05,0.3525129661,3.145059234e-05
0.72,0.75,0.3360010194,7.36835155e-05,0.3338490524,2.957385156e-05,0.3543689903,3.152996965e-05
0.75,0.78,0.3332040402,7.337924443e-05,0.3322320476,2.950391921e-05,0.3524902288,3.145433961e-05
0.78,0.81,0.3251656985,7.249739093e-05,0.3258899362,2.922785295e-05,0.3459258926,3.11648297e-05
0.81,0.84,0.3143623137,7.129433093e-05,0.3167843641,2.882639854e-05,0.3364088897,3.074612705e-05
0.84,0.87,0.3065641321,7.041266031e-05,0.3096088381,2.850565433e-05,0.328733799,3.04033225e-05
0.87,0.9,0.3009584433,6.977173336e-05,0.3030915933,2.821086668e-05,0.3215683609,3.00780994e-05
0.9,0.93,0.2755688648,6.678902216e-05,0.2783177507,2.705821609e-05,0.2951769665,2.885035765e-05
0.93,0.96,0.2118907919,5.862140403e-05,0.2175371899,2.397572993e-05,0.2317681808,2.563039796e-05
0.96,0.99,0.1082496134,4.196422974e-05,0.1091552943,1.705130725e-05,0.1174953301,1.834186662e-05
0.99,1.02,0,0,0,0,0,0
