# xl,xh,LO,dLO,CS+LOnovp,dCS+LOnovp,CS+LO,dCS+LO
0,0.02,0.225151616,7.407652357e-05,0.2228508588,2.979617322e-05,0.2364231455,3.172740868e-05
0.02,0.04,0.2254060417,7.411818074e-05,0.2229871283,2.9805182e-05,0.2365307924,3.174464303e-05
0.04,0.06,0.2255902864,7.414832895e-05,0.223375088,2.983081544e-05,0.2368870898,3.176013573e-05
0.06,0.08,0.2260466248,7.422295447e-05,0.2237760668,2.985728506e-05,0.2373800325,3.179173673e-05
0.08,0.1,0.226812068,7.434795532e-05,0.2244274231,2.990022987e-05,0.2380648945,3.183857753e-05
0.1,0.12,0.2275643979,7.447060354e-05,0.2251874014,2.995025586e-05,0.2389336731,3.190014165e-05
0.12,0.14,0.2283574845,7.459967838e-05,0.2261589976,3.001408442e-05,0.2399556953,3.197026861e-05
0.14,0.16,0.2296500546,7.480955529e-05,0.2273488451,3.009205773e-05,0.2411655541,3.204522627e-05
0.16,0.18,0.2309906444,7.502659716e-05,0.2286195857,3.017509931e-05,0.2425076548,3.213401606e-05
0.18,0.2,0.2325774844,7.528268424e-05,0.230219345,3.027930391e-05,0.2441403601,3.224367849e-05
0.2,0.22,0.2341965573,7.554306085e-05,0.2318196989,3.038317326e-05,0.2459320692,3.235568503e-05
0.22,0.24,0.2359953243,7.583126794e-05,0.2336705445,3.05028388e-05,0.2478471853,3.248764742e-05
0.24,0.26,0.2380948857,7.616626435e-05,0.2357151113,3.063446076e-05,0.2500155467,3.262418721e-05
0.26,0.28,0.2403692765,7.652747169e-05,0.2380318372,3.078289107e-05,0.252427794,3.278753788e-05
0.28,0.3,0.2428015967,7.691184527e-05,0.2404287459,3.093567355e-05,0.2550651687,3.294701901e-05
0.3,0.32,0.2453557136,7.731337253e-05,0.2431185949,3.110619215e-05,0.257931086,3.312660483e-05
0.32,0.34,0.2483175614,7.777634873e-05,0.2460842248,3.129306362e-05,0.2610288562,3.332647193e-05
0.34,0.36,0.2517144879,7.830390041e-05,0.2492815108,3.149322946e-05,0.2643219227,3.353134821e-05
0.36,0.38,0.2549111533,7.879705819e-05,0.2527005714,3.170581158e-05,0.2680251759,3.376590361e-05
0.38,0.4,0.2586831732,7.937495811e-05,0.2564280492,3.193587666e-05,0.2718781592,3.400757282e-05
0.4,0.42,0.2627789147,7.999763238e-05,0.2603780622,3.217778945e-05,0.276180099,3.427264744e-05
0.42,0.44,0.2669285309,8.062348912e-05,0.2647126255,3.244106993e-05,0.2807513717,3.454709853e-05
0.44,0.46,0.2716703722,8.133264695e-05,0.2694248752,3.272476099e-05,0.2856792367,3.484493565e-05
0.46,0.48,0.2767064276,8.207895267e-05,0.2744813275,3.302631807e-05,0.2910154423,3.516695417e-05
0.48,0.5,0.2820566833,8.286429473e-05,0.2798340736,3.334241039e-05,0.2968701104,3.55168304e-05
0.5,0.52,0.2879153008,8.371562046e-05,0.2856971375,3.368504439e-05,0.3031158211,3.588310942e-05
0.52,0.54,0.2940566936,8.459862848e-05,0.2920773316,3.405375897e-05,0.309786694,3.627292055e-05
0.54,0.56,0.30100594,8.558655094e-05,0.2989124489,3.444412955e-05,0.317104256,3.668741171e-05
0.56,0.58,0.30842427,8.662843194e-05,0.3065156011,3.487292311e-05,0.3250302586,3.714884766e-05
0.58,0.6,0.3165091391,8.774949204e-05,0.314545776,3.531980143e-05,0.3337332667,3.763081314e-05
0.6,0.62,0.3252819994,8.894957383e-05,0.3233737739,3.580423718e-05,0.3431562298,3.815966149e-05
0.62,0.64,0.3349537836,9.025365558e-05,0.3331564491,3.63330291e-05,0.3534848935,3.87201084e-05
0.64,0.66,0.3452762516,9.162445411e-05,0.3438433284,3.690145836e-05,0.3647252996,3.93198425e-05
0.66,0.68,0.3568082464,9.313136766e-05,0.3555248617,3.751226273e-05,0.377291504,3.998200807e-05
0.68,0.7,0.3698640108,9.480767919e-05,0.3685715207,3.818207303e-05,0.3912181836,4.070507971e-05
0.7,0.72,0.3841951195,9.661328729e-05,0.3830015509,3.890848516e-05,0.4066796364,4.148328075e-05
0.72,0.74,0.4003158129,9.860366098e-05,0.3992660885,3.97100948e-05,0.4238851161,4.233371988e-05
0.74,0.76,0.4184773651,0.0001007974633,0.4174606843,4.058656549e-05,0.4434279498,4.328392256e-05
0.76,0.78,0.4386790265,0.0001031811116,0.43829579,4.156563432e-05,0.4656337258,4.433318059e-05
0.78,0.8,0.4619907606,0.0001058627403,0.4619939088,4.264951713e-05,0.4910227627,4.550368475e-05
0.8,0.82,0,0,0,0,0,0
0.82,0.84,0,0,0,0,0,0
0.84,0.86,0,0,0,0,0,0
0.86,0.88,0.6007992498,0.0001205571994,0.6033813916,4.856973127e-05,0.6439750567,5.194650506e-05
0.88,0.9,0.6522308672,0.0001255472331,0.6569396076,5.061176624e-05,0.7028607674,5.420419617e-05
0.9,0.92,0.7159893119,0.0001314571528,0.7251338828,5.308305275e-05,0.7784465116,5.69596832e-05
0.92,0.94,0,0,0,0,0,0
0.94,0.96,0,0,0,0,0,0
0.96,0.98,0,0,0,0,0,0
0.98,1,0,0,0,0,0,0
