# xl,xh,LO,dLO,CS+LOnovp,dCS+LOnovp,CS+LO,dCS+LO
0,0.04,0.02990218838,2.261363304e-05,0.04937649077,1.143928698e-05,0.03188615299,1.549493337e-05
0.04,0.08,0.02995302242,2.263268532e-05,0.05014169459,1.152430747e-05,0.03192891805,1.550523644e-05
0.08,0.12,0.03001839407,2.265716935e-05,0.05175117278,1.170079654e-05,0.03200908815,1.552453701e-05
0.12,0.16,0.03016845189,2.271326436e-05,0.05416514061,1.19598206e-05,0.03212259403,1.555181796e-05
0.16,0.2,0.03034777654,2.278011732e-05,0.05705943314,1.226194194e-05,0.03230623921,1.559585607e-05
0.2,0.24,0.0305239863,2.284560718e-05,0.05791318477,1.234939418e-05,0.03250297226,1.564288787e-05
0.24,0.28,0.03071076807,2.291482314e-05,0.05101813261,1.162080066e-05,0.0326869546,1.568673906e-05
0.28,0.32,0.03096570296,2.300893354e-05,0.04445336792,1.087387084e-05,0.03295314122,1.574996226e-05
0.32,0.36,0.03126591884,2.311926077e-05,0.03932531248,1.024686028e-05,0.03323872771,1.581749968e-05
0.36,0.4,0.0316244887,2.325032311e-05,0.03524670103,9.715525144e-06,0.03356358807,1.589396658e-05
0.4,0.44,0.03195909946,2.337194078e-05,0.03193582643,9.259214648e-06,0.0339583895,1.598638913e-05
0.44,0.48,0.03240405251,2.353265432e-05,0.02918548641,8.860459533e-06,0.03432697208,1.607217827e-05
0.48,0.52,0.03289108856,2.370727686e-05,0.0269091044,8.514987183e-06,0.03481194692,1.618433955e-05
0.52,0.56,0.03340329056,2.388948975e-05,0.0249410597,8.203590502e-06,0.03528521171,1.629302046e-05
0.56,0.6,0.03393736319,2.407796626e-05,0.02328851371,7.931935348e-06,0.0358419603,1.641992227e-05
0.6,0.64,0.03454178757,2.428944073e-05,0.02184906354,7.686921185e-06,0.0363987819,1.654583038e-05
0.64,0.68,0.03517383802,2.450855563e-05,0.02056848017,7.461730026e-06,0.03700804698,1.668246989e-05
0.68,0.72,0.03581079944,2.472732597e-05,0.01943600618,7.256392429e-06,0.0377015339,1.683659816e-05
0.72,0.76,0.03647515077,2.495338839e-05,0.01846015054,7.074388094e-06,0.03836160859,1.69819536e-05
0.76,0.8,0.03723500621,2.520935909e-05,0.01754629858,6.899349429e-06,0.03910172238,1.714340985e-05
0.8,0.84,0.03814754209,2.551322766e-05,0.01673963339,6.740862102e-06,0.0398951367,1.731475588e-05
0.84,0.88,0.0389078694,2.5763564e-05,0.01600102882,6.592236283e-06,0.04071060241,1.748904294e-05
0.88,0.92,0.039806747,2.605627862e-05,0.01533495734,6.455129357e-06,0.04159846486,1.767677256e-05
0.92,0.96,0.04070670459,2.634594769e-05,0.0146885375,6.319091829e-06,0.04248080157,1.786129831e-05
0.96,1,0.04172080686,2.666841062e-05,0.01411189916,6.19510706e-06,0.04340828698,1.805314294e-05
1,1.04,0.04274749674,2.699078688e-05,0.01356820692,6.075790468e-06,0.04436902682,1.824964956e-05
1.04,1.08,0.04378839116,2.73135494e-05,0.01305197124,5.960198556e-06,0.04538562991,1.845519932e-05
1.08,1.12,0.04491826144,2.765942266e-05,0.01255446519,5.846553485e-06,0.0463945119,1.86568485e-05
1.12,1.16,0.04597871953,2.79799776e-05,0.01209743168,5.740096543e-06,0.04745576357,1.886653091e-05
1.16,1.2,0.04713236158,2.832436495e-05,0.01162934391,5.628902138e-06,0.04853710964,1.907769839e-05
1.2,1.24,0.04825736618,2.865601489e-05,0.01119913427,5.524663662e-06,0.04958051227,1.927915606e-05
1.24,1.28,0.04934569197,2.897303704e-05,0.010779367,5.420959186e-06,0.05059522644,1.947297672e-05
1.28,1.32,0.05028010522,2.924234426e-05,0.01035232753,5.31331394e-06,0.05150183585,1.964444723e-05
1.32,1.36,0.05121081891,2.950800169e-05,0.009925987041,5.203554879e-06,0.05222645018,1.978037225e-05
1.36,1.4,0.05181034644,2.967779543e-05,0.009496156477,5.090431594e-06,0.05282996204,1.989283113e-05
1.4,1.44,0.05231233934,2.981918501e-05,0.009070789688,4.975879696e-06,0.05323384543,1.996771889e-05
1.44,1.48,0.0525353499,2.988176321e-05,0.008636823401,4.856152843e-06,0.05335569654,1.999025827e-05
1.48,1.52,0.05235375016,2.983080728e-05,0.008190759925,4.729848647e-06,0.05313014785,1.994852284e-05
1.52,1.56,0.05166481873,2.963667472e-05,0.007741826034,4.599145736e-06,0.0523645426,1.980616237e-05
1.56,1.6,0.05018816887,2.921596407e-05,0.007258899688,4.454166155e-06,0.05091005764,1.95327015e-05
1.6,1.64,0.04758850285,2.84593289e-05,0.006756470759,4.298031073e-06,0.04832816082,1.903708638e-05
1.64,1.68,0.04307906665,2.70940376e-05,0.006242609716,4.132121053e-06,0.04418122866,1.821141041e-05
1.68,1.72,0.03602004414,2.479875512e-05,0.005703480871,3.950428769e-06,0.03798176341,1.68984666e-05
1.72,1.76,0.02838046607,2.203526039e-05,0.005120038567,3.743709052e-06,0.03138008749,1.537244641e-05
1.76,1.8,0.02305834726,1.987631904e-05,0.004491272918,3.507101846e-06,0.02667126738,1.418049618e-05
1.8,1.84,0.02098614664,1.896750255e-05,0.003811710077,3.231689821e-06,0.02458357587,1.361772302e-05
1.84,1.88,0.02291157267,1.981334739e-05,0.003154305204,2.940520326e-06,0.02580719054,1.395039546e-05
1.88,1.92,0.02883765652,2.221065787e-05,0.00274920905,2.745613509e-06,0.03015535025,1.507176781e-05
1.92,1.96,0.03433840723,2.421849311e-05,0.002546395249,2.64259132e-06,0.03428796934,1.606312043e-05
1.96,2,0.03660377771,2.499690845e-05,0.002500917346,2.618930133e-06,0.03573136909,1.639479626e-05
2,2.04,0.03448558748,2.42698623e-05,0.00248715526,2.611727264e-06,0.03348097567,1.587455927e-05
2.04,2.08,0.02784359678,2.182743793e-05,0.002467541585,2.601427255e-06,0.02748508239,1.439376046e-05
2.08,2.12,0.01781843003,1.748496216e-05,0.00222042032,2.467945602e-06,0.018650392,1.186984482e-05
2.12,2.16,0.008955651034,1.241076715e-05,0.001758113788,2.196410384e-06,0.01071941546,9.007668281e-06
2.16,2.2,0.004232315913,8.53721035e-06,0.001288686833,1.880775318e-06,0.006069895587,6.782140735e-06
2.2,2.24,0.002014552384,5.891775414e-06,0.0008494723907,1.527236096e-06,0.003585905168,5.214450572e-06
2.24,2.28,0.0008527139137,3.833771331e-06,0.000474403312,1.141468496e-06,0.002051004356,3.944342354e-06
2.28,2.32,0.0002432978565,2.047998315e-06,0.0001894251221,7.213621518e-07,0.001024474802,2.788027814e-06
2.32,2.36,1.118895511e-05,4.392040226e-07,3.833222576e-05,3.245186288e-07,0.0003997968996,1.741803238e-06
2.36,2.4,0,0,5.324535465e-06,1.209494216e-07,6.629283971e-05,7.093024046e-07
