# xl,xh,LO,dLO,CS+LOnovp,dCS+LOnovp,CS+LO,dCS+LO
0,0.03,0.06534121966,3.849928606e-05,0.04893283106,1.3211266e-05,0.06872409595,2.620294406e-05
0.03,0.06,0.06552390041,3.85523443e-05,0.04893423871,1.321145023e-05,0.06891195934,2.623827465e-05
0.06,0.09,0.06591876087,3.866676612e-05,0.04890995588,1.320826005e-05,0.06931692863,2.631425927e-05
0.09,0.12,0.066559129,3.885157976e-05,0.04881645937,1.319597086e-05,0.06983993282,2.641205423e-05
0.12,0.15,0.06736231956,3.908208007e-05,0.04870886329,1.318181264e-05,0.0706058587,2.655458087e-05
0.15,0.18,0.06827050968,3.934099953e-05,0.04861311956,1.316919837e-05,0.07158687007,2.673597037e-05
0.18,0.21,0.06943213387,3.966955506e-05,0.0484641269,1.31495426e-05,0.07274535179,2.694850887e-05
0.21,0.24,0.07088199065,4.00756508e-05,0.04825093698,1.312136058e-05,0.07405665177,2.718696922e-05
0.24,0.27,0.07229123528,4.046622777e-05,0.04812656507,1.310488837e-05,0.07547118674,2.744174821e-05
0.27,0.3,0.07399017831,4.093183319e-05,0.04785479274,1.306881343e-05,0.07705849348,2.772470148e-05
0.3,0.33,0.07579656158,4.142080383e-05,0.04758362674,1.303271022e-05,0.07882924105,2.803678654e-05
0.33,0.36,0.07776065083,4.194559029e-05,0.04729129302,1.299366294e-05,0.08066052478,2.835570939e-05
0.36,0.39,0.07963761552,4.244062401e-05,0.04698933457,1.295319188e-05,0.08257424048,2.868496666e-05
0.39,0.42,0.08155058597,4.293890164e-05,0.04666488539,1.290955061e-05,0.0844228055,2.899923925e-05
0.42,0.45,0.08337460058,4.340831477e-05,0.0462461987,1.285298939e-05,0.08608472967,2.927871935e-05
0.45,0.48,0.08478057724,4.376646503e-05,0.04581340141,1.2794231e-05,0.08764624077,2.953874217e-05
0.48,0.51,0.08615531009,4.411365313e-05,0.04536474245,1.273300345e-05,0.08891237817,2.974779554e-05
0.51,0.54,0.08729668299,4.439968316e-05,0.04483884486,1.26608185e-05,0.09029532096,2.997435799e-05
0.54,0.57,0.08870905755,4.475091298e-05,0.04424536694,1.257880703e-05,0.09176858633,3.021372018e-05
0.57,0.6,0.09038512953,4.516390525e-05,0.04361985536,1.249172578e-05,0.09356352349,3.050262317e-05
0.6,0.63,0.09206437878,4.557365741e-05,0.04291026871,1.239212448e-05,0.09547113246,3.08064769e-05
0.63,0.66,0.09382557145,4.59991562e-05,0.0421108474,1.227884902e-05,0.09753155088,3.11310968e-05
0.66,0.69,0.09595453592,4.650790687e-05,0.0412059593,1.214922896e-05,0.09998170487,3.151243729e-05
0.69,0.72,0.09875537229,4.716818261e-05,0.04016546903,1.199828903e-05,0.1030167008,3.197801177e-05
0.72,0.75,0.1025308991,4.804266691e-05,0.03900169982,1.182696918e-05,0.1069899286,3.257665502e-05
0.75,0.78,0.1073989207,4.914526111e-05,0.03770150348,1.163231195e-05,0.111999394,3.331484351e-05
0.78,0.81,0.1127954408,5.033677113e-05,0.03631276436,1.142041161e-05,0.1174428056,3.409730412e-05
0.81,0.84,0.1169008371,5.122288498e-05,0.0347578396,1.11779854e-05,0.1217872866,3.470799763e-05
0.84,0.87,0.1168851187,5.121952699e-05,0.03277244664,1.085994612e-05,0.1229251757,3.486601357e-05
0.87,0.9,0.1108516844,4.991118545e-05,0.03040654441,1.046737303e-05,0.1183957654,3.423228079e-05
0.9,0.93,0.09953529499,4.735027239e-05,0.0275258205,9.967033902e-06,0.1088494477,3.285277395e-05
0.93,0.96,0.08170165004,4.297798978e-05,0.02205790597,8.935624068e-06,0.09019870422,2.995859212e-05
0.96,0.99,0.02447691009,2.366170284e-05,0.008346723133,5.517147328e-06,0.02757276918,1.666101902e-05
0.99,1.02,0,0,0,0,0,0
