# xl,xh,LO,dLO,CS+LOnovp,dCS+LOnovp,CS+LO,dCS+LO
0.3,0.35,0,0,0,0,0,0
0.35,0.4,1.517419971e-07,4.575191295e-08,3.088555826e-05,2.605434543e-07,1.457144794e-07,2.974383084e-08
0.4,0.45,1.696508095e-06,1.529688738e-07,0.0003181357569,8.360900719e-07,1.748603009e-06,1.030373504e-07
0.45,0.5,4.730866501e-06,2.554424438e-07,0.0008326938153,1.352350982e-06,5.786085566e-06,1.874294475e-07
0.5,0.55,1.052361022e-05,3.809794153e-07,0.001553494343,1.846550469e-06,1.46138375e-05,2.978688383e-07
0.55,0.6,2.221955038e-05,5.535867668e-07,0.002398679192,2.293652843e-06,3.005372457e-05,4.271628823e-07
0.6,0.65,4.38736913e-05,7.778913252e-07,0.003372173487,2.718357941e-06,5.717474961e-05,5.891745755e-07
0.65,0.7,7.823053876e-05,1.03872914e-06,0.004499811437,3.13854772e-06,0.0001009191114,7.82753199e-07
0.7,0.75,0.0001222831723,1.298654866e-06,0.005777074389,3.554150963e-06,0.0001668619636,1.006500366e-06
0.75,0.8,0.0001730947763,1.545074019e-06,0.007196153849,3.964189104e-06,0.0002631552004,1.263963967e-06
0.8,0.85,0.000241381254,1.824543837e-06,0.008772889797,4.373876168e-06,0.0004264518983,1.60898572e-06
0.85,0.9,0.000408323202,2.372965777e-06,0.01049917337,4.781167236e-06,0.0007426472038,2.123183419e-06
0.9,0.95,0.000766222669,3.250432569e-06,0.01235411296,5.182000848e-06,0.001355142173,2.867793826e-06
0.95,1,0.001447191883,4.466594246e-06,0.01437744024,5.585139764e-06,0.002465129164,3.86723772e-06
1,1.05,0.00281567589,6.228809259e-06,0.01651296864,5.979770458e-06,0.004541142406,5.247165871e-06
1.05,1.1,0.006054205756,9.128617203e-06,0.01879216146,6.372498209e-06,0.008919545067,7.34886113e-06
1.1,1.15,0.01518341105,1.443415629e-05,0.02119498147,6.760234881e-06,0.01966696952,1.089420765e-05
1.15,1.2,0.0412649879,2.369042012e-05,0.02371352909,7.142385943e-06,0.0463414118,1.665365976e-05
1.2,1.25,0.08559372383,3.386038158e-05,0.02635830701,7.521034422e-06,0.08703010739,2.267681803e-05
1.25,1.3,0.09517362589,3.56456816e-05,0.029089414,7.891169477e-06,0.09573508543,2.375111678e-05
1.3,1.35,0.09423558783,3.54753687e-05,0.0318518843,8.246864732e-06,0.09583623275,2.376327617e-05
1.35,1.4,0.09720941975,3.601214605e-05,0.03453469855,8.576520763e-06,0.0995468801,2.420468771e-05
1.4,1.45,0.1029546986,3.702399761e-05,0.03693990736,8.860286582e-06,0.1057764498,2.492585311e-05
1.45,1.5,0.1063589483,3.760878569e-05,0.03859894355,9.050102019e-06,0.1098857792,2.538879318e-05
1.5,1.55,0.1063788343,3.761216693e-05,0.03900451358,9.095811039e-06,0.1111262487,2.552664905e-05
1.55,1.6,0.1058393683,3.752020782e-05,0.0388769639,9.08146422e-06,0.1112357221,2.553876988e-05
1.6,1.65,0.1064808914,3.762953323e-05,0.03902945982,9.098614157e-06,0.1109826251,2.551073082e-05
1.65,1.7,0.1059882636,3.754561635e-05,0.03839894954,9.027463505e-06,0.1094426685,2.533934334e-05
1.7,1.75,0.1020011767,3.685827468e-05,0.03658376552,8.818926495e-06,0.1047542396,2.480915571e-05
1.75,1.8,0.09637380174,3.586225081e-05,0.03408101872,8.521786881e-06,0.09863516828,2.409708235e-05
1.8,1.85,0.09424094583,3.547634455e-05,0.03139069269,8.188684115e-06,0.09559672514,2.373446772e-05
1.85,1.9,0.09541718013,3.568975385e-05,0.02862404534,7.829469771e-06,0.0957539578,2.375338435e-05
1.9,1.95,0.07960144642,3.268751845e-05,0.02589923702,7.456821669e-06,0.08166064924,2.198479375e-05
1.95,2,0.03494995507,2.182593531e-05,0.02329250408,7.080060618e-06,0.04020090103,1.552598317e-05
2,2.05,0.01289286165,1.330606698e-05,0.02078278654,6.695437173e-06,0.01706765867,1.015286861e-05
2.05,2.1,0.005271478717,8.519224849e-06,0.01840301049,6.307289729e-06,0.007910215091,6.9216637e-06
2.1,2.15,0.002497934988,5.867148134e-06,0.01613917227,5.912706982e-06,0.004091313987,4.98085306e-06
2.15,2.2,0.001302456274,4.237462305e-06,0.0140210754,5.516379626e-06,0.00223662338,3.683771536e-06
2.2,2.25,0.000690254835,3.085134538e-06,0.01203167507,5.11467676e-06,0.001224342195,2.725933081e-06
2.25,2.3,0.0003704361372,2.26021241e-06,0.01019756041,4.712634108e-06,0.0006742098412,2.023011557e-06
2.3,2.35,0.0002259742211,1.765355803e-06,0.008496446827,4.304949334e-06,0.0003916812946,1.542006481e-06
2.35,2.4,0.0001609846541,1.49004671e-06,0.006945502671,3.8949785e-06,0.0002433613934,1.215500406e-06
2.4,2.45,0.0001138423553,1.253034704e-06,0.005545731867,3.482623584e-06,0.0001535592789,9.655483023e-07
2.45,2.5,7.013405342e-05,9.835086184e-07,0.004300221365,3.068427823e-06,9.079254674e-05,7.424466732e-07
2.5,2.55,3.921178001e-05,7.354024718e-07,0.003200804157,2.648589867e-06,5.049617959e-05,5.536962672e-07
2.55,2.6,2.179180758e-05,5.482301897e-07,0.002249282471,2.221226097e-06,2.723633661e-05,4.066465004e-07
2.6,2.65,1.04132603e-05,3.789765373e-07,0.001424663816,1.76842917e-06,1.314458363e-05,2.824989453e-07
2.65,2.7,4.717002059e-06,2.550659557e-07,0.0007295504229,1.265885464e-06,4.984696646e-06,1.739669114e-07
2.7,2.75,1.144763516e-06,1.256540467e-07,0.0002538678622,7.469015461e-07,1.444996592e-06,9.36651589e-08
2.75,2.8,1.378874646e-08,1.378874013e-08,1.234589345e-05,1.647281029e-07,8.499178174e-08,2.271499941e-08
