# xl,xh,LO,dLO,CS+LOnovp,dCS+LOnovp,CS+LO,dCS+LO
0,20,0,0,0,0,0,0
20,40,0,0,0,0,0,0
40,60,0,0,0,0,0,0
60,80,0,0,0,0,0,0
80,100,0,0,0,0,0,0
100,120,0,0,0,0,0,0
120,140,0,0,0,0,0,0
140,160,0,0,0,0,0,0
160,180,0,0,0,0,0,0
180,200,0,0,0,0,0,0
200,220,0,0,0,0,0,0
220,240,0,0,0,0,0,0
240,260,0,0,0,0,0,0
260,280,0,0,0,0,0,0
280,300,0,0,0,0,0,0
300,320,6.599348203e-06,1.507811413e-08,1.102234534e-06,2.460538323e-09,8.380149593e-06,1.127243294e-08
320,340,1.246383641e-05,2.071336665e-08,2.13694163e-06,3.425380052e-09,1.564285156e-05,1.539413385e-08
340,360,1.668912708e-05,2.396170767e-08,2.93579315e-06,4.014329253e-09,2.085158236e-05,1.7767529e-08
360,380,2.057563694e-05,2.659889241e-08,3.673502239e-06,4.489860837e-09,2.533964633e-05,1.958111741e-08
380,400,2.407292062e-05,2.876397603e-08,4.378478602e-06,4.901166232e-09,2.954112325e-05,2.113673832e-08
400,420,2.747484378e-05,3.072219945e-08,5.076322849e-06,5.276646994e-09,3.343497274e-05,2.248124335e-08
420,440,3.065988378e-05,3.244714033e-08,5.760600694e-06,5.620357706e-09,3.703671815e-05,2.365589392e-08
440,460,3.383147929e-05,3.407677823e-08,6.435914361e-06,5.939945994e-09,4.051599842e-05,2.473676225e-08
460,480,3.689376248e-05,3.557824718e-08,7.093751676e-06,6.235396165e-09,4.380979319e-05,2.571737554e-08
480,500,3.970461356e-05,3.69016584e-08,7.783308119e-06,6.530618567e-09,4.6989538e-05,2.662907764e-08
500,520,4.251454965e-05,3.817786549e-08,8.453892742e-06,6.805315319e-09,5.00433685e-05,2.74755658e-08
520,540,4.518763277e-05,3.935264958e-08,9.125312069e-06,7.06954318e-09,5.289056043e-05,2.824137521e-08
540,560,4.784655051e-05,4.048659095e-08,9.777701721e-06,7.317031399e-09,5.564616418e-05,2.896277524e-08
560,580,5.037796523e-05,4.153668422e-08,1.043025405e-05,7.556366645e-09,5.826986471e-05,2.963288126e-08
580,600,5.271515244e-05,4.248253398e-08,1.108850515e-05,7.790236559e-09,6.078150971e-05,3.02600707e-08
600,620,5.501377844e-05,4.339210962e-08,1.172028412e-05,8.008179853e-09,6.3102666e-05,3.082800858e-08
620,640,5.73115425e-05,4.428209988e-08,1.23710705e-05,8.226546045e-09,6.53749695e-05,3.137372875e-08
640,660,5.947616284e-05,4.510398276e-08,1.299061824e-05,8.429083215e-09,6.752887801e-05,3.188211462e-08
660,680,6.153098188e-05,4.58701067e-08,1.362615727e-05,8.631821939e-09,6.949808581e-05,3.23396731e-08
680,700,6.353536844e-05,4.66048955e-08,1.423953708e-05,8.822988231e-09,7.143413954e-05,3.278309055e-08
700,720,6.534418824e-05,4.72578462e-08,1.487098217e-05,9.01546589e-09,7.325571555e-05,3.319468457e-08
720,740,6.71798707e-05,4.791106502e-08,1.548966259e-05,9.200066212e-09,7.487481383e-05,3.355613824e-08
740,760,6.885844486e-05,4.850040108e-08,1.60844217e-05,9.374025116e-09,7.643282381e-05,3.390017975e-08
760,780,7.049091202e-05,4.906651126e-08,1.667833488e-05,9.544501448e-09,7.782465725e-05,3.420448427e-08
780,800,7.191860486e-05,4.955609475e-08,1.726289799e-05,9.709301626e-09,7.9210172e-05,3.45046441e-08
800,820,7.327386814e-05,5.00162254e-08,1.78606441e-05,9.874905009e-09,8.036713596e-05,3.475321625e-08
820,840,7.422270103e-05,5.033578129e-08,1.838919094e-05,1.001899754e-08,8.119652707e-05,3.493028256e-08
840,860,7.492269419e-05,5.057017345e-08,1.88814654e-05,1.015131308e-08,8.168296067e-05,3.503369984e-08
860,880,7.566952661e-05,5.081900102e-08,1.93655033e-05,1.027970953e-08,8.205875491e-05,3.511338066e-08
880,900,7.630155179e-05,5.102860552e-08,1.985030541e-05,1.040667632e-08,8.234300213e-05,3.517351637e-08
900,920,7.683325908e-05,5.120423529e-08,2.035576263e-05,1.053737674e-08,8.260968841e-05,3.522984209e-08
920,940,7.728073679e-05,5.135155212e-08,2.083883959e-05,1.066074863e-08,8.267534864e-05,3.524369629e-08
940,960,7.771857608e-05,5.149528594e-08,2.129943521e-05,1.077702408e-08,8.282265976e-05,3.527475765e-08
960,980,7.78575391e-05,5.154082779e-08,2.18352975e-05,1.091069331e-08,8.276492559e-05,3.52625904e-08
980,1000,7.819879349e-05,5.165245418e-08,2.230001053e-05,1.10252608e-08,8.260652697e-05,3.52291715e-08
1000,1020,7.822467069e-05,5.166090752e-08,2.276342378e-05,1.11382956e-08,8.237459761e-05,3.51801917e-08
1020,1040,7.835900201e-05,5.170476442e-08,2.327346207e-05,1.126134999e-08,8.213422567e-05,3.51293548e-08
1040,1060,7.8327427e-05,5.169445939e-08,2.374310704e-05,1.137344023e-08,8.172894122e-05,3.504345614e-08
1060,1080,7.822395242e-05,5.16606704e-08,2.423877177e-05,1.149051346e-08,8.131738655e-05,3.49560109e-08
1080,1100,7.796727835e-05,5.157674399e-08,2.475954969e-05,1.161220359e-08,8.07041082e-05,3.482527371e-08
1100,1120,7.781304795e-05,5.152624312e-08,2.523295694e-05,1.172168857e-08,8.010659072e-05,3.469740111e-08
1120,1140,7.741058206e-05,5.139423249e-08,2.576949256e-05,1.184450399e-08,7.935404429e-05,3.453565532e-08
1140,1160,7.688854162e-05,5.122245454e-08,2.630365405e-05,1.196547696e-08,7.854410584e-05,3.43606876e-08
1160,1180,7.643311916e-05,5.107211453e-08,2.681397699e-05,1.207987722e-08,7.767843696e-05,3.417265121e-08
1180,1200,7.581172604e-05,5.086624679e-08,2.735868261e-05,1.220075367e-08,7.662617885e-05,3.394262394e-08
1200,1220,7.51135123e-05,5.06338622e-08,2.790181349e-05,1.232005396e-08,7.561233707e-05,3.371945385e-08
1220,1240,7.430157991e-05,5.036224561e-08,2.838205404e-05,1.242454585e-08,7.434543346e-05,3.343840245e-08
1240,1260,7.320890678e-05,4.999427737e-08,2.892351474e-05,1.254127199e-08,7.281472379e-05,3.309552914e-08
1260,1280,7.175936047e-05,4.950173417e-08,2.945562226e-05,1.265488785e-08,7.110846274e-05,3.270893198e-08
1280,1300,7.040443045e-05,4.903668409e-08,3.001048834e-05,1.277224085e-08,6.932711541e-05,3.230021338e-08
1300,1320,6.880887554e-05,4.848310058e-08,3.057368136e-05,1.289021438e-08,6.746612455e-05,3.186742142e-08
1320,1340,6.715454104e-05,4.790212098e-08,3.111015466e-05,1.300154931e-08,6.539608763e-05,3.137875207e-08
1340,1360,6.540095729e-05,4.727818491e-08,3.170199644e-05,1.312323043e-08,6.334807135e-05,3.088743172e-08
1360,1380,6.352238767e-05,4.660016872e-08,3.232307677e-05,1.324966525e-08,6.115365529e-05,3.035186347e-08
1380,1400,6.161112016e-05,4.589972197e-08,3.295597712e-05,1.337721835e-08,5.895636255e-05,2.98056639e-08
1400,1420,5.943009365e-05,4.508664914e-08,3.360642348e-05,1.350699058e-08,5.659309017e-05,2.920644615e-08
1420,1440,5.725505357e-05,4.426045573e-08,3.431636126e-05,1.364715638e-08,5.413808924e-05,2.857029184e-08
1440,1460,5.502418083e-05,4.339618081e-08,3.503755085e-05,1.378800893e-08,5.168502417e-05,2.791975625e-08
1460,1480,5.261838278e-05,4.244379439e-08,3.581691176e-05,1.393854132e-08,4.910488884e-05,2.721829719e-08
1480,1500,5.00825165e-05,4.141552568e-08,3.6593582e-05,1.408686988e-08,4.638949844e-05,2.645949479e-08
1500,1520,4.75999022e-05,4.038277255e-08,3.745073858e-05,1.424867906e-08,4.362837152e-05,2.566436212e-08
1520,1540,4.488436958e-05,3.922117917e-08,3.836682565e-05,1.441949532e-08,4.08656244e-05,2.48427312e-08
1540,1560,4.21174162e-05,3.800015135e-08,3.92635625e-05,1.458465633e-08,3.79992285e-05,2.39598828e-08
1560,1580,3.919587605e-05,3.666574612e-08,4.027152831e-05,1.476797145e-08,3.505033502e-05,2.301561933e-08
1580,1600,3.616552739e-05,3.522709984e-08,4.112782122e-05,1.492182711e-08,3.18995725e-05,2.196107293e-08
1600,1620,3.303772368e-05,3.367645728e-08,4.100809143e-05,1.490041577e-08,2.877174432e-05,2.086066701e-08
1620,1640,2.968375139e-05,3.192854554e-08,4.051943226e-05,1.481268805e-08,2.553359687e-05,1.965567501e-08
1640,1660,2.622532111e-05,3.001799822e-08,3.997459581e-05,1.471422065e-08,2.214582525e-05,1.830917704e-08
1660,1680,2.240183873e-05,2.775079404e-08,3.936139048e-05,1.460255425e-08,1.857001493e-05,1.676968544e-08
1680,1700,1.818319335e-05,2.500876876e-08,3.863101256e-05,1.446836039e-08,1.468047217e-05,1.491395964e-08
1700,1720,1.321021175e-05,2.132346859e-08,3.784216683e-05,1.432192933e-08,1.037457123e-05,1.254074555e-08
1720,1740,7.335720028e-06,1.589630778e-08,3.706725052e-05,1.417652542e-08,5.657782719e-06,9.263766742e-09
1740,1760,3.19238535e-06,1.048947576e-08,3.626984752e-05,1.402524364e-08,2.556855078e-06,6.228747856e-09
1760,1780,1.791662638e-06,7.858956866e-09,3.54594469e-05,1.386971112e-08,1.507586976e-06,4.783182488e-09
1780,1800,1.253176875e-06,6.572932921e-09,3.46353589e-05,1.370964581e-08,1.067984473e-06,4.02596671e-09
1800,1820,9.366411701e-07,5.682622455e-09,3.37346222e-05,1.353241469e-08,8.108872391e-07,3.508120002e-09
1820,1840,7.425470006e-07,5.059756154e-09,3.280206746e-05,1.334631678e-08,6.462154063e-07,3.131753759e-09
1840,1860,6.054858817e-07,4.56902857e-09,3.179423477e-05,1.314208671e-08,5.324193773e-07,2.84268147e-09
1860,1880,5.172140515e-07,4.222886178e-09,3.076893916e-05,1.293085154e-08,4.447189421e-07,2.598047842e-09
1880,1900,4.393562517e-07,3.892109003e-09,2.961904946e-05,1.268956978e-08,3.884363145e-07,2.428094722e-09
1900,1920,3.956701001e-07,3.693559897e-09,2.84146114e-05,1.243159711e-08,3.347800281e-07,2.254171898e-09
1920,1940,3.730172229e-07,3.586280969e-09,2.703089726e-05,1.212816349e-08,3.023570284e-07,2.142235013e-09
1940,1960,3.40222501e-07,3.424998349e-09,2.540782438e-05,1.176186265e-08,2.687379096e-07,2.019638317e-09
1960,1980,3.090178554e-07,3.264163246e-09,2.329478227e-05,1.126646301e-08,2.317158675e-07,1.87536915e-09
1980,2000,1.354068735e-07,2.160757996e-09,1.306558474e-05,8.453256336e-09,8.301230998e-08,1.122499458e-09
