xl,xh,LO,dLO
1000.0,1040.0,4.7836004755042865e-06,4.682354993640065e-11
1040.0,1080.0,4.837663210437784e-06,4.700893168263661e-11
1080.0,1120.0,4.88884253350361e-06,4.7022648857460664e-11
1120.0,1160.0,4.937735494922292e-06,4.6880770620323843e-11
1160.0,1200.0,4.98621448616384e-06,4.700267259532928e-11
1200.0,1240.0,5.033507550169207e-06,4.698035129303665e-11
1240.0,1280.0,5.077266066238199e-06,4.704804122065408e-11
1280.0,1320.0,5.122428734990132e-06,4.702917264948885e-11
1320.0,1360.0,5.1678090166753305e-06,4.7070705291386893e-11
1360.0,1400.0,5.211329744157848e-06,4.711088423208532e-11
1400.0,1440.0,5.255138154663696e-06,4.704924992628757e-11
1440.0,1480.0,5.3008853692946185e-06,4.7101500553451514e-11
1480.0,1520.0,5.343963107751107e-06,4.7149732389284884e-11
1520.0,1560.0,5.39039887994933e-06,4.736577885313118e-11
1560.0,1600.0,5.436187986709813e-06,4.7247729668200027e-11
1600.0,1640.0,5.482521520811715e-06,4.734183869440966e-11
1640.0,1680.0,5.531233960935352e-06,4.7503086153321786e-11
1680.0,1720.0,5.580772727623563e-06,4.764449831347554e-11
1720.0,1760.0,5.630388291870169e-06,4.767625644751316e-11
1760.0,1800.0,5.681606994988124e-06,4.776100156252481e-11
1800.0,1840.0,5.735656248391117e-06,4.791055101593548e-11
1840.0,1880.0,5.792002855343313e-06,4.8158592971766517e-11
1880.0,1920.0,5.849017501438747e-06,4.843577925965432e-11
1920.0,1960.0,5.90712103660059e-06,4.839216203837987e-11
1960.0,2000.0,5.965185775834486e-06,4.877821083556855e-11
2000.0,2040.0,5.311186701530507e-06,4.708257618234664e-11
2040.0,2080.0,4.992351354174556e-06,4.607808894913647e-11
2080.0,2120.0,4.849127024397904e-06,4.5318387423139794e-11
2120.0,2160.0,4.7518336014454286e-06,4.472813662246538e-11
2160.0,2200.0,4.678289201027486e-06,4.431717864099554e-11
2200.0,2240.0,4.6191000314452735e-06,4.396728722061607e-11
2240.0,2280.0,4.5673025685183955e-06,4.3565568042538615e-11
2280.0,2320.0,4.523878147622485e-06,4.3338220773944557e-11
2320.0,2360.0,4.484872941702957e-06,4.2914095731777875e-11
2360.0,2400.0,4.451460716990581e-06,4.2671601640953893e-11
2400.0,2440.0,4.420185897779406e-06,4.256956995219391e-11
2440.0,2480.0,4.393970879302837e-06,4.234447204833585e-11
2480.0,2520.0,4.369405883686512e-06,4.214987476082044e-11
2520.0,2560.0,4.3475096546830795e-06,4.200883528901462e-11
2560.0,2600.0,4.328549377327918e-06,4.1808010891125025e-11
2600.0,2640.0,4.310920394910571e-06,4.178630671281555e-11
2640.0,2680.0,4.297454137007189e-06,4.165678423936223e-11
2680.0,2720.0,4.285000105687177e-06,4.165612933120507e-11
2720.0,2760.0,4.274087962243773e-06,4.1628642457761054e-11
2760.0,2800.0,4.266091655766078e-06,4.153302725558223e-11
2800.0,2840.0,4.258152767614513e-06,4.153502446102675e-11
2840.0,2880.0,4.253821332712386e-06,4.1577525901861166e-11
2880.0,2920.0,4.2512124585563864e-06,4.1632671036906027e-11
2920.0,2960.0,4.249836285082433e-06,4.161012139798544e-11
2960.0,3000.0,4.250038760000503e-06,4.1592563197906285e-11
3000.0,3040.0,4.2512515215912824e-06,4.155167049060986e-11
3040.0,3080.0,4.255993936674761e-06,4.171747815242903e-11
3080.0,3120.0,4.26125139295173e-06,4.1914658376030957e-11
3120.0,3160.0,4.269838068468508e-06,4.1980143323137724e-11
3160.0,3200.0,4.278324163688939e-06,4.223575986001078e-11
3200.0,3240.0,4.289434605419988e-06,4.234416213591961e-11
3240.0,3280.0,4.303173454879349e-06,4.255293758653943e-11
3280.0,3320.0,4.319073265002674e-06,4.268568800198887e-11
3320.0,3360.0,4.335517242490505e-06,4.294327593290193e-11
3360.0,3400.0,4.353502559297122e-06,4.315109209559357e-11
3400.0,3440.0,4.374179713634816e-06,4.3377468740759e-11
3440.0,3480.0,4.3960832044673375e-06,4.368938004766948e-11
3480.0,3520.0,4.4216663472747685e-06,4.376642829808789e-11
3520.0,3560.0,4.444330349637777e-06,4.4309896668183786e-11
3560.0,3600.0,4.4704043432472275e-06,4.451984546438555e-11
3600.0,3640.0,4.498533340319081e-06,4.476586959732875e-11
3640.0,3680.0,4.526846640315017e-06,4.5050496627477355e-11
3680.0,3720.0,4.557510068142229e-06,4.539294226138501e-11
3720.0,3760.0,4.5889469939627105e-06,4.578968140591317e-11
3760.0,3800.0,4.620650543204854e-06,4.613981740719766e-11
3800.0,3840.0,4.654835213860815e-06,4.655786904540207e-11
3840.0,3880.0,4.688836346154575e-06,4.69773724020253e-11
3880.0,3920.0,4.724742769612449e-06,4.739636206304343e-11
3920.0,3960.0,4.760518251319066e-06,4.7713198901550296e-11
3960.0,4000.0,4.769597648540958e-06,4.802397816263369e-11
4000.0,4040.0,3.5023101902934904e-06,4.157599274986066e-11
4040.0,4080.0,2.9562010843063196e-06,3.853963708459643e-11
4080.0,4120.0,2.7298205503132712e-06,3.7209395672983793e-11
4120.0,4160.0,2.5884512976272987e-06,3.642587590269289e-11
4160.0,4200.0,2.4906061790929966e-06,3.576476405702745e-11
4200.0,4240.0,2.4151829385186284e-06,3.534552112560537e-11
4240.0,4280.0,2.3570895328787073e-06,3.517207646652744e-11
4280.0,4320.0,2.3081384403546164e-06,3.468332555506202e-11
4320.0,4360.0,2.2656120026079986e-06,3.46032050876453e-11
4360.0,4400.0,2.2295163530270664e-06,3.424584157373855e-11
4400.0,4440.0,2.1985745931374485e-06,3.412502948137362e-11
4440.0,4480.0,2.1756337124374047e-06,3.408207620541575e-11
4480.0,4520.0,2.1591038513171316e-06,3.406881234765401e-11
4520.0,4560.0,2.149559797182848e-06,3.3910060617181554e-11
4560.0,4600.0,2.1489249250107196e-06,3.3943474390466075e-11
4600.0,4640.0,2.159647223676476e-06,3.381232313670107e-11
4640.0,4680.0,2.1883863663672938e-06,3.3987073018773395e-11
4680.0,4720.0,2.236290674909682e-06,3.4441307276883244e-11
4720.0,4760.0,2.315807764541004e-06,3.4659048611177775e-11
4760.0,4800.0,2.443832422141096e-06,3.564934095705236e-11
4800.0,4840.0,2.645831471495523e-06,3.6495391765420004e-11
4840.0,4880.0,2.9906260314494555e-06,3.8033900703437016e-11
4880.0,4920.0,3.651875860623868e-06,4.0690743026690785e-11
4920.0,4960.0,5.318093003917119e-06,4.59658593572851e-11
4960.0,5000.0,1.7698703877604957e-05,6.559900968978533e-11
