xl,xh,LO,dLO
0.65,0.7000000000000001,0.006932625561346522,4.5106691426020434e-08
0.7000000000000001,0.75,0.0076804885982737344,4.776182553146042e-08
0.75,0.8,0.008103923552983214,4.920716866075455e-08
0.8,0.8500000000000001,0.008317520615107559,4.9788392452271794e-08
0.8500000000000001,0.9,0.00840614964362996,4.988075934466414e-08
0.9,0.95,0.008420498032380474,4.9746902216800985e-08
0.95,1.0,0.008389806934468185,4.9419643939982694e-08
1.0,1.05,0.008336158897004857,4.912032174989347e-08
1.05,1.1,0.008268100676071248,4.870997465159575e-08
1.1,1.15,0.008194982119316581,4.83546441295866e-08
1.15,1.2000000000000002,0.008126746256276612,4.806540392736702e-08
1.2000000000000002,1.25,0.00806313486102906,4.787852021576297e-08
1.25,1.3,0.008010559292872548,4.7722655971786794e-08
1.3,1.35,0.007971159611134817,4.762681160297467e-08
1.35,1.4,0.007945683440076266,4.769210999752021e-08
1.4,1.4500000000000002,0.007934281292040242,4.7831445212878596e-08
1.4500000000000002,1.5,0.007937099278135492,4.7950473172765066e-08
1.5,1.55,0.007953475062837041,4.810317318631153e-08
1.55,1.6,0.007987625869967655,4.849172382204234e-08
1.6,1.65,0.008033274264627759,4.8886850141640656e-08
1.65,1.7000000000000002,0.008109983496430167,4.944809088968152e-08
1.7000000000000002,1.75,0.008213161589443315,5.008657978761579e-08
1.75,1.8000000000000005,0.008343526326491586,5.084159486655204e-08
1.8000000000000005,1.85,0.008499798601325829,5.1762896557854574e-08
1.85,1.9,0.008679647501359179,5.279066114262501e-08
1.9,1.95,0.008877092522762206,5.396087768427614e-08
1.95,2.0,0.009096640728652962,5.514384967136976e-08
2.0,2.0500000000000003,0.009328261316279911,5.6388223085837455e-08
2.0500000000000003,2.1,0.009572969339895092,5.786402099235679e-08
2.1,2.15,0.00981602904793441,5.9321693576120455e-08
2.15,2.2,0.010059568991914479,6.076496841188276e-08
2.2,2.25,0.010282494356723819,6.225177685844398e-08
2.25,2.3000000000000003,0.01047425080329043,6.372501884061234e-08
2.3000000000000003,2.35,0.01059664220872555,6.498505974110057e-08
2.35,2.4,0.01062168575816201,6.594528280843972e-08
2.4,2.45,0.010460763455750996,6.657920650395348e-08
2.45,2.5,0.00991968541364624,6.62676881239726e-08
2.5,2.5500000000000003,0.008478770131597863,6.323188358526989e-08
2.5500000000000003,2.6,0.006395272121699755,5.741798923952869e-08
2.6,2.65,0.005123023694389749,5.303840715561521e-08
2.65,2.7,0.004315079898088687,5.0018144365396194e-08
2.7,2.75,0.003684742591994301,4.693444618103792e-08
