xl,xh,LO,dLO
0.0,0.01,0.07101610136466313,2.901150081993574e-07
0.01,0.02,0.06460759811628074,2.9067026786956996e-07
0.02,0.03,0.05653073618476684,2.852277310525274e-07
0.03,0.04,0.050531706713515666,2.783329411293236e-07
0.04,0.05,0.04637015255986573,2.7360038914358177e-07
0.05,0.06,0.043421901203054974,2.70779574331307e-07
0.06,0.07,0.04126805722988039,2.676886564605759e-07
0.07,0.08,0.03965627687904764,2.6534367518519053e-07
0.08,0.09,0.03833467905032279,2.629215126162023e-07
0.09,0.1,0.03708167587667619,2.598064384600008e-07
0.1,0.11,0.03606777659319847,2.5607525039654284e-07
0.11,0.12,0.03521562440139746,2.5416724802195115e-07
0.12,0.13,0.03451123978356722,2.521792051000908e-07
0.13,0.14,0.033923521066836916,2.489860419009017e-07
0.14,0.15,0.033425480247862294,2.4734049260091236e-07
0.15,0.16,0.03301267728966322,2.459551352006574e-07
0.16,0.17,0.032657016593783714,2.440232180722223e-07
0.17,0.18,0.03237158951042921,2.4233324325264434e-07
0.18,0.19,0.03212849606150902,2.41304870465274e-07
0.19,0.2,0.03192745853452416,2.393974962135869e-07
0.2,0.21,0.03176224615401523,2.388594873933037e-07
0.21,0.22,0.03161215489688206,2.3729508054496015e-07
0.22,0.23,0.031474455673958374,2.3600887854939493e-07
0.23,0.24,0.031289125402782454,2.353664489166822e-07
0.24,0.25,0.03103307364231335,2.3351929029382152e-07
0.25,0.26,0.030697697335909577,2.3260406552111334e-07
0.26,0.27,0.030212347082231212,2.296529486071172e-07
0.27,0.28,0.029626036201218856,2.267127654806198e-07
0.28,0.29,0.028882545311742544,2.2313032090459803e-07
0.29,0.3,0.028031721746708513,2.1922238309467262e-07
0.3,0.31,0.027259046736528233,2.1583407790704742e-07
0.31,0.32,0.026564364256163594,2.125315078658928e-07
0.32,0.33,0.025925247368846962,2.1023607734453461e-07
0.33,0.34,0.025356639700848442,2.0755453917960087e-07
0.34,0.35,0.02482696010757549,2.0480893591618055e-07
0.35,0.36,0.024343597944413497,2.0283799252328253e-07
0.36,0.37,0.02389931366139197,2.008602836834968e-07
0.37,0.38,0.023496694484134054,1.9948569139369137e-07
0.38,0.39,0.023120366815542293,1.9800998687652747e-07
0.39,0.4,0.022757044544472013,1.9675329678583286e-07
0.4,0.41,0.022426910654878892,1.9594413093072914e-07
0.41,0.42,0.022105047882338264,1.9455450760076844e-07
0.42,0.43,0.02179398574533277,1.939433466558821e-07
0.43,0.44,0.02149136765648,1.9327527453840718e-07
0.44,0.45,0.021189997626266083,1.9224385003467244e-07
0.45,0.46,0.020883311792275618,1.9145308961107402e-07
0.46,0.47,0.020564053556099797,1.9047911269840352e-07
0.47,0.48,0.020232532077376818,1.8948422126444807e-07
0.48,0.49,0.01987332177348776,1.8826137344167588e-07
0.49,0.5,0.019469865569739626,1.8686982380160588e-07
0.5,0.51,0.01903032271805058,1.856125066931795e-07
0.51,0.52,0.018515460074087605,1.8359772310251796e-07
0.52,0.53,0.01791281845195843,1.8102868961734708e-07
0.53,0.54,0.017188326179131325,1.780271381199527e-07
0.54,0.55,0.01628888683243954,1.7394475498592472e-07
0.55,0.56,0.015159998231800182,1.678481468737246e-07
0.56,0.5700000000000001,0.013699506813858387,1.5996707493498114e-07
0.5700000000000001,0.58,0.011808497737595496,1.4869514751554427e-07
0.58,0.59,0.009612948940907716,1.34928838581412e-07
0.59,0.6,0.0085568340883403,1.28026499066089e-07
0.6,0.61,0.007459632238070759,1.1913351113713887e-07
0.61,0.62,0.0050792193062500065,9.844484068494879e-08
0.62,0.63,0.001943319447444007,6.346138761992077e-08
0.63,0.64,0.0008491148102952339,4.271706278045015e-08
0.64,0.65,0.00034389732715316916,2.7261859576602486e-08
0.65,0.66,9.543459117570029e-05,1.4713642803916846e-08
0.66,0.67,6.862329340519893e-06,3.801299968241783e-09
0.67,0.68,0.0,0.0
0.68,0.6900000000000001,0.0,0.0
0.6900000000000001,0.7000000000000001,0.0,0.0
0.7000000000000001,0.71,0.0,0.0
0.71,0.72,0.0,0.0
0.72,0.73,0.0,0.0
0.73,0.74,0.0,0.0
0.74,0.75,0.0,0.0
0.75,0.76,0.0,0.0
0.76,0.77,0.0,0.0
0.77,0.78,0.0,0.0
0.78,0.79,0.0,0.0
0.79,0.8,0.0,0.0
0.8,0.81,0.0,0.0
0.81,0.8200000000000001,0.0,0.0
0.8200000000000001,0.8300000000000001,0.0,0.0
0.8300000000000001,0.84,0.0,0.0
0.84,0.85,0.0,0.0
0.85,0.86,0.0,0.0
0.86,0.87,0.0,0.0
0.87,0.88,0.0,0.0
0.88,0.89,0.0,0.0
0.89,0.9,0.0,0.0
0.9,0.91,0.0,0.0
0.91,0.92,0.0,0.0
0.92,0.93,0.0,0.0
0.93,0.94,0.0,0.0
0.94,0.95,0.0,0.0
0.95,0.96,0.0,0.0
0.96,0.97,0.0,0.0
0.97,0.98,0.0,0.0
0.98,0.99,0.0,0.0
0.99,1.0,0.0,0.0
