xl,xh,LO,dLO,NLOnovp,dNLOnovp,NLO,dNLO
0.0,4.0,0.0,0.0,0.0,0.0,0.0,0.0
4.0,8.0,0.0,0.0,0.0,0.0,0.0,0.0
8.0,12.0,0.0,0.0,0.0,0.0,0.0,0.0
12.0,16.0,0.0,0.0,0.0,0.0,0.0,0.0
16.0,20.0,0.0,0.0,0.0,0.0,0.0,0.0
20.0,24.0,0.0,0.0,0.0,0.0,0.0,0.0
24.0,28.0,0.0,0.0,0.0,0.0,0.0,0.0
28.0,32.0,0.0,0.0,0.0,0.0,0.0,0.0
32.0,36.0,0.0,0.0,0.0,0.0,0.0,0.0
36.0,40.0,0.0,0.0,0.0,0.0,0.0,0.0
40.0,44.0,0.0,0.0,0.0,0.0,0.0,0.0
44.0,48.0,0.0,0.0,0.0,0.0,0.0,0.0
48.0,52.0,0.0,0.0,0.0,0.0,0.0,0.0
52.0,56.0,0.0,0.0,0.0,0.0,0.0,0.0
56.0,60.0,0.0,0.0,0.0,0.0,0.0,0.0
60.0,64.0,0.0,0.0,0.0,0.0,0.0,0.0
64.0,68.0,0.0,0.0,0.0,0.0,0.0,0.0
68.0,72.0,0.0,0.0,0.0,0.0,0.0,0.0
72.0,76.0,0.0,0.0,0.0,0.0,0.0,0.0
76.0,80.0,0.0,0.0,0.0,0.0,0.0,0.0
80.0,84.0,0.0,0.0,0.0,0.0,0.0,0.0
84.0,88.0,0.0,0.0,0.0,0.0,0.0,0.0
88.0,92.0,0.0,0.0,0.0,0.0,0.0,0.0
92.0,96.0,0.0,0.0,0.0,0.0,0.0,0.0
96.0,100.0,0.0,0.0,0.0,0.0,0.0,0.0
100.0,104.0,0.0,0.0,0.0,0.0,0.0,0.0
104.0,108.0,0.0,0.0,0.0,0.0,0.0,0.0
108.0,112.0,0.0,0.0,0.0,0.0,0.0,0.0
112.0,116.0,0.0,0.0,0.0,0.0,0.0,0.0
116.0,120.0,0.0,0.0,0.0,0.0,0.0,0.0
120.0,124.0,0.0,0.0,0.0,0.0,0.0,0.0
124.0,128.0,0.0,0.0,0.0,0.0,0.0,0.0
128.0,132.0,0.0,0.0,0.0,0.0,0.0,0.0
132.0,136.0,0.0,0.0,0.0,0.0,0.0,0.0
136.0,140.0,0.0,0.0,0.0,0.0,0.0,0.0
140.0,144.0,0.0,0.0,0.0,0.0,0.0,0.0
144.0,148.0,0.0,0.0,0.0,0.0,0.0,0.0
148.0,152.0,0.0,0.0,0.0,0.0,0.0,0.0
152.0,156.0,0.0,0.0,0.0,0.0,0.0,0.0
156.0,160.0,0.0,0.0,0.0,0.0,0.0,0.0
160.0,164.0,0.0,0.0,0.0,0.0,0.0,0.0
164.0,168.0,0.0,0.0,0.0,0.0,0.0,0.0
168.0,172.0,0.0,0.0,0.0,0.0,0.0,0.0
172.0,176.0,0.0,0.0,0.0,0.0,0.0,0.0
176.0,180.0,0.0,0.0,0.0,0.0,0.0,0.0
180.0,184.0,0.0,0.0,0.0,0.0,0.0,0.0
184.0,188.0,0.0,0.0,0.0,0.0,0.0,0.0
188.0,192.0,0.0,0.0,0.0,0.0,0.0,0.0
192.0,196.0,0.0,0.0,0.0,0.0,0.0,0.0
196.0,200.0,0.0,0.0,0.0,0.0,0.0,0.0
200.0,204.0,0.0,0.0,0.0,0.0,0.0,0.0
204.0,208.0,0.0,0.0,0.0,0.0,0.0,0.0
208.0,212.0,3.7857326068338253e-07,1.403358507749982e-10,4.608383287360923e-07,2.7438391524920147e-08,4.6174403206525057e-07,5.564806732995955e-09
212.0,216.0,6.223111766155018e-06,9.275124669993865e-10,6.3309726918823756e-06,8.63985769917408e-08,6.558383612994941e-06,2.0910671579641287e-08
216.0,220.0,9.608902446711457e-06,1.4152903494352764e-09,9.682722246451832e-06,1.1755347736008992e-07,9.89131910820258e-06,2.7686070210703988e-08
220.0,224.0,1.1656461046273668e-05,1.7294836641936019e-09,1.1585555871529745e-05,1.3713429582457387e-07,1.1904687242171108e-05,3.3361772569074544e-08
224.0,228.0,1.3100532959003102e-05,1.9608048898231853e-09,1.3141493462146553e-05,1.6320133455109618e-07,1.3278873565720583e-05,3.461998434997594e-08
228.0,232.0,1.4176366512947089e-05,2.1407153340577094e-09,1.4042804944593455e-05,1.5599091481730925e-07,1.4310386420260614e-05,3.743290516743077e-08
232.0,236.0,1.4991396836733487e-05,2.284419458907985e-09,1.4784545987626585e-05,1.763605156880807e-07,1.5099364542405706e-05,3.801706191384322e-08
236.0,240.0,1.5620680210366138e-05,2.4016150227904437e-09,1.5337576944839826e-05,1.5951463843440875e-07,1.5665015547552547e-05,3.8919157074524215e-08
240.0,244.0,1.611602015596807e-05,2.4991017099924972e-09,1.5877112687648272e-05,1.6202172981208642e-07,1.6213126750263658e-05,4.0708029652291e-08
244.0,248.0,1.64953583803887e-05,2.5799276338250252e-09,1.6255072295253408e-05,1.7665987842466487e-07,1.653419170373537e-05,4.1390806350210286e-08
248.0,252.0,1.678525703231875e-05,2.647432710192495e-09,1.684822202129286e-05,2.0132791129028786e-07,1.6799243144440775e-05,4.0857889335449216e-08
252.0,256.0,1.7006368337294353e-05,2.7044062333720437e-09,1.68268188719515e-05,1.9014412859160066e-07,1.689862057102103e-05,4.037626988815783e-08
256.0,260.0,1.7149190695805234e-05,2.7506902442557003e-09,1.7100014848943397e-05,2.387912963547993e-07,1.7138774133381355e-05,4.2835219077344266e-08
260.0,264.0,1.726026477964658e-05,2.7907142103889777e-09,1.6744102955027412e-05,1.6052417853992365e-07,1.7121656360648227e-05,4.201186880955417e-08
264.0,268.0,1.7051467217382746e-05,2.801442716432326e-09,1.6831883612715954e-05,2.0861067894550281e-07,1.6931495890157182e-05,4.246678169728376e-08
268.0,272.0,1.6612474149685114e-05,2.7853815687242004e-09,1.6351268323840106e-05,1.9009054055827762e-07,1.6356442613536507e-05,3.985553999511209e-08
272.0,276.0,1.6183606312646558e-05,2.766151611623587e-09,1.5777823168951295e-05,1.7267562358668412e-07,1.6025445131061622e-05,4.102561222134927e-08
276.0,280.0,1.578501972021062e-05,2.7464751760364378e-09,1.538994340039373e-05,1.9303339365342427e-07,1.5591092333119988e-05,3.956167327467776e-08
280.0,284.0,1.5403907411456045e-05,2.7259274055175932e-09,1.4973775179078293e-05,1.7123592235664234e-07,1.5234271835529028e-05,3.9903944891048683e-08
284.0,288.0,1.5037691885894406e-05,2.7043338785077958e-09,1.458926237318779e-05,1.6131371378096946e-07,1.48353656912621e-05,3.85255601590929e-08
288.0,292.0,1.4684080971092106e-05,2.681852952734029e-09,1.4493943877186547e-05,1.8808035972132773e-07,1.4494485284548019e-05,3.6995164991108766e-08
292.0,296.0,1.434455203996646e-05,2.6590472278682643e-09,1.4159453631078913e-05,1.937251131361197e-07,1.414930682796752e-05,3.833461135830252e-08
296.0,300.0,1.402887530732534e-05,2.636976890609463e-09,1.353523600524923e-05,1.412575015332908e-07,1.3835751422804209e-05,3.750324847066244e-08
300.0,304.0,1.3720827195059365e-05,2.6142332708599546e-09,1.3112934980311748e-05,1.345955549737141e-07,1.3549230117430679e-05,3.65936503185672e-08
304.0,308.0,1.3432340390495077e-05,2.5923840773785216e-09,1.3218144429321116e-05,1.6213266736036275e-07,1.320484736946602e-05,3.4850383173744064e-08
308.0,312.0,1.3136516175869494e-05,2.5685275663848065e-09,1.3046336599659598e-05,1.6984054730417434e-07,1.2967852020423125e-05,3.4429176868762783e-08
312.0,316.0,1.286900896438206e-05,2.546530233042921e-09,1.2351235566438396e-05,1.1902915291739367e-07,1.2621477244859124e-05,3.294719444226641e-08
316.0,320.0,1.2615207102704613e-05,2.5251364224853237e-09,1.2078581308773116e-05,1.0991305091215458e-07,1.240365396981261e-05,3.431348790387647e-08
320.0,324.0,1.2367995457859959e-05,2.5035768841180938e-09,1.2028865019137434e-05,1.28346437354588e-07,1.216100646699776e-05,3.338052240974174e-08
324.0,328.0,1.2124266461630514e-05,2.4816325423863147e-09,1.1958760689111161e-05,1.5176736340040624e-07,1.1948646685309779e-05,3.3115444292522734e-08
328.0,332.0,1.1897103676955306e-05,2.4608040651183404e-09,1.144532415492668e-05,1.1755045760305872e-07,1.1690910135003051e-05,3.1761635834220994e-08
332.0,336.0,1.1671305471161465e-05,2.439545230243768e-09,1.1093186847510685e-05,1.0437109038319997e-07,1.1485110970781747e-05,3.1927257314556966e-08
336.0,340.0,1.145734110080967e-05,2.418923765987225e-09,1.1180774878462872e-05,1.452333190033962e-07,1.1300683154525556e-05,3.189995127407551e-08
340.0,344.0,1.1249105051493338e-05,2.3984273819230194e-09,1.0747593569351227e-05,1.0916370130504622e-07,1.1127055469662213e-05,3.164287778770429e-08
344.0,348.0,1.1047878301182034e-05,2.3782645076498108e-09,1.0833537994594943e-05,1.396042786101789e-07,1.0864297117465096e-05,3.0729047331107e-08
348.0,352.0,1.0852665829990242e-05,2.3583008821231483e-09,1.0236899884809726e-05,8.174380688201196e-08,1.0663636284021776e-05,2.8586302404095023e-08
352.0,356.0,1.0670955172962171e-05,2.3395524737157668e-09,1.0408200573336917e-05,1.1715754398021119e-07,1.0437722954777126e-05,2.8004234689437027e-08
356.0,360.0,1.0491459702002847e-05,2.320613914868455e-09,1.0300110952307993e-05,1.2482200157779268e-07,1.0333069132622057e-05,2.9288329328391547e-08
360.0,364.0,1.0312982818687766e-05,2.3014789224711875e-09,9.879798048847547e-06,1.0301830287250783e-07,1.0178047549625204e-05,2.9208319894330842e-08
364.0,368.0,1.0153071339197556e-05,2.284100411683925e-09,9.777092005522284e-06,9.626072814534377e-08,9.952834241295247e-06,2.8473894913470407e-08
368.0,372.0,9.982479082013386e-06,2.2652291832958165e-09,9.695793595082066e-06,1.2978475625990852e-07,9.861978987557973e-06,2.797355102888121e-08
372.0,376.0,9.829754709618124e-06,2.2481807138695112e-09,9.55418422859346e-06,1.0506022114635316e-07,9.624401252657326e-06,2.6352935184921017e-08
376.0,380.0,9.675197537547785e-06,2.2308005127221143e-09,9.269568187607162e-06,8.850091287335138e-08,9.512423292840373e-06,2.7051826083022183e-08
380.0,384.0,9.521496707528357e-06,2.21309911761498e-09,9.268416728931733e-06,9.401562866675117e-08,9.407659754960563e-06,2.7198820724438848e-08
384.0,388.0,9.38276598743083e-06,2.1969723269999155e-09,8.966685234708121e-06,7.775559761839503e-08,9.175907966701046e-06,2.5379456658401782e-08
388.0,392.0,9.241285385191006e-06,2.1803676101563155e-09,8.990211785881449e-06,1.0312940891690117e-07,9.070540517768112e-06,2.542735126737879e-08
392.0,396.0,9.11104425118684e-06,2.1649866237054104e-09,8.652228152544718e-06,6.579847400728261e-08,8.959385338831563e-06,2.696798813929452e-08
396.0,400.0,8.975483213873182e-06,2.1488670275346453e-09,8.567618427184363e-06,7.364167822230887e-08,8.866290430712872e-06,2.587933539243583e-08
400.0,404.0,8.851798514068287e-06,2.133728091976302e-09,8.648631619276655e-06,1.0530130089316501e-07,8.65506774214475e-06,2.4858853741901452e-08
404.0,408.0,8.726356958716769e-06,2.118404700072029e-09,8.437900074014258e-06,8.766888100319768e-08,8.52404202532854e-06,2.4581609436810436e-08
408.0,412.0,8.6033567425223e-06,2.1032133957783742e-09,8.284963728927133e-06,7.569730248421506e-08,8.438352602685249e-06,2.445008558390945e-08
412.0,416.0,8.487565769984781e-06,2.088736949458109e-09,8.287418984226103e-06,9.675764298115145e-08,8.28123043871369e-06,2.302304314499612e-08
416.0,420.0,8.374053744051303e-06,2.074516415888661e-09,8.039369268448153e-06,6.88354394939829e-08,8.200233484321508e-06,2.3224800031136412e-08
420.0,424.0,8.262634664274746e-06,2.060438855532204e-09,8.011037865241304e-06,8.05659682807919e-08,8.135438794420077e-06,2.3477661707959257e-08
424.0,428.0,8.158876185160381e-06,2.0471482051150075e-09,7.912241119224813e-06,8.471517798701952e-08,8.00289918740419e-06,2.322293360561824e-08
428.0,432.0,8.051885951319431e-06,2.033306773908079e-09,7.661504392385506e-06,7.036055401777713e-08,7.852554901163597e-06,2.143213277444681e-08
432.0,436.0,7.94370739396486e-06,2.0192253844078937e-09,7.808697151709481e-06,8.915201609311046e-08,7.796013210742026e-06,2.2277809293080803e-08
436.0,440.0,7.849648628296065e-06,2.0069204595503805e-09,7.580840766444957e-06,7.384986238263242e-08,7.65708153960726e-06,2.1514566811316676e-08
440.0,444.0,7.752851463317053e-06,1.994162450606316e-09,7.56927568727094e-06,7.484444635485933e-08,7.643256842669992e-06,2.2880842065432207e-08
444.0,448.0,7.656859472196103e-06,1.981308535927524e-09,7.468204747293898e-06,8.129952125853263e-08,7.515438053627353e-06,2.2670600797381097e-08
448.0,452.0,7.5678761467934146e-06,1.969433520976643e-09,7.240994692327599e-06,5.5356734526257803e-08,7.4151412273434525e-06,2.1209881812154047e-08
452.0,456.0,7.4727597657611035e-06,1.9566419648546705e-09,7.265848310202096e-06,7.085530069700358e-08,7.285070314712236e-06,2.071482164027605e-08
456.0,460.0,7.386091773463382e-06,1.9448614570022327e-09,7.340370693141214e-06,8.697028737160746e-08,7.228695899361645e-06,2.0790495494548986e-08
460.0,464.0,7.298557090936189e-06,1.9328427521892333e-09,6.982202007502751e-06,5.1996267109260964e-08,7.1575047639489735e-06,2.1136254645759453e-08
464.0,468.0,7.216369552434908e-06,1.9214681738041444e-09,6.983717535879503e-06,5.675363745483102e-08,7.057541026364038e-06,2.0305602803136496e-08
468.0,472.0,7.137870926162904e-06,1.910596282881115e-09,6.968643282684547e-06,6.275362435861131e-08,7.000639197606112e-06,2.0535382338158493e-08
472.0,476.0,7.0573441975022095e-06,1.899435660624419e-09,6.780586100508172e-06,5.287861317505517e-08,6.921641097763417e-06,2.0480958372898774e-08
476.0,480.0,6.978933215395664e-06,1.888496643255018e-09,6.725008443920595e-06,5.6802533298321294e-08,6.84444347610269e-06,1.9713394742646383e-08
480.0,484.0,6.901941007767155e-06,1.8775532748471124e-09,6.654169346320965e-06,6.027687953302463e-08,6.703617437396524e-06,1.838404390349426e-08
484.0,488.0,6.825896920373246e-06,1.8668948940254344e-09,6.606184105217683e-06,6.10100528909842e-08,6.657011416821024e-06,1.9116256121509695e-08
488.0,492.0,6.7506186423859115e-06,1.8560751134048768e-09,6.4938913804912396e-06,4.522227182263009e-08,6.599964971346951e-06,1.905054185260988e-08
492.0,496.0,6.681165799056421e-06,1.8460759470388246e-09,6.495184761171496e-06,5.5580450446305534e-08,6.525817831374424e-06,1.879349132603113e-08
496.0,500.0,6.613764516090795e-06,1.8363111116743401e-09,6.328212466913606e-06,4.2996235621594714e-08,6.468432672757034e-06,1.8955610731811326e-08
500.0,504.0,6.546507845430418e-06,1.8266088144197106e-09,6.255479360724018e-06,4.127586453931489e-08,6.3692122302270205e-06,1.788825433440338e-08
504.0,508.0,6.47781413195021e-06,1.8165746478722773e-09,6.19631154776074e-06,4.140655985555738e-08,6.304128849048408e-06,1.819489666625809e-08
508.0,512.0,6.409578085116144e-06,1.806618471431336e-09,6.171177755506133e-06,5.265748049215018e-08,6.262455479352776e-06,1.7833813972461698e-08
512.0,516.0,6.345760550474683e-06,1.7971217923828799e-09,6.2142412101939595e-06,6.941710521720988e-08,6.174380808957971e-06,1.7408441567077465e-08
516.0,520.0,6.283637573541138e-06,1.788030070208631e-09,6.076850353931514e-06,4.616862437777059e-08,6.1013417502109675e-06,1.7321229189723092e-08
520.0,524.0,6.2231783463346475e-06,1.779029305358882e-09,5.978387427951916e-06,4.702192388411968e-08,6.052589473869823e-06,1.753998392225559e-08
524.0,528.0,6.158597124469138e-06,1.7694356611925605e-09,5.97394783243656e-06,5.776620850781549e-08,6.003737180431886e-06,1.6911601964821555e-08
528.0,532.0,6.106235460479081e-06,1.761498931810629e-09,5.9088495277537025e-06,4.460388973649736e-08,5.966968869358793e-06,1.7145683101182425e-08
532.0,536.0,6.045045449318145e-06,1.7523243683347647e-09,5.76659125906206e-06,3.887661381416834e-08,5.89870406391496e-06,1.7261371495474087e-08
536.0,540.0,5.989385943465139e-06,1.7438573397922713e-09,5.80851161322546e-06,4.308684802235564e-08,5.8218147978943415e-06,1.6734957886051206e-08
540.0,544.0,5.935859649492103e-06,1.7356866837972716e-09,5.694718835027757e-06,3.498089097773128e-08,5.795867529470804e-06,1.7152770334485033e-08
544.0,548.0,5.879649204370553e-06,1.727155146554208e-09,5.6835680227526315e-06,5.1426714041950825e-08,5.718330889651022e-06,1.6347768737691708e-08
548.0,552.0,5.827146387690652e-06,1.7190885923443798e-09,5.5986672014244815e-06,3.730960950825295e-08,5.656427827536122e-06,1.6039432424990365e-08
552.0,556.0,5.7748259068440776e-06,1.7108725392073096e-09,5.477583035906219e-06,3.316001426433284e-08,5.616300627009346e-06,1.6562378103054556e-08
556.0,560.0,5.720940007633236e-06,1.7026058935734025e-09,5.5131236395880404e-06,3.8592555035864884e-08,5.559076867903324e-06,1.6296397283058473e-08
560.0,564.0,5.67034244832307e-06,1.6947198632714233e-09,5.558254400918167e-06,5.5196287290207387e-08,5.513074287882187e-06,1.5897371407499884e-08
564.0,568.0,5.620768441546106e-06,1.6869968944184556e-09,5.391629438923079e-06,3.2436876730734756e-08,5.45912418398124e-06,1.559390903786852e-08
568.0,572.0,5.5746158081558605e-06,1.6797395406339314e-09,5.363681384560467e-06,3.573650375470228e-08,5.435622185045113e-06,1.6344806756801038e-08
572.0,576.0,5.525387268829767e-06,1.6720253764639581e-09,5.335362999717724e-06,3.8754650080751316e-08,5.38692328798871e-06,1.5603954341553946e-08
576.0,580.0,5.479158168949116e-06,1.6646651494518027e-09,5.221199869611422e-06,2.3303493991329e-08,5.354395035603601e-06,1.5856793479650324e-08
580.0,584.0,5.431977934250734e-06,1.6572195098050957e-09,5.170759471299602e-06,2.620796797026596e-08,5.264104130774324e-06,1.502127295200534e-08
584.0,588.0,5.386306395836323e-06,1.6499430391891005e-09,5.195749122494887e-06,2.984930459976062e-08,5.258751442071271e-06,1.5756045534718175e-08
588.0,592.0,5.343997057813758e-06,1.643220485271506e-09,5.1152825710303386e-06,3.2095470213629354e-08,5.175374016168172e-06,1.4947995532630928e-08
592.0,596.0,5.295183760051823e-06,1.6352935863327346e-09,5.152788007164999e-06,5.916801384971299e-08,5.161228864037856e-06,1.5199599605126662e-08
596.0,600.0,5.255077284446393e-06,1.6288178445201554e-09,5.0384784623140935e-06,2.9073910397466634e-08,5.104340491785272e-06,1.4897195432793748e-08
600.0,604.0,5.211499612342567e-06,1.6217729034391616e-09,5.046041394609459e-06,4.2078916322018086e-08,5.054113681562802e-06,1.4601571018508957e-08
604.0,608.0,5.170745438806052e-06,1.6151702664876365e-09,4.999024589055512e-06,3.5972071823237236e-08,5.019371216815708e-06,1.4817315720056153e-08
608.0,612.0,5.127546132820223e-06,1.6082015722177989e-09,4.93643887798137e-06,3.6521039345096267e-08,4.967373653049248e-06,1.4530095589298737e-08
612.0,616.0,5.088808633289335e-06,1.6018091293974328e-09,4.929169329403863e-06,3.784506096113388e-08,4.958522881457548e-06,1.5115879621436692e-08
616.0,620.0,5.0532086978661935e-06,1.5960122934149126e-09,4.824859345879199e-06,1.922654632323789e-08,4.9045663052636116e-06,1.4655264948308716e-08
620.0,624.0,5.009994915551294e-06,1.5889206210443813e-09,4.815879688253867e-06,2.9140109026555598e-08,4.869888898040826e-06,1.4653062258227385e-08
624.0,628.0,4.973010872183609e-06,1.5827014481129475e-09,4.8093512767804874e-06,4.9625776415183666e-08,4.8160805645358285e-06,1.401959675110704e-08
628.0,632.0,4.935681130423909e-06,1.5764782445190708e-09,4.710585738927004e-06,2.4587085490592504e-08,4.7767718850493694e-06,1.4218349063529593e-08
632.0,636.0,4.8982825429283165e-06,1.5703574788518705e-09,4.719017004822643e-06,2.7101479842544244e-08,4.737521332272678e-06,1.4094676162238342e-08
636.0,640.0,4.86278343501428e-06,1.5643879908636714e-09,4.728498729339978e-06,4.2666598460433616e-08,4.709201746228892e-06,1.4011411273427529e-08
640.0,644.0,4.826396298540014e-06,1.5583308720542002e-09,4.632989608361371e-06,2.459613838957257e-08,4.667751842904297e-06,1.3656917198665812e-08
644.0,648.0,4.788219035208691e-06,1.551916815665162e-09,4.6613309806914685e-06,3.951801130610252e-08,4.645282623314688e-06,1.3545398361473655e-08
648.0,652.0,4.756053809947463e-06,1.5464086403940347e-09,4.553986522438562e-06,2.7859078996406407e-08,4.605766683122507e-06,1.3707891858922869e-08
652.0,656.0,4.7232088406567434e-06,1.5408587485748693e-09,4.5050171064644325e-06,1.7403550679020518e-08,4.554979812500068e-06,1.3430486696171699e-08
656.0,660.0,4.686989795816346e-06,1.5347757631946568e-09,4.459301793190402e-06,1.381360809254416e-08,4.534261737885575e-06,1.381182220105843e-08
660.0,664.0,4.651790624281742e-06,1.5286727143324384e-09,4.448173839626476e-06,1.9186440714371863e-08,4.490071911146965e-06,1.3461340234791673e-08
664.0,668.0,4.6211654903480914e-06,1.5236446943687487e-09,4.42833464121631e-06,2.2233484471794933e-08,4.471645457351384e-06,1.3480877862393826e-08
668.0,672.0,4.59087482508701e-06,1.5183136236876927e-09,4.37820826547131e-06,1.7238509580677685e-08,4.436478354215441e-06,1.3804676038315692e-08
672.0,676.0,4.551065505844341e-06,1.5114784480857952e-09,4.416837058706623e-06,2.6773069542568274e-08,4.4131647817048496e-06,1.34638891482905e-08
676.0,680.0,4.5250102059034855e-06,1.5070218084843682e-09,4.334532227910076e-06,2.0336281802918152e-08,4.383126852795327e-06,1.3770259896037992e-08
680.0,684.0,4.4930238472622895e-06,1.501405118524354e-09,4.309991172228777e-06,2.120154372207363e-08,4.330576099217886e-06,1.3433913841655868e-08
684.0,688.0,4.46097556448544e-06,1.495959166768985e-09,4.26418230259095e-06,2.487386211328392e-08,4.300665496325028e-06,1.2665701619608475e-08
688.0,692.0,4.434968854346796e-06,1.4914112090400715e-09,4.227779787421553e-06,1.5074994124346593e-08,4.266379805119068e-06,1.3010394854973435e-08
692.0,696.0,4.4035968124431816e-06,1.4858751255792005e-09,4.222846451885826e-06,3.0570558414950086e-08,4.244168080706077e-06,1.2657030699456379e-08
696.0,700.0,4.371817144653111e-06,1.4803779957274895e-09,4.1887977215700465e-06,1.7335570232996098e-08,4.191630840309625e-06,1.2445797214903883e-08
700.0,704.0,4.343492981385011e-06,1.4754159056618869e-09,4.187253976624788e-06,2.4647586651473442e-08,4.189306246609817e-06,1.2904922845842087e-08
704.0,708.0,4.315611800215443e-06,1.4705014012663325e-09,4.094574951239883e-06,1.652686914388066e-08,4.134081889480749e-06,1.2125875802543004e-08
708.0,712.0,4.288516899815957e-06,1.4657003209288502e-09,4.117050253391941e-06,2.222704880863607e-08,4.122801060489814e-06,1.2479491714302828e-08
712.0,716.0,4.257684078253447e-06,1.4602485706521925e-09,4.065478065852547e-06,2.1348216159619186e-08,4.104127303641861e-06,1.2365464825083016e-08
716.0,720.0,4.233923794973536e-06,1.4559326917295914e-09,4.051633845429051e-06,1.839335027627879e-08,4.102638014427111e-06,1.2945755181726624e-08
720.0,724.0,4.2079010527067905e-06,1.4514502288590545e-09,4.045560111737997e-06,2.0923370670472116e-08,4.054767107990306e-06,1.2570873272460528e-08
724.0,728.0,4.180205408889946e-06,1.4464785277632784e-09,4.035197796986905e-06,3.0180194381702366e-08,4.04157864285619e-06,1.2581544168494795e-08
728.0,732.0,4.150793430018505e-06,1.441132881316026e-09,3.9964387388708e-06,2.8560502117947614e-08,4.013890901968116e-06,1.2423025411215606e-08
732.0,736.0,4.12667650246152e-06,1.4368040966762192e-09,3.9281763322378935e-06,9.036552654501484e-09,3.988803424457272e-06,1.2470765088993969e-08
736.0,740.0,4.101896814437697e-06,1.4324697994099068e-09,3.9172584012159756e-06,1.8555107545236207e-08,3.966063950774825e-06,1.2250344915547124e-08
740.0,744.0,4.075911562397865e-06,1.4278061057735445e-09,3.890875645362825e-06,1.1520652785800111e-08,3.931792479396422e-06,1.2343541970576053e-08
744.0,748.0,4.049824666094394e-06,1.4229682244390553e-09,3.895396253455303e-06,1.4562114691538186e-08,3.919510487268833e-06,1.2246496130691706e-08
748.0,752.0,4.0277066506880895e-06,1.4189354798100264e-09,3.860039396263174e-06,1.4487119014071217e-08,3.907734107490915e-06,1.2047765032313496e-08
752.0,756.0,4.0027000959355486e-06,1.4144694407652425e-09,3.8891415694404886e-06,3.2147961693199266e-08,3.878395609656889e-06,1.1852006087078168e-08
756.0,760.0,3.978884316503916e-06,1.4100467303536053e-09,3.853467553822129e-06,2.9630560861845864e-08,3.9064038658569055e-06,1.2977458248966314e-08
760.0,764.0,3.953977143484723e-06,1.4055111185259098e-09,3.783209529180323e-06,1.9107759964765343e-08,3.862143068530495e-06,1.2360936443413456e-08
764.0,768.0,3.9273978944942125e-06,1.4006325988422575e-09,3.7589238207808053e-06,2.0168776903779448e-08,3.820075931979558e-06,1.1977155320226166e-08
768.0,772.0,3.9092976913479546e-06,1.3973658769305507e-09,3.751639563202675e-06,1.6611059452822104e-08,3.8009841521805876e-06,1.200402701120667e-08
772.0,776.0,3.88653647337603e-06,1.3931661002583722e-09,3.7327834102578612e-06,1.5827605828454432e-08,3.751918888916371e-06,1.1730387514065809e-08
776.0,780.0,3.8638115113181135e-06,1.3888584483716489e-09,3.705301938724229e-06,1.8242572806116725e-08,3.7524174383116135e-06,1.1908561830051988e-08
780.0,784.0,3.84040097742481e-06,1.3846181147640712e-09,3.701270685297578e-06,2.3279210146372644e-08,3.841714953739824e-06,1.2774014086653244e-08
784.0,788.0,3.816953853333173e-06,1.3802442022762446e-09,3.6681691096743034e-06,1.5153473178588948e-08,3.935998158472654e-06,1.2829123615207964e-08
788.0,792.0,3.7969762862176794e-06,1.3765720388395125e-09,3.628700466876696e-06,1.663198449662094e-08,3.875269021695497e-06,1.2107097570473434e-08
792.0,796.0,3.776334435443112e-06,1.372773758744252e-09,3.6346771459504494e-06,1.5849105172231367e-08,3.8343360298070776e-06,1.2268669891857052e-08
796.0,800.0,3.7554550901963996e-06,1.3688285428319254e-09,3.5979053433188316e-06,1.9739154166948684e-08,3.7979622665899246e-06,1.250750671587573e-08
800.0,804.0,3.732856713947863e-06,1.3646168376656225e-09,3.5832444009535545e-06,3.2761659302572364e-08,3.7750881573632173e-06,1.2197288217856172e-08
804.0,808.0,3.7112746631677282e-06,1.3605075458318807e-09,3.583886389275975e-06,1.9699403265388336e-08,3.750449007628604e-06,1.2247792934349563e-08
808.0,812.0,3.692797683465142e-06,1.3570527445197045e-09,3.511353338396865e-06,2.6989842040906756e-08,3.7229006584025567e-06,1.2408683365560316e-08
812.0,816.0,3.6713200273366776e-06,1.3530132332614172e-09,3.506346172993973e-06,1.683133892472349e-08,3.705070212342062e-06,1.2050935029227726e-08
816.0,820.0,3.6542808275787377e-06,1.3497646466453692e-09,3.5512157789682364e-06,2.8460674558102804e-08,3.6756991902985275e-06,1.1982339341135282e-08
820.0,824.0,3.6317515967810066e-06,1.3455517663105584e-09,3.462957597252443e-06,2.3175062451976705e-08,3.670251103474172e-06,1.2332436277558942e-08
824.0,828.0,3.6122808554532052e-06,1.3418358984934993e-09,3.436683899893099e-06,2.5632146561957988e-08,3.6422572738798484e-06,1.2027216362550616e-08
828.0,832.0,3.5917072758102722e-06,1.3378302089759614e-09,3.440396075247354e-06,1.6250253321616002e-08,3.6146878872577886e-06,1.1948086140056572e-08
832.0,836.0,3.572296902927218e-06,1.3341274856415144e-09,3.40119339363129e-06,2.3886723456574467e-08,3.5991279199528245e-06,1.1835525409084746e-08
836.0,840.0,3.5534712541034766e-06,1.3307021956600375e-09,3.4293970330437656e-06,1.4269651299674282e-08,3.5952541055957407e-06,1.2214775981902718e-08
840.0,844.0,3.5398381195370285e-06,1.3279761999938146e-09,3.3984488650050043e-06,1.5496793485433672e-08,3.557184872864431e-06,1.1934726801234904e-08
844.0,848.0,3.5149374226515124e-06,1.3232947390004204e-09,3.384176635728907e-06,1.190108027116956e-08,3.541363369708085e-06,1.2348923247380602e-08
848.0,852.0,3.498335742158604e-06,1.3200769665577024e-09,3.3594656800874432e-06,2.4425583469923115e-08,3.518268241243152e-06,1.1787154816098322e-08
852.0,856.0,3.482328807921981e-06,1.3170496795597066e-09,3.322347501714876e-06,3.566109989204365e-08,3.492211082265538e-06,1.2164423135360052e-08
856.0,860.0,3.4645624256822565e-06,1.3135755331943636e-09,3.3474602102793587e-06,1.6150349984189767e-08,3.463214701950294e-06,1.1415129514533975e-08
860.0,864.0,3.4466994582136864e-06,1.310050123019171e-09,3.3353344202690977e-06,2.052572115081118e-08,3.4733673229180413e-06,1.1965432210643039e-08
864.0,868.0,3.429391095045585e-06,1.3067267952176771e-09,3.23544876420969e-06,1.9465218435146927e-08,3.4387686899951776e-06,1.1573777698282616e-08
868.0,872.0,3.410715242067534e-06,1.303119570223508e-09,3.267067792305138e-06,1.930955624589968e-08,3.415443691114695e-06,1.1915860003908528e-08
872.0,876.0,3.393492071724287e-06,1.2996432575883064e-09,3.2544630349847794e-06,1.8527038749434856e-08,3.3821245619428864e-06,1.126929492132082e-08
876.0,880.0,3.376601499284277e-06,1.296426343781545e-09,3.2527795099373962e-06,2.0448143296165816e-08,3.3603350241194645e-06,1.1100004433428953e-08
880.0,884.0,3.35907384143238e-06,1.2929833501447213e-09,3.2100060446682587e-06,1.8034939166825868e-08,3.3650626897911417e-06,1.1311041578687984e-08
884.0,888.0,3.3446714300115377e-06,1.2901945607245626e-09,3.203097521886905e-06,1.5431286252568512e-08,3.3441124593229197e-06,1.1820922694061454e-08
888.0,892.0,3.3277755846043526e-06,1.2868627899585635e-09,3.1956053187368708e-06,1.0490351277323113e-08,3.3450439327857927e-06,1.2380098285126588e-08
892.0,896.0,3.309502389450407e-06,1.2833277215324136e-09,3.1441196535968386e-06,2.648872875083152e-08,3.3053381182683035e-06,1.1454427515165847e-08
896.0,900.0,3.294895479810534e-06,1.2803851043754271e-09,3.1689351175612682e-06,2.8598763193746237e-08,3.2869292506429952e-06,1.113490738948788e-08
900.0,904.0,3.276974606831465e-06,1.276824694949121e-09,3.105937537487602e-06,2.5736268331201968e-08,3.2798217735759083e-06,1.1673544209773714e-08
904.0,908.0,3.262719013887366e-06,1.274080775392626e-09,3.1017347031058237e-06,3.27510650567712e-08,3.2616343857999815e-06,1.1225054313662399e-08
908.0,912.0,3.2474814166697538e-06,1.27106694978011e-09,3.098182445374735e-06,1.5036112950974467e-08,3.233220305918666e-06,1.1086969100982193e-08
912.0,916.0,3.231834922865336e-06,1.2679507697130468e-09,3.070348343699468e-06,1.9216332872715805e-08,3.2128081226102207e-06,1.1492551663010048e-08
916.0,920.0,3.217511883686684e-06,1.2650576087180484e-09,3.0918381029830505e-06,1.668251155412435e-08,3.2063233958572032e-06,1.1855214446592544e-08
920.0,924.0,3.202533799940452e-06,1.2620513496822438e-09,3.080861119623612e-06,2.7891646622360276e-08,3.190139279060488e-06,1.1652913911009262e-08
924.0,928.0,3.1867540687439905e-06,1.2589452227680949e-09,3.0520668901615964e-06,2.2624957862468427e-08,3.1749440374054796e-06,1.1091054104017747e-08
928.0,932.0,3.171650311396263e-06,1.2559422366746832e-09,3.0828424131419313e-06,2.0074432891962e-08,3.1650181856861263e-06,1.1660264439774341e-08
932.0,936.0,3.1589693273510324e-06,1.253418903783954e-09,3.037799457955686e-06,1.2447516098680296e-08,3.143017182264983e-06,1.184299850963646e-08
936.0,940.0,3.143082940113624e-06,1.2501960411626524e-09,3.022622300024722e-06,1.7101713273531537e-08,3.1354845048019763e-06,1.1581688518874563e-08
940.0,944.0,3.128170034578501e-06,1.2471900450677722e-09,3.018782099801671e-06,1.2457902171314123e-08,3.119651131806808e-06,1.12016275127784e-08
944.0,948.0,3.1133702532423235e-06,1.2442511175777095e-09,2.9541964889479874e-06,2.865188048245867e-08,3.0792754488445687e-06,1.1213770831955744e-08
948.0,952.0,3.100537106192912e-06,1.2416384244610476e-09,2.9449417517530825e-06,2.019626137422309e-08,3.073842041279517e-06,1.106922874095328e-08
952.0,956.0,3.086136050201399e-06,1.2387889089971394e-09,3.012122197223185e-06,2.2290916638676117e-08,3.0805596866069e-06,1.1742726261198875e-08
956.0,960.0,3.072582916336336e-06,1.2359257260217231e-09,2.952150997456032e-06,2.064484081797646e-08,3.063803924294456e-06,1.1753271822481824e-08
960.0,964.0,3.059810239849205e-06,1.233362560423402e-09,2.929766825458488e-06,2.023365635511509e-08,3.014395437189465e-06,1.2158771746466879e-08
964.0,968.0,3.0444222560686464e-06,1.2302549125743955e-09,2.899839413474642e-06,3.3135835039210475e-08,3.005974936752791e-06,1.1381518358341668e-08
968.0,972.0,3.0351015314374537e-06,1.2284042996499834e-09,2.8746840572838952e-06,3.212240374188556e-08,2.996118504031621e-06,1.11071238933881e-08
972.0,976.0,3.0189246985362663e-06,1.225068812704516e-09,2.9034157741437684e-06,1.5800049673238534e-08,2.9639713103789374e-06,1.0923470726056152e-08
976.0,980.0,3.0062893821004553e-06,1.2225661186260746e-09,2.890702631606226e-06,1.310998663897867e-08,2.974619773627387e-06,1.1740488286884145e-08
980.0,984.0,2.992958413016612e-06,1.2197382379389426e-09,2.893541609444133e-06,1.8391666282533702e-08,2.946469700819932e-06,1.1357024726483344e-08
984.0,988.0,2.980369319449712e-06,1.2171502087410853e-09,2.835991767277488e-06,2.4412574183993332e-08,2.9424413198004347e-06,1.170759292071925e-08
988.0,992.0,2.9672598795240625e-06,1.2145437255753173e-09,2.7668484902282397e-06,4.7667018893407913e-08,2.92565315736056e-06,1.1195161787994091e-08
992.0,996.0,2.9551963394479284e-06,1.2120839205170306e-09,2.824810837483152e-06,2.1266116660669642e-08,2.8746712447785144e-06,1.0660834077454796e-08
996.0,1000.0,2.941442337234927e-06,1.209321319063052e-09,2.7571542987308997e-06,4.244060044284472e-08,2.8691641578385367e-06,1.1440920327354844e-08
1000.0,1004.0,2.9295422538892867e-06,1.206642496111781e-09,2.7739748557501887e-06,3.012193567749273e-08,2.821028898221912e-06,1.1186363954310836e-08
1004.0,1008.0,2.916961410354892e-06,1.2041600056722038e-09,2.761003249161533e-06,3.952834883388718e-08,2.8099457687461225e-06,1.1620991548632796e-08
1008.0,1012.0,2.905753357220855e-06,1.2018678715721636e-09,2.7634223518462744e-06,1.995038183245542e-08,2.759740551034579e-06,1.0646178545962204e-08
1012.0,1016.0,2.8935861590030663e-06,1.1993815765905973e-09,2.7519692929609e-06,2.868548748198971e-08,2.6610359335963292e-06,1.0995349355443778e-08
1016.0,1020.0,2.8812262172306794e-06,1.1967385796584485e-09,2.754564258033546e-06,2.135259807874014e-08,2.6815953129822425e-06,1.0648188405325793e-08
1020.0,1024.0,2.871941010993568e-06,1.1948823919443703e-09,2.7536827634962138e-06,1.7509136957785766e-08,3.1069824455370682e-06,1.1051920784175338e-08
1024.0,1028.0,2.857672964996499e-06,1.1917802809917405e-09,2.7619076641642617e-06,1.6261509217594558e-08,3.0483945396035183e-06,1.2205359221624276e-08
1028.0,1032.0,2.8435634596859763e-06,1.188965769214184e-09,2.7257696697678246e-06,2.0997061157942974e-08,2.9453212371686932e-06,1.2074782489573384e-08
1032.0,1036.0,2.8368586229437937e-06,1.1874649100520145e-09,2.707339398265427e-06,4.400445217384024e-08,2.9001714008556754e-06,1.1506932947207309e-08
1036.0,1040.0,2.8234342873219482e-06,1.1846882242126568e-09,2.679451109164444e-06,2.94615304130328e-08,2.8803849962091165e-06,1.1959458510904095e-08
1040.0,1044.0,2.8108410065306388e-06,1.1821215900857446e-09,2.610726541325929e-06,4.792762036526646e-08,2.864139550754787e-06,1.140688683109989e-08
1044.0,1048.0,2.8004967743949868e-06,1.1799148588065536e-09,2.636844040625313e-06,3.6068562146622544e-08,2.8182356524786165e-06,1.1777947843911384e-08
1048.0,1052.0,2.7877916779745207e-06,1.177123521711082e-09,2.619957196241164e-06,3.787464869975026e-08,2.812499917180055e-06,1.1573713061841208e-08
1052.0,1056.0,2.779699858833477e-06,1.1754631898718535e-09,2.6961199707130363e-06,1.9874325607348822e-08,2.8053714584092697e-06,1.275617236187751e-08
1056.0,1060.0,2.765108928883296e-06,1.172513557349387e-09,2.6628967155114503e-06,1.4551361340017747e-08,2.785083372326946e-06,1.1699785522571716e-08
1060.0,1064.0,2.756574029068068e-06,1.1705837800619585e-09,2.6535504504654598e-06,1.77103191053664e-08,2.75878648174183e-06,1.1734864931685534e-08
1064.0,1068.0,2.745925915093088e-06,1.168399223743704e-09,2.5789345456898163e-06,3.5049987117629284e-08,2.7593509715866126e-06,1.1048166802294656e-08
1068.0,1072.0,2.734547190188581e-06,1.1660248258973435e-09,2.6200055944385137e-06,2.6301242670645072e-08,2.762038014802886e-06,1.1248152069757688e-08
1072.0,1076.0,2.723961395786453e-06,1.1636643054229126e-09,2.6302647006759085e-06,1.4456791383432647e-08,2.7234810391670533e-06,1.1658313199240352e-08
1076.0,1080.0,2.7143845719736574e-06,1.1617786533362079e-09,2.5921669924355745e-06,2.9116821767135417e-08,2.7170224183725223e-06,1.1960940134260191e-08
1080.0,1084.0,2.702155096443095e-06,1.1591508696509193e-09,2.6131716785812838e-06,1.3659253909875512e-08,2.701782791331071e-06,1.1516885262270371e-08
1084.0,1088.0,2.693717868454993e-06,1.1573734996519832e-09,2.5965728481034427e-06,1.7717122550192264e-08,2.6917841573455016e-06,1.0887032885313407e-08
1088.0,1092.0,2.68398327536574e-06,1.1553526460462127e-09,2.614668894561998e-06,1.4100994283751454e-08,2.672815759591679e-06,1.1073487521793391e-08
1092.0,1096.0,2.67385301225812e-06,1.153065520915623e-09,2.5442628163559103e-06,2.9651106721600903e-08,2.6743509101644275e-06,1.2031549756117688e-08
1096.0,1100.0,2.66148012364882e-06,1.1503807093972215e-09,2.5560334871372293e-06,3.574175396526011e-08,2.639786676340296e-06,1.1241042416814964e-08
1100.0,1104.0,2.6523542857882182e-06,1.148538440240437e-09,2.573843350168227e-06,1.8069759677838584e-08,2.639693023479596e-06,1.3177891918164361e-08
1104.0,1108.0,2.642475534429023e-06,1.146311376836063e-09,2.535862848973452e-06,2.9006992166152835e-08,2.643351185839376e-06,1.1849330007040515e-08
1108.0,1112.0,2.633090408803949e-06,1.1444910501008645e-09,2.468017360502994e-06,3.15814469244923e-08,2.64281661589665e-06,1.1350986652530336e-08
1112.0,1116.0,2.6239412019021822e-06,1.1424581192635432e-09,2.4689849850714803e-06,4.942949713632163e-08,2.62653322193936e-06,1.1674192752173277e-08
1116.0,1120.0,2.6136940536227183e-06,1.1401667456362767e-09,2.4987870369404066e-06,3.6463245931470336e-08,2.599818668309066e-06,1.1535068478334073e-08
1120.0,1124.0,2.6043662835201856e-06,1.1382522088284407e-09,2.514499672140861e-06,2.1266587790442225e-08,2.5995359398970217e-06,1.1145539506855966e-08
1124.0,1128.0,2.594226764690476e-06,1.1360728483313394e-09,2.487525113655583e-06,3.196252353626388e-08,2.5735833966224254e-06,1.1951201968425926e-08
1128.0,1132.0,2.5864172328909187e-06,1.134255280045339e-09,2.491574809687573e-06,1.612538088809871e-08,2.567268980394295e-06,1.1863608115080552e-08
1132.0,1136.0,2.57495524373848e-06,1.131923803026502e-09,2.50966631155689e-06,1.3851094261220717e-08,2.567530745418511e-06,1.196859742716552e-08
1136.0,1140.0,2.5677048404680884e-06,1.1302906352600098e-09,2.400328083482068e-06,4.5562548387963964e-08,2.5616439119378102e-06,1.0989695667294286e-08
1140.0,1144.0,2.5586375749202285e-06,1.1282597709690524e-09,2.458677333288109e-06,2.2751043354693134e-08,2.5334140728655037e-06,1.1763574851545788e-08
1144.0,1148.0,2.5481717616086368e-06,1.1261705857734485e-09,2.431281729364066e-06,2.532301750893716e-08,2.5279990465976727e-06,1.1577528196392945e-08
1148.0,1152.0,2.5403357699942584e-06,1.1243305966818477e-09,2.4255352861007857e-06,2.9290324610604138e-08,2.513292101791645e-06,1.243946963448757e-08
1152.0,1156.0,2.530702695413529e-06,1.1222775980414065e-09,2.444187453012774e-06,2.1200634930017617e-08,2.500311829113929e-06,1.1677526146230836e-08
1156.0,1160.0,2.5232915564154158e-06,1.1207234630874102e-09,2.444661211963655e-06,2.2056511751081697e-08,2.5095859584420137e-06,1.2776038228518116e-08
1160.0,1164.0,2.514922920784114e-06,1.1189097584606187e-09,2.3892749849894925e-06,4.3521657088938735e-08,2.4954295293346247e-06,1.1002517524428072e-08
1164.0,1168.0,2.5054242527313787e-06,1.1168932236717457e-09,2.4201370222353957e-06,2.6672691167480907e-08,2.500672217070616e-06,1.169994281695365e-08
1168.0,1172.0,2.4970945958129413e-06,1.1150007663445924e-09,2.393514501339167e-06,2.532864454848885e-08,2.491716778128136e-06,1.156589964646027e-08
1172.0,1176.0,2.490539964523562e-06,1.113496210912678e-09,2.3952003105256526e-06,2.633262468080853e-08,2.476390195279964e-06,1.129835298144806e-08
1176.0,1180.0,2.4772950891118696e-06,1.1106424609213675e-09,2.3927122812336087e-06,2.425931304534672e-08,2.476606756402204e-06,1.1796648652087671e-08
1180.0,1184.0,2.4717744380015742e-06,1.1095623127826223e-09,2.3994070227437526e-06,1.6258713297174172e-08,2.4463689041942482e-06,1.1486919006250123e-08
1184.0,1188.0,2.46401196948815e-06,1.1077458404936154e-09,2.278825566920576e-06,5.6978437969862425e-08,2.4407559416572062e-06,1.2116169658711707e-08
1188.0,1192.0,2.454289147266993e-06,1.105601588364477e-09,2.288182804691872e-06,5.144556453906282e-08,2.438533121792325e-06,1.1646926686554058e-08
1192.0,1196.0,2.4462211629556483e-06,1.1038167351791268e-09,2.347378959063047e-06,2.6889295496167546e-08,2.4253905375570673e-06,1.1549637456532777e-08
1196.0,1200.0,2.438754968172724e-06,1.102206246072172e-09,2.2934862141938565e-06,4.097702992248682e-08,2.4300664011780715e-06,1.0949850815857927e-08
1200.0,1204.0,2.4315464125769825e-06,1.1006403694343251e-09,2.30845327828953e-06,4.5468695020538816e-08,2.417032371736062e-06,1.1594765290043e-08
1204.0,1208.0,2.4232519504842904e-06,1.0988589027922862e-09,2.343136113566664e-06,2.141488799254219e-08,2.4130561469765487e-06,1.1496241712826804e-08
1208.0,1212.0,2.4141392209295525e-06,1.0968520516855493e-09,2.3558001914177773e-06,1.633233395505261e-08,2.405869625316273e-06,1.1301314141165569e-08
1212.0,1216.0,2.40650945002871e-06,1.095178413455435e-09,2.3211698528026897e-06,2.8135878995625286e-08,2.3839049880184383e-06,1.1682261286212984e-08
1216.0,1220.0,2.3966829360025625e-06,1.0928772462417516e-09,2.28833020074005e-06,2.761380618359552e-08,2.394377727878237e-06,1.1536610041837425e-08
1220.0,1224.0,2.390257512747229e-06,1.0914919417283849e-09,2.2689171825982275e-06,3.506648062319417e-08,2.3600532713645817e-06,1.1309040180769876e-08
1224.0,1228.0,2.383125355372995e-06,1.0899351390927447e-09,2.2665542030844158e-06,4.830104455490282e-08,2.3824576536530134e-06,1.2168852799991762e-08
1228.0,1232.0,2.3751797411262475e-06,1.0881763943583647e-09,2.272312315036282e-06,2.358815118783723e-08,2.348694039755299e-06,1.2024372233599172e-08
1232.0,1236.0,2.3675344066621204e-06,1.0865276097356631e-09,2.2012825304049672e-06,5.657458835803825e-08,2.3385856556942e-06,1.1810351908105785e-08
1236.0,1240.0,2.3598244115540358e-06,1.084768795174174e-09,2.2849842869300817e-06,2.624578685068025e-08,2.3556886626153897e-06,1.0877905697626744e-08
1240.0,1244.0,2.3536062069947416e-06,1.0832193621139624e-09,2.2184399369568887e-06,5.441798575468693e-08,2.339548698953979e-06,1.2600417653432024e-08
1244.0,1248.0,2.347347299271076e-06,1.0820907864413374e-09,2.2383247315092555e-06,3.759201379722321e-08,2.322530002091656e-06,1.2179573294074591e-08
1248.0,1252.0,2.33708705619859e-06,1.0797547970258975e-09,2.2211127642683857e-06,2.988118996020357e-08,2.311673748993376e-06,1.271236828806293e-08
1252.0,1256.0,2.3303542482730565e-06,1.0782070349024784e-09,2.215619999594154e-06,4.094861114176504e-08,2.3227542825081e-06,1.1744284861462627e-08
1256.0,1260.0,2.324549037495871e-06,1.0769595235739415e-09,2.259510765330267e-06,1.823761493586919e-08,2.3127464811911155e-06,1.1543574415934565e-08
1260.0,1264.0,2.3176346922804193e-06,1.0754086792633099e-09,2.2184998480839315e-06,2.7827396177809334e-08,2.295941840842587e-06,1.1952685004055189e-08
1264.0,1268.0,2.310863745105552e-06,1.073825245411185e-09,2.207992173743124e-06,3.1507067417582376e-08,2.297870201013549e-06,1.17858515119763e-08
1268.0,1272.0,2.30128052967547e-06,1.071822571814246e-09,2.215925532357909e-06,2.687312149451133e-08,2.278795209760844e-06,1.0921426075007692e-08
1272.0,1276.0,2.292478716467104e-06,1.069678599070756e-09,2.191177718367617e-06,3.564863276025772e-08,2.285073051214828e-06,1.1247136751056663e-08
1276.0,1280.0,2.2887025797920427e-06,1.0689587016289269e-09,2.200740915947536e-06,2.711161154301836e-08,2.254385351107991e-06,1.168376574923838e-08
1280.0,1284.0,2.281296552517483e-06,1.0673304182339947e-09,2.196355227338595e-06,2.9199423423999846e-08,2.278569694383249e-06,1.1425495244703824e-08
1284.0,1288.0,2.2744769830120084e-06,1.0657162411418886e-09,2.1551374492167457e-06,5.136962743557449e-08,2.244837916160537e-06,1.2009103657861555e-08
1288.0,1292.0,2.267566674201986e-06,1.0642157032517807e-09,2.1326525590174585e-06,3.5940758197174546e-08,2.247874028607173e-06,1.2272463061305547e-08
1292.0,1296.0,2.2603154875000808e-06,1.062638887996564e-09,2.160364710433534e-06,2.6700694196849988e-08,2.2344106298406934e-06,1.1980037080893675e-08
1296.0,1300.0,2.254682608963289e-06,1.0614515231893808e-09,2.1794628261809217e-06,2.46841512124138e-08,2.232948668003123e-06,1.2931690597951367e-08
1300.0,1304.0,2.2472312164565203e-06,1.0595240534356104e-09,2.1682834247188418e-06,2.848553221678623e-08,2.2087372197448072e-06,1.2818844731495657e-08
1304.0,1308.0,2.2414706542267208e-06,1.058364693263721e-09,2.1569715702020816e-06,3.786884550400342e-08,2.2073201463765333e-06,1.2150048440799291e-08
1308.0,1312.0,2.234376888608338e-06,1.056776048172307e-09,2.118920028506931e-06,3.767941591525176e-08,2.209958696089407e-06,1.2419344133244836e-08
1312.0,1316.0,2.2273211236546742e-06,1.0550098930015522e-09,2.1237069465328084e-06,3.510683463581723e-08,2.1986754813776506e-06,1.1711984227943436e-08
1316.0,1320.0,2.222210378839071e-06,1.0540162968683714e-09,2.1043833116559125e-06,4.7314434140443226e-08,2.2128570127299047e-06,1.1624059766623442e-08
1320.0,1324.0,2.2140237770297474e-06,1.0521642680439522e-09,2.1308480613525874e-06,2.720102980935042e-08,2.196128933347906e-06,1.2668664238105831e-08
1324.0,1328.0,2.210396931107644e-06,1.0513176461222304e-09,2.1234842742576268e-06,3.24863109931959e-08,2.183358857694099e-06,1.1786290265763034e-08
1328.0,1332.0,2.20152363483495e-06,1.0493160449251721e-09,2.1418195522993543e-06,2.3784155436666445e-08,2.1736083586190793e-06,1.1668974588878489e-08
1332.0,1336.0,2.1957767203027834e-06,1.048113111098355e-09,2.108353598219175e-06,2.6719375413970968e-08,2.191140976124757e-06,1.186189910993208e-08
1336.0,1340.0,2.191630657545398e-06,1.0472142784419021e-09,2.076775325860964e-06,5.1487088801094934e-08,2.1636971759114195e-06,1.1393304654899412e-08
1340.0,1344.0,2.1838921781391546e-06,1.045308340297309e-09,2.0467485481013773e-06,4.900829042045177e-08,2.1475090258560545e-06,1.234008076266744e-08
1344.0,1348.0,2.1777489711394112e-06,1.0438678307531557e-09,2.1058477280209566e-06,2.0601986064015402e-08,2.1497686729171715e-06,1.1402364716768942e-08
1348.0,1352.0,2.1706842482652376e-06,1.0424008778656114e-09,2.100780012389584e-06,2.7176276988833773e-08,2.149861218623031e-06,1.2309677522575829e-08
1352.0,1356.0,2.1667521273287223e-06,1.0414540684566504e-09,2.1173844529551213e-06,1.8243373887286216e-08,2.133779841842247e-06,1.2268668476471131e-08
1356.0,1360.0,2.1589620753544983e-06,1.0397411002093992e-09,2.137941001234664e-06,1.1649073615027317e-08,2.1244133427827227e-06,1.2530714481828953e-08
1360.0,1364.0,2.152729336425475e-06,1.03821951494001e-09,2.059928559612909e-06,3.0699252536436325e-08,2.1264086845723125e-06,1.2174447728734427e-08
1364.0,1368.0,2.1460470236403568e-06,1.0367255888134086e-09,2.0903036526599164e-06,1.6593835091041057e-08,2.1257822641401874e-06,1.2216700799688745e-08
1368.0,1372.0,2.14472363772333e-06,1.0364396887403367e-09,2.0616955763246264e-06,2.9995661791556915e-08,2.118602817021737e-06,1.2242284569513244e-08
1372.0,1376.0,2.136659728826252e-06,1.0347072314463968e-09,1.991107350384385e-06,3.6512366324383834e-08,2.136526746606871e-06,1.1799387831769504e-08
1376.0,1380.0,2.1303736011816062e-06,1.0330526018890558e-09,2.058195901686168e-06,3.681910776663937e-08,2.1188587260343202e-06,1.3009660864695645e-08
1380.0,1384.0,2.1252837516883598e-06,1.0320338343208026e-09,1.948508518571373e-06,7.040386205921903e-08,2.090775578881524e-06,1.1457240882604615e-08
1384.0,1388.0,2.1191636022013044e-06,1.0305889737889244e-09,1.9744643525906024e-06,5.0542875100469954e-08,2.090383331790463e-06,1.1423739797303095e-08
1388.0,1392.0,2.113768031034609e-06,1.0294098126809013e-09,1.927848271188232e-06,8.489914609713665e-08,2.0762542809619343e-06,1.2512646045435438e-08
1392.0,1396.0,2.1074336577558837e-06,1.027866201969537e-09,2.0212610858423114e-06,2.6963063652840607e-08,2.0837234612938213e-06,1.4518751267673802e-08
1396.0,1400.0,2.1028413536954238e-06,1.026917815731968e-09,1.885214655999398e-06,6.673464346466237e-08,2.086651524663996e-06,1.2628707846941181e-08
1400.0,1404.0,2.0964555718079467e-06,1.0254085293651936e-09,1.9557653182310856e-06,5.461451793334224e-08,2.086969865674369e-06,1.1820308377159373e-08
1404.0,1408.0,2.091666938658903e-06,1.0242596681897557e-09,2.050331751386876e-06,1.4141586451431378e-08,2.055063098252316e-06,1.321246894024061e-08
1408.0,1412.0,2.086196168950108e-06,1.0230917774835781e-09,2.0154275503140163e-06,4.365395624956378e-08,2.0515130706391337e-06,1.195826388220544e-08
1412.0,1416.0,2.0796049397585733e-06,1.0217096963246944e-09,1.9373085585594123e-06,4.356045906587416e-08,2.0401411091086143e-06,1.3790217976326062e-08
1416.0,1420.0,2.07481705230414e-06,1.0205345234037509e-09,2.0207846872407588e-06,1.8981715923106292e-08,2.0454135179316483e-06,1.265105248443239e-08
1420.0,1424.0,2.0695016244834985e-06,1.0192790515802274e-09,1.906121540270752e-06,9.437906347802051e-08,2.0229303790764082e-06,1.3452333491895053e-08
1424.0,1428.0,2.061961181423064e-06,1.0175594648419524e-09,1.8030848313413247e-06,1.5831676719818348e-07,2.0357909799407657e-06,1.1530680697793075e-08
1428.0,1432.0,2.057346942714455e-06,1.0164547691218397e-09,1.938364102754048e-06,4.746421890144787e-08,2.0341670984428168e-06,1.1441281512904211e-08
1432.0,1436.0,2.05288529586012e-06,1.0155003057735945e-09,1.9734901534125703e-06,4.826331435204442e-08,2.0269252296383066e-06,1.1520653515502332e-08
1436.0,1440.0,2.0471910945238274e-06,1.0140697801230781e-09,1.985342027509345e-06,3.581987992080255e-08,2.0106137160828263e-06,1.3338002366716318e-08
1440.0,1444.0,2.0446948577628616e-06,1.0136739270701896e-09,1.914484885615726e-06,4.008751641753348e-08,2.041137661861963e-06,1.1455061687814487e-08
1444.0,1448.0,2.0361253097077893e-06,1.0115763073451616e-09,2.010663550665112e-06,1.7933822360102902e-08,2.018371845329649e-06,1.3297459994248378e-08
1448.0,1452.0,2.0332630577032675e-06,1.011057398992994e-09,1.9658554321475483e-06,3.3226077823184666e-08,2.0057179331330835e-06,1.2190836530884676e-08
1452.0,1456.0,2.027955381305918e-06,1.0098044878431265e-09,1.965556640642534e-06,3.6159882991326713e-08,2.006248962387069e-06,1.1996739389676476e-08
1456.0,1460.0,2.0232484078897407e-06,1.0086219391568994e-09,1.965298192939264e-06,3.1313270005061343e-08,1.991236649937264e-06,1.279519860439416e-08
1460.0,1464.0,2.018689379694811e-06,1.007645973510038e-09,1.936312751226302e-06,3.386320250295561e-08,1.992964652153181e-06,1.2702534666022192e-08
1464.0,1468.0,2.0135528417515287e-06,1.0064869703085405e-09,1.949874356497594e-06,3.379248524891944e-08,1.983865641619604e-06,1.2766749839796586e-08
1468.0,1472.0,2.0089940623949884e-06,1.0054292069852483e-09,1.8993508036335395e-06,3.7651072372260115e-08,1.9811485547864063e-06,1.4027609672996604e-08
1472.0,1476.0,2.003658644551814e-06,1.004105497961972e-09,1.9311619992181086e-06,3.0252745347012055e-08,1.9868083043298103e-06,1.2709695737501624e-08
1476.0,1480.0,1.998619916594825e-06,1.002989146534244e-09,1.886450219110122e-06,4.7388892164413086e-08,1.9690286567862425e-06,1.3193084763083518e-08
1480.0,1484.0,1.9931439855375625e-06,1.0017115590963279e-09,1.79863821702078e-06,8.398701696267919e-08,1.986545973990659e-06,1.240597397083509e-08
1484.0,1488.0,1.988354927954014e-06,1.0006865393975742e-09,1.9489632351172082e-06,3.2169952440436077e-08,1.959911243436163e-06,1.2823535818123753e-08
1488.0,1492.0,1.984156526236453e-06,9.9974508471508e-10,1.9107635855032417e-06,3.676041981398918e-08,1.975658057679626e-06,1.2918448385910349e-08
1492.0,1496.0,1.9813973185304324e-06,9.98980053814567e-10,1.9174266954175318e-06,2.527318367156731e-08,1.9380057165298957e-06,1.3635970992782825e-08
1496.0,1500.0,1.9747801599834513e-06,9.97621380469807e-10,1.8861364421799656e-06,3.1260056049240065e-08,1.954722647960978e-06,1.2784267191348311e-08
1500.0,1504.0,1.9722809389389337e-06,9.968940757271734e-10,1.870948313606796e-06,4.8499397645573136e-08,1.9480040594071393e-06,1.29315505017587e-08
1504.0,1508.0,1.963061244011669e-06,9.947246347433229e-10,1.892340068304528e-06,3.875350002204617e-08,1.9679171869576492e-06,1.1442811068544761e-08
1508.0,1512.0,1.9611065948837698e-06,9.942366142605454e-10,1.892226506334565e-06,4.666341936273995e-08,1.969827251413986e-06,1.2202938791415406e-08
1512.0,1516.0,1.9560744222585377e-06,9.931103089131594e-10,1.8826235178466527e-06,4.797591163173455e-08,1.9474153139735544e-06,1.2822013678955428e-08
1516.0,1520.0,1.9501926253379088e-06,9.917551681782758e-10,1.870925712424689e-06,3.7379386592264095e-08,1.938373566394268e-06,1.2552425063122992e-08
1520.0,1524.0,1.9477956916468176e-06,9.913761749437533e-10,1.8864644403362166e-06,2.7446789786610037e-08,1.949299686739281e-06,1.2868833278163784e-08
1524.0,1528.0,1.9434175024391447e-06,9.903360021086396e-10,1.8387931735660859e-06,4.421263940038295e-08,1.9577298495224216e-06,1.1790055456867131e-08
1528.0,1532.0,1.9363359901349462e-06,9.884633623338216e-10,1.921074248440897e-06,1.3445047507625905e-08,1.9326262758826228e-06,1.2687743917950038e-08
1532.0,1536.0,1.933194493647164e-06,9.878448600695873e-10,1.8853591082497452e-06,3.114078740273733e-08,1.9369731783287675e-06,1.2801400437794629e-08
1536.0,1540.0,1.930312008100458e-06,9.871517605956166e-10,1.8509218546500957e-06,3.048401626798913e-08,1.918964014405039e-06,1.2595060288172547e-08
1540.0,1544.0,1.924357425825012e-06,9.858080340065012e-10,1.929456873168776e-06,1.1976476916082096e-08,1.9199048400677303e-06,1.2039668787591076e-08
1544.0,1548.0,1.921996345151252e-06,9.853950318376323e-10,1.8192749347827413e-06,5.993341952846576e-08,1.90208238412281e-06,1.246958861765206e-08
1548.0,1552.0,1.9179140424097757e-06,9.843850141553063e-10,1.8501906691653855e-06,3.388363024647182e-08,1.9216101932055266e-06,1.1574727220103983e-08
1552.0,1556.0,1.911982563744792e-06,9.829638157622554e-10,1.8903206017791905e-06,1.6996664370518455e-08,1.8974140456226864e-06,1.3259845218947607e-08
1556.0,1560.0,1.9077857704983557e-06,9.819295325455254e-10,1.8344381216961826e-06,4.30755144348265e-08,1.8870303782776847e-06,1.1746791397497758e-08
1560.0,1564.0,1.904938678896765e-06,9.813656531648486e-10,1.8419126597461216e-06,2.704152872733192e-08,1.8893590091902183e-06,1.1531759932881991e-08
1564.0,1568.0,1.901714120188379e-06,9.806607104900469e-10,1.8420233371114547e-06,3.5513079897981884e-08,1.8946719449650159e-06,1.3694458713141775e-08
1568.0,1572.0,1.897271242778516e-06,9.795562065767707e-10,1.8340999237867938e-06,3.546277885996241e-08,1.8597781677950318e-06,1.3105631915585196e-08
1572.0,1576.0,1.8930979103126597e-06,9.786944848284296e-10,1.8522244015856082e-06,3.0750902022566225e-08,1.8743336423264667e-06,1.3877222531454921e-08
1576.0,1580.0,1.8883106184746253e-06,9.775516938064942e-10,1.815684378571608e-06,3.5629182581243424e-08,1.865168799711991e-06,1.2578305217259603e-08
1580.0,1584.0,1.8847396252910183e-06,9.767010991510886e-10,1.8502824251511128e-06,2.915035553701189e-08,1.8601144774665981e-06,1.3871478875893771e-08
1584.0,1588.0,1.880729062656231e-06,9.758333140422768e-10,1.8749582447893703e-06,1.0827019145685878e-08,1.873758976202148e-06,1.2506653754922337e-08
1588.0,1592.0,1.8746642003620807e-06,9.743597645554527e-10,1.6483774969731674e-06,8.277962068158751e-08,1.8456344672078502e-06,1.4694400925149324e-08
1592.0,1596.0,1.8714013690241489e-06,9.735719637920764e-10,1.8479381538781215e-06,2.4136527642942487e-08,1.8253485334361816e-06,1.3990208008787173e-08
1596.0,1600.0,1.868055780158057e-06,9.72816513075209e-10,1.840331602094894e-06,3.2362632362013635e-08,1.8326034251105072e-06,1.4071972573032817e-08
1600.0,1604.0,1.8628570337685035e-06,9.71570514912748e-10,1.8078382677385224e-06,3.0636546037027886e-08,1.8295373085685288e-06,1.3384874227126903e-08
1604.0,1608.0,1.8615528919224231e-06,9.71412747068828e-10,1.8299216892014302e-06,1.4825336889563042e-08,1.8298142982847503e-06,1.3273655929638071e-08
1608.0,1612.0,1.857267515961147e-06,9.704666440181874e-10,1.8247141177245945e-06,1.9202525935804717e-08,1.8469889437870769e-06,1.3022731951901916e-08
1612.0,1616.0,1.85287691645751e-06,9.69391403543258e-10,1.782944055381384e-06,4.094560201171177e-08,1.8310311766882896e-06,1.4277779099552592e-08
1616.0,1620.0,1.8492415723995082e-06,9.684959498488262e-10,1.8479053340984417e-06,1.1064563224714597e-08,1.8194336746602269e-06,1.918001092069949e-08
1620.0,1624.0,1.845751157216383e-06,9.676326825473857e-10,1.7705778983803685e-06,4.737854053011191e-08,1.83601291519978e-06,1.2968864331032471e-08
1624.0,1628.0,1.842026151689848e-06,9.668337706649429e-10,1.788497184710437e-06,3.684486379141325e-08,1.8406290467790131e-06,1.3180377063964079e-08
1628.0,1632.0,1.8377652808677258e-06,9.659049745728932e-10,1.7765569060006768e-06,4.8710687082315226e-08,1.799293983543227e-06,1.4665212513700923e-08
1632.0,1636.0,1.833293840471086e-06,9.646750784944668e-10,1.7455837810362983e-06,5.139058399703144e-08,1.8519640298499741e-06,1.267849414572518e-08
1636.0,1640.0,1.8280442832276642e-06,9.635714409817455e-10,1.8105917773148563e-06,1.982451753372324e-08,1.8139086100165212e-06,1.2653188018235542e-08
1640.0,1644.0,1.8250761246304073e-06,9.627647683484037e-10,1.7703868550004035e-06,5.1420190438958256e-08,1.8264218383951847e-06,1.3357412354209942e-08
1644.0,1648.0,1.8231683095370158e-06,9.624168225778449e-10,1.7371651948839543e-06,4.164197319906696e-08,1.7697835462370358e-06,1.4222536087627231e-08
1648.0,1652.0,1.8191945020288197e-06,9.615314264196513e-10,1.7748094262367561e-06,3.3546132568818766e-08,1.8009684331842163e-06,1.3497475422839728e-08
1652.0,1656.0,1.8150069926835208e-06,9.60577926665245e-10,1.747205434673328e-06,4.152788823339235e-08,1.7945131463910484e-06,1.4659956596391209e-08
1656.0,1660.0,1.8132102854487477e-06,9.601893569408295e-10,1.769898990761412e-06,3.07617272303623e-08,1.8005909562587073e-06,1.4267434999695327e-08
1660.0,1664.0,1.8086798927010742e-06,9.591620835607567e-10,1.7506180501239991e-06,5.6802808008310856e-08,1.7912348142725582e-06,1.3822911405327907e-08
1664.0,1668.0,1.8048083648358868e-06,9.581561393431043e-10,1.7346313992253361e-06,3.826618678443169e-08,1.8070258238416e-06,1.2795561268070226e-08
1668.0,1672.0,1.801126477825494e-06,9.573218768948887e-10,1.7131067215911071e-06,3.8202361543576564e-08,1.7931900837087986e-06,1.2705717701034309e-08
1672.0,1676.0,1.798704516551286e-06,9.566828448052062e-10,1.6269197647015459e-06,6.76459945661474e-08,1.7874941795961261e-06,1.2744778884531549e-08
1676.0,1680.0,1.7946884085014188e-06,9.558404885404688e-10,1.730129665086319e-06,3.317028298189295e-08,1.7792850813432286e-06,1.3368390636024882e-08
1680.0,1684.0,1.7916725276553891e-06,9.553368710797164e-10,1.7527021752386402e-06,2.865846865002185e-08,1.7803695006737152e-06,1.3987492639059366e-08
1684.0,1688.0,1.7882159899815369e-06,9.543180608778553e-10,1.672084274658369e-06,5.465026404965353e-08,1.7826152564040245e-06,1.3708290419052776e-08
1688.0,1692.0,1.7838353238597614e-06,9.533255053435924e-10,1.6695565159973724e-06,7.151097363726162e-08,1.7859458058765992e-06,1.4051093806126261e-08
1692.0,1696.0,1.7802624236977642e-06,9.523945396825792e-10,1.6604657648471671e-06,1.015736656419235e-07,1.7796618871323036e-06,1.571062433506481e-08
1696.0,1700.0,1.7764016409029018e-06,9.515916816047307e-10,1.7487731948635067e-06,2.613236503408259e-08,1.7906578408972404e-06,1.4258243241048964e-08
1700.0,1704.0,1.774187811203803e-06,9.511431454977925e-10,1.6614999833969975e-06,5.703934134111105e-08,1.7726313506463973e-06,1.3466452027747249e-08
1704.0,1708.0,1.7714631358674343e-06,9.50574003155211e-10,1.734720396847257e-06,2.703716705276906e-08,1.756962156211571e-06,1.3845472509292957e-08
1708.0,1712.0,1.7680968136288617e-06,9.497616342500547e-10,1.7157080894803966e-06,3.364952589839701e-08,1.7435243254126102e-06,1.4693154766869009e-08
1712.0,1716.0,1.7642256750021625e-06,9.487748268464538e-10,1.671975546259719e-06,4.7433440123483395e-08,1.7579722325348401e-06,1.3867280536823043e-08
1716.0,1720.0,1.763014845297686e-06,9.487080450277314e-10,1.653090929938674e-06,5.485692021476299e-08,1.7466833385656059e-06,1.339234481264597e-08
1720.0,1724.0,1.7565943376176517e-06,9.470081330985871e-10,1.7073423054626341e-06,5.3088344959047816e-08,1.737522230231105e-06,1.686463708223027e-08
1724.0,1728.0,1.7555878418454041e-06,9.469497517586623e-10,1.6295414514653852e-06,5.948285194704733e-08,1.7418534512740268e-06,1.2274098580699024e-08
1728.0,1732.0,1.7519729137300052e-06,9.462015255551666e-10,1.7052126717918057e-06,3.6322888654436546e-08,1.7480635680165652e-06,1.4033989993212336e-08
1732.0,1736.0,1.748930489585054e-06,9.453992120074913e-10,1.532066517242985e-06,1.3639406884809055e-07,1.7442406347621632e-06,1.5763182527063537e-08
1736.0,1740.0,1.7464757290712673e-06,9.447789651603566e-10,1.7669929890194e-06,2.2970172513893425e-08,1.731049957442949e-06,1.4305803359348291e-08
1740.0,1744.0,1.7443219415660652e-06,9.442845220944077e-10,1.715503608903809e-06,2.6106824367641112e-08,1.7193808420783073e-06,1.3790130661958974e-08
1744.0,1748.0,1.738709966631459e-06,9.429178361356632e-10,1.6480273269857403e-06,5.072235412160778e-08,1.738927392636209e-06,1.3040093260109696e-08
1748.0,1752.0,1.7377445888461659e-06,9.427939250346312e-10,1.6583484391462285e-06,5.243651952513084e-08,1.7303265414263638e-06,1.3605902558780184e-08
1752.0,1756.0,1.7341084740010654e-06,9.419970276336014e-10,1.6119571871847762e-06,7.022967510023702e-08,1.7503619720848938e-06,1.3941438567038704e-08
1756.0,1760.0,1.731988288929443e-06,9.416653309715563e-10,1.6813991637108886e-06,4.3293311246464564e-08,1.7336428829124736e-06,1.4611111560244542e-08
1760.0,1764.0,1.7279975515113838e-06,9.405695334309146e-10,1.6302373873472834e-06,4.906277279851245e-08,1.7073833066495275e-06,1.5201484751650665e-08
1764.0,1768.0,1.7245577624626304e-06,9.398458593912736e-10,1.6742411303695557e-06,4.5461793477271485e-08,1.724884410544883e-06,1.2968447340525717e-08
1768.0,1772.0,1.7211837931331516e-06,9.389534076022543e-10,1.6836131454904041e-06,2.9795491251890285e-08,1.7212595935135273e-06,1.2961507859777217e-08
1772.0,1776.0,1.7179344024845481e-06,9.38178654694319e-10,1.6073398854485997e-06,5.0114138443230754e-08,1.7191050629271764e-06,1.3499080509747231e-08
1776.0,1780.0,1.713867390662963e-06,9.372740417883142e-10,1.591142007444398e-06,6.564408142309602e-08,1.6813394935541172e-06,1.5260723085517622e-08
1780.0,1784.0,1.7114879291845318e-06,9.366569986671372e-10,1.5457550134780547e-06,8.944326231593346e-08,1.6847891153344827e-06,1.4922252780108236e-08
1784.0,1788.0,1.710199721591323e-06,9.365310125897216e-10,1.7195094969112232e-06,1.3149852918772573e-08,1.6715804915522914e-06,1.6762507587651664e-08
1788.0,1792.0,1.7073451424232444e-06,9.358052004180395e-10,1.5079076201063538e-06,1.0185761132774769e-07,1.7043810226925362e-06,1.332068081515822e-08
1792.0,1796.0,1.7043918479554687e-06,9.350647421831264e-10,1.6070813588396919e-06,4.4076211408359264e-08,1.7153244831772771e-06,1.3037857070906924e-08
1796.0,1800.0,1.7022683425712013e-06,9.348565940839674e-10,1.7014251491521299e-06,3.688901363724266e-08,1.6970827372961839e-06,1.373615261643474e-08
1800.0,1804.0,1.6998827460418798e-06,9.34265584673354e-10,1.6590642894973018e-06,4.338202663509242e-08,1.6973970431762369e-06,1.3340568837748333e-08
1804.0,1808.0,1.6955691374532531e-06,9.331655848740689e-10,1.6092327848598546e-06,4.909176837435967e-08,1.6732537734750009e-06,1.3329912391653024e-08
1808.0,1812.0,1.692778003421923e-06,9.325486879803542e-10,1.6729025684703056e-06,3.58418939672243e-08,1.6969875428700809e-06,1.2765017374022885e-08
1812.0,1816.0,1.6914795045438773e-06,9.322133392579892e-10,1.5642271875094681e-06,6.318448684336193e-08,1.7016235548563203e-06,1.2895239861411786e-08
1816.0,1820.0,1.6883943525655036e-06,9.315472604905257e-10,1.6313230949013094e-06,4.4562241540135096e-08,1.6770134453494762e-06,1.4446285344319727e-08
1820.0,1824.0,1.685185415501987e-06,9.308273474586643e-10,1.666876444861218e-06,2.5400006335400812e-08,1.664127027338507e-06,1.656252205750235e-08
1824.0,1828.0,1.6834473828740497e-06,9.305427915796228e-10,1.6142210328726548e-06,4.342797708495859e-08,1.6900838158527978e-06,1.4144245984704289e-08
1828.0,1832.0,1.680291609872986e-06,9.297449629223931e-10,1.547230940403297e-06,8.471179919371627e-08,1.667527279216259e-06,1.8233009802837327e-08
1832.0,1836.0,1.6785133618999115e-06,9.294175944580676e-10,1.5199228017688375e-06,8.49848154028748e-08,1.6690797646608753e-06,1.6215371793832438e-08
1836.0,1840.0,1.6741226590895931e-06,9.283489854635149e-10,1.6140321100438381e-06,4.507428771053808e-08,1.6683255951436138e-06,1.5524063719665282e-08
1840.0,1844.0,1.6730139726731345e-06,9.281087181693392e-10,1.5542982992958772e-06,5.903029043395009e-08,1.6893586323333703e-06,1.6012261954904044e-08
1844.0,1848.0,1.6691951720892609e-06,9.272662941528199e-10,1.5888814830409212e-06,4.2526267810292684e-08,1.6194802931887726e-06,1.591304833305538e-08
1848.0,1852.0,1.6649002649855464e-06,9.262002820793961e-10,1.605531273810599e-06,3.569352533857115e-08,1.6558325160945334e-06,1.4134394705323216e-08
1852.0,1856.0,1.6636320195177112e-06,9.259621255428707e-10,1.6321779852483432e-06,4.338212080761863e-08,1.64762500208141e-06,1.420524884906666e-08
1856.0,1860.0,1.6608402390348931e-06,9.252615232271601e-10,1.6028256990232588e-06,4.16936850192369e-08,1.6635324906639573e-06,1.3351382184864821e-08
1860.0,1864.0,1.6588912117439095e-06,9.249187619009232e-10,1.6763945662311908e-06,1.5561199823829664e-08,1.6760584620388219e-06,1.253357912103942e-08
1864.0,1868.0,1.6567015971771401e-06,9.245911567097594e-10,1.5920060086757931e-06,6.273584200648033e-08,1.6617367243521482e-06,1.31019306665796e-08
1868.0,1872.0,1.6537488001067434e-06,9.237861584842261e-10,1.658058692255749e-06,1.5444201804593404e-08,1.6535594089409931e-06,1.5966034110123362e-08
1872.0,1876.0,1.6517220502503297e-06,9.2331585160264e-10,1.5777000331256696e-06,5.977689285438952e-08,1.6704194207551803e-06,1.4553273824757283e-08
1876.0,1880.0,1.6503952618229863e-06,9.231837668015353e-10,1.4678484777960476e-06,1.0772163874906104e-07,1.6519879502621628e-06,1.4760003336719319e-08
1880.0,1884.0,1.6476699135999538e-06,9.225350387513856e-10,1.5118398404915254e-06,7.664891814684229e-08,1.6431186404520853e-06,1.4558022663594844e-08
1884.0,1888.0,1.6452646929035791e-06,9.218470562609331e-10,1.5847141786866227e-06,3.698263438284404e-08,1.650508366698021e-06,1.365566731863271e-08
1888.0,1892.0,1.6423213660925474e-06,9.213003799566774e-10,1.5838796271861055e-06,3.5827778918425904e-08,1.6419413716341733e-06,1.441882873730036e-08
1892.0,1896.0,1.6409984262988388e-06,9.212382373183602e-10,1.407579961017009e-06,1.2616092867127278e-07,1.6460399943598181e-06,1.405328042412954e-08
1896.0,1900.0,1.635976121315091e-06,9.198177254664823e-10,1.537467001142311e-06,4.975363826897598e-08,1.6399745372027812e-06,1.5115148112603618e-08
1900.0,1904.0,1.633518368217149e-06,9.19353152559986e-10,1.370223997818348e-06,1.9105479645431238e-07,1.6150294659662745e-06,1.4979744413663403e-08
1904.0,1908.0,1.6336871342471319e-06,9.194482197922248e-10,1.5688412518279687e-06,6.173090915076755e-08,1.6050402903137341e-06,1.698488619923091e-08
1908.0,1912.0,1.6305627519071234e-06,9.187821621653363e-10,1.46832727636244e-06,8.140786366121442e-08,1.6207600241034844e-06,1.6128389875777178e-08
1912.0,1916.0,1.6291881097679226e-06,9.184778690046007e-10,1.6210425879793668e-06,2.606515522715336e-08,1.624537162369626e-06,1.4681478433484828e-08
1916.0,1920.0,1.6265956110887488e-06,9.177695350976788e-10,1.6003492008737629e-06,3.4380055478299066e-08,1.6109167353332875e-06,1.5085819221130917e-08
1920.0,1924.0,1.6254364849736228e-06,9.177088075280357e-10,1.6062828925888444e-06,3.955004198505202e-08,1.6335605928328702e-06,1.6326479609072743e-08
1924.0,1928.0,1.6203806675640147e-06,9.164619343070584e-10,1.4486401831877986e-06,1.3773964472816928e-07,1.6273938251515473e-06,1.3616456315073437e-08
1928.0,1932.0,1.6205820212401286e-06,9.166671233819964e-10,1.586027446177391e-06,3.3884750041647646e-08,1.6340496005838425e-06,1.3159947878095857e-08
1932.0,1936.0,1.6187301439122784e-06,9.16290849716538e-10,1.614001258000804e-06,1.9125568317981813e-08,1.6003255201422325e-06,1.4662723002699193e-08
1936.0,1940.0,1.6155782820660989e-06,9.155039280493564e-10,1.6180723206261337e-06,2.0834804222324842e-08,1.5878358113147776e-06,1.6661383893439003e-08
1940.0,1944.0,1.6115637991684152e-06,9.144921116197627e-10,1.5835810051168948e-06,3.043815443815426e-08,1.608037277983296e-06,1.4793315532747915e-08
1944.0,1948.0,1.612236478313389e-06,9.14803000489182e-10,1.5575926031114002e-06,3.3564258859746804e-08,1.5815218230460874e-06,1.3564394169958875e-08
1948.0,1952.0,1.607775585484118e-06,9.137644228144914e-10,1.47571940759285e-06,1.09121069905176e-07,1.6204842885068829e-06,1.460955318488728e-08
1952.0,1956.0,1.6063483195201594e-06,9.133066447491713e-10,1.5775510265495378e-06,3.751920536576704e-08,1.608576055467316e-06,1.3688484809938768e-08
1956.0,1960.0,1.604325368111898e-06,9.130298853973687e-10,1.5888175998581517e-06,2.747610923708803e-08,1.6176680323851843e-06,1.5593099659103224e-08
1960.0,1964.0,1.6043323092185983e-06,9.131261076164852e-10,1.5173409324258794e-06,4.0655825112134256e-08,1.6074708118221725e-06,1.410866166753428e-08
1964.0,1968.0,1.6011963195753375e-06,9.123972417468197e-10,1.485925941521459e-06,8.200194455634887e-08,1.586997274074421e-06,1.4903654458204e-08
1968.0,1972.0,1.596307837311856e-06,9.111974489996623e-10,1.4756633826242578e-06,8.941749376372694e-08,1.596598618991946e-06,1.4252236444072938e-08
1972.0,1976.0,1.5972837332204925e-06,9.114999093133457e-10,1.4999513071755212e-06,5.7514935854325006e-08,1.6147346668566694e-06,1.4759621933133167e-08
1976.0,1980.0,1.5934617782963664e-06,9.106196961302483e-10,1.4873574456795526e-06,5.6885585531237367e-08,1.5880993541980317e-06,1.5436284959902263e-08
1980.0,1984.0,1.5926420343120692e-06,9.105948528386753e-10,1.574054102658651e-06,3.8272847784089044e-08,1.6060246733459939e-06,1.6472221852051096e-08
1984.0,1988.0,1.5894729426794287e-06,9.098855117322307e-10,1.5377946030051143e-06,5.4341032582304526e-08,1.6006383836762717e-06,1.4598853107514691e-08
1988.0,1992.0,1.5876006279519296e-06,9.092732913129537e-10,1.5071727824978192e-06,7.708454349500628e-08,1.6032594527736437e-06,1.3860435892634026e-08
1992.0,1996.0,1.5861734504467463e-06,9.090645084722428e-10,1.4795790078794931e-06,7.26608242182973e-08,1.5730105595429226e-06,1.4971301455606782e-08
1996.0,2000.0,1.5845126816591053e-06,9.087860576398781e-10,1.5548135047383669e-06,3.4629485971633933e-08,1.586915225920451e-06,1.3883723734000665e-08
2000.0,2004.0,1.581291679086936e-06,9.079917384355037e-10,1.5143040702655296e-06,6.52683789799916e-08,1.5889921240602816e-06,1.4796302636567047e-08
2004.0,2008.0,1.578143008942677e-06,9.0725938698751e-10,1.4586802662391878e-06,7.499115980846429e-08,1.5733364675320515e-06,1.5814442474447093e-08
2008.0,2012.0,1.579790426809781e-06,9.08005722036986e-10,1.53287377733909e-06,4.2456593303104004e-08,1.5723255167535012e-06,1.6501385551573234e-08
2012.0,2016.0,1.5750994883384814e-06,9.067398256882688e-10,1.5871054995880458e-06,2.5845828308868592e-08,1.5767437285842894e-06,2.1306031805560648e-08
2016.0,2020.0,1.5739266112263056e-06,9.065253542452721e-10,1.5357797950239438e-06,3.176154934858114e-08,1.5715979404123997e-06,1.3585548827670282e-08
2020.0,2024.0,1.571955050531393e-06,9.060274178195607e-10,1.541604073904266e-06,3.828695066302261e-08,1.5593304505238649e-06,1.6424983494865167e-08
2024.0,2028.0,1.5697112555340382e-06,9.057150574021959e-10,1.4836207449229558e-06,6.851433037245892e-08,1.5709467618498292e-06,1.575253467090384e-08
2028.0,2032.0,1.5684992269883888e-06,9.053505959258262e-10,1.5294623895106247e-06,5.61690731282888e-08,1.569235122528189e-06,1.5520674446711683e-08
2032.0,2036.0,1.5687082565038461e-06,9.057225262231072e-10,1.5375420052072515e-06,3.4127934872209504e-08,1.578340767162403e-06,1.429532449433541e-08
2036.0,2040.0,1.5644460522291897e-06,9.04633614342193e-10,1.4538882350862432e-06,6.488914797883142e-08,1.5938921452276925e-06,1.3820053995019142e-08
2040.0,2044.0,1.5626098137011372e-06,9.042165186642664e-10,1.5996266954588268e-06,1.704065638972778e-08,1.5758538797646218e-06,1.5346223160150632e-08
2044.0,2048.0,1.5614985460992545e-06,9.041602551095853e-10,1.5480796639262378e-06,4.133121353445732e-08,1.5713385345445716e-06,1.5074437585928656e-08
2048.0,2052.0,1.5592103103567048e-06,9.034341521199319e-10,1.5445626520031368e-06,3.965688678669998e-08,1.5425262149544713e-06,1.6670903748561628e-08
2052.0,2056.0,1.5563364968291962e-06,9.029371832429303e-10,1.4937568758285117e-06,4.16453786893593e-08,1.5533314737179114e-06,1.5185659510259988e-08
2056.0,2060.0,1.5563723390087644e-06,9.028733897124462e-10,1.5108875551545461e-06,4.710140713486375e-08,1.5529557762591024e-06,1.6419403506358876e-08
2060.0,2064.0,1.5543302895487757e-06,9.026970437918898e-10,1.468304810390943e-06,9.081340078085133e-08,1.5592226953121485e-06,1.4594785125483873e-08
2064.0,2068.0,1.552978687650554e-06,9.022583923770646e-10,1.4768967977138662e-06,5.788558756961613e-08,1.5361204210377547e-06,1.5539400693209772e-08
2068.0,2072.0,1.550266405479313e-06,9.016555681466578e-10,1.4760381199634219e-06,4.904423411926266e-08,1.5333617286164118e-06,1.6187449491020505e-08
2072.0,2076.0,1.5510580758825991e-06,9.021403561507456e-10,1.4959421106738583e-06,4.748006748208086e-08,1.5051151604550542e-06,1.8287462329565447e-08
2076.0,2080.0,1.5487671076252917e-06,9.017021470059384e-10,1.5343492517342917e-06,4.0164126952817776e-08,1.5585447021010764e-06,1.4707851858157981e-08
2080.0,2084.0,1.5462110396915158e-06,9.010346731187166e-10,1.5272077637842609e-06,2.9734583999657327e-08,1.544640520824396e-06,1.4123195573515177e-08
2084.0,2088.0,1.5444591306968315e-06,9.007268399634913e-10,1.5271319338144453e-06,3.355820997011351e-08,1.548300719260501e-06,1.580117123814455e-08
2088.0,2092.0,1.5410977618930457e-06,8.998377617599781e-10,1.540864572146749e-06,2.984850905068977e-08,1.548044711995241e-06,1.4766984622962346e-08
2092.0,2096.0,1.541805057922253e-06,9.002087661173809e-10,1.3207367643403021e-06,1.1889321170893054e-07,1.5421601401654616e-06,1.5068320835689713e-08
2096.0,2100.0,1.5387977572689332e-06,8.995425404135203e-10,1.471685978684372e-06,9.361064902555746e-08,1.528548139872083e-06,1.489281157816986e-08
2100.0,2104.0,1.5358804392136762e-06,8.987020477279017e-10,1.5220608012043063e-06,3.492715972732234e-08,1.5378774744532636e-06,1.4864147758613288e-08
2104.0,2108.0,1.5357036060177669e-06,8.988348438598062e-10,1.4545620923547668e-06,5.935974191646385e-08,1.5397383157892837e-06,1.5643002917060702e-08
2108.0,2112.0,1.5348288870636346e-06,8.988106532410018e-10,1.4984082185176096e-06,5.0400057943854e-08,1.5403053886674272e-06,1.663805031040276e-08
2112.0,2116.0,1.5330110448922662e-06,8.983962309335991e-10,1.5369630740862222e-06,2.5082547589700253e-08,1.5122023251766118e-06,1.8016429623887046e-08
2116.0,2120.0,1.5313251871582262e-06,8.981834481753461e-10,1.4758486674784599e-06,5.218044661213197e-08,1.5235006318483613e-06,1.5175674187559526e-08
2120.0,2124.0,1.5308569688275336e-06,8.981658679912407e-10,1.4646157209545445e-06,6.556752094326534e-08,1.5192612552153284e-06,1.6640661849601817e-08
2124.0,2128.0,1.5298725010508282e-06,8.980790097218957e-10,1.427698447800021e-06,7.218854175530303e-08,1.527354912347416e-06,1.4508312226242032e-08
2128.0,2132.0,1.52702673606052e-06,8.973103771337833e-10,1.506503613562251e-06,2.688219326853774e-08,1.526326425564349e-06,1.4848110071302226e-08
2132.0,2136.0,1.5261226734189197e-06,8.971855643842559e-10,1.4395909762065397e-06,7.307356651383309e-08,1.5439368022525059e-06,1.3199766620039075e-08
2136.0,2140.0,1.5218941184853215e-06,8.96074646948016e-10,1.5501963006677651e-06,2.614668315713751e-08,1.503070525215435e-06,1.5926174608073576e-08
2140.0,2144.0,1.522516473022721e-06,8.964384325424866e-10,1.5596753548150852e-06,2.6983077036099385e-08,1.5183003686863751e-06,1.7442875340626868e-08
2144.0,2148.0,1.521842023555203e-06,8.963993139796188e-10,1.4485232096973084e-06,8.514381746874398e-08,1.5085335465342287e-06,1.6776199206588508e-08
2148.0,2152.0,1.5189329597060346e-06,8.956359051334773e-10,1.4616975982319569e-06,6.713755386587237e-08,1.5145031334006287e-06,1.8395246224230806e-08
2152.0,2156.0,1.5172735279076291e-06,8.954240650668348e-10,1.4570214920505302e-06,4.184749300314632e-08,1.5335600326507628e-06,1.5232008001360692e-08
2156.0,2160.0,1.5159683458436745e-06,8.951406384293057e-10,1.506859009893461e-06,2.6195474962671814e-08,1.5331564579624203e-06,1.4439798339821506e-08
2160.0,2164.0,1.5139408664947878e-06,8.947397064282032e-10,1.4824801810131394e-06,3.9547828255627664e-08,1.517718949727986e-06,1.5522824358618715e-08
2164.0,2168.0,1.5150069515027306e-06,8.953384403000867e-10,1.4761184461329473e-06,6.135904395600625e-08,1.5140751190807725e-06,1.6914992769800986e-08
2168.0,2172.0,1.5120978093711098e-06,8.943387624344768e-10,1.4413870490807938e-06,6.918234167325977e-08,1.490143975645257e-06,1.7152737659354997e-08
2172.0,2176.0,1.5112345255427025e-06,8.943340727139594e-10,1.4766263975414704e-06,4.710739985258534e-08,1.4875566948547608e-06,1.925557872694363e-08
2176.0,2180.0,1.5091958190815814e-06,8.93920724174647e-10,1.4319431307348203e-06,4.913078379407332e-08,1.4962166612755224e-06,1.840607156505724e-08
2180.0,2184.0,1.5084594669708789e-06,8.939278475688822e-10,1.4619718258604446e-06,4.7915580299762335e-08,1.4984109908988931e-06,1.5089448695871213e-08
2184.0,2188.0,1.5080783067686545e-06,8.939650188588308e-10,1.5371769942598488e-06,2.000161351552406e-08,1.4890777726742926e-06,1.7917309073130982e-08
2188.0,2192.0,1.5065964788115103e-06,8.936137036035102e-10,1.5195105132190403e-06,2.3363385863059918e-08,1.5017715774415114e-06,1.6809172782552366e-08
2192.0,2196.0,1.5040859171587424e-06,8.930136834156817e-10,1.4101136540686904e-06,5.848890247211269e-08,1.5101592445180681e-06,1.4556992325449543e-08
2196.0,2200.0,1.5035317255865109e-06,8.931922539933489e-10,1.4885981572393031e-06,3.450036463810496e-08,1.4863296405839138e-06,1.6567923954816022e-08
2200.0,2204.0,1.5026811319860026e-06,8.930573914601535e-10,1.5143216186032312e-06,3.3323542793509896e-08,1.478048729341603e-06,1.7621985569948706e-08
2204.0,2208.0,1.5021532119187866e-06,8.93034581504144e-10,1.4705685462170325e-06,4.196832552321866e-08,1.477242828484334e-06,1.8619162403182447e-08
2208.0,2212.0,1.4989605219965955e-06,8.921911641113819e-10,1.4330781447613e-06,6.583817298930764e-08,1.4993722896786506e-06,2.2058407340163858e-08
2212.0,2216.0,1.4980230801487716e-06,8.920816810112374e-10,1.491898004640977e-06,2.9054657032701938e-08,1.5053375008681237e-06,1.547322053131241e-08
2216.0,2220.0,1.4979265274107331e-06,8.923878639772177e-10,1.3865558274134916e-06,6.566535065267831e-08,1.4811921387114073e-06,1.5361286734884676e-08
2220.0,2224.0,1.495013720499453e-06,8.916178778673453e-10,1.4089746222782603e-06,9.244978590044688e-08,1.4862188694905829e-06,1.7091330664814802e-08
2224.0,2228.0,1.495701366983022e-06,8.919276400930325e-10,1.5335531844064518e-06,1.6036227012717037e-08,1.4679392417358744e-06,1.7948274769642155e-08
2228.0,2232.0,1.494369489876556e-06,8.917263951354801e-10,1.3907472160546178e-06,7.436539424855768e-08,1.4944920887417924e-06,1.5124323079041357e-08
2232.0,2236.0,1.4907048068237538e-06,8.905921770804828e-10,1.512643348635143e-06,2.302351541267525e-08,1.5041650188826622e-06,1.4533554405046452e-08
2236.0,2240.0,1.4906034660362082e-06,8.909900591274084e-10,1.4597825421340055e-06,5.4519355614950596e-08,1.4784400552717553e-06,1.5829436860191084e-08
2240.0,2244.0,1.4900008423116795e-06,8.909452358451861e-10,1.3608942645483991e-06,6.582930446148944e-08,1.510285809744321e-06,1.747804015660345e-08
2244.0,2248.0,1.4891718443155253e-06,8.9093183983803e-10,1.4574749055031843e-06,5.038435904358157e-08,1.49723859429403e-06,1.5660827609953234e-08
2248.0,2252.0,1.4861941467643172e-06,8.901747037154773e-10,1.4150637248861937e-06,5.834124404945713e-08,1.4928550538502075e-06,1.5973710559471692e-08
2252.0,2256.0,1.4860540905796619e-06,8.902416867671761e-10,1.4486276533639004e-06,4.122233996468917e-08,1.4988018698034324e-06,1.5836803271264242e-08
2256.0,2260.0,1.4867005284128514e-06,8.907297273008427e-10,1.4611963982341544e-06,3.6505279227371835e-08,1.5071155410923548e-06,1.6631232026565358e-08
2260.0,2264.0,1.4851723786253997e-06,8.9041712546316e-10,1.453187412660472e-06,4.3575166430356633e-08,1.476152558993521e-06,1.793309437464117e-08
2264.0,2268.0,1.4846287748163571e-06,8.904013660631663e-10,1.4315728968275018e-06,5.323633709306327e-08,1.468130261115131e-06,1.7737722675581584e-08
2268.0,2272.0,1.4814932996570876e-06,8.896392003623517e-10,1.28249082550145e-06,1.1867793693389561e-07,1.5016887441620003e-06,1.785700402474421e-08
2272.0,2276.0,1.4801763822313028e-06,8.893061728986018e-10,1.4465707478506848e-06,4.6501235779300526e-08,1.4756086261450953e-06,1.5958436566585506e-08
2276.0,2280.0,1.479037663956469e-06,8.891523971792482e-10,1.4516962155502213e-06,4.53784531400055e-08,1.4950373902558404e-06,1.5960879074370973e-08
2280.0,2284.0,1.4783294547311423e-06,8.891296724780867e-10,1.2993108420810252e-06,9.231898134946408e-08,1.4826622480145e-06,1.5352397842023795e-08
2284.0,2288.0,1.4780912756773624e-06,8.892555532124162e-10,1.3668431456754077e-06,7.52726133223722e-08,1.4685435575569343e-06,2.2993475109872894e-08
2288.0,2292.0,1.4760641590288703e-06,8.888002529720764e-10,1.458770412301914e-06,4.4026868813693306e-08,1.462928326340625e-06,1.80501576175098e-08
2292.0,2296.0,1.4762480277527918e-06,8.890081340986099e-10,1.4352309725046918e-06,6.049723849776801e-08,1.4859096785970009e-06,1.5350231511127893e-08
2296.0,2300.0,1.4752240579718515e-06,8.888544919886457e-10,1.4338081643069132e-06,5.884997197530402e-08,1.4812846219056446e-06,1.7456992870761298e-08
2300.0,2304.0,1.4731060035907352e-06,8.883652061472187e-10,1.1432441326688946e-06,1.922254517434713e-07,1.4677863986924661e-06,1.689459398116518e-08
2304.0,2308.0,1.4735628620142383e-06,8.88676203864076e-10,1.4357285454617731e-06,4.780200260541338e-08,1.481039790242492e-06,1.5712943839385538e-08
2308.0,2312.0,1.4716555566853966e-06,8.883733018484521e-10,1.4555835217206356e-06,4.354898440863776e-08,1.4454339794230282e-06,1.7781577813671533e-08
2312.0,2316.0,1.4699672938324366e-06,8.878645767513983e-10,1.4553673198804285e-06,3.399553720742941e-08,1.452954821785418e-06,1.7265059117668624e-08
2316.0,2320.0,1.4706329839323843e-06,8.883699635817058e-10,1.409591919796731e-06,4.55454970675712e-08,1.4635745257615812e-06,1.829803565940251e-08
2320.0,2324.0,1.4669788483125209e-06,8.874493331178723e-10,1.4849642557190355e-06,2.3120973926514115e-08,1.4762538337868594e-06,1.8271892576502067e-08
2324.0,2328.0,1.4678538309906114e-06,8.878752881110652e-10,1.373567741192869e-06,7.722117744997868e-08,1.4832597942783188e-06,1.587437817461282e-08
2328.0,2332.0,1.4686533204318639e-06,8.883918978169307e-10,1.2706828571583117e-06,8.594615790262622e-08,1.4543222787273918e-06,1.8882388733782605e-08
2332.0,2336.0,1.4646087680604847e-06,8.869858646727832e-10,1.4284391229900523e-06,5.078329921202732e-08,1.4641318802267549e-06,1.694391073426987e-08
2336.0,2340.0,1.4660765411168858e-06,8.878944182873722e-10,1.4305730329313732e-06,5.4173569974603406e-08,1.449795631598106e-06,1.738611287689704e-08
2340.0,2344.0,1.4658106464227991e-06,8.879927264103116e-10,1.3528423996340094e-06,6.342303608954616e-08,1.460209673929871e-06,1.868824293763547e-08
2344.0,2348.0,1.464448639010342e-06,8.877299734835327e-10,1.3312706512678384e-06,1.0906395972596183e-07,1.4565625332975437e-06,1.6702236461846387e-08
2348.0,2352.0,1.464439257005574e-06,8.878980569376496e-10,1.295422270587828e-06,8.522238431218038e-08,1.4781944911242692e-06,1.8728625591048203e-08
2352.0,2356.0,1.4618149399492832e-06,8.871724907495575e-10,1.4261291573067585e-06,6.720243213902898e-08,1.4394784994219818e-06,1.803463557889296e-08
2356.0,2360.0,1.4611880763819937e-06,8.871743102432819e-10,1.3143107315646636e-06,1.2041078167926765e-07,1.4675270468832315e-06,1.6330937991123024e-08
2360.0,2364.0,1.4584849397031873e-06,8.865952601222543e-10,1.4774445423005263e-06,4.553161794454843e-08,1.4470919453135127e-06,1.7343899229463317e-08
2364.0,2368.0,1.4584600718786753e-06,8.866929246560173e-10,1.4656335966480047e-06,4.081196019192634e-08,1.4437686780169088e-06,1.7242554164852005e-08
2368.0,2372.0,1.4570818075234619e-06,8.864159809115902e-10,1.4947799334833592e-06,2.8895823442137228e-08,1.4672826506062726e-06,1.4837835191191083e-08
2372.0,2376.0,1.4580584114847685e-06,8.869327642459538e-10,1.1997961227950788e-06,1.8008958319572032e-07,1.4203827429918712e-06,1.9746029552006584e-08
2376.0,2380.0,1.4591168227353838e-06,8.875327385669146e-10,1.4442205999993377e-06,5.284962200060204e-08,1.4589387823881918e-06,1.9166512523935018e-08
2380.0,2384.0,1.4573489946608209e-06,8.87223512547802e-10,1.4417743903731942e-06,4.144241795169353e-08,1.4468400102882016e-06,1.9098522192804043e-08
2384.0,2388.0,1.4549312799631952e-06,8.86456435804579e-10,1.3913865338088941e-06,6.302790103504723e-08,1.4501659770474468e-06,1.6579560760782678e-08
2388.0,2392.0,1.456259336764857e-06,8.871149759778084e-10,1.464791670518303e-06,4.37527589475567e-08,1.469605807737906e-06,1.5941089525813204e-08
2392.0,2396.0,1.454314574998488e-06,8.867371902596472e-10,1.316199154327561e-06,9.482800046408773e-08,1.4606948671664225e-06,1.769578128305465e-08
2396.0,2400.0,1.4525539607686237e-06,8.862989788615972e-10,1.2680905177468285e-06,1.2538360688724235e-07,1.4608292346696018e-06,1.803483824325249e-08
