xl,xh,LO,dLO,NLOnovp,dNLOnovp,NLO,dNLO
0.52,0.5622,2.6216250896713308e-05,1.8023026743419877e-08,2.5180329415420183e-05,1.2562891461346962e-06,2.696158075686613e-05,3.024814130187839e-07
0.5622,0.6044,0.00010429366131469078,3.801596040581438e-08,0.00010130784157156876,1.654448916489361e-06,0.00010733748058771751,7.184266997399616e-07
0.6044,0.6466000000000001,0.00026532199457498406,6.416019050125515e-08,0.00025598945015094953,2.9073411114924567e-06,0.00027009276516089524,1.5777971772562702e-06
0.6466000000000001,0.6888,0.0006745959227062062,1.0629519105983457e-07,0.0006205022216839022,3.6261177908306618e-06,0.0006574642962507707,5.775995107675392e-06
0.6888,0.731,0.0010824228723166416,1.441217418054895e-07,0.0009939208355440301,4.503924232349939e-06,0.0010539950525887993,6.908688545411369e-06
0.731,0.7732,0.0014292210548106266,1.7642607630962191e-07,0.0013082700261177564,3.88604768552977e-06,0.001384787453105503,6.577806852700233e-06
0.7732,0.8153999999999999,0.0017617486811027,2.0655627635160344e-07,0.0016171996301441787,4.798739809434432e-06,0.0017192353638949436,9.71979657855413e-06
0.8153999999999999,0.8575999999999999,0.0020970813827916254,2.356297624842465e-07,0.0019273982957165614,5.683457232303755e-06,0.002056823048042528,1.069389525793752e-05
0.8575999999999999,0.8997999999999999,0.002435234382789996,2.634371634346221e-07,0.0022357215327132108,5.85455466228651e-06,0.0023892408317213185,1.0253478991721409e-05
0.8997999999999999,0.942,0.0027826162110874434,2.904368783923521e-07,0.0025492747083706154,7.277458396947676e-06,0.002734564177687636,9.302209402570853e-06
0.942,0.9842,0.003142758701128859,3.1677021400031285e-07,0.002886964366400399,9.264964904771196e-06,0.003138033250334972,1.340928178572793e-05
0.9842,1.0264,0.003525098266039683,3.429128381982997e-07,0.0032334071178521835,1.0270083906882117e-05,0.003538645287461183,2.080285181401818e-05
1.0264,1.0686,0.003935846807590694,3.6906709795518064e-07,0.003627910844077113,1.2340222382310777e-05,0.0039207887412816105,2.0576666580522856e-05
1.0686,1.1107999999999998,0.004385015877108213,3.955857623946298e-07,0.004019698461857414,1.4579319787531434e-05,0.004305075856063351,1.524610041888484e-05
1.1107999999999998,1.153,0.004882825330751486,4.229084816014393e-07,0.004475242467591361,1.9790048048852788e-05,0.004815437748720479,1.5070879837291007e-05
1.153,1.1951999999999998,0.005442762987248516,4.5168444451731347e-07,0.005033386952159635,1.783137293425998e-05,0.0053635137566458504,1.4499778790382348e-05
1.1951999999999998,1.2374,0.006088428996555861,4.827558863967259e-07,0.005606890916942643,2.4405322803601545e-05,0.006008717562935375,1.4261992067401752e-05
1.2374,1.2795999999999998,0.006857802148825631,5.174404519467468e-07,0.006368866961513014,2.5067014462617545e-05,0.0067540329996578115,2.018632237965934e-05
1.2795999999999998,1.3218,0.007810347013855191,5.576911512984092e-07,0.007288084117094598,2.622841749337495e-05,0.007693379015309429,1.2988493321286124e-05
1.3218,1.364,0.00904797313317232,6.065607978631641e-07,0.0084204551616327,3.258130591148147e-05,0.008913695599053936,1.4320613229848413e-05
1.364,1.4062,0.010748586236288151,6.688893234539652e-07,0.009994254805814244,3.7868049934656986e-05,0.010613184756716104,1.801765715289448e-05
1.4062,1.4484,0.013279486763601762,7.535768144780673e-07,0.01250435582186027,3.658082978759505e-05,0.013077102839598571,1.5913788017914263e-05
1.4484,1.4906,0.017564049807503597,8.806274127160017e-07,0.016550421837912804,4.837688401817084e-05,0.01725340598596124,1.859131675389872e-05
1.4906,1.5328,0.026390618543708017,1.0986808760850049e-06,0.025121566985537795,6.075682854382858e-05,0.025914593649185948,2.0172495115697067e-05
1.5328,1.575,0.042964653810613436,1.3646292236640906e-06,0.04114430291419018,8.232669903205843e-05,0.04217715385460495,2.6709519773984383e-05
1.575,1.6172,0.04085612730281332,1.3658625790693718e-06,0.03895844388997284,8.150095872559661e-05,0.03995649314081537,2.539750984939851e-05
1.6172,1.6593999999999998,0.026290530470655132,1.1400970502897695e-06,0.02492322052234914,6.031459235208535e-05,0.025717467238025208,2.8576576428066394e-05
1.6593999999999998,1.7015999999999998,0.019210680309077414,9.844443161872124e-07,0.018035164071591336,6.404162266439931e-05,0.01867989798836793,5.3538850166801834e-05
1.7015999999999998,1.7437999999999998,0.015677110683478726,8.992842225802772e-07,0.01451445112796524,7.144739139983822e-05,0.015327227600412871,2.477706066278495e-05
1.7437999999999998,1.7859999999999998,0.013547543320173062,8.462353610064811e-07,0.012578011165878778,7.283103968144522e-05,0.013199856527037665,2.271710927839575e-05
1.7859999999999998,1.8282,0.012097056832756864,8.102835632340907e-07,0.011277891494979743,7.439077384759532e-05,0.011843600326753398,2.8244424929668434e-05
1.8282,1.8704,0.011034878587474069,7.849508853579934e-07,0.010070103444747238,8.21340277755303e-05,0.010620701787192129,2.5364285604969548e-05
1.8704,1.9126,0.010204254093091164,7.663356189564015e-07,0.009210805938664426,9.289124859664016e-05,0.009863241621046804,3.314961655908733e-05
1.9126,1.9548,0.00951951898349636,7.521131601858602e-07,0.008694798064185572,8.807675482532571e-05,0.009163317237404522,2.6198059097373112e-05
1.9548,1.9969999999999999,0.008924843109865037,7.404758956531996e-07,0.007989768424995823,0.00010539670577042644,0.008545079723870782,3.487256689092837e-05
1.9969999999999999,2.0392,0.00837648254909021,7.296754546594975e-07,0.007555912906052767,9.54304084388478e-05,0.00796974739657074,2.7218686903813515e-05
2.0392,2.0814,0.007856719642019255,7.188276522110635e-07,0.007142733466884591,0.00010083339345964098,0.007441680554471761,5.177374253635819e-05
2.0814,2.1236,0.007363648826788367,7.07867231971097e-07,0.006582628603790261,0.00010248255010795024,0.006966747495564325,2.7854039037227716e-05
2.1236,2.1658,0.0068903175077745064,6.964062823299394e-07,0.006019173111129426,0.00012324929606199068,0.0065109343320058025,2.948450017875075e-05
2.1658,2.208,0.006420569042431664,6.833123543355543e-07,0.005736818801347817,0.00010222487538139185,0.00609589382881398,2.876073008647755e-05
2.208,2.2501999999999995,0.005938616023209282,6.673517755903875e-07,0.005403740059989427,0.00010062035025086573,0.0055318286521477324,3.181262870239227e-05
2.2501999999999995,2.2924,0.005431741118377177,6.471181793282624e-07,0.004895870177836979,0.00010507035300294536,0.0050201920499546495,2.90269099834654e-05
2.2924,2.3346,0.004888542485132296,6.210967863810222e-07,0.004230871254546386,0.00013658919119882728,0.0044854852278848655,2.9592932752972852e-05
2.3346,2.3768,0.0043118542209100285,5.888138034684862e-07,0.0037028524836942634,0.00011811812699638796,0.003939536716240082,2.954352984078055e-05
2.3768,2.419,0.003697392086546922,5.497593215386294e-07,0.003128907550862593,0.00010413832916493848,0.0033959549792780108,2.664474789859617e-05
2.419,2.4612,0.003008773319528253,5.013611188373879e-07,0.002546961450142031,0.00010640994762587957,0.002733342277346996,2.474646975102237e-05
2.4612,2.5034,0.002186813501039889,4.4100572327352965e-07,0.001589355708592689,0.00014314563148425617,0.0019837455699499807,2.3256370918017145e-05
2.5034,2.5456,0.0013439665025462247,3.6576343193881783e-07,0.0010294411518013767,0.00011677016664567937,0.0012427216180224366,1.9486665418125294e-05
2.5456,2.5878,0.0006953154063653494,2.7063107210710944e-07,0.0006606979065655696,4.700450149305698e-05,0.0006437964358923558,1.4314516306353091e-05
2.5878,2.63,0.00015495466720082853,1.2945786054417734e-07,0.00014901869079304262,1.889854774461765e-05,0.0001316739938457267,7.275055923604706e-06
