xl,xh,LO,dLO,NLOnovp,dNLOnovp,NLO,dNLO
0.6,0.65,0.013422123302733029,7.97056213701978e-07,0.01264432920873798,6.28884557589321e-05,0.013220553666570376,1.8561037499207723e-05
0.65,0.7,0.012878375499503035,7.753973034983501e-07,0.012076884219357577,8.019990038007411e-05,0.012712057384720464,1.880547640345887e-05
0.7,0.75,0.012328422084405068,7.532780095282191e-07,0.011681829483902754,6.70637773304059e-05,0.012126035285099096,1.8637587186679397e-05
0.75,0.8,0.011781781664815858,7.315199819744255e-07,0.010948113158665592,0.00010026456664207674,0.0115843292517215,1.8514243902009906e-05
0.8,0.85,0.011255300834245422,7.10683962287702e-07,0.010615400457044543,6.865147936275544e-05,0.01103921552405958,2.2061579435968547e-05
0.85,0.9,0.010759808905244013,6.909684141970036e-07,0.010023835810877922,8.60757068416903e-05,0.010544362366426087,2.1296266382205493e-05
0.9,0.95,0.010296675522542126,6.723666905820737e-07,0.009483528352389685,7.475428370463476e-05,0.010079242244437472,2.7019182523082267e-05
0.95,1.0,0.009868635052017918,6.549821117423627e-07,0.009153602354144048,7.416233225849197e-05,0.009624826700010606,1.9480624098712508e-05
1.0,1.05,0.00947646212303477,6.387979256187896e-07,0.008821384485492781,7.016434185419311e-05,0.009230513745977786,2.1009194152399e-05
1.05,1.1,0.009121563894413836,6.239725850956705e-07,0.008439721691163016,6.583179446867459e-05,0.008832343643910787,2.1182065281720396e-05
1.1,1.15,0.008800977158236151,6.103846534009903e-07,0.008202790073949343,7.550425428472941e-05,0.008489195620015969,2.340912109760191e-05
1.15,1.2000000000000002,0.00851155313760721,5.979378219970467e-07,0.007862504834870577,6.974011268535008e-05,0.008195440310085171,2.1323048846422755e-05
1.2000000000000002,1.25,0.008257117501399373,5.868637006964674e-07,0.0075325439711696075,8.525224524696438e-05,0.007963384408196815,1.916967004054565e-05
1.25,1.3,0.008035267251170722,5.771005840468277e-07,0.00735571614868974,6.863073441390778e-05,0.007797596140450191,2.4033003701112992e-05
1.3,1.35,0.00784697478088701,5.68736583193031e-07,0.0072599971104650675,5.93168465734786e-05,0.007491876463205642,2.060343979005259e-05
1.35,1.4,0.007690643827857978,5.617282647067714e-07,0.007073879766300462,6.412518398473145e-05,0.007407152782470165,1.9506665470500675e-05
1.4,1.4500000000000002,0.0075661878732823235,5.560880945816699e-07,0.006783987072354091,7.330548127992171e-05,0.0072528370675848065,4.10185074576232e-05
1.4500000000000002,1.5,0.007472631805880459,5.518484885635096e-07,0.006855557356026288,6.360482533782122e-05,0.007185611516983079,2.0116858834849546e-05
1.5,1.55,0.007412255674967348,5.491273247452147e-07,0.006746481684695144,7.430087721009536e-05,0.007137128741299037,2.3830899405790395e-05
1.55,1.6,0.007380901913258281,5.47691695931251e-07,0.006821985228810058,7.539245221308726e-05,0.007073654341426925,2.1106551556943704e-05
1.6,1.65,0.007380313869978883,5.476364398106148e-07,0.006809330135718345,6.508653468470445e-05,0.007171804427199715,2.797083282280884e-05
1.65,1.7000000000000002,0.007409421365745401,5.489454526477951e-07,0.006776595525283926,6.819096758328931e-05,0.0071565727969067966,1.8322609549940265e-05
1.7000000000000002,1.75,0.007467652135680028,5.51555253511419e-07,0.006868573028649574,6.417745107354145e-05,0.007161432684512368,2.3255943623777952e-05
1.75,1.8000000000000005,0.007555779595268357,5.554661622733992e-07,0.006994393394974422,5.77587053904978e-05,0.007277215228297008,2.0080416604265355e-05
1.8000000000000005,1.85,0.007667302238763036,5.603739384912948e-07,0.007016669054172745,6.407089105800161e-05,0.007355350558029969,2.0484926722754737e-05
1.85,1.9,0.00780574745615025,5.664080808441639e-07,0.007260557325871675,5.8971407279485495e-05,0.0074948930194612285,2.015061301875339e-05
1.9,1.95,0.007964790105383084,5.732463248976986e-07,0.00734114961835831,5.705235376847549e-05,0.007715935593873631,2.036891047213059e-05
1.95,2.0,0.00814369383160627,5.808433630080927e-07,0.007487871829238947,9.229606711728012e-05,0.00783723461683113,1.8381991873652702e-05
2.0,2.0500000000000003,0.00833747575048078,5.889950921483814e-07,0.007646053002188225,6.5032943974057e-05,0.008044642506453861,2.1568013223106574e-05
2.0500000000000003,2.1,0.008540528036525195,5.973949154545814e-07,0.00796219999276195,5.508667665178145e-05,0.008270179920271441,2.0694657599567497e-05
2.1,2.15,0.008743379777285655,6.05736076995124e-07,0.008124237485633946,6.680731360871852e-05,0.00842654406346443,2.795187398350949e-05
2.15,2.2,0.008931081221316016,6.133630979813957e-07,0.008275620700155667,5.7076663355638574e-05,0.008640285406416794,2.081758795000439e-05
2.2,2.25,0.009079128637781193,6.194004815457903e-07,0.008403254358508996,5.211499622438482e-05,0.008705638116079942,4.465154519151447e-05
2.25,2.3000000000000003,0.00914758379020951,6.223580016983225e-07,0.0084982588273514,5.061944131613565e-05,0.008791047893177013,1.62328802800797e-05
2.3000000000000003,2.35,0.009100573183419364,6.216218010533398e-07,0.008294327737168086,5.95516706035075e-05,0.008736731795726578,1.57392067847061e-05
2.35,2.4,0.00882445217877828,6.131689638894254e-07,0.008090312499690517,5.344323088231436e-05,0.008447579196728549,1.5257800795486932e-05
2.4,2.45,0.008002177865844166,5.839035855395147e-07,0.0073250703858252575,5.139157208786732e-05,0.007655974024259771,1.3435376436176961e-05
2.45,2.5,0.005674642625735124,4.888625190161999e-07,0.005352360617138843,4.467645700067346e-05,0.005692034822157347,1.1779574979856304e-05
2.5,2.5500000000000003,0.0037904926432784634,4.038643410490359e-07,0.003793414084432598,3.2461353779168436e-05,0.004004802535326014,9.841589639194451e-06
2.5500000000000003,2.6,0.0034927073916501523,3.910360014931453e-07,0.003465052393852257,2.959461057360568e-05,0.00360862452042913,1.0783683356246713e-05
2.6,2.6500000000000004,0.003385896951898293,3.849561234066465e-07,0.0032041517371873603,3.9182695072765205e-05,0.0034606588271401447,8.708736313725114e-06
2.6500000000000004,2.7,0.00335886508608071,3.814634664308885e-07,0.0031767260350060197,3.67349319482476e-05,0.003402867239782613,8.618047467866807e-06
