xl,xh,LO,dLO,NLOnovp,dNLOnovp,NLO,dNLO
0.0,0.01,0.07102112522130632,3.2427550274083437e-06,0.06040278932641534,0.0004969161035250889,0.06402671276793079,0.0002227846860920049
0.01,0.02,0.06460776289420561,3.244306551577324e-06,0.0568436150151845,0.0004021372689907073,0.05950139747389601,0.00020821750362760424
0.02,0.03,0.0565314725675832,3.182354772111152e-06,0.05085851614435772,0.0003889207972887601,0.0533726267467423,0.0001756632920535157
0.03,0.04,0.05053467453433155,3.1135465260751546e-06,0.04497549549685701,0.00045772394237998134,0.0480400197007081,0.00014219854537493836
0.04,0.05,0.04637055990844232,3.058302566645142e-06,0.04198818838555714,0.0004306858554439725,0.044403302612402495,0.00011948435727843501
0.05,0.06,0.043421837869287216,3.0168181711710062e-06,0.03901296253398702,0.0005461825534896238,0.04198799637129035,0.00011650592617313497
0.06,0.07,0.04127046170808319,2.9856993520536683e-06,0.03732418214163054,0.0005135381768974845,0.03957526931529323,0.00011959799514137164
0.07,0.08,0.03965924987458522,2.962446873448345e-06,0.036237837913801314,0.0004381278231816041,0.038129296719685735,0.00011075936729183672
0.08,0.09,0.038333330989639085,2.9379355392574787e-06,0.0347946866014541,0.0003660724702252263,0.03695060419266612,0.00010810473506627126
0.09,0.1,0.0370825625970745,2.90239418879705e-06,0.033877648956553805,0.0003698300551345478,0.03583588545218076,9.98380529461173e-05
0.1,0.11,0.036068854468153284,2.8706427740952286e-06,0.03322191350366877,0.0003201736103922273,0.03482079983162358,9.97960782767674e-05
0.11,0.12,0.03521217143718902,2.840995358659813e-06,0.032709397263209546,0.0003000207064283556,0.03401049167272973,8.91386963736592e-05
0.12,0.13,0.034511341783418775,2.814593199055729e-06,0.03130993502482758,0.00038430925659929953,0.033420860753468555,9.738461706233453e-05
0.13,0.14,0.03392033135807704,2.7901634684137574e-06,0.030904252454395563,0.0004821591884849685,0.032693492208742916,0.00010485323797754477
0.14,0.15,0.033426849708075565,2.7680045312611217e-06,0.031228413973875137,0.00032139420806071516,0.0323855310453464,9.07256858926672e-05
0.15,0.16,0.033014502015887744,2.747716908420484e-06,0.03035274555033376,0.00037796615579024646,0.031931460388221,8.347237213535404e-05
0.16,0.17,0.03266062188548971,2.7286848802035247e-06,0.030003020524754037,0.00032258559156348615,0.03164148898237235,8.547059582597789e-05
0.17,0.18,0.03236920039798579,2.7114929193711174e-06,0.029612748573422224,0.00032867545764423236,0.0315083066538292,8.032535291861221e-05
0.18,0.19,0.03212611616336677,2.695577545938755e-06,0.029872356034646767,0.0002869143937722813,0.031162508772253263,8.161089816003086e-05
0.19,0.2,0.031927374977317416,2.6810526319651117e-06,0.029165358966587812,0.0003767709968433981,0.030995177219958307,7.662521785277523e-05
0.2,0.21,0.031762989334203316,2.66779188461742e-06,0.02949842496907277,0.0002775708018596662,0.03078999022433913,7.572807494024122e-05
0.21,0.22,0.03161094343473539,2.6547212438204783e-06,0.029236322289425132,0.00028235877492087136,0.030533689451077175,0.00011613841867293079
0.22,0.23,0.031474197686377166,2.6424044707288983e-06,0.028751456051356344,0.0003097723729707457,0.030247507218399687,0.00018907072171301103
0.23,0.24,0.031291711669304736,2.6283612058336726e-06,0.02923409249268765,0.00022929209253969352,0.030404540084924075,7.134633045548285e-05
0.24,0.25,0.031035909623815583,2.6116379546425134e-06,0.028398372389574707,0.0002872672767907834,0.030212674313035936,7.304837492161717e-05
0.25,0.26,0.030699209490824043,2.59204040489625e-06,0.028302579963266426,0.00025093797362094684,0.02988464665555086,0.00011071439746850515
0.26,0.27,0.030212485458641875,2.566517420155617e-06,0.028116481230152247,0.00028580040126440686,0.029425239401625117,7.229795072697767e-05
0.27,0.28,0.02962426713731925,2.5366193503714312e-06,0.02739019907818372,0.00025054991261351994,0.028838370625373706,6.197896488047017e-05
0.28,0.29,0.028880402942698825,2.498148273770857e-06,0.02688057164158503,0.0002553031581671072,0.028225444118867845,6.351212710775687e-05
0.29,0.3,0.02803426854539425,2.453260286099776e-06,0.02584070758171848,0.00027120625498983097,0.02747606994127084,5.625516591753015e-05
0.3,0.31,0.027259364577435552,2.4126023299229668e-06,0.02582384205857706,0.0002245027095239632,0.02691204677646048,6.0399040190884375e-05
0.31,0.32,0.02656618167297773,2.376790522042133e-06,0.024962068031346686,0.00020695891324865477,0.02622295627134888,6.274572207060533e-05
0.32,0.33,0.025925840059629637,2.3442474813096656e-06,0.024638108003613816,0.00016708604365818811,0.025543891719817385,5.257805234022191e-05
0.33,0.34,0.02535638884778284,2.315983253130061e-06,0.023960451460859192,0.0001815607204242167,0.02498639430825192,0.0002106761980446677
0.34,0.35000000000000003,0.02482893845231269,2.290431692556059e-06,0.02373642720560793,0.0001857218751359385,0.024628740365755672,6.659327256420988e-05
0.35000000000000003,0.36,0.024348657388542774,2.267954023691943e-06,0.02323416231452123,0.00015250843686135106,0.024146929903808057,5.159774359390266e-05
0.36,0.37,0.02389815621770643,2.247594243233532e-06,0.022843545696460098,0.00015744836801568978,0.023771984805622717,4.3957681066531676e-05
0.37,0.38,0.023497335112060428,2.2302606353817443e-06,0.02256644296896309,0.00015726250939506226,0.023349813803948957,4.4564139029725126e-05
0.38,0.39,0.023119457250585115,2.214755555225887e-06,0.02220844129197654,0.00012804979945148416,0.023006938475169617,4.139443006076105e-05
0.39,0.4,0.02275881128780808,2.2005651327105707e-06,0.02186648457512465,0.00012053513474245,0.022686870168640055,3.877902618877963e-05
0.4,0.41,0.022426863324091502,2.1882980562825804e-06,0.021428399604051518,0.00016010883708752466,0.02236614184690453,3.6282729735141294e-05
0.41,0.42,0.022107578963542856,2.1771259847434896e-06,0.021049725858657917,0.00012983343850166308,0.02206965674596624,3.793958554479323e-05
0.42,0.43,0.021795032653527037,2.166655154027621e-06,0.021029868085881996,0.00010832970116528806,0.021766886536700558,3.654376293254607e-05
0.43,0.44,0.02149485387187039,2.1571438159609007e-06,0.0204592587473499,0.00014043442217590376,0.02140889303667232,5.075183132805321e-05
0.44,0.45,0.02119053392246943,2.1477297108769813e-06,0.02003123880004546,0.0001488901995439661,0.02112271726210423,3.344610425812277e-05
0.45,0.46,0.020881904657052048,2.138249843993988e-06,0.020008538225066267,0.00011532889987279995,0.02087511850952124,3.901656372477852e-05
0.46,0.47,0.020563864877110784,2.1284169789847302e-06,0.019577905999701675,0.00011329584613472781,0.02042230153809302,3.932392746557994e-05
0.47,0.48,0.020232659953647848,2.117981652879604e-06,0.019558053542484927,0.00010949845100329432,0.0201139943897842,3.1762192597883366e-05
0.48,0.49,0.01987113650863425,2.1058982910358522e-06,0.019143531153920524,0.00010290840350850432,0.019798342944754226,4.2922601698955465e-05
0.49,0.5,0.019471474587457818,2.091578624257003e-06,0.01880453968855845,0.00011524999320418245,0.019295826164016323,3.550115343060937e-05
0.5,0.51,0.019029929954333485,2.074673834471369e-06,0.018146809552446026,0.00011937999914344124,0.018717954291085227,2.9859225928450878e-05
0.51,0.52,0.018514877001635302,2.0531899754149545e-06,0.017710042001426913,9.373816996176949e-05,0.018243505164330317,2.655573718219975e-05
0.52,0.53,0.017912942151369182,2.0259985599975534e-06,0.017242891808707562,9.495519165526786e-05,0.017666170891641287,2.591956110716634e-05
0.53,0.54,0.01718846598448533,1.9904173008290798e-06,0.016342111648130663,8.253361151024376e-05,0.016858343209047118,2.4653695198325267e-05
0.54,0.55,0.01629097936141731,1.9426351161671083e-06,0.015655983719639686,0.00010249197060790073,0.01590264605495274,2.3685811946677506e-05
0.55,0.56,0.015158666888207271,1.877372500236647e-06,0.014394128528017325,8.385846463177616e-05,0.01468430742571791,2.286477363703628e-05
0.56,0.5700000000000001,0.01369686131859904,1.7865811207996623e-06,0.012926393541885869,7.100744943453571e-05,0.013243283193576585,2.1673598547708468e-05
0.5700000000000001,0.58,0.011808967565242115,1.6622267192962703e-06,0.011133013874043243,7.364562189176002e-05,0.011393928503525443,1.986592863626909e-05
0.58,0.59,0.009612275890645698,1.5104901670739936e-06,0.008974928773959603,6.189637502182313e-05,0.009157767197695198,1.6978269134725278e-05
0.59,0.6,0.008555788700425896,1.4298071900254234e-06,0.00789551679520286,5.2281507017333957e-05,0.008094878394313347,1.6043179806020993e-05
0.6,0.61,0.007457199274828125,1.3337301254681284e-06,0.00695418686738006,5.261762538724765e-05,0.0070723479517053045,1.570898762390486e-05
0.61,0.62,0.005080001769610846,1.1022692113153544e-06,0.005039062276144071,5.102865292300904e-05,0.0050967094453226065,1.26937778976505e-05
0.62,0.63,0.001942414896283796,7.10543225841453e-07,0.002546269243287268,3.113473080431812e-05,0.002572790009053955,7.24476189293219e-06
0.63,0.64,0.0008497118594135618,4.770341638491179e-07,0.001485918412066656,1.3665859660158635e-05,0.0015223950929529116,4.4164857840880026e-06
0.64,0.65,0.0003436826426060892,3.071011132185197e-07,0.0009385614080692037,1.945012476396584e-05,0.0009457618856602834,3.0782642466411272e-06
0.65,0.66,9.530805704258787e-05,1.6413670723775252e-07,0.0005989248899795798,1.3395671760704774e-06,0.0006110277818956643,1.5010491309336425e-06
0.66,0.67,6.851170341713878e-06,4.4744319046158014e-08,0.0004220320657811065,3.466721122027028e-07,0.00042960514070353845,8.626043841573557e-07
0.67,0.68,0.0,0.0,0.0003255186651670008,2.769484894612783e-07,0.00033188169496636176,6.283898910611972e-07
0.68,0.6900000000000001,0.0,0.0,0.0002512441084430937,2.420171065286684e-07,0.00025551980851894055,5.483202920602572e-07
0.6900000000000001,0.7000000000000001,0.0,0.0,0.00018881221178348065,2.089523274482921e-07,0.0001912997303828759,4.7171104011812583e-07
0.7000000000000001,0.71,0.0,0.0,0.00013541772418496304,1.7630158631354967e-07,0.0001374324321258076,3.9887299526673373e-07
0.71,0.72,0.0,0.0,8.931344983182174e-05,1.427655362772704e-07,9.048008330249765e-05,3.2235306874767136e-07
0.72,0.73,0.0,0.0,5.1110848072791745e-05,1.0748844501489649e-07,5.2144009554302507e-05,2.439270766050625e-07
0.73,0.74,0.0,0.0,2.217406150441152e-05,7.057319744140406e-08,2.228805864215774e-05,1.5875848608959934e-07
0.74,0.75,0.0,0.0,4.590673738827771e-06,3.257049462692797e-08,4.815855727463967e-06,7.54339265287683e-08
0.75,0.76,0.0,0.0,9.294799087363005e-09,1.4987615913367581e-09,1.3293323001508143e-08,4.338428166811466e-09
0.76,0.77,0.0,0.0,0.0,0.0,0.0,0.0
0.77,0.78,0.0,0.0,0.0,0.0,0.0,0.0
0.78,0.79,0.0,0.0,0.0,0.0,0.0,0.0
0.79,0.8,0.0,0.0,0.0,0.0,0.0,0.0
0.8,0.81,0.0,0.0,0.0,0.0,0.0,0.0
0.81,0.8200000000000001,0.0,0.0,0.0,0.0,0.0,0.0
0.8200000000000001,0.8300000000000001,0.0,0.0,0.0,0.0,0.0,0.0
0.8300000000000001,0.84,0.0,0.0,0.0,0.0,0.0,0.0
0.84,0.85,0.0,0.0,0.0,0.0,0.0,0.0
0.85,0.86,0.0,0.0,0.0,0.0,0.0,0.0
0.86,0.87,0.0,0.0,0.0,0.0,0.0,0.0
0.87,0.88,0.0,0.0,0.0,0.0,0.0,0.0
0.88,0.89,0.0,0.0,0.0,0.0,0.0,0.0
0.89,0.9,0.0,0.0,0.0,0.0,0.0,0.0
0.9,0.91,0.0,0.0,0.0,0.0,0.0,0.0
0.91,0.92,0.0,0.0,0.0,0.0,0.0,0.0
0.92,0.93,0.0,0.0,0.0,0.0,0.0,0.0
0.93,0.94,0.0,0.0,0.0,0.0,0.0,0.0
0.94,0.95,0.0,0.0,0.0,0.0,0.0,0.0
0.95,0.96,0.0,0.0,0.0,0.0,0.0,0.0
0.96,0.97,0.0,0.0,0.0,0.0,0.0,0.0
0.97,0.98,0.0,0.0,0.0,0.0,0.0,0.0
0.98,0.99,0.0,0.0,0.0,0.0,0.0,0.0
0.99,1.0,0.0,0.0,0.0,0.0,0.0,0.0
