xl,xh,LO,dLO,LOISR,dLOISR,NLO,dNLO
0.0,10.0,0.0,0.0,0.0,0.0,0.0,0.0
10.0,20.0,0.0,0.0,0.0,0.0,0.0,0.0
20.0,30.0,0.0,0.0,0.0,0.0,0.0,0.0
30.0,40.0,0.0,0.0,0.0,0.0,0.0,0.0
40.0,50.0,0.0,0.0,0.0,0.0,0.0,0.0
50.0,60.0,0.0,0.0,0.0,0.0,0.0,0.0
60.0,70.0,0.0,0.0,0.0,0.0,0.0,0.0
70.0,80.0,0.0,0.0,0.0,0.0,0.0,0.0
80.0,90.0,0.0,0.0,0.0,0.0,0.0,0.0
90.0,100.0,0.0,0.0,0.0,0.0,0.0,0.0
100.0,110.0,0.0,0.0,0.0,0.0,0.0,0.0
110.0,120.0,0.0,0.0,0.0,0.0,0.0,0.0
120.0,130.0,0.0,0.0,0.0,0.0,0.0,0.0
130.0,140.0,0.14974549956747207,2.9482224994547334e-06,0.14188362985613298,2.607776570500903e-06,0.0775281166916519,5.9407545629931775e-06
140.0,150.0,0.0,0.0,0.0,0.0,0.038249017278003714,1.599276961572133e-06
150.0,160.0,0.0,0.0,0.0,0.0,0.011215717472401623,8.760753662922098e-07
160.0,170.0,0.0,0.0,0.0,0.0,0.00991237072058282,8.405879451837696e-07
170.0,180.0,0.0,0.0,0.0,0.0,0.009085991203383085,8.294870065901707e-07
180.0,190.0,0.0,0.0,0.0,0.0,0.007741942883494123,7.782731556481249e-07
190.0,200.0,0.0,0.0,0.0,0.0,0.006165205386775258,6.85925370840102e-07
200.0,210.0,0.0,0.0,0.0,0.0,0.0049967910391112815,6.081786052071986e-07
210.0,220.0,0.0,0.0,0.0,0.0,0.004098138277098904,5.42393770318103e-07
220.0,230.0,0.0,0.0,0.0,0.0,0.003374674844129569,4.849294013597841e-07
230.0,240.0,0.0,0.0,0.0,0.0,0.002765437143320253,4.3305154265272323e-07
240.0,250.0,0.0,0.0,0.0,0.0,0.002224489520287577,3.8391077939558283e-07
250.0,260.0,0.0,0.0,0.0,0.0,0.0017111808810688204,3.3444600453689717e-07
260.0,270.0,0.0,0.0,0.0,0.0,0.0012026002415024663,2.815496926499411e-07
270.0,280.0,0.0,0.0,0.0,0.0,0.0007615431307634866,2.2840017156765537e-07
280.0,290.0,0.0,0.0,0.0,0.0,0.0004169446012905001,1.7600285117446357e-07
290.0,300.0,0.0,0.0,0.0,0.0,0.00020584501153194087,1.3247917972666982e-07
300.0,310.0,0.0,0.0,0.0,0.0,0.00011900026396867962,1.052239783988282e-07
310.0,320.0,0.0,0.0,0.0,0.0,7.558036103181382e-05,8.524893786115741e-08
320.0,330.0,0.0,0.0,0.0,0.0,4.645893287541563e-05,6.740727693452106e-08
330.0,340.0,0.0,0.0,0.0,0.0,2.7079282127050786e-05,5.195102665284549e-08
340.0,350.0,0.0,0.0,0.0,0.0,1.445069137148612e-05,3.823926940438607e-08
350.0,360.0,0.0,0.0,0.0,0.0,6.797552450030127e-06,2.6510743882520103e-08
360.0,370.0,0.0,0.0,0.0,0.0,2.6140545611709633e-06,1.6646345620043857e-08
370.0,380.0,0.0,0.0,0.0,0.0,6.91125967661479e-07,8.687310194070126e-09
380.0,390.0,0.0,0.0,0.0,0.0,7.986582036757507e-08,3.005324665577789e-09
390.0,400.0,0.0,0.0,0.0,0.0,3.6007446766339575e-10,2.290003369830352e-10
400.0,410.0,0.0,0.0,0.0,0.0,0.0,0.0
410.0,420.0,0.0,0.0,0.0,0.0,0.0,0.0
420.0,430.0,0.0,0.0,0.0,0.0,0.0,0.0
430.0,440.0,0.0,0.0,0.0,0.0,0.0,0.0
440.0,450.0,0.0,0.0,0.0,0.0,0.0,0.0
450.0,460.0,0.0,0.0,0.0,0.0,0.0,0.0
460.0,470.0,0.0,0.0,0.0,0.0,0.0,0.0
470.0,480.0,0.0,0.0,0.0,0.0,0.0,0.0
480.0,490.0,0.0,0.0,0.0,0.0,0.0,0.0
490.0,500.0,0.0,0.0,0.0,0.0,0.0,0.0
