xl,xh,LO,dLO,LOISR,dLOISR,NLO,dNLO
316.0,326.1,4.543593417785279e-05,2.1355841105385604e-08,2.925465479777184e-05,1.3320378432728332e-08,4.962762946712002e-05,7.359266152736334e-08
326.1,336.2,5.276465224060517e-05,2.4963564693452365e-08,3.5774415086761804e-05,1.647133108917183e-08,5.749319397656566e-05,8.478513796024182e-08
336.2,346.3,5.897771671107998e-05,2.8116515731927162e-08,4.143206548034248e-05,1.933360278474503e-08,6.415958986925275e-05,9.404130988903797e-08
346.3,356.4,6.514323846973598e-05,3.108314574788935e-08,4.703746867087863e-05,2.2069811111082856e-08,7.089110851002503e-05,1.0213399408497588e-07
356.4,366.5,7.146925054942178e-05,3.3940320999736716e-08,5.270429967698034e-05,2.4715072319591946e-08,7.83212537634068e-05,1.1067607971279783e-07
366.5,376.6,7.79448650876384e-05,3.670940434366554e-08,5.849125956461682e-05,2.729398647971223e-08,8.576885392618102e-05,1.1798465568323051e-07
376.6,386.7,8.473114310107652e-05,3.9443927783862195e-08,6.451842034271049e-05,2.984504271709926e-08,9.395989730183456e-05,1.2530606451305698e-07
386.7,396.8,9.225756283267784e-05,4.226427515416561e-08,7.100650018078941e-05,3.242241739776888e-08,0.00010298205579849064,1.326551025768765e-07
396.8,406.9,0.00010024656105923679,4.510882638580709e-08,7.800825728421767e-05,3.5047076448338325e-08,0.00011270686259620642,1.3967478013672944e-07
406.9,417.0,0.00010900215839804344,4.805592484846595e-08,8.560924155708518e-05,3.7745476342916806e-08,0.0001238403333975163,1.4700259122809836e-07
417.0,427.1,0.00011840372212384375,5.110262347958783e-08,9.383826996300351e-05,4.053964150375161e-08,0.00013635953290432946,1.5511363509990915e-07
427.1,437.2,0.00012865445094234593,5.428699639513087e-08,0.00010283618166973107,4.346009006206626e-08,0.00015050481013154083,1.6312002533606867e-07
437.2,447.3,0.00014019458038836782,5.769842578135102e-08,0.00011298606293827898,4.656518992253527e-08,0.00016707106320408948,1.7230109455305454e-07
447.3,457.4,0.00015380025316122286,6.1458161000095e-08,0.00012477341650483445,4.991206640309622e-08,0.00018652371854148948,1.8214987876507426e-07
457.4,467.5,0.0001694509067831012,6.55396658814123e-08,0.00013835153831247374,5.351846947020574e-08,0.00021006591231163314,1.938287451468999e-07
467.5,477.6,0.0001876485987244328,7.002417331449191e-08,0.00015418555362961518,5.746640131862563e-08,0.00023747095423081442,2.0636153140050407e-07
477.6,487.7,0.00020834713818859281,7.487275746298808e-08,0.00017226674508293415,6.17289873919489e-08,0.000270195072998455,2.2027022029252273e-07
487.7,497.8,0.00023258636083460648,8.024362429162746e-08,0.00019350863328952727,6.64425008706442e-08,0.00030921079348578573,2.359692408034872e-07
497.8,507.9,0.0002605330318697034,8.612695042836777e-08,0.0002180851131046443,7.160920601770878e-08,0.00035509900531798054,2.520846037863401e-07
507.9,518.0,0.00029312108722983016,9.263616761261187e-08,0.0002468737243011792,7.731647434436048e-08,0.00041152053295024857,2.7174462543768677e-07
518.0,528.1,0.00033149577541923567,9.988060567465391e-08,0.0002808840389713026,8.367578773807221e-08,0.00047968597366900245,2.9300145662482145e-07
528.1,538.2,0.00037694193599625104,1.0799391329490046e-07,0.00032130175118767957,9.079886765300073e-08,0.0005602702410585434,3.1677552434214125e-07
538.2,548.3,0.0004308849168658001,1.1708782353369295e-07,0.0003695197079438457,9.879871042263568e-08,0.0006559968026160522,3.427455546963169e-07
548.3,558.4,0.0004951286066647108,1.2728748257413494e-07,0.00042716128197552584,1.0779134674141078e-07,0.0007677133649548653,3.717540968840032e-07
558.4,568.5,0.0005727212216182219,1.3886018951630365e-07,0.0004971876332117421,1.1802478558688064e-07,0.0008986591843848284,4.032952338530136e-07
568.5,578.5999999999998,0.0006665074261790953,1.519639595039268e-07,0.0005821736229554417,1.296522456583023e-07,0.0010538618720848628,4.392523405479626e-07
578.5999999999998,588.7,0.0007814224416619285,1.6692824067332575e-07,0.0006867511327020702,1.4299500176339442e-07,0.0012339635320934275,4.768487332610299e-07
588.7,598.8,0.0009239297062947339,1.8413571653842703e-07,0.000816724843479495,1.584074663448927e-07,0.0014535752766732018,5.218260209746066e-07
598.8,608.9,0.0011050854070599225,2.0425344389197407e-07,0.000982790747541682,1.7657532352647278e-07,0.0017175125388664658,5.720431287564622e-07
608.9,619.0,0.0013348429012079467,2.2756349499609227e-07,0.0011945363331655845,1.978805615604412e-07,0.002039619726281436,6.297846375232234e-07
619.0,629.0999999999998,0.0016200917571560002,2.539267300334221e-07,0.0014585800256273758,2.22389951997284e-07,0.0024249684815096178,6.938098238919883e-07
629.0999999999998,639.2,0.0019653934414044644,2.831202883485159e-07,0.001782389497472179,2.502270436996017e-07,0.002876836793280629,7.640330975856443e-07
639.2,649.3,0.0023508033207191013,3.147610480298273e-07,0.002147748421416805,2.800238482747871e-07,0.0033821440265082233,8.376271814564878e-07
649.3,659.4,0.0027901654999638093,3.4980625937768724e-07,0.00256861678681961,3.1263799358081594e-07,0.003959848564149222,9.178661224745924e-07
659.4,669.5,0.0033040268505889103,3.892333157125049e-07,0.0030637704959006755,3.4898478376681144e-07,0.004633816030688845,1.007161698835788e-06
669.5,679.5999999999998,0.003915802819858671,4.339461698922202e-07,0.003656172841337507,3.899397026061788e-07,0.005427142467405919,1.1051537341062756e-06
679.5999999999998,689.7,0.004659838034974321,4.848232690234213e-07,0.004379077068939957,4.364661028950494e-07,0.006368987920275385,1.21336393710291e-06
689.7,699.8,0.005560319720955475,5.421484005047665e-07,0.005256106868308658,4.887649604353928e-07,0.007490701227752991,1.3342462764673278e-06
699.8,709.9,0.00663417231178379,6.055200913426323e-07,0.00630469385180757,5.464137428952751e-07,0.008795132708888227,1.4635816157443469e-06
709.9,720.0,0.007883566962434255,6.735145936014503e-07,0.007526683047813081,6.080116901515121e-07,0.010278386335680092,1.5980543527139143e-06
720.0,730.0999999999997,0.009281407251982605,7.432169740874625e-07,0.008894709416840063,6.707769720426801e-07,0.011902432533874184,1.732687593290091e-06
730.0999999999997,740.2,0.01075358063773046,8.100224421687718e-07,0.010333539959962652,7.30360178287793e-07,0.013568652966082256,1.85615004946806e-06
740.2,750.3,0.012179585597765635,8.685477722719905e-07,0.011723070234642537,7.818222461864912e-07,0.01512982563340519,1.957581585982254e-06
750.3,760.4,0.0134217637142289,9.15073160629516e-07,0.012925828048779463,8.218030544254516e-07,0.01642735216091414,2.031820504227704e-06
760.4,770.5,0.0144396815740008,9.535513604002442e-07,0.01389884325136488,8.540301985878938e-07,0.017421743686909012,2.087141525421944e-06
770.5,780.5999999999997,0.015370052868271472,9.993423246313471e-07,0.014779910733193931,8.92527095773977e-07,0.018314919381711182,2.162325781522681e-06
780.5999999999997,790.7,0.012476381635898441,8.169735700081574e-07,0.011832788494630543,7.177577736562783e-07,0.01495144201280003,1.7620519033204948e-06
790.7,800.8,0.011874465748771636,7.86806333838233e-07,0.011171841495277387,6.870364009866131e-07,0.014174527270317348,1.691143637878517e-06
800.8,810.9,0.011624075921700509,7.936279860098205e-07,0.010853271603742623,6.896446981633429e-07,0.013770599397149336,1.7006588366895763e-06
810.9,821.0,0.011065143598942891,7.863717655946431e-07,0.010220018987537455,6.78765349703288e-07,0.013020249401813042,1.6824993966149314e-06
821.0,831.1,0.010445721823247002,7.772014056396337e-07,0.009515837654400294,6.657292916181097e-07,0.012217058943421377,1.6644618066238546e-06
831.1,841.1999999999997,0.009858797450119285,7.697226108144024e-07,0.00883448060262495,6.540140525414819e-07,0.011458972771727348,1.6532549927020738e-06
841.1999999999997,851.3,0.00935488477729265,7.65529530467558e-07,0.008222242979753224,6.45044662267684e-07,0.010802879371438171,1.6532969695240811e-06
851.3,861.4,0.008946587047448887,7.648114812717352e-07,0.0076930671978762515,6.391858222474312e-07,0.010248657123086485,1.6600943943630311e-06
861.4,871.5,0.008646108718756575,7.679890593919787e-07,0.00725229694025691,6.366763085739672e-07,0.009822408226463882,1.6796549151762432e-06
871.5,881.6,0.008449453601372055,7.748486443968121e-07,0.0068931399410897655,6.373765787777811e-07,0.00950081147525528,1.7070400536018896e-06
881.6,891.6999999999997,0.00836249976227977,7.85771132414846e-07,0.006617131346247685,6.416006387570591e-07,0.00929593311577397,1.7465031321901662e-06
891.6999999999997,901.8,0.008388236548330168,8.009280819698448e-07,0.0064199989217981705,6.494362403864362e-07,0.009203875555562895,1.796308756994428e-06
901.8,911.9,0.008535254079546245,8.207846764693861e-07,0.006299976659287917,6.611229037962574e-07,0.009226749824852791,1.8581949705669812e-06
911.9,922.0,0.008776436566060686,8.439327969621529e-07,0.006233699151152615,6.75660316464895e-07,0.009327115023124456,1.9290351286525237e-06
