# xl,xh,LO,dLO,CS+LOnovp,dCS+LOnovp,CS+LO,dCS+LO
0,5,0.003886276728,3.165847649e-06,0.004360169614,2.170526623e-06,0.004558879645,2.252921036e-06
5,10,0.003891144144,3.167828077e-06,0.004361210048,2.17078541e-06,0.004551516476,2.25110231e-06
10,15,0.003887064178,3.166168276e-06,0.004356668397,2.169655693e-06,0.004555119223,2.251992454e-06
15,20,0.00389320663,3.168667059e-06,0.004360398509,2.170583461e-06,0.004556091585,2.252232543e-06
20,25,0.003883755266,3.164821247e-06,0.004356286488,2.169560644e-06,0.004551687241,2.251144585e-06
25,30,0.003879102067,3.162926174e-06,0.004351708973,2.168421322e-06,0.004545666945,2.249656529e-06
30,35,0.00388229717,3.164227568e-06,0.00434914741,2.167783572e-06,0.00454468401,2.249413432e-06
35,40,0.00387305288,3.160460935e-06,0.004347096002,2.167272651e-06,0.004541221066,2.248556983e-06
40,45,0.003866982789,3.157985203e-06,0.004335895443,2.164480996e-06,0.004536140006,2.247299663e-06
45,50,0.003863957366,3.156750233e-06,0.00433461598,2.164161811e-06,0.004524122288,2.244323249e-06
50,55,0.003860729025,3.155432326e-06,0.004325801995,2.16196214e-06,0.004520335946,2.243384604e-06
55,60,0.003852839227,3.152208754e-06,0.00431940907,2.160365245e-06,0.004513800671,2.241763547e-06
60,65,0.003851417119,3.151627337e-06,0.004313295082,2.158836943e-06,0.004503384713,2.23917755e-06
65,70,0.003846438925,3.149591413e-06,0.004302306497,2.156087405e-06,0.004497291179,2.23766338e-06
70,75,0.003832556424,3.143906637e-06,0.004296354571,2.154596617e-06,0.004482117238,2.233888147e-06
75,80,0.003822271837,3.139688628e-06,0.004283761168,2.151438986e-06,0.00447452385,2.231996606e-06
80,85,0.003814015271,3.136298001e-06,0.004268368131,2.147573059e-06,0.004464983634,2.22961773e-06
85,90,0.003804979946,3.132583689e-06,0.004255770203,2.144403862e-06,0.004450627873,2.22603335e-06
90,95,0.004035172387,3.225879475e-06,0.004500785614,2.205220888e-06,0.004706426533,2.28905885e-06
95,100,0.003994637065,3.209647937e-06,0.004454999724,2.193984459e-06,0.004652131524,2.275827585e-06
100,105,0.003952641034,3.192744189e-06,0.004412215193,2.183432327e-06,0.004603180819,2.263832271e-06
105,110,0.003909406674,3.175247943e-06,0.004358490224,2.170108889e-06,0.004552226626,2.251277895e-06
110,115,0.003862339495,3.156089897e-06,0.004308476559,2.157631684e-06,0.00449847319,2.237957152e-06
115,120,0.00381094154,3.135034928e-06,0.004255404789,2.144311897e-06,0.00444694306,2.225112362e-06
120,125,0.003769702451,3.118038601e-06,0.004207006887,2.132092445e-06,0.004390047485,2.210843101e-06
125,130,0.003712179928,3.09417448e-06,0.00414493072,2.116315849e-06,0.00433358006,2.19658933e-06
130,135,0.003662056976,3.073228747e-06,0.004090413072,2.10236225e-06,0.004273855542,2.181411716e-06
135,140,0.003601932914,3.047913133e-06,0.004029037566,2.086541477e-06,0.004217836945,2.167078957e-06
140,145,0.003546158141,3.02423908e-06,0.003963235345,2.069444955e-06,0.004153086034,2.150392608e-06
145,150,0.00348565997,2.998348047e-06,0.003905192491,2.054245912e-06,0.004088494635,2.133617012e-06
150,155,0.003432171821,2.975269051e-06,0.003835814854,2.035929467e-06,0.004016554607,2.114775677e-06
155,160,0.003367683922,2.947202927e-06,0.00376917765,2.018179658e-06,0.003943035818,2.095345396e-06
160,165,0.003304832507,2.919588836e-06,0.003703117623,2.000427632e-06,0.003874897775,2.077174456e-06
165,170,0.003231672445,2.887111793e-06,0.003622158094,1.978454084e-06,0.003797434602,2.056321135e-06
170,175,0.003167587415,2.858359702e-06,0.003546423238,1.957674614e-06,0.003717742811,2.034644194e-06
175,180,0.003088728933,2.822576238e-06,0.003464832855,1.935038248e-06,0.003633714602,2.011534114e-06
180,185,0.003017004625,2.789630837e-06,0.003377991554,1.91064974e-06,0.003545239176,1.986909608e-06
185,190,0.002936112386,2.7519996e-06,0.003290033255,1.885625259e-06,0.003452595557,1.960792827e-06
190,195,0.002847948034,2.710389459e-06,0.003193957193,1.857905163e-06,0.00335030485,1.931545287e-06
195,200,0.002758748251,2.667628494e-06,0.003096606368,1.829387937e-06,0.003246004023,1.90125872e-06
200,205,0.002671533293,2.625144297e-06,0.002991042303,1.797952431e-06,0.003136499677,1.868931867e-06
205,210,0.002571893697,2.575748426e-06,0.002880727116,1.764502599e-06,0.003024396863,1.83524683e-06
210,215,0.002467629576,2.523022873e-06,0.002761426794,1.727597902e-06,0.002899857166,1.797082993e-06
215,220,0.002356730189,2.465702575e-06,0.00263592615,1.687902799e-06,0.002773330322,1.757459846e-06
220,225,0.002237298363,2.402440299e-06,0.002503890696,1.645105116e-06,0.002634705071,1.712994046e-06
225,230,0.002112870037,2.33470569e-06,0.002369151902,1.600249427e-06,0.002491190957,1.665707809e-06
230,235,0.001982043644,2.261297521e-06,0.002226963689,1.551505618e-06,0.002343548208,1.61561487e-06
235,240,0.001849217182,2.184240736e-06,0.002079595812,1.499311984e-06,0.002187626799,1.56096595e-06
240,245,0.001710841636,2.10095667e-06,0.001923688477,1.442035686e-06,0.002026621106,1.502447123e-06
245,250,0.001561812464,2.007394468e-06,0.001768189855,1.382544617e-06,0.00185800732,1.43860982e-06
250,255,0.001408581814,1.906406968e-06,0.001602871305,1.316347241e-06,0.001684103216,1.369652095e-06
255,260,0.001245879138,1.792954116e-06,0.001429032041,1.242936477e-06,0.00150581894,1.295146963e-06
260,265,0.001083465796,1.672035544e-06,0.001255183933,1.164899397e-06,0.001322774445,1.2138988e-06
265,270,0.0009399465491,1.557382567e-06,0.001095753512,1.088422206e-06,0.00115517816,1.134411066e-06
270,275,0.000811172145,1.446790202e-06,0.0009479316136,1.012360683e-06,0.0009980286867,1.054443737e-06
275,280,0.0006891928107,1.333596252e-06,0.000807378332,9.343095383e-07,0.0008470645383,9.71439769e-07
280,285,0.0005784275903,1.221752037e-06,0.0006749872117,8.542897483e-07,0.0007094400692,8.890387738e-07
285,290,0.000477500463,1.110068037e-06,0.0005506012799,7.715798503e-07,0.0005781177896,8.025572199e-07
290,295,0.0003830175953,9.942047747e-07,0.0004310133727,6.826723698e-07,0.0004553428003,7.122652036e-07
295,300,0.0002931056523,8.697256518e-07,0.0003203475746,5.885480571e-07,0.000338501161,6.141253193e-07
300,305,0.0002077127802,7.321588596e-07,0.0002181219258,4.856517017e-07,0.0002311372233,5.074764692e-07
305,310,0.0001297011489,5.785606096e-07,0.0001274796259,3.712779344e-07,0.0001348032521,3.875563549e-07
310,315,5.933910043e-05,3.913363009e-07,5.423851853e-05,2.421784945e-07,5.723303364e-05,2.5252881e-07
315,320,1.041377025e-05,1.639403204e-07,8.591345696e-06,9.638598434e-08,9.212547545e-06,1.013162574e-07
320,325,0,0,0,0,0,0
325,330,0,0,0,0,0,0
330,335,0,0,0,0,0,0
335,340,0,0,0,0,0,0
340,345,0,0,0,0,0,0
345,350,0,0,0,0,0,0
350,355,0,0,0,0,0,0
355,360,0,0,0,0,0,0
360,365,0,0,0,0,0,0
365,370,0,0,0,0,0,0
370,375,0,0,0,0,0,0
