# xl,xh,LO,dLO,CS+LOnovp,dCS+LOnovp,CS+LO,dCS+LO
215,225.1,0.0005856865485,8.649494556e-07,0.000470713575,5.019371061e-07,0.0004769418818,5.128735051e-07
225.1,235.2,0.000578392416,8.595477359e-07,0.000463395654,4.980207876e-07,0.0004704648717,5.093796621e-07
235.2,245.3,0.0005246159878,8.186229438e-07,0.0004209103229,4.746458324e-07,0.0004265439394,4.850240536e-07
245.3,255.4,0.0004837221466,7.860759837e-07,0.0003876876047,4.555315399e-07,0.0003943318716,4.663530232e-07
255.4,265.5,0.0004509132786,7.58954537e-07,0.0003614958469,4.398769694e-07,0.0003675641629,4.50248733e-07
265.5,275.6,0.0004255812748,7.373312054e-07,0.0003389935226,4.259680624e-07,0.0003444066754,4.358363687e-07
275.6,285.7,0.0003993253992,7.142281142e-07,0.0003198809039,4.13787174e-07,0.0003256950862,4.238329241e-07
285.7,295.8,0.0003805720974,6.972580674e-07,0.0003050968157,4.041130043e-07,0.0003102634155,4.136714728e-07
295.8,305.9,0.000365622261,6.834277692e-07,0.0002928288411,3.959058357e-07,0.0002962841185,4.042458453e-07
305.9,316,0.0003512511371,6.698634969e-07,0.0002812401541,3.879935941e-07,0.0002859674552,3.971462572e-07
316,326.1,0.0003395083069,6.585726163e-07,0.0002727815266,3.821149661e-07,0.0002777149161,3.913744077e-07
326.1,336.2,0.0003299642226,6.492510671e-07,0.0002645782221,3.763260296e-07,0.0002693862127,3.854616032e-07
336.2,346.3,0.0003237011592,6.430605813e-07,0.000258157012,3.717317635e-07,0.0002632754675,3.810649915e-07
346.3,356.4,0.0003167098637,6.36079136e-07,0.0002541634925,3.688455971e-07,0.0002582895645,3.774398162e-07
356.4,366.5,0.0003121792632,6.315136256e-07,0.0002501587568,3.659284747e-07,0.0002549341471,3.749803746e-07
366.5,376.6,0.0003082288104,6.275057014e-07,0.0002462364152,3.630486093e-07,0.0002521258944,3.729094991e-07
376.6,386.7,0.0003049222188,6.241311414e-07,0.0002439671864,3.613720268e-07,0.0002489745891,3.705719051e-07
386.7,396.8,0.0003005104802,6.196001259e-07,0.0002402745211,3.586269875e-07,0.0002471035993,3.691770553e-07
396.8,406.9,0.0002994104659,6.184652468e-07,0.0002384126743,3.572349406e-07,0.0002444889329,3.672188071e-07
406.9,417,0.0002997758384,6.188424028e-07,0.0002385245719,3.573187681e-07,0.0002429819674,3.660854508e-07
417,427.1,0.0003001668675,6.192459048e-07,0.0002393093458,3.579060378e-07,0.0002447052255,3.673812384e-07
427.1,437.2,0.0003041211284,6.233108389e-07,0.0002428702971,3.605588008e-07,0.0002481808113,3.699807432e-07
437.2,447.3,0.0003087896445,6.280762056e-07,0.000247420602,3.639204963e-07,0.0002523564869,3.730799928e-07
447.3,457.4,0.0003175595247,6.369317142e-07,0.0002536335392,3.684609074e-07,0.0002591053798,3.780353618e-07
457.4,467.5,0.000325946029,6.452862941e-07,0.0002599995747,3.730558599e-07,0.000265932001,3.829825237e-07
467.5,477.6,0.000336316724,6.554702108e-07,0.0002681964674,3.788902629e-07,0.0002748840277,3.893747165e-07
477.6,487.7,0.0003503938265,6.690456252e-07,0.0002792128759,3.865928015e-07,0.0002864429412,3.974762639e-07
487.7,497.8,0.0003639075768,6.818234805e-07,0.0002899573521,3.939601149e-07,0.0002977800214,4.05264911e-07
497.8,507.9,0.0003823850156,6.989165427e-07,0.0003040968224,4.034502593e-07,0.0003113379377,4.143870973e-07
507.9,518,0.000401010687,7.157334985e-07,0.000320260964,4.140328771e-07,0.0003285673307,4.256974849e-07
518,528.1,0.0004238129535,7.357979777e-07,0.0003383131281,4.255404186e-07,0.0003467741258,4.37331565e-07
528.1,538.2,0.0004493749389,7.576589842e-07,0.0003593239849,4.385537292e-07,0.000368339723,4.507234339e-07
538.2,548.3,0.0004798841158,7.829518604e-07,0.0003816609257,4.519775008e-07,0.0003929032546,4.655076263e-07
548.3,558.4,0.0005154385293,8.114323556e-07,0.0004100962103,4.68509703e-07,0.000421808948,4.823248482e-07
558.4,568.5,0.0005559670495,8.427234691e-07,0.0004418837269,4.863256964e-07,0.0004548285927,5.00844728e-07
568.5,578.6,0.0006039236904,8.783095482e-07,0.0004815281589,5.076693265e-07,0.0004948072243,5.223891718e-07
578.6,588.7,0.0006653060441,9.218542294e-07,0.000530239359,5.327239411e-07,0.0005457915723,5.486377456e-07
588.7,598.8,0.0007365903286,9.699708453e-07,0.0005864943822,5.602653119e-07,0.0006047542396,5.775069337e-07
598.8,608.9,0.0008190499485,1.022807757e-06,0.0006518407553,5.906461827e-07,0.0006719573936,6.087422913e-07
608.9,619,0.0009009244718,1.072694935e-06,0.0007148895803,6.185448112e-07,0.000738051733,6.379709876e-07
619,629.1,0.0009599840371,1.107284375e-06,0.0007647013824,6.397255302e-07,0.0007908227287,6.603787237e-07
629.1,639.2,0.001017576826,1.140003037e-06,0.0008078291419,6.575126151e-07,0.0008358039638,6.788944927e-07
639.2,649.3,0.001063901955,1.165653233e-06,0.0008438269805,6.719983419e-07,0.0008721921788,6.935110246e-07
649.3,659.4,0.001105087085,1.187991719e-06,0.0008779817344,6.854591146e-07,0.0009061097531,7.068627011e-07
659.4,669.5,0.001151427602,1.212633747e-06,0.000910914784,6.981923411e-07,0.0009434209018,7.212645062e-07
669.5,679.6,0.001202140252,1.23903827e-06,0.0009504629035,7.13182502e-07,0.0009851487475,7.370374108e-07
679.6,689.7,0.00125575707,1.266355232e-06,0.0009941918185,7.293982636e-07,0.00102810055,7.529274471e-07
689.7,699.8,0.001313269325,1.295015222e-06,0.001037841564,7.452323887e-07,0.001075333321,7.700222183e-07
699.8,709.9,0.001374878989,1.325028147e-06,0.001087123964,7.627142095e-07,0.001125817361,7.878831685e-07
709.9,720,0.001443587432,1.357715399e-06,0.001139032105,7.807036042e-07,0.001181918864,8.072673393e-07
720,730.1,0.00151917327,1.392786609e-06,0.001196933784,8.002924114e-07,0.001244239761,8.282678827e-07
730.1,740.2,0.001596325594,1.427694478e-06,0.00126021385,8.211656448e-07,0.001311369068,8.503077223e-07
740.2,750.3,0.001684087674,1.466390521e-06,0.001327852909,8.429043126e-07,0.001386802044,8.744099704e-07
750.3,760.4,0.001780970943,1.507952678e-06,0.001403534893,8.665805581e-07,0.001465953488,8.990045708e-07
760.4,770.5,0.001888862493,1.552925265e-06,0.001483899206,8.910317724e-07,0.0015529659,9.252862396e-07
770.5,780.6,0.002003396215,1.599279286e-06,0.001573178808,9.174300903e-07,0.001645962014,9.525722326e-07
780.6,790.7,0.002127313269,1.647958861e-06,0.001672436932,9.459125535e-07,0.001795513735,9.948805289e-07
790.7,800.8,0.002266377149,1.700925357e-06,0.001778890866,9.755339126e-07,0.001912249942,1.026691484e-06
800.8,810.9,0.002424493145,1.759205465e-06,0.0018999937,1.008171047e-06,0.002037236891,1.059689942e-06
810.9,821,0.002596407468,1.820447926e-06,0.002035026485,1.043356026e-06,0.002178096425,1.095685244e-06
821,831.1,0.002788882402,1.886648709e-06,0.002185297029,1.081162219e-06,0.002339349889,1.135487881e-06
831.1,841.2,0.003007785159,1.959211067e-06,0.002353561607,1.121980054e-06,0.002518635221,1.178158733e-06
841.2,851.3,0.003253428126,2.037549224e-06,0.002542298259,1.16605943e-06,0.002722284445,1.224820142e-06
851.3,861.4,0.003531798295,2.122816363e-06,0.002759464551,1.214794178e-06,0.002953237005,1.275666125e-06
861.4,871.5,0.00384871621,2.215879725e-06,0.003006636214,1.267976538e-06,0.003215437996,1.331030017e-06
871.5,881.6,0.004214306481,2.31857445e-06,0.003290926702,1.326500538e-06,0.003520065174,1.39257884e-06
881.6,891.7,0.004644436327,2.433822483e-06,0.003624301953,1.391983802e-06,0.00387281104,1.460597519e-06
891.7,901.8,0.005144514984,2.561257291e-06,0.004014222349,1.464845779e-06,0.004291785189,1.537461564e-06
901.8,911.9,0.005743209348,2.705881283e-06,0.004475911969,1.546662239e-06,0.004785149938,1.623286699e-06
911.9,922,0.006453524436,2.867946596e-06,0.005037603717,1.64067412e-06,0.005380901598,1.721191926e-06
922,932.1,0.007337111442,3.057468103e-06,0.005718693624,1.747853047e-06,0.006112830042,1.834284927e-06
932.1,942.2,0.008439068473,3.278349909e-06,0.006582631458,1.874942527e-06,0.007027555925,1.966426026e-06
942.2,952.3,0.009866576137,3.543830154e-06,0.007696240424,2.026933154e-06,0.008218952177,2.126141919e-06
952.3,962.4,0.0117617031,3.867831332e-06,0.009180229156,2.213142879e-06,0.009794547942,2.320359227e-06
962.4,972.5,0.01439356435,4.276594101e-06,0.01126115463,2.450244314e-06,0.01200786578,2.568182474e-06
972.5,982.6,0.01831924871,4.82104581e-06,0.01438142078,2.767397457e-06,0.01532620029,2.899712745e-06
982.6,992.7,0.02477546911,5.599644619e-06,0.01947807649,3.217652534e-06,0.02071012451,3.367552251e-06
992.7,1002.8,0.02424185545,5.539581527e-06,0.01797107144,3.091525153e-06,0.01916539875,3.240417673e-06
1002.8,1012.9,0,0,0,0,0,0
1012.9,1023,0,0,0,0,0,0
