# xl,xh,LO,dLO,CS+LOnovp,dCS+LOnovp,CS+LO,dCS+LO
0,10,0,0,0,0,0,0
10,20,0,0,0,0,0,0
20,30,0,0,0,0,0,0
30,40,0,0,0,0,0,0
40,50,0,0,0,0,0,0
50,60,0,0,0,0,0,0
60,70,0,0,0,0,0,0
70,80,0,0,0,0,0,0
80,90,0,0,0,0,0,0
90,100,0,0,0,0,0,0
100,110,0.08791336617,1.047321948e-05,0.06546948063,5.879138624e-06,0.06934904747,6.140088127e-06
110,120,0,0,0.005896251731,1.783593017e-06,0.005851439115,1.803691078e-06
120,130,0,0,0.003751453143,1.423230787e-06,0.003815626767,1.457029368e-06
130,140,0,0,0.003441719059,1.363287642e-06,0.003535830137,1.402659637e-06
140,150,0,0,0.003178896734,1.310263231e-06,0.003272491183,1.349478029e-06
150,160,0,0,0.002958907865,1.26416356e-06,0.003048179815,1.302458468e-06
160,170,0,0,0.002611558277,1.187721339e-06,0.002694745703,1.224698846e-06
170,180,0,0,0.002196099062,1.089238883e-06,0.002266999345,1.123384831e-06
180,190,0,0,0.001838488605,9.966796669e-07,0.001899492185,1.028370182e-06
190,200,0,0,0.001508288738,9.028033813e-07,0.001558597132,9.315871946e-07
200,210,0,0,0.001207959581,8.079799583e-07,0.00124723346,8.334011086e-07
210,220,0,0,0.0009687636978,7.236057323e-07,0.0009987072973,7.457927213e-07
220,230,0,0,0.0007761726006,6.477199689e-07,0.0007990151046,6.67101115e-07
230,240,0,0,0.0006201619851,5.789924358e-07,0.0006375652822,5.959210397e-07
240,250,0,0,0.0004934068877,5.164554218e-07,0.0005075121568,5.316912355e-07
250,260,0,0,0.0003902365332,4.593061097e-07,0.0003999432233,4.720017353e-07
260,270,0,0,0.0003064257803,4.070122651e-07,0.0003136619143,4.180053778e-07
270,280,0,0,0.0002366119577,3.576585524e-07,0.0002416311746,3.66887497e-07
280,290,0,0,0.0001788444638,3.10951422e-07,0.0001827752681,3.190947328e-07
290,300,0,0,0.0001309654136,2.660951044e-07,0.0001338667047,2.730869108e-07
300,310,0,0,9.219614558e-05,2.232635785e-07,9.35355955e-05,2.282738158e-07
310,320,0,0,6.185826541e-05,1.828785589e-07,6.312739242e-05,1.875335285e-07
320,330,0,0,4.251827402e-05,1.516188834e-07,4.309552864e-05,1.549485573e-07
330,340,0,0,3.191991874e-05,1.313702798e-07,3.201329036e-05,1.335480342e-07
340,350,0,0,2.658994149e-05,1.199017274e-07,2.677858585e-05,1.221424418e-07
350,360,0,0,2.300039113e-05,1.11515353e-07,2.304196281e-05,1.133007252e-07
360,370,0,0,1.988662303e-05,1.036925847e-07,1.970927134e-05,1.047872765e-07
370,380,0,0,1.70150912e-05,9.591456452e-08,1.732423297e-05,9.824272964e-08
380,390,0,0,1.45890729e-05,8.88139969e-08,1.468905382e-05,9.046291224e-08
390,400,0,0,1.228579135e-05,8.150219845e-08,1.235471658e-05,8.296410308e-08
400,410,0,0,1.007389597e-05,7.380179377e-08,1.025993917e-05,7.560427194e-08
410,420,0,0,8.082569969e-06,6.610628512e-08,8.226452123e-06,6.769872622e-08
420,430,0,0,6.249140871e-06,5.8127074e-08,6.21969857e-06,5.886524201e-08
430,440,0,0,4.500591506e-06,4.932909959e-08,4.604604138e-06,5.06489562e-08
440,450,0,0,2.938036595e-06,3.985631422e-08,2.968338758e-06,4.066596749e-08
450,460,0,0,1.521465039e-06,2.868136338e-08,1.537652663e-06,2.92687089e-08
460,470,0,0,4.141584547e-07,1.496415147e-08,4.044693168e-07,1.501126244e-08
470,480,0,0,1.730173161e-08,3.058542773e-09,1.83848024e-08,3.200383147e-09
480,490,0,0,0,0,0,0
490,500,0,0,0,0,0,0
