# xl,xh,LO,dLO,CS+LOnovp,dCS+LOnovp,CS+LO,dCS+LO
0,0.25,0,0,0,0,0,0
0.25,0.5,0,0,0,0,0,0
0.5,0.75,0,0,0,0,0,0
0.75,1,0,0,0,0,0,0
1,1.25,0,0,0,0,0,0
1.25,1.5,0,0,0,0,0,0
1.5,1.75,0,0,0,0,0,0
1.75,2,0,0,0,0,0,0
2,2.25,0,0,0,0,0,0
2.25,2.5,0,0,0,0,0,0
2.5,2.75,0,0,6.928447855e-08,1.511911202e-08,1.082240061e-07,6.248315595e-08
2.75,3,0,0,1.415371383e-06,6.833476816e-08,6.818010877e-06,4.959372849e-07
3,3.25,0,0,5.430554223e-06,1.338533213e-07,3.997001123e-05,1.200782414e-06
3.25,3.5,0,0,1.274822657e-05,2.050836472e-07,0.0001117212923,2.007544553e-06
3.5,3.75,0,0,2.293959454e-05,2.751055218e-07,0.0002595164353,3.059703356e-06
3.75,4,0,0,4.01186793e-05,3.638139159e-07,0.0005227488329,4.342534236e-06
4,4.25,0,0,6.485966179e-05,4.62586672e-07,0.0009410270472,5.82635873e-06
4.25,4.5,0,0,9.846237941e-05,5.699549496e-07,0.001546024641,7.467988977e-06
4.5,4.75,0,0,0.000132051816,6.600502473e-07,0.002280708283,9.070462981e-06
4.75,5,0,0,0.0001596928829,7.258507895e-07,0.00308580811,1.055062195e-05
5,5.25,0,0,0.0001820683227,7.750353596e-07,0.003913780148,1.188203673e-05
5.25,5.5,0,0,0.0002006924323,8.137097141e-07,0.004685150282,1.300030309e-05
5.5,5.75,0,0,0.0002169247135,8.459766111e-07,0.005372648314,1.39214693e-05
5.75,6,0,0,0.0002317745544,8.744530819e-07,0.005916140964,1.460863136e-05
6,6.25,0,0,0.0002432063441,8.957583911e-07,0.006352203113,1.513742195e-05
6.25,6.5,0,0,0.0002535725834,9.146490561e-07,0.006638558373,1.547484348e-05
6.5,6.75,0,0,0.0002610354523,9.280107272e-07,0.00681369852,1.567763866e-05
6.75,7,0,0,0.0002686367596,9.414250844e-07,0.006921993204,1.580173091e-05
7,7.25,0,0,0.0002771325039,9.561958174e-07,0.006988549942,1.587751541e-05
7.25,7.5,0,0,0.0002785544487,9.586456783e-07,0.00702599423,1.591999169e-05
7.5,7.75,0,0,0.0002846350006,9.690522345e-07,0.007074008116,1.597429283e-05
7.75,8,0,0,0.000286135956,9.716035392e-07,0.007050019595,1.594718668e-05
8,8.25,0,0,0.0002923353536,9.820725275e-07,0.006981623497,1.586964525e-05
8.25,8.5,0,0,0.0002937935154,9.845185515e-07,0.006967770571,1.585389309e-05
8.5,8.75,0,0,0.0002963471465,9.887879354e-07,0.006903739776,1.57808833e-05
8.75,9,0,0,0.0002980165082,9.915688741e-07,0.006825387316,1.56910807e-05
9,9.25,0,0,0.0002984289365,9.922547863e-07,0.006738339934,1.559070457e-05
9.25,9.5,0,0,0.0002981649726,9.91815826e-07,0.006716117716,1.556497551e-05
9.5,9.75,0,0,0.0002997914741,9.945172629e-07,0.006602810279,1.543312481e-05
9.75,10,0,0,0.000301955941,9.981011766e-07,0.006533980983,1.535247774e-05
10,10.25,0,0,0.0003022032786,9.98509698e-07,0.006457971954,1.526292163e-05
10.25,10.5,0,0,0.0003028796472,9.996264973e-07,0.006359742774,1.514640274e-05
10.5,10.75,0,0,0.000301170694,9.968025196e-07,0.006325436725,1.510549769e-05
10.75,11,0,0,0.0003009957564,9.965128486e-07,0.006248815663,1.501373461e-05
11,11.25,0,0,0.0003006987881,9.960210817e-07,0.00614145984,1.488421145e-05
11.25,11.5,0,0,0.0002996331086,9.942545479e-07,0.006102030951,1.483635697e-05
11.5,11.75,0,0,0.0002981385598,9.917718633e-07,0.006025553957,1.474309451e-05
11.75,12,0,0,0.0002982277453,9.919203672e-07,0.005932952159,1.462937256e-05
12,12.25,0,0,0.0002977294684,9.910912315e-07,0.005840782228,1.451529499e-05
12.25,12.5,0,0,0.0002961755699,9.885016306e-07,0.005747530227,1.439895847e-05
12.5,12.75,0,0,0.0002923188332,9.820447337e-07,0.005714919759,1.435805358e-05
12.75,13,0,0,0.0002913357032,9.803920286e-07,0.005616870351,1.423435563e-05
13,13.25,0,0,0.0002894319291,9.771833845e-07,0.005561676481,1.416424773e-05
13.25,13.5,0,0,0.0002884058322,9.754496572e-07,0.005494362764,1.407827404e-05
13.5,13.75,0,0,0.000286235097,9.717721161e-07,0.005416695889,1.397842015e-05
13.75,14,0,0,0.0002839321405,9.678548538e-07,0.005347867074,1.388932893e-05
14,14.25,0,0,0.0002838595178,9.677310046e-07,0.005270703751,1.378876339e-05
14.25,14.5,0,0,0.0002806824423,9.623003717e-07,0.00523369257,1.374026769e-05
14.5,14.75,0,0,0.000276119542,9.544465596e-07,0.005168831433,1.365486304e-05
14.75,15,0,0,0.0002734471674,9.498166895e-07,0.005110788262,1.357798037e-05
15,15.25,0,0,0.0002707614438,9.451405757e-07,0.005035141254,1.347712205e-05
15.25,15.5,0,0,0.0002702370342,9.442251698e-07,0.005008951162,1.344202652e-05
15.5,15.75,0,0,0.0002656905734,9.362485973e-07,0.004934313976,1.334150508e-05
15.75,16,0,0,0.0002647041713,9.345091706e-07,0.004862274829,1.324376012e-05
16,16.25,0,0,0.0002609694887,9.278935009e-07,0.004795249229,1.31521642e-05
16.25,16.5,0,0,0.0002572776279,9.213068691e-07,0.004754736783,1.309648826e-05
16.5,16.75,0,0,0.0002545128032,9.163430601e-07,0.004658274864,1.296296328e-05
16.75,17,0,0,0.0002522429452,9.122478191e-07,0.004632590308,1.292717774e-05
17,17.25,0,0,0.0002482343018,9.04970036e-07,0.004594099271,1.287336262e-05
17.25,17.5,0,0,0.0002464429806,9.016992268e-07,0.004542008715,1.280017408e-05
17.5,17.75,0,0,0.0002433878093,8.960925123e-07,0.004477183183,1.270850256e-05
17.75,18,0,0,0.000240636279,8.91013033e-07,0.004428195599,1.263878852e-05
18,18.25,0,0,0.0002409166834,8.915319424e-07,0.004373290943,1.256019269e-05
18.25,18.5,0,0,0.0002371127292,8.844657386e-07,0.004346776131,1.252205959e-05
18.5,18.75,0,0,0.0002333944991,8.775036671e-07,0.004300024247,1.245453855e-05
18.75,19,0,0,0.0002321803666,8.752182826e-07,0.004262507169,1.240008863e-05
19,19.25,0,0,0.0002317613212,8.744280493e-07,0.004233828356,1.235830438e-05
19.25,19.5,0,0,0.0002278913549,8.670968518e-07,0.004190539547,1.22949648e-05
19.5,19.75,0,0,0.0002261559207,8.637889596e-07,0.004137366866,1.221671436e-05
19.75,20,0,0,0.0002241037012,8.598607379e-07,0.004114495371,1.218290022e-05
20,20.25,0,0,0.0002225432353,8.56862018e-07,0.004058833013,1.210021399e-05
20.25,20.5,0,0,0.0002208111887,8.535211892e-07,0.004046207689,1.208138133e-05
20.5,20.75,0,0,0.0002181355067,8.48334209e-07,0.00401850265,1.203994933e-05
20.75,21,0,0,0.0002163010758,8.447595458e-07,0.003940690438,1.192281357e-05
21,21.25,0,0,0.0002165155451,8.451782742e-07,0.003936290032,1.191615592e-05
21.25,21.5,0,0,0.0002135264046,8.39323879e-07,0.003913707476,1.188192556e-05
21.5,21.75,0,0,0.0002103921781,8.33141309e-07,0.003869444869,1.18145462e-05
21.75,22,0,0,0.0002111147554,8.345708388e-07,0.003848593596,1.178267063e-05
22,22.25,0,0,0.0002100589389,8.32481217e-07,0.003827057787,1.174965915e-05
22.25,22.5,0,0,0.0002080299734,8.284511552e-07,0.003782903095,1.168168291e-05
22.5,22.75,0,0,0.0002059910695,8.243814237e-07,0.003751230479,1.163267896e-05
22.75,23,0,0,0.0002039884108,8.203642999e-07,0.003738857238,1.161347875e-05
23,23.25,0,0,0.0002043446754,8.210802563e-07,0.003703828609,1.155894855e-05
23.25,23.5,0,0,0.0002012467062,8.148325835e-07,0.003669955761,1.150597383e-05
23.5,23.75,0,0,0.0002007419282,8.138100589e-07,0.00367897372,1.152010046e-05
23.75,24,0,0,0.0001986567608,8.095723247e-07,0.003652206912,1.147811703e-05
24,24.25,0,0,0.0002004020844,8.131208672e-07,0.003625475848,1.143603533e-05
24.25,24.5,0,0,0.0001976208581,8.074589358e-07,0.003609639523,1.141103211e-05
24.5,24.75,0,0,0.0001958755434,8.038854429e-07,0.003583016521,1.136887329e-05
24.75,25,0,0,0.0001958458761,8.038246095e-07,0.003561697204,1.133500118e-05
25,25.25,0,0,0.0001951892847,8.024759576e-07,0.003540881862,1.130183018e-05
25.25,25.5,0,0,0.000191645969,7.95159045e-07,0.003519995768,1.126845053e-05
25.5,25.75,0,0,0.0001924047494,7.967315144e-07,0.003496582779,1.123091155e-05
25.75,26,0,0,0.0001920451195,7.959865459e-07,0.003468120977,1.118511086e-05
26,26.25,0,0,0.0001905043652,7.927870764e-07,0.003473207566,1.119331033e-05
26.25,26.5,0,0,0.0001898874732,7.915025831e-07,0.003432047215,1.11267891e-05
26.5,26.75,0,0,0.000189135206,7.89933128e-07,0.00343493299,1.113146581e-05
26.75,27,0,0,0.0001895541769,7.908074964e-07,0.003410294424,1.109147199e-05
27,27.25,0,0,0.0001868224467,7.850886552e-07,0.003397091509,1.106998153e-05
27.25,27.5,0,0,0.0001871623483,7.858026854e-07,0.003381363053,1.10443252e-05
27.5,27.75,0,0,0.0001861395739,7.836526729e-07,0.003395648498,1.106763014e-05
27.75,28,0,0,0.0001849385777,7.811203457e-07,0.003367655165,1.10219166e-05
28,28.25,0,0,0.0001832526231,7.775516715e-07,0.00334352197,1.09823544e-05
28.25,28.5,0,0,0.0001828997174,7.768028528e-07,0.003334503245,1.096753263e-05
28.5,28.75,0,0,0.0001822595992,7.75442194e-07,0.003313147507,1.093235634e-05
28.75,29,0,0,0.0001820287047,7.749509761e-07,0.003328767423,1.09580957e-05
29,29.25,0,0,0.000182520314,7.759967715e-07,0.003282122992,1.088104983e-05
29.25,29.5,0,0,0.0001801085428,7.708528071e-07,0.00328861638,1.089180806e-05
29.5,29.75,0,0,0.0001786172098,7.676546456e-07,0.00325712394,1.083953271e-05
29.75,30,0,0,0.0001797885557,7.701678358e-07,0.003273033242,1.086597378e-05
30,30.25,0,0,0.0001784787107,7.673571213e-07,0.003252578735,1.083196739e-05
30.25,30.5,0,0,0.0001795442763,7.696441596e-07,0.003251892898,1.083082457e-05
30.5,30.75,0,0,0.0001779871268,7.662996405e-07,0.003240133827,1.081122637e-05
30.75,31,0,0,0.0001781256858,7.665978313e-07,0.003228048669,1.07910454e-05
31,31.25,0,0,0.0001783796964,7.671441541e-07,0.003224296296,1.078477057e-05
31.25,31.5,0,0,0.0001764265701,7.629328526e-07,0.003214376039,1.076816743e-05
31.5,31.75,0,0,0.0001754863399,7.608973191e-07,0.003186851638,1.072196587e-05
31.75,32,0,0,0.0001753180269,7.605322244e-07,0.003206728796,1.075535168e-05
32,32.25,0,0,0.0001759811627,7.619691767e-07,0.003186383059,1.072117825e-05
32.25,32.5,0,0,0.0001751728391,7.602172065e-07,0.003197204865,1.073936778e-05
32.5,32.75,0,0,0.0001769280876,7.640165149e-07,0.003186707011,1.072172197e-05
32.75,33,0,0,0.0001733053978,7.561540544e-07,0.003172603292,1.069797207e-05
33,33.25,0,0,0.0001749847908,7.59809072e-07,0.003152401125,1.066385639e-05
33.25,33.5,0,0,0.000175097015,7.600527796e-07,0.003153122868,1.066507746e-05
33.5,33.75,0,0,0.0001758953641,7.617833746e-07,0.003141759729,1.064584348e-05
33.75,34,0,0,0.0001754203509,7.607542363e-07,0.003156549084,1.067086875e-05
34,34.25,0,0,0.0001751167514,7.600954884e-07,0.003161744209,1.0679647e-05
34.25,34.5,0,0,0.0001745361308,7.588344555e-07,0.003151463312,1.066227023e-05
34.5,34.75,0,0,0.0001748429404,7.595010796e-07,0.003145114215,1.065152451e-05
34.75,35,0,0,0.0001745987975,7.589706346e-07,0.003154060272,1.066666183e-05
35,35.25,0,0,0.0001743479605,7.584250487e-07,0.003158028607,1.067337012e-05
35.25,35.5,0,0,0.0001743414473,7.584110697e-07,0.00316477521,1.068476598e-05
35.5,35.75,0,0,0.0001757864982,7.615476134e-07,0.003153736627,1.066611625e-05
35.75,36,0,0,0.0001724378096,7.542592351e-07,0.003138260026,1.063991169e-05
36,36.25,0,0,0.0001740741888,7.578295003e-07,0.003149587409,1.065909645e-05
36.25,36.5,0,0,0.000172741277,7.549224978e-07,0.003145583431,1.065231943e-05
36.5,36.75,0,0,0.0001741765149,7.580523094e-07,0.003162501785,1.068092639e-05
36.75,37,0,0,0.000175713917,7.613903819e-07,0.003152689714,1.066434442e-05
37,37.25,0,0,0.0001750375033,7.599233412e-07,0.003166326519,1.06873846e-05
37.25,37.5,0,0,0.00017429202,7.583036859e-07,0.003167047423,1.068860018e-05
37.5,37.75,0,0,0.0001754136846,7.607396332e-07,0.003167984878,1.069018122e-05
37.75,38,0,0,0.0001764330821,7.629467418e-07,0.003171916491,1.06968117e-05
38,38.25,0,0,0.0001758524883,7.616905511e-07,0.003185552738,1.071978027e-05
38.25,38.5,0,0,0.0001761923367,7.624262581e-07,0.00317970884,1.070994331e-05
38.5,38.75,0,0,0.0001769346365,7.640305506e-07,0.003175092137,1.070216694e-05
38.75,39,0,0,0.0001784984219,7.673993036e-07,0.003193814031,1.073367169e-05
39,39.25,0,0,0.0001766872435,7.634963337e-07,0.003208748723,1.075873806e-05
39.25,39.5,0,0,0.0001762649638,7.625834803e-07,0.003202183446,1.074772651e-05
39.5,39.75,0,0,0.0001774328412,7.651054872e-07,0.003208063786,1.075759059e-05
39.75,40,0,0,0.0001797258319,7.700333985e-07,0.003209902772,1.076067208e-05
40,40.25,0,0,0.0001786469769,7.677187588e-07,0.003232773828,1.079893934e-05
40.25,40.5,0,0,0.0001790198088,7.685194796e-07,0.003240133223,1.081122447e-05
40.5,40.75,0,0,0.0001803494031,7.713681051e-07,0.003263112468,1.084949315e-05
40.75,41,0,0,0.0001807584645,7.722423031e-07,0.003283782574,1.088380069e-05
41,41.25,0,0,0.0001803988404,7.714737073e-07,0.003292151497,1.089766021e-05
41.25,41.5,0,0,0.00018164918,7.741424471e-07,0.003294136065,1.090094516e-05
41.5,41.75,0,0,0.0001832923169,7.776360906e-07,0.003303082873,1.091573897e-05
41.75,42,0,0,0.0001836123128,7.783145285e-07,0.003324726639,1.095144198e-05
42,42.25,0,0,0.0001856644064,7.826516517e-07,0.003344928038,1.0984662e-05
42.25,42.5,0,0,0.0001857797995,7.828946579e-07,0.00334997844,1.099295152e-05
42.5,42.75,0,0,0.0001864364128,7.842770747e-07,0.003365526478,1.101843217e-05
42.75,43,0,0,0.0001882576301,7.880984425e-07,0.003384825817,1.104997815e-05
43,43.25,0,0,0.0001886502624,7.889198884e-07,0.003404919015,1.10827267e-05
43.25,43.5,0,0,0.00019031305,7.923889835e-07,0.00344708921,1.115114387e-05
43.5,43.75,0,0,0.0001918241355,7.955285903e-07,0.003465271139,1.118051443e-05
43.75,44,0,0,0.0001945097082,8.010779329e-07,0.00348457017,1.121160336e-05
44,44.25,0,0,0.0001947372831,8.015462676e-07,0.003519598649,1.126781444e-05
44.25,44.5,0,0,0.0001967398954,8.056570425e-07,0.003529447044,1.128356792e-05
44.5,44.75,0,0,0.0001985182536,8.092901796e-07,0.003572519233,1.135220788e-05
44.75,45,0,0,0.0001997422416,8.117811486e-07,0.003600440605,1.139648292e-05
45,45.25,0,0,0.0002017151742,8.157803678e-07,0.003614762329,1.141912685e-05
45.25,45.5,0,0,0.0002040675133,8.205231822e-07,0.00366775515,1.150252361e-05
45.5,45.75,0,0,0.0002065386502,8.25476219e-07,0.003686584658,1.153200914e-05
45.75,46,0,0,0.0002085115287,8.294091908e-07,0.003745566774,1.162389396e-05
46,46.25,0,0,0.0002108111016,8.339701883e-07,0.003813530276,1.172887574e-05
46.25,46.5,0,0,0.0002135726771,8.394149801e-07,0.003849748059,1.178443783e-05
46.5,46.75,0,0,0.0002177989638,8.476795086e-07,0.003915186215,1.188416953e-05
46.75,47,0,0,0.0002210189641,8.539225084e-07,0.003960532091,1.195279278e-05
47,47.25,0,0,0.0002229358016,8.576173445e-07,0.004023625309,1.204762103e-05
47.25,47.5,0,0,0.0002267136195,8.648535916e-07,0.004097324736,1.215745432e-05
47.5,47.75,0,0,0.0002316063011,8.741356461e-07,0.004162294298,1.225346121e-05
47.75,48,0,0,0.0002375777683,8.85332348e-07,0.004256122148,1.239079812e-05
48,48.25,0,0,0.0002440576103,8.973247745e-07,0.004369827608,1.255521815e-05
48.25,48.5,0,0,0.0002488941829,9.061721369e-07,0.004460878652,1.268534312e-05
48.5,48.75,0,0,0.0002564923661,9.198997275e-07,0.004629812907,1.292330258e-05
48.75,49,0,0,0.000265951282,9.367079418e-07,0.004789693059,1.314454155e-05
49,49.25,0,0,0.0002790096613,9.594285106e-07,0.005003287606,1.343442528e-05
49.25,49.5,0,0,0.0002947305519,9.860873898e-07,0.005279109514,1.379975453e-05
49.5,49.75,0,0,0.0003185343389,1.025133718e-06,0.00570099482,1.434055054e-05
49.75,50,3.309638237e-07,1.654819042e-07,0.0003769474493,1.115172767e-06,0.006761066987,1.561697404e-05
50,50.25,0.03484662553,5.368992312e-05,0.001669267351,2.346649018e-06,0.02992380216,3.285262495e-05
50.25,50.5,0.03477463665,5.363444247e-05,0.001723088,2.38417572e-06,0.03084751428,3.335574773e-05
50.5,50.75,0.03463704676,5.352825842e-05,0.001739630216,2.395591539e-06,0.03120262641,3.354715849e-05
50.75,51,0.03459055238,5.349233085e-05,0.00175393911,2.405422608e-06,0.03135204623,3.362737297e-05
51,51.25,0.03442580386,5.336480654e-05,0.001763005363,2.411630826e-06,0.03151636249,3.371536304e-05
51.25,51.5,0.0343563088,5.331093086e-05,0.001760085741,2.40963345e-06,0.03161563977,3.376841495e-05
51.5,51.75,0.0342263227,5.321000338e-05,0.001768036475,2.415068914e-06,0.03165405917,3.378892316e-05
51.75,52,0.03413193131,5.313660504e-05,0.001765496265,2.413333702e-06,0.03167685691,3.380108577e-05
52,52.25,0.03411950729,5.312692555e-05,0.001770309852,2.416621061e-06,0.03165362674,3.378869273e-05
52.25,52.5,0.03390008675,5.295585893e-05,0.0017770864,2.42124139e-06,0.03164832262,3.378586148e-05
52.5,52.75,0.03379748694,5.287567538e-05,0.001771665815,2.417546278e-06,0.03167177112,3.379837312e-05
52.75,53,0.03366328931,5.277062108e-05,0.001773605686,2.418869255e-06,0.03163667103,3.377964271e-05
53,53.25,0.03360917742,5.272819918e-05,0.001775252045,2.41999157e-06,0.03159280629,3.375622123e-05
53.25,53.5,0.03351029561,5.265058362e-05,0.001773028536,2.418475846e-06,0.0316099404,3.376537182e-05
53.5,53.75,0.03348456313,5.263036861e-05,0.001770454787,2.41671982e-06,0.03154305798,3.37296368e-05
53.75,54,0.03337030759,5.254052291e-05,0.001775370736,2.420072406e-06,0.03151863731,3.371658052e-05
54,54.25,0.03325571709,5.245025625e-05,0.001767508605,2.414708409e-06,0.03148909198,3.370077614e-05
54.25,54.5,0.03314468258,5.236264085e-05,0.001758442365,2.408508136e-06,0.03148938068,3.370093096e-05
54.5,54.75,0.03314913679,5.236614713e-05,0.001768900944,2.415659236e-06,0.03146106211,3.368577632e-05
54.75,55,0.03302271856,5.226622483e-05,0.001762160684,2.411053037e-06,0.03135680904,3.362992739e-05
55,55.25,0.03300137146,5.224933179e-05,0.001763084312,2.411684657e-06,0.03136773786,3.363578541e-05
55.25,55.5,0.03277632261,5.20709089e-05,0.001757432981,2.407816952e-06,0.03132397904,3.361231927e-05
55.5,55.75,0.03276630697,5.206295108e-05,0.001755756954,2.406668652e-06,0.03124537634,3.357012922e-05
55.75,56,0.03271484252,5.202205555e-05,0.001756439904,2.407136642e-06,0.03120136474,3.354648088e-05
56,56.25,0.03262383047,5.194965771e-05,0.001753727819,2.405277625e-06,0.03116720531,3.352811711e-05
56.25,56.5,0.03256649224,5.190399429e-05,0.001749791775,2.40257718e-06,0.0310838346,3.348324955e-05
56.5,56.75,0.03240291498,5.177350031e-05,0.001750055936,2.402758643e-06,0.03105934104,3.347005753e-05
56.75,57,0.03220706086,5.161681608e-05,0.001746076859,2.400025673e-06,0.03103758798,3.345833668e-05
57,57.25,0.03231430737,5.170268114e-05,0.001742236665,2.397385356e-06,0.0309270594,3.339872013e-05
57.25,57.5,0.03228277712,5.167745071e-05,0.001742480795,2.397553273e-06,0.03090426075,3.338640972e-05
57.5,57.75,0.03212839218,5.155376321e-05,0.001738017038,2.394480781e-06,0.03080942119,3.333515011e-05
57.75,58,0.03216420705,5.158247546e-05,0.001743219739,2.398061502e-06,0.03078979743,3.332453416e-05
58,58.25,0.0319394923,5.14020072e-05,0.001735605096,2.392818748e-06,0.03076353454,3.331032073e-05
58.25,58.5,0.03184368646,5.132487627e-05,0.001731956042,2.39030221e-06,0.03073445695,3.329457632e-05
58.5,58.75,0.03185344513,5.133273475e-05,0.001728755893,2.388093175e-06,0.03067735329,3.326363755e-05
58.75,59,0.03179114467,5.128252176e-05,0.001728488766,2.387908778e-06,0.03060199432,3.322276295e-05
59,59.25,0.03172527698,5.122937242e-05,0.001725555719,2.385882094e-06,0.03050831093,3.317187981e-05
59.25,59.5,0.0315411011,5.108048313e-05,0.001724810019,2.385366518e-06,0.0304575202,3.314426119e-05
59.5,59.75,0.03159083263,5.112073389e-05,0.001722913257,2.3840549e-06,0.03038515416,3.310486877e-05
59.75,60,0.03148202928,5.103263945e-05,0.001717789433,2.380507532e-06,0.03037083087,3.309706531e-05
60,60.25,0.03135907472,5.093290258e-05,0.00171851501,2.381010012e-06,0.03026517286,3.303945505e-05
60.25,60.5,0.03130413729,5.088827753e-05,0.001712659103,2.376950425e-06,0.0302500203,3.303118385e-05
60.5,60.75,0.03125341836,5.084704417e-05,0.001712061643,2.376535613e-06,0.03021026809,3.300947748e-05
60.75,61,0.03116050188,5.077141686e-05,0.001712207011,2.37663665e-06,0.03015734722,3.298055739e-05
61,61.25,0.0311097004,5.07300219e-05,0.001704981426,2.371616925e-06,0.03013187818,3.296662954e-05
61.25,61.5,0.03112169753,5.073980066e-05,0.001708528317,2.374082383e-06,0.03004717746,3.292027071e-05
61.5,61.75,0.03102769531,5.066311877e-05,0.001703348532,2.370481255e-06,0.03004569791,3.291945999e-05
61.75,62,0.0310394458,5.067271096e-05,0.001700365912,2.368405072e-06,0.02997156681,3.287883128e-05
62,62.25,0.03082432815,5.049684862e-05,0.001700237451,2.368315755e-06,0.0299453385,3.286444296e-05
62.25,62.5,0.03082143638,5.049448327e-05,0.001696255425,2.365541174e-06,0.02990320572,3.284131967e-05
62.5,62.75,0.03072033136,5.041161292e-05,0.001695298271,2.364873463e-06,0.02984151907,3.280743398e-05
62.75,63,0.03073745402,5.042565341e-05,0.001694856211,2.364565172e-06,0.02981244291,3.279144937e-05
63,63.25,0.03060093495,5.031356813e-05,0.00169669742,2.365849243e-06,0.02979209637,3.278025909e-05
63.25,63.5,0.03062096075,5.033002799e-05,0.001689455543,2.360795316e-06,0.02966457619,3.271004081e-05
63.5,63.75,0.03055186848,5.027322062e-05,0.001684668424,2.357448634e-06,0.02965819053,3.270652011e-05
63.75,64,0.03050710503,5.023638275e-05,0.001685133378,2.357773737e-06,0.02958947156,3.266861455e-05
64,64.25,0.03028131469,5.005016919e-05,0.001682903246,2.356213324e-06,0.02950805176,3.262364431e-05
64.25,64.5,0.03038043304,5.013199799e-05,0.001678066522,2.352825281e-06,0.02948943618,3.261335305e-05
64.5,64.75,0.0302240619,5.000284252e-05,0.001681319537,2.355104453e-06,0.02943334072,3.258232404e-05
64.75,65,0.0302526026,5.002643825e-05,0.001675677836,2.351150227e-06,0.02944802321,3.259044853e-05
65,65.25,0.03024664216,5.00215083e-05,0.001672846968,2.349163495e-06,0.02940264181,3.256533067e-05
65.25,65.5,0.03013767149,4.993133319e-05,0.001674886173,2.350594917e-06,0.02932017791,3.25196396e-05
65.5,65.75,0.03009837036,4.989877175e-05,0.001666248724,2.344526593e-06,0.02929008968,3.250295096e-05
65.75,66,0.02998518937,4.980488638e-05,0.001665348111,2.343893021e-06,0.0292622077,3.24874814e-05
66,66.25,0.03001315291,4.982809855e-05,0.001671520767,2.348232277e-06,0.02919702163,3.245128127e-05
66.25,66.5,0.02995879425,4.978296303e-05,0.001668149231,2.345863266e-06,0.02915874651,3.243000662e-05
66.5,66.75,0.02991469067,4.974630954e-05,0.001664305557,2.343159316e-06,0.02911542116,3.240590862e-05
66.75,67,0.02987704966,4.971501204e-05,0.001663266344,2.342427735e-06,0.0290305754,3.23586645e-05
67,67.25,0.02973100306,4.959336453e-05,0.00166149089,2.341176999e-06,0.02907040095,3.238084886e-05
67.25,67.5,0.02972563282,4.958889308e-05,0.00165990111,2.3400571e-06,0.02902206271,3.235392121e-05
67.5,67.75,0.02975649975,4.961463268e-05,0.001660003222,2.34012894e-06,0.02900939955,3.234686218e-05
67.75,68,0.02965918938,4.95334471e-05,0.001653173885,2.335310794e-06,0.02890586713,3.228909798e-05
68,68.25,0.02951067573,4.940930066e-05,0.001652487611,2.334826049e-06,0.02890316149,3.228758715e-05
68.25,68.5,0.02963619492,4.951425129e-05,0.001651712339,2.334278368e-06,0.02886651013,3.226711233e-05
68.5,68.75,0.02949660625,4.939752008e-05,0.001649006947,2.332366072e-06,0.0287899965,3.222432648e-05
68.75,69,0.02945391318,4.936176456e-05,0.001648142603,2.33175483e-06,0.02876633152,3.221108173e-05
69,69.25,0.02930829284,4.923961238e-05,0.001649303824,2.332575945e-06,0.02873736591,3.219486417e-05
69.25,69.5,0.02939202455,4.930988689e-05,0.001643589525,2.328532024e-06,0.02872715696,3.218914608e-05
69.5,69.75,0.02932442831,4.925316409e-05,0.001644668634,2.329296402e-06,0.02860194356,3.211892863e-05
69.75,70,0.02935297704,4.927713197e-05,0.001639218152,2.325433797e-06,0.0286029518,3.21194935e-05
70,70.25,0.02920536476,4.915308879e-05,0.001638191936,2.324705743e-06,0.02861669751,3.212720992e-05
70.25,70.5,0.02921107465,4.915789326e-05,0.001638957551,2.325248995e-06,0.02848859813,3.205523342e-05
70.5,70.75,0.02916482379,4.911896813e-05,0.001637089921,2.323923711e-06,0.02851013458,3.206734578e-05
70.75,71,0.02918915133,4.913944818e-05,0.001633972278,2.321710169e-06,0.02850580581,3.206491166e-05
71,71.25,0.02899273067,4.897386418e-05,0.001639062811,2.325323428e-06,0.02848156644,3.20512794e-05
71.25,71.5,0.0291362839,4.909493717e-05,0.001632645825,2.320767545e-06,0.02841969442,3.201644966e-05
71.5,71.75,0.02902978859,4.900513959e-05,0.001633906504,2.32166359e-06,0.02839570818,3.200293961e-05
71.75,72,0.02887167567,4.88715262e-05,0.001633484011,2.321363276e-06,0.02835732593,3.198130669e-05
72,72.25,0.02888417405,4.888210511e-05,0.001629241252,2.318346949e-06,0.02836255601,3.198425534e-05
72.25,72.5,0.02889045888,4.888741997e-05,0.001628089377,2.317527023e-06,0.02826696016,3.193031678e-05
72.5,72.75,0.0289018013,4.889701983e-05,0.001627542174,2.317137888e-06,0.02831414601,3.195695293e-05
72.75,73,0.02884074025,4.884534889e-05,0.001623705187,2.314405192e-06,0.02822139645,3.190457484e-05
73,73.25,0.02879125783,4.88034322e-05,0.001623150744,2.314009916e-06,0.02817342105,3.187745096e-05
73.25,73.5,0.0288633222,4.886445937e-05,0.001625720851,2.31584103e-06,0.02813907913,3.185801987e-05
73.5,73.75,0.02881368343,4.882243416e-05,0.001626080629,2.316097361e-06,0.02814993539,3.186416264e-05
73.75,74,0.028675921,4.870559909e-05,0.001622352256,2.313440671e-06,0.02808850175,3.182937953e-05
74,74.25,0.02865084888,4.868430444e-05,0.001620669929,2.312241206e-06,0.02806992215,3.181885151e-05
74.25,74.5,0.02868328121,4.871184624e-05,0.001617561671,2.310022774e-06,0.02807316935,3.182069187e-05
74.5,74.75,0.02866450519,4.869590738e-05,0.001623368331,2.314164891e-06,0.02800679338,3.178305734e-05
74.75,75,0.02854121849,4.859108631e-05,0.001618172188,2.310458751e-06,0.02798504189,3.177071533e-05
75,75.25,0.02860277459,4.864344706e-05,0.001616166277,2.309026415e-06,0.02794839148,3.174990801e-05
75.25,75.5,0.02849885527,4.855501707e-05,0.00161396902,2.307456449e-06,0.02794081449,3.174560376e-05
75.5,75.75,0.02859516328,4.86369768e-05,0.001614259316,2.307663896e-06,0.02793529551,3.1742469e-05
75.75,76,0.0284986864,4.855487048e-05,0.001611029737,2.305354814e-06,0.02788670435,3.171485483e-05
76,76.25,0.02843167938,4.849777437e-05,0.001612015995,2.306060141e-06,0.0278223116,3.16782227e-05
76.25,76.5,0.02837450487,4.844899358e-05,0.001611936621,2.306003238e-06,0.02783165467,3.168354048e-05
76.5,76.75,0.0282877036,4.837483625e-05,0.001610359814,2.304875344e-06,0.02783360129,3.16846473e-05
76.75,77,0.02844581949,4.850982372e-05,0.001610801812,2.305191538e-06,0.02780009031,3.166557175e-05
77,77.25,0.02832485616,4.840659066e-05,0.001605447303,2.301357437e-06,0.02777664097,3.16522156e-05
77.25,77.5,0.02825502016,4.834688584e-05,0.001605453623,2.30136179e-06,0.02775063288,3.163739642e-05
77.5,77.75,0.02827124059,4.836076157e-05,0.001607057042,2.302510591e-06,0.0276810073,3.159768735e-05
77.75,78,0.02827140463,4.836090062e-05,0.001604183435,2.300451301e-06,0.02771405191,3.161653955e-05
78,78.25,0.02825163108,4.834398926e-05,0.001607608092,2.302905339e-06,0.02762138001,3.15636439e-05
78.25,78.5,0.02819991954,4.829973304e-05,0.00160632778,2.301988065e-06,0.02771621635,3.16177737e-05
78.5,78.75,0.02818651858,4.828825961e-05,0.001598957267,2.296701236e-06,0.02770939979,3.161388691e-05
78.75,79,0.02818147218,4.828393771e-05,0.001603094867,2.299670857e-06,0.02763721467,3.157268744e-05
79,79.25,0.0281226406,4.823351766e-05,0.001601587078,2.298589198e-06,0.02755673443,3.152669136e-05
79.25,79.5,0.02820926738,4.830773483e-05,0.001602692262,2.299382023e-06,0.02757249721,3.153570455e-05
79.5,79.75,0.02803262198,4.815627413e-05,0.001602619672,2.29932994e-06,0.02755247862,3.152425737e-05
79.75,80,0.02822275498,4.831928037e-05,0.001603843751,2.300207873e-06,0.02760197149,3.155255378e-05
80,80.25,0.02803211943,4.815583742e-05,0.001595169794,2.293979787e-06,0.02755969113,3.152838136e-05
80.25,80.5,0.02808102546,4.81978255e-05,0.001594826569,2.29373292e-06,0.02757260601,3.15357668e-05
80.5,80.75,0.02801251488,4.813900206e-05,0.001600847967,2.29805875e-06,0.02753624374,3.151496888e-05
80.75,81,0.02804280189,4.816501856e-05,0.001597291366,2.295504755e-06,0.02749068413,3.148889203e-05
81,81.25,0.02794458516,4.808060746e-05,0.001597070444,2.29534612e-06,0.02750759983,3.149857537e-05
81.25,81.5,0.02805438845,4.817496826e-05,0.001595371073,2.294124521e-06,0.02750035136,3.149442692e-05
81.5,81.75,0.02793332789,4.807091951e-05,0.001594754025,2.293680799e-06,0.02747253615,3.147849651e-05
81.75,82,0.02793738668,4.807441491e-05,0.001599548033,2.297125562e-06,0.02744512087,3.146278916e-05
82,82.25,0.02794590663,4.808174184e-05,0.001591640042,2.291440898e-06,0.02745540367,3.146868291e-05
82.25,82.5,0.02802012477,4.814553735e-05,0.001592490957,2.292053077e-06,0.02738542013,3.142855656e-05
82.5,82.75,0.02803766959,4.81606095e-05,0.001590432097,2.290570992e-06,0.02736694763,3.141795503e-05
82.75,83,0.02790114758,4.804323106e-05,0.001590076007,2.290314725e-06,0.02743209964,3.145532663e-05
83,83.25,0.02793755526,4.8074563e-05,0.001591731962,2.291506731e-06,0.02734855259,3.140739747e-05
83.25,83.5,0.02781692137,4.797067548e-05,0.001589726453,2.290063117e-06,0.0273737663,3.142186858e-05
83.5,83.75,0.02786134595,4.800895335e-05,0.001595087608,2.293920905e-06,0.02742445263,3.145094304e-05
83.75,84,0.02780368047,4.795925661e-05,0.001590702843,2.290766081e-06,0.02737603807,3.142317158e-05
84,84.25,0.02780409343,4.795961195e-05,0.001592850531,2.292311772e-06,0.0274094439,3.144233595e-05
84.25,84.5,0.0278183223,4.797187775e-05,0.001590065956,2.290307392e-06,0.02735984266,3.141387808e-05
84.5,84.75,0.02778158757,4.794019965e-05,0.001589204917,2.289687299e-06,0.02728855933,3.137293379e-05
84.75,85,0.02775064291,4.791349757e-05,0.001589980172,2.290245603e-06,0.02731052846,3.138555815e-05
85,85.25,0.02786713445,4.801393693e-05,0.001589831895,2.290138968e-06,0.02732434567,3.139349603e-05
85.25,85.5,0.02787251444,4.801857226e-05,0.001592362291,2.291960482e-06,0.02725125859,3.135148794e-05
85.5,85.75,0.02773823126,4.790278249e-05,0.001591570422,2.291390549e-06,0.02727643869,3.136596699e-05
85.75,86,0.02778440231,4.794262915e-05,0.001586773547,2.287935363e-06,0.02732023322,3.139113395e-05
86,86.25,0.02763133181,4.781040234e-05,0.001589653736,2.290010656e-06,0.02730284602,3.138114495e-05
86.25,86.5,0.02779052106,4.794790408e-05,0.001587373904,2.288368051e-06,0.02728405166,3.137034381e-05
86.5,86.75,0.02765648598,4.783215733e-05,0.001588195273,2.288959854e-06,0.02729552274,3.137693666e-05
86.75,87,0.02777009023,4.793028353e-05,0.001586661336,2.28785447e-06,0.02727867633,3.136725382e-05
87,87.25,0.02774559881,4.79091458e-05,0.001586070789,2.287428713e-06,0.02723711949,3.134335584e-05
87.25,87.5,0.02777910416,4.793805627e-05,0.001582906711,2.285146082e-06,0.02726060368,3.135686333e-05
87.5,87.75,0.02779789048,4.795426458e-05,0.001585311808,2.286881268e-06,0.02726493172,3.135935145e-05
87.75,88,0.02765292598,4.782907761e-05,0.001580672896,2.283533075e-06,0.02723448721,3.134184228e-05
88,88.25,0.02776669249,4.792734703e-05,0.001586456706,2.287706878e-06,0.02720259372,3.13234854e-05
88.25,88.5,0.02763927619,4.78172752e-05,0.00158447716,2.286279288e-06,0.02724328513,3.134690106e-05
88.5,88.75,0.0276925567,4.786333176e-05,0.001582857202,2.285110345e-06,0.02727373455,3.13644132e-05
88.75,89,0.02767072278,4.784446989e-05,0.001583978922,2.285919793e-06,0.02724779529,3.134949588e-05
89,89.25,0.02764556121,4.782270825e-05,0.001587314279,2.288324892e-06,0.02721110709,3.132838579e-05
89.25,89.5,0.02776553657,4.792635128e-05,0.001587707059,2.288608105e-06,0.02723534997,3.134233695e-05
89.5,89.75,0.02763786487,4.781605044e-05,0.001587261563,2.288286951e-06,0.02717229229,3.130603771e-05
89.75,90,0.02766823677,4.784231828e-05,0.001586723752,2.287899257e-06,0.02719097716,3.131679703e-05
90,90.25,0.02773798305,4.790256803e-05,0.001586855808,2.287994523e-06,0.02718484739,3.131326915e-05
90.25,90.5,0.02772962907,4.789535746e-05,0.001586591865,2.287804238e-06,0.02726521997,3.135951719e-05
90.5,90.75,0.02778035124,4.793913746e-05,0.001583219967,2.28537205e-06,0.02722193246,3.133461773e-05
90.75,91,0.02763381544,4.781255203e-05,0.001586892326,2.288021007e-06,0.02721312867,3.132955011e-05
91,91.25,0.02767319507,4.784659905e-05,0.00158635109,2.287630721e-06,0.02720959288,3.132751488e-05
91.25,91.5,0.02769371941,4.786433953e-05,0.001589600832,2.289972469e-06,0.02722142592,3.133432532e-05
91.5,91.75,0.02771804002,4.788534482e-05,0.001589379752,2.289813214e-06,0.02720414607,3.132437984e-05
91.75,92,0.02762720256,4.780683733e-05,0.001587611326,2.288539064e-06,0.02717297706,3.130643185e-05
92,92.25,0.02767229223,4.78458248e-05,0.001587040762,2.288127988e-06,0.02728989517,3.137370224e-05
92.25,92.5,0.02776893105,4.792928241e-05,0.001582781415,2.285055703e-06,0.02723004741,3.13392863e-05
92.5,92.75,0.02775403827,4.791643087e-05,0.001586057526,2.287419114e-06,0.0272552995,3.135381217e-05
92.75,93,0.02767642182,4.784938737e-05,0.001589228033,2.289703957e-06,0.02722550087,3.133666946e-05
93,93.25,0.02767915625,4.785175405e-05,0.00158677999,2.2879399e-06,0.02725905071,3.135596927e-05
93.25,93.5,0.02771647306,4.788399642e-05,0.001590983147,2.290967791e-06,0.02728910126,3.137324575e-05
93.5,93.75,0.0277333548,4.789857642e-05,0.001587014273,2.288108828e-06,0.02729224052,3.137505068e-05
93.75,94,0.0277423694,4.790635598e-05,0.001588300753,2.289035769e-06,0.02725490256,3.135358391e-05
94,94.25,0.02779052322,4.794790741e-05,0.001588320763,2.289050377e-06,0.02727690748,3.136623633e-05
94.25,94.5,0.02783577862,4.798692304e-05,0.001587970999,2.288798303e-06,0.02724090628,3.134553397e-05
94.5,94.75,0.02781385773,4.79680315e-05,0.001591530956,2.291362228e-06,0.02726561606,3.135974419e-05
94.75,95,0.02767692317,4.784982547e-05,0.001590075963,2.290314671e-06,0.02729231216,3.137509154e-05
95,95.25,0.02777976488,4.793862515e-05,0.001593117609,2.2925038e-06,0.02730331466,3.138141408e-05
95.25,95.5,0.02781509444,4.796909428e-05,0.001586542338,2.287768512e-06,0.02728220961,3.136928384e-05
95.5,95.75,0.02786556775,4.801259207e-05,0.001589244335,2.28971556e-06,0.02729173322,3.137475764e-05
95.75,96,0.02782552733,4.797809488e-05,0.001588518616,2.28919285e-06,0.02737239624,3.142108283e-05
96,96.25,0.02786044188,4.800817969e-05,0.001589481981,2.289886815e-06,0.02737712123,3.142379376e-05
96.25,96.5,0.02785208065,4.800097257e-05,0.001591798102,2.29155444e-06,0.02737805923,3.142433211e-05
96.5,96.75,0.02787061715,4.801694307e-05,0.00159716275,2.295412376e-06,0.02736564937,3.141721027e-05
96.75,97,0.02794789504,4.808345429e-05,0.001596255503,2.294760446e-06,0.02733639426,3.140041551e-05
97,97.25,0.02792232551,4.806145438e-05,0.00159538112,2.294131851e-06,0.02745295001,3.146727628e-05
97.25,97.5,0.02793350579,4.807108338e-05,0.001595654944,2.294328693e-06,0.02738906093,3.143064403e-05
97.5,97.75,0.02786043933,4.800817547e-05,0.001593365013,2.292681757e-06,0.02744501535,3.146273033e-05
97.75,98,0.02791116039,4.805185033e-05,0.00159354011,2.292807885e-06,0.02741795747,3.144721786e-05
98,98.25,0.02791727823,4.805711124e-05,0.001592834227,2.292300183e-06,0.02740453759,3.143952209e-05
98.25,98.5,0.02803368911,4.81571832e-05,0.001596661154,2.295051854e-06,0.02745587138,3.146895014e-05
98.5,98.75,0.02793664249,4.807377558e-05,0.001595628485,2.294309615e-06,0.027488518,3.148765074e-05
98.75,99,0.02790759886,4.804878191e-05,0.001597294639,2.295507089e-06,0.02747585632,3.148039924e-05
99,99.25,0.02802657569,4.815107623e-05,0.001600006742,2.297454979e-06,0.02749346208,3.149048297e-05
99.25,99.5,0.0280115165,4.81381396e-05,0.00159786225,2.295914974e-06,0.02754771671,3.15215336e-05
99.5,99.75,0.02802773774,4.815207661e-05,0.001595064656,2.29390452e-06,0.02753635363,3.151503291e-05
99.75,100,0.02803146748,4.815528593e-05,0.00159833089,2.296251716e-06,0.02752166966,3.150662917e-05
100,100.25,0.02799745125,4.812605497e-05,0.001602824061,2.299476429e-06,0.02756820591,3.153325151e-05
100.25,100.5,0.02803840862,4.816123897e-05,0.001600389317,2.297729519e-06,0.02760904222,3.155659441e-05
100.5,100.75,0.02809028061,4.820575614e-05,0.001599785582,2.297296129e-06,0.02759587319,3.154906759e-05
100.75,101,0.02819371673,4.829442403e-05,0.001601026065,2.298186518e-06,0.02757221044,3.153554145e-05
101,101.25,0.02816773442,4.827216657e-05,0.001602444917,2.299204678e-06,0.027642554,3.157573704e-05
101.25,101.5,0.02818560507,4.828747428e-05,0.00160413387,2.300415724e-06,0.02769518724,3.160577999e-05
101.5,101.75,0.02810683598,4.82199634e-05,0.001605783547,2.301598219e-06,0.02766275637,3.158727199e-05
101.75,102,0.02825543883,4.834724843e-05,0.001609485466,2.30424958e-06,0.02770088599,3.16090304e-05
102,102.25,0.02826188834,4.835276155e-05,0.001605457099,2.301364402e-06,0.02772689486,3.162386359e-05
102.25,102.5,0.02826751694,4.83575771e-05,0.001606413686,2.302049699e-06,0.0277034841,3.161051292e-05
102.5,102.75,0.02834223625,4.842144159e-05,0.001607024057,2.302486971e-06,0.02772458656,3.162254774e-05
102.75,103,0.02835256797,4.843025502e-05,0.001612174267,2.306173269e-06,0.02778695736,3.165809147e-05
103,103.25,0.02840776355,4.84773728e-05,0.001608861681,2.30380287e-06,0.02780182004,3.166655568e-05
103.25,103.5,0.02845483993,4.851751473e-05,0.001614589525,2.30790009e-06,0.02778565984,3.165735313e-05
103.5,103.75,0.02845591489,4.851843027e-05,0.0016116562,2.30580267e-06,0.02785196455,3.1695097e-05
103.75,104,0.02848760454,4.854543519e-05,0.001610752319,2.305156127e-06,0.02787512374,3.17082695e-05
104,104.25,0.02847022129,4.853061748e-05,0.001613507169,2.307126318e-06,0.02794373658,3.174726341e-05
104.25,104.5,0.02845971754,4.85216691e-05,0.001614651825,2.307944339e-06,0.02791292951,3.172976114e-05
104.5,104.75,0.02853600605,4.858665015e-05,0.001617215314,2.309775514e-06,0.0279502662,3.175097194e-05
104.75,105,0.02852309707,4.857565944e-05,0.001617878712,2.310249351e-06,0.027995214,3.177648734e-05
105,105.25,0.02859317971,4.863529156e-05,0.001618627385,2.310783594e-06,0.02798641208,3.177149267e-05
105.25,105.5,0.02858035217,4.862438027e-05,0.001616878925,2.309535403e-06,0.02802230577,3.179185709e-05
105.5,105.75,0.02865970294,4.86918256e-05,0.001621567027,2.3128808e-06,0.0280880686,3.182913399e-05
105.75,106,0.0286488614,4.868261489e-05,0.001619844606,2.311652081e-06,0.02808471362,3.182723308e-05
106,106.25,0.02866938189,4.870004472e-05,0.001618706638,2.310840204e-06,0.02811119062,3.184222928e-05
106.25,106.5,0.02870901846,4.873369591e-05,0.001621534067,2.312857334e-06,0.02812760607,3.18515245e-05
106.5,106.75,0.0287705738,4.878590214e-05,0.001625423806,2.315629394e-06,0.02822078319,3.190422825e-05
106.75,107,0.02880855106,4.881808518e-05,0.001629993357,2.31888185e-06,0.02818853548,3.188599874e-05
107,107.25,0.02886985779,4.886998986e-05,0.001625186597,2.315460683e-06,0.0282556688,3.192393978e-05
107.25,107.5,0.02887887978,4.887762736e-05,0.001628574464,2.317872284e-06,0.02828601006,3.194107429e-05
107.5,107.75,0.02884082125,4.884541601e-05,0.00163098657,2.319588266e-06,0.02826537201,3.192941955e-05
107.75,108,0.02892024548,4.891261122e-05,0.001633345352,2.321264694e-06,0.02834527804,3.197451364e-05
108,108.25,0.02898246628,4.896519112e-05,0.001632619733,2.320749232e-06,0.02831262939,3.195609617e-05
108.25,108.5,0.02900638002,4.898538665e-05,0.00163232907,2.320542415e-06,0.02831627377,3.1958153e-05
108.5,108.75,0.0290538723,4.902546521e-05,0.001631603341,2.320026633e-06,0.0284228358,3.201822039e-05
108.75,109,0.02902681945,4.900264193e-05,0.001637020787,2.323874758e-06,0.02843679743,3.202608275e-05
109,109.25,0.02907877868,4.904647215e-05,0.001636152895,2.323258574e-06,0.02848008628,3.205044585e-05
109.25,109.5,0.02911576798,4.907765535e-05,0.001640313501,2.326210539e-06,0.02852788284,3.207732382e-05
109.5,109.75,0.02922464313,4.916930592e-05,0.001644760717,2.329361389e-06,0.0285610352,3.209595437e-05
109.75,110,0.02928083305,4.921655249e-05,0.001638112661,2.324649426e-06,0.02855349659,3.209171943e-05
110,110.25,0.02925360988,4.91936704e-05,0.001641187762,2.326830298e-06,0.02860223154,3.211908984e-05
110.25,110.5,0.02939699507,4.931406091e-05,0.001647690431,2.331434839e-06,0.02860785908,3.212224896e-05
110.5,110.75,0.02943736858,4.934790447e-05,0.001646588532,2.330655252e-06,0.02868877499,3.216763894e-05
110.75,111,0.02940840888,4.932362826e-05,0.001647168998,2.331065828e-06,0.02868451931,3.216525374e-05
111,111.25,0.02956619863,4.94557552e-05,0.001648818754,2.332232908e-06,0.0286976832,3.217263078e-05
111.25,111.5,0.02929472993,4.922822549e-05,0.00165221364,2.334632417e-06,0.02874681621,3.220015591e-05
111.5,111.75,0.02954915012,4.944149361e-05,0.001650115211,2.333149438e-06,0.02879143903,3.222513353e-05
111.75,112,0.02947584617,4.93801429e-05,0.001652969065,2.335165957e-06,0.02885305437,3.225959212e-05
112,112.25,0.02960309978,4.948660247e-05,0.001657743156,2.338535456e-06,0.02892448092,3.229949065e-05
112.25,112.5,0.02967524677,4.954685674e-05,0.001659917578,2.340068688e-06,0.02896423587,3.232167709e-05
112.5,112.75,0.02965679506,4.953145288e-05,0.001654971612,2.336579839e-06,0.02896712244,3.232328809e-05
112.75,113,0.0298245933,4.96713576e-05,0.001659317121,2.339645437e-06,0.02897426211,3.232726869e-05
113,113.25,0.02978355253,4.963717408e-05,0.001663655336,2.342701395e-06,0.02910961323,3.240267675e-05
113.25,113.5,0.02982078542,4.966818526e-05,0.001665803087,2.344212916e-06,0.02910073774,3.239773673e-05
113.5,113.75,0.02993323145,4.976172672e-05,0.001665140092,2.343746509e-06,0.02910236239,3.239864153e-05
113.75,114,0.02998601497,4.980557036e-05,0.001664081011,2.343001114e-06,0.02919442221,3.244983598e-05
114,114.25,0.03007016175,4.9875392e-05,0.001672111312,2.348647004e-06,0.02925152875,3.248155307e-05
114.25,114.5,0.0301075569,4.990638683e-05,0.001667931376,2.345710013e-06,0.02929604126,3.250625215e-05
114.5,114.75,0.02998601425,4.980556844e-05,0.001671184455,2.347996209e-06,0.02933060146,3.25254175e-05
114.75,115,0.03021684726,4.999686205e-05,0.001670178184,2.347289257e-06,0.0293551315,3.253901347e-05
115,115.25,0.03030141801,5.006677505e-05,0.001675354556,2.35092347e-06,0.0294385366,3.258519994e-05
115.25,115.5,0.03031275038,5.007613282e-05,0.001676816023,2.351948462e-06,0.02945678915,3.259529812e-05
115.5,115.75,0.03035892157,5.011425029e-05,0.001683170676,2.356400643e-06,0.0295123429,3.262601491e-05
115.75,116,0.03032590973,5.008700188e-05,0.001683718036,2.35678351e-06,0.02955804969,3.265126614e-05
116,116.25,0.03043040656,5.017320462e-05,0.001681293121,2.355085941e-06,0.02957384982,3.265999022e-05
116.25,116.5,0.0305489789,5.027084807e-05,0.001688132303,2.359870538e-06,0.02968200054,3.271964468e-05
116.5,116.75,0.03057958191,5.029600894e-05,0.001688073173,2.359829389e-06,0.02966075106,3.270793134e-05
116.75,117,0.0306512425,5.035490261e-05,0.001690963117,2.361848179e-06,0.02977048918,3.276837215e-05
117,117.25,0.03073985665,5.0427627e-05,0.00169693464,2.36601438e-06,0.02981244551,3.279145214e-05
117.25,117.5,0.03074001913,5.042775761e-05,0.001694371219,2.364226866e-06,0.02981738396,3.279416543e-05
117.5,117.75,0.03081026268,5.048532855e-05,0.001697696881,2.366545749e-06,0.0298509346,3.281260828e-05
117.75,118,0.03082714687,5.049916152e-05,0.00170183089,2.3694251e-06,0.02999154874,3.288978624e-05
118,118.25,0.03092493556,5.057917159e-05,0.001698960425,2.367426134e-06,0.02998863063,3.288818859e-05
118.25,118.5,0.03107114028,5.069857532e-05,0.001703239485,2.370405251e-06,0.03001312217,3.290161204e-05
118.5,118.75,0.03108073261,5.070639432e-05,0.001703061436,2.370281434e-06,0.03009205371,3.294484124e-05
118.75,119,0.03111350348,5.073311928e-05,0.001705565316,2.37202288e-06,0.03007722656,3.293672476e-05
119,119.25,0.03121577028,5.081641395e-05,0.001707696908,2.37350474e-06,0.03022253194,3.301617517e-05
119.25,119.5,0.03124216968,5.083789757e-05,0.0017112436,2.375967964e-06,0.03023054167,3.302055e-05
119.5,119.75,0.03132250976,5.090320916e-05,0.001716680824,2.379739302e-06,0.0302537729,3.303323292e-05
119.75,120,0.03149128891,5.104013717e-05,0.001717941122,2.380612579e-06,0.03031311498,3.306560876e-05
120,120.25,0.03142501735,5.098641554e-05,0.001719521489,2.381707236e-06,0.03031188918,3.306494059e-05
120.25,120.5,0.03145480664,5.101057384e-05,0.001720243935,2.38220739e-06,0.03046040488,3.314582995e-05
120.5,120.75,0.03153109765,5.107239e-05,0.001726769946,2.386721375e-06,0.03053215586,3.31848384e-05
120.75,121,0.03167555567,5.118922351e-05,0.001727957102,2.387541186e-06,0.03056216987,3.32011429e-05
121,121.25,0.03168987133,5.120078903e-05,0.001727413011,2.3871655e-06,0.03059377112,3.321830067e-05
121.25,121.5,0.0318661039,5.134293124e-05,0.001731583291,2.390045038e-06,0.03064997272,3.324879215e-05
121.5,121.75,0.03194337727,5.140512979e-05,0.001732530186,2.390698371e-06,0.03065480717,3.325141411e-05
121.75,122,0.03188562947,5.13586547e-05,0.001732490522,2.39067095e-06,0.03074358571,3.329952048e-05
122,122.25,0.03203125251,5.147578022e-05,0.001737479121,2.394110149e-06,0.03076818626,3.331283777e-05
122.25,122.5,0.03218953323,5.160278232e-05,0.001738366456,2.394721225e-06,0.03084033649,3.33518679e-05
122.5,122.75,0.03219524288,5.160735787e-05,0.001744879037,2.399202247e-06,0.03088928975,3.337832333e-05
122.75,123,0.03231513013,5.170333574e-05,0.001740745534,2.396359403e-06,0.03092875407,3.339963476e-05
123,123.25,0.03234185676,5.17247092e-05,0.001744954979,2.399254514e-06,0.03103841776,3.34587838e-05
123.25,123.5,0.03236733779,5.174507573e-05,0.00175122041,2.403557715e-06,0.03102853648,3.345345984e-05
123.5,123.75,0.03255003572,5.189088762e-05,0.001747439539,2.400961982e-06,0.03104108804,3.346022322e-05
123.75,124,0.03248416376,5.183835573e-05,0.00175468128,2.405931299e-06,0.0311301185,3.350816485e-05
124,124.25,0.03270739589,5.201613622e-05,0.0017551006,2.40621895e-06,0.03126528989,3.358082332e-05
124.25,124.5,0.03274156488,5.204329188e-05,0.001757954262,2.408174009e-06,0.03121813926,3.355549585e-05
124.5,124.75,0.03285938069,5.213682017e-05,0.001759653327,2.409337311e-06,0.03129609512,3.359735895e-05
124.75,125,0.03293840596,5.219947196e-05,0.001759643299,2.409330363e-06,0.03139836489,3.365219954e-05
125,125.25,0.03298490514,5.223629689e-05,0.00176350025,2.411969244e-06,0.03137755198,3.364104721e-05
125.25,125.5,0.03312622388,5.234805474e-05,0.00176000628,2.409578886e-06,0.03140327393,3.365483119e-05
125.5,125.75,0.03322038742,5.242239391e-05,0.001760600186,2.409985364e-06,0.0315131908,3.371366817e-05
125.75,126,0.03329377202,5.248024765e-05,0.001768089269,2.415104969e-06,0.03146427329,3.368749524e-05
126,126.25,0.03339057593,5.255647153e-05,0.001771490868,2.417426862e-06,0.0314923008,3.370249227e-05
126.25,126.5,0.033525111,5.266222328e-05,0.001770138426,2.416504158e-06,0.03158140694,3.375013208e-05
126.5,126.75,0.03362862092,5.274344564e-05,0.001772467557,2.418093182e-06,0.03158043122,3.374960966e-05
126.75,127,0.03363258554,5.274654861e-05,0.001774671301,2.419595698e-06,0.0316183462,3.376986026e-05
127,127.25,0.03381767637,5.289146386e-05,0.001770451926,2.416718162e-06,0.03166549383,3.3795024e-05
127.25,127.5,0.03385888412,5.292367504e-05,0.001773213033,2.418601499e-06,0.03163833303,3.378053121e-05
127.5,127.75,0.03396115015,5.300352387e-05,0.001770217528,2.416558093e-06,0.03162942016,3.377577216e-05
127.75,128,0.03395238523,5.299668879e-05,0.001773552859,2.418833217e-06,0.03164197463,3.378247406e-05
128,128.25,0.03410279779,5.311392038e-05,0.001768224557,2.415197375e-06,0.03170593271,3.381659248e-05
128.25,128.5,0.0342854044,5.32559041e-05,0.001766640645,2.414115333e-06,0.03165016204,3.378684264e-05
128.5,128.75,0.03441042712,5.335289913e-05,0.001764565748,2.41269761e-06,0.03159839551,3.375920546e-05
128.75,129,0.0344339246,5.337110867e-05,0.001756680587,2.407301421e-06,0.03155016568,3.373343661e-05
129,129.25,0.03455497152,5.346481555e-05,0.001750306651,2.402930707e-06,0.03142015261,3.36638709e-05
129.25,129.5,0.0345959236,5.349647787e-05,0.001737122772,2.393864619e-06,0.03119112116,3.354097552e-05
129.5,129.75,0.03467742572,5.355944531e-05,0.0017184424,2.380959681e-06,0.03086208763,3.336362417e-05
129.75,130,0.03482345866,5.367207711e-05,0.00166403793,2.342970637e-06,0.02984797687,3.281098312e-05
130,130.25,8.273074982e-08,8.273074585e-08,0.0003757432205,1.11339006e-06,0.006742849572,1.559592097e-05
130.25,130.5,0,0,0.0003177129249,1.02381127e-06,0.005696882538,1.433537787e-05
130.5,130.75,0,0,0.0002918766477,9.813015606e-07,0.005271317447,1.378956655e-05
130.75,131,0,0,0.0002776966238,9.571684219e-07,0.004988929705,1.34151351e-05
131,131.25,0,0,0.0002662218603,9.371843845e-07,0.004778906686,1.312973254e-05
131.25,131.5,0,0,0.0002563339101,9.196153864e-07,0.004608384679,1.289336166e-05
131.5,131.75,0,0,0.0002478681266,9.043024064e-07,0.004470762804,1.269938845e-05
131.75,132,0,0,0.0002439751512,8.971732166e-07,0.004359906743,1.254095755e-05
132,132.25,0,0,0.0002371226276,8.844841955e-07,0.004285631717,1.243367983e-05
132.25,132.5,0,0,0.000233381292,8.774788251e-07,0.004180186663,1.227976873e-05
132.5,132.75,0,0,0.0002255983684,8.627235912e-07,0.004091011392,1.214808399e-05
132.75,133,0,0,0.0002236319751,8.589554161e-07,0.004031560954,1.205949451e-05
133,133.25,0,0,0.0002202799966,8.524939187e-07,0.003963128845,1.195670958e-05
133.25,133.5,0,0,0.0002168356206,8.458028434e-07,0.0038863277,1.184029194e-05
133.5,133.75,0,0,0.000214677901,8.415840698e-07,0.003849784716,1.178449481e-05
133.75,134,0,0,0.000210372328,8.331018959e-07,0.003810102939,1.172360369e-05
134,134.25,0,0,0.000207699958,8.277936014e-07,0.003737197235,1.161089955e-05
134.25,134.5,0,0,0.0002064001344,8.251994774e-07,0.003696902189,1.154813531e-05
134.5,134.75,0,0,0.0002044635,8.213190421e-07,0.003674247761,1.15126985e-05
134.75,135,0,0,0.00020003259,8.12370965e-07,0.003640446282,1.145962118e-05
135,135.25,0,0,0.0001999039368,8.121097171e-07,0.00360927857,1.141046121e-05
135.25,135.5,0,0,0.0001983862314,8.090209249e-07,0.003555636656,1.132535338e-05
135.5,135.75,0,0,0.0001960305956,8.042035244e-07,0.003552751127,1.13207576e-05
135.75,136,0,0,0.0001952585421,8.026182604e-07,0.00353355925,1.129013879e-05
136,136.25,0,0,0.0001919791163,7.958497107e-07,0.003483164176,1.120934267e-05
136.25,136.5,0,0,0.0001914710639,7.94796021e-07,0.003469780915,1.11877881e-05
136.5,136.75,0,0,0.0001917515495,7.953780556e-07,0.003450841454,1.115721206e-05
136.75,137,0,0,0.0001892705375,7.902158113e-07,0.003408274229,1.108818627e-05
137,137.25,0,0,0.0001869511496,7.853590981e-07,0.003398822729,1.10728014e-05
137.25,137.5,0,0,0.0001869874328,7.854352903e-07,0.003373570288,1.103159029e-05
137.5,137.75,0,0,0.0001870467627,7.855597663e-07,0.00334720085,1.098839352e-05
137.75,138,0,0,0.000183315359,7.77684859e-07,0.003345685777,1.098590647e-05
138,138.25,0,0,0.0001847603951,7.807439088e-07,0.0033333122,1.096557271e-05
138.25,138.5,0,0,0.0001827776182,7.765434712e-07,0.003310007891,1.092717334e-05
138.5,138.75,0,0,0.0001825103331,7.759753783e-07,0.003302505251,1.09147838e-05
138.75,139,0,0,0.0001809894256,7.727355293e-07,0.003270435132,1.086165905e-05
139,139.25,0,0,0.000180154659,7.709513387e-07,0.003259108295,1.084283456e-05
139.25,139.5,0,0,0.0001802372267,7.711281714e-07,0.003246230063,1.082139163e-05
139.5,139.75,0,0,0.0001801250263,7.708880568e-07,0.003249296278,1.082650089e-05
139.75,140,0,0,0.0001784919022,7.673854572e-07,0.003226064818,1.078772935e-05
140,140.25,0,0,0.0001786700146,7.677681382e-07,0.003219282141,1.077638197e-05
140.25,140.5,0,0,0.000179382668,7.692978211e-07,0.003227074401,1.078941637e-05
140.5,140.75,0,0,0.0001792374658,7.689863234e-07,0.003199080924,1.074251847e-05
140.75,141,0,0,0.0001762187706,7.624835364e-07,0.003205537062,1.075335072e-05
141,141.25,0,0,0.0001765717503,7.632467191e-07,0.003196375575,1.073797558e-05
141.25,141.5,0,0,0.0001763935429,7.628613634e-07,0.00318620319,1.072087649e-05
141.5,141.75,0,0,0.0001755819279,7.611043244e-07,0.003190314938,1.072779052e-05
141.75,142,0,0,0.0001753378607,7.605753236e-07,0.003177797917,1.070672637e-05
142,142.25,0,0,0.0001754467249,7.608113822e-07,0.003166542322,1.068774767e-05
142.25,142.5,0,0,0.0001748033408,7.59415045e-07,0.003172458357,1.069772666e-05
142.5,142.75,0,0,0.0001748758954,7.59572567e-07,0.003163692664,1.068293798e-05
142.75,143,0,0,0.0001740840908,7.578510597e-07,0.003157848294,1.067306543e-05
143,143.25,0,0,0.0001741764829,7.580521715e-07,0.003175380425,1.070265226e-05
143.25,143.5,0,0,0.0001742325629,7.581741795e-07,0.00314897331,1.065805582e-05
143.5,143.75,0,0,0.0001750376291,7.599238861e-07,0.003155828364,1.066965182e-05
143.75,144,0,0,0.0001743974483,7.585326758e-07,0.003138945562,1.0641074e-05
144,144.25,0,0,0.0001745030772,7.587624698e-07,0.003143382264,1.064859073e-05
144.25,144.5,0,0,0.0001726093266,7.546341629e-07,0.003153879863,1.066635671e-05
144.5,144.75,0,0,0.0001750607254,7.599740253e-07,0.003142553472,1.064718839e-05
144.75,145,0,0,0.0001744965809,7.587485654e-07,0.003157379825,1.067227466e-05
145,145.25,0,0,0.0001746251925,7.59028005e-07,0.00315579196,1.066958976e-05
145.25,145.5,0,0,0.0001741698268,7.580375583e-07,0.003146124055,1.065323398e-05
145.5,145.75,0,0,0.000175400532,7.607112122e-07,0.00316870705,1.069140068e-05
145.75,146,0,0,0.0001749946714,7.598304817e-07,0.003170077596,1.069371209e-05
146,146.25,0,0,0.0001747374081,7.592719296e-07,0.003153591922,1.066587086e-05
146.25,146.5,0,0,0.0001738761758,7.573982322e-07,0.003166613812,1.068786728e-05
146.5,146.75,0,0,0.0001744041718,7.585475717e-07,0.003140424293,1.064357958e-05
146.75,147,0,0,0.0001750540841,7.599595144e-07,0.003179528911,1.070964112e-05
147,147.25,0,0,0.0001747341245,7.592648296e-07,0.003189413396,1.072627518e-05
147.25,147.5,0,0,0.0001757733357,7.61519174e-07,0.003186635495,1.072160275e-05
147.5,147.75,0,0,0.0001758030993,7.615837953e-07,0.003194102493,1.073415622e-05
147.75,148,0,0,0.000174691124,7.591711643e-07,0.003194390944,1.073464066e-05
148,148.25,0,0,0.000176608037,7.633251318e-07,0.003212356288,1.076478448e-05
148.25,148.5,0,0,0.000178102554,7.665479722e-07,0.003199117318,1.074258009e-05
148.5,148.75,0,0,0.0001757667201,7.615048096e-07,0.003220617217,1.07786168e-05
148.75,149,0,0,0.0001786074159,7.67633815e-07,0.003238870328,1.080911684e-05
149,149.25,0,0,0.0001780168541,7.66363702e-07,0.003235515389,1.080351718e-05
149.25,149.5,0,0,0.0001783632033,7.671086982e-07,0.003239988831,1.081098339e-05
149.5,149.75,0,0,0.0001786965026,7.678252462e-07,0.003250991928,1.082932554e-05
149.75,150,0,0,0.0001779607391,7.6624284e-07,0.003253299985,1.083316779e-05
150,150.25,0,0,0.0001799633046,7.705417913e-07,0.003257051965,1.083941329e-05
150.25,150.5,0,0,0.0001807650615,7.722563874e-07,0.003268811684,1.085896268e-05
150.5,150.75,0,0,0.0001829525135,7.769149785e-07,0.003298825793,1.090870201e-05
150.75,151,0,0,0.0001817317959,7.74318756e-07,0.003291935264,1.089730271e-05
151,151.25,0,0,0.0001827280872,7.764381546e-07,0.003309035204,1.092556989e-05
151.25,151.5,0,0,0.0001816458957,7.741354812e-07,0.003320000896,1.094365615e-05
151.5,151.75,0,0,0.000182615906,7.761997701e-07,0.003326061357,1.095364004e-05
151.75,152,0,0,0.0001853014489,7.818861893e-07,0.00332977659,1.095975517e-05
152,152.25,0,0,0.0001853245713,7.819350258e-07,0.003356976889,1.100442816e-05
152.25,152.5,0,0,0.0001864925009,7.843950438e-07,0.003369783082,1.102539745e-05
152.5,152.75,0,0,0.0001870831009,7.856361645e-07,0.003391571728,1.106098376e-05
152.75,153,0,0,0.0001866674531,7.847630714e-07,0.003408166255,1.108801108e-05
153,153.25,0,0,0.0001882510081,7.880845309e-07,0.003413252088,1.109627987e-05
153.25,153.5,0,0,0.0001888316567,7.892989471e-07,0.003422270801,1.111092987e-05
153.5,153.75,0,0,0.0001900326373,7.918050526e-07,0.003441462491,1.114204063e-05
153.75,154,0,0,0.0001917647326,7.954053711e-07,0.003458886194,1.117020977e-05
154,154.25,0,0,0.0001914182955,7.946865355e-07,0.00349377045,1.122639643e-05
154.25,154.5,0,0,0.0001907485645,7.93295148e-07,0.003494167324,1.122703418e-05
154.5,154.75,0,0,0.0001934604982,7.989143664e-07,0.003511914927,1.125550847e-05
154.75,155,0,0,0.0001939224027,7.998675498e-07,0.003553760612,1.132236491e-05
155,155.25,0,0,0.0001950639354,8.022182914e-07,0.003549684826,1.131587133e-05
155.25,155.5,0,0,0.0001963638178,8.04886734e-07,0.003548278123,1.131362926e-05
155.5,155.75,0,0,0.0001982740384,8.087920933e-07,0.003587128609,1.137539457e-05
155.75,156,0,0,0.0001978913758,8.080113519e-07,0.003632221823,1.144667009e-05
156,156.25,0,0,0.0001999269828,8.121564287e-07,0.00364376599,1.146484637e-05
156.25,156.5,0,0,0.0002006000041,8.135222152e-07,0.003658844422,1.148854211e-05
156.5,156.75,0,0,0.0002014974104,8.153398805e-07,0.003694954455,1.154509319e-05
156.75,157,0,0,0.0002033482771,8.19075949e-07,0.003718692116,1.15821195e-05
157,157.25,0,0,0.0002045393766,8.214714096e-07,0.003736043249,1.160910739e-05
157.25,157.5,0,0,0.0002059084742,8.242159093e-07,0.003732364078,1.160339049e-05
157.5,157.75,0,0,0.0002069279632,8.262538412e-07,0.003795492849,1.17011049e-05
157.75,158,0,0,0.0002094517748,8.312770367e-07,0.003809850712,1.172321618e-05
158,158.25,0,0,0.0002092902389,8.309566689e-07,0.003856637702,1.179497703e-05
158.25,158.5,0,0,0.0002119658522,8.362511767e-07,0.003874891914,1.182285862e-05
158.5,158.75,0,0,0.0002141863814,8.406202286e-07,0.003912553265,1.188017371e-05
158.75,159,0,0,0.0002165089773,8.451655108e-07,0.003934810347,1.191391512e-05
159,159.25,0,0,0.0002173107299,8.467289852e-07,0.00397261648,1.197101302e-05
159.25,159.5,0,0,0.0002179671792,8.480067059e-07,0.004013595964,1.203259584e-05
159.5,159.75,0,0,0.0002217579773,8.553488833e-07,0.004038523389,1.206990323e-05
159.75,160,0,0,0.0002222957953,8.563855417e-07,0.004097864479,1.215825301e-05
160,160.25,0,0,0.0002239091347,8.59487569e-07,0.004103709513,1.216692221e-05
160.25,160.5,0,0,0.0002257237408,8.62963282e-07,0.004140288032,1.222102504e-05
160.5,160.75,0,0,0.0002269049597,8.652184374e-07,0.004166838664,1.226014689e-05
160.75,161,0,0,0.000229560742,8.702668687e-07,0.004199233486,1.230771193e-05
161,161.25,0,0,0.0002315271429,8.739862989e-07,0.004292701342,1.244392945e-05
161.25,161.5,0,0,0.0002345458647,8.796652715e-07,0.004282528024,1.24291749e-05
161.5,161.75,0,0,0.00023601079,8.824081793e-07,0.004355794815,1.253504315e-05
161.75,162,0,0,0.0002382212299,8.865306576e-07,0.004392337033,1.258751129e-05
162,162.25,0,0,0.0002421176113,8.93751235e-07,0.004425381118,1.26347705e-05
162.25,162.5,0,0,0.0002434967262,8.962930735e-07,0.004501677866,1.274321896e-05
162.5,162.75,0,0,0.0002466474957,9.020732257e-07,0.004528084733,1.278054027e-05
162.75,163,0,0,0.0002484290169,9.053250145e-07,0.004592224217,1.287073646e-05
163,163.25,0,0,0.0002532854185,9.141307709e-07,0.004621984815,1.291237266e-05
163.25,163.5,0,0,0.000254766935,9.168005837e-07,0.004688938632,1.300555869e-05
163.5,163.75,0,0,0.0002566177133,9.201244367e-07,0.004733417301,1.306709519e-05
163.75,164,0,0,0.0002603359226,9.267662874e-07,0.004808632282,1.317050359e-05
164,164.25,0,0,0.0002617975667,9.293644052e-07,0.004865160392,1.324768871e-05
164.25,164.5,0,0,0.0002665286271,9.377240738e-07,0.004925223061,1.332920934e-05
164.5,164.75,0,0,0.0002702502228,9.442481969e-07,0.0050067869,1.34391225e-05
164.75,165,0,0,0.0002722166939,9.476775418e-07,0.0050246073,1.346301698e-05
165,165.25,0,0,0.0002746974936,9.519855364e-07,0.005089649013,1.354987169e-05
165.25,165.5,0,0,0.0002762910674,9.547429023e-07,0.005152561703,1.363335587e-05
165.5,165.75,0,0,0.0002799599119,9.610610329e-07,0.005204940481,1.370247313e-05
165.75,166,0,0,0.0002828927763,9.660816101e-07,0.00530345908,1.383154173e-05
166,166.25,0,0,0.000284219176,9.683439415e-07,0.005364568662,1.391099889e-05
166.25,166.5,0,0,0.0002842818407,9.684506477e-07,0.005443607014,1.40130996e-05
166.5,166.75,0,0,0.000286908031,9.729135511e-07,0.005508432679,1.409628903e-05
166.75,167,0,0,0.0002900786427,9.782745796e-07,0.005586928698,1.419636658e-05
167,167.25,0,0,0.0002900423019,9.782132298e-07,0.005623725427,1.424304012e-05
167.25,167.5,0,0,0.0002940508649,9.849496521e-07,0.005708462306,1.434993945e-05
167.5,167.75,0,0,0.000294971271,9.864897812e-07,0.005790422539,1.445258509e-05
167.75,168,0,0,0.0002966505591,9.892937809e-07,0.005874835797,1.455754607e-05
168,168.25,0,0,0.0002951660282,9.868155647e-07,0.005934827546,1.463168386e-05
168.25,168.5,0,0,0.0002971488622,9.901245068e-07,0.005997380223,1.470858808e-05
168.5,168.75,0,0,0.0002989864889,9.931812136e-07,0.00610221164,1.483657692e-05
168.75,169,0,0,0.0003016555573,9.976043621e-07,0.006158991632,1.490544007e-05
169,169.25,0,0,0.0003004579908,9.956222858e-07,0.006213571325,1.497133616e-05
169.25,169.5,0,0,0.000302447393,9.989128539e-07,0.006336187009,1.511832813e-05
169.5,169.75,0,0,0.0003015732334,9.974684832e-07,0.006383010517,1.517408385e-05
169.75,170,0,0,0.0003019392897,9.980734001e-07,0.006441630945,1.524360034e-05
170,170.25,0,0,0.0002995440941,9.941069622e-07,0.006521895839,1.533827345e-05
170.25,170.5,0,0,0.0003007911567,9.961740354e-07,0.006604000434,1.543451526e-05
170.5,170.75,0,0,0.00029915139,9.934549632e-07,0.006683652596,1.552731308e-05
170.75,171,0,0,0.0002979339945,9.914315474e-07,0.006730331315,1.558143707e-05
171,171.25,0,0,0.0002960205204,9.88242883e-07,0.006834585796,1.570164949e-05
171.25,171.5,0,0,0.0002953111821,9.870581517e-07,0.006897895627,1.577420248e-05
171.5,171.75,0,0,0.0002940476206,9.84944317e-07,0.006942734721,1.582538575e-05
171.75,172,0,0,0.0002907450139,9.793974521e-07,0.006988512963,1.587747227e-05
172,172.25,0,0,0.000285885288,9.711779895e-07,0.007052580961,1.595008336e-05
172.25,172.5,0,0,0.0002856740126,9.708188605e-07,0.007029420886,1.592387282e-05
172.5,172.75,0,0,0.0002800687192,9.612476513e-07,0.007046809549,1.59435564e-05
172.75,173,0,0,0.0002748295883,9.522146128e-07,0.007020221909,1.591345038e-05
173,173.25,0,0,0.0002687820113,9.416797046e-07,0.006948471305,1.583192314e-05
173.25,173.5,0,0,0.0002612002933,9.283034684e-07,0.006814168589,1.567818063e-05
173.5,173.75,0,0,0.0002530083696,9.136308471e-07,0.006624923311,1.545894502e-05
173.75,174,0,0,0.0002405604533,8.908727437e-07,0.006332578847,1.511402219e-05
174,174.25,0,0,0.0002306427959,8.723152868e-07,0.005915491471,1.460782931e-05
174.25,174.5,0,0,0.000217973751,8.480194405e-07,0.005344763977,1.388529788e-05
174.5,174.75,0,0,0.000199824757,8.119488742e-07,0.00466960328,1.297871723e-05
174.75,175,0,0,0.0001833252403,7.777057815e-07,0.003921716508,1.189407762e-05
175,175.25,0,0,0.0001601382697,7.268622665e-07,0.003078052604,1.053735625e-05
175.25,175.5,0,0,0.0001312402392,6.580189218e-07,0.0022877427,9.084440054e-06
175.5,175.75,0,0,9.825110882e-05,5.69342804e-07,0.001541587745,7.457265752e-06
175.75,176,0,0,6.403811844e-05,4.59647556e-07,0.0009380692036,5.817195561e-06
176,176.25,0,0,4.093360925e-05,3.674904881e-07,0.0005271137955,4.360626639e-06
176.25,176.5,0,0,2.257336643e-05,2.729005973e-07,0.000260923322,3.067985719e-06
176.5,176.75,0,0,1.269213864e-05,2.046319921e-07,0.0001144268801,2.031708091e-06
176.75,177,0,0,5.351356435e-06,1.328734978e-07,3.921247787e-05,1.189349367e-06
177,177.25,0,0,1.26030814e-06,6.448296836e-08,7.900218372e-06,5.338472465e-07
177.25,177.5,0,0,4.289074881e-08,1.189575282e-08,2.164386328e-07,8.836069749e-08
177.5,177.75,0,0,0,0,0,0
177.75,178,0,0,0,0,0,0
178,178.25,0,0,0,0,0,0
178.25,178.5,0,0,0,0,0,0
178.5,178.75,0,0,0,0,0,0
178.75,179,0,0,0,0,0,0
179,179.25,0,0,0,0,0,0
179.25,179.5,0,0,0,0,0,0
179.5,179.75,0,0,0,0,0,0
179.75,180,0,0,0,0,0,0
