# xl,xh,LO,dLO,CS+LOnovp,dCS+LOnovp,CS+LO,dCS+LO
0,10,0,0,0,0,0,0
10,20,0,0,0,0,0,0
20,30,0,0,0,0,0,0
30,40,0,0,0,0,0,0
40,50,0,0,0,0,0,0
50,60,0,0,0,0,0,0
60,70,0,0,0,0,0,0
70,80,0,0,0,0,0,0
80,90,0,0,0,0,0,0
90,100,0,0,0,0,0,0
100,110,0,0,0,0,0,0
110,120,0,0,0,0,0,0
120,130,0,0,0,0,0,0
130,140,0.1419149024,1.684911871e-05,0.002853351858,4.83491114e-07,0.092192599,9.025745791e-06
140,150,0,0,0.0006912596375,2.38584918e-07,0.02232646642,4.47622812e-06
150,160,0,0,0.0002281857823,1.371525911e-07,0.00735214333,2.572907261e-06
160,170,0,0,0.0002159060253,1.334130736e-07,0.006896502807,2.49203029e-06
170,180,0,0,0.0001921084117,1.258494728e-07,0.006227248602,2.368202647e-06
180,190,0,0,0.0001638664555,1.162352055e-07,0.005300184891,2.185045318e-06
190,200,0,0,0.0001329525451,1.047024431e-07,0.004312145172,1.971100156e-06
200,210,0,0,0.0001105597371,9.548132983e-08,0.003586296854,1.797710238e-06
210,220,0,0,9.319216618e-05,8.766345523e-08,0.003035320177,1.653960249e-06
220,230,0,0,7.921033774e-05,8.082151202e-08,0.002587214056,1.527074886e-06
230,240,0,0,6.720038107e-05,7.444371802e-08,0.002204795041,1.409764183e-06
240,250,0,0,5.590247182e-05,6.789901012e-08,0.00185379026,1.292734596e-06
250,260,0,0,4.402531644e-05,6.025669207e-08,0.00148891226,1.158593256e-06
260,270,0,0,3.022436678e-05,4.992748484e-08,0.001076609572,9.852471559e-07
270,280,0,0,1.906305595e-05,3.965181183e-08,0.0006913334837,7.895473798e-07
280,290,0,0,1.078032964e-05,2.98185861e-08,0.0003724066201,5.795064493e-07
290,300,0,0,5.472850951e-06,2.124616334e-08,0.0001838630218,4.071981205e-07
300,310,0,0,3.735310706e-06,1.755246134e-08,0.0001277877327,3.3947344e-07
310,320,0,0,2.85400194e-06,1.534271374e-08,0.0001018036386,3.030010696e-07
320,330,0,0,2.130481006e-06,1.325605665e-08,7.85493982e-05,2.661552349e-07
330,340,0,0,1.505606269e-06,1.114375615e-08,5.786094789e-05,2.2843222e-07
340,350,0,0,1.034145365e-06,9.23563815e-09,3.827275111e-05,1.857848877e-07
350,360,0,0,6.232251305e-07,7.16966132e-09,2.220898471e-05,1.41524194e-07
360,370,0,0,3.104578754e-07,5.060316678e-09,9.900517262e-06,9.449216045e-08
370,380,0,0,7.852178369e-08,2.544905268e-09,2.289801348e-06,4.544292995e-08
380,390,0,0,6.598336016e-10,2.332863958e-10,9.018484348e-09,2.851895018e-09
390,400,0,0,0,0,0,0
400,410,0,0,0,0,0,0
410,420,0,0,0,0,0,0
420,430,0,0,0,0,0,0
430,440,0,0,0,0,0,0
440,450,0,0,0,0,0,0
450,460,0,0,0,0,0,0
460,470,0,0,0,0,0,0
470,480,0,0,0,0,0,0
480,490,0,0,0,0,0,0
490,500,0,0,0,0,0,0
