# xl,xh,LO,dLO,CS+LOnovp,dCS+LOnovp,CS+LO,dCS+LO
215,225.1,0,0,0,0,0,0
225.1,235.2,0,0,0,0,0,0
235.2,245.3,0,0,0,0,0,0
245.3,255.4,0,0,0,0,0,0
255.4,265.5,0,0,0,0,0,0
265.5,275.6,0,0,0,0,0,0
275.6,285.7,1.171461335e-06,4.898125052e-08,7.859365879e-07,8.011415853e-09,1.084005713e-06,3.111158637e-08
285.7,295.8,8.857617402e-06,1.346862894e-07,5.692649372e-06,2.15610625e-08,8.137193255e-06,8.524001805e-08
295.8,305.9,1.664822588e-05,1.84649668e-07,1.053207174e-05,2.932698123e-08,1.540557184e-05,1.172856149e-07
305.9,316,2.34312467e-05,2.19059551e-07,1.447506171e-05,3.438100515e-08,2.165692136e-05,1.390605596e-07
316,326.1,2.996233443e-05,2.477147919e-07,1.780410664e-05,3.812999748e-08,2.78904058e-05,1.578093448e-07
326.1,336.2,3.574999481e-05,2.705837932e-07,2.05329965e-05,4.094787973e-08,3.30157731e-05,1.716982124e-07
336.2,346.3,4.170562724e-05,2.922543411e-07,2.30377208e-05,4.337342577e-08,3.845454842e-05,1.853013464e-07
346.3,356.4,4.666585246e-05,3.091453802e-07,2.527695307e-05,4.543234646e-08,4.428264507e-05,1.988479935e-07
356.4,366.5,5.194974376e-05,3.261780691e-07,2.734461125e-05,4.725389692e-08,4.859636382e-05,2.083081148e-07
366.5,376.6,5.931229165e-05,3.485257666e-07,2.933124975e-05,4.894022455e-08,5.461644625e-05,2.208339029e-07
376.6,386.7,6.438314676e-05,3.631184851e-07,3.109789651e-05,5.039243009e-08,6.055436258e-05,2.325286226e-07
386.7,396.8,7.11252063e-05,3.816574706e-07,3.286731919e-05,5.180611807e-08,6.657265776e-05,2.438099222e-07
396.8,406.9,7.729792122e-05,3.978740856e-07,3.474518587e-05,5.32654063e-08,7.300436683e-05,2.553157014e-07
406.9,417,8.569466408e-05,4.189266566e-07,3.649982049e-05,5.459367923e-08,8.087100889e-05,2.687194901e-07
417,427.1,9.418164795e-05,4.391813996e-07,3.825397423e-05,5.589003821e-08,8.836172342e-05,2.808888208e-07
427.1,437.2,0.0001034693333,4.603266333e-07,4.019496485e-05,5.729027749e-08,9.660250465e-05,2.936947508e-07
437.2,447.3,0.0001135802871,4.822932113e-07,4.204212801e-05,5.859175278e-08,0.0001068014444,3.088090685e-07
447.3,457.4,0.0001239370726,5.038019049e-07,4.42219887e-05,6.0091375e-08,0.0001184129939,3.25162609e-07
457.4,467.5,0.0001376240015,5.308914851e-07,4.670343818e-05,6.175415055e-08,0.0001316095017,3.428024703e-07
467.5,477.6,0.0001544421254,5.623938321e-07,4.948132629e-05,6.356396017e-08,0.0001466748398,3.618906452e-07
477.6,487.7,0.000171987425,5.934787382e-07,5.241421547e-05,6.542041767e-08,0.0001650136967,3.838474926e-07
487.7,497.8,0.0001946363473,6.313463492e-07,5.585579593e-05,6.753379117e-08,0.0001857482148,4.072489936e-07
497.8,507.9,0.0002168019413,6.663251098e-07,5.954537965e-05,6.972830626e-08,0.0002109857691,4.340333343e-07
507.9,518,0.0002482818152,7.130589373e-07,6.403495395e-05,7.230882752e-08,0.0002435220031,4.662984882e-07
518,528.1,0.000278907715,7.557561535e-07,6.903256636e-05,7.507705302e-08,0.0002797808564,4.998067895e-07
528.1,538.2,0.00032170493,8.11667451e-07,7.474783188e-05,7.812257245e-08,0.0003248529025,5.385603738e-07
538.2,548.3,0.0003682949157,8.684497692e-07,8.065598788e-05,8.115073789e-08,0.0003783263861,5.811948518e-07
548.3,558.4,0.0004271813117,9.352980145e-07,8.732077169e-05,8.443636165e-08,0.0004400620907,6.268194352e-07
558.4,568.5,0.0004972682956,1.009103624e-06,9.449293137e-05,8.78348129e-08,0.0005176310922,6.798168566e-07
568.5,578.6,0.0005818978852,1.091589618e-06,0.0001025472211,9.150077726e-08,0.0006129548938,7.39760973e-07
578.6,588.7,0.0006864340841,1.18557779e-06,0.0001113690934,9.535437914e-08,0.0007256201338,8.048712128e-07
588.7,598.8,0.0008177810489,1.29402458e-06,0.0001214189287,9.956261267e-08,0.0008654231346,8.789805832e-07
598.8,608.9,0.0009832354765,1.418875841e-06,0.0001327923899,1.041199151e-07,0.001044524382,9.656409984e-07
608.9,619,0.001192082882,1.56227764e-06,0.0001461567405,1.092319599e-07,0.001270241613,1.064850739e-06
619,629.1,0.001456185464,1.726632404e-06,0.000159763791,1.142016648e-07,0.001549701913,1.176132394e-06
629.1,639.2,0.00178230601,1.910144029e-06,0.0001741313064,1.192241552e-07,0.001886000205,1.297438608e-06
639.2,649.3,0.002148976947,2.097356304e-06,0.0001862481402,1.233006927e-07,0.002270373517,1.423462826e-06
649.3,659.4,0.002573858283,2.29523433e-06,0.0001972658926,1.268936455e-07,0.002712143706,1.555724073e-06
659.4,669.5,0.00306769811,2.505624041e-06,0.0002074852538,1.301374178e-07,0.003240217488,1.700348358e-06
669.5,679.6,0.003654264989,2.734511446e-06,0.0002175101915,1.332426276e-07,0.00387006648,1.858145609e-06
679.6,689.7,0.004378198345,2.992889024e-06,0.0002279408382,1.363983321e-07,0.004643197212,2.03512879e-06
689.7,699.8,0.005253505821,3.278105754e-06,0.0002388852417,1.396326544e-07,0.005583181863,2.231408021e-06
699.8,709.9,0.006305132525,3.59080594e-06,0.0002506199867,1.430191246e-07,0.006705804723,2.445172598e-06
709.9,720,0.007522878614,3.921704217e-06,0.0002630171711,1.465115595e-07,0.008011015882,2.672175822e-06
720,730.1,0.008898047565,4.264421717e-06,0.0002760725893,1.50101397e-07,0.009478667201,2.906191276e-06
730.1,740.2,0.01033898561,4.595982078e-06,0.0002903386725,1.539281856e-07,0.01101789597,3.13275e-06
740.2,750.3,0.01173366293,4.895364937e-06,0.0003053296977,1.578492324e-07,0.0125018549,3.336507639e-06
750.3,760.4,0.01291811518,5.135792419e-06,0.000321521822,1.619775375e-07,0.01379128166,3.503846338e-06
760.4,770.5,0.01390633928,5.327996147e-06,0.0003393042031,1.663929725e-07,0.0148257499,3.632462971e-06
770.5,780.6,0.01478183134,5.492587182e-06,0.0003578972744,1.708873595e-07,0.01576762062,3.745678658e-06
780.6,790.7,0.01184096264,4.917635295e-06,0.0003783733517,1.757035016e-07,0.01262448051,3.35278528e-06
790.7,800.8,0.01117138553,4.776947441e-06,0.0004005180823,1.807672509e-07,0.01191285594,3.25717598e-06
800.8,810.9,0.01085276226,4.708508034e-06,0.0004242893822,1.860490521e-07,0.01156409428,3.209267361e-06
810.9,821,0.01021982693,4.56948457e-06,0.0004505336507,1.917107273e-07,0.01088223251,3.113450312e-06
821,831.1,0.009518544315,4.410282801e-06,0.0004800363235,1.978812188e-07,0.01012087689,3.002815802e-06
831.1,841.2,0.008839064896,4.250293767e-06,0.0005121065067,2.043765512e-07,0.00938452554,2.89175336e-06
841.2,851.3,0.008224592763,4.100192707e-06,0.0005478289741,2.113756363e-07,0.008725054888,2.788501847e-06
851.3,861.4,0.007691259618,3.965271918e-06,0.0005880268183,2.189828936e-07,0.008144034251,2.694229723e-06
861.4,871.5,0.007249771295,3.849983664e-06,0.0006323006529,2.270651616e-07,0.007659652284,2.613019713e-06
871.5,881.6,0.006891552439,3.753820524e-06,0.0006837716962,2.36111741e-07,0.007268672759,2.545566958e-06
881.6,891.7,0.006617210089,3.678463153e-06,0.0007416072834,2.458776556e-07,0.006945562216,2.4884346e-06
891.7,901.8,0.006421260612,3.623673527e-06,0.0008086159686,2.567252095e-07,0.006709852602,2.445909442e-06
901.8,911.9,0.006301073505,3.589651691e-06,0.0008852453474,2.685897806e-07,0.006542494861,2.415258535e-06
911.9,922,0.006265073535,3.579397691e-06,0.000973533202,2.816354312e-07,0.006439242677,2.396151624e-06
922,932.1,0.006317356976,3.594280053e-06,0.001077855717,2.963044305e-07,0.006399376417,2.388733204e-06
932.1,942.2,0.006473439605,3.638344379e-06,0.001204642428,3.131995775e-07,0.006458881733,2.39979766e-06
942.2,952.3,0.006750268913,3.715204364e-06,0.001361405394,3.328928873e-07,0.006618822734,2.429285935e-06
952.3,962.4,0.007225471343,3.843536837e-06,0.001564242194,3.567447075e-07,0.006911554353,2.48234435e-06
962.4,972.5,0.007950787232,4.031494709e-06,0.001833903717,3.861480095e-07,0.007400281445,2.568471494e-06
972.5,982.6,0.009129156921,4.319329554e-06,0.002214300142,4.241174391e-07,0.008173209542,2.699042587e-06
982.6,992.7,0.01114313741,4.770919913e-06,0.002779414121,4.748435652e-07,0.009412962467,2.896122218e-06
992.7,1002.8,0.0100087894,4.522170762e-06,0.002381019081,4.397062603e-07,0.007504517591,2.586467365e-06
1002.8,1012.9,0,0,0,0,0,0
1012.9,1023,0,0,0,0,0,0
