# xl,xh,LO,dLO,CS+LOnovp,dCS+LOnovp,CS+LO,dCS+LO
50,51,0.01243466064,1.603543034e-05,0.0009024115445,8.626461497e-07,0.01493343053,1.160315312e-05
51,52,0.01337915526,1.663310369e-05,0.0009595667382,8.895391142e-07,0.01593581031,1.198611753e-05
52,53,0.01424733915,1.716411598e-05,0.001016433168,9.155118279e-07,0.01690772594,1.234608973e-05
53,54,0.01517493208,1.771386302e-05,0.001073495845,9.408530439e-07,0.01793378958,1.271504771e-05
54,55,0.01614209095,1.826942517e-05,0.001128811643,9.647827249e-07,0.01891539911,1.305825149e-05
55,56,0.01704610596,1.877383869e-05,0.001186938319,9.893042268e-07,0.01993155036,1.340426415e-05
56,57,0.01805833768,1.932298623e-05,0.001244292994,1.012917729e-06,0.02101498014,1.37635915e-05
57,58,0.01899857034,1.981942789e-05,0.001301032397,1.03574774e-06,0.02202915621,1.409163487e-05
58,59,0.01997764324,2.032346754e-05,0.001360442601,1.059124519e-06,0.0230985981,1.44294632e-05
59,60,0.0209904572,2.08320274e-05,0.001417320517,1.081030693e-06,0.0241636109,1.475819359e-05
60,61,0.02195952472,2.130724022e-05,0.001475283136,1.102906536e-06,0.02525603218,1.50879297e-05
61,62,0.02297403694,2.179361668e-05,0.001541773422,1.127477523e-06,0.02636496579,1.541542173e-05
62,63,0.02405700783,2.230108259e-05,0.001605131958,1.150402319e-06,0.02749062985,1.57408724e-05
63,64,0.02508502524,2.277231777e-05,0.001668016159,1.172711755e-06,0.02857383239,1.604780106e-05
64,65,0.02612576451,2.323963165e-05,0.001727383407,1.193390238e-06,0.02969957588,1.636066847e-05
65,66,0.02710668081,2.367161883e-05,0.001784540187,1.21296524e-06,0.03077353723,1.665365351e-05
66,67,0.02815081401,2.412292863e-05,0.001844762834,1.233253569e-06,0.03184242806,1.69402108e-05
67,68,0.02914982782,2.454694771e-05,0.001897175291,1.250642415e-06,0.03288869227,1.721607098e-05
68,69,0.03007584997,2.493353227e-05,0.001949453266,1.267748648e-06,0.03394479536,1.749010056e-05
69,70,0.03105718013,2.533675007e-05,0.002002961084,1.285021098e-06,0.03492750678,1.774127501e-05
70,71,0.0319698345,2.570605763e-05,0.002050311823,1.300114343e-06,0.03597137125,1.800423006e-05
71,72,0.03284329658,2.605459164e-05,0.002098902099,1.315422276e-06,0.03690094359,1.823519276e-05
72,73,0.03370405369,2.639353866e-05,0.002139831324,1.328179421e-06,0.03787435719,1.847394418e-05
73,74,0.03455831861,2.672566705e-05,0.002186485062,1.342572824e-06,0.03873181883,1.868171987e-05
74,75,0.0353832538,2.704250998e-05,0.002223494353,1.353881741e-06,0.03965094937,1.89018943e-05
75,76,0.03616832642,2.734062018e-05,0.002263593203,1.366028769e-06,0.04048475531,1.909942619e-05
76,77,0.03689461317,2.761353316e-05,0.00230049267,1.377111775e-06,0.04126198742,1.928172684e-05
77,78,0.03759785751,2.787523289e-05,0.002331855167,1.386461905e-06,0.04200247989,1.945381577e-05
78,79,0.03821298533,2.810213732e-05,0.002366054304,1.396586264e-06,0.04271756613,1.961856214e-05
79,80,0.03878876532,2.831287192e-05,0.002392726076,1.404431406e-06,0.04333310662,1.975927051e-05
80,81,0.03936424245,2.852193679e-05,0.002419807814,1.41235245e-06,0.04394249545,1.989758861e-05
81,82,0.03986926243,2.870414503e-05,0.002445460293,1.419814654e-06,0.04447324427,2.001727571e-05
82,83,0.04030978718,2.886214133e-05,0.002463483113,1.425033945e-06,0.04493453147,2.012071787e-05
83,84,0.04066188438,2.898780056e-05,0.002482913153,1.430639427e-06,0.04529749049,2.020173679e-05
84,85,0.04090133895,2.907295021e-05,0.002499038144,1.435274736e-06,0.04566395756,2.028320879e-05
85,86,0.04127575196,2.920558692e-05,0.002510485612,1.438556333e-06,0.04599329577,2.035614751e-05
86,87,0.04144106588,2.926395795e-05,0.002522945925,1.44211978e-06,0.04616887722,2.039492654e-05
87,88,0.04157824532,2.931230571e-05,0.002529914786,1.444108941e-06,0.04642931318,2.045231035e-05
88,89,0.04168702965,2.935059047e-05,0.002536888565,1.446096748e-06,0.04648177453,2.046385007e-05
89,90,0.04180192888,2.939097038e-05,0.002542182899,1.447603979e-06,0.04654433538,2.047760281e-05
90,91,0.04176173639,2.937685034e-05,0.00253881052,1.44664415e-06,0.0465884812,2.04873018e-05
91,92,0.0417040495,2.935657452e-05,0.00253599945,1.445843477e-06,0.04649567139,2.046690583e-05
92,93,0.04164803825,2.9336874e-05,0.002530425456,1.444254628e-06,0.04639143647,2.044397478e-05
93,94,0.04148198124,2.927838732e-05,0.002524269757,1.442497849e-06,0.04623221379,2.040889677e-05
94,95,0.04117662866,2.917053038e-05,0.002512037926,1.439000769e-06,0.04597830623,2.035283326e-05
95,96,0.04091688792,2.907846883e-05,0.002500841158,1.435792097e-06,0.0456960904,2.029033688e-05
96,97,0.04064976809,2.898348736e-05,0.002485978286,1.431521731e-06,0.04535740073,2.021507843e-05
97,98,0.04027797421,2.885076012e-05,0.002463961485,1.425172218e-06,0.04494380305,2.012279168e-05
98,99,0.03985306778,2.86983208e-05,0.002443247998,1.419172609e-06,0.04450080412,2.002347073e-05
99,100,0.03937273932,2.85250105e-05,0.002419085981,1.412141872e-06,0.04396267022,1.990215128e-05
100,101,0.03884461308,2.833322804e-05,0.002394591818,1.40497855e-06,0.04332682143,1.975783905e-05
101,102,0.0382331705,2.810955046e-05,0.002364576299,1.396150256e-06,0.0426657013,1.960666005e-05
102,103,0.03758269406,2.78696158e-05,0.002334142371,1.387141332e-06,0.0419937052,1.945178562e-05
103,104,0.03687171619,2.760497076e-05,0.002302064778,1.377581995e-06,0.04127865542,1.928561767e-05
104,105,0.03613998993,2.732991794e-05,0.002262173671,1.365600584e-06,0.040494757,1.910178331e-05
105,106,0.03538554891,2.704338577e-05,0.002225918353,1.354619087e-06,0.03964425757,1.890030057e-05
106,107,0.03458713556,2.673679995e-05,0.00218555387,1.34228706e-06,0.0387853976,1.869462576e-05
107,108,0.03374337994,2.640892209e-05,0.002141047108,1.328556492e-06,0.03786933295,1.847271962e-05
108,109,0.03284046236,2.605346817e-05,0.002095625035,1.314395444e-06,0.03691714999,1.823919342e-05
109,110,0.03198557433,2.571237952e-05,0.002052629367,1.300848512e-06,0.03595674274,1.800057157e-05
110,111,0.03107883879,2.534557771e-05,0.00200157704,1.284577252e-06,0.03497095701,1.7752298e-05
111,112,0.03008683143,2.493807955e-05,0.001951456032,1.268399433e-06,0.03395464306,1.749263536e-05
112,113,0.02909217977,2.452267971e-05,0.001898076857,1.25093943e-06,0.0329130334,1.722243609e-05
113,114,0.02815122834,2.412310629e-05,0.001843231162,1.232741705e-06,0.0318412561,1.693989933e-05
114,115,0.02715113759,2.369101241e-05,0.001786912476,1.213770903e-06,0.03076107366,1.665028306e-05
115,116,0.02608948284,2.322349904e-05,0.001728653685,1.193828802e-06,0.029681494,1.63556906e-05
116,117,0.02507854933,2.276937929e-05,0.001668657942,1.172937276e-06,0.028608644,1.605756757e-05
117,118,0.02404861635,2.229719795e-05,0.001606837663,1.151013157e-06,0.02748500114,1.57392615e-05
118,119,0.02301298424,2.181207084e-05,0.001541161344,1.127253758e-06,0.02633345526,1.540621242e-05
119,120,0.02197741627,2.131591375e-05,0.001478945397,1.104274187e-06,0.02525025085,1.50862034e-05
120,121,0.02099957825,2.08365503e-05,0.001420727044,1.082328633e-06,0.024162925,1.475798402e-05
121,122,0.01997923715,2.032427855e-05,0.001361889329,1.059687339e-06,0.02308930879,1.442656288e-05
122,123,0.01902028614,1.983074506e-05,0.001302300178,1.036252123e-06,0.02205409145,1.40996039e-05
123,124,0.018066569,1.932738724e-05,0.001243497905,1.012594166e-06,0.02100377895,1.375992449e-05
124,125,0.01708643987,1.879602698e-05,0.001188429643,9.899253964e-07,0.01997065453,1.341740088e-05
125,126,0.01612254483,1.825836545e-05,0.001130220255,9.653842699e-07,0.01893279604,1.306425275e-05
126,127,0.01515912787,1.770463905e-05,0.001074256149,9.411860021e-07,0.0179254376,1.271208746e-05
127,128,0.01422607548,1.715130727e-05,0.001017204295,9.158589279e-07,0.01694139264,1.235837109e-05
128,129,0.01332330311,1.659835817e-05,0.000961907512,8.906231712e-07,0.01591789986,1.197938241e-05
129,130,0.01242340829,1.602817558e-05,0.0009028395576,8.628506317e-07,0.01493201457,1.160260322e-05
