# xl,xh,LO,dLO,LOISC,dLOISC,NLO,dNLO,NLOISC,dNLOISC,NLOL,dNLOL,NLOnovp,dNLOnovp
2.700000000000000000e+02,2.800000000000000000e+02,0.000000000000000000e+00,0.000000000000000000e+00,0.000000000000000000e+00,0.000000000000000000e+00,0.000000000000000000e+00,0.000000000000000000e+00,0.000000000000000000e+00,0.000000000000000000e+00,0.000000000000000000e+00,0.000000000000000000e+00,0.000000000000000000e+00,0.000000000000000000e+00
2.800000000000000000e+02,2.900000000000000000e+02,0.000000000000000000e+00,0.000000000000000000e+00,0.000000000000000000e+00,0.000000000000000000e+00,0.000000000000000000e+00,0.000000000000000000e+00,0.000000000000000000e+00,0.000000000000000000e+00,0.000000000000000000e+00,0.000000000000000000e+00,0.000000000000000000e+00,0.000000000000000000e+00
2.900000000000000000e+02,3.000000000000000000e+02,0.000000000000000000e+00,0.000000000000000000e+00,0.000000000000000000e+00,0.000000000000000000e+00,0.000000000000000000e+00,0.000000000000000000e+00,0.000000000000000000e+00,0.000000000000000000e+00,0.000000000000000000e+00,0.000000000000000000e+00,0.000000000000000000e+00,0.000000000000000000e+00
3.000000000000000000e+02,3.100000000000000000e+02,0.000000000000000000e+00,0.000000000000000000e+00,0.000000000000000000e+00,0.000000000000000000e+00,0.000000000000000000e+00,0.000000000000000000e+00,0.000000000000000000e+00,0.000000000000000000e+00,0.000000000000000000e+00,0.000000000000000000e+00,0.000000000000000000e+00,0.000000000000000000e+00
3.100000000000000000e+02,3.200000000000000000e+02,0.000000000000000000e+00,0.000000000000000000e+00,0.000000000000000000e+00,0.000000000000000000e+00,0.000000000000000000e+00,0.000000000000000000e+00,0.000000000000000000e+00,0.000000000000000000e+00,0.000000000000000000e+00,0.000000000000000000e+00,0.000000000000000000e+00,0.000000000000000000e+00
3.200000000000000000e+02,3.300000000000000000e+02,0.000000000000000000e+00,0.000000000000000000e+00,0.000000000000000000e+00,0.000000000000000000e+00,1.116898583116889379e-07,3.034552882524533514e-08,1.116898583116889379e-07,3.034552882524533514e-08,1.116898583116889379e-07,3.034552882524533514e-08,1.116898583116889379e-07,3.034552882524533514e-08
3.300000000000000000e+02,3.400000000000000000e+02,0.000000000000000000e+00,0.000000000000000000e+00,0.000000000000000000e+00,0.000000000000000000e+00,3.139088647404790424e-06,3.615484902983480658e-07,3.139088647404790424e-06,3.615484902983480658e-07,3.139088647404790424e-06,3.615484902983480658e-07,3.139088647404790424e-06,3.615484902983480658e-07
3.400000000000000000e+02,3.500000000000000000e+02,0.000000000000000000e+00,0.000000000000000000e+00,0.000000000000000000e+00,0.000000000000000000e+00,6.123565336906289416e-06,3.762055406534463460e-07,6.123565336906289416e-06,3.762055406534463460e-07,6.123565336906289416e-06,3.762055406534463460e-07,6.123565336906289416e-06,3.762055406534463460e-07
3.500000000000000000e+02,3.600000000000000000e+02,0.000000000000000000e+00,0.000000000000000000e+00,0.000000000000000000e+00,0.000000000000000000e+00,8.362124414943224334e-06,4.053501225484417425e-07,8.362124414943224334e-06,4.053501225484417425e-07,8.362124414943224334e-06,4.053501225484417425e-07,8.362124414943224334e-06,4.053501225484417425e-07
3.600000000000000000e+02,3.700000000000000000e+02,0.000000000000000000e+00,0.000000000000000000e+00,0.000000000000000000e+00,0.000000000000000000e+00,1.329045631669622592e-05,6.436156062257157890e-07,1.329045631669622592e-05,6.436156062257157890e-07,1.329045631669622592e-05,6.436156062257157890e-07,1.329045631669622592e-05,6.436156062257157890e-07
3.700000000000000000e+02,3.800000000000000000e+02,0.000000000000000000e+00,0.000000000000000000e+00,0.000000000000000000e+00,0.000000000000000000e+00,1.738612058077753641e-05,8.248080737698017370e-07,1.738612058077753641e-05,8.248080737698017370e-07,1.738612058077753641e-05,8.248080737698017370e-07,1.738612058077753641e-05,8.248080737698017370e-07
3.800000000000000000e+02,3.900000000000000000e+02,0.000000000000000000e+00,0.000000000000000000e+00,0.000000000000000000e+00,0.000000000000000000e+00,2.179029991312160977e-05,7.783621241937623519e-07,2.179029991312160977e-05,7.783621241937623519e-07,2.179029991312160977e-05,7.783621241937623519e-07,2.179029991312160977e-05,7.783621241937623519e-07
3.900000000000000000e+02,4.000000000000000000e+02,0.000000000000000000e+00,0.000000000000000000e+00,0.000000000000000000e+00,0.000000000000000000e+00,2.716219618136859673e-05,9.230195255001644719e-07,2.716219618136859673e-05,9.230195255001644719e-07,2.716219618136859673e-05,9.230195255001644719e-07,2.716219618136859673e-05,9.230195255001644719e-07
4.000000000000000000e+02,4.100000000000000000e+02,0.000000000000000000e+00,0.000000000000000000e+00,0.000000000000000000e+00,0.000000000000000000e+00,3.428191034267604408e-05,1.031795748081147923e-06,3.428191034267604408e-05,1.031795748081147923e-06,3.428191034267604408e-05,1.031795748081147923e-06,3.428191034267604408e-05,1.031795748081147923e-06
4.100000000000000000e+02,4.200000000000000000e+02,0.000000000000000000e+00,0.000000000000000000e+00,0.000000000000000000e+00,0.000000000000000000e+00,4.262319797918296928e-05,1.019188597323768764e-06,4.262319797918296928e-05,1.019188597323768764e-06,4.262319797918296928e-05,1.019188597323768764e-06,4.262319797918296928e-05,1.019188597323768764e-06
4.200000000000000000e+02,4.300000000000000000e+02,0.000000000000000000e+00,0.000000000000000000e+00,0.000000000000000000e+00,0.000000000000000000e+00,5.278828578368835711e-05,1.044978166375388216e-06,5.278828578368835711e-05,1.044978166375388216e-06,5.278828578368835711e-05,1.044978166375388216e-06,5.278828578368835711e-05,1.044978166375388216e-06
4.300000000000000000e+02,4.400000000000000000e+02,0.000000000000000000e+00,0.000000000000000000e+00,0.000000000000000000e+00,0.000000000000000000e+00,6.516201057546516979e-05,1.188824037568444241e-06,6.516201057546516979e-05,1.188824037568444241e-06,6.516201057546516979e-05,1.188824037568444241e-06,6.516201057546516979e-05,1.188824037568444241e-06
4.400000000000000000e+02,4.500000000000000000e+02,0.000000000000000000e+00,0.000000000000000000e+00,0.000000000000000000e+00,0.000000000000000000e+00,7.950446363899938839e-05,1.113275359279311099e-06,7.950446363899938839e-05,1.113275359279311099e-06,7.950446363899938839e-05,1.113275359279311099e-06,7.950446363899938839e-05,1.113275359279311099e-06
4.500000000000000000e+02,4.600000000000000000e+02,0.000000000000000000e+00,0.000000000000000000e+00,0.000000000000000000e+00,0.000000000000000000e+00,9.791847734283768128e-05,1.613243176314182935e-06,9.791847734283768128e-05,1.613243176314182935e-06,9.791847734283768128e-05,1.613243176314182935e-06,9.791847734283768128e-05,1.613243176314182935e-06
4.600000000000000000e+02,4.700000000000000000e+02,0.000000000000000000e+00,0.000000000000000000e+00,0.000000000000000000e+00,0.000000000000000000e+00,1.250873386429598012e-04,2.030620747144342108e-06,1.250873386429598012e-04,2.030620747144342108e-06,1.250873386429598012e-04,2.030620747144342108e-06,1.250873386429598012e-04,2.030620747144342108e-06
4.700000000000000000e+02,4.800000000000000000e+02,0.000000000000000000e+00,0.000000000000000000e+00,0.000000000000000000e+00,0.000000000000000000e+00,1.682839520506126095e-04,2.130836270285529364e-06,1.682839520506126095e-04,2.130836270285529364e-06,1.682839520506126095e-04,2.130836270285529364e-06,1.682839520506126095e-04,2.130836270285529364e-06
4.800000000000000000e+02,4.900000000000000000e+02,0.000000000000000000e+00,0.000000000000000000e+00,0.000000000000000000e+00,0.000000000000000000e+00,2.596618142434565743e-04,5.810910876774943442e-06,2.596618142434565743e-04,5.810910876774943442e-06,2.596618142434565743e-04,5.810910876774943442e-06,2.596618142434565743e-04,5.810910876774943442e-06
4.900000000000000000e+02,5.000000000000000000e+02,0.000000000000000000e+00,0.000000000000000000e+00,0.000000000000000000e+00,0.000000000000000000e+00,4.029373204179775457e-04,7.718896419593320897e-06,4.029373204179775457e-04,7.718896419593320897e-06,4.029373204179775457e-04,7.718896419593320897e-06,4.029373204179775457e-04,7.718896419593320897e-06
5.000000000000000000e+02,5.100000000000000000e+02,0.000000000000000000e+00,0.000000000000000000e+00,0.000000000000000000e+00,0.000000000000000000e+00,5.495582780341054085e-04,8.425070811083476069e-06,5.495582780341054085e-04,8.425070811083476069e-06,5.495582780341054085e-04,8.425070811083476069e-06,5.495582780341054085e-04,8.425070811083476069e-06
5.100000000000000000e+02,5.200000000000000000e+02,0.000000000000000000e+00,0.000000000000000000e+00,0.000000000000000000e+00,0.000000000000000000e+00,7.744995138324930464e-04,1.636447327687296806e-05,7.744995138324930464e-04,1.636447327687296806e-05,7.744995138324930464e-04,1.636447327687296806e-05,7.744995138324930464e-04,1.636447327687296806e-05
5.200000000000000000e+02,5.300000000000000000e+02,0.000000000000000000e+00,0.000000000000000000e+00,0.000000000000000000e+00,0.000000000000000000e+00,9.489223898233563673e-04,1.427764692295036171e-05,9.489223898233563673e-04,1.427764692295036171e-05,9.489223898233563673e-04,1.427764692295036171e-05,9.489223898233563673e-04,1.427764692295036171e-05
5.300000000000000000e+02,5.400000000000000000e+02,0.000000000000000000e+00,0.000000000000000000e+00,0.000000000000000000e+00,0.000000000000000000e+00,1.149842007816036325e-03,1.452961148521970407e-05,1.149842007816036325e-03,1.452961148521970407e-05,1.149842007816036325e-03,1.452961148521970407e-05,1.149842007816036325e-03,1.452961148521970407e-05
5.400000000000000000e+02,5.500000000000000000e+02,0.000000000000000000e+00,0.000000000000000000e+00,0.000000000000000000e+00,0.000000000000000000e+00,1.371414565241914959e-03,3.059531516885655606e-05,1.371414565241914959e-03,3.059531516885655606e-05,1.371414565241914959e-03,3.059531516885655606e-05,1.371414565241914959e-03,3.059531516885655606e-05
5.500000000000000000e+02,5.600000000000000000e+02,0.000000000000000000e+00,0.000000000000000000e+00,0.000000000000000000e+00,0.000000000000000000e+00,1.560986552634251179e-03,1.586114811562703880e-05,1.560986552634251179e-03,1.586114811562703880e-05,1.560986552634251179e-03,1.586114811562703880e-05,1.560986552634251179e-03,1.586114811562703880e-05
5.600000000000000000e+02,5.700000000000000000e+02,0.000000000000000000e+00,0.000000000000000000e+00,0.000000000000000000e+00,0.000000000000000000e+00,1.807250686915508895e-03,1.854932369431667617e-05,1.807250686915508895e-03,1.854932369431667617e-05,1.807250686915508895e-03,1.854932369431667617e-05,1.807250686915508895e-03,1.854932369431667617e-05
5.700000000000000000e+02,5.800000000000000000e+02,0.000000000000000000e+00,0.000000000000000000e+00,0.000000000000000000e+00,0.000000000000000000e+00,2.016564287515156852e-03,1.497802107585506695e-05,2.016564287515156852e-03,1.497802107585506695e-05,2.016564287515156852e-03,1.497802107585506695e-05,2.016564287515156852e-03,1.497802107585506695e-05
5.800000000000000000e+02,5.900000000000000000e+02,0.000000000000000000e+00,0.000000000000000000e+00,0.000000000000000000e+00,0.000000000000000000e+00,2.302356977106261547e-03,2.057211844987595091e-05,2.302356977106261547e-03,2.057211844987595091e-05,2.302356977106261547e-03,2.057211844987595091e-05,2.302356977106261547e-03,2.057211844987595091e-05
5.900000000000000000e+02,6.000000000000000000e+02,0.000000000000000000e+00,0.000000000000000000e+00,0.000000000000000000e+00,0.000000000000000000e+00,2.543427391362753850e-03,2.010514931980332930e-05,2.543427391362753850e-03,2.010514931980332930e-05,2.543427391362753850e-03,2.010514931980332930e-05,2.543427391362753850e-03,2.010514931980332930e-05
6.000000000000000000e+02,6.100000000000000000e+02,0.000000000000000000e+00,0.000000000000000000e+00,0.000000000000000000e+00,0.000000000000000000e+00,2.855319446120791176e-03,1.695054918204335248e-05,2.855319446120791176e-03,1.695054918204335248e-05,2.855319446120791176e-03,1.695054918204335248e-05,2.855319446120791176e-03,1.695054918204335248e-05
6.100000000000000000e+02,6.200000000000000000e+02,0.000000000000000000e+00,0.000000000000000000e+00,0.000000000000000000e+00,0.000000000000000000e+00,3.130460233188311816e-03,1.755131309943780695e-05,3.130460233188311816e-03,1.755131309943780695e-05,3.130460233188311816e-03,1.755131309943780695e-05,3.130460233188311816e-03,1.755131309943780695e-05
6.200000000000000000e+02,6.300000000000000000e+02,0.000000000000000000e+00,0.000000000000000000e+00,0.000000000000000000e+00,0.000000000000000000e+00,3.489197182937935938e-03,1.907795654747694916e-05,3.489197182937935938e-03,1.907795654747694916e-05,3.489197182937935938e-03,1.907795654747694916e-05,3.489197182937935938e-03,1.907795654747694916e-05
6.300000000000000000e+02,6.400000000000000000e+02,0.000000000000000000e+00,0.000000000000000000e+00,0.000000000000000000e+00,0.000000000000000000e+00,3.784889470573617447e-03,1.982480564670503111e-05,3.784889470573617447e-03,1.982480564670503111e-05,3.784889470573617447e-03,1.982480564670503111e-05,3.784889470573617447e-03,1.982480564670503111e-05
6.400000000000000000e+02,6.500000000000000000e+02,0.000000000000000000e+00,0.000000000000000000e+00,0.000000000000000000e+00,0.000000000000000000e+00,4.161276971287175899e-03,2.395859979672397953e-05,4.161276971287175899e-03,2.395859979672397953e-05,4.161276971287175899e-03,2.395859979672397953e-05,4.161276971287175899e-03,2.395859979672397953e-05
6.500000000000000000e+02,6.600000000000000000e+02,0.000000000000000000e+00,0.000000000000000000e+00,0.000000000000000000e+00,0.000000000000000000e+00,4.568734600606224987e-03,1.803090282103769846e-05,4.568734600606224987e-03,1.803090282103769846e-05,4.568734600606224987e-03,1.803090282103769846e-05,4.568734600606224987e-03,1.803090282103769846e-05
6.600000000000000000e+02,6.700000000000000000e+02,0.000000000000000000e+00,0.000000000000000000e+00,0.000000000000000000e+00,0.000000000000000000e+00,4.936232046785176027e-03,2.045366450775139831e-05,4.936232046785176027e-03,2.045366450775139831e-05,4.936232046785176027e-03,2.045366450775139831e-05,4.936232046785176027e-03,2.045366450775139831e-05
6.700000000000000000e+02,6.800000000000000000e+02,0.000000000000000000e+00,0.000000000000000000e+00,0.000000000000000000e+00,0.000000000000000000e+00,5.352319784134151187e-03,1.905367028776787825e-05,5.352319784134151187e-03,1.905367028776787825e-05,5.352319784134151187e-03,1.905367028776787825e-05,5.352319784134151187e-03,1.905367028776787825e-05
6.800000000000000000e+02,6.900000000000000000e+02,0.000000000000000000e+00,0.000000000000000000e+00,0.000000000000000000e+00,0.000000000000000000e+00,5.854185988238104661e-03,2.084619637649538041e-05,5.854185988238104661e-03,2.084619637649538041e-05,5.854185988238104661e-03,2.084619637649538041e-05,5.854185988238104661e-03,2.084619637649538041e-05
6.900000000000000000e+02,7.000000000000000000e+02,0.000000000000000000e+00,0.000000000000000000e+00,0.000000000000000000e+00,0.000000000000000000e+00,6.310417186791129895e-03,1.939934350670376238e-05,6.310417186791129895e-03,1.939934350670376238e-05,6.310417186791129895e-03,1.939934350670376238e-05,6.310417186791129895e-03,1.939934350670376238e-05
7.000000000000000000e+02,7.100000000000000000e+02,0.000000000000000000e+00,0.000000000000000000e+00,0.000000000000000000e+00,0.000000000000000000e+00,6.912342925231533888e-03,2.890057976329777557e-05,6.912342925231533888e-03,2.890057976329777557e-05,6.912342925231533888e-03,2.890057976329777557e-05,6.912342925231533888e-03,2.890057976329777557e-05
7.100000000000000000e+02,7.200000000000000000e+02,0.000000000000000000e+00,0.000000000000000000e+00,0.000000000000000000e+00,0.000000000000000000e+00,7.429016281745821210e-03,2.382207416329608262e-05,7.429016281745821210e-03,2.382207416329608262e-05,7.429016281745821210e-03,2.382207416329608262e-05,7.429016281745821210e-03,2.382207416329608262e-05
7.200000000000000000e+02,7.300000000000000000e+02,0.000000000000000000e+00,0.000000000000000000e+00,0.000000000000000000e+00,0.000000000000000000e+00,8.042893461428009261e-03,2.227041430906221157e-05,8.042893461428009261e-03,2.227041430906221157e-05,8.042893461428009261e-03,2.227041430906221157e-05,8.042893461428009261e-03,2.227041430906221157e-05
7.300000000000000000e+02,7.400000000000000000e+02,0.000000000000000000e+00,0.000000000000000000e+00,0.000000000000000000e+00,0.000000000000000000e+00,8.724831399530300069e-03,2.552487774731459146e-05,8.724831399530300069e-03,2.552487774731459146e-05,8.724831399530300069e-03,2.552487774731459146e-05,8.724831399530300069e-03,2.552487774731459146e-05
7.400000000000000000e+02,7.500000000000000000e+02,0.000000000000000000e+00,0.000000000000000000e+00,0.000000000000000000e+00,0.000000000000000000e+00,9.466837178635154060e-03,2.940496636953443457e-05,9.466837178635154060e-03,2.940496636953443457e-05,9.466837178635154060e-03,2.940496636953443457e-05,9.466837178635154060e-03,2.940496636953443457e-05
7.500000000000000000e+02,7.600000000000000000e+02,0.000000000000000000e+00,0.000000000000000000e+00,0.000000000000000000e+00,0.000000000000000000e+00,1.031575774655339381e-02,2.568768291437407790e-05,1.031575774655339381e-02,2.568768291437407790e-05,1.031575774655339381e-02,2.568768291437407790e-05,1.031575774655339381e-02,2.568768291437407790e-05
7.600000000000000000e+02,7.700000000000000000e+02,0.000000000000000000e+00,0.000000000000000000e+00,0.000000000000000000e+00,0.000000000000000000e+00,1.116067857345125723e-02,2.833344606777864942e-05,1.116067857345125723e-02,2.833344606777864942e-05,1.116067857345125723e-02,2.833344606777864942e-05,1.116067857345125723e-02,2.833344606777864942e-05
7.700000000000000000e+02,7.800000000000000000e+02,0.000000000000000000e+00,0.000000000000000000e+00,0.000000000000000000e+00,0.000000000000000000e+00,1.214551481244684553e-02,2.407359569476761010e-05,1.214551481244684553e-02,2.407359569476761010e-05,1.214551481244684553e-02,2.407359569476761010e-05,1.214551481244684553e-02,2.407359569476761010e-05
7.800000000000000000e+02,7.900000000000000000e+02,0.000000000000000000e+00,0.000000000000000000e+00,0.000000000000000000e+00,0.000000000000000000e+00,1.322814260965934040e-02,2.876627433711163360e-05,1.322814260965934040e-02,2.876627433711163360e-05,1.322814260965934040e-02,2.876627433711163360e-05,1.322814260965934040e-02,2.876627433711163360e-05
7.900000000000000000e+02,8.000000000000000000e+02,0.000000000000000000e+00,0.000000000000000000e+00,0.000000000000000000e+00,0.000000000000000000e+00,1.440436012156314817e-02,3.003328633976894136e-05,1.440436012156314817e-02,3.003328633976894136e-05,1.440436012156314817e-02,3.003328633976894136e-05,1.440436012156314817e-02,3.003328633976894136e-05
8.000000000000000000e+02,8.100000000000000000e+02,0.000000000000000000e+00,0.000000000000000000e+00,0.000000000000000000e+00,0.000000000000000000e+00,1.578420217003567716e-02,3.184903135384447410e-05,1.578420217003567716e-02,3.184903135384447410e-05,1.578420217003567716e-02,3.184903135384447410e-05,1.578420217003567716e-02,3.184903135384447410e-05
8.100000000000000000e+02,8.200000000000000000e+02,0.000000000000000000e+00,0.000000000000000000e+00,0.000000000000000000e+00,0.000000000000000000e+00,1.724944662864106790e-02,3.050118117823274390e-05,1.724944662864106790e-02,3.050118117823274390e-05,1.724944662864106790e-02,3.050118117823274390e-05,1.724944662864106790e-02,3.050118117823274390e-05
8.200000000000000000e+02,8.300000000000000000e+02,0.000000000000000000e+00,0.000000000000000000e+00,0.000000000000000000e+00,0.000000000000000000e+00,1.902314417021994455e-02,3.421959509299336182e-05,1.902314417021994455e-02,3.421959509299336182e-05,1.902314417021994455e-02,3.421959509299336182e-05,1.902314417021994455e-02,3.421959509299336182e-05
8.300000000000000000e+02,8.400000000000000000e+02,0.000000000000000000e+00,0.000000000000000000e+00,0.000000000000000000e+00,0.000000000000000000e+00,2.102443536523791040e-02,3.916603651427789289e-05,2.102443536523791040e-02,3.916603651427789289e-05,2.102443536523791040e-02,3.916603651427789289e-05,2.102443536523791040e-02,3.916603651427789289e-05
8.400000000000000000e+02,8.500000000000000000e+02,0.000000000000000000e+00,0.000000000000000000e+00,0.000000000000000000e+00,0.000000000000000000e+00,2.335869732909630347e-02,4.513399923360264304e-05,2.335869732909630347e-02,4.513399923360264304e-05,2.335869732909630347e-02,4.513399923360264304e-05,2.335869732909630347e-02,4.513399923360264304e-05
8.500000000000000000e+02,8.600000000000000000e+02,0.000000000000000000e+00,0.000000000000000000e+00,0.000000000000000000e+00,0.000000000000000000e+00,2.603202677136971094e-02,3.457754119901873020e-05,2.603202677136971094e-02,3.457754119901873020e-05,2.603202677136971094e-02,3.457754119901873020e-05,2.603202677136971094e-02,3.457754119901873020e-05
8.600000000000000000e+02,8.700000000000000000e+02,0.000000000000000000e+00,0.000000000000000000e+00,0.000000000000000000e+00,0.000000000000000000e+00,2.921089682413326172e-02,3.962990351007958134e-05,2.921089682413326172e-02,3.962990351007958134e-05,2.921089682413326172e-02,3.962990351007958134e-05,2.921089682413326172e-02,3.962990351007958134e-05
8.700000000000000000e+02,8.800000000000000000e+02,0.000000000000000000e+00,0.000000000000000000e+00,0.000000000000000000e+00,0.000000000000000000e+00,3.293574972460467515e-02,4.145169820626163953e-05,3.293574972460467515e-02,4.145169820626163953e-05,3.293574972460467515e-02,4.145169820626163953e-05,3.293574972460467515e-02,4.145169820626163953e-05
8.800000000000000000e+02,8.900000000000000000e+02,0.000000000000000000e+00,0.000000000000000000e+00,0.000000000000000000e+00,0.000000000000000000e+00,3.715095610449047764e-02,4.294849564088661900e-05,3.715095610449047764e-02,4.294849564088661900e-05,3.715095610449047764e-02,4.294849564088661900e-05,3.715095610449047764e-02,4.294849564088661900e-05
8.900000000000000000e+02,9.000000000000000000e+02,0.000000000000000000e+00,0.000000000000000000e+00,0.000000000000000000e+00,0.000000000000000000e+00,4.238365513472112239e-02,4.641238483957925984e-05,4.238365513472112239e-02,4.641238483957925984e-05,4.238365513472112239e-02,4.641238483957925984e-05,4.238365513472112239e-02,4.641238483957925984e-05
9.000000000000000000e+02,9.100000000000000000e+02,0.000000000000000000e+00,0.000000000000000000e+00,0.000000000000000000e+00,0.000000000000000000e+00,4.860726543445331727e-02,5.433070165419534022e-05,4.860726543445331727e-02,5.433070165419534022e-05,4.860726543445331727e-02,5.433070165419534022e-05,4.860726543445331727e-02,5.433070165419534022e-05
9.100000000000000000e+02,9.200000000000000000e+02,0.000000000000000000e+00,0.000000000000000000e+00,0.000000000000000000e+00,0.000000000000000000e+00,5.652409385982892082e-02,5.245436467757354899e-05,5.652409385982892082e-02,5.245436467757354899e-05,5.652409385982892082e-02,5.245436467757354899e-05,5.652409385982892082e-02,5.245436467757354899e-05
9.200000000000000000e+02,9.300000000000000000e+02,0.000000000000000000e+00,0.000000000000000000e+00,0.000000000000000000e+00,0.000000000000000000e+00,6.611640602679864920e-02,5.410782379338680009e-05,6.611640602679864920e-02,5.410782379338680009e-05,6.611640602679864920e-02,5.410782379338680009e-05,6.611640602679864920e-02,5.410782379338680009e-05
9.300000000000000000e+02,9.400000000000000000e+02,0.000000000000000000e+00,0.000000000000000000e+00,0.000000000000000000e+00,0.000000000000000000e+00,7.832630274068107246e-02,7.226647646169463148e-05,7.832630274068107246e-02,7.226647646169463148e-05,7.832630274068107246e-02,7.226647646169463148e-05,7.832630274068107246e-02,7.226647646169463148e-05
9.400000000000000000e+02,9.500000000000000000e+02,0.000000000000000000e+00,0.000000000000000000e+00,0.000000000000000000e+00,0.000000000000000000e+00,9.072287944535807613e-02,7.193301447354903157e-05,9.072287944535807613e-02,7.193301447354903157e-05,9.072287944535807613e-02,7.193301447354903157e-05,9.072287944535807613e-02,7.193301447354903157e-05
9.500000000000000000e+02,9.600000000000000000e+02,0.000000000000000000e+00,0.000000000000000000e+00,0.000000000000000000e+00,0.000000000000000000e+00,1.005588255272101134e-01,6.928261815781052097e-05,1.005588255272101134e-01,6.928261815781052097e-05,1.005588255272101134e-01,6.928261815781052097e-05,1.005588255272101134e-01,6.928261815781052097e-05
9.600000000000000000e+02,9.700000000000000000e+02,0.000000000000000000e+00,0.000000000000000000e+00,0.000000000000000000e+00,0.000000000000000000e+00,1.181016842260301375e-01,7.411099146732891176e-05,1.181016842260301375e-01,7.411099146732891176e-05,1.181016842260301375e-01,7.411099146732891176e-05,1.181016842260301375e-01,7.411099146732891176e-05
9.700000000000000000e+02,9.800000000000000000e+02,0.000000000000000000e+00,0.000000000000000000e+00,0.000000000000000000e+00,0.000000000000000000e+00,1.405019532497807644e-01,7.146458135795611148e-05,1.405019532497807644e-01,7.146458135795611148e-05,1.405019532497807644e-01,7.146458135795611148e-05,1.405019532497807644e-01,7.146458135795611148e-05
9.800000000000000000e+02,9.900000000000000000e+02,0.000000000000000000e+00,0.000000000000000000e+00,0.000000000000000000e+00,0.000000000000000000e+00,1.675671506874707728e-01,8.638279296302052348e-05,1.675671506874707728e-01,8.638279296302052348e-05,1.675671506874707728e-01,8.638279296302052348e-05,1.675671506874707728e-01,8.638279296302052348e-05
9.900000000000000000e+02,1.000000000000000000e+03,0.000000000000000000e+00,0.000000000000000000e+00,0.000000000000000000e+00,0.000000000000000000e+00,2.198981132698579199e-01,1.079111248637149527e-04,2.198981132698579199e-01,1.079111248637149527e-04,2.198981132698579199e-01,1.079111248637149527e-04,2.198981132698579199e-01,1.079111248637149527e-04
1.000000000000000000e+03,1.010000000000000000e+03,0.000000000000000000e+00,0.000000000000000000e+00,0.000000000000000000e+00,0.000000000000000000e+00,3.520164067360311844e-01,1.679630113255334246e-04,3.520164067360311844e-01,1.679630113255334246e-04,3.520164067360311844e-01,1.679630113255334246e-04,3.520164067360311844e-01,1.679630113255334246e-04
1.010000000000000000e+03,1.020000000000000000e+03,3.759119296043994751e+00,2.081624536359435643e-05,3.759119296043994751e+00,2.081624536359435643e-05,2.429735222601000277e+00,1.520001690631761406e-03,2.429735222601000277e+00,1.520001690631761406e-03,2.424364450008367644e+00,1.520001686813021377e-03,2.341527861623754703e+00,1.520001640110989378e-03
