# xl,xh,LO,dLO,LOISC,dLOISC,NLO,dNLO,NLOISC,dNLOISC,NLOL,dNLOL,NLOnovp,dNLOnovp
1.400000000000000000e+02,1.450000000000000000e+02,9.506848101099075828e-06,3.005534667342538995e-08,7.365561117435060396e-06,2.161868586030489018e-08,1.034026245916454907e-05,5.048148603787974678e-08,7.795180887185469874e-06,3.267006835373168157e-08,1.024463520261702087e-05,5.047229941589409984e-08,1.004490611147029556e-05,5.046765757086016316e-08
1.450000000000000000e+02,1.500000000000000000e+02,2.888853374792733100e-05,5.189917171717431814e-08,2.228977674635710375e-05,3.703869107123713426e-08,3.139983438376913084e-05,8.314875917635715477e-08,2.356545308828374843e-05,5.273480678306197481e-08,3.110664593111350443e-05,8.313300935178335791e-08,3.050297437109525595e-05,8.312508114133614346e-08
1.500000000000000000e+02,1.550000000000000000e+02,4.836939750347094577e-05,6.559291520067783469e-08,3.704819369456104311e-05,4.578103124965296696e-08,5.271486441692808933e-05,9.844653041125782612e-08,3.929281905059895264e-05,6.358778325250349315e-08,5.221606992823230883e-05,9.842820596100062365e-08,5.120084492210210259e-05,9.841655048562063410e-08
1.550000000000000000e+02,1.600000000000000000e+02,6.835765292436986730e-05,7.961379439801209445e-08,5.209517311486588898e-05,5.790844175419242844e-08,7.458455272720541148e-05,1.264108741369444743e-07,5.524594497193271168e-05,8.032756822096789136e-08,7.386986344289112689e-05,1.263869557585907706e-07,7.243279364650478469e-05,1.263770227300971316e-07
1.600000000000000000e+02,1.650000000000000000e+02,2.467399062241587538e-04,1.293724917390207448e-07,1.842122276355164249e-04,9.910061244883163204e-08,2.704120682633108421e-04,2.121464554386183386e-07,1.951638853751359057e-04,1.431859281862362070e-07,2.676701329305595351e-04,2.121082077827158486e-07,2.624070293934071250e-04,2.120878643535254225e-07
1.650000000000000000e+02,1.700000000000000000e+02,4.034334335199874573e-04,1.712284082074057588e-07,2.992038533530141757e-04,1.354616976004354098e-07,4.427903788068601547e-04,2.685888841850980071e-07,3.173502580603633234e-04,1.895125874923626714e-07,4.382372732353549813e-04,2.685409410738724102e-07,4.296099514332870403e-04,2.685144490819042800e-07
1.700000000000000000e+02,1.750000000000000000e+02,5.185773984605286701e-04,1.893287147265953002e-07,3.829256046030090396e-04,1.499956567365257051e-07,5.694365523787345371e-04,2.942253749783449274e-07,4.064074066726836606e-04,2.144359409922123522e-07,5.635572921321731731e-04,2.941752502063032709e-07,5.524337984942999380e-04,2.941457554089406019e-07
1.750000000000000000e+02,1.800000000000000000e+02,6.189867344259721580e-04,2.046397581489611269e-07,4.546254029983440650e-04,1.633384533724067491e-07,6.812778873137185836e-04,3.213873087400028932e-07,4.831619206141963305e-04,2.212864736387350871e-07,6.742027982566962518e-04,3.213243662700237573e-07,6.608679691943042259e-04,3.212932876579522699e-07
1.800000000000000000e+02,1.850000000000000000e+02,7.102456263753322181e-04,2.166293207516312788e-07,5.191449833708176387e-04,1.654355535130505756e-07,7.828066960349598516e-04,3.597310460539570990e-07,5.523198788839217034e-04,2.266930262862222453e-07,7.746467871812043717e-04,3.596596909223402309e-07,7.593104739410613292e-04,3.596266231078424122e-07
1.850000000000000000e+02,1.900000000000000000e+02,7.534955656887835440e-04,2.183623858628610553e-07,5.476737853395014779e-04,1.642575077259020469e-07,8.324883518609505753e-04,3.382185914968905352e-07,5.837985587332394271e-04,2.380041028379094141e-07,8.237877950512685057e-04,3.381481419334418224e-07,8.074748955387881736e-04,3.381125791962826137e-07
1.900000000000000000e+02,1.950000000000000000e+02,7.808166018314538536e-04,2.276076436744867882e-07,5.645346171528696066e-04,1.671260808012399468e-07,8.637867307061554813e-04,3.610319713031077231e-07,6.024432415875349486e-04,2.351041568605309952e-07,8.547279355376074562e-04,3.609474866634230964e-07,8.377561804928125837e-04,3.609092330952335992e-07
1.950000000000000000e+02,2.000000000000000000e+02,8.080551265711162327e-04,2.343581074613870033e-07,5.808279953128333596e-04,1.690086598325091466e-07,8.960595694889286105e-04,3.777803154936683410e-07,6.206844807974806408e-04,2.498393703634915998e-07,8.866180482318817462e-04,3.777039347582997119e-07,8.689964479866045446e-04,3.776692659980790391e-07
2.000000000000000000e+02,2.050000000000000000e+02,8.366099710660271620e-04,2.326194019352983320e-07,5.979323642292566935e-04,1.746334184448073684e-07,9.295708952018037503e-04,3.652962653560713421e-07,6.400189500667507591e-04,2.485365406381227227e-07,9.197276106237960592e-04,3.652098234486510835e-07,9.014276861521286054e-04,3.651712358953337969e-07
2.050000000000000000e+02,2.100000000000000000e+02,8.657444399543251382e-04,2.525047219862250151e-07,6.150699864239116176e-04,1.864492104011724575e-07,9.637982696143859154e-04,3.860107761782614283e-07,6.590007588714673738e-04,2.484119706874539367e-07,9.535488023557295171e-04,3.859175934857146930e-07,9.345556897303921575e-04,3.858743975625469419e-07
2.100000000000000000e+02,2.150000000000000000e+02,8.960000069996526886e-04,2.550550483698298234e-07,6.327200059316798707e-04,1.926550264782222970e-07,1.000105132087995320e-03,3.707474981349077161e-07,6.791612819966540669e-04,2.539975077203635978e-07,9.894239384889893379e-04,3.706573567450115372e-07,9.697055828090809029e-04,3.706136473364874407e-07
2.150000000000000000e+02,2.200000000000000000e+02,9.271992079772092095e-04,2.572715607988707808e-07,6.511031737190568162e-04,1.948956539339493394e-07,1.037118059994289769e-03,4.283385231610646633e-07,7.001577877628606655e-04,2.643100597702170294e-07,1.025988197056215993e-03,4.282562702143630949e-07,1.005531197047563425e-03,4.282153350159318138e-07
2.200000000000000000e+02,2.250000000000000000e+02,9.592085952301131592e-04,2.504686531339840186e-07,6.694460756706727177e-04,1.800521357084990311e-07,1.075562278068452771e-03,4.150104462536156256e-07,7.209045942224707841e-04,2.626530523802235538e-07,1.063953664266104005e-03,4.149196556227452716e-07,1.042722722957677714e-03,4.148772149144557362e-07
2.250000000000000000e+02,2.300000000000000000e+02,9.926574143265221809e-04,2.811341116648581438e-07,6.888990275970212178e-04,2.002215124142066363e-07,1.115597628319483321e-03,4.516731913176240694e-07,7.432768000079077557e-04,3.123028820501470333e-07,1.103467699028772269e-03,4.515874901507031323e-07,1.081429217657128936e-03,4.515535630787869261e-07
2.300000000000000000e+02,2.350000000000000000e+02,1.027013232642433110e-03,2.672937696209386980e-07,7.079229104671730518e-04,1.884890054819181574e-07,1.157416327952543247e-03,4.583996048072650893e-07,7.652243932764835402e-04,2.701109118226657654e-07,1.144719983272997300e-03,4.583013088054519421e-07,1.121851318401191795e-03,4.582577757743752592e-07
2.350000000000000000e+02,2.400000000000000000e+02,1.063332733986292050e-03,2.840638826328721186e-07,7.286062387226089785e-04,2.070332789819917930e-07,1.201314156047951671e-03,4.302444153539943860e-07,7.890469075288726424e-04,2.867853560944986264e-07,1.187970591826918200e-03,4.301442631014285076e-07,1.164234363988067220e-03,4.300976491017224249e-07
2.400000000000000000e+02,2.450000000000000000e+02,1.101349640105551845e-03,2.691761813764174142e-07,7.497750008841561889e-04,1.863977998246084495e-07,1.248363293561727391e-03,4.284803141221324732e-07,8.139362771445818280e-04,2.737032367901875156e-07,1.234309088781386596e-03,4.283683625193981194e-07,1.209669663726406106e-03,4.283185927476654354e-07
2.450000000000000000e+02,2.500000000000000000e+02,1.140423924838068976e-03,2.830995736742691693e-07,7.715284243476841107e-04,1.970293976706317924e-07,1.296567346316791639e-03,4.389287548056294012e-07,8.394280943325774756e-04,2.756565549848469165e-07,1.281686302991553702e-03,4.388123623008009757e-07,1.256098134147264674e-03,4.387661736469976383e-07
2.500000000000000000e+02,2.550000000000000000e+02,1.180197115750500347e-03,2.796769754666771025e-07,7.934037960188640307e-04,1.939847393327278088e-07,1.346913543160972076e-03,4.735037558964014824e-07,8.657377174280207408e-04,3.164034401391320824e-07,1.331117938597493064e-03,4.734028269553149110e-07,1.304552914572028408e-03,4.733552317752626380e-07
2.550000000000000000e+02,2.600000000000000000e+02,1.222900631910757733e-03,2.950587590985867417e-07,8.165397670965032035e-04,2.190217848555410207e-07,1.400837673907363769e-03,4.563762268535344900e-07,8.937229159833670698e-04,2.957059126687356745e-07,1.384010451610397921e-03,4.562452734753471918e-07,1.356402459597399676e-03,4.561979479672010212e-07
2.600000000000000000e+02,2.650000000000000000e+02,1.267445949331906995e-03,2.957870935068581299e-07,8.410015557343542263e-04,2.068262919262765840e-07,1.457563647188893884e-03,4.691361062375303130e-07,9.235842970543860523e-04,3.023720713608146170e-07,1.439590217982521497e-03,4.690079749091106668e-07,1.410905989461405880e-03,4.689598188492121646e-07
2.650000000000000000e+02,2.700000000000000000e+02,1.314426689857236055e-03,3.098327778111919433e-07,8.666051517817800710e-04,2.162020023372908224e-07,1.518704472589165778e-03,4.856805309340641620e-07,9.553580812875488593e-04,3.072366322740561886e-07,1.499460687887663917e-03,4.855603245399862822e-07,1.469651623542778379e-03,4.855082694035067813e-07
2.700000000000000000e+02,2.750000000000000000e+02,1.362846197072645985e-03,3.065438747550171788e-07,8.925194006483457010e-04,2.269007413870007657e-07,1.582506731281720959e-03,4.826524559282126469e-07,9.880983429040516956e-04,3.007197259960169541e-07,1.561874618099286585e-03,4.825215847966575529e-07,1.530867033241860862e-03,4.824700295249439618e-07
2.750000000000000000e+02,2.800000000000000000e+02,1.414116989037506609e-03,3.199071619206829208e-07,9.199080380652470152e-04,2.249344282118142056e-07,1.650581548984253813e-03,5.404715912908869125e-07,1.023035824870606328e-03,3.095334396721242707e-07,1.628543388386419688e-03,5.403537962876963786e-07,1.596294169680262951e-03,5.403040278085119376e-07
2.800000000000000000e+02,2.850000000000000000e+02,1.468728607736805632e-03,3.222100526893413013e-07,9.492270706484236048e-04,2.098565212608243480e-07,1.723767639253187024e-03,5.583741193741658485e-07,1.060434162181445646e-03,3.124539664827164622e-07,1.700307973267227955e-03,5.582531445592476626e-07,1.666733735947273929e-03,5.582039560893425597e-07
2.850000000000000000e+02,2.900000000000000000e+02,1.525621444045691501e-03,3.354925256232960724e-07,9.791656618185250530e-04,2.430611975754994449e-07,1.801281002839207881e-03,5.199841941994524842e-07,1.100472430874986423e-03,3.473373226863115279e-07,1.774625820695133974e-03,5.198540528232863464e-07,1.739669321242340132e-03,5.197973782447265595e-07
2.900000000000000000e+02,2.950000000000000000e+02,1.585693185151794502e-03,3.413669031066260767e-07,1.010617641112114681e-03,2.481751121848465639e-07,1.885105250143368676e-03,5.234134647333026462e-07,1.143925339476745823e-03,3.290480918517247772e-07,1.854025283705884120e-03,5.232693865897025868e-07,1.817591195205087249e-03,5.232127820339979087e-07
2.950000000000000000e+02,3.000000000000000000e+02,1.648726733555059675e-03,3.450358159424496047e-07,1.043509661878813232e-03,2.380884398866656836e-07,1.972859119342536272e-03,5.237578627432845398e-07,1.189120460363721644e-03,3.236938095330913641e-07,1.937771624267047802e-03,5.235949341286619719e-07,1.899790361578360077e-03,5.235352550695614503e-07
3.000000000000000000e+02,3.050000000000000000e+02,1.716001205487269329e-03,3.671941439850892475e-07,1.078615962538796713e-03,2.558458683298610443e-07,2.066251675691766713e-03,5.695294189748982863e-07,1.236640863164895250e-03,3.626950594118673438e-07,2.027380442588920008e-03,5.693687349456114713e-07,1.987756982660148376e-03,5.693104856097344630e-07
3.050000000000000000e+02,3.100000000000000000e+02,1.787698324681652549e-03,3.430867772656031075e-07,1.115754121031628998e-03,2.293717857055016414e-07,2.163652504910370308e-03,5.160065536533059931e-07,1.285446399111470420e-03,3.290829841230767502e-07,2.120976964681527913e-03,5.158258310599293795e-07,2.079619646064075934e-03,5.157611521032012277e-07
3.100000000000000000e+02,3.150000000000000000e+02,1.862692897351707257e-03,3.612279524603838953e-07,1.154269094582840776e-03,2.355141666343364035e-07,2.264255335527842663e-03,5.742630963999560564e-07,1.335694678320200257e-03,3.380426216632514211e-07,2.217726845632123078e-03,5.740879498225807461e-07,2.174529296644398414e-03,5.740282136977409437e-07
3.150000000000000000e+02,3.200000000000000000e+02,1.942736991228841874e-03,3.688979318991344072e-07,1.195626710019640285e-03,2.492610288157878805e-07,2.369517677062723832e-03,5.918990345900614576e-07,1.387609001328721356e-03,3.797766124968941656e-07,2.319009490049183872e-03,5.917270067096314023e-07,2.273829753743135829e-03,5.916635180275196722e-07
3.200000000000000000e+02,3.250000000000000000e+02,2.027873520925114158e-03,3.710350738811453863e-07,1.238781021557406031e-03,2.539458880501625951e-07,2.481157747205885600e-03,5.677274387392406853e-07,1.441737440854324627e-03,3.536040788442646445e-07,2.426478714116188633e-03,5.675245191537292506e-07,2.379219318979948483e-03,5.674568503677092137e-07
3.250000000000000000e+02,3.300000000000000000e+02,2.119482066040030005e-03,3.781314230459833926e-07,1.285257231026130887e-03,2.569983672867552129e-07,2.598047113671510602e-03,5.905456605704898557e-07,1.498795558671869432e-03,3.747231749180779770e-07,2.539044491888708434e-03,5.903496241240136718e-07,2.489545979923960678e-03,5.902754480599298777e-07
3.300000000000000000e+02,3.350000000000000000e+02,2.216088444642058154e-03,3.789890611657764339e-07,1.334284924777873237e-03,2.515413236868001177e-07,2.720997937079084206e-03,6.021728463387660616e-07,1.557259020968260405e-03,3.537935582244188742e-07,2.657437387966035507e-03,6.019757177483929123e-07,2.605556673443022459e-03,6.019037735561942700e-07
3.350000000000000000e+02,3.400000000000000000e+02,2.317744020774673702e-03,3.925584505996597856e-07,1.383712503520337887e-03,2.670948539012751041e-07,2.849414897312113702e-03,6.346985242592535761e-07,1.617131672285517571e-03,3.677154324630113034e-07,2.781175004932207300e-03,6.344966776170353780e-07,2.726777671503610202e-03,6.344223073319516198e-07
3.400000000000000000e+02,3.450000000000000000e+02,2.422315976463705438e-03,3.903074486274601560e-07,1.433066165966680053e-03,2.703001866472465862e-07,2.982202862532686970e-03,6.335758763935909139e-07,1.676672262006722886e-03,3.958462592284030393e-07,2.908989383963900884e-03,6.333782542942289020e-07,2.851956010872297963e-03,6.333043887163268388e-07
3.450000000000000000e+02,3.500000000000000000e+02,2.529756249078091677e-03,4.206617095481886210e-07,1.481881231020158295e-03,2.885509425803587609e-07,3.118408304977782208e-03,6.433084525018382263e-07,1.736476524417512922e-03,3.860494375010526141e-07,3.039974786959148429e-03,6.430796578224122787e-07,2.980211276799827388e-03,6.430055273159580715e-07
3.500000000000000000e+02,3.550000000000000000e+02,2.640413300053670153e-03,4.194207667478101370e-07,1.528488934040223794e-03,2.883335861898140748e-07,3.261125578187825010e-03,7.214689051276459191e-07,1.795640254665270032e-03,3.816531578670034928e-07,3.177168778574811572e-03,7.212528776980588410e-07,3.114559758910366658e-03,7.211804939637844133e-07
3.550000000000000000e+02,3.600000000000000000e+02,2.756557558347806115e-03,4.268784613609613408e-07,1.576298261630599846e-03,2.744435490200584524e-07,3.412349255488362522e-03,6.680462044609668682e-07,1.857390228710375938e-03,3.712040129273602948e-07,3.322521242523249901e-03,6.678146978077660226e-07,3.256874765148265374e-03,6.677451008814125259e-07
3.600000000000000000e+02,3.650000000000000000e+02,2.886236310794606120e-03,4.494560978352148053e-07,1.630403946470264463e-03,3.055533295338766466e-07,3.577367867680269781e-03,6.582447863278136557e-07,1.925641356541807651e-03,4.107479317632968129e-07,3.481235472289714340e-03,6.579975285748526958e-07,3.412304472918735107e-03,6.579173876014411990e-07
3.650000000000000000e+02,3.700000000000000000e+02,3.028178920418704654e-03,4.497146360202546261e-07,1.690748871061558984e-03,2.962340721469784812e-07,3.756297834756585925e-03,6.639018613484628794e-07,2.000188233604067046e-03,3.908636129513301992e-07,3.653432440546605566e-03,6.636800763866846576e-07,3.580864673765102313e-03,6.635964557294434309e-07
3.700000000000000000e+02,3.750000000000000000e+02,3.184191145543653796e-03,4.552357565356655441e-07,1.758166306597863660e-03,3.082557587612799668e-07,3.952249736649669776e-03,7.081337904336911517e-07,2.082600540454886563e-03,4.147128179271837447e-07,3.842042612724934098e-03,7.079065460459800800e-07,3.765457312974150768e-03,7.078200783736811972e-07
3.750000000000000000e+02,3.800000000000000000e+02,3.357726835983318708e-03,4.778330520215503625e-07,1.833668365553400804e-03,3.288195455881998415e-07,4.165752042864324933e-03,7.243264422680037513e-07,2.173177942362506700e-03,4.273320575691519300e-07,4.047619367066896540e-03,7.240790186275611989e-07,3.966624472079184963e-03,7.239913184494753102e-07
3.800000000000000000e+02,3.850000000000000000e+02,3.551727349131005539e-03,4.694495095752564743e-07,1.919449770149499017e-03,3.088112301722343416e-07,4.403358590104744161e-03,7.740492547336926000e-07,2.274530927655083693e-03,4.104569805098132368e-07,4.276578871381714678e-03,7.737948543081249382e-07,4.190693574054934339e-03,7.737087464850496734e-07
3.850000000000000000e+02,3.900000000000000000e+02,3.766194509708359339e-03,4.849883386721109657e-07,2.014991856080237780e-03,3.251681114195342237e-07,4.660764098570239176e-03,7.584263910774449968e-07,2.385741642878970361e-03,4.362211606112205600e-07,4.524611287666684308e-03,7.581588042817651493e-07,4.433299710752939063e-03,7.580652739402090231e-07
3.900000000000000000e+02,3.950000000000000000e+02,4.005842873604141194e-03,5.244783235825678208e-07,2.122523571977273128e-03,3.449871483354576032e-07,4.947197874547761866e-03,7.743937657608813191e-07,2.509237973830492473e-03,4.428586875296113056e-07,4.800657796289701552e-03,7.741166265678019610e-07,4.703340500672528908e-03,7.740231197202860374e-07
3.950000000000000000e+02,4.000000000000000000e+02,4.274954422712814485e-03,5.165388598796001815e-07,2.243815713713584892e-03,3.467418589142609563e-07,5.265051546961994552e-03,7.778096775757637051e-07,2.646896553764903001e-03,4.413244506863838641e-07,5.107067520861914220e-03,7.775125023372667106e-07,5.002982929258954076e-03,7.774204518423214628e-07
4.000000000000000000e+02,4.050000000000000000e+02,4.569612335199708074e-03,5.441977459889228129e-07,2.377637411735618409e-03,3.548840916097856122e-07,5.611981207724016200e-03,7.911200377765159535e-07,2.797991538052839802e-03,4.572922641700260825e-07,5.441564607636638351e-03,7.908417989587749269e-07,5.330080912387817269e-03,7.907410248017955190e-07
4.050000000000000000e+02,4.100000000000000000e+02,4.280369508960302737e-03,5.030987214693961367e-07,2.369195123740573498e-03,3.262653290153170218e-07,5.524843700243110660e-03,7.510226072474015337e-07,2.842108063113486967e-03,4.301304852847594670e-07,5.373279334731489824e-03,7.507027064185091733e-07,5.269017122592195915e-03,7.506027880740901968e-07
4.100000000000000000e+02,4.150000000000000000e+02,3.833577090104400408e-03,4.980998684678574748e-07,2.292163044522389087e-03,3.796652714488213801e-07,5.206282507166854964e-03,7.105001249841782116e-07,2.810486344400496030e-03,4.760017892245157758e-07,5.080461269503858991e-03,7.103124318740270301e-07,4.987335604711311265e-03,7.102375995425770242e-07
4.150000000000000000e+02,4.200000000000000000e+02,3.590601401032659460e-03,4.465319692321456957e-07,2.234756587941590447e-03,3.438864702499844075e-07,5.013803339727373673e-03,6.751097973097313281e-07,2.781290440949016514e-03,4.595864533235314858e-07,4.901243146696003007e-03,6.749334047770492148e-07,4.814209281815032965e-03,6.748502045247421883e-07
4.200000000000000000e+02,4.250000000000000000e+02,3.440411526647871570e-03,4.373910516216274498e-07,2.188734292599104139e-03,3.484286963587107092e-07,4.878515180133927674e-03,6.315356723841640898e-07,2.749977895770271998e-03,4.509634296345264700e-07,4.773686846117707223e-03,6.313755469953275807e-07,4.690364275027298496e-03,6.312874588327404580e-07
4.250000000000000000e+02,4.300000000000000000e+02,3.353527008697723775e-03,3.942869463155226364e-07,2.158422767356948067e-03,3.157617832144424039e-07,4.782350721807886347e-03,6.015720022160584799e-07,2.719913494247572575e-03,4.322310980431807462e-07,4.681921881641486725e-03,6.014150403557932268e-07,4.600743618124325182e-03,6.013262603429629365e-07
4.300000000000000000e+02,4.350000000000000000e+02,3.323909127058081829e-03,4.050669183402487446e-07,2.147752216092578461e-03,3.269716695880356184e-07,4.729445382231316566e-03,5.811293823234789159e-07,2.698930678848193362e-03,4.241124754071660730e-07,4.630810698206565441e-03,5.809777564590950514e-07,4.550409782172719873e-03,5.808858267849290823e-07
4.350000000000000000e+02,4.400000000000000000e+02,3.346890600445070769e-03,4.250831797762764036e-07,2.157973043554324306e-03,3.367278141776789610e-07,4.721416400169875516e-03,6.003035359030181265e-07,2.690739173134026364e-03,4.360662790855718888e-07,4.622126074011901481e-03,6.001520575411397382e-07,4.541165010108002761e-03,6.000658714604829535e-07
4.400000000000000000e+02,4.450000000000000000e+02,3.422849961841021704e-03,4.142593708864155814e-07,2.190321474151847407e-03,3.349322162774997862e-07,4.755532468920247065e-03,6.790945435407430711e-07,2.695708263279953613e-03,4.436714197350855929e-07,4.653113566855747625e-03,6.789434018096210561e-07,4.570260043967861938e-03,6.788713057021537445e-07
4.450000000000000000e+02,4.500000000000000000e+02,3.547010249071311499e-03,4.469751587377425174e-07,2.241138195741773642e-03,3.564461230935943453e-07,4.825781540770230152e-03,6.322202210671355537e-07,2.710511141768556613e-03,4.439169662681922565e-07,4.717880324329425112e-03,6.320330041069970103e-07,4.631963646502108151e-03,6.319458690811529438e-07
4.500000000000000000e+02,4.550000000000000000e+02,3.720920755576975509e-03,4.347738681459200833e-07,2.309002088397018107e-03,3.297413045331655822e-07,4.932679567826453969e-03,7.076823191527998098e-07,2.732934982338998137e-03,4.833085111762293900e-07,4.816700962660980592e-03,7.075216444808255117e-07,4.726458835587521272e-03,7.074377415662921339e-07
4.550000000000000000e+02,4.600000000000000000e+02,3.956767518632627219e-03,4.812444697206811469e-07,2.395973772831009284e-03,3.737561542747986685e-07,5.085392501514613035e-03,7.147976483473368314e-07,2.763320789595136769e-03,4.793573518837368949e-07,4.958324585947129423e-03,7.146216539944431401e-07,4.862246708866617070e-03,7.145287248608258300e-07
4.600000000000000000e+02,4.650000000000000000e+02,4.265672777190318045e-03,5.116099012819228709e-07,2.502160513662852071e-03,3.679274736650141215e-07,5.291215582474459445e-03,7.567194039239611883e-07,2.801599963175904588e-03,4.783841519996943795e-07,5.149205506168697682e-03,7.564863492918411890e-07,5.045442560769556467e-03,7.563913225990348723e-07
4.650000000000000000e+02,4.700000000000000000e+02,4.653875113076229829e-03,5.127572145182539314e-07,2.618307328532322713e-03,3.492821409946876202e-07,5.548697732196886459e-03,7.660753804603842290e-07,2.835103877158238680e-03,4.598955969389096527e-07,5.386932201823432624e-03,7.658026213713913565e-07,5.273510841796897296e-03,7.656889909675335600e-07
4.700000000000000000e+02,4.750000000000000000e+02,5.146372110857460117e-03,5.929821552558583078e-07,2.738877388758110144e-03,3.968209213407564130e-07,5.864162129555671767e-03,9.100347435483910503e-07,2.856188327139456105e-03,4.928274313207864631e-07,5.676128690138168738e-03,9.097585643851396281e-07,5.550426139829486329e-03,9.096479873118969596e-07
4.750000000000000000e+02,4.800000000000000000e+02,5.808629439370795004e-03,6.415152547317012380e-07,2.869850800424057942e-03,3.894972044882053418e-07,6.286430059761813523e-03,9.722303418732833825e-07,2.871098911786125647e-03,5.055459182707844554e-07,6.061457053156076025e-03,9.718888505324393654e-07,5.919216848281627814e-03,9.717842943980302543e-07
4.800000000000000000e+02,4.850000000000000000e+02,6.774169741621113502e-03,6.957247143887809621e-07,3.024120550947846306e-03,4.002232123157934418e-07,6.904278504742527092e-03,1.108832279086330199e-06,2.890615393081944189e-03,5.134555251170649953e-07,6.623706754853561640e-03,1.108397850880701112e-06,6.457326777998059417e-03,1.108272050993448186e-06
4.850000000000000000e+02,4.900000000000000000e+02,8.282332849881385642e-03,8.151244420367222423e-07,3.220319013999117103e-03,4.115505822808246643e-07,7.808221857637825947e-03,1.297516118325999358e-06,2.904386605907408568e-03,5.405823889826386017e-07,7.438109702204171586e-03,1.296942719175529243e-06,7.233922333926532527e-03,1.296802946012629378e-06
4.900000000000000000e+02,4.950000000000000000e+02,9.830483618390555012e-03,8.622025592215781509e-07,3.125466485250512003e-03,3.651110568624445901e-07,8.239198068078781856e-03,1.404416508507180469e-06,2.605255253388370947e-03,4.935538044721663972e-07,7.749328188811077656e-03,1.403737120296402216e-06,7.505471210919203648e-03,1.403589853459683437e-06
4.950000000000000000e+02,5.000000000000000000e+02,3.497776309408029763e-03,4.787035575272970190e-07,1.034550403764405123e-03,1.894159887757289094e-07,2.408753350778776708e-03,7.815579328356683403e-07,7.526731665562373707e-04,2.490570443503305031e-07,2.226884022319159696e-03,7.811843957740287318e-07,2.139683296357626670e-03,7.811026651701746950e-07
5.000000000000000000e+02,5.050000000000000000e+02,0.000000000000000000e+00,0.000000000000000000e+00,0.000000000000000000e+00,0.000000000000000000e+00,0.000000000000000000e+00,0.000000000000000000e+00,0.000000000000000000e+00,0.000000000000000000e+00,0.000000000000000000e+00,0.000000000000000000e+00,0.000000000000000000e+00,0.000000000000000000e+00
5.050000000000000000e+02,5.100000000000000000e+02,0.000000000000000000e+00,0.000000000000000000e+00,0.000000000000000000e+00,0.000000000000000000e+00,0.000000000000000000e+00,0.000000000000000000e+00,0.000000000000000000e+00,0.000000000000000000e+00,0.000000000000000000e+00,0.000000000000000000e+00,0.000000000000000000e+00,0.000000000000000000e+00
5.100000000000000000e+02,5.150000000000000000e+02,0.000000000000000000e+00,0.000000000000000000e+00,0.000000000000000000e+00,0.000000000000000000e+00,0.000000000000000000e+00,0.000000000000000000e+00,0.000000000000000000e+00,0.000000000000000000e+00,0.000000000000000000e+00,0.000000000000000000e+00,0.000000000000000000e+00,0.000000000000000000e+00
