# xl,xh,LO,dLO,LOISC,dLOISC,NLO,dNLO,NLOISC,dNLOISC,NLOL,dNLOL,NLOnovp,dNLOnovp
2.000000000000000000e+01,2.500000000000000000e+01,0.000000000000000000e+00,0.000000000000000000e+00,0.000000000000000000e+00,0.000000000000000000e+00,2.636792638961179321e-03,2.215820372822452023e-07,1.100032650411241495e-03,1.054921700251450173e-07,2.636792638961179321e-03,2.215820372822452023e-07,2.636792638961179321e-03,2.215820372822452023e-07
2.500000000000000000e+01,3.000000000000000000e+01,0.000000000000000000e+00,0.000000000000000000e+00,0.000000000000000000e+00,0.000000000000000000e+00,2.242269032390045800e-03,1.805070021046571645e-07,9.396570605821562543e-04,9.157121888211407727e-08,2.242269032390045800e-03,1.805070021046571645e-07,2.242269032390045800e-03,1.805070021046571645e-07
3.000000000000000000e+01,3.500000000000000000e+01,0.000000000000000000e+00,0.000000000000000000e+00,0.000000000000000000e+00,0.000000000000000000e+00,1.978340928367393683e-03,1.626981577035066348e-07,8.324919799095087695e-04,8.338566974855335654e-08,1.978340928367393683e-03,1.626981577035066348e-07,1.978340928367393683e-03,1.626981577035066348e-07
3.500000000000000000e+01,4.000000000000000000e+01,0.000000000000000000e+00,0.000000000000000000e+00,0.000000000000000000e+00,0.000000000000000000e+00,1.792571783365830285e-03,1.578168279054854707e-07,7.574944714234868853e-04,7.905090285318592639e-08,1.792571783365830285e-03,1.578168279054854707e-07,1.792571783365830285e-03,1.578168279054854707e-07
4.000000000000000000e+01,4.500000000000000000e+01,0.000000000000000000e+00,0.000000000000000000e+00,0.000000000000000000e+00,0.000000000000000000e+00,1.659398395739659655e-03,1.469237472569345617e-07,7.041686163834455026e-04,7.701850911920870581e-08,1.659398395739659655e-03,1.469237472569345617e-07,1.659398395739659655e-03,1.469237472569345617e-07
4.500000000000000000e+01,5.000000000000000000e+01,0.000000000000000000e+00,0.000000000000000000e+00,0.000000000000000000e+00,0.000000000000000000e+00,1.570325849889289607e-03,1.309048576490302912e-07,6.668827534760578485e-04,6.047078633770034032e-08,1.570325849889289607e-03,1.309048576490302912e-07,1.570325849889289607e-03,1.309048576490302912e-07
5.000000000000000000e+01,5.500000000000000000e+01,0.000000000000000000e+00,0.000000000000000000e+00,0.000000000000000000e+00,0.000000000000000000e+00,1.549919174959053184e-03,1.310460233347460427e-07,6.477828940532061016e-04,6.302254011446439972e-08,1.549919174959053184e-03,1.310460233347460427e-07,1.549919174959053184e-03,1.310460233347460427e-07
5.500000000000000000e+01,6.000000000000000000e+01,0.000000000000000000e+00,0.000000000000000000e+00,0.000000000000000000e+00,0.000000000000000000e+00,1.554340825192960379e-03,1.182768363056684041e-07,6.385113620014863222e-04,5.957650882813815026e-08,1.554340825192960379e-03,1.182768363056684041e-07,1.554340825192960379e-03,1.182768363056684041e-07
6.000000000000000000e+01,6.500000000000000000e+01,0.000000000000000000e+00,0.000000000000000000e+00,0.000000000000000000e+00,0.000000000000000000e+00,1.573718955128743666e-03,1.274295829266142761e-07,6.370399491280508359e-04,6.389779174119803706e-08,1.573718955128743666e-03,1.274295829266142761e-07,1.573718955128743666e-03,1.274295829266142761e-07
6.500000000000000000e+01,7.000000000000000000e+01,0.000000000000000000e+00,0.000000000000000000e+00,0.000000000000000000e+00,0.000000000000000000e+00,1.610487088348918966e-03,1.230857564989429935e-07,6.437846626546142332e-04,6.451747943358062639e-08,1.610487088348918966e-03,1.230857564989429935e-07,1.610487088348918966e-03,1.230857564989429935e-07
7.000000000000000000e+01,7.500000000000000000e+01,0.000000000000000000e+00,0.000000000000000000e+00,0.000000000000000000e+00,0.000000000000000000e+00,1.670459418153290862e-03,1.207841552645438060e-07,6.601589192199731329e-04,6.271910097088793066e-08,1.670459418153290862e-03,1.207841552645438060e-07,1.670459418153290862e-03,1.207841552645438060e-07
7.500000000000000000e+01,8.000000000000000000e+01,0.000000000000000000e+00,0.000000000000000000e+00,0.000000000000000000e+00,0.000000000000000000e+00,1.766591582917842983e-03,1.222028475651027953e-07,6.904135697909938654e-04,6.236931683907090602e-08,1.766591582917842983e-03,1.222028475651027953e-07,1.766591582917842983e-03,1.222028475651027953e-07
8.000000000000000000e+01,8.500000000000000000e+01,0.000000000000000000e+00,0.000000000000000000e+00,0.000000000000000000e+00,0.000000000000000000e+00,1.925097285516419064e-03,1.412685825837725513e-07,7.437020764015651441e-04,6.928216867633538551e-08,1.925097285516419064e-03,1.412685825837725513e-07,1.925097285516419064e-03,1.412685825837725513e-07
8.500000000000000000e+01,9.000000000000000000e+01,0.000000000000000000e+00,0.000000000000000000e+00,0.000000000000000000e+00,0.000000000000000000e+00,2.235942881426985097e-03,1.703799475188112410e-07,8.511830229366252948e-04,7.901097558933225934e-08,2.235942881426985097e-03,1.703799475188112410e-07,2.235942881426985097e-03,1.703799475188112410e-07
9.000000000000000000e+01,9.500000000000000000e+01,2.504191829437823341e-03,5.931362470407532639e-07,1.106634715500145463e-03,3.977728489492989959e-07,4.688640948174144230e-03,6.578222961995261952e-07,1.923460492029437259e-03,4.223694153786096306e-07,4.580618195723933431e-03,6.573024613763444377e-07,4.518264816483229251e-03,6.571081864735665619e-07
9.500000000000000000e+01,1.000000000000000000e+02,7.208642469888821777e-03,5.960627281223669335e-07,3.201215935117355822e-03,3.601665267996792257e-07,7.542194323986920086e-03,6.501499891763202790e-07,3.341416110679768132e-03,3.662803976923562400e-07,7.230703674694354856e-03,6.495748366279165143e-07,7.051289434273645337e-03,6.494341678456927698e-07
1.000000000000000000e+02,1.050000000000000000e+02,6.787120480809157030e-03,6.363703094643863784e-07,3.040096881945046452e-03,3.667034330833119179e-07,7.108073682557176053e-03,6.762455920634144797e-07,3.176423232665791414e-03,3.741709689376109835e-07,6.814006221447813268e-03,6.757178414318670224e-07,6.645202561511511993e-03,6.755156289098747179e-07
1.050000000000000000e+02,1.100000000000000000e+02,6.405942895022867858e-03,6.308403537085983421e-07,2.893590613349087369e-03,3.908049269497599458e-07,6.714687043338836425e-03,6.747646723056121828e-07,3.026179735269864460e-03,3.980889406658748935e-07,6.436316670901911369e-03,6.741963274729892915e-07,6.277108195176041988e-03,6.740278927528688082e-07
1.100000000000000000e+02,1.150000000000000000e+02,6.060700784755419963e-03,6.022609940872225827e-07,2.761284754875893265e-03,3.626013481325325426e-07,6.357904767538664730e-03,6.423664521730377616e-07,2.890398058919092013e-03,3.698978858118350765e-07,6.093798723222857566e-03,6.417961580150768449e-07,5.943356609559565483e-03,6.416209701392590678e-07
1.150000000000000000e+02,1.200000000000000000e+02,5.743167675974577939e-03,6.003822797698868692e-07,2.639088711600998984e-03,3.623422678575048342e-07,6.029761424378785387e-03,6.420196534501718457e-07,2.765135812283882246e-03,3.692369542235879566e-07,5.778639356744703567e-03,6.414638206438590334e-07,5.636149268884748688e-03,6.412813792218607014e-07
1.200000000000000000e+02,1.250000000000000000e+02,5.454238545660967073e-03,6.006547241497733242e-07,2.527594385174998428e-03,3.520101611617966223e-07,5.730555075163255851e-03,6.381587466394127266e-07,2.650799090100917736e-03,3.588928480574497590e-07,5.491394155085380438e-03,6.375943845668510729e-07,5.356199079874765512e-03,6.374370077493275028e-07
1.250000000000000000e+02,1.300000000000000000e+02,5.189426143978616811e-03,5.894377010466661034e-07,2.426018016694421291e-03,3.414259117318951211e-07,5.455957190833415037e-03,6.269069001789140292e-07,2.546473965476308762e-03,3.483778502001505333e-07,5.227482787190753863e-03,6.263737587564830507e-07,5.098968046640022303e-03,6.262127515737738920e-07
1.300000000000000000e+02,1.350000000000000000e+02,4.944672491736893175e-03,5.870164844391840709e-07,2.331565860481118937e-03,3.612911328550969703e-07,5.202552660082297026e-03,6.250685604201360072e-07,2.449666417240389457e-03,3.675766451750846939e-07,4.984045625182799942e-03,6.245660212318226531e-07,4.861726562759534527e-03,6.244100247722258017e-07
1.350000000000000000e+02,1.400000000000000000e+02,4.718637986083460030e-03,5.626711826500183725e-07,2.244696861898122769e-03,3.274287389906257734e-07,4.967614612337369583e-03,6.078014287269166029e-07,2.360184071599521864e-03,3.340942303811743431e-07,4.758363167175303811e-03,6.072799117376746050e-07,4.641740399624682406e-03,6.071243084455088996e-07
1.400000000000000000e+02,1.450000000000000000e+02,4.509428474456766631e-03,5.577103214866094521e-07,2.163841821852044867e-03,3.316110973959427438e-07,4.749948576104847352e-03,5.882854660679759289e-07,2.276968009013651678e-03,3.371125124833277853e-07,4.549233146085926958e-03,5.877819168223134041e-07,4.437886221337821596e-03,5.876296338500540165e-07
1.450000000000000000e+02,1.500000000000000000e+02,4.314727853461891409e-03,5.528628419989186844e-07,2.088700482947085726e-03,3.168010591533264180e-07,4.547371059333902080e-03,5.871904966988999129e-07,2.199463770161794174e-03,3.235510607112319028e-07,4.354687548137004850e-03,5.867120178822173213e-07,4.248256523726505474e-03,5.865521339162029577e-07
1.500000000000000000e+02,1.550000000000000000e+02,4.135122332764284633e-03,5.550273737255263496e-07,2.019432867415565849e-03,3.336022153820123993e-07,4.359931807782753063e-03,5.889932873522796206e-07,2.128100879117569063e-03,3.392313823700056285e-07,4.174673341910440337e-03,5.885063719718818829e-07,4.072802211339788918e-03,5.883699546528295864e-07
1.550000000000000000e+02,1.600000000000000000e+02,3.965811569134143101e-03,5.148563256332414102e-07,1.954141231356350695e-03,3.136537382685937901e-07,4.183467911356350370e-03,5.470892696012798431e-07,2.060603020200709422e-03,3.196171314975153047e-07,4.005140002924052409e-03,5.466146689021035766e-07,3.907537032909923908e-03,5.464689071860520059e-07
1.600000000000000000e+02,1.650000000000000000e+02,3.808982068744508603e-03,5.126633196781709027e-07,1.893498237307490902e-03,3.026274371749861784e-07,4.019564276195279097e-03,5.475054631791451027e-07,1.997924139425423344e-03,3.086297456718444642e-07,3.847734270364810191e-03,5.470452400046310564e-07,3.754106077930224449e-03,5.468905372599828778e-07
1.650000000000000000e+02,1.700000000000000000e+02,3.661598660533573867e-03,5.149423116257686676e-07,1.836749909561874103e-03,3.302000629669558640e-07,3.865427303149448525e-03,5.489105615895096592e-07,1.939075039000305546e-03,3.357913539005955015e-07,3.699640946407907905e-03,5.485154551587741766e-07,3.609714007018547180e-03,5.483761006396614198e-07
1.700000000000000000e+02,1.750000000000000000e+02,3.523258035132831572e-03,4.925770050976842557e-07,1.783584380024207366e-03,3.021357407459094254e-07,3.720172090736609954e-03,5.185539133653831213e-07,1.883777339154092071e-03,3.081840846859458515e-07,3.560034491836952791e-03,5.180979543669919038e-07,3.473619010533625460e-03,5.179592257730751737e-07
1.750000000000000000e+02,1.800000000000000000e+02,3.393366192848107366e-03,4.995784186632142074e-07,1.733014597658155773e-03,3.004650286735872877e-07,3.583606134172588435e-03,5.296573524774956292e-07,1.831308806184741818e-03,3.061683906461692789e-07,3.428849008130909880e-03,5.292150934439231493e-07,3.345698200441797956e-03,5.290804451888363041e-07
1.800000000000000000e+02,1.850000000000000000e+02,3.272294426168401594e-03,4.856287274731275931e-07,1.686445753980330602e-03,3.061401993161911996e-07,3.455896226230228529e-03,5.191966126515211555e-07,1.782547736083109824e-03,3.124272609791063073e-07,3.306293792029321981e-03,5.187949525582645054e-07,3.226227381173053105e-03,5.186687210784342360e-07
1.850000000000000000e+02,1.900000000000000000e+02,3.158736086779983902e-03,4.672312690719211769e-07,1.642595370860424134e-03,2.963485616047889868e-07,3.336857570872420447e-03,4.969636537321462035e-07,1.737089909531700643e-03,3.018146529255739859e-07,3.191572648114710496e-03,4.965458128767789290e-07,3.114419905046620328e-03,4.964199171953892830e-07
1.900000000000000000e+02,1.950000000000000000e+02,3.050056564459981568e-03,4.529462935578485295e-07,1.601000920434403818e-03,2.998732307748414559e-07,3.224047343134537995e-03,4.817461165931117151e-07,1.695441497683196526e-03,3.049541419347099902e-07,3.081392274991249895e-03,4.813557562330335612e-07,3.006968989795236278e-03,4.812304919649501074e-07
1.950000000000000000e+02,2.000000000000000000e+02,2.949053450519210137e-03,4.394951018070863985e-07,1.562521683483969383e-03,2.814181722484905892e-07,3.120597386130572522e-03,4.716132525376497859e-07,1.658865779962308750e-03,2.871377694900463282e-07,2.978302512207198043e-03,4.711934832749019038e-07,2.906468372115943687e-03,4.710653454928776697e-07
2.000000000000000000e+02,2.050000000000000000e+02,2.852445503125021140e-03,4.427411734454980632e-07,1.525134057328014119e-03,2.851793372169309549e-07,3.027835831715165911e-03,4.674654482296446027e-07,1.629074399000865220e-03,2.902445907037969339e-07,2.880002288176823980e-03,4.670625427976304498e-07,2.810608644196127028e-03,4.669264913111431960e-07
2.050000000000000000e+02,2.100000000000000000e+02,2.761726722201366790e-03,4.345611237050304599e-07,1.490536493957777013e-03,2.672231974640149551e-07,2.933313598659532430e-03,4.663998653437378093e-07,1.594302500296358944e-03,2.730415916597840482e-07,2.787389272916513099e-03,4.659521401971105430e-07,2.720302885930368959e-03,4.658313508134795468e-07
2.100000000000000000e+02,2.150000000000000000e+02,2.674998850531959578e-03,4.432383764894152422e-07,1.457066839143471640e-03,2.898610097644815763e-07,2.770866902375628080e-03,4.666727706110210590e-07,1.488650262120010592e-03,2.951336812549864923e-07,2.698828687299365328e-03,4.663712634884317441e-07,2.633921524329551570e-03,4.662608456014160926e-07
2.150000000000000000e+02,2.200000000000000000e+02,2.595108983748850660e-03,4.190564493787070324e-07,1.427055717608619219e-03,2.643680914237770301e-07,2.677980825644732214e-03,4.442586376373755785e-07,1.449347417854846562e-03,2.698525147984573663e-07,2.616780078217355743e-03,4.439825682444714240e-07,2.553958103386427727e-03,4.438628617836626083e-07
2.200000000000000000e+02,2.250000000000000000e+02,2.518185665714081124e-03,4.174996254816323463e-07,1.397684390578079376e-03,2.640104820197707493e-07,2.599088882555320758e-03,4.432298907358306011e-07,1.421202765174600213e-03,2.697256790273331870e-07,2.537853455827456580e-03,4.429112263812947802e-07,2.476968264557103186e-03,4.427964758007378776e-07
2.250000000000000000e+02,2.300000000000000000e+02,2.444960232745514196e-03,4.046814551348804994e-07,1.369936406570289788e-03,2.551121818401535407e-07,2.519939933148179073e-03,4.309602416373841035e-07,1.391113436001301497e-03,2.605062979779211458e-07,2.462304943007143521e-03,4.306801705205367098e-07,2.403294733455228673e-03,4.305592344865689572e-07
2.300000000000000000e+02,2.350000000000000000e+02,2.375430361382819492e-03,4.185730922022199724e-07,1.344163242783595526e-03,2.803304323280257395e-07,2.443277094390764511e-03,4.416089068610730449e-07,1.361366956611656564e-03,2.847048191054019866e-07,2.390463990762221620e-03,4.413352968219809844e-07,2.333225503259036843e-03,4.412364855018472288e-07
2.350000000000000000e+02,2.400000000000000000e+02,2.310560880387191665e-03,4.274987847093168442e-07,1.320004251496993859e-03,2.889550542082353934e-07,2.371873649398479906e-03,4.473886876192899146e-07,1.333631518128292059e-03,2.934172922774046269e-07,2.323516139112518676e-03,4.471240796401952533e-07,2.267962641907368508e-03,4.470181843315684718e-07
2.400000000000000000e+02,2.450000000000000000e+02,2.247469581773058750e-03,4.003440284467069093e-07,1.296346316604569688e-03,2.675828719746724511e-07,2.301256141677214453e-03,4.240128918777194171e-07,1.305761679076495457e-03,2.725694509975499359e-07,2.257567174839336839e-03,4.237215565308783412e-07,2.203620647561711603e-03,4.236155580646465184e-07
2.450000000000000000e+02,2.500000000000000000e+02,2.188759371441138021e-03,3.939656063337668434e-07,1.274842077666950334e-03,2.638150223499350762e-07,2.235720332513870673e-03,4.152500476926858900e-07,1.280393013483798175e-03,2.690094918067877696e-07,2.196359640197766919e-03,4.149767753336778053e-07,2.143945667624552829e-03,4.148677394831343177e-07
2.500000000000000000e+02,2.550000000000000000e+02,2.133035080375536227e-03,3.893271824561162848e-07,1.254304265353077758e-03,2.483062912380436513e-07,2.173723391575092898e-03,4.103955279046766056e-07,1.256358191115337919e-03,2.530096972026438709e-07,2.138051429110005529e-03,4.101320361370272274e-07,2.087054669499817643e-03,4.100277388928634382e-07
2.550000000000000000e+02,2.600000000000000000e+02,2.079559060938169363e-03,3.768596398580619665e-07,1.234951210530697233e-03,2.477822250207581674e-07,2.114061477546788116e-03,3.974070535979207825e-07,1.233836171085038588e-03,2.525382562378116303e-07,2.081519699751800765e-03,3.971369578371535196e-07,2.031917722104713536e-03,3.970293091984618680e-07
2.600000000000000000e+02,2.650000000000000000e+02,2.028756602083594835e-03,3.684905215207259684e-07,1.217140085042754108e-03,2.481329064839759308e-07,2.057358896165418366e-03,3.908827844380068822e-07,1.213188824508657773e-03,2.534230488309206279e-07,2.027499314421555947e-03,3.906211420988947493e-07,1.979208034883391844e-03,3.905093476501968711e-07
2.650000000000000000e+02,2.700000000000000000e+02,1.981053723716289135e-03,3.766367641214839837e-07,1.200030631935652178e-03,2.624432950763086169e-07,2.003673922788737002e-03,3.979373903988051712e-07,1.193068950355643610e-03,2.675952893753863653e-07,1.976369178192001475e-03,3.976917467343708323e-07,1.929324906906799498e-03,3.976001723675065808e-07
2.700000000000000000e+02,2.750000000000000000e+02,1.935374573521464817e-03,3.717800159398001670e-07,1.184489252322245070e-03,2.491215302106661347e-07,1.953215320429317094e-03,3.939055366160920789e-07,1.175479269214426683e-03,2.540606627084947323e-07,1.927405354543107636e-03,3.936699802936993415e-07,1.881550295570682792e-03,3.935802867392114099e-07
2.750000000000000000e+02,2.800000000000000000e+02,1.892359040513734653e-03,3.425868651934547638e-07,1.170012236815106809e-03,2.384898712698172850e-07,1.905258027967518444e-03,3.611316148925959977e-07,1.159080508502616800e-03,2.435130469923847800e-07,1.880623626515110077e-03,3.608558313589992259e-07,1.835898243178848239e-03,3.607569070021825516e-07
2.800000000000000000e+02,2.850000000000000000e+02,1.851406402823564104e-03,3.598325396919114746e-07,1.155962723391946133e-03,2.629852663452175760e-07,1.859035461045327551e-03,3.849652483117765286e-07,1.142657028168094857e-03,2.671612244239815587e-07,1.835517917702439048e-03,3.847155530832360568e-07,1.791888133450949237e-03,3.846253373441703939e-07
2.850000000000000000e+02,2.900000000000000000e+02,1.812203302200811762e-03,3.648189169320514365e-07,1.143518947888143462e-03,2.603296701150495436e-07,1.814349238219627007e-03,3.832552379326729405e-07,1.127927726417631915e-03,2.643472231759493296e-07,1.791767872929877787e-03,3.830531257304335540e-07,1.749148697988650450e-03,3.829671987828718370e-07
2.900000000000000000e+02,2.950000000000000000e+02,1.776030657884055232e-03,3.481057605759921814e-07,1.132358095771262424e-03,2.381002462460693051e-07,1.772152910865321899e-03,3.651240841830732225e-07,1.114193907894143413e-03,2.432750040271527273e-07,1.750339728054462482e-03,3.648925491729259210e-07,1.708705946795469532e-03,3.647961728862694935e-07
2.950000000000000000e+02,3.000000000000000000e+02,1.740751662860932176e-03,3.485729357147804618e-07,1.121073792265138685e-03,2.413525901372632234e-07,1.730372287003439013e-03,3.670867100148065763e-07,1.100012449166328952e-03,2.456779728948997476e-07,1.709294164033419317e-03,3.668990189053594452e-07,1.668607840376255900e-03,3.668120033830995027e-07
3.000000000000000000e+02,3.050000000000000000e+02,1.707938588681750906e-03,3.469571118788301209e-07,1.111748707746889600e-03,2.446180673979154375e-07,1.690483431635946823e-03,3.641832688256671951e-07,1.087236593863311280e-03,2.493313021850319465e-07,1.670016160199327623e-03,3.640074784955188255e-07,1.630225124398655993e-03,3.639291399891166399e-07
3.050000000000000000e+02,3.100000000000000000e+02,1.676366836202102016e-03,3.116731328266433456e-07,1.102729167782811074e-03,2.193866027674578182e-07,1.649867641132862252e-03,3.311276850454220833e-07,1.073959954460774503e-03,2.245523296564734440e-07,1.629960985395195738e-03,3.309232723759184750e-07,1.591019235586069907e-03,3.308431567004079740e-07
3.100000000000000000e+02,3.150000000000000000e+02,1.638098389313608853e-03,3.157696235849843892e-07,1.090171062874190034e-03,2.300638750058311182e-07,1.602644156456883547e-03,3.331369726400590750e-07,1.057046380664598221e-03,2.345402083397673032e-07,1.583493905127035441e-03,3.329711022319397732e-07,1.545572962962305430e-03,3.328885129989736781e-07
3.150000000000000000e+02,3.200000000000000000e+02,1.590688739675570184e-03,3.133512258967197744e-07,1.073273341006086888e-03,2.360220631722836272e-07,1.546772797851866683e-03,3.291550945132555465e-07,1.036103140307928060e-03,2.408657224292486153e-07,1.528648969272543810e-03,3.289809412467038489e-07,1.491965184422147086e-03,3.289027356879820324e-07
3.200000000000000000e+02,3.250000000000000000e+02,1.531100656830170414e-03,2.756048554403193726e-07,1.049828164475865048e-03,2.053415769345315935e-07,1.479978989103265287e-03,2.904602757450487112e-07,1.009276455515299882e-03,2.107171193324239581e-07,1.463105668004121337e-03,2.902955369631270764e-07,1.427927345120531171e-03,2.902176693609694719e-07
3.250000000000000000e+02,3.300000000000000000e+02,1.455061465102544267e-03,2.670042395130914452e-07,1.016431471698293638e-03,2.038414763706069426e-07,1.399648263842210314e-03,2.865843141897047229e-07,9.736889721943441317e-04,2.099404851567891585e-07,1.384485764044731532e-03,2.864474331868684712e-07,1.351217925835200215e-03,2.863761120109054223e-07
3.300000000000000000e+02,3.350000000000000000e+02,1.355971592718088238e-03,2.673617362634921810e-07,9.699425475459828427e-04,2.037893577512319829e-07,1.303359439624259984e-03,2.863381133821833759e-07,9.289429756594307259e-04,2.095899906725772502e-07,1.290407003324174628e-03,2.862151274547207800e-07,1.259578824160042859e-03,2.861546165326221726e-07
3.350000000000000000e+02,3.400000000000000000e+02,1.259081698470505611e-03,2.561782583500559421e-07,9.216152722646840829e-04,2.023069713236178714e-07,1.211365866222553810e-03,2.734340803224300373e-07,8.835218811162219360e-04,2.078989535226393289e-07,1.200391448212767553e-03,2.733238848162408865e-07,1.171911719434606813e-03,2.732590759357415756e-07
3.400000000000000000e+02,3.450000000000000000e+02,1.171900169009093638e-03,2.352993883394921547e-07,8.757633555944080829e-04,1.872370058085930727e-07,1.129148809725800040e-03,2.525927278930473302e-07,8.409168274127639927e-04,1.932234994813850427e-07,1.119812250851362663e-03,2.524895247656192905e-07,1.093472060070905128e-03,2.524259395984400306e-07
3.450000000000000000e+02,3.500000000000000000e+02,1.092263507585500542e-03,2.327871362030174083e-07,8.311407106057704759e-04,1.902927272059209202e-07,1.054919068058300614e-03,2.471475920443121973e-07,7.999159945732433165e-04,1.959668205274649716e-07,1.046904904277656204e-03,2.470591143727225603e-07,1.022490270705768813e-03,2.470066386635873359e-07
3.500000000000000000e+02,3.550000000000000000e+02,1.025948360057599021e-03,2.305971740269339067e-07,7.936909374938989166e-04,1.917681879507122322e-07,9.934667988056385297e-04,2.444513703177055300e-07,7.656704666923942358e-04,1.970212608274903268e-07,9.864569227903097984e-04,2.443727444933598575e-07,9.636571832175130263e-04,2.443213256310039659e-07
3.550000000000000000e+02,3.600000000000000000e+02,9.710492189656409539e-04,2.273612392840555829e-07,7.621790422240313275e-04,1.896260325444248322e-07,9.414889920335914320e-04,2.420290342913417936e-07,7.363352415924028383e-04,1.947507345653644583e-07,9.353132643822053725e-04,2.419548475606626743e-07,9.138577115090699933e-04,2.419015861971563929e-07
3.600000000000000000e+02,3.650000000000000000e+02,9.247981869014374736e-04,2.143654572814062795e-07,7.355962766137837811e-04,1.797391850854177687e-07,8.975514016545737628e-04,2.282097212351172321e-07,7.114191996341269648e-04,1.856774870407704175e-07,8.920577714684289894e-04,2.281375427593044552e-07,8.717548841617347955e-04,2.280930707093348431e-07
3.650000000000000000e+02,3.700000000000000000e+02,8.840640987816136918e-04,2.021055258770149696e-07,7.118002971910162169e-04,1.714539335958261259e-07,8.588060589825616091e-04,2.153147971665372364e-07,6.890914834518833097e-04,1.779442239734757063e-07,8.538679207406070374e-04,2.152474940756704431e-07,8.345763660993648671e-04,2.151971263979734523e-07
3.700000000000000000e+02,3.750000000000000000e+02,8.483467400431767350e-04,2.034348984718196082e-07,6.911976156150100893e-04,1.723664608387337953e-07,8.246659697304566669e-04,2.159545603899263721e-07,6.696520110856002839e-04,1.781543186372685040e-07,8.201923630970940279e-04,2.158952850873090494e-07,8.017991203669589794e-04,2.158485048358224564e-07
3.750000000000000000e+02,3.800000000000000000e+02,8.178028889648681493e-04,2.016662118627368307e-07,6.737723068163221311e-04,1.693400844509719547e-07,7.951393830650145414e-04,2.139097971736019891e-07,6.529999923259504962e-04,1.750160963375724753e-07,7.910660182316455683e-04,2.138510682215611167e-07,7.734571945608864629e-04,2.138001144301160633e-07
3.800000000000000000e+02,3.850000000000000000e+02,7.904747267579719395e-04,2.186128949646287675e-07,6.577616526418049447e-04,1.910252575184173411e-07,7.688253826052386143e-04,2.309815628356338121e-07,6.377493332929849625e-04,1.971387293706854130e-07,7.650938274964376928e-04,2.309322663809504260e-07,7.481894567812684242e-04,2.308902993706193166e-07
3.850000000000000000e+02,3.900000000000000000e+02,7.677775266770177310e-04,1.966946281357658050e-07,6.451717698296805187e-04,1.687462188393852632e-07,7.468749470546537936e-04,2.093058202528783153e-07,6.256421011775370900e-04,1.744913983091971070e-07,7.434332765963795305e-04,2.092470138033061304e-07,7.271389236496812649e-04,2.092036313050060127e-07
3.900000000000000000e+02,3.950000000000000000e+02,7.491091721372897467e-04,2.008058239743875254e-07,6.353527424083238884e-04,1.733072592221264937e-07,7.282212951424741872e-04,2.139436914138781029e-07,6.159185231201770800e-04,1.790601322430139832e-07,7.250391146878577570e-04,2.138916703486218613e-07,7.092651065619676306e-04,2.138441524397186665e-07
3.950000000000000000e+02,4.000000000000000000e+02,7.344124193952722424e-04,1.996994037531127957e-07,6.286628503777598465e-04,1.762729388439543726e-07,7.134634245881247595e-04,2.110011399962278210e-07,6.088907588202526790e-04,1.817404113056167866e-07,7.105195872054300647e-04,2.109549537054928553e-07,6.951819328285417437e-04,2.109103536269250408e-07
4.000000000000000000e+02,4.050000000000000000e+02,7.238822272881687741e-04,1.978197163219574972e-07,6.252427469188364881e-04,1.751712747354712589e-07,7.023760463630971708e-04,2.096970860610826652e-07,6.048178251423898602e-04,1.811336830611069163e-07,6.996446454988837537e-04,2.096461622625549371e-07,6.846648202110170280e-04,2.096024546607506877e-07
4.050000000000000000e+02,4.100000000000000000e+02,7.170295260727119722e-04,2.004516050221009660e-07,6.245999198729002781e-04,1.740320652263902583e-07,6.943323264084489679e-04,2.134436137608270833e-07,6.029791534928303316e-04,1.798059702736419205e-07,6.917966437692528057e-04,2.133991648114242413e-07,6.770905605049385616e-04,2.133569834931258667e-07
4.099999999999999432e+02,4.149999999999999432e+02,7.144621909948844227e-04,2.131062460918238192e-07,6.274126289497816223e-04,1.912512939588672107e-07,6.898143812408598103e-04,2.250058424907089032e-07,6.040296110315557156e-04,1.971262483736923156e-07,6.874512263592017294e-04,2.249632070386432947e-07,6.729441123007360659e-04,2.249204089270728518e-07
4.149999999999999432e+02,4.199999999999999432e+02,7.166518456865727518e-04,2.037361696383359103e-07,6.346368627770771582e-04,1.796619165353369697e-07,6.893014007414279085e-04,2.166761510875977313e-07,6.085701644634977344e-04,1.856943930250613139e-07,6.870942083380809093e-04,2.166304517757295778e-07,6.727068776558182668e-04,2.165891205754981858e-07
4.199999999999999432e+02,4.249999999999999432e+02,7.250118526821964582e-04,2.074316560725515189e-07,6.472314524963549039e-04,1.816465288019664736e-07,6.938258225268051490e-04,2.219442636427886535e-07,6.175327343744161594e-04,1.879862186718574778e-07,6.917664499435919505e-04,2.219013992588862114e-07,6.773701593625520729e-04,2.218555632794548846e-07
4.249999999999999432e+02,4.299999999999999432e+02,7.424883501084771726e-04,2.213339938503522473e-07,6.678495507009499926e-04,1.973194206903600785e-07,7.054361707527459675e-04,2.392950882619732629e-07,6.325987124096570406e-04,2.047052506980132093e-07,7.034915324567917556e-04,2.392518163547448080e-07,6.889460936140393314e-04,2.392059663661495928e-07
4.299999999999999432e+02,4.349999999999999432e+02,7.699649931447617853e-04,2.106323412087240284e-07,6.980490872801993008e-04,1.825696568213711535e-07,7.234652161424961125e-04,2.293832682588805088e-07,6.538843164120702401e-04,1.902400422120589947e-07,7.216210579727337995e-04,2.293333444631092123e-07,7.067366060859393753e-04,2.292834809545253159e-07
4.349999999999999432e+02,4.399999999999999432e+02,8.069565214748653003e-04,2.271749965704849020e-07,7.372304257410541330e-04,1.982377928152093284e-07,7.467269646865647538e-04,2.448267707042908346e-07,6.803804917823113403e-04,2.046162529356927311e-07,7.449609278917647490e-04,2.447772125747436153e-07,7.295917094583453987e-04,2.447277771618766034e-07
4.399999999999999432e+02,4.449999999999999432e+02,8.496725114257149209e-04,2.389838252267079894e-07,7.822804139478560254e-04,2.022040339538978425e-07,7.710518487926790740e-04,2.596058487629388346e-07,7.082519652525810089e-04,2.091840516266227208e-07,7.693839302363196173e-04,2.595558395781857717e-07,7.534791928516143848e-04,2.595086222623613647e-07
4.449999999999999432e+02,4.499999999999999432e+02,8.986463951316881263e-04,2.384958933054731706e-07,8.333547215005353325e-04,2.021205144400904180e-07,7.950747973874767918e-04,2.599452262024151874e-07,7.355422156228381058e-04,2.099199694074840554e-07,7.935029267869680991e-04,2.598871459053399421e-07,7.770063508596155655e-04,2.598378949923417270e-07
4.499999999999999432e+02,4.549999999999999432e+02,9.605141029443751239e-04,2.368660696708908151e-07,8.979460688085423581e-04,1.927713381302439762e-07,8.167884693296703288e-04,2.601843920083561801e-07,7.622814169198481073e-04,2.035988247043070940e-07,8.152988343692506648e-04,2.601269810939272133e-07,7.980300573943355149e-04,2.600820293046124090e-07
4.549999999999999432e+02,4.599999999999999432e+02,1.042568566838818515e-03,3.259528525200980287e-07,9.820177678500682100e-04,2.906354392376856366e-07,8.122236174815055353e-04,3.584686883459199558e-07,7.662607755525591841e-04,3.066820467659813184e-07,8.108588247030571686e-04,3.584182501573223483e-07,7.925903503088230998e-04,3.583637108270807145e-07
4.599999999999999432e+02,4.649999999999999432e+02,2.158223588766452605e-04,1.757725856525398609e-07,2.042899400625319091e-04,1.648852259995778166e-07,1.345313088442132415e-04,2.140963847651815101e-07,1.297209874088721393e-04,1.912348508653070643e-07,1.342765088035183468e-04,2.140801931448803606e-07,1.305474481008852910e-04,2.140461108060694397e-07
