# xl,xh,LO,dLO,LOISC,dLOISC,NLO,dNLO,NLOISC,dNLOISC,NLOL,dNLOL,NLOnovp,dNLOnovp
0.000000000000000000e+00,5.000000000000000000e+00,3.889661439825431270e-03,4.898968818768561049e-07,2.242162380919645020e-03,3.191603742473220671e-07,4.605048655366401379e-03,7.065728183393582562e-07,2.510014450346586060e-03,4.205858643501287065e-07,4.491064913822939535e-03,7.062778916432044954e-07,4.398824550687636080e-03,7.061730562600272542e-07
5.000000000000000000e+00,1.000000000000000000e+01,3.890364151017474455e-03,5.028971258083105549e-07,2.242383092896595934e-03,3.416816873743300692e-07,4.606058946307851204e-03,7.240864071811723107e-07,2.510382016176307060e-03,4.454015553364942482e-07,4.492105487966522800e-03,7.237633921428687690e-07,4.399868028574354176e-03,7.236713949355834080e-07
1.000000000000000000e+01,1.500000000000000000e+01,3.888307400634010477e-03,5.273552812028868504e-07,2.241223821384370762e-03,3.486631232263977186e-07,4.603641564212481753e-03,8.227524071981239992e-07,2.508878024033411955e-03,4.383994279445744499e-07,4.489672447292517368e-03,8.224473206312549853e-07,4.397494898890554928e-03,8.223584526453247657e-07
1.500000000000000000e+01,2.000000000000000000e+01,3.886150616944336438e-03,5.098313500596135238e-07,2.239781712098670111e-03,3.393084965541217371e-07,4.601106984208268476e-03,7.112596266663398002e-07,2.507768669257488467e-03,4.395592955297290420e-07,4.487073166530126771e-03,7.109797235980010046e-07,4.394889120299158569e-03,7.108822509095648695e-07
2.000000000000000000e+01,2.500000000000000000e+01,3.884408649027832131e-03,5.268558778532084727e-07,2.238041331357098519e-03,3.354363835943043089e-07,4.599324756341580632e-03,7.004839014602436626e-07,2.506010336299192842e-03,4.218134299353414138e-07,4.485245397042337927e-03,7.001569078034777133e-07,4.393122320236941304e-03,7.000538378348745511e-07
2.500000000000000000e+01,3.000000000000000000e+01,3.881664367455164768e-03,5.133111212219739028e-07,2.236300293937041467e-03,3.395226040685329412e-07,4.594983995011155467e-03,7.134084041748576844e-07,2.503728566944310712e-03,4.513189796457359871e-07,4.480973182348860044e-03,7.130755030014301846e-07,4.388903533742269554e-03,7.129721549912500370e-07
3.000000000000000000e+01,3.500000000000000000e+01,3.878614536764983436e-03,5.073413374654445199e-07,2.234167412371573964e-03,3.450633954891145972e-07,4.591067785387604669e-03,7.019851716399751152e-07,2.501248774185782942e-03,4.399332340557431601e-07,4.477008663339001986e-03,7.016988074495103302e-07,4.385010245415435319e-03,7.015929814184185381e-07
3.500000000000000000e+01,4.000000000000000000e+01,3.874238262982946084e-03,5.177192397813486643e-07,2.230978123343088128e-03,3.353647493254077990e-07,4.585802854871427053e-03,7.459960797965938298e-07,2.498216041483174252e-03,4.337639638960451492e-07,4.471705350018374825e-03,7.457299865617336657e-07,4.379783194505946012e-03,7.456353633571786128e-07
4.000000000000000000e+01,4.500000000000000000e+01,3.870295403924546747e-03,4.837704677194108605e-07,2.228406607306089582e-03,3.207514304811160469e-07,4.580283797163603454e-03,6.773055391486333567e-07,2.495183844875171770e-03,4.210524147251042455e-07,4.466171861497487613e-03,6.769576281869691491e-07,4.374377943914401976e-03,6.768498602851328341e-07
4.500000000000000000e+01,5.000000000000000000e+01,3.866353610464417188e-03,5.056314980837720777e-07,2.224571460858278896e-03,3.422154461164195971e-07,4.575739247036606124e-03,7.300040097013112349e-07,2.491008427903390089e-03,4.310970151653133693e-07,4.461594440851589759e-03,7.297168261305300267e-07,4.369869301378243726e-03,7.296130577113491796e-07
5.000000000000000000e+01,5.500000000000000000e+01,3.860055805770837463e-03,5.198291375412384986e-07,2.220881213626744836e-03,3.389847653200922773e-07,4.567115391313025449e-03,7.204641484029815291e-07,2.487067969264315868e-03,4.426986369536621553e-07,4.452924517749691675e-03,7.201250429417063407e-07,4.361328577599259473e-03,7.200255284588729523e-07
5.500000000000000000e+01,6.000000000000000000e+01,3.855348771580888786e-03,4.762978970315197285e-07,2.217057240970135481e-03,2.909300289312233313e-07,4.560625548222580622e-03,7.055751341594541374e-07,2.482917003312095673e-03,4.076882625250547219e-07,4.446419236869886618e-03,7.052988316486935558e-07,4.354965717408263576e-03,7.051932903550503242e-07
6.000000000000000000e+01,6.500000000000000000e+01,3.847762039282109046e-03,5.067884843794771200e-07,2.211960629463468123e-03,3.195113343997446548e-07,4.552071024884076986e-03,7.383100196173490724e-07,2.477408724305180457e-03,4.289625302609595387e-07,4.437777913700253866e-03,7.380092849990455818e-07,4.346443559203008733e-03,7.379053842045536978e-07
6.500000000000000000e+01,7.000000000000000000e+01,3.841301098008122542e-03,5.334918014039250943e-07,2.207091280559095054e-03,3.657153566956229066e-07,4.542427447635742632e-03,7.894821584595526357e-07,2.471641888746055164e-03,4.621560554805287131e-07,4.428143187338850865e-03,7.892178543516230366e-07,4.336981208776900451e-03,7.891230806780189217e-07
7.000000000000000000e+01,7.500000000000000000e+01,3.832130795984789798e-03,5.178254875475884430e-07,2.200940501593442317e-03,3.319100304053343971e-07,4.532496417390717916e-03,7.247773475241183852e-07,2.465525409521707005e-03,4.202521558850157606e-07,4.418153724190438704e-03,7.244673717009827823e-07,4.327158359734935636e-03,7.243703383560263467e-07
7.500000000000000000e+01,8.000000000000000000e+01,3.822993820376131401e-03,5.333544065220575765e-07,2.194584283936743332e-03,3.462129317041010798e-07,4.521403654917616893e-03,7.321422978110312521e-07,2.458595450301851847e-03,4.432418030564464009e-07,4.407094625428494873e-03,7.318693834122816802e-07,4.316281239032750995e-03,7.317617512215411314e-07
8.000000000000000000e+01,8.500000000000000000e+01,3.813826481490743738e-03,4.915257212662939210e-07,2.187797286071217068e-03,3.204225657302688668e-07,4.509251014906045726e-03,7.161014781936739523e-07,2.451600404544240514e-03,4.267821509884777395e-07,4.394889655115171226e-03,7.158048180146570560e-07,4.304333540662948904e-03,7.157063119913754147e-07
8.500000000000000000e+01,9.000000000000000000e+01,3.803701188788476649e-03,5.177375575749406674e-07,2.180574395380364960e-03,3.464242534402504270e-07,4.496718666764923898e-03,7.426225833626080960e-07,2.443938789503335637e-03,4.355367892934283527e-07,4.382322431258648711e-03,7.423568223285878478e-07,4.291984407449166844e-03,7.422593013513688901e-07
9.000000000000000000e+01,9.500000000000000000e+01,4.040772037828672253e-03,5.204416550942165750e-07,2.360203549110594188e-03,3.494816077492201594e-07,4.754260680749015054e-03,7.552767164110752763e-07,2.634654298366203434e-03,4.670265692643424809e-07,4.637186195155511281e-03,7.549645222980706004e-07,4.541819328902571735e-03,7.548477150019728811e-07
9.500000000000000000e+01,1.000000000000000000e+02,3.996805715927518633e-03,5.382817847396855893e-07,2.326848989482182238e-03,3.576254588679731319e-07,4.705442847896396975e-03,7.715117975399565692e-07,2.599750156728276689e-03,4.902484050904788124e-07,4.588677060560973978e-03,7.712049781146438736e-07,4.494223970145593515e-03,7.711029859929842859e-07
1.000000000000000000e+02,1.050000000000000000e+02,3.952386896686381837e-03,5.314316077954102008e-07,2.294062190405866779e-03,3.596813255713028027e-07,4.655235994222576418e-03,7.872285282417757043e-07,2.564946713161581678e-03,4.831882537481477169e-07,4.538788821018847723e-03,7.869486660651253663e-07,4.445277094971980016e-03,7.868476803670404293e-07
1.050000000000000000e+02,1.100000000000000000e+02,3.906487972902632742e-03,5.083162260233123150e-07,2.259717585591106050e-03,3.450602534047813874e-07,4.602715734647802072e-03,7.876941593228548467e-07,2.528512349530771201e-03,4.710024233455104273e-07,4.486692204369329209e-03,7.873764599475576725e-07,4.394165695654457006e-03,7.872754306770118207e-07
1.100000000000000000e+02,1.150000000000000000e+02,3.859975444387606439e-03,5.406234283412477903e-07,2.225242500147907136e-03,3.551796378414826463e-07,4.550690094916722515e-03,7.808328418472056562e-07,2.492055814626453498e-03,4.714626196521533098e-07,4.434999934372763422e-03,7.805505205498770258e-07,4.343444744223691478e-03,7.804532136082404750e-07
1.150000000000000000e+02,1.200000000000000000e+02,3.811592747951960715e-03,5.170171778304503022e-07,2.190653085401139157e-03,3.332564671125006957e-07,4.496334569638500700e-03,7.397994847895939769e-07,2.455976097037856822e-03,4.453374535285428563e-07,4.381077757717154360e-03,7.395039360326676869e-07,4.290598430258665136e-03,7.394003305283876190e-07
1.200000000000000000e+02,1.250000000000000000e+02,3.761906840026853823e-03,5.189001523495611170e-07,2.154696199310848423e-03,3.225291840104846481e-07,4.439456516470743387e-03,8.194274975229153125e-07,2.417115750829320221e-03,4.882263731279124540e-07,4.324692836350210214e-03,8.191567179582750945e-07,4.235279134893015808e-03,8.190683272220957521e-07
1.250000000000000000e+02,1.300000000000000000e+02,3.711224540612191678e-03,4.990190823844468502e-07,2.118145079384660401e-03,3.218152126285627699e-07,4.381535918915250086e-03,7.447030699873975896e-07,2.378561108900539151e-03,4.511820353177730568e-07,4.267248864983166218e-03,7.444441328922818919e-07,4.178927352311005705e-03,7.443467247588499281e-07
1.300000000000000000e+02,1.350000000000000000e+02,3.658692174320614648e-03,5.237739047160116259e-07,2.081356938300964621e-03,3.341925090555254970e-07,4.321202199225645212e-03,7.373597187317584493e-07,2.339341419850065294e-03,4.336969308383376311e-07,4.207444426245632828e-03,7.370670775586743511e-07,4.120285284484837170e-03,7.369606082406000641e-07
1.350000000000000000e+02,1.400000000000000000e+02,3.605216022296657639e-03,4.907720304494564327e-07,2.043022174121770628e-03,3.289948533933214018e-07,4.261225418414198683e-03,7.793292958265911451e-07,2.298611879004074706e-03,4.403770643350989598e-07,4.148075719560321249e-03,7.790808419238675629e-07,4.062101696554101110e-03,7.789748757941853924e-07
1.400000000000000000e+02,1.450000000000000000e+02,3.547700872073033130e-03,5.016862097462013515e-07,2.004229557170849989e-03,3.249762594947401631e-07,4.194502139993074551e-03,7.438959548872129326e-07,2.256745927866995148e-03,4.319736061524461055e-07,4.082003415748086846e-03,7.436219973552002246e-07,3.997249053060106250e-03,7.435284622524471263e-07
1.450000000000000000e+02,1.500000000000000000e+02,3.490360789343382834e-03,5.120860891824839069e-07,1.964387979562128191e-03,3.312191510961266603e-07,4.128620612961856999e-03,7.865545938651127039e-07,2.214224402980813529e-03,4.430650364890886314e-07,4.016806566231700786e-03,7.863180792721424042e-07,3.933349978750151285e-03,7.862335446143857246e-07
1.500000000000000000e+02,1.550000000000000000e+02,3.430566396609642174e-03,4.912462203500766071e-07,1.923772283074488788e-03,3.218246814660759542e-07,4.059952086346206579e-03,7.606763048776029942e-07,2.170775660911970772e-03,4.321082720319175790e-07,3.948912969962929155e-03,7.604370533810461380e-07,3.866823632226810536e-03,7.603469142021739314e-07
1.550000000000000000e+02,1.600000000000000000e+02,3.368974860057522003e-03,4.954636298187553343e-07,1.881837827322036536e-03,3.105852188042159560e-07,3.988249755507014722e-03,7.392763295470004944e-07,2.125291687563417298e-03,4.196209882484806938e-07,3.878060236194905228e-03,7.389980529260239189e-07,3.797315614277105202e-03,7.389073971117968855e-07
1.600000000000000000e+02,1.650000000000000000e+02,3.304297937418910602e-03,5.071780270428802049e-07,1.838796640102000014e-03,3.434001503199056360e-07,3.913194159369904473e-03,7.352530280491804751e-07,2.078731545194996682e-03,4.352615044894121404e-07,3.803961765224424425e-03,7.349946567612102399e-07,3.724711585106500050e-03,7.349096861709652692e-07
1.650000000000000000e+02,1.700000000000000000e+02,3.236381765044456585e-03,4.897935509639816817e-07,1.794591223789546251e-03,3.101796903783978104e-07,3.834174031674734539e-03,7.227353814868356790e-07,2.030621393986900645e-03,4.145109340358912979e-07,3.725923567186734987e-03,7.224555620590946500e-07,3.648219806774063642e-03,7.223680764646197910e-07
1.700000000000000000e+02,1.750000000000000000e+02,3.165777971161601052e-03,4.581467024232363809e-07,1.748395423753740241e-03,3.058042019675055345e-07,3.752725519617126828e-03,7.001802027183444544e-07,1.980466152811707469e-03,4.014152348978805204e-07,3.645658200840326112e-03,6.998955943685340485e-07,3.569512766981241484e-03,6.998048626481874243e-07
1.750000000000000000e+02,1.800000000000000000e+02,3.092878361229913029e-03,4.609736455731566675e-07,1.701305254919850815e-03,2.818774856851152036e-07,3.667748312364570162e-03,7.385956798870247661e-07,1.928818584452584315e-03,3.824384991693796267e-07,3.561980527712370510e-03,7.383554626291740663e-07,3.487531720331839193e-03,7.382744097072850165e-07
1.800000000000000000e+02,1.850000000000000000e+02,3.016879636455852085e-03,4.461246101150600764e-07,1.653112019768557652e-03,2.821258912224410391e-07,3.578548838005604117e-03,6.789636549943963047e-07,1.875999090400520776e-03,3.940183199597726824e-07,3.474189091590535860e-03,6.787060128630372708e-07,3.401452897478265004e-03,6.786219590653451875e-07
1.850000000000000000e+02,1.900000000000000000e+02,2.936868712822338946e-03,4.650680441040236596e-07,1.602741943654544020e-03,3.048665552369804956e-07,3.482982349934082497e-03,6.945340302768789440e-07,1.819799095801000362e-03,4.097929776992058107e-07,3.380315134812543129e-03,6.942904369796130839e-07,3.309461514010825309e-03,6.942073431827972446e-07
1.900000000000000000e+02,1.950000000000000000e+02,2.852209134158878098e-03,4.567752230107411989e-07,1.549724256297925094e-03,2.733832759900693350e-07,3.383646124779209237e-03,6.795417733471145599e-07,1.761001938900797490e-03,3.807879219244884849e-07,3.282956867938661982e-03,6.793067061082624325e-07,3.214045428247865131e-03,6.792197945588485262e-07
1.950000000000000000e+02,2.000000000000000000e+02,2.762968800435993289e-03,4.510192904059773230e-07,1.495191448691038849e-03,2.931033051984078549e-07,3.278031870388774336e-03,6.677960291892769028e-07,1.699936774738458915e-03,3.937896381818374777e-07,3.179548314428914252e-03,6.675396288354719346e-07,3.112707370345385582e-03,6.674637842097236482e-07
2.000000000000000000e+02,2.050000000000000000e+02,2.671109802755209598e-03,4.411407534931867038e-07,1.438591439294924137e-03,2.874243264913799441e-07,3.168385056189504129e-03,6.694427547132601625e-07,1.636003099767875408e-03,3.730867919197250704e-07,3.072361019742785113e-03,6.691991712428442871e-07,3.007679104048531591e-03,6.691169414426670612e-07
2.050000000000000000e+02,2.100000000000000000e+02,2.571714812954309457e-03,4.264361279632922213e-07,1.379267499126857026e-03,2.803686357322749518e-07,3.050355221622804563e-03,6.593559439990239536e-07,1.568860498328048577e-03,3.782344983724259118e-07,2.957136576800567344e-03,6.591470775402833081e-07,2.894762960103662314e-03,6.590627106258201390e-07
2.100000000000000000e+02,2.150000000000000000e+02,2.467553859685907899e-03,4.175516258611621403e-07,1.316680464575465314e-03,2.580438300164575555e-07,2.926131608362174223e-03,6.364136141492551460e-07,1.498117004529339776e-03,3.714259340010641966e-07,2.835993314212299603e-03,6.361854930766550428e-07,2.776098983246883499e-03,6.361019304194677072e-07
2.150000000000000000e+02,2.200000000000000000e+02,2.356163541724531213e-03,4.098452277685558521e-07,1.251377113404424438e-03,2.678690247766866847e-07,2.794878663187351162e-03,6.108159296949639730e-07,1.424958267479460930e-03,3.699008559383245981e-07,2.708152895309629514e-03,6.105840253050681222e-07,2.650853858156963783e-03,6.105020820608419028e-07
2.200000000000000000e+02,2.250000000000000000e+02,2.237960506569776787e-03,3.823252259529251942e-07,1.182416405012537983e-03,2.405333197224691486e-07,2.657172523125043029e-03,5.855181941243779785e-07,1.347792551827860317e-03,3.222693746558079989e-07,2.574189002694457669e-03,5.852921100416490331e-07,2.519703811179199639e-03,5.852117647148763559e-07
2.250000000000000000e+02,2.300000000000000000e+02,2.113149034713862791e-03,3.985671997542514517e-07,1.111248448480664291e-03,2.607864239109913356e-07,2.511723157431260730e-03,5.862977905816683570e-07,1.268578894273621107e-03,3.435990145116790009e-07,2.432828189477051831e-03,5.860555469505761452e-07,2.381307425285855185e-03,5.859767137017048554e-07
2.300000000000000000e+02,2.350000000000000000e+02,1.984467565271169024e-03,3.751719450925059026e-07,1.038970963407891395e-03,2.393283795226028733e-07,2.361849388455538636e-03,5.778759261184173522e-07,1.187767176043632526e-03,3.159454275869877460e-07,2.287414471442889268e-03,5.776385148886426325e-07,2.239005058676924072e-03,5.775688011453123084e-07
2.350000000000000000e+02,2.400000000000000000e+02,1.849031777420352164e-03,3.573322805866474983e-07,9.643375914331595066e-04,2.183622882292603654e-07,2.205074586889341822e-03,5.444361056744005677e-07,1.105022519670322174e-03,2.911940071191120815e-07,2.135385990370888224e-03,5.442523558864037659e-07,2.090221237776292325e-03,5.441840367542697329e-07
2.400000000000000000e+02,2.450000000000000000e+02,1.708018903284767897e-03,3.544768421240286664e-07,8.883826886232929973e-04,2.283415662398878120e-07,2.042441790658086620e-03,5.062998432181787336e-07,1.020420924257713297e-03,2.901790531458858883e-07,1.977875264451333260e-03,5.060858440200697172e-07,1.936121957351391804e-03,5.060181464542373780e-07
2.450000000000000000e+02,2.500000000000000000e+02,1.560987950335800513e-03,3.431658503445178952e-07,8.105465245668282224e-04,2.231795720243038633e-07,1.874370110913229975e-03,5.089772036009824896e-07,9.340950562451398598e-04,2.905476372378939369e-07,1.815259996515817837e-03,5.087807974430961825e-07,1.777078226892258965e-03,5.087180570732082747e-07
2.500000000000000000e+02,2.550000000000000000e+02,1.406561713646455047e-03,3.042672281863106281e-07,7.306835346046349584e-04,1.906188739272971908e-07,1.699015653174657057e-03,5.018031909101641504e-07,8.456697848835509042e-04,3.006503810380297556e-07,1.645726383944678050e-03,5.016271957431647530e-07,1.611295755067960848e-03,5.015646935823374042e-07
2.550000000000000000e+02,2.600000000000000000e+02,1.245888443771819756e-03,3.004012362146231671e-07,6.487663226264738783e-04,1.781169445170618541e-07,1.517020746436763528e-03,4.533936216022397554e-07,7.553940103729672945e-04,2.369493188595662574e-07,1.469901706882745717e-03,4.532244914970115274e-07,1.439416822897932741e-03,4.531630831433561203e-07
2.600000000000000000e+02,2.650000000000000000e+02,1.084409766759646598e-03,2.815015798213801672e-07,5.665062281235035265e-04,1.867569536513170356e-07,1.332492431475634309e-03,4.190967767460692061e-07,6.639519824403119098e-04,2.355454418840020915e-07,1.291593197711388662e-03,4.189457640997804438e-07,1.265045833491818114e-03,4.188965311214669482e-07
2.650000000000000000e+02,2.700000000000000000e+02,9.404840004209886594e-04,2.606434906621246398e-07,4.889450709255703910e-04,1.717771517599366872e-07,1.161013934390420742e-03,3.878614774103043391e-07,5.758077242196178811e-04,2.436401893963202315e-07,1.125392617130337300e-03,3.877148720147953496e-07,1.102363369221788210e-03,3.876652534408661589e-07
2.700000000000000000e+02,2.750000000000000000e+02,8.095553343913367743e-04,2.498803531831106510e-07,4.165330340335063916e-04,1.626391765625220261e-07,1.000471612007680167e-03,3.646440172718306884e-07,4.922925090454446538e-04,2.110070786489216518e-07,9.695674891536076563e-04,3.645063622154042484e-07,9.497277140684831989e-04,3.644617841362546550e-07
2.750000000000000000e+02,2.800000000000000000e+02,6.897788043273493479e-04,2.245305768731359462e-07,3.495917785186781340e-04,1.379769247458170174e-07,8.511132095659311447e-04,3.359899625329650955e-07,4.134647237244003931e-04,1.826666200489852670e-07,8.244920812179988177e-04,3.358469132344002795e-07,8.075959112357686265e-04,3.358059584483960971e-07
2.800000000000000000e+02,2.850000000000000000e+02,5.789217593314731694e-04,1.986134927193255957e-07,2.881861932554779810e-04,1.256103411812374334e-07,7.092050784068093354e-04,3.094345261512680594e-07,3.397409663619088932e-04,1.755247993596772321e-07,6.865313460828074759e-04,3.093100174625574038e-07,6.723212671022328309e-04,3.092732859015933777e-07
2.850000000000000000e+02,2.900000000000000000e+02,4.779653898290180331e-04,1.857678037224177773e-07,2.331245672083792771e-04,1.152506261025403369e-07,5.773428328956568519e-04,2.831706588581823015e-07,2.718455170204086874e-04,1.609025169867137487e-07,5.583533544421054795e-04,2.830513797663668328e-07,5.466227126573471691e-04,2.830148351325189469e-07
2.900000000000000000e+02,2.950000000000000000e+02,3.831885173548727191e-04,1.667471958758081621e-07,1.830679068114879609e-04,1.076860300239958001e-07,4.527769210814340550e-04,2.604334668046407844e-07,2.094389622147153451e-04,1.451767059474497012e-07,4.372975994628491630e-04,2.603290536766855242e-07,4.278971757576543610e-04,2.602950601386551064e-07
2.950000000000000000e+02,3.000000000000000000e+02,2.931851623619815043e-04,1.567283615751192361e-07,1.364164307883785645e-04,9.529601061322014800e-08,3.351917768504629556e-04,2.424124013842257775e-07,1.511787980853259838e-04,1.349706455366315371e-07,3.231461417244204607e-04,2.423082803627992047e-07,3.159363433471057978e-04,2.422803163823748702e-07
3.000000000000000000e+02,3.050000000000000000e+02,2.083821950296417807e-04,1.253765265265934476e-07,9.432951956067909107e-05,7.964199085959847871e-08,2.276613697277973835e-04,2.483129299012342302e-07,1.000128022772168865e-04,1.119686532227428779e-07,2.189207019733510542e-04,2.482393040711359126e-07,2.137950313799157238e-04,2.482186319771829400e-07
3.050000000000000000e+02,3.100000000000000000e+02,1.290117058237789829e-04,1.063856738504407085e-07,5.623104600156024485e-05,6.961624199563802900e-08,1.321767580140273499e-04,1.704682527656575945e-07,5.615491945077685207e-05,9.005743846366885057e-08,1.266007431727298859e-04,1.703859472389040223e-07,1.234120622325781303e-04,1.703659226255723583e-07
3.100000000000000000e+02,3.150000000000000000e+02,5.968835512177682182e-05,7.678298523971407476e-08,2.466644403872608060e-05,5.039865893594720376e-08,5.573003462395535149e-05,1.235748259638554073e-07,2.294622126586010961e-05,6.517089561367336982e-08,5.304605011478283409e-05,1.235023201952828760e-07,5.157228231683384448e-05,1.234851127495801982e-07
3.150000000000000000e+02,3.200000000000000000e+02,1.036583847962528847e-05,3.827737246221062481e-08,4.052484199760292241e-06,1.996547740629309125e-08,8.537138545694654608e-06,5.769079528251118451e-08,3.425009095897724787e-06,2.659518980690629822e-08,8.045325713787714666e-06,5.766236802312851450e-08,7.786985328123881403e-06,5.765415813217039115e-08
3.200000000000000000e+02,3.250000000000000000e+02,0.000000000000000000e+00,0.000000000000000000e+00,0.000000000000000000e+00,0.000000000000000000e+00,0.000000000000000000e+00,0.000000000000000000e+00,0.000000000000000000e+00,0.000000000000000000e+00,0.000000000000000000e+00,0.000000000000000000e+00,0.000000000000000000e+00,0.000000000000000000e+00
3.250000000000000000e+02,3.300000000000000000e+02,0.000000000000000000e+00,0.000000000000000000e+00,0.000000000000000000e+00,0.000000000000000000e+00,0.000000000000000000e+00,0.000000000000000000e+00,0.000000000000000000e+00,0.000000000000000000e+00,0.000000000000000000e+00,0.000000000000000000e+00,0.000000000000000000e+00,0.000000000000000000e+00
