# xl,xh,LO,dLO,LOISC,dLOISC,NLO,dNLO,NLOISC,dNLOISC,NLOL,dNLOL,NLOnovp,dNLOnovp
5.000000000000000000e+01,5.100000000000000000e+01,1.023300809672038694e-02,2.760756892754837866e-06,6.673479708563770547e-03,2.013679381904860675e-06,1.222294705061701542e-02,2.910687137672853926e-06,7.636303405944654295e-03,2.062620123794940632e-06,1.194638249305711615e-02,2.909159367133005896e-06,1.170202757668912207e-02,2.908498722645124434e-06
5.100000000000000000e+01,5.200000000000000000e+01,1.028419988189619751e-02,1.664911562346096973e-06,6.625368219919218656e-03,1.080549543309957421e-06,1.226964763060485290e-02,1.863303980550141388e-06,7.571996120790630211e-03,1.144849616535994211e-06,1.198776949601144427e-02,1.862288225698860099e-06,1.174218112779818954e-02,1.861887463256895207e-06
5.200000000000000000e+01,5.300000000000000000e+01,1.032718882388875166e-02,1.631261137749340725e-06,6.581765188930250622e-03,1.185656313826185094e-06,1.230863510148641482e-02,1.810988608038225828e-06,7.511954459480872995e-03,1.228466330754024511e-06,1.202159099043218632e-02,1.809944152610284161e-06,1.177494011860353608e-02,1.809494234398784639e-06
5.300000000000000000e+01,5.400000000000000000e+01,1.036899942797780277e-02,1.918520322144340932e-06,6.537698119706611584e-03,1.370379810138039972e-06,1.235058937316095562e-02,2.063961191560684559e-06,7.454159979197261601e-03,1.413182895918380199e-06,1.205857297883597412e-02,2.062896626365799668e-06,1.181086150553829588e-02,2.062421856876375886e-06
5.400000000000000000e+01,5.500000000000000000e+01,1.040657252268360755e-02,2.039430616568258737e-06,6.492115227677899662e-03,1.508150957917397131e-06,1.238801360628921135e-02,2.160620533350788062e-06,7.394905569887612155e-03,1.541651829376937769e-06,1.209128510723588533e-02,2.159331348214193053e-06,1.184257932336728499e-02,2.158825748759059890e-06
5.500000000000000000e+01,5.600000000000000000e+01,1.044443589109353421e-02,1.999880114508591379e-06,6.450821868404524317e-03,1.378526674513216206e-06,1.242520334553499049e-02,2.119543433185131437e-06,7.340850926522740801e-03,1.415833309161464047e-06,1.212352894148953537e-02,2.118263338281687056e-06,1.187391788582934163e-02,2.117737326646470948e-06
5.600000000000000000e+01,5.700000000000000000e+01,1.048634306170815114e-02,2.041204043554242869e-06,6.413527243861905959e-03,1.413771324284046436e-06,1.246972565160908188e-02,2.191993699484865853e-06,7.292349011541368609e-03,1.448974692048756604e-06,1.216361105766619599e-02,2.190678789627135227e-06,1.191295446010398780e-02,2.190170465364654589e-06
5.700000000000000000e+01,5.800000000000000000e+01,1.052479620547801427e-02,1.946742429809638557e-06,6.374356974491669076e-03,1.321511608848765278e-06,1.250886146704073727e-02,2.072879660817480816e-06,7.240503149249132714e-03,1.364661109330061520e-06,1.219824061351601138e-02,2.071406728019216246e-06,1.194665100755704958e-02,2.070848279510848583e-06
5.800000000000000000e+01,5.900000000000000000e+01,1.056552024851571334e-02,2.006895328822205774e-06,6.341361064246358453e-03,1.379926171535808137e-06,1.255254643956149087e-02,2.150968894006229777e-06,7.196913134502651299e-03,1.413033054293167323e-06,1.223732339027006066e-02,2.149681312507442097e-06,1.198472665645004820e-02,2.149118177428126948e-06
5.900000000000000000e+01,6.000000000000000000e+01,1.060965338587155013e-02,1.946883720243536129e-06,6.306076270886086001e-03,1.331904250346339351e-06,1.259936426671265548e-02,2.111915334430958918e-06,7.151086483221835884e-03,1.369088458430375115e-06,1.227988889834522902e-02,2.110530883632773277e-06,1.202617172466427867e-02,2.110007788930868035e-06
6.000000000000000000e+01,6.100000000000000000e+01,1.064648360467432969e-02,1.985884476346944195e-06,6.274843654539799531e-03,1.290503123543969397e-06,1.263989723924203827e-02,2.128292142137586205e-06,7.109717013091151200e-03,1.327206418074184589e-06,1.231596025146839204e-02,2.126898782569109522e-06,1.206133025886670616e-02,2.126390624365090640e-06
6.100000000000000000e+01,6.200000000000000000e+01,1.068807221862736259e-02,1.987846878858027283e-06,6.244809817595270603e-03,1.346298244586756783e-06,1.268618462274318306e-02,2.119938322332521118e-06,7.070265674041506694e-03,1.382641578268240675e-06,1.235809130065341002e-02,2.118634232692803930e-06,1.210237999255514216e-02,2.118114596651749185e-06
6.200000000000000000e+01,6.300000000000000000e+01,1.073553777392353796e-02,1.982801776927887302e-06,6.219028280377393754e-03,1.346087271186086368e-06,1.273715546678179551e-02,2.125729868838759726e-06,7.035863996682297297e-03,1.381684418695760546e-06,1.240488137262277420e-02,2.124345601660947714e-06,1.214821543287402002e-02,2.123845460482319669e-06
6.300000000000000000e+01,6.400000000000000000e+01,1.077236377853454073e-02,1.956448893466673048e-06,6.190513714280780275e-03,1.311299120997340036e-06,1.277720743314954971e-02,2.103054017715246679e-06,6.998322033455323977e-03,1.348113006702514110e-06,1.244102651422729529e-02,2.101663866775166578e-06,1.218336549439833459e-02,2.101183372511603799e-06
6.400000000000000000e+01,6.500000000000000000e+01,1.081330980644605415e-02,1.965589610181743282e-06,6.168101502490079546e-03,1.280297990563901766e-06,1.282389508836331848e-02,2.117439308106448872e-06,6.967472036492364414e-03,1.319600028556463727e-06,1.248393390576106252e-02,2.116072659552965957e-06,1.222522332158634643e-02,2.115619740640346477e-06
6.500000000000000000e+01,6.600000000000000000e+01,1.085686523823875191e-02,1.986909476503697513e-06,6.146321999494050621e-03,1.290386738174581248e-06,1.287144514298027217e-02,2.146874913930229464e-06,6.938152573935803778e-03,1.332516166152863122e-06,1.252733595620425695e-02,2.145409277012187444e-06,1.226749202877977681e-02,2.144937229499653560e-06
6.600000000000000000e+01,6.700000000000000000e+01,1.090071774997015269e-02,1.848499697430843972e-06,6.126724373976641380e-03,1.208002774481423479e-06,1.291863804733660130e-02,2.021516888561156680e-06,6.910602320513484741e-03,1.252092683897886769e-06,1.257084872625648803e-02,2.019978755936366385e-06,1.231013862237946739e-02,2.019451413475129723e-06
6.700000000000000000e+01,6.800000000000000000e+01,1.094321803602505555e-02,1.911923473991664864e-06,6.110577506561955426e-03,1.195897931493988629e-06,1.296744989027532116e-02,2.070200078932804523e-06,6.888222668847180166e-03,1.236642305368508445e-06,1.261614782558383337e-02,2.068616334084477713e-06,1.235434767494629667e-02,2.068103704635866826e-06
6.800000000000000000e+01,6.900000000000000000e+01,1.098116280928335825e-02,1.955438367525151002e-06,6.093961734297838849e-03,1.223212587822480023e-06,1.300854742759477434e-02,2.103064812756057452e-06,6.864106085958794796e-03,1.260659206087777911e-06,1.265382850974089424e-02,2.101610717917409676e-06,1.239102522752036188e-02,2.101121707519161484e-06
6.900000000000000000e+01,7.000000000000000000e+01,1.102977989357791823e-02,1.873558612900012685e-06,6.082276095150186516e-03,1.163647353389112219e-06,1.306069515510204643e-02,2.020573346461769601e-06,6.845515988696715577e-03,1.205002500019577969e-06,1.270262210109744314e-02,2.018925888953537335e-06,1.243894991082572163e-02,2.018422745886187306e-06
7.000000000000000000e+01,7.100000000000000000e+01,1.106911566404394920e-02,1.929278873838755122e-06,6.072182779940756697e-03,1.228256048130487516e-06,1.310460186484119390e-02,2.078713651691619520e-06,6.829026743487076785e-03,1.266920611117519903e-06,1.274354378854621744e-02,2.077145676195604550e-06,1.247872771252931529e-02,2.076643446392737413e-06
7.100000000000000000e+01,7.200000000000000000e+01,1.111468329476760462e-02,1.887425261285801803e-06,6.066141263677180505e-03,1.163402733363602461e-06,1.315368218337189046e-02,2.063748271874182168e-06,6.816798673084606061e-03,1.202682850752700141e-06,1.278947938920855544e-02,2.062021179890984825e-06,1.252371532601518136e-02,2.061467032415724117e-06
7.200000000000000000e+01,7.300000000000000000e+01,1.115240034205667273e-02,1.933033513041346937e-06,6.058491983184822668e-03,1.216865293499506064e-06,1.319360205285228377e-02,2.064473848896722751e-06,6.802894379582580080e-03,1.257339622407933992e-06,1.282653064301478990e-02,2.062743458064732432e-06,1.255982487598080594e-02,2.062250286397388060e-06
7.300000000000000000e+01,7.400000000000000000e+01,1.118892716064614351e-02,1.885357911481200140e-06,6.051030391954788715e-03,1.179612738874316453e-06,1.323312338920414055e-02,2.032606425118877834e-06,6.789381567316901504e-03,1.221092656178364476e-06,1.286351275371747094e-02,2.030909793293308196e-06,1.259594787588791745e-02,2.030385907220766737e-06
7.400000000000000000e+01,7.500000000000000000e+01,1.122762504714843422e-02,1.912112068949612473e-06,6.046124448398698323e-03,1.151048544366748523e-06,1.327548977868924299e-02,2.092640117093386048e-06,6.779463209369846442e-03,1.192432843687088808e-06,1.290319040451429027e-02,2.091164098244707800e-06,1.263472996070597563e-02,2.090662524354930262e-06
7.500000000000000000e+01,7.600000000000000000e+01,1.126179727194614490e-02,1.872837929554337680e-06,6.040171478536183330e-03,1.193464038616380454e-06,1.331268346096379368e-02,2.028768716786357412e-06,6.769289336465577137e-03,1.237497512714505628e-06,1.293809317174444626e-02,2.027252088328133260e-06,1.266886980478388637e-02,2.026746971641946614e-06
7.600000000000000000e+01,7.700000000000000000e+01,1.129287216694203726e-02,1.894042920664957752e-06,6.035476101559097625e-03,1.172789929938689128e-06,1.334602061503106438e-02,2.049374085059037490e-06,6.759246971977438644e-03,1.215944480802021689e-06,1.296914501154369619e-02,2.047867533844123579e-06,1.269915816604689704e-02,2.047315019931107137e-06
7.700000000000000000e+01,7.800000000000000000e+01,1.132447467530522424e-02,1.902603938813159353e-06,6.031031754953160816e-03,1.238983975044755647e-06,1.338233936020587732e-02,2.047068517053564133e-06,6.751073594059758647e-03,1.275586129148857877e-06,1.300349039675643102e-02,2.045454889209918364e-06,1.273288926820088755e-02,2.044950881304492169e-06
7.800000000000000000e+01,7.900000000000000000e+01,1.134756368130216547e-02,1.975566246346084046e-06,6.024896711215014036e-03,1.314086778193914159e-06,1.340752965935107510e-02,2.116607533997716611e-06,6.741070559805321070e-03,1.347870169193957141e-06,1.302672928822675748e-02,2.114852270953194277e-06,1.275554149968848375e-02,2.114386605459608166e-06
7.900000000000000000e+01,8.000000000000000000e+01,1.137399518313476562e-02,1.994357511927028059e-06,6.021819628462866253e-03,1.206234638283758643e-06,1.343643502044477613e-02,2.126554067203099049e-06,6.734891023341683415e-03,1.244104279798203232e-06,1.305390780483785609e-02,2.125020877945396988e-06,1.278203779237589537e-02,2.124513159898510244e-06
8.000000000000000000e+01,8.100000000000000000e+01,1.139885423184648812e-02,1.878260511439437820e-06,6.018138688954137797e-03,1.143797248988581610e-06,1.346428194363731047e-02,2.053910262116155849e-06,6.728421960014687592e-03,1.186987129540371052e-06,1.308019791570852464e-02,2.052336833570944165e-06,1.280803274483811698e-02,2.051835364471450438e-06
8.100000000000000000e+01,8.200000000000000000e+01,1.141569613154402169e-02,1.959528597863303938e-06,6.013520270338391926e-03,1.235490473894536596e-06,1.348424853448748281e-02,2.105646493907855203e-06,6.721323700735431020e-03,1.272290740229256618e-06,1.309872436441780232e-02,2.103920426565408117e-06,1.282589231775679676e-02,2.103429253041258312e-06
8.200000000000000000e+01,8.300000000000000000e+01,1.143524122872822263e-02,1.915482432098821142e-06,6.012188279514593670e-03,1.125038819398913474e-06,1.350373902525709227e-02,2.061343898180442435e-06,6.717012853039259525e-03,1.168749886923117090e-06,1.311706022924437332e-02,2.059795723708839103e-06,1.284381104584790198e-02,2.059280659968681022e-06
8.300000000000000000e+01,8.400000000000000000e+01,1.145205738273162403e-02,1.947137516783555550e-06,6.010983559755561471e-03,1.132041331497321871e-06,1.352312687914792276e-02,2.090560321328538987e-06,6.713966024495030167e-03,1.175694813041734323e-06,1.313516073984610788e-02,2.088929556544162006e-06,1.286163540474576789e-02,2.088375518208143640e-06
8.400000000000000000e+01,8.500000000000000000e+01,1.146518644689795662e-02,1.926414019285288767e-06,6.008218856385677716e-03,1.211470581228308703e-06,1.353708864246753497e-02,2.079228579225851116e-06,6.709368082927680624e-03,1.250811781953553922e-06,1.314833960417116469e-02,2.077584501127985641e-06,1.287444923311350554e-02,2.077057309032730648e-06
8.500000000000000000e+01,8.600000000000000000e+01,1.147318604774283206e-02,1.957190746070873124e-06,6.004985692094781669e-03,1.159131354139654417e-06,1.354520546127438614e-02,2.122082881537872727e-06,6.704027090326873141e-03,1.200597129118638034e-06,1.315547233093789306e-02,2.120206542257494900e-06,1.288130968028452020e-02,2.119733638449053727e-06
8.600000000000000000e+01,8.700000000000000000e+01,1.148759094369815673e-02,1.981388123801451567e-06,6.007683028238251788e-03,1.280232755956554901e-06,1.356111838819798118e-02,2.130013092166652455e-06,6.705997637435946908e-03,1.315445658403690148e-06,1.317094976542231358e-02,2.128489474939878102e-06,1.289658566360762058e-02,2.128040677364264676e-06
8.700000000000000000e+01,8.800000000000000000e+01,1.149093794587723559e-02,1.958032880207851703e-06,6.003022011633498203e-03,1.278320497980104818e-06,1.356529260931480657e-02,2.104042667930416961e-06,6.700623679186946437e-03,1.314887590993613888e-06,1.317460812811028538e-02,2.102516891965330582e-06,1.290021094229485896e-02,2.101999706025441847e-06
8.800000000000000000e+01,8.900000000000000000e+01,1.149781177346288936e-02,1.981855283904311567e-06,6.004473444263286504e-03,1.247708888563976119e-06,1.357464923170915473e-02,2.134432733113279959e-06,6.701724428994007034e-03,1.289999357494437094e-06,1.318358209312093555e-02,2.132725948815383170e-06,1.290892717284525086e-02,2.132205426911918302e-06
8.900000000000000000e+01,9.000000000000000000e+01,1.150298051420267122e-02,1.968786604711183056e-06,6.004848386224154351e-03,1.242771316415618434e-06,1.358008694069821540e-02,2.128696884879578252e-06,6.701425501349817133e-03,1.279737137070732479e-06,1.318887741247986786e-02,2.126911450141981936e-06,1.291430023228766315e-02,2.126368579415459213e-06
9.000000000000000000e+01,9.100000000000000000e+01,1.149867305508400772e-02,1.850700780608066099e-06,6.003539992434495272e-03,1.176188369082467246e-06,1.357511355608974693e-02,2.028402397997835350e-06,6.700306954233055910e-03,1.218933181735844065e-06,1.318403079107616747e-02,2.026697891210056636e-06,1.290929842394229060e-02,2.026159781553529552e-06
9.100000000000000000e+01,9.200000000000000000e+01,1.149313546910694234e-02,1.931798712245157447e-06,6.001891329852877301e-03,1.183557936548314995e-06,1.356840588555991052e-02,2.094207018084632189e-06,6.698852259892030571e-03,1.225376375938239242e-06,1.317726215658816293e-02,2.092444838909661175e-06,1.290263291479264163e-02,2.091963642215317975e-06
9.200000000000000000e+01,9.300000000000000000e+01,1.149431925410842638e-02,2.001127586687843380e-06,6.004804915457837879e-03,1.206707375494752994e-06,1.356992365781185643e-02,2.165256930634047024e-06,6.702326422053237615e-03,1.245962814057758765e-06,1.317917931839794610e-02,2.163664272834367394e-06,1.290462931203867174e-02,2.163145790529943164e-06
9.300000000000000000e+01,9.400000000000000000e+01,1.148675080623159581e-02,1.925751719484324265e-06,6.007516150592718054e-03,1.240149216043734229e-06,1.356019144778490559e-02,2.094598576628567214e-06,6.705462634262735790e-03,1.280732236411412074e-06,1.317012227516689213e-02,2.092850943031428664e-06,1.289583396239118301e-02,2.092374241598843526e-06
9.400000000000000000e+01,9.500000000000000000e+01,1.147477481362275953e-02,1.817943570130475544e-06,6.005553486766420854e-03,1.069603163306731629e-06,1.354967714173100149e-02,1.975194097010744857e-06,6.705419272692262657e-03,1.115290042527585082e-06,1.315992586082968298e-02,1.973365355638926090e-06,1.288569779626046012e-02,1.972837044433341738e-06
9.500000000000000000e+01,9.600000000000000000e+01,1.146571322852322355e-02,1.955678154246694879e-06,6.008215405559706387e-03,1.269280209114885366e-06,1.353683991527959186e-02,2.125507218391562525e-06,6.708974279630463243e-03,1.310443408996591544e-06,1.314815421458147802e-02,2.123954671263740980e-06,1.287427693589864378e-02,2.123448865604068731e-06
9.600000000000000000e+01,9.700000000000000000e+01,1.145305050136564973e-02,1.913665847770413608e-06,6.010441990013444535e-03,1.114537789262887739e-06,1.352433969383442548e-02,2.077958692973564767e-06,6.713241983418409206e-03,1.157115441777980605e-06,1.313652774598400574e-02,2.076303598291881260e-06,1.286300037207407758e-02,2.075759407668055223e-06
9.700000000000000000e+01,9.800000000000000000e+01,1.143238930643505728e-02,1.864897459593747356e-06,6.011250503778335988e-03,1.075041804795934523e-06,1.350033179859455937e-02,2.021019112656113927e-06,6.716512283572951582e-03,1.119637736146439640e-06,1.311332181914965679e-02,2.019413356100706129e-06,1.284009938190857139e-02,2.018893944124551015e-06
9.800000000000000000e+01,9.900000000000000000e+01,1.141849607489075179e-02,1.941804344474621643e-06,6.016242265306138808e-03,1.217976038116911437e-06,1.348555529820425793e-02,2.083248466885548452e-06,6.723690803279639902e-03,1.254621079529352755e-06,1.310004936744941541e-02,2.081641577046212477e-06,1.282727640105889994e-02,2.081112230536964647e-06
9.900000000000000000e+01,1.000000000000000000e+02,1.139561851772204377e-02,1.929998386170434906e-06,6.016790924209193710e-03,1.233735897297938784e-06,1.346044878558940588e-02,2.085006442437907369e-06,6.726333803728994955e-03,1.270632093207463156e-06,1.307621432053725566e-02,2.083448040424534629e-06,1.280393151794827038e-02,2.082937657299009102e-06
1.000000000000000000e+02,1.010000000000000000e+02,1.137421876970436292e-02,1.778547504163477517e-06,6.022157905743047608e-03,1.085810603759260505e-06,1.343596316689482650e-02,1.967819752267391892e-06,6.735192112664815066e-03,1.130392969053493753e-06,1.305357317370739630e-02,1.966229319667078749e-06,1.278168842905065029e-02,1.965658032881737047e-06
1.010000000000000000e+02,1.020000000000000000e+02,1.135111688957909232e-02,1.958034302595293755e-06,6.026148461828371820e-03,1.208007794115296663e-06,1.341248485522121212e-02,2.099914133894645012e-06,6.742536367804097437e-03,1.247763081865109216e-06,1.303158691678472404e-02,2.098290074497383763e-06,1.276040301950029723e-02,2.097797632263744822e-06
1.020000000000000000e+02,1.030000000000000000e+02,1.132302262623977908e-02,1.933317836326428804e-06,6.030581589182491126e-03,1.252678107146965279e-06,1.338111023220237179e-02,2.096453860620871850e-06,6.750872837858848917e-03,1.290572246879974789e-06,1.300217391418883976e-02,2.094908485121116202e-06,1.273161058145112073e-02,2.094416784012080083e-06
1.030000000000000000e+02,1.040000000000000000e+02,1.129125499295457850e-02,1.926404318175731052e-06,6.033508628713185606e-03,1.165064030143497584e-06,1.334613811776395181e-02,2.072238057000847587e-06,6.757749952065705314e-03,1.202120973520413499e-06,1.296941865066991544e-02,2.070593263279293384e-06,1.269946494939078012e-02,2.070103527939187667e-06
1.040000000000000000e+02,1.050000000000000000e+02,1.126210647414530377e-02,1.945143353763356521e-06,6.041269217019644595e-03,1.194737753953669755e-06,1.331343055046692314e-02,2.105051120046375166e-06,6.769340047519766326e-03,1.235821601374040216e-06,1.293879395742104574e-02,2.103356379515181853e-06,1.266953044452016203e-02,2.102873696412908759e-06
1.050000000000000000e+02,1.060000000000000000e+02,1.122663716433687682e-02,1.907401420169134913e-06,6.044884841351798495e-03,1.206329852599188641e-06,1.327489819552570526e-02,2.057924687093697199e-06,6.778415316847087070e-03,1.243301792976987877e-06,1.290262670028217637e-02,2.056409665124624095e-06,1.263418632553705775e-02,2.055895523768322456e-06
1.060000000000000000e+02,1.070000000000000000e+02,1.119090556457467273e-02,1.945672445017759058e-06,6.051786742231305034e-03,1.262353530124839704e-06,1.323506088064504808e-02,2.103965826062339520e-06,6.790021426942677643e-03,1.298476862555842148e-06,1.286529361632666145e-02,2.102400835628356295e-06,1.259773665989547854e-02,2.101917749744871938e-06
1.070000000000000000e+02,1.080000000000000000e+02,1.115176827755903072e-02,1.897072588922994542e-06,6.057641811533564201e-03,1.186086168807305168e-06,1.319435078750868379e-02,2.080241761219424501e-06,6.801599762769901247e-03,1.227507850969630161e-06,1.282749351802730392e-02,2.078721903868554826e-06,1.256084652899087419e-02,2.078266351914563588e-06
1.080000000000000000e+02,1.090000000000000000e+02,1.111132671388004138e-02,1.869572864906172250e-06,6.065203464237140830e-03,1.234830841000919858e-06,1.314941591504831947e-02,2.033527417189153812e-06,6.815424690431249113e-03,1.276536553087497349e-06,1.278518587256989580e-02,2.031855541172518544e-06,1.251937618573623762e-02,2.031340358523007698e-06
1.090000000000000000e+02,1.100000000000000000e+02,1.106991307882802984e-02,2.013250243167712828e-06,6.073037344000838979e-03,1.354901189252302013e-06,1.310419641859608512e-02,2.188360926032258416e-06,6.829735319476829512e-03,1.388811973453869757e-06,1.274305978009916338e-02,2.186907426993683381e-06,1.247822463315839334e-02,2.186437721537464296e-06
1.100000000000000000e+02,1.110000000000000000e+02,1.102727915091473131e-02,1.869997656318306362e-06,6.081900606841482773e-03,1.180771708839682666e-06,1.305931502428339490e-02,2.024564501470111267e-06,6.845650465118615496e-03,1.219858640963328939e-06,1.270128587928203052e-02,2.022952087903269046e-06,1.243752681097483846e-02,2.022472257572082836e-06
1.110000000000000000e+02,1.120000000000000000e+02,1.098498372039991358e-02,1.853111469007696654e-06,6.095773373694908862e-03,1.176192147150623057e-06,1.301353808737554935e-02,2.019792833234179056e-06,6.866012853741242962e-03,1.215037110607265400e-06,1.265881341735211087e-02,2.018211930073817523e-06,1.239602583870230527e-02,2.017700195723387883e-06
1.120000000000000000e+02,1.130000000000000000e+02,1.094286954090324324e-02,1.973329918866498316e-06,6.110042948647982641e-03,1.302633594921013784e-06,1.296576449442210684e-02,2.115415202751709539e-06,6.887115368785286240e-03,1.339593892738454894e-06,1.261449033396262048e-02,2.113821107720186803e-06,1.235282347160632059e-02,2.113301489042514230e-06
1.130000000000000000e+02,1.140000000000000000e+02,1.089825971945173992e-02,1.967120196821620024e-06,6.126252929176292765e-03,1.258918239431349534e-06,1.291745311053009611e-02,2.120843331245696985e-06,6.911012798294721357e-03,1.299711648356572845e-06,1.256975715604672326e-02,2.119522413661672156e-06,1.230894917688966916e-02,2.119022380700878507e-06
1.140000000000000000e+02,1.150000000000000000e+02,1.085765468019359373e-02,1.976032851698983512e-06,6.146660975982792818e-03,1.276167007346770439e-06,1.287160659101208374e-02,2.109473103634530839e-06,6.938413164212952310e-03,1.314598209805891545e-06,1.252759793598387690e-02,2.107982743180912848e-06,1.226782327947417012e-02,2.107489849343638370e-06
1.150000000000000000e+02,1.160000000000000000e+02,1.081701625962768441e-02,1.884458453028336509e-06,6.168131501115335300e-03,1.279672126576271143e-06,1.282623545569918505e-02,2.045141154405503165e-06,6.967646011213858050e-03,1.316648305158075850e-06,1.248602943120637881e-02,2.043810014858088348e-06,1.222731027657779877e-02,2.043246182482935626e-06
1.160000000000000000e+02,1.170000000000000000e+02,1.077418698681562211e-02,1.942083630903579725e-06,6.192570893956481429e-03,1.336041365837411308e-06,1.277815033885219484e-02,2.082817923089895284e-06,6.999754146072514720e-03,1.375294047877019917e-06,1.244192231949345709e-02,2.081302558317998665e-06,1.218422963065757432e-02,2.080817543887413815e-06
1.170000000000000000e+02,1.180000000000000000e+02,1.072948929879649974e-02,1.919828762765464272e-06,6.217283260894420314e-03,1.261743391334709820e-06,1.273172088346207972e-02,2.042934641046378168e-06,7.033874621638864372e-03,1.304777330392442769e-06,1.239956828309339044e-02,2.041504965314662543e-06,1.214292020583437534e-02,2.040969446255546392e-06
1.180000000000000000e+02,1.190000000000000000e+02,1.069153680328656202e-02,2.015936710782420442e-06,6.246002255849762014e-03,1.393659785044364424e-06,1.268837774450702963e-02,2.165554758762715542e-06,7.071274468707090290e-03,1.430939568015307045e-06,1.236018337846150374e-02,2.164194150891822062e-06,1.210456940102378094e-02,2.163691118714547994e-06
1.190000000000000000e+02,1.200000000000000000e+02,1.064836354220070197e-02,1.944387845043641917e-06,6.274509011526751071e-03,1.313974551820513561e-06,1.264170287279302828e-02,2.109140723619452427e-06,7.109749339282015086e-03,1.347799331835989167e-06,1.231779411097912690e-02,2.107751287379512233e-06,1.206309455754045294e-02,2.107260379807956442e-06
1.200000000000000000e+02,1.210000000000000000e+02,1.060573869303678939e-02,1.990701901008836955e-06,6.305204134053044723e-03,1.362025637825264812e-06,1.259711452232526417e-02,2.133465305575897510e-06,7.150908299428259188e-03,1.402363028327056406e-06,1.227755422015192228e-02,2.132183961285229286e-06,1.202392023434921409e-02,2.131667087678318381e-06
1.210000000000000000e+02,1.220000000000000000e+02,1.056520638241927913e-02,2.024256870294750390e-06,6.338355357257710772e-03,1.398088705868234402e-06,1.255202520090904252e-02,2.183008113904663158e-06,7.193545114416474533e-03,1.438223544885605254e-06,1.223684992147021020e-02,2.181586132154842798e-06,1.198419994737487913e-02,2.181102779193368925e-06
1.220000000000000000e+02,1.230000000000000000e+02,1.052614719157980196e-02,2.009182603629841697e-06,6.375675015652175655e-03,1.386425500636892268e-06,1.251092060286245096e-02,2.148454231180896532e-06,7.241879374339951943e-03,1.423902596610400667e-06,1.220025870649175080e-02,2.147036353725936028e-06,1.194858240037924117e-02,2.146459230262433072e-06
1.230000000000000000e+02,1.240000000000000000e+02,1.048565674417537008e-02,2.040333754985391563e-06,6.412692313800660154e-03,1.465221017510207196e-06,1.246862328206952385e-02,2.158343781368217551e-06,7.290773129153575380e-03,1.504791411311987487e-06,1.216254444466452998e-02,2.156979118864718690e-06,1.191192459233105481e-02,2.156429572596384387e-06
1.240000000000000000e+02,1.250000000000000000e+02,1.044596005886342348e-02,1.999333132591885847e-06,6.451927330655279728e-03,1.437348531521919846e-06,1.242731167935534620e-02,2.121494467301097639e-06,7.342520517558535909e-03,1.478590947218290133e-06,1.212571365182653349e-02,2.120235368034364568e-06,1.187615723418197072e-02,2.119696505683051322e-06
1.250000000000000000e+02,1.260000000000000000e+02,1.040820543535017802e-02,1.929932201078496834e-06,6.492712811177837016e-03,1.365725095597349216e-06,1.238867430860678132e-02,2.043512004757269825e-06,7.395373734816938424e-03,1.404779407355411454e-06,1.209188107413350713e-02,2.042331264792975547e-06,1.184322154685720635e-02,2.041800845769023834e-06
1.260000000000000000e+02,1.270000000000000000e+02,1.036667397668426631e-02,1.848281915365549657e-06,6.535445138506537806e-03,1.373854395352131864e-06,1.234780692848005609e-02,1.974747636790181286e-06,7.451210952770157686e-03,1.414670140184381582e-06,1.205572855455810770e-02,1.973540372544023588e-06,1.180800449099095144e-02,1.973081634121849800e-06
1.270000000000000000e+02,1.280000000000000000e+02,1.032498886240832553e-02,1.590530282171653350e-06,6.580442036977132009e-03,1.150952188740023320e-06,1.230837111078549387e-02,1.759740719778672592e-06,7.511674859735175715e-03,1.203062936021594030e-06,1.202140360773143977e-02,1.758650387155762493e-06,1.177469601953742145e-02,1.758180399814560777e-06
1.280000000000000000e+02,1.290000000000000000e+02,1.028397018383687446e-02,1.664211809723895793e-06,6.625687825114755930e-03,1.074280584036508718e-06,1.226853367033376926e-02,1.941276087371928484e-06,7.571770426501830617e-03,1.136245498538497492e-06,1.198663041495816838e-02,1.940195450433894197e-06,1.174094093924457627e-02,1.939799285050289504e-06
1.290000000000000000e+02,1.300000000000000000e+02,1.023680311872505327e-02,2.698814066398244283e-06,6.670785675424626207e-03,1.788603458042652303e-06,1.222561934720428796e-02,2.970151503508744826e-06,7.632658011683472396e-03,1.850942425682132982e-06,1.194898464416850603e-02,2.968843887284282805e-06,1.170459588126616067e-02,2.968123092429785707e-06
