# xl,xh,LO,dLO,LOISC,dLOISC,NLO,dNLO,NLOISC,dNLOISC,NLOL,dNLOL,NLOnovp,dNLOnovp
1.400000000000000000e+02,1.450000000000000000e+02,9.525626474936610083e-06,2.970798907028390565e-08,7.366809580026289308e-06,2.047950302503553691e-08,1.034214320562593487e-05,5.114122096712422482e-08,7.808654892863637907e-06,3.260204951538517949e-08,1.024791678265308258e-05,5.113297481738251624e-08,1.005114598521442856e-05,5.112842821573131474e-08
1.450000000000000000e+02,1.500000000000000000e+02,2.884564262387347619e-05,5.415772562476726936e-08,2.229217996032149552e-05,3.926722334490386703e-08,3.132010485069699102e-05,8.456982118015303684e-08,2.355165947026472480e-05,5.544886602861036359e-08,3.102646346916996785e-05,8.455641153564561149e-08,3.042114687017344861e-05,8.454886114671716781e-08
1.500000000000000000e+02,1.550000000000000000e+02,4.850830399475482843e-05,6.558103534408986791e-08,3.718422979755072735e-05,4.869489675811507488e-08,5.280618671797090069e-05,1.043140577045722346e-07,3.937870544861824413e-05,6.531956744696109776e-08,5.230983481232905687e-05,1.042926736480524783e-07,5.129031355530000907e-05,1.042824522232667730e-07
1.550000000000000000e+02,1.600000000000000000e+02,6.823274561390154627e-05,7.738870147987797279e-08,5.201256995066389036e-05,5.470600889071780086e-08,7.447794557391610826e-05,1.306157832135632542e-07,5.526488523389624149e-05,9.472919146555452567e-08,7.376631059524143240e-05,1.305927707093212682e-07,7.232938495082504623e-05,1.305802843340536146e-07
1.600000000000000000e+02,1.650000000000000000e+02,2.466021918013711262e-04,1.294931803602540425e-07,1.841546037561225292e-04,9.704956278701493042e-08,2.701737037777290906e-04,2.004794293279358986e-07,1.952361735034473939e-04,1.453483830258511530e-07,2.674288761532707588e-04,2.004363309009153484e-07,2.621705235780154622e-04,2.004178558575701084e-07
1.650000000000000000e+02,1.700000000000000000e+02,4.032630402686035063e-04,1.602380946709733429e-07,2.990222758247779731e-04,1.245534033964914074e-07,4.424710945102407786e-04,2.546987772408512062e-07,3.171693477259434290e-04,1.766701447519309195e-07,4.379210597517286000e-04,2.546478123355502735e-07,4.292900383391659125e-04,2.546240846326479334e-07
1.700000000000000000e+02,1.750000000000000000e+02,5.180194952031455134e-04,1.836884040130326407e-07,3.823604108435295443e-04,1.366186457956771246e-07,5.690578934748102878e-04,2.959704861904728137e-07,4.059221422707546601e-04,2.031746874820829726e-07,5.631868489751937733e-04,2.959110578629597907e-07,5.520659499045779770e-04,2.958816080708871645e-07
1.750000000000000000e+02,1.800000000000000000e+02,6.191035984951324391e-04,1.961021508664065027e-07,4.548933671850197993e-04,1.504833655996593693e-07,6.814402609971421465e-04,3.143814311220929069e-07,4.834505055133414336e-04,2.256077069690235686e-07,6.743824962376298270e-04,3.143221988433954212e-07,6.610496157816182208e-04,3.142886985337213156e-07
1.800000000000000000e+02,1.850000000000000000e+02,7.107465985247061980e-04,2.266364934305833029e-07,5.194789519888943748e-04,1.718959966054040190e-07,7.831974531734236080e-04,3.509134691651126561e-07,5.527893534088038855e-04,2.433012493047982872e-07,7.750484329687547854e-04,3.508461988421152004e-07,7.597004052294864486e-04,3.508135276524134017e-07
1.850000000000000000e+02,1.900000000000000000e+02,7.532070900838490042e-04,2.291964090890532170e-07,5.478324393449446978e-04,1.783011786051080953e-07,8.321780393744047108e-04,3.551467309241736112e-07,5.839227512498733558e-04,2.520484857212884650e-07,8.234738622424678765e-04,3.550806099706550893e-07,8.071521765672760992e-04,3.550468277942562539e-07
1.900000000000000000e+02,1.950000000000000000e+02,7.803558756893606970e-04,2.333276467857077052e-07,5.639758092108184502e-04,1.712238751947771800e-07,8.636000486296704524e-04,3.603036010380854634e-07,6.017744512069982121e-04,2.366070592344350009e-07,8.545324831375843795e-04,3.602248145986294429e-07,8.375771256284276307e-04,3.601885393778630311e-07
1.950000000000000000e+02,2.000000000000000000e+02,8.079856582577637234e-04,2.376977734271374460e-07,5.809165908434870979e-04,1.799944467457886808e-07,8.956631298417558297e-04,3.659645100024301683e-07,6.205651051835945871e-04,2.451090956115001915e-07,8.862140089747340107e-04,3.658813978243424466e-07,8.685904440081010413e-04,3.658450283428339123e-07
2.000000000000000000e+02,2.050000000000000000e+02,8.369156621246898534e-04,2.251412725329999801e-07,5.979068743888426261e-04,1.618850879794292209e-07,9.297401079545665904e-04,3.720297447571775229e-07,6.398899037804729175e-04,2.525422354733559630e-07,9.198919665020028258e-04,3.719467162190463638e-07,9.015996994466894763e-04,3.719073786271415176e-07
2.050000000000000000e+02,2.100000000000000000e+02,8.659880582805158742e-04,2.454409293080241544e-07,6.154882768377342413e-04,1.866647731904979560e-07,9.643456998643122526e-04,3.859419012805968037e-07,6.595997859183379752e-04,2.634601578655177920e-07,9.541074381276220097e-04,3.858495194584760972e-07,9.351150870901599882e-04,3.858123275558177350e-07
2.100000000000000000e+02,2.150000000000000000e+02,8.958424856060478786e-04,2.461486365318952318e-07,6.328695758419983133e-04,1.797519283439345360e-07,9.996745503957596597e-04,3.892109292849160596e-07,6.793950952782315490e-04,2.523825039419697379e-07,9.889940358651029724e-04,3.891024458270228381e-07,9.692820573190251985e-04,3.890614393292203156e-07
2.150000000000000000e+02,2.200000000000000000e+02,9.273333986314627117e-04,2.545795817357671321e-07,6.511669545206364741e-04,1.822223911274316775e-07,1.037251729350269517e-03,3.898876630372805128e-07,7.000277580343502266e-04,2.585690520584854222e-07,1.026123408214165474e-03,3.897919011007962975e-07,1.005664790426226505e-03,3.897504904599137805e-07
2.200000000000000000e+02,2.250000000000000000e+02,9.595275441666453959e-04,2.626743631673154306e-07,6.695555930895647195e-04,1.974252216024283778e-07,1.075878815740221846e-03,3.935611469807580750e-07,7.211664430469286527e-04,2.614190160646519056e-07,1.064255742013180996e-03,3.934629919743483268e-07,1.043021005706760030e-03,3.934209602592315483e-07
2.250000000000000000e+02,2.300000000000000000e+02,9.928347327866834937e-04,2.661093656656455711e-07,6.885501691534554698e-04,1.899722860961922185e-07,1.115758966272048600e-03,3.926949704509940443e-07,7.427094669762846066e-04,2.658723048241035315e-07,1.103637137017272288e-03,3.925943940866139377e-07,1.081598198891162892e-03,3.925504249590728083e-07
2.300000000000000000e+02,2.350000000000000000e+02,1.027171144951563456e-03,2.579212147682942791e-07,7.081430001426189348e-04,1.836350315776960274e-07,1.157150634850314915e-03,3.944182807179449293e-07,7.652304577537041809e-04,2.592008523827876473e-07,1.144461265480565529e-03,3.943217958008908271e-07,1.121598439707076214e-03,3.942758010250239695e-07
2.350000000000000000e+02,2.400000000000000000e+02,1.062600436728099998e-03,2.711562586869576755e-07,7.284175869580486549e-04,1.943680223053959929e-07,1.200950191387805451e-03,4.183250575972893363e-07,7.889423513206899295e-04,2.832178906610034818e-07,1.187599587386191239e-03,4.182102105121593234e-07,1.163862593414731949e-03,4.181653817541577615e-07
2.400000000000000000e+02,2.450000000000000000e+02,1.100958554582798276e-03,2.897830682093232852e-07,7.493637325720992970e-04,2.030275201517314098e-07,1.247777580800231521e-03,4.485654865377424495e-07,8.133504818603575067e-04,2.649056736313686526e-07,1.233726775195767697e-03,4.484547708748077538e-07,1.209086547412627655e-03,4.484084306052767729e-07
2.450000000000000000e+02,2.500000000000000000e+02,1.140202009580484292e-03,2.867018098368682249e-07,7.714994831240540351e-04,2.070774730650355774e-07,1.296449953067172790e-03,4.340711309026742683e-07,8.396935294188526957e-04,2.850761104146372719e-07,1.281588398234021669e-03,4.339599083976488152e-07,1.256007791154702905e-03,4.339103235845890590e-07
2.500000000000000000e+02,2.550000000000000000e+02,1.180507753607651887e-03,2.823856408849760951e-07,7.936500278779464986e-04,1.920530627992018098e-07,1.346877360084644190e-03,4.518835193784223459e-07,8.658379707761376968e-04,2.844987264570449203e-07,1.331092724251885110e-03,4.517657283259927425e-07,1.304532015232598560e-03,4.517170928904597545e-07
2.550000000000000000e+02,2.600000000000000000e+02,1.222862795432360294e-03,2.967285757849037190e-07,8.167301706315025205e-04,2.098119184087839171e-07,1.400703827433585512e-03,4.436566209885645938e-07,8.938729904531351805e-04,2.962482628678053361e-07,1.383870962672305955e-03,4.435323952389705013e-07,1.356269441653220513e-03,4.434768876911765903e-07
2.600000000000000000e+02,2.650000000000000000e+02,1.267311629932511667e-03,2.957540544620005949e-07,8.408553713317286566e-04,2.142447275741835041e-07,1.457692460284778623e-03,4.542210234200897013e-07,9.235338006009362766e-04,3.050106769374141354e-07,1.439710509602508274e-03,4.540953214748539135e-07,1.411029636275806191e-03,4.540415615644342275e-07
2.650000000000000000e+02,2.700000000000000000e+02,1.314195620161930263e-03,3.100573774984256052e-07,8.664669916291449893e-04,2.142845259620736933e-07,1.518217784493339304e-03,4.628713023138426738e-07,9.551181152127978784e-04,2.931535988265390678e-07,1.498958032305383950e-03,4.627406423429778539e-07,1.469137822593542027e-03,4.626870059027589909e-07
2.700000000000000000e+02,2.750000000000000000e+02,1.363216146985957037e-03,3.221848038676658190e-07,8.925238881588960305e-04,2.220063665697395467e-07,1.583258760619516954e-03,4.680230689779342560e-07,9.882624807755248115e-04,2.980352139326631475e-07,1.562629686445173114e-03,4.678891456244823046e-07,1.531625728883173002e-03,4.678341059337730279e-07
2.750000000000000000e+02,2.800000000000000000e+02,1.414832685618870687e-03,3.020619460888703373e-07,9.200918709508486022e-04,2.117357150860757886e-07,1.651905312057548808e-03,5.818288663994975626e-07,1.023191290715255372e-03,3.313850296130740018e-07,1.629880086035223217e-03,5.817255197549809066e-07,1.597629081452560558e-03,5.816786293597870459e-07
2.800000000000000000e+02,2.850000000000000000e+02,1.468525751164407840e-03,3.352520653947277966e-07,9.487573571529981991e-04,2.333867215566495829e-07,1.723063498111053428e-03,5.569283088317967317e-07,1.059865158656420362e-03,3.378210562657796251e-07,1.699575689148950190e-03,5.568222211777544588e-07,1.666002055089277302e-03,5.567738600592359273e-07
2.850000000000000000e+02,2.900000000000000000e+02,1.525164783911395075e-03,3.298020493897325346e-07,9.791438470648295474e-04,2.306062489386501154e-07,1.801378791536578216e-03,5.066605672406410585e-07,1.100821736289861203e-03,3.151709500332523836e-07,1.774749254980490009e-03,5.065209318285846236e-07,1.739776253006018866e-03,5.064669206840864721e-07
2.900000000000000000e+02,2.950000000000000000e+02,1.585427906173055143e-03,3.311092149005144082e-07,1.010551547341916739e-03,2.298520728978532653e-07,1.884575976399804204e-03,4.932228929660396213e-07,1.144052163233717995e-03,3.148193249210296849e-07,1.853485718968140433e-03,4.930529873037354473e-07,1.817062468098227862e-03,4.929961582450648629e-07
2.950000000000000000e+02,3.000000000000000000e+02,1.649054066143931319e-03,3.360288284338808306e-07,1.043967638883485857e-03,2.296291116110563742e-07,1.972943066963146839e-03,5.298021793006377836e-07,1.189371091418204868e-03,3.186011519934345987e-07,1.937876154335936877e-03,5.296562709226453169e-07,1.899897097037970542e-03,5.295997669091835422e-07
3.000000000000000000e+02,3.050000000000000000e+02,1.716321046304349280e-03,3.313571723044090654e-07,1.078777240729838138e-03,2.294676635078041884e-07,2.066554498593398299e-03,5.645101653993658505e-07,1.236555268797285938e-03,3.477830421786138690e-07,2.027657902126498487e-03,5.643524723188792262e-07,1.988048151260547996e-03,5.642954286717768300e-07
3.050000000000000000e+02,3.100000000000000000e+02,1.787048702562059159e-03,3.520628932794269608e-07,1.115471593779202930e-03,2.432526483374217500e-07,2.162637679928524313e-03,5.529479520637556609e-07,1.285090860710363892e-03,3.386370215047051245e-07,2.119973710923484835e-03,5.527785638040736390e-07,2.078609439143359622e-03,5.527210034387243952e-07
3.100000000000000000e+02,3.150000000000000000e+02,1.863098152412642284e-03,3.683599797643561533e-07,1.154620884525411765e-03,2.526384567502122393e-07,2.264808019379624306e-03,5.462146241971987566e-07,1.335843022215620806e-03,3.381124502560470435e-07,2.218285878675212413e-03,5.460495281738159562e-07,2.175080148517558737e-03,5.459872363361789195e-07
3.150000000000000000e+02,3.200000000000000000e+02,1.942423826488888592e-03,3.754254106007633523e-07,1.195246550154792017e-03,2.533302844551726663e-07,2.369701367704321084e-03,5.651829651952178453e-07,1.387580505281663101e-03,3.617727903898363779e-07,2.319175791268719526e-03,5.649942795668760485e-07,2.273994763015303386e-03,5.649310537145595074e-07
3.200000000000000000e+02,3.250000000000000000e+02,2.028515334529371918e-03,3.715500145982397429e-07,1.238689094680716675e-03,2.608219781720573302e-07,2.481364860303446763e-03,5.621894328494731279e-07,1.441656877977581623e-03,3.578727807085661293e-07,2.426682559632356833e-03,5.619827521468603566e-07,2.379414656112877405e-03,5.619192290295390573e-07
3.250000000000000000e+02,3.300000000000000000e+02,2.119674066090113627e-03,3.798532463193556401e-07,1.285903666857712195e-03,2.671709824084101620e-07,2.598341811890942602e-03,5.796112328100406981e-07,1.499303164508322336e-03,3.619171990879188482e-07,2.539363700369449712e-03,5.794290786710398676e-07,2.489857908624077288e-03,5.793642350724078483e-07
3.300000000000000000e+02,3.350000000000000000e+02,2.216120170461715732e-03,3.963036067888168755e-07,1.334242153466583649e-03,2.690866205048087707e-07,2.720739087621566049e-03,5.704004065479273653e-07,1.557355125920372287e-03,3.541558061587754485e-07,2.657213006462236411e-03,5.701973313225415867e-07,2.605319243005378444e-03,5.701239490754698984e-07
3.350000000000000000e+02,3.400000000000000000e+02,2.317351009887174025e-03,4.019343518569231228e-07,1.383912591510457965e-03,2.769288329059762533e-07,2.849230416563041778e-03,6.044649257057289249e-07,1.617262984400597882e-03,3.672145482561620311e-07,2.780977590191071377e-03,6.042608635640261035e-07,2.726569657475329256e-03,6.041862624559770049e-07
3.400000000000000000e+02,3.450000000000000000e+02,2.422071437745333938e-03,4.102663032435217769e-07,1.433216003414157806e-03,2.924925666228272813e-07,2.981775874800937729e-03,6.174126855508662559e-07,1.676760521484948335e-03,3.846881878639998378e-07,2.908559359497335343e-03,6.172141494310429652e-07,2.851548863010279315e-03,6.171468677690185207e-07
3.450000000000000000e+02,3.500000000000000000e+02,2.529917641447634175e-03,4.088934983031452442e-07,1.481908803803377471e-03,2.743579383908048164e-07,3.118984764889479872e-03,6.362683401745879754e-07,1.736323759501675213e-03,3.728532429186989372e-07,3.040543892336979200e-03,6.360409639564539032e-07,2.980794684915778325e-03,6.359734331100735286e-07
3.500000000000000000e+02,3.550000000000000000e+02,2.640694828163425278e-03,4.017120385290029886e-07,1.528553988307015639e-03,2.581750823623493132e-07,3.261548098670326214e-03,6.256594741841211961e-07,1.795928701020538948e-03,3.550148422392240102e-07,3.177612417726253125e-03,6.254209968558123489e-07,3.115000543931089987e-03,6.253439052445640253e-07
3.550000000000000000e+02,3.600000000000000000e+02,2.756807834556041902e-03,4.207280161455611154e-07,1.576353627643392727e-03,2.885592214043929753e-07,3.412157364559269355e-03,6.731283728249732085e-07,1.857304690535511961e-03,4.036857873502100609e-07,3.322314370979006018e-03,6.728980279379081343e-07,3.256674134486640775e-03,6.728196744473320168e-07
3.600000000000000000e+02,3.650000000000000000e+02,2.885761010040436073e-03,4.228638272173807108e-07,1.630337509588696259e-03,2.724949788430124314e-07,3.577020639071855097e-03,6.460534761595019695e-07,1.925618639770735989e-03,3.791485697808499758e-07,3.480903593818589388e-03,6.458114573451937475e-07,3.411940443182371469e-03,6.457237680273384627e-07
3.650000000000000000e+02,3.700000000000000000e+02,3.028177880794436904e-03,4.512403107405475341e-07,1.690940923836492917e-03,3.006220141929343073e-07,3.756574020093529642e-03,7.093872777599226466e-07,2.000291101139673854e-03,3.974309104448331147e-07,3.653650498583357800e-03,7.091304657884772325e-07,3.581075931377842008e-03,7.090507997461835631e-07
3.700000000000000000e+02,3.750000000000000000e+02,3.184484360842489148e-03,4.612788612184784997e-07,1.758319333596782084e-03,2.954971464736878655e-07,3.952293362276165616e-03,7.096767399729850149e-07,2.082714561612659422e-03,3.979476733506919319e-07,3.842070564223928376e-03,7.093956182851000923e-07,3.765493132000501640e-03,7.093173153115301973e-07
3.750000000000000000e+02,3.800000000000000000e+02,3.357868888348743489e-03,4.620052956400576655e-07,1.833607397887733947e-03,3.246705827764824631e-07,4.165500091990755223e-03,6.978845726894673105e-07,2.173024305744617954e-03,4.344273464174644901e-07,4.047380426367241588e-03,6.976446386015842214e-07,3.966371036216104554e-03,6.975561114572261964e-07
3.800000000000000000e+02,3.850000000000000000e+02,3.550267135312176140e-03,4.685143255744034521e-07,1.918469783447653010e-03,3.069917401076607300e-07,4.402069948375719743e-03,7.417630260571618708e-07,2.273819379688247263e-03,4.172845242167831948e-07,4.275312246672227645e-03,7.415044805846965347e-07,4.189427601501924565e-03,7.414182706658735661e-07
3.850000000000000000e+02,3.900000000000000000e+02,3.766566466170755047e-03,4.729914337997517393e-07,2.015164641197586190e-03,3.181689907612075839e-07,4.661810891204376528e-03,7.205773117370321641e-07,2.385806276920264361e-03,4.295247058970738191e-07,4.525657599657972353e-03,7.203023919219159561e-07,4.434375670426692409e-03,7.202155530441180172e-07
3.900000000000000000e+02,3.950000000000000000e+02,4.006089836687816257e-03,5.114686083361493063e-07,2.122199670478051945e-03,3.459043599860642241e-07,4.946973522637111882e-03,7.785720919253189394e-07,2.508866075215177623e-03,4.641905047810325682e-07,4.800417422878943199e-03,7.782609567878232886e-07,4.703071346193447681e-03,7.781637268369151828e-07
3.950000000000000000e+02,4.000000000000000000e+02,4.274196678738407564e-03,4.866324188596033335e-07,2.243482621824832712e-03,3.063289529234141177e-07,5.263764732892586666e-03,7.415753403417910662e-07,2.646545155439973974e-03,4.081423478969905180e-07,5.105763852605603448e-03,7.412300923785746957e-07,5.001702504423635905e-03,7.411213133723005272e-07
4.000000000000000000e+02,4.050000000000000000e+02,4.570625844322481757e-03,5.385594657282050687e-07,2.378088063073754543e-03,3.603498121725368265e-07,5.613481033872561032e-03,7.864125504989928246e-07,2.798604066729292773e-03,4.698560239514774825e-07,5.443080999288892399e-03,7.861208037770830099e-07,5.331584716175574896e-03,7.860042855334627829e-07
4.050000000000000000e+02,4.100000000000000000e+02,4.279954359543746215e-03,5.308793443878181666e-07,2.369007832578538895e-03,3.702496969598186986e-07,5.524256998119683217e-03,8.585115295257875662e-07,2.841756278741620033e-03,4.796472476955094496e-07,5.372696553583355093e-03,8.582494178441911535e-07,5.268417056053278404e-03,8.581484418168579816e-07
4.100000000000000000e+02,4.150000000000000000e+02,3.834231149879600929e-03,4.886005816124867292e-07,2.292715050643566888e-03,3.637418696313235170e-07,5.207229673776520538e-03,6.959954620975407553e-07,2.811078600269282472e-03,4.596240805244411499e-07,5.081376146495155711e-03,6.958046962509489276e-07,4.988263688919766445e-03,6.957208353122205236e-07
4.150000000000000000e+02,4.200000000000000000e+02,3.589958857811314900e-03,4.377311064223058299e-07,2.234056011938117918e-03,3.471436647605283578e-07,5.013795566810297193e-03,6.653380750667246557e-07,2.780892816596809789e-03,4.581307716839142319e-07,4.901231387508963970e-03,6.651644510135665110e-07,4.814192085502827165e-03,6.650881141821323822e-07
4.200000000000000000e+02,4.250000000000000000e+02,3.440359794027709941e-03,3.939353812985787093e-07,2.188947181639965770e-03,3.168021914603628153e-07,4.878557065470419396e-03,6.664149324616680488e-07,2.750100320830161597e-03,4.339513512369824762e-07,4.773736525763587826e-03,6.662732172383824076e-07,4.690419803132121063e-03,6.662019839441585790e-07
4.250000000000000000e+02,4.300000000000000000e+02,3.353423865520640309e-03,4.026066642334411142e-07,2.157867381603020829e-03,3.245450050261550179e-07,4.782011777685260881e-03,6.215010962104316296e-07,2.719406918249795378e-03,4.452170088235087891e-07,4.681557948675568043e-03,6.213484735282758756e-07,4.600379452616401750e-03,6.212711853714650957e-07
4.300000000000000000e+02,4.350000000000000000e+02,3.323976539949372727e-03,3.917867545525552403e-07,2.147498414414473512e-03,3.059714335600583863e-07,4.728963618656125550e-03,6.216380797743028533e-07,2.698380930894343169e-03,4.599212105344594729e-07,4.630336705885716719e-03,6.215006344070512882e-07,4.549930675283497296e-03,6.214217046985299158e-07
4.350000000000000000e+02,4.400000000000000000e+02,3.347605543304666472e-03,4.304899670329111193e-07,2.158362602099013917e-03,3.400627087358022403e-07,4.722601067656650997e-03,6.243656821595650511e-07,2.691438623953119197e-03,4.406348378819244237e-07,4.623334590801857734e-03,6.242272880250172051e-07,4.542365592998689680e-03,6.241488156002648568e-07
4.400000000000000000e+02,4.450000000000000000e+02,3.422402279953231773e-03,4.202094027878208213e-07,2.190218384751565096e-03,3.387196518267388943e-07,4.755401260229410315e-03,6.462537397085563654e-07,2.695778455705634055e-03,4.531710450248781051e-07,4.652989512579506354e-03,6.461167856289807814e-07,4.570137315951254900e-03,6.460435102896487468e-07
4.450000000000000000e+02,4.500000000000000000e+02,3.546693378187851329e-03,4.472634262461383344e-07,2.241094842345778097e-03,3.573441049576647214e-07,4.825324994903602838e-03,6.399576171232450996e-07,2.710274416890937933e-03,4.507751286248513075e-07,4.717390142599603257e-03,6.397996400854634698e-07,4.631490318583023069e-03,6.397119140141140143e-07
4.500000000000000000e+02,4.550000000000000000e+02,3.721633913243344027e-03,4.356671338047924321e-07,2.309080180882907857e-03,3.364532403136299090e-07,4.933194142037918006e-03,6.536414353184557340e-07,2.732924307704999792e-03,4.471518599240642385e-07,4.817215320665364613e-03,6.534784529978924222e-07,4.726974231752254646e-03,6.533902786649917552e-07
4.550000000000000000e+02,4.600000000000000000e+02,3.956748604458571253e-03,4.941400789631033226e-07,2.396363481177277589e-03,3.885950388883831622e-07,5.085537306111931159e-03,7.268414921214885870e-07,2.764025679240952795e-03,4.716221242241913166e-07,4.958466790281754882e-03,7.266615825030463472e-07,4.862375932669897420e-03,7.265636121605550842e-07
4.600000000000000000e+02,4.650000000000000000e+02,4.266287696385945120e-03,5.146192770533056458e-07,2.502837119688917141e-03,3.639900380246079990e-07,5.291522987080125862e-03,8.368685664728871538e-07,2.802331900257468752e-03,4.769722962652055189e-07,5.149495170693794630e-03,8.366787209707744692e-07,5.045738826408025478e-03,8.365963528869444669e-07
4.650000000000000000e+02,4.700000000000000000e+02,4.654300693330713258e-03,5.384203424252257824e-07,2.618239791248642197e-03,3.639147736110166765e-07,5.549682468218633362e-03,7.813811183337711676e-07,2.835009370017266273e-03,4.877826393856108312e-07,5.387913505554818745e-03,7.811353712412343569e-07,5.274497805486918003e-03,7.810317069311572363e-07
4.700000000000000000e+02,4.750000000000000000e+02,5.145861294446744602e-03,5.784107101307628658e-07,2.738746407919206895e-03,3.779837603342924925e-07,5.864177406815147472e-03,8.930794948112830926e-07,2.855757598257574123e-03,4.950270216774028467e-07,5.676163562378122064e-03,8.928001276149695157e-07,5.550455110098401895e-03,8.926891579089227803e-07
4.750000000000000000e+02,4.800000000000000000e+02,5.808905680457786096e-03,6.243841577888699757e-07,2.869648629866638264e-03,3.966769587583391270e-07,6.285393623132860645e-03,9.455478170675697394e-07,2.870626193828760588e-03,4.988749756200121965e-07,6.060390571995426419e-03,9.452038447901139623e-07,5.918119953551953007e-03,9.450810582988191049e-07
4.800000000000000000e+02,4.850000000000000000e+02,6.774004134477525606e-03,7.115157601253216808e-07,3.024498712366837424e-03,4.141979300795935669e-07,6.904957810193374824e-03,1.086627025692548105e-06,2.890882289569365448e-03,5.188574496787134579e-07,6.624380742248388645e-03,1.086189705796545022e-06,6.458006873787427472e-03,1.086055278157056686e-06
4.850000000000000000e+02,4.900000000000000000e+02,8.282881986341564598e-03,7.911457456325993144e-07,3.220136363478624548e-03,4.000136322341484274e-07,7.808998687435743033e-03,1.251740999578827781e-06,2.904936263860147163e-03,5.308643644632544735e-07,7.438944692122990282e-03,1.251157897220694682e-06,7.234762954533369497e-03,1.251013470216242129e-06
4.900000000000000000e+02,4.950000000000000000e+02,9.829302583077379613e-03,9.087661392953763508e-07,3.125169164574021202e-03,3.704488164902850947e-07,8.237896486635941373e-03,1.562377186972411295e-06,2.604702020912237626e-03,4.906872609016032255e-07,7.747975657598071310e-03,1.561822525508860436e-06,7.504139118218065493e-03,1.561681838336062428e-06
4.950000000000000000e+02,5.000000000000000000e+02,3.497917666828833597e-03,4.786481108200172427e-07,1.034566228459113174e-03,1.688224263911457444e-07,2.408820966084431088e-03,7.588109726617877239e-07,7.524815075111161884e-04,2.545008424925674924e-07,2.226983155416735125e-03,7.583477335574615454e-07,2.139801985890471461e-03,7.582642733250895550e-07
5.000000000000000000e+02,5.050000000000000000e+02,0.000000000000000000e+00,0.000000000000000000e+00,0.000000000000000000e+00,0.000000000000000000e+00,0.000000000000000000e+00,0.000000000000000000e+00,0.000000000000000000e+00,0.000000000000000000e+00,0.000000000000000000e+00,0.000000000000000000e+00,0.000000000000000000e+00,0.000000000000000000e+00
5.050000000000000000e+02,5.100000000000000000e+02,0.000000000000000000e+00,0.000000000000000000e+00,0.000000000000000000e+00,0.000000000000000000e+00,0.000000000000000000e+00,0.000000000000000000e+00,0.000000000000000000e+00,0.000000000000000000e+00,0.000000000000000000e+00,0.000000000000000000e+00,0.000000000000000000e+00,0.000000000000000000e+00
5.100000000000000000e+02,5.150000000000000000e+02,0.000000000000000000e+00,0.000000000000000000e+00,0.000000000000000000e+00,0.000000000000000000e+00,0.000000000000000000e+00,0.000000000000000000e+00,0.000000000000000000e+00,0.000000000000000000e+00,0.000000000000000000e+00,0.000000000000000000e+00,0.000000000000000000e+00,0.000000000000000000e+00
