# xl,xh,LO,dLO,LOISC,dLOISC,NLO,dNLO,NLOISC,dNLOISC,NLOL,dNLOL,NLOnovp,dNLOnovp
5.000000000000000000e+01,5.100000000000000000e+01,3.707130543873213280e-02,7.675715133843437921e-06,3.468987603047688634e-02,7.467699196827812640e-06,4.171703535329980561e-02,7.876507648352110429e-06,3.933560594504455915e-02,7.673936487418883443e-06,4.171703535329980561e-02,7.876507648352110429e-06,4.171703535329980561e-02,7.876507648352110429e-06
5.100000000000000000e+01,5.200000000000000000e+01,3.671847530163319107e-02,4.661586398798166317e-06,3.428690627794790668e-02,4.488574136135105023e-06,4.128482463418047671e-02,4.884224472969297507e-06,3.885325561049519233e-02,4.719381180247380204e-06,4.128482463418047671e-02,4.884224472969297507e-06,4.128482463418047671e-02,4.884224472969297507e-06
5.200000000000000000e+01,5.300000000000000000e+01,3.637151094537045132e-02,5.685912700254809498e-06,3.389109035823752863e-02,5.559895910008165083e-06,4.086910429745294060e-02,5.865323629079353901e-06,3.838868371032001792e-02,5.743244777044001277e-06,4.086910429745294060e-02,5.865323629079353901e-06,4.086910429745294060e-02,5.865323629079353901e-06
5.300000000000000000e+01,5.400000000000000000e+01,3.604727700199730073e-02,5.821528902004341995e-06,3.352039930297905090e-02,5.677336801227079187e-06,4.047611036547610341e-02,5.977213469794235448e-06,3.794923266645785359e-02,5.836868617776580082e-06,4.047611036547610341e-02,5.977213469794235448e-06,4.047611036547610341e-02,5.977213469794235448e-06
5.400000000000000000e+01,5.500000000000000000e+01,3.572013417509963679e-02,5.810415604705547688e-06,3.314909958906964160e-02,5.632896947022670768e-06,4.008775064928109255e-02,5.973226799480810796e-06,3.751671606325109737e-02,5.800692796072496619e-06,4.008775064928109255e-02,5.973226799480810796e-06,4.008775064928109255e-02,5.973226799480810796e-06
5.500000000000000000e+01,5.600000000000000000e+01,3.543126137934061309e-02,5.792970770568076105e-06,3.281678302426228877e-02,5.614337711172858117e-06,3.974058572118399635e-02,5.954967127383966414e-06,3.712610736610567203e-02,5.781341632758371742e-06,3.974058572118399635e-02,5.954967127383966414e-06,3.974058572118399635e-02,5.954967127383966414e-06
5.600000000000000000e+01,5.700000000000000000e+01,3.513309072738787786e-02,5.289102945784832660e-06,3.247469611596996708e-02,5.078232138977233179e-06,3.938553972663145358e-02,5.458420347367615183e-06,3.672714511521354280e-02,5.254349091446844735e-06,3.938553972663145358e-02,5.458420347367615183e-06,3.938553972663145358e-02,5.458420347367615183e-06
5.700000000000000000e+01,5.800000000000000000e+01,3.485096836525599512e-02,5.868923697334402391e-06,3.215509512388565333e-02,5.678821477709897078e-06,3.904861017317381305e-02,6.019526518934508136e-06,3.635273693180347127e-02,5.834333511440848776e-06,3.904861017317381305e-02,6.019526518934508136e-06,3.904861017317381305e-02,6.019526518934508136e-06
5.800000000000000000e+01,5.900000000000000000e+01,3.460078210009097377e-02,5.683879262119691117e-06,3.186161550534659381e-02,5.489994219498769686e-06,3.874867671046659801e-02,5.827048130568415186e-06,3.600951011572221805e-02,5.638088592753440444e-06,3.874867671046659801e-02,5.827048130568415186e-06,3.874867671046659801e-02,5.827048130568415186e-06
5.900000000000000000e+01,6.000000000000000000e+01,3.434664632244595339e-02,5.637015495858507251e-06,3.156637149950077686e-02,5.428538550412976066e-06,3.844469130002107354e-02,5.792967636727908112e-06,3.566441647707589702e-02,5.590309573981372765e-06,3.844469130002107354e-02,5.792967636727908112e-06,3.844469130002107354e-02,5.792967636727908112e-06
6.000000000000000000e+01,6.100000000000000000e+01,3.410386394716086872e-02,6.183212545846012720e-06,3.128728505820196903e-02,6.006859075810103074e-06,3.815610651809779597e-02,6.330673385223405495e-06,3.533952762913889628e-02,6.158543990255379696e-06,3.815610651809779597e-02,6.330673385223405495e-06,3.815610651809779597e-02,6.330673385223405495e-06
6.100000000000000000e+01,6.200000000000000000e+01,3.387336068218856078e-02,5.262954760193842275e-06,3.102003531597394628e-02,5.053096085986063285e-06,3.788360701542120568e-02,5.442702319482097319e-06,3.503028164920659465e-02,5.240047307501760711e-06,3.788360701542120568e-02,5.442702319482097319e-06,3.788360701542120568e-02,5.442702319482097319e-06
6.200000000000000000e+01,6.300000000000000000e+01,3.367162571168283436e-02,5.869656989156229763e-06,3.077782740687183549e-02,5.689583779285956040e-06,3.764131796175444050e-02,6.017960888695591313e-06,3.474751965694344163e-02,5.842460412277785658e-06,3.764131796175444050e-02,6.017960888695591313e-06,3.764131796175444050e-02,6.017960888695591313e-06
6.300000000000000000e+01,6.400000000000000000e+01,3.345869470800037077e-02,5.096544512985741300e-06,3.053383629699781693e-02,4.887377029664186059e-06,3.738601072937514092e-02,5.263417440981403742e-06,3.446115231837258708e-02,5.061151194666217370e-06,3.738601072937514092e-02,5.263417440981403742e-06,3.738601072937514092e-02,5.263417440981403742e-06
6.400000000000000000e+01,6.500000000000000000e+01,3.326737958380392851e-02,5.260484933206132403e-06,3.030566107519464675e-02,5.069397569612568385e-06,3.716067312004784490e-02,5.420394639433891303e-06,3.419895461143856313e-02,5.235147374573972580e-06,3.716067312004784490e-02,5.420394639433891303e-06,3.716067312004784490e-02,5.420394639433891303e-06
6.500000000000000000e+01,6.600000000000000000e+01,3.309107719018856975e-02,5.586403684567056177e-06,3.009657496180442871e-02,5.417357583025563433e-06,3.694738862075588187e-02,5.735406363974601687e-06,3.395288639237174083e-02,5.570883521968534887e-06,3.694738862075588187e-02,5.735406363974601687e-06,3.694738862075588187e-02,5.735406363974601687e-06
6.600000000000000000e+01,6.700000000000000000e+01,3.292256671558100450e-02,5.686906278999914597e-06,2.989377912586865457e-02,5.509703139956508152e-06,3.674641759488175841e-02,5.825711607196965063e-06,3.371763000516941194e-02,5.652861345774137694e-06,3.674641759488175841e-02,5.825711607196965063e-06,3.674641759488175841e-02,5.825711607196965063e-06
6.700000000000000000e+01,6.800000000000000000e+01,3.275399666622424988e-02,5.376561552180172149e-06,2.969517734905197798e-02,5.184406867882578153e-06,3.654481749201272250e-02,5.548492367220781102e-06,3.348599817484045060e-02,5.362502027642810501e-06,3.654481749201272250e-02,5.548492367220781102e-06,3.654481749201272250e-02,5.548492367220781102e-06
6.800000000000000000e+01,6.900000000000000000e+01,3.259839635792293605e-02,5.472111427603886777e-06,2.950674073146378543e-02,5.297480940168437155e-06,3.635941475703921566e-02,5.606444563359960405e-06,3.326775913058006851e-02,5.436131112966581190e-06,3.635941475703921566e-02,5.606444563359960405e-06,3.635941475703921566e-02,5.606444563359960405e-06
6.900000000000000000e+01,7.000000000000000000e+01,3.244843642233272152e-02,5.512789621607522855e-06,2.933019927883239591e-02,5.341148443580979114e-06,3.618372264059972060e-02,5.653587230584551850e-06,3.306548549709939500e-02,5.486352691733607735e-06,3.618372264059972060e-02,5.653587230584551850e-06,3.618372264059972060e-02,5.653587230584551850e-06
7.000000000000000000e+01,7.100000000000000000e+01,3.233843633763256592e-02,5.485025340699621281e-06,2.918875936190229101e-02,5.318162466731229325e-06,3.604506676686606431e-02,5.639256595194105796e-06,3.289538979113578593e-02,5.477094483471324748e-06,3.604506676686606431e-02,5.639256595194105796e-06,3.604506676686606431e-02,5.639256595194105796e-06
7.100000000000000000e+01,7.200000000000000000e+01,3.218846437993050369e-02,5.796420439223405175e-06,2.901384834704820448e-02,5.626305992527219941e-06,3.587302680627387635e-02,5.930002637143959296e-06,3.269841077339157714e-02,5.763832101114254648e-06,3.587302680627387635e-02,5.930002637143959296e-06,3.587302680627387635e-02,5.930002637143959296e-06
7.200000000000000000e+01,7.300000000000000000e+01,3.207706733492630968e-02,5.201482092616755108e-06,2.887598344343628512e-02,5.034300034010878589e-06,3.573871768163437712e-02,5.372382198338260511e-06,3.253763379014434909e-02,5.210686265517335092e-06,3.573871768163437712e-02,5.372382198338260511e-06,3.573871768163437712e-02,5.372382198338260511e-06
7.300000000000000000e+01,7.400000000000000000e+01,3.197160960838823368e-02,5.201331043402546188e-06,2.874472170040362831e-02,5.022700764556405794e-06,3.560901743314269507e-02,5.359631689635076051e-06,3.238212952515808624e-02,5.186456419922278916e-06,3.560901743314269507e-02,5.359631689635076051e-06,3.560901743314269507e-02,5.359631689635076051e-06
7.400000000000000000e+01,7.500000000000000000e+01,3.186166495324092157e-02,5.140127424403100951e-06,2.861403748501529717e-02,4.961192757980541347e-06,3.547880426929927306e-02,5.299272801652672066e-06,3.223117680107364519e-02,5.125896591726511531e-06,3.547880426929927306e-02,5.299272801652672066e-06,3.547880426929927306e-02,5.299272801652672066e-06
7.500000000000000000e+01,7.600000000000000000e+01,3.176839607011344713e-02,5.063489158440593237e-06,2.849384731391657252e-02,4.874851147747832298e-06,3.536716759883259259e-02,5.227485915586675531e-06,3.209261884263571452e-02,5.044983672194589767e-06,3.536716759883259259e-02,5.227485915586675531e-06,3.536716759883259259e-02,5.227485915586675531e-06
7.600000000000000000e+01,7.700000000000000000e+01,3.168523469490430733e-02,5.482893418998435111e-06,2.839518295321519920e-02,5.304281201829540946e-06,3.526483760661396072e-02,5.619753691183246057e-06,3.197478586492485952e-02,5.445632229002762941e-06,3.526483760661396072e-02,5.619753691183246057e-06,3.526483760661396072e-02,5.619753691183246057e-06
7.700000000000000000e+01,7.800000000000000000e+01,3.160850918931339820e-02,5.268597877188571210e-06,2.829624405626467512e-02,5.101552469271372258e-06,3.517275914822647065e-02,5.409609325840747644e-06,3.186049401517774410e-02,5.247055084848654417e-06,3.517275914822647065e-02,5.409609325840747644e-06,3.517275914822647065e-02,5.409609325840747644e-06
7.800000000000000000e+01,7.900000000000000000e+01,3.153226219626796556e-02,5.295346491335254075e-06,2.820528337343343461e-02,5.130096966590294321e-06,3.508182434711203113e-02,5.451388923727001354e-06,3.175484552427750018e-02,5.291015178683179120e-06,3.508182434711203113e-02,5.451388923727001354e-06,3.508182434711203113e-02,5.451388923727001354e-06
7.900000000000000000e+01,8.000000000000000000e+01,3.146480541217361315e-02,5.096911660912044219e-06,2.811981195393807934e-02,4.926248169337133597e-06,3.500293574915628453e-02,5.248136145411529185e-06,3.165794229092074724e-02,5.082553054079343701e-06,3.500293574915628453e-02,5.248136145411529185e-06,3.500293574915628453e-02,5.248136145411529185e-06
8.000000000000000000e+01,8.100000000000000000e+01,3.139388111437742268e-02,5.406180764593904886e-06,2.803482635371103149e-02,5.239890965532763135e-06,3.491603311675643695e-02,5.564417548735472096e-06,3.155697835609004576e-02,5.403000048850824210e-06,3.491603311675643695e-02,5.564417548735472096e-06,3.491603311675643695e-02,5.564417548735472096e-06
8.100000000000000000e+01,8.200000000000000000e+01,3.133915232733017198e-02,5.137025991923834329e-06,2.796623724881644110e-02,4.977562762409175165e-06,3.485503050501433109e-02,5.310900635554256986e-06,3.148211542650060368e-02,5.156816903163424338e-06,3.485503050501433109e-02,5.310900635554256986e-06,3.485503050501433109e-02,5.310900635554256986e-06
8.200000000000000000e+01,8.300000000000000000e+01,3.129211876292405797e-02,5.227361244578757857e-06,2.790737463963565562e-02,5.062779045369746133e-06,3.479487671613314820e-02,5.376605009467601330e-06,3.141013259284474585e-02,5.216733413616525147e-06,3.479487671613314820e-02,5.376605009467601330e-06,3.479487671613314820e-02,5.376605009467601330e-06
8.300000000000000000e+01,8.400000000000000000e+01,3.126759592043192731e-02,4.614250783680594252e-06,2.787060212279282231e-02,4.442511734614395167e-06,3.476268784439066201e-02,4.783221687340674750e-06,3.136569404675155354e-02,4.617771099538802263e-06,3.476268784439066201e-02,4.783221687340674750e-06,3.476268784439066201e-02,4.783221687340674750e-06
8.400000000000000000e+01,8.500000000000000000e+01,3.121776504648834244e-02,5.204806872241119853e-06,2.781333282183600514e-02,5.042198314253394358e-06,3.470399292288227355e-02,5.347140414983514812e-06,3.129956069822993625e-02,5.188994110661666370e-06,3.470399292288227355e-02,5.347140414983514812e-06,3.470399292288227355e-02,5.347140414983514812e-06
8.500000000000000000e+01,8.600000000000000000e+01,3.118012445112015862e-02,5.563715092612029470e-06,2.776913650389692748e-02,5.399006776924854431e-06,3.466060704995065078e-02,5.695270696480110054e-06,3.124961910272741616e-02,5.534478914198395944e-06,3.466060704995065078e-02,5.695270696480110054e-06,3.466060704995065078e-02,5.695270696480110054e-06
8.600000000000000000e+01,8.700000000000000000e+01,3.116962974072667175e-02,5.064036931060110917e-06,2.775137804117949053e-02,4.889380283221514242e-06,3.464787668723069008e-02,5.227457093858988422e-06,3.122962498768350886e-02,5.058446123361526633e-06,3.464787668723069008e-02,5.227457093858988422e-06,3.464787668723069008e-02,5.227457093858988422e-06
8.700000000000000000e+01,8.800000000000000000e+01,3.114431562554690822e-02,4.958506092985771558e-06,2.772351726173730851e-02,4.785280898931188748e-06,3.461831642813471832e-02,5.109964229357961140e-06,3.119751806432511515e-02,4.942050691040771552e-06,3.461831642813471832e-02,5.109964229357961140e-06,3.461831642813471832e-02,5.109964229357961140e-06
8.800000000000000000e+01,8.900000000000000000e+01,3.113863036646626059e-02,5.195889924687960971e-06,2.771246142088819656e-02,5.027835709614742844e-06,3.461129210757484670e-02,5.351281404502458888e-06,3.118512316199678613e-02,5.188262954359303780e-06,3.461129210757484670e-02,5.351281404502458888e-06,3.461129210757484670e-02,5.351281404502458888e-06
8.900000000000000000e+01,9.000000000000000000e+01,3.111556956426460296e-02,5.091279264875574592e-06,2.768882492185763960e-02,4.928097585821374954e-06,3.458698187101808680e-02,5.232555462834630797e-06,3.116023722861112344e-02,5.073919385846313122e-06,3.458698187101808680e-02,5.232555462834630797e-06,3.458698187101808680e-02,5.232555462834630797e-06
9.000000000000000000e+01,9.100000000000000000e+01,3.113852281434324049e-02,5.338821868270819883e-06,2.770936981374100272e-02,5.177570524505952686e-06,3.460975966912535617e-02,5.488820273226904061e-06,3.118060666852312188e-02,5.332107049459227173e-06,3.460975966912535617e-02,5.488820273226904061e-06,3.460975966912535617e-02,5.488820273226904061e-06
9.100000000000000000e+01,9.200000000000000000e+01,3.113349162689565269e-02,5.294210983433672177e-06,2.770983110565445814e-02,5.100391212516506506e-06,3.460459633208957941e-02,5.448931909116727982e-06,3.118093581084838486e-02,5.260815481823737245e-06,3.460459633208957941e-02,5.448931909116727982e-06,3.460459633208957941e-02,5.448931909116727982e-06
9.200000000000000000e+01,9.300000000000000000e+01,3.114551377013341504e-02,5.444955055412490304e-06,2.772249414712882332e-02,5.291583250900000766e-06,3.461996533634355278e-02,5.584253554805889083e-06,3.119694571333896105e-02,5.434814211185658639e-06,3.461996533634355278e-02,5.584253554805889083e-06,3.461996533634355278e-02,5.584253554805889083e-06
9.300000000000000000e+01,9.400000000000000000e+01,3.116255195770788883e-02,5.217655341607724677e-06,2.774255288912752526e-02,5.049361419921168035e-06,3.463889386523708730e-02,5.370753504785386100e-06,3.121889479665672373e-02,5.207409787441852549e-06,3.463889386523708730e-02,5.370753504785386100e-06,3.463889386523708730e-02,5.370753504785386100e-06
9.400000000000000000e+01,9.500000000000000000e+01,3.119139313866816157e-02,4.946979740857287989e-06,2.777876573952812317e-02,4.775106935834311876e-06,3.467513230588804840e-02,5.114361331167393320e-06,3.126250490674800653e-02,4.948305721955831384e-06,3.467513230588804840e-02,5.114361331167393320e-06,3.467513230588804840e-02,5.114361331167393320e-06
9.500000000000000000e+01,9.600000000000000000e+01,3.121164280132073324e-02,4.997671398728327453e-06,2.780788364411610966e-02,4.810794678721176692e-06,3.470069039233407426e-02,5.152214578948321710e-06,3.129693123512945069e-02,4.971150882710408503e-06,3.470069039233407426e-02,5.152214578948321710e-06,3.470069039233407426e-02,5.152214578948321710e-06
9.600000000000000000e+01,9.700000000000000000e+01,3.126332485430903529e-02,5.115859463427415819e-06,2.786756749068186600e-02,4.947483404714284252e-06,3.475994369757217511e-02,5.262869268697262224e-06,3.136418633394500582e-02,5.099349657532954465e-06,3.475994369757217511e-02,5.262869268697262224e-06,3.475994369757217511e-02,5.262869268697262224e-06
9.700000000000000000e+01,9.800000000000000000e+01,3.130089666287057953e-02,5.427119476679528813e-06,2.791429672592662947e-02,5.262683739362988363e-06,3.480431500609883211e-02,5.564717872239046977e-06,3.141771506915488205e-02,5.404470309291927645e-06,3.480431500609883211e-02,5.564717872239046977e-06,3.480431500609883211e-02,5.564717872239046977e-06
9.800000000000000000e+01,9.900000000000000000e+01,3.134016710419462032e-02,5.222566294836340535e-06,2.796825944944192691e-02,5.050335820396239130e-06,3.485322303381898496e-02,5.374917640549640128e-06,3.148131537906628807e-02,5.207728183911722104e-06,3.485322303381898496e-02,5.374917640549640128e-06,3.485322303381898496e-02,5.374917640549640128e-06
9.900000000000000000e+01,1.000000000000000000e+02,3.139401955587522997e-02,5.101512482115775378e-06,2.803703310393351397e-02,4.919275556074302062e-06,3.491831088512147713e-02,5.257348358453406489e-06,3.156132443317975766e-02,5.080704100175466644e-06,3.491831088512147713e-02,5.257348358453406489e-06,3.491831088512147713e-02,5.257348358453406489e-06
1.000000000000000000e+02,1.010000000000000000e+02,3.146743432402489965e-02,5.446491469524612970e-06,2.812020641642332813e-02,5.258939500842836203e-06,3.500356824845004405e-02,5.592573261766644360e-06,3.165634034084847254e-02,5.410087895233120316e-06,3.500356824845004405e-02,5.592573261766644360e-06,3.500356824845004405e-02,5.592573261766644360e-06
1.010000000000000000e+02,1.020000000000000000e+02,3.152729615086571208e-02,5.378454490405096179e-06,2.819929948253322577e-02,5.216911305908325743e-06,3.507868421580877943e-02,5.544188527090251989e-06,3.175068754747629313e-02,5.387617032814649864e-06,3.507868421580877943e-02,5.544188527090251989e-06,3.507868421580877943e-02,5.544188527090251989e-06
1.020000000000000000e+02,1.030000000000000000e+02,3.160118581228676254e-02,5.437265791278270349e-06,2.828932986504537062e-02,5.273393459929775653e-06,3.516598704902029748e-02,5.581557419277275250e-06,3.185413110177891249e-02,5.422047816361859835e-06,3.516598704902029748e-02,5.581557419277275250e-06,3.516598704902029748e-02,5.581557419277275250e-06
1.030000000000000000e+02,1.040000000000000000e+02,3.167953507818072750e-02,5.341344343174050475e-06,2.839011160331342265e-02,5.170281207176096862e-06,3.526171414490996553e-02,5.491296257478655485e-06,3.197229067004266068e-02,5.325052390007067155e-06,3.526171414490996553e-02,5.491296257478655485e-06,3.526171414490996553e-02,5.491296257478655485e-06
1.040000000000000000e+02,1.050000000000000000e+02,3.177473668463104417e-02,5.518257087269155773e-06,2.850209761626409238e-02,5.336961152612875351e-06,3.537594483594205114e-02,5.675469068689529863e-06,3.210330576757509935e-02,5.499358345566714391e-06,3.537594483594205114e-02,5.675469068689529863e-06,3.537594483594205114e-02,5.675469068689529863e-06
1.050000000000000000e+02,1.060000000000000000e+02,3.186659222632325095e-02,5.401236990364961705e-06,2.861705490047298378e-02,5.226753219831084486e-06,3.548227333679540574e-02,5.544807651356468476e-06,3.223273601094513857e-02,5.374986519561615993e-06,3.548227333679540574e-02,5.544807651356468476e-06,3.548227333679540574e-02,5.544807651356468476e-06
1.060000000000000000e+02,1.070000000000000000e+02,3.197336503253445789e-02,5.535627564118366530e-06,2.874614309498849107e-02,5.354261640716151430e-06,3.561286834993741823e-02,5.685074398313013916e-06,3.238564641239145142e-02,5.508631055259688202e-06,3.561286834993741823e-02,5.685074398313013916e-06,3.561286834993741823e-02,5.685074398313013916e-06
1.070000000000000000e+02,1.080000000000000000e+02,3.207089794202235694e-02,5.516871483253731751e-06,2.887112089473799215e-02,5.338153896328938075e-06,3.572900775065600970e-02,5.669385237508356994e-06,3.252923070337164491e-02,5.495629629936071530e-06,3.572900775065600970e-02,5.669385237508356994e-06,3.572900775065600970e-02,5.669385237508356994e-06
1.080000000000000000e+02,1.090000000000000000e+02,3.220214789855316978e-02,5.507453009030773027e-06,2.902786625103251361e-02,5.343410856385775170e-06,3.588387068719355033e-02,5.659869644760356287e-06,3.270958903967289416e-02,5.500375017136464843e-06,3.588387068719355033e-02,5.659869644760356287e-06,3.588387068719355033e-02,5.659869644760356287e-06
1.090000000000000000e+02,1.100000000000000000e+02,3.231782551011595783e-02,5.708983474274591856e-06,2.917173467771855613e-02,5.539757601969002862e-06,3.602627829147829475e-02,5.837375678395515552e-06,3.288018745908088958e-02,5.671981733905397525e-06,3.602627829147829475e-02,5.837375678395515552e-06,3.602627829147829475e-02,5.837375678395515552e-06
1.100000000000000000e+02,1.110000000000000000e+02,3.246265297870126049e-02,5.645106845581885072e-06,2.934058453942977804e-02,5.478773868187331110e-06,3.619966350438990482e-02,5.795511626019894543e-06,3.307759506511841890e-02,5.633621109732947737e-06,3.619966350438990482e-02,5.795511626019894543e-06,3.619966350438990482e-02,5.795511626019894543e-06
1.110000000000000000e+02,1.120000000000000000e+02,3.260534637463033403e-02,5.389428767481167521e-06,2.951452437740040638e-02,5.219093277180446605e-06,3.636739158098971358e-02,5.563566266336061807e-06,3.327656958375978247e-02,5.398727794218666109e-06,3.636739158098971358e-02,5.563566266336061807e-06,3.636739158098971358e-02,5.563566266336061807e-06
1.120000000000000000e+02,1.130000000000000000e+02,3.274985730370499198e-02,5.410889991710087997e-06,2.969004237186403938e-02,5.219286659374992645e-06,3.654109655191740968e-02,5.554611448864702225e-06,3.348128162007645708e-02,5.368140374300974131e-06,3.654109655191740968e-02,5.554611448864702225e-06,3.654109655191740968e-02,5.554611448864702225e-06
1.130000000000000000e+02,1.140000000000000000e+02,3.290726774652365239e-02,5.467566849920096620e-06,2.988208807501808659e-02,5.295928271196449960e-06,3.673169369438224890e-02,5.625121767997378349e-06,3.370651402287667964e-02,5.458439694648152478e-06,3.673169369438224890e-02,5.625121767997378349e-06,3.673169369438224890e-02,5.625121767997378349e-06
1.140000000000000000e+02,1.150000000000000000e+02,3.308996765594527517e-02,5.319400553776816504e-06,3.009280874219252833e-02,5.121369939958719439e-06,3.694654385229874383e-02,5.472397542517332239e-06,3.394938493854599698e-02,5.280108206631887400e-06,3.694654385229874383e-02,5.472397542517332239e-06,3.694654385229874383e-02,5.472397542517332239e-06
1.150000000000000000e+02,1.160000000000000000e+02,3.326408355056986732e-02,5.628043034756003359e-06,3.030315264595877592e-02,5.470538957525279161e-06,3.715805266209568775e-02,5.783147940801333401e-06,3.419712175748459287e-02,5.629984741536242912e-06,3.715805266209568775e-02,5.783147940801333401e-06,3.715805266209568775e-02,5.783147940801333401e-06
1.160000000000000000e+02,1.170000000000000000e+02,3.346698516390909928e-02,5.722561551575235354e-06,3.054008162870038359e-02,5.533357117247134160e-06,3.739799622601468893e-02,5.873221567072549151e-06,3.447109269080597671e-02,5.689029956974078474e-06,3.739799622601468893e-02,5.873221567072549151e-06,3.739799622601468893e-02,5.873221567072549151e-06
1.170000000000000000e+02,1.180000000000000000e+02,3.366755907511528867e-02,6.009446776931743726e-06,3.077655822951909023e-02,5.840974816979127502e-06,3.763567932118711684e-02,6.172588320208403959e-06,3.474467847559091493e-02,6.008692271915931646e-06,3.763567932118711684e-02,6.172588320208403959e-06,3.763567932118711684e-02,6.172588320208403959e-06
1.180000000000000000e+02,1.190000000000000000e+02,3.387974832128065605e-02,5.856007330387797559e-06,3.102549233336979184e-02,5.678123896814223308e-06,3.788992655455154096e-02,6.021273215575444737e-06,3.503567056664067675e-02,5.848418612806659919e-06,3.788992655455154096e-02,6.021273215575444737e-06,3.788992655455154096e-02,6.021273215575444737e-06
1.190000000000000000e+02,1.200000000000000000e+02,3.410153272191832757e-02,5.730331929919428956e-06,3.128753561968447561e-02,5.547169128712388425e-06,3.815466171561925773e-02,5.900597914834956527e-06,3.534066461338540577e-02,5.722887126970115277e-06,3.815466171561925773e-02,5.900597914834956527e-06,3.815466171561925773e-02,5.900597914834956527e-06
1.200000000000000000e+02,1.210000000000000000e+02,3.435132687040618610e-02,5.290791221201890772e-06,3.157080996385322469e-02,5.096993406470924566e-06,3.845170929078137873e-02,5.470602723652942556e-06,3.567119238422841732e-02,5.283404603028247666e-06,3.845170929078137873e-02,5.470602723652942556e-06,3.845170929078137873e-02,5.470602723652942556e-06
1.210000000000000000e+02,1.220000000000000000e+02,3.458386483780087617e-02,5.577025244928496994e-06,3.184811192278946129e-02,5.368005276799607757e-06,3.872880718085430080e-02,5.765095729979384538e-06,3.599305426584288592e-02,5.563146487825500428e-06,3.872880718085430080e-02,5.765095729979384538e-06,3.872880718085430080e-02,5.765095729979384538e-06
1.220000000000000000e+02,1.230000000000000000e+02,3.485522246367078053e-02,5.382550006431806440e-06,3.215503438328772695e-02,5.183834734319069931e-06,3.905520670637474545e-02,5.556684427835256684e-06,3.635501862599169187e-02,5.364423530216517989e-06,3.905520670637474545e-02,5.556684427835256684e-06,3.905520670637474545e-02,5.556684427835256684e-06
1.230000000000000000e+02,1.240000000000000000e+02,3.513212769217351900e-02,6.057370260611007137e-06,3.247588727601319336e-02,5.867163759455593459e-06,3.938435121806245498e-02,6.206328068106781150e-06,3.672811080190212935e-02,6.020829194978419447e-06,3.938435121806245498e-02,6.206328068106781150e-06,3.938435121806245498e-02,6.206328068106781150e-06
1.240000000000000000e+02,1.250000000000000000e+02,3.543460863354022661e-02,5.789853111228078116e-06,3.281943148314579728e-02,5.597987580236601572e-06,3.974447873598370429e-02,5.939551778433707175e-06,3.712930158558927496e-02,5.752681220750963375e-06,3.974447873598370429e-02,5.939551778433707175e-06,3.974447873598370429e-02,5.939551778433707175e-06
1.250000000000000000e+02,1.260000000000000000e+02,3.572131590447643473e-02,6.025194115917142996e-06,3.314956208443300967e-02,5.856367051589034725e-06,4.008763539783766205e-02,6.175524913022534094e-06,3.751588157779423699e-02,6.010921631481903012e-06,4.008763539783766205e-02,6.175524913022534094e-06,4.008763539783766205e-02,6.175524913022534094e-06
1.260000000000000000e+02,1.270000000000000000e+02,3.603952888443794772e-02,5.960856433094006052e-06,3.351687832221993818e-02,5.769357374518986342e-06,4.046941307314409764e-02,6.119860877304608202e-06,3.794676251092608810e-02,5.933495787183298026e-06,4.046941307314409764e-02,6.119860877304608202e-06,4.046941307314409764e-02,6.119860877304608202e-06
1.270000000000000000e+02,1.280000000000000000e+02,3.637714593639499588e-02,5.715836131878084609e-06,3.389612914858822906e-02,5.570906184304631887e-06,4.087593915001205835e-02,5.885702857141192686e-06,3.839492236220529153e-02,5.745059716869839564e-06,4.087593915001205835e-02,5.885702857141192686e-06,4.087593915001205835e-02,5.885702857141192686e-06
1.280000000000000000e+02,1.290000000000000000e+02,3.671403697553211887e-02,4.670369108426724569e-06,3.428215384700462887e-02,4.519048583754357383e-06,4.128238304021746713e-02,4.924892271742106399e-06,3.885049991168997713e-02,4.781633233702764441e-06,4.128238304021746713e-02,4.924892271742106399e-06,4.128238304021746713e-02,4.924892271742106399e-06
1.290000000000000000e+02,1.300000000000000000e+02,3.707828291125829512e-02,6.260986573689663714e-06,3.469265896919621062e-02,6.006370260321064351e-06,4.172370693719168466e-02,6.522831525596919732e-06,3.933808299512960016e-02,6.278842404414059357e-06,4.172370693719168466e-02,6.522831525596919732e-06,4.172370693719168466e-02,6.522831525596919732e-06
