# xl,xh,LO,dLO,LOISC,dLOISC,NLO,dNLO,NLOISC,dNLOISC,NLOL,dNLOL,NLOnovp,dNLOnovp
0.000000000000000000e+00,5.000000000000000000e+00,1.421445175248148458e-02,1.687499066294285653e-06,1.294771233921369370e-02,1.647153809766473896e-06,1.582341622521672708e-02,2.542464530942058277e-06,1.455667681194893794e-02,2.515867338589724475e-06,1.582341622521672708e-02,2.542464530942058277e-06,1.582341622521672708e-02,2.542464530942058277e-06
5.000000000000000000e+00,1.000000000000000000e+01,1.420420784451789306e-02,1.526372731856672377e-06,1.293866765551061372e-02,1.481150093930451311e-06,1.580738877518575447e-02,2.507520002534139457e-06,1.454184858617847340e-02,2.480251690313584813e-06,1.580738877518575447e-02,2.507520002534139457e-06,1.580738877518575447e-02,2.507520002534139457e-06
1.000000000000000000e+01,1.500000000000000000e+01,1.418964634156815244e-02,1.704048324508917165e-06,1.292551502907556167e-02,1.659712817194683090e-06,1.579203234231883746e-02,2.821281158624261628e-06,1.452790102982624842e-02,2.794725982866105716e-06,1.579203234231883746e-02,2.821281158624261628e-06,1.579203234231883746e-02,2.821281158624261628e-06
1.500000000000000000e+01,2.000000000000000000e+01,1.416331622764950213e-02,1.551010689958966208e-06,1.290230467305023866e-02,1.505485178600441163e-06,1.576146471278450437e-02,2.417436853497919523e-06,1.450045315818524090e-02,2.388483285113909747e-06,1.576146471278450437e-02,2.417436853497919523e-06,1.576146471278450437e-02,2.417436853497919523e-06
2.000000000000000000e+01,2.500000000000000000e+01,1.413090377356430831e-02,1.623936375694543671e-06,1.287229782449263692e-02,1.575793331274997575e-06,1.572285397641817392e-02,2.629304496842800505e-06,1.446424802734650253e-02,2.599845650746327374e-06,1.572285397641817392e-02,2.629304496842800505e-06,1.572285397641817392e-02,2.629304496842800505e-06
2.500000000000000000e+01,3.000000000000000000e+01,1.409089443754640500e-02,1.621865115906697172e-06,1.283559740313136056e-02,1.578109074668847143e-06,1.567197929318902769e-02,2.502842004996042454e-06,1.441668225877398325e-02,2.474712084128117543e-06,1.567197929318902769e-02,2.502842004996042454e-06,1.567197929318902769e-02,2.502842004996042454e-06
3.000000000000000000e+01,3.500000000000000000e+01,1.404132646961151615e-02,1.676057142336775744e-06,1.279096573852009887e-02,1.631828339500364575e-06,1.561557460591168379e-02,2.511232491520982018e-06,1.436521387482026652e-02,2.481931669423853496e-06,1.561557460591168379e-02,2.511232491520982018e-06,1.561557460591168379e-02,2.511232491520982018e-06
3.500000000000000000e+01,4.000000000000000000e+01,1.398482268690311690e-02,1.628349870114331446e-06,1.273981922721002455e-02,1.586337611408000648e-06,1.554484880929870444e-02,2.732990026952008657e-06,1.429984534960561035e-02,2.708168791874949186e-06,1.554484880929870444e-02,2.732990026952008657e-06,1.554484880929870444e-02,2.732990026952008657e-06
4.000000000000000000e+01,4.500000000000000000e+01,1.391744252613424590e-02,1.674697689413928923e-06,1.267762539917576328e-02,1.633803519363182832e-06,1.546387693884718195e-02,2.623562356871496098e-06,1.422405981188869933e-02,2.597649135150528722e-06,1.546387693884718195e-02,2.623562356871496098e-06,1.546387693884718195e-02,2.623562356871496098e-06
4.500000000000000000e+01,5.000000000000000000e+01,1.383768672072532673e-02,1.719363158068097829e-06,1.260556423253899466e-02,1.676965548687467780e-06,1.537102862068507811e-02,2.655670915844111418e-06,1.413890613249874605e-02,2.628420018836993158e-06,1.537102862068507811e-02,2.655670915844111418e-06,1.537102862068507811e-02,2.655670915844111418e-06
5.000000000000000000e+01,5.500000000000000000e+01,1.375919827615805328e-02,1.572058083951617208e-06,1.253361390855120897e-02,1.521997223423127244e-06,1.527676765114493150e-02,2.486705315348831629e-06,1.405118328353808718e-02,2.455363975905448685e-06,1.527676765114493150e-02,2.486705315348831629e-06,1.527676765114493150e-02,2.486705315348831629e-06
5.500000000000000000e+01,6.000000000000000000e+01,1.366837690752084958e-02,1.757215063709061437e-06,1.245087890907891660e-02,1.713614388358054683e-06,1.516752826224411835e-02,2.565540836903468792e-06,1.395003026380218711e-02,2.535876431863559716e-06,1.516752826224411835e-02,2.565540836903468792e-06,1.516752826224411835e-02,2.565540836903468792e-06
6.000000000000000000e+01,6.500000000000000000e+01,1.356382007179968326e-02,1.617125465860585781e-06,1.235466166891302335e-02,1.567072880753857928e-06,1.504549069391166241e-02,2.510057338899999132e-06,1.383633229102500251e-02,2.478106229729694829e-06,1.504549069391166241e-02,2.510057338899999132e-06,1.504549069391166241e-02,2.510057338899999132e-06
6.500000000000000000e+01,7.000000000000000000e+01,1.345152765372444915e-02,1.473290385079378951e-06,1.225245866676594013e-02,1.431461293959736676e-06,1.491409007693278270e-02,2.369942904074561509e-06,1.371502108997427367e-02,2.344168561752952284e-06,1.491409007693278270e-02,2.369942904074561509e-06,1.491409007693278270e-02,2.369942904074561509e-06
7.000000000000000000e+01,7.500000000000000000e+01,1.333085073917393212e-02,1.634880799761557713e-06,1.214242076019009242e-02,1.587098541819251026e-06,1.477169506217659682e-02,2.504445285589656009e-06,1.358326508319275712e-02,2.473518291933183905e-06,1.477169506217659682e-02,2.504445285589656009e-06,1.477169506217659682e-02,2.504445285589656009e-06
7.500000000000000000e+01,8.000000000000000000e+01,1.320118153861207962e-02,1.601516175005955441e-06,1.202297736644340406e-02,1.555540074257757283e-06,1.462087711131582722e-02,2.518695959626402861e-06,1.344267293914715167e-02,2.489714883446393513e-06,1.462087711131582722e-02,2.518695959626402861e-06,1.462087711131582722e-02,2.518695959626402861e-06
8.000000000000000000e+01,8.500000000000000000e+01,1.306182651650989769e-02,1.488855877161027506e-06,1.189483315669241821e-02,1.435879070988675258e-06,1.446221837890673129e-02,2.290242296184927849e-06,1.329522501908925181e-02,2.256161930974986447e-06,1.446221837890673129e-02,2.290242296184927849e-06,1.446221837890673129e-02,2.290242296184927849e-06
8.500000000000000000e+01,9.000000000000000000e+01,1.291590450551887218e-02,1.641730383064761476e-06,1.176158707198835668e-02,1.597226719291270463e-06,1.429332538904686326e-02,2.293688204184303507e-06,1.313900795551634776e-02,2.262047771412929273e-06,1.429332538904686326e-02,2.293688204184303507e-06,1.429332538904686326e-02,2.293688204184303507e-06
9.000000000000000000e+01,9.500000000000000000e+01,1.293559132097017381e-02,1.617441957804010041e-06,1.176655346823314227e-02,1.574339603510579275e-06,1.429378150724774747e-02,2.383746135996084808e-06,1.312474365451071594e-02,2.354712793780430972e-06,1.429378150724774747e-02,2.383746135996084808e-06,1.429378150724774747e-02,2.383746135996084808e-06
9.500000000000000000e+01,1.000000000000000000e+02,1.275644783067388793e-02,1.554929950222742922e-06,1.160454845634417871e-02,1.509453432773163167e-06,1.409326682577599632e-02,3.045588095343815988e-06,1.294136745144628710e-02,3.022622927543387226e-06,1.409326682577599632e-02,3.045588095343815988e-06,1.409326682577599632e-02,3.045588095343815988e-06
1.000000000000000000e+02,1.050000000000000000e+02,1.256893968466130281e-02,1.548685899548320087e-06,1.143368873944250810e-02,1.503702702986358173e-06,1.388143123150619926e-02,2.613170310046228841e-06,1.274618028628740629e-02,2.586764943479749662e-06,1.388143123150619926e-02,2.613170310046228841e-06,1.388143123150619926e-02,2.613170310046228841e-06
1.050000000000000000e+02,1.100000000000000000e+02,1.236559162710593879e-02,1.675414943968897036e-06,1.124858353088895035e-02,1.629994855978909342e-06,1.365592991929122715e-02,2.606249020087011115e-06,1.253892182307423872e-02,2.577285772037689083e-06,1.365592991929122715e-02,2.606249020087011115e-06,1.365592991929122715e-02,2.606249020087011115e-06
1.100000000000000000e+02,1.150000000000000000e+02,1.215704349415009343e-02,1.670680506501080933e-06,1.105850607645843774e-02,1.626876207315151974e-06,1.342682501843005596e-02,2.739518923345192522e-06,1.232828760073840027e-02,2.713027233643596501e-06,1.342682501843005596e-02,2.739518923345192522e-06,1.342682501843005596e-02,2.739518923345192522e-06
1.150000000000000000e+02,1.200000000000000000e+02,1.193416468493324091e-02,1.375347449472556136e-06,1.085484691075678555e-02,1.318862629586242355e-06,1.317889828416280232e-02,2.316847237078571339e-06,1.209958050998634696e-02,2.283768628584577427e-06,1.317889828416280232e-02,2.316847237078571339e-06,1.317889828416280232e-02,2.316847237078571339e-06
1.200000000000000000e+02,1.250000000000000000e+02,1.169996691592877294e-02,1.388227596937124694e-06,1.064050994917355858e-02,1.333781569183632928e-06,1.292268695322391393e-02,2.142838786689953155e-06,1.186322998646869957e-02,2.107974259600672025e-06,1.292268695322391393e-02,2.142838786689953155e-06,1.292268695322391393e-02,2.142838786689953155e-06
1.250000000000000000e+02,1.300000000000000000e+02,1.145650448741620739e-02,1.470458089068685322e-06,1.041799096596031024e-02,1.424491449292703969e-06,1.265811705737169938e-02,2.269823106883656557e-06,1.161960353591580224e-02,2.240318243898279888e-06,1.265811705737169938e-02,2.269823106883656557e-06,1.265811705737169938e-02,2.269823106883656557e-06
1.300000000000000000e+02,1.350000000000000000e+02,1.119797389157194990e-02,1.416897669677589780e-06,1.018133823672317563e-02,1.373871233574119387e-06,1.237808524541755481e-02,2.228756928393520265e-06,1.136144959056878054e-02,2.201654061374495010e-06,1.237808524541755481e-02,2.228756928393520265e-06,1.237808524541755481e-02,2.228756928393520265e-06
1.350000000000000000e+02,1.400000000000000000e+02,1.092834364418184510e-02,1.377327844042110799e-06,9.933698911597703060e-03,1.322121946245831832e-06,1.208560736956318382e-02,2.199363352178910834e-06,1.109096263697904178e-02,2.165219066440814536e-06,1.208560736956318382e-02,2.199363352178910834e-06,1.208560736956318382e-02,2.199363352178910834e-06
1.400000000000000000e+02,1.450000000000000000e+02,1.064542587294696994e-02,1.318164451154026634e-06,9.674467366956158998e-03,1.268610422356481358e-06,1.178253604575715471e-02,2.093783025892708683e-06,1.081157753976634377e-02,2.062945041183046352e-06,1.178253604575715471e-02,2.093783025892708683e-06,1.178253604575715471e-02,2.093783025892708683e-06
1.450000000000000000e+02,1.500000000000000000e+02,1.035082077099557137e-02,1.339927434992750637e-06,9.403375451460790901e-03,1.289514729543878227e-06,1.146672346636041194e-02,2.173629129786644083e-06,1.051927814682563148e-02,2.142920040627137384e-06,1.146672346636041194e-02,2.173629129786644083e-06,1.146672346636041194e-02,2.173629129786644083e-06
1.500000000000000000e+02,1.550000000000000000e+02,1.003788585558886004e-02,1.354615741529477064e-06,9.115421115766311755e-03,1.302535972434866572e-06,1.113468875494951806e-02,2.208378451629978821e-06,1.021222401512696977e-02,2.176821429954926497e-06,1.113468875494951806e-02,2.208378451629978821e-06,1.113468875494951806e-02,2.208378451629978821e-06
1.550000000000000000e+02,1.600000000000000000e+02,9.711926040962428827e-03,1.328953408755708899e-06,8.813853207199169246e-03,1.278905625059487885e-06,1.078617433135324599e-02,2.337409784670716873e-06,9.888101497589986411e-03,2.309321748184905780e-06,1.078617433135324599e-02,2.337409784670716873e-06,1.078617433135324599e-02,2.337409784670716873e-06
1.600000000000000000e+02,1.650000000000000000e+02,9.364748887237164809e-03,1.234263883530101322e-06,8.493430016574793351e-03,1.189548889507036041e-06,1.042082746000653863e-02,2.010988994006566610e-06,9.549508589344167173e-03,1.983858855956279558e-06,1.042082746000653863e-02,2.010988994006566610e-06,1.042082746000653863e-02,2.010988994006566610e-06
1.650000000000000000e+02,1.700000000000000000e+02,9.007715429020759362e-03,1.318722298541047341e-06,8.163079163017615200e-03,1.271844202662361853e-06,1.004425374629449620e-02,2.209575956224640349e-06,9.199617480291352040e-03,2.181922336267381987e-06,1.004425374629449620e-02,2.209575956224640349e-06,1.004425374629449620e-02,2.209575956224640349e-06
1.700000000000000000e+02,1.750000000000000000e+02,8.635810197823421547e-03,1.270306916270538545e-06,7.818255070336429038e-03,1.229289805066543754e-06,9.652517889052338040e-03,1.840957253792533448e-06,8.834962761565345532e-03,1.812897507750265148e-06,9.652517889052338040e-03,1.840957253792533448e-06,9.652517889052338040e-03,1.840957253792533448e-06
1.750000000000000000e+02,1.800000000000000000e+02,8.244155690882775875e-03,1.268221037715414787e-06,7.455513775349781325e-03,1.225313131408921494e-06,9.242169987560881761e-03,1.835464932480782779e-06,8.453528072027887211e-03,1.806083937104213876e-06,9.242169987560881761e-03,1.835464932480782779e-06,9.242169987560881761e-03,1.835464932480782779e-06
1.800000000000000000e+02,1.850000000000000000e+02,7.846423769265149784e-03,1.149419416027307790e-06,7.086583198066011974e-03,1.106296833642914259e-06,8.821523920156473103e-03,1.912580794156585170e-06,8.061683348957335293e-03,1.886979857964682631e-06,8.821523920156473103e-03,1.912580794156585170e-06,8.821523920156473103e-03,1.912580794156585170e-06
1.850000000000000000e+02,1.900000000000000000e+02,7.441446018229145622e-03,1.219540680298429088e-06,6.711183248673548672e-03,1.174713329448242974e-06,8.394252022917365538e-03,1.896819171122782056e-06,7.663989253361768589e-03,1.868313384692069989e-06,8.394252022917365538e-03,1.896819171122782056e-06,8.394252022917365538e-03,1.896819171122782056e-06
1.900000000000000000e+02,1.950000000000000000e+02,7.024375216587310823e-03,1.023566273045073567e-06,6.325216919521989625e-03,9.794223261207356380e-07,7.952207259858758842e-03,1.844880938579845723e-06,7.253048962793436777e-03,1.820759691756060124e-06,7.952207259858758842e-03,1.844880938579845723e-06,7.952207259858758842e-03,1.844880938579845723e-06
1.950000000000000000e+02,2.000000000000000000e+02,6.608032319861396713e-03,1.096105187019257979e-06,5.940358214244672967e-03,1.047029189032889650e-06,7.510167630229139593e-03,1.659783186879304023e-06,6.842493524612415848e-03,1.627791070476664731e-06,7.510167630229139593e-03,1.659783186879304023e-06,7.510167630229139593e-03,1.659783186879304023e-06
2.000000000000000000e+02,2.050000000000000000e+02,6.186913976559221123e-03,1.016881016622056037e-06,5.551972135731406653e-03,9.686693036442770467e-07,7.061335255333781209e-03,1.563713036087864864e-06,6.426393414505966739e-03,1.532798642055606136e-06,7.061335255333781209e-03,1.563713036087864864e-06,7.061335255333781209e-03,1.563713036087864864e-06
2.050000000000000000e+02,2.100000000000000000e+02,5.766795137026044932e-03,1.039222411345551771e-06,5.164945274680888924e-03,9.975360350293981190e-07,6.610479511182987267e-03,1.634939077675519987e-06,6.008629648837831259e-03,1.608763720578565916e-06,6.610479511182987267e-03,1.634939077675519987e-06,6.610479511182987267e-03,1.634939077675519987e-06
2.100000000000000000e+02,2.150000000000000000e+02,5.348056925849261310e-03,9.812356101265996890e-07,4.780856857427139700e-03,9.376125606001042730e-07,6.162451164765404658e-03,1.647989972616414019e-06,5.595251096343283048e-03,1.622394816639529738e-06,6.162451164765404658e-03,1.647989972616414019e-06,6.162451164765404658e-03,1.647989972616414019e-06
2.150000000000000000e+02,2.200000000000000000e+02,4.935090059955743111e-03,9.004311232388890404e-07,4.403520022032853150e-03,8.591506223233419040e-07,5.713741894084098036e-03,1.489538624661140576e-06,5.182171856161208075e-03,1.464953548239240437e-06,5.713741894084098036e-03,1.489538624661140576e-06,5.713741894084098036e-03,1.489538624661140576e-06
2.200000000000000000e+02,2.250000000000000000e+02,4.527818436717699624e-03,8.490783780951612625e-07,4.032550953750556159e-03,8.084448281905498508e-07,5.271060669318521769e-03,1.296746439002695485e-06,4.775793186351378304e-03,1.270511816216405519e-06,5.271060669318521769e-03,1.296746439002695485e-06,5.271060669318521769e-03,1.296746439002695485e-06
2.250000000000000000e+02,2.300000000000000000e+02,4.129559223689768625e-03,8.236805110198882032e-07,3.671565329340574675e-03,7.862741469223849094e-07,4.835025789310101393e-03,1.296556119438584093e-06,4.377031894960907443e-03,1.273120269549652468e-06,4.835025789310101393e-03,1.296556119438584093e-06,4.835025789310101393e-03,1.296556119438584093e-06
2.300000000000000000e+02,2.350000000000000000e+02,3.739615144669509398e-03,7.761267534378900167e-07,3.319811496705191937e-03,7.424933218629824750e-07,4.402884396043843691e-03,1.229940816586897598e-06,3.983080748079526230e-03,1.208998762578163880e-06,4.402884396043843691e-03,1.229940816586897598e-06,4.402884396043843691e-03,1.229940816586897598e-06
2.350000000000000000e+02,2.400000000000000000e+02,3.361036956461653773e-03,7.661558928523263212e-07,2.980540242281259564e-03,7.359132185694431015e-07,3.979992050213551971e-03,1.178247955858229240e-06,3.599495336033157328e-03,1.158810449813509209e-06,3.979992050213551971e-03,1.178247955858229240e-06,3.979992050213551971e-03,1.178247955858229240e-06
2.400000000000000000e+02,2.450000000000000000e+02,2.993466891002896212e-03,7.228938689004794412e-07,2.652606112811359274e-03,6.913907977694557722e-07,3.564618974445744881e-03,1.174775329152401700e-06,3.223758196254207942e-03,1.155656853711998193e-06,3.564618974445744881e-03,1.174775329152401700e-06,3.564618974445744881e-03,1.174775329152401700e-06
2.450000000000000000e+02,2.500000000000000000e+02,2.635532001029035690e-03,6.533440066975813148e-07,2.335715410005216337e-03,6.250744298088190001e-07,3.153962385421306587e-03,1.144264387691760250e-06,2.854145794397487668e-03,1.128361928041162657e-06,3.153962385421306587e-03,1.144264387691760250e-06,3.153962385421306587e-03,1.144264387691760250e-06
2.500000000000000000e+02,2.550000000000000000e+02,2.290723196651516403e-03,6.536623843919232137e-07,2.032135404426445476e-03,6.304772326024551841e-07,2.753000903460570917e-03,1.033964945452157801e-06,2.494413111235499990e-03,1.019465809375184456e-06,2.753000903460570917e-03,1.033964945452157801e-06,2.753000903460570917e-03,1.033964945452157801e-06
2.550000000000000000e+02,2.600000000000000000e+02,1.964959192197614224e-03,5.420370377208971950e-07,1.746424916584024501e-03,5.209157393852772608e-07,2.365524969410615942e-03,9.372137328396610585e-07,2.146990693797026437e-03,9.251587097905506556e-07,2.365524969410615942e-03,9.372137328396610585e-07,2.365524969410615942e-03,9.372137328396610585e-07
2.600000000000000000e+02,2.650000000000000000e+02,1.664586085296652137e-03,5.018138478254252926e-07,1.480834155756274948e-03,4.785553696389041949e-07,2.000630338658714123e-03,8.558777900905104883e-07,1.816878409118337151e-03,8.424517170206759265e-07,2.000630338658714123e-03,8.558777900905104883e-07,2.000630338658714123e-03,8.558777900905104883e-07
2.650000000000000000e+02,2.700000000000000000e+02,1.389968628127833490e-03,4.738487655994408142e-07,1.236588589553342613e-03,4.559239518307942216e-07,1.658927675723660330e-03,7.837611619216964146e-07,1.505547637149169237e-03,7.730559851199279630e-07,1.658927675723660330e-03,7.837611619216964146e-07,1.658927675723660330e-03,7.837611619216964146e-07
2.700000000000000000e+02,2.750000000000000000e+02,1.141734082274909910e-03,4.156219682942913312e-07,1.015069344373846234e-03,4.003513618674076055e-07,1.346236947955608545e-03,6.967645496458627127e-07,1.219572210054544869e-03,6.877648072295274324e-07,1.346236947955608545e-03,6.967645496458627127e-07,1.346236947955608545e-03,6.967645496458627127e-07
2.750000000000000000e+02,2.800000000000000000e+02,9.182426699807384176e-04,3.535038881026060285e-07,8.150127971803705932e-04,3.407251473204751597e-07,1.060447014452468471e-03,5.869353767957359390e-07,9.572171416521006466e-04,5.793287181274999472e-07,1.060447014452468471e-03,5.869353767957359390e-07,1.060447014452468471e-03,5.869353767957359390e-07
2.800000000000000000e+02,2.850000000000000000e+02,7.189431653328105841e-04,3.431633448761944032e-07,6.367079243321296369e-04,3.313512676506376144e-07,8.086514011999834661e-04,5.718863975261211486e-07,7.264161601993025189e-04,5.648775380403005860e-07,8.086514011999834661e-04,5.718863975261211486e-07,8.086514011999834661e-04,5.718863975261211486e-07
2.850000000000000000e+02,2.900000000000000000e+02,5.399413047590056287e-04,2.870712095720228235e-07,4.766932665502687121e-04,2.753019444330318774e-07,5.877954626748334559e-04,5.694956220086945929e-07,5.245474244660965936e-04,5.636546324927471918e-07,5.877954626748334559e-04,5.694956220086945929e-07,5.877954626748334559e-04,5.694956220086945929e-07
2.900000000000000000e+02,2.950000000000000000e+02,3.811846554172659395e-04,2.579541616880361908e-07,3.349561530189934955e-04,2.502629687060056528e-07,3.987226710174041934e-04,4.400910588847900681e-07,3.524941686191317494e-04,4.356275290700777095e-07,3.987226710174041934e-04,4.400910588847900681e-07,3.987226710174041934e-04,4.400910588847900681e-07
2.950000000000000000e+02,3.000000000000000000e+02,2.426444341953596284e-04,2.142132429209492955e-07,2.119942915375490561e-04,2.078428284662083918e-07,2.416637203663963695e-04,3.502535892676780274e-07,2.110135777085857972e-04,3.463941464531630750e-07,2.416637203663963695e-04,3.502535892676780274e-07,2.416637203663963695e-04,3.502535892676780274e-07
3.000000000000000000e+02,3.050000000000000000e+02,1.269208814966342426e-04,1.501152740249139977e-07,1.096787562021474526e-04,1.451820048907780405e-07,1.192626032906788313e-04,2.556821691270357817e-07,1.020204779961920413e-04,2.528173068799622314e-07,1.192626032906788313e-04,2.556821691270357817e-07,1.192626032906788313e-04,2.556821691270357817e-07
3.050000000000000000e+02,3.100000000000000000e+02,4.160704874917328053e-05,1.028356868311836714e-07,3.512692096492009815e-05,1.008682924303811206e-07,3.691774776323495711e-05,1.459599673515236535e-07,3.043761997898177812e-05,1.445805865288886128e-07,3.691774776323495711e-05,1.459599673515236535e-07,3.691774776323495711e-05,1.459599673515236535e-07
3.100000000000000000e+02,3.150000000000000000e+02,3.145752259222514447e-06,2.736567048423518245e-08,2.567735470427875008e-06,2.675738776712613236e-08,2.563320567308680245e-06,4.259105678648129354e-08,1.985303778514040807e-06,4.220279608340997991e-08,2.563320567308680245e-06,4.259105678648129354e-08,2.563320567308680245e-06,4.259105678648129354e-08
3.150000000000000000e+02,3.200000000000000000e+02,0.000000000000000000e+00,0.000000000000000000e+00,0.000000000000000000e+00,0.000000000000000000e+00,0.000000000000000000e+00,0.000000000000000000e+00,0.000000000000000000e+00,0.000000000000000000e+00,0.000000000000000000e+00,0.000000000000000000e+00,0.000000000000000000e+00,0.000000000000000000e+00
3.200000000000000000e+02,3.250000000000000000e+02,0.000000000000000000e+00,0.000000000000000000e+00,0.000000000000000000e+00,0.000000000000000000e+00,0.000000000000000000e+00,0.000000000000000000e+00,0.000000000000000000e+00,0.000000000000000000e+00,0.000000000000000000e+00,0.000000000000000000e+00,0.000000000000000000e+00,0.000000000000000000e+00
3.250000000000000000e+02,3.300000000000000000e+02,0.000000000000000000e+00,0.000000000000000000e+00,0.000000000000000000e+00,0.000000000000000000e+00,0.000000000000000000e+00,0.000000000000000000e+00,0.000000000000000000e+00,0.000000000000000000e+00,0.000000000000000000e+00,0.000000000000000000e+00,0.000000000000000000e+00,0.000000000000000000e+00
