# xl,xh,LO,dLO,LOISC,dLOISC,NLO,dNLO,NLOISC,dNLOISC,NLOL,dNLOL,NLOnovp,dNLOnovp
5.000000000000000000e+01,5.100000000000000000e+01,1.540854160108145500e-02,3.732138615462102866e-06,1.241293640368150257e-02,3.590046242006358004e-06,1.785985752848605682e-02,5.988728364304254996e-06,1.486425233108610439e-02,5.901223669387808661e-06,1.785985752848605682e-02,5.988728364304254996e-06,1.785985752848605682e-02,5.988728364304254996e-06
5.100000000000000000e+01,5.200000000000000000e+01,1.657505877498887878e-02,3.530835744166953367e-06,1.332794170171764520e-02,3.372370952965499161e-06,1.909829126630867291e-02,7.081701392237691280e-06,1.585117419303743933e-02,7.004040219825960120e-06,1.909829126630867291e-02,7.081701392237691280e-06,1.909829126630867291e-02,7.081701392237691280e-06
5.200000000000000000e+01,5.300000000000000000e+01,1.775010737900342001e-02,3.763433410426829755e-06,1.424969576219666315e-02,3.623421444467625900e-06,2.034544457055015992e-02,6.171865064349861504e-06,1.684503295374340306e-02,6.087501154172643426e-06,2.034544457055015992e-02,6.171865064349861504e-06,2.034544457055015992e-02,6.171865064349861504e-06
5.300000000000000000e+01,5.400000000000000000e+01,1.894586914888974141e-02,3.968067074775931264e-06,1.518363350892003652e-02,3.836271198742303184e-06,2.162681707418868254e-02,7.027751416692711825e-06,1.786458143421897765e-02,6.954186535836186922e-06,2.162681707418868254e-02,7.027751416692711825e-06,2.162681707418868254e-02,7.027751416692711825e-06
5.400000000000000000e+01,5.500000000000000000e+01,2.014859788333509677e-02,3.853771648087312918e-06,1.612293050266258229e-02,3.691015206203580769e-06,2.290605128658828107e-02,6.204913002137189721e-06,1.888038390591576660e-02,6.105160333759927050e-06,2.290605128658828107e-02,6.204913002137189721e-06,2.290605128658828107e-02,6.204913002137189721e-06
5.500000000000000000e+01,5.600000000000000000e+01,2.135916797067475767e-02,3.984754283692118902e-06,1.707261187094009230e-02,3.810742833788328107e-06,2.419166721120978580e-02,6.373794628089659562e-06,1.990511111147511697e-02,6.266478453240784078e-06,2.419166721120978580e-02,6.373794628089659562e-06,2.419166721120978580e-02,6.373794628089659562e-06
5.600000000000000000e+01,5.700000000000000000e+01,2.258456484706678966e-02,3.771914569042027295e-06,1.803725238066672051e-02,3.588598986594706664e-06,2.550460196340577010e-02,6.207357456229143484e-06,2.095728949700570096e-02,6.097703646442699194e-06,2.550460196340577010e-02,6.207357456229143484e-06,2.550460196340577010e-02,6.207357456229143484e-06
5.700000000000000000e+01,5.800000000000000000e+01,2.381473300476310076e-02,4.002322990938874567e-06,1.900712719364497372e-02,3.832241227481778861e-06,2.680908045208708207e-02,6.631614531738227801e-06,2.200147464096895503e-02,6.530374782458873726e-06,2.680908045208708207e-02,6.631614531738227801e-06,2.680908045208708207e-02,6.631614531738227801e-06
5.800000000000000000e+01,5.900000000000000000e+01,2.505120545410410501e-02,4.309692556104910219e-06,1.998355587566982144e-02,4.145712412187143133e-06,2.812895469695906453e-02,6.794961818588675553e-06,2.306130511852478443e-02,6.692158664623424762e-06,2.812895469695906453e-02,6.794961818588675553e-06,2.812895469695906453e-02,6.794961818588675553e-06
5.900000000000000000e+01,6.000000000000000000e+01,2.629014638974409845e-02,4.545460507914603233e-06,2.097090131840972926e-02,4.392298795144602328e-06,2.945702321396058421e-02,6.980283323061447652e-06,2.413777814262621502e-02,6.881528372899963292e-06,2.945702321396058421e-02,6.980283323061447652e-06,2.945702321396058421e-02,6.980283323061447652e-06
6.000000000000000000e+01,6.100000000000000000e+01,2.752690462186615714e-02,4.545217299273874003e-06,2.196396693191238203e-02,4.385182709466266038e-06,3.077188616611637589e-02,6.952919152581641405e-06,2.520894847616260079e-02,6.849373098329511536e-06,3.077188616611637589e-02,6.952919152581641405e-06,3.077188616611637589e-02,6.952919152581641405e-06
6.100000000000000000e+01,6.200000000000000000e+01,2.879417873038201195e-02,4.678762043629146905e-06,2.299957094431655594e-02,4.530031037802513395e-06,3.211828474334617323e-02,7.184766521119603818e-06,2.632367695728071721e-02,7.088810683432759829e-06,3.211828474334617323e-02,7.184766521119603818e-06,3.211828474334617323e-02,7.184766521119603818e-06
6.200000000000000000e+01,6.300000000000000000e+01,3.004828584661102184e-02,4.653044118865005626e-06,2.404201934594236978e-02,4.495240951697143445e-06,3.344999573613022248e-02,7.106797431921024639e-06,2.744372923546157042e-02,7.004494370050567159e-06,3.344999573613022248e-02,7.106797431921024639e-06,3.344999573613022248e-02,7.106797431921024639e-06
6.300000000000000000e+01,6.400000000000000000e+01,3.126859842550591684e-02,4.703610819292205743e-06,2.507710431971470547e-02,4.537484883120983915e-06,3.474935598722430491e-02,7.663193233690693615e-06,2.855786188143309354e-02,7.562363708660910023e-06,3.474935598722430491e-02,7.663193233690693615e-06,3.474935598722430491e-02,7.663193233690693615e-06
6.400000000000000000e+01,6.500000000000000000e+01,3.246072622973205507e-02,4.722169808093276999e-06,2.610576577297853140e-02,4.522422684533246007e-06,3.601266555241022099e-02,7.622187903323575379e-06,2.965770509565670079e-02,7.500077844575043975e-06,3.601266555241022099e-02,7.622187903323575379e-06,3.601266555241022099e-02,7.622187903323575379e-06
6.500000000000000000e+01,6.600000000000000000e+01,3.362790743723036158e-02,5.265370085817734318e-06,2.713181291384409582e-02,5.082970611545469405e-06,3.725793812237387231e-02,7.832480415016152678e-06,3.076184359898760656e-02,7.711045165787986058e-06,3.725793812237387231e-02,7.832480415016152678e-06,3.725793812237387231e-02,7.832480415016152678e-06
6.600000000000000000e+01,6.700000000000000000e+01,3.474311129781554319e-02,5.655207705367312423e-06,2.812882768651732077e-02,5.491228604181814817e-06,3.844652663436365359e-02,8.229569632219225581e-06,3.183224302306542769e-02,8.117760388437416605e-06,3.844652663436365359e-02,8.229569632219225581e-06,3.844652663436365359e-02,8.229569632219225581e-06
6.700000000000000000e+01,6.800000000000000000e+01,3.581296592010484864e-02,5.286705067540722529e-06,2.910483779229324983e-02,5.112761467479621896e-06,3.958246243314064716e-02,7.876371915226939996e-06,3.287433430532904488e-02,7.760690297851044426e-06,3.958246243314064716e-02,7.876371915226939996e-06,3.958246243314064716e-02,7.876371915226939996e-06
6.800000000000000000e+01,6.900000000000000000e+01,3.687668772366135828e-02,5.076882300219177612e-06,3.008814433693153892e-02,4.866349147337013213e-06,4.072175326324951883e-02,7.954422325937796773e-06,3.393320987651969600e-02,7.821729647136020446e-06,4.072175326324951883e-02,7.954422325937796773e-06,4.072175326324951883e-02,7.954422325937796773e-06
6.900000000000000000e+01,7.000000000000000000e+01,3.786537837808627571e-02,5.330113626682201281e-06,3.102298947703945736e-02,5.160350141737022052e-06,4.178168415409368869e-02,8.322427138292264601e-06,3.493929525304687034e-02,8.214736501201093719e-06,4.178168415409368869e-02,8.322427138292264601e-06,4.178168415409368869e-02,8.322427138292264601e-06
7.000000000000000000e+01,7.100000000000000000e+01,3.883272811309099182e-02,5.634012101063278795e-06,3.195732965276886633e-02,5.460761355721987996e-06,4.281650445306705438e-02,8.407065013214434413e-06,3.594110599274492890e-02,8.291957812581622202e-06,4.281650445306705438e-02,8.407065013214434413e-06,4.281650445306705438e-02,8.407065013214434413e-06
7.100000000000000000e+01,7.200000000000000000e+01,3.975663791158327853e-02,5.749650631155537633e-06,3.286258216760777617e-02,5.573090282149893658e-06,4.380507953636423452e-02,8.447053319237136774e-06,3.691102379238873216e-02,8.327878642888681294e-06,4.380507953636423452e-02,8.447053319237136774e-06,4.380507953636423452e-02,8.447053319237136774e-06
7.200000000000000000e+01,7.300000000000000000e+01,4.063419656305864575e-02,5.758208481021360416e-06,3.374657382054723626e-02,5.562506847802198284e-06,4.474995815143655714e-02,8.464053046903396342e-06,3.786233540892514765e-02,8.332149272650766342e-06,4.474995815143655714e-02,8.464053046903396342e-06,4.474995815143655714e-02,8.464053046903396342e-06
7.300000000000000000e+01,7.400000000000000000e+01,4.143946033864502609e-02,5.807430894427277429e-06,3.457460174373695738e-02,5.614217595533490943e-06,4.560600904167008696e-02,9.406883921034070312e-06,3.874115044676201824e-02,9.288845499859430853e-06,4.560600904167008696e-02,9.406883921034070312e-06,4.560600904167008696e-02,9.406883921034070312e-06
7.400000000000000000e+01,7.500000000000000000e+01,4.222387247872221028e-02,6.169278197481243419e-06,3.540328134387979442e-02,5.982282362621569356e-06,4.646453254230378804e-02,9.776774566936120904e-06,3.964394140746137218e-02,9.659866961863639395e-06,4.646453254230378804e-02,9.776774566936120904e-06,4.646453254230378804e-02,9.776774566936120904e-06
7.500000000000000000e+01,7.600000000000000000e+01,4.291645619182705984e-02,6.079207057465197950e-06,3.615540951131618330e-02,5.881756817666125036e-06,4.721361396931054999e-02,9.675847152137927155e-06,4.045256728879967345e-02,9.553026898641232538e-06,4.721361396931054999e-02,9.675847152137927155e-06,4.721361396931054999e-02,9.675847152137927155e-06
7.600000000000000000e+01,7.700000000000000000e+01,4.356469197971234858e-02,6.031309575403729645e-06,3.688536700062064466e-02,5.835807242719434108e-06,4.791843359520642914e-02,9.187469841936151711e-06,4.123910861611472523e-02,9.060328530263467311e-06,4.791843359520642914e-02,9.187469841936151711e-06,4.791843359520642914e-02,9.187469841936151711e-06
7.700000000000000000e+01,7.800000000000000000e+01,4.416340735161187331e-02,6.489024355552291299e-06,3.758229013489570308e-02,6.315985437625924920e-06,4.856946590972310851e-02,9.414250787116986373e-06,4.198834869300693828e-02,9.295824484363111471e-06,4.856946590972310851e-02,9.414250787116986373e-06,4.856946590972310851e-02,9.414250787116986373e-06
7.800000000000000000e+01,7.900000000000000000e+01,4.468742105871620351e-02,6.182567360875473003e-06,3.821744668008467127e-02,6.010189249526801060e-06,4.914916931388076116e-02,9.518203576903077768e-06,4.267919493524922891e-02,9.407148078707773341e-06,4.914916931388076116e-02,9.518203576903077768e-06,4.914916931388076116e-02,9.518203576903077768e-06
7.900000000000000000e+01,8.000000000000000000e+01,4.515518883468734590e-02,6.509015850956439496e-06,3.881982695779048753e-02,6.315049692391714562e-06,4.966749696836717659e-02,9.512346130908057236e-06,4.333213509147031822e-02,9.380687298038240267e-06,4.966749696836717659e-02,9.512346130908057236e-06,4.966749696836717659e-02,9.512346130908057236e-06
8.000000000000000000e+01,8.100000000000000000e+01,4.555154945533089472e-02,6.205013092166850608e-06,3.936113747552767023e-02,6.006262453445508469e-06,5.011325497396286466e-02,9.225377148164853275e-06,4.392284299415964016e-02,9.092886489536175474e-06,5.011325497396286466e-02,9.225377148164853275e-06,5.011325497396286466e-02,9.225377148164853275e-06
8.100000000000000000e+01,8.200000000000000000e+01,4.586987497470778469e-02,6.791898867380427434e-06,3.984072264591507345e-02,6.609155778984306138e-06,5.046048648593704639e-02,1.044859907784334003e-05,4.443133415714433515e-02,1.033074404753437048e-05,5.046048648593704639e-02,1.044859907784334003e-05,5.046048648593704639e-02,1.044859907784334003e-05
8.200000000000000000e+01,8.300000000000000000e+01,4.612255318874823595e-02,6.377843985161616371e-06,4.026459476427433209e-02,6.177789776872411464e-06,5.076146365401222604e-02,9.721577932318254219e-06,4.490350522953832219e-02,9.591520740857746054e-06,5.076146365401222604e-02,9.721577932318254219e-06,5.076146365401222604e-02,9.721577932318254219e-06
8.300000000000000000e+01,8.400000000000000000e+01,4.631366719184187852e-02,6.382573417595847991e-06,4.064289947826162791e-02,6.195437704010072477e-06,5.098398598287819106e-02,9.828199223237821038e-06,4.531321826929794044e-02,9.707713679591141326e-06,5.098398598287819106e-02,9.828199223237821038e-06,5.098398598287819106e-02,9.828199223237821038e-06
8.400000000000000000e+01,8.500000000000000000e+01,4.644458333552057422e-02,6.615684319131133837e-06,4.096659792225069985e-02,6.424976339516666525e-06,5.113963542248697869e-02,9.578419500184723979e-06,4.566165000921710432e-02,9.447706709803729096e-06,5.113963542248697869e-02,9.578419500184723979e-06,5.113963542248697869e-02,9.578419500184723979e-06
8.500000000000000000e+01,8.600000000000000000e+01,4.649407924951972498e-02,6.477282577360990639e-06,4.122610320528475453e-02,6.295353685651696483e-06,5.122405343413039686e-02,9.908410712890835322e-06,4.595607738989542640e-02,9.790448983360978993e-06,5.122405343413039686e-02,9.908410712890835322e-06,5.122405343413039686e-02,9.908410712890835322e-06
8.600000000000000000e+01,8.700000000000000000e+01,4.651129051639327910e-02,6.822091354382050035e-06,4.145309327764743618e-02,6.653070404714820091e-06,5.125279532354227313e-02,9.963089479551785223e-06,4.619459808479643020e-02,9.848125067245711738e-06,5.125279532354227313e-02,9.963089479551785223e-06,5.125279532354227313e-02,9.963089479551785223e-06
8.700000000000000000e+01,8.800000000000000000e+01,4.644093442570260827e-02,6.721570239320637846e-06,4.160479842508622850e-02,6.542864946524254281e-06,5.120360632170439102e-02,1.008649368400881705e-05,4.636747032108801125e-02,9.968296246795874764e-06,5.120360632170439102e-02,1.008649368400881705e-05,5.120360632170439102e-02,1.008649368400881705e-05
8.800000000000000000e+01,8.900000000000000000e+01,4.631200979762676445e-02,6.323745829016577521e-06,4.170122264320239025e-02,6.121539948413680970e-06,5.107218925014415933e-02,9.871922805738430527e-06,4.646140209571978513e-02,9.743631248794185754e-06,5.107218925014415933e-02,9.871922805738430527e-06,5.107218925014415933e-02,9.871922805738430527e-06
8.900000000000000000e+01,9.000000000000000000e+01,4.612870567801567040e-02,6.776476796946835815e-06,4.175502898544139474e-02,6.586518311211150485e-06,5.090960545280451971e-02,1.006171340055043341e-05,4.653592876023024405e-02,9.934770366705870267e-06,5.090960545280451971e-02,1.006171340055043341e-05,5.090960545280451971e-02,1.006171340055043341e-05
9.000000000000000000e+01,9.100000000000000000e+01,4.590281861390157342e-02,6.510774819340666293e-06,4.176853663589848165e-02,6.308663086711240414e-06,5.067548848877912598e-02,1.042856327572739575e-05,4.654120651077603421e-02,1.030359030577801141e-05,5.067548848877912598e-02,1.042856327572739575e-05,5.067548848877912598e-02,1.042856327572739575e-05
9.100000000000000000e+01,9.200000000000000000e+01,4.559276317235953779e-02,6.874791848407462539e-06,4.170573335323497083e-02,6.690154393069886111e-06,5.035728955247350397e-02,9.915457392598540372e-06,4.647025973334893700e-02,9.788345015814452964e-06,5.035728955247350397e-02,9.915457392598540372e-06,5.035728955247350397e-02,9.915457392598540372e-06
9.200000000000000000e+01,9.300000000000000000e+01,4.523052693102851823e-02,6.586734006161304593e-06,4.159433085354214549e-02,6.396664933202492385e-06,4.999163899703015779e-02,1.019896046412853115e-05,4.635544291954378504e-02,1.007725418695973798e-05,4.999163899703015779e-02,1.019896046412853115e-05,4.999163899703015779e-02,1.019896046412853115e-05
9.300000000000000000e+01,9.400000000000000000e+01,4.482435393314890271e-02,6.235602535434580890e-06,4.143940103558656912e-02,6.017417198793791103e-06,4.956564443844058837e-02,1.027237954663938983e-05,4.618069154087825479e-02,1.014141766789221690e-05,4.956564443844058837e-02,1.027237954663938983e-05,4.956564443844058837e-02,1.027237954663938983e-05
9.400000000000000000e+01,9.500000000000000000e+01,4.437363629611723592e-02,6.192990174135310944e-06,4.124082730307990219e-02,5.991746503376430311e-06,4.909928059724606719e-02,9.501738835920018776e-06,4.596647160420873346e-02,9.371816247121893929e-06,4.909928059724606719e-02,9.501738835920018776e-06,4.909928059724606719e-02,9.501738835920018776e-06
9.500000000000000000e+01,9.600000000000000000e+01,4.383614733919437984e-02,6.403315442345987618e-06,4.096434888577118322e-02,6.210122455130052469e-06,4.854194812285592131e-02,1.031832619755907479e-05,4.567014966943272469e-02,1.019956017545648193e-05,4.854194812285592131e-02,1.031832619755907479e-05,4.854194812285592131e-02,1.031832619755907479e-05
9.600000000000000000e+01,9.700000000000000000e+01,4.326043017289216835e-02,6.538680150644331145e-06,4.064490544800884730e-02,6.339565519277834648e-06,4.792880072299268018e-02,1.071466276814269427e-05,4.531327599810935913e-02,1.059432636347443879e-05,4.792880072299268018e-02,1.071466276814269427e-05,4.792880072299268018e-02,1.071466276814269427e-05
9.700000000000000000e+01,9.800000000000000000e+01,4.262887763372662231e-02,6.708806861717759038e-06,4.027047872120226302e-02,6.511792846010126014e-06,4.726842712056725238e-02,9.346719572993174158e-06,4.491002820804289308e-02,9.206330612013185691e-06,4.726842712056725238e-02,9.346719572993174158e-06,4.726842712056725238e-02,9.346719572993174158e-06
9.800000000000000000e+01,9.900000000000000000e+01,4.194256514501330108e-02,6.221156492441000057e-06,3.983811383137378370e-02,6.013128652892154643e-06,4.653760250029627399e-02,9.399173249156660004e-06,4.443315118665676355e-02,9.262795790713189713e-06,4.653760250029627399e-02,9.399173249156660004e-06,4.653760250029627399e-02,9.399173249156660004e-06
9.900000000000000000e+01,1.000000000000000000e+02,4.120557966012589751e-02,6.218565934613582559e-06,3.935515945914642988e-02,6.029404316313922498e-06,4.576198755000394913e-02,9.098495864296497567e-06,4.391156734902448150e-02,8.970272076089382557e-06,4.576198755000394913e-02,9.098495864296497567e-06,4.576198755000394913e-02,9.098495864296497567e-06
1.000000000000000000e+02,1.010000000000000000e+02,4.042696073929116785e-02,6.512286486079493825e-06,3.882280264471003883e-02,6.341749552208142209e-06,4.493325924014070216e-02,9.317947608782016478e-06,4.332910114555957315e-02,9.199568454344207190e-06,4.493325924014070216e-02,9.317947608782016478e-06,4.493325924014070216e-02,9.317947608782016478e-06
1.010000000000000000e+02,1.020000000000000000e+02,3.958145192579202304e-02,5.992821599297421784e-06,3.821743414080108758e-02,5.803789322888980812e-06,4.404296200319476884e-02,9.527786174179734142e-06,4.267894421820383338e-02,9.410035555956467086e-06,4.404296200319476884e-02,9.527786174179734142e-06,4.404296200319476884e-02,9.527786174179734142e-06
1.020000000000000000e+02,1.030000000000000000e+02,3.870463686169178796e-02,6.142516430239377170e-06,3.757711673824304377e-02,5.946059789146959637e-06,4.311805123630100406e-02,9.382380937548211517e-06,4.199053111285225987e-02,9.254954941955024814e-06,4.311805123630100406e-02,9.382380937548211517e-06,4.311805123630100406e-02,9.382380937548211517e-06
1.030000000000000000e+02,1.040000000000000000e+02,3.779030118732803339e-02,6.589961052385012230e-06,3.688944622565065029e-02,6.407913047558145253e-06,4.213854927899150088e-02,9.760332101183673848e-06,4.123769431731411778e-02,9.638352850903053774e-06,4.213854927899150088e-02,9.760332101183673848e-06,4.213854927899150088e-02,9.760332101183673848e-06
1.040000000000000000e+02,1.050000000000000000e+02,3.685163036807172221e-02,5.893491713637372276e-06,3.616623175449987238e-02,5.713070069006635805e-06,4.114742756947457197e-02,9.216016204007895467e-06,4.046202895590272214e-02,9.101696529065513805e-06,4.114742756947457197e-02,9.216016204007895467e-06,4.114742756947457197e-02,9.216016204007895467e-06
1.050000000000000000e+02,1.060000000000000000e+02,3.586937231717723940e-02,5.870138980950560993e-06,3.539382219861918200e-02,5.699940340033325301e-06,4.010064422955097324e-02,8.875740319005865524e-06,3.962509411099291584e-02,8.764106025984068287e-06,4.010064422955097324e-02,8.875740319005865524e-06,4.010064422955097324e-02,8.875740319005865524e-06
1.060000000000000000e+02,1.070000000000000000e+02,3.485151591516763570e-02,6.118388837978005205e-06,3.457113708897113780e-02,5.939367549889115412e-06,3.903142627875026693e-02,9.295298865717552294e-06,3.875104745255376903e-02,9.178452261846329724e-06,3.903142627875026693e-02,9.295298865717552294e-06,3.903142627875026693e-02,9.295298865717552294e-06
1.070000000000000000e+02,1.080000000000000000e+02,3.382657957827528428e-02,5.691989908543168467e-06,3.373160937264394615e-02,5.503889556377823027e-06,3.793960612118575659e-02,8.482868778472982938e-06,3.784463591555441847e-02,8.357817528675732285e-06,3.793960612118575659e-02,8.482868778472982938e-06,3.793960612118575659e-02,8.482868778472982938e-06
1.080000000000000000e+02,1.090000000000000000e+02,3.278713727022815327e-02,5.763947729076612239e-06,3.286849371350957644e-02,5.587243965554027924e-06,3.683758797832226151e-02,9.330996513888985277e-06,3.691894442160368467e-02,9.222889875158482451e-06,3.683758797832226151e-02,9.330996513888985277e-06,3.683758797832226151e-02,9.330996513888985277e-06
1.090000000000000000e+02,1.100000000000000000e+02,3.171259625420547179e-02,5.331036751606022729e-06,3.195182420228383224e-02,5.143469122082086364e-06,3.569254884418845974e-02,7.942235836346627834e-06,3.593177679226682020e-02,7.817571991544842143e-06,3.569254884418845974e-02,7.942235836346627834e-06,3.569254884418845974e-02,7.942235836346627834e-06
1.100000000000000000e+02,1.110000000000000000e+02,3.064155274296404691e-02,5.527804116602816344e-06,3.102899243594420958e-02,5.334226596607537791e-06,3.455805811655462967e-02,8.630225743270488825e-06,3.494549780953479234e-02,8.507534978607661337e-06,3.455805811655462967e-02,8.630225743270488825e-06,3.455805811655462967e-02,8.630225743270488825e-06
1.110000000000000000e+02,1.120000000000000000e+02,2.956343258264738927e-02,5.592229088154088067e-06,3.008689269282832993e-02,5.394376526876464958e-06,3.340028063585655932e-02,8.690622863322588148e-06,3.392374074603750345e-02,8.564648135902862514e-06,3.340028063585655932e-02,8.690622863322588148e-06,3.340028063585655932e-02,8.690622863322588148e-06
1.120000000000000000e+02,1.130000000000000000e+02,2.845928391091607709e-02,5.616728918023739814e-06,2.910279044311529784e-02,5.422216300187713290e-06,3.223406199752343326e-02,8.713928614072164188e-06,3.287756852972265748e-02,8.589839216108928718e-06,3.223406199752343326e-02,8.713928614072164188e-06,3.223406199752343326e-02,8.713928614072164188e-06
1.130000000000000000e+02,1.140000000000000000e+02,2.737015720791243639e-02,5.625999000598060084e-06,2.812038614590175317e-02,5.420188153810303813e-06,3.107397795711410241e-02,8.013940238272345765e-06,3.182420689510341572e-02,7.870820351816944552e-06,3.107397795711410241e-02,8.013940238272345765e-06,3.107397795711410241e-02,8.013940238272345765e-06
1.140000000000000000e+02,1.150000000000000000e+02,2.628562701430747425e-02,5.120138446283690209e-06,2.712851559146147243e-02,4.933658982501497240e-06,2.991462225103328279e-02,7.928632359651090463e-06,3.075751082818728097e-02,7.809506024135697409e-06,2.991462225103328279e-02,7.928632359651090463e-06,2.991462225103328279e-02,7.928632359651090463e-06
1.150000000000000000e+02,1.160000000000000000e+02,2.518734567305715502e-02,4.936531314719359634e-06,2.610782211202671704e-02,4.763140284932447106e-06,2.874068772447027284e-02,7.454372184419934418e-06,2.966116416343983486e-02,7.340696739179131378e-06,2.874068772447027284e-02,7.454372184419934418e-06,2.874068772447027284e-02,7.454372184419934418e-06
1.160000000000000000e+02,1.170000000000000000e+02,2.410332794472540979e-02,4.655997866863285462e-06,2.508117640441324264e-02,4.477607119098843036e-06,2.758326207298435195e-02,7.420272124838322928e-06,2.856111053267218480e-02,7.309657159089050056e-06,2.758326207298435195e-02,7.420272124838322928e-06,2.758326207298435195e-02,7.420272124838322928e-06
1.170000000000000000e+02,1.180000000000000000e+02,2.302311809206445889e-02,5.162430865233945794e-06,2.404524334347537401e-02,5.023234105771214159e-06,2.642022337291790104e-02,7.319070416759305095e-06,2.744234862432881616e-02,7.221563557052187678e-06,2.642022337291790104e-02,7.319070416759305095e-06,2.642022337291790104e-02,7.319070416759305095e-06
1.180000000000000000e+02,1.190000000000000000e+02,2.194546828896626334e-02,4.688757847647167884e-06,2.299539658151032034e-02,4.527333576050209232e-06,2.527198832452777835e-02,7.584014106842206414e-06,2.632191661707183536e-02,7.485290183268798921e-06,2.527198832452777835e-02,7.584014106842206414e-06,2.527198832452777835e-02,7.584014106842206414e-06
1.190000000000000000e+02,1.200000000000000000e+02,2.090368795311308217e-02,4.490410884252644005e-06,2.196366489389632928e-02,4.333043217414494961e-06,2.415303811062948988e-02,6.774272087319419252e-06,2.521301505141273699e-02,6.670999619817268792e-06,2.415303811062948988e-02,6.774272087319419252e-06,2.415303811062948988e-02,6.774272087319419252e-06
1.200000000000000000e+02,1.210000000000000000e+02,1.992799895751556222e-02,4.194028204848481610e-06,2.097344371911532071e-02,4.015588797399551427e-06,2.308949129755116444e-02,6.766158128829473377e-06,2.413493605915092294e-02,6.657024607965735263e-06,2.308949129755116444e-02,6.766158128829473377e-06,2.308949129755116444e-02,6.766158128829473377e-06
1.210000000000000000e+02,1.220000000000000000e+02,1.895739453877679989e-02,4.255114721827227269e-06,1.998270998534393966e-02,4.097881035925873186e-06,2.203245100626012240e-02,6.894564210677188868e-06,2.305776645282726217e-02,6.798650111885511742e-06,2.203245100626012240e-02,6.894564210677188868e-06,2.203245100626012240e-02,6.894564210677188868e-06
1.220000000000000000e+02,1.230000000000000000e+02,1.800958955843884324e-02,4.313283807813449024e-06,1.900953333952837970e-02,4.165533842513047769e-06,2.101087214842691647e-02,7.196195382809440991e-06,2.201081592951645294e-02,7.108620328442345224e-06,2.101087214842691647e-02,7.196195382809440991e-06,2.101087214842691647e-02,7.196195382809440991e-06
1.230000000000000000e+02,1.240000000000000000e+02,1.706409879605748012e-02,4.026272117930936078e-06,1.803674121592703170e-02,3.873912391859248045e-06,1.997745498754876017e-02,6.627463786727632004e-06,2.095009740741831175e-02,6.536023737453738399e-06,1.997745498754876017e-02,6.627463786727632004e-06,1.997745498754876017e-02,6.627463786727632004e-06
1.240000000000000000e+02,1.250000000000000000e+02,1.613435801957274415e-02,3.894590191185483745e-06,1.707501901803991015e-02,3.733497214004329793e-06,1.897307238106308788e-02,6.449879277742580199e-06,1.991373337953025388e-02,6.353905207598949909e-06,1.897307238106308788e-02,6.449879277742580199e-06,1.897307238106308788e-02,6.449879277742580199e-06
1.250000000000000000e+02,1.260000000000000000e+02,1.521864551295414730e-02,3.980090914796558347e-06,1.612358086279247135e-02,3.833626743590219488e-06,1.797442703559411215e-02,6.223818906227169363e-06,1.887936238543243619e-02,6.131190104427917179e-06,1.797442703559411215e-02,6.223818906227169363e-06,1.797442703559411215e-02,6.223818906227169363e-06
1.260000000000000000e+02,1.270000000000000000e+02,1.431693833925251798e-02,4.068710764628363114e-06,1.517785799616770508e-02,3.916147371529395245e-06,1.699284210802838591e-02,6.768924206697960690e-06,1.785376176494357300e-02,6.678333464671817749e-06,1.699284210802838591e-02,6.768924206697960690e-06,1.699284210802838591e-02,6.768924206697960690e-06
1.270000000000000000e+02,1.280000000000000000e+02,1.343437079904144169e-02,3.772976782721671621e-06,1.425638304999268455e-02,3.637656934839976924e-06,1.603265842750301387e-02,5.910306976488401610e-06,1.685467067845425673e-02,5.824853880481472489e-06,1.603265842750301387e-02,5.910306976488401610e-06,1.603265842750301387e-02,5.910306976488401610e-06
1.280000000000000000e+02,1.290000000000000000e+02,1.254773251737590842e-02,3.585588529013550647e-06,1.332698551258066494e-02,3.427406141671863716e-06,1.506703180968704120e-02,7.070038117250538115e-06,1.584628480489179772e-02,6.991144880486455290e-06,1.506703180968704120e-02,7.070038117250538115e-06,1.506703180968704120e-02,7.070038117250538115e-06
1.290000000000000000e+02,1.300000000000000000e+02,1.166651083250913254e-02,3.592785328505925863e-06,1.240394673582395461e-02,3.427485021189369025e-06,1.412758236415075780e-02,6.642563141160845372e-06,1.486501826746557987e-02,6.554631357907071519e-06,1.412758236415075780e-02,6.642563141160845372e-06,1.412758236415075780e-02,6.642563141160845372e-06
