# xl,xh,LO,dLO
-6.400000000000000133e-01,-6.199999999999999956e-01,0.000000000000000000e+00,0.000000000000000000e+00
-6.199999999999999956e-01,-5.999999999999999778e-01,0.000000000000000000e+00,0.000000000000000000e+00
-5.999999999999999778e-01,-5.799999999999999600e-01,0.000000000000000000e+00,0.000000000000000000e+00
-5.799999999999999600e-01,-5.600000000000000533e-01,0.000000000000000000e+00,0.000000000000000000e+00
-5.600000000000000533e-01,-5.400000000000000355e-01,4.541864499999996418e+00,9.008378044909075288e-02
-5.400000000000000355e-01,-5.200000000000000178e-01,3.067213999999997327e+02,7.269449772850755664e-01
-5.200000000000000178e-01,-5.000000000000000000e-01,3.086198499999997580e+02,6.160823808550276448e-01
-5.000000000000000000e-01,-4.799999999999999822e-01,3.148992499999997108e+02,5.867507988916583761e-01
-4.799999999999999822e-01,-4.600000000000000200e-01,3.194488500000005615e+02,5.922908913701115940e-01
-4.600000000000000200e-01,-4.400000000000000022e-01,3.236707499999997140e+02,5.956551015478667166e-01
-4.400000000000000022e-01,-4.199999999999999845e-01,3.288687499999996930e+02,6.046149601192475354e-01
-4.199999999999999845e-01,-4.000000000000000222e-01,3.368841500000006022e+02,6.160389598069276884e-01
-4.000000000000000222e-01,-3.800000000000000044e-01,3.425030499999996891e+02,6.260672887158370559e-01
-3.800000000000000044e-01,-3.599999999999999867e-01,3.475983999999996854e+02,6.389297692235034187e-01
-3.599999999999999867e-01,-3.400000000000000244e-01,3.564011500000006549e+02,6.528439706392344943e-01
-3.400000000000000244e-01,-3.200000000000000067e-01,3.636636999999996647e+02,6.656483681344071979e-01
-3.200000000000000067e-01,-2.999999999999999889e-01,3.704535999999996534e+02,6.772062093631445734e-01
-2.999999999999999889e-01,-2.800000000000000266e-01,3.797351000000007275e+02,6.847295086382664264e-01
-2.800000000000000266e-01,-2.600000000000000089e-01,3.887663999999996349e+02,6.929641044094557722e-01
-2.600000000000000089e-01,-2.399999999999999911e-01,3.993798999999996795e+02,7.107344792536796074e-01
-2.399999999999999911e-01,-2.200000000000000011e-01,4.089063500000002023e+02,7.185662808676737123e-01
-2.200000000000000011e-01,-2.000000000000000111e-01,4.208444500000001653e+02,7.033553511561566607e-01
-2.000000000000000111e-01,-1.799999999999999933e-01,4.323981499999996458e+02,7.209285678900504424e-01
-1.799999999999999933e-01,-1.600000000000000033e-01,4.456958500000001777e+02,7.362350168254703231e-01
-1.600000000000000033e-01,-1.400000000000000133e-01,4.591792000000002076e+02,7.411954870342913893e-01
-1.400000000000000133e-01,-1.199999999999999956e-01,4.737084499999995728e+02,7.625829463081370552e-01
-1.199999999999999956e-01,-1.000000000000000056e-01,4.878943000000002144e+02,7.766242656523170140e-01
-1.000000000000000056e-01,-8.000000000000000167e-02,5.067509999999999195e+02,7.783313882916451654e-01
-8.000000000000000167e-02,-5.999999999999999778e-02,5.245129999999998063e+02,8.029599927767259171e-01
-5.999999999999999778e-02,-4.000000000000000083e-02,5.441800000000000637e+02,8.146591311708230032e-01
-4.000000000000000083e-02,-2.000000000000000042e-02,5.637250000000000227e+02,8.344537135156149255e-01
-2.000000000000000042e-02,0.000000000000000000e+00,5.871504999999999654e+02,8.563357986210783368e-01
0.000000000000000000e+00,2.000000000000000042e-02,6.107454999999999927e+02,8.573329283306455606e-01
2.000000000000000042e-02,4.000000000000000083e-02,6.363319999999999936e+02,8.859729115497831931e-01
4.000000000000000083e-02,5.999999999999999778e-02,6.633985000000001264e+02,8.917886520919630078e-01
5.999999999999999778e-02,8.000000000000000167e-02,6.929254999999999427e+02,9.246070787096537513e-01
8.000000000000000167e-02,1.000000000000000056e-01,7.266299999999998818e+02,9.388370465634596762e-01
1.000000000000000056e-01,1.199999999999999956e-01,7.615220000000003893e+02,9.695402260865719768e-01
1.199999999999999956e-01,1.400000000000000133e-01,7.997059999999993352e+02,9.900083332982598794e-01
1.400000000000000133e-01,1.600000000000000033e-01,8.419765000000004420e+02,1.016554966541407090e+00
1.600000000000000033e-01,1.799999999999999933e-01,8.836995000000003984e+02,1.046436214014022648e+00
1.799999999999999933e-01,2.000000000000000111e-01,9.342434999999991305e+02,1.058741233729941333e+00
2.000000000000000111e-01,2.200000000000000011e-01,9.865800000000004957e+02,1.096601682471808559e+00
2.200000000000000011e-01,2.399999999999999911e-01,1.045977500000000646e+03,1.135475010733394186e+00
2.399999999999999911e-01,2.600000000000000089e-01,1.108725999999998976e+03,1.169483432973720038e+00
2.600000000000000089e-01,2.800000000000000266e-01,1.177244999999998981e+03,1.205337400896528077e+00
2.800000000000000266e-01,2.999999999999999889e-01,1.253640000000002374e+03,1.234331904310994377e+00
2.999999999999999889e-01,3.200000000000000067e-01,1.339873499999998785e+03,1.283316796430248985e+00
3.200000000000000067e-01,3.400000000000000244e-01,1.432222999999998592e+03,1.324767998556727333e+00
3.400000000000000244e-01,3.599999999999999867e-01,1.535082500000002938e+03,1.377908922969877104e+00
3.599999999999999867e-01,3.800000000000000044e-01,1.647124999999998636e+03,1.422494815456279982e+00
3.800000000000000044e-01,4.000000000000000222e-01,1.775924999999998590e+03,1.482462478445911946e+00
4.000000000000000222e-01,4.199999999999999845e-01,1.917331000000003769e+03,1.542274132571771039e+00
4.199999999999999845e-01,4.400000000000000022e-01,2.075752499999998236e+03,1.600344494163677078e+00
4.400000000000000022e-01,4.600000000000000200e-01,2.255726499999997941e+03,1.674122158027900431e+00
4.600000000000000200e-01,4.799999999999999822e-01,2.457331500000004780e+03,1.750569907201654951e+00
4.799999999999999822e-01,5.000000000000000000e-01,2.681939499999997679e+03,1.816431253860160355e+00
5.000000000000000000e-01,5.200000000000000178e-01,2.944583999999997559e+03,1.920783694224831972e+00
5.200000000000000178e-01,5.400000000000000355e-01,3.241299499999997352e+03,2.447698919393475947e+00
5.400000000000000355e-01,5.600000000000000533e-01,5.179474999999995788e+01,5.288761669805130960e-01
5.600000000000000533e-01,5.799999999999999600e-01,0.000000000000000000e+00,0.000000000000000000e+00
5.799999999999999600e-01,5.999999999999999778e-01,0.000000000000000000e+00,0.000000000000000000e+00
5.999999999999999778e-01,6.199999999999999956e-01,0.000000000000000000e+00,0.000000000000000000e+00
6.199999999999999956e-01,6.400000000000000133e-01,0.000000000000000000e+00,0.000000000000000000e+00
