# xl,xh,LO,dLO,YFSLO,dYFSLO
5.000000000000000000e+01,5.100000000000000000e+01,2.442460000000000030e-03,3.219803000000000113e-05,2.585123999999999842e-03,3.475038999999999781e-05
5.100000000000000000e+01,5.200000000000000000e+01,2.940805999999999802e-03,3.502166000000000106e-05,3.045626999999999970e-03,3.709453999999999806e-05
5.200000000000000000e+01,5.300000000000000000e+01,3.234936999999999795e-03,3.623998999999999791e-05,3.306111000000000032e-03,3.883973000000000227e-05
5.300000000000000000e+01,5.400000000000000000e+01,3.310548999999999870e-03,3.618226999999999875e-05,3.520376999999999881e-03,3.914717000000000148e-05
5.400000000000000000e+01,5.500000000000000000e+01,3.498985999999999937e-03,3.690001999999999708e-05,3.663828999999999957e-03,3.886036000000000210e-05
5.500000000000000000e+01,5.600000000000000000e+01,3.688898999999999824e-03,3.756034000000000298e-05,3.785039999999999932e-03,3.923969000000000242e-05
5.600000000000000000e+01,5.700000000000000000e+01,3.756761999999999862e-03,3.780113000000000174e-05,3.956175000000000143e-03,4.012509999999999975e-05
5.700000000000000000e+01,5.800000000000000000e+01,3.912663999999999725e-03,3.795526999999999685e-05,4.111417000000000023e-03,4.044548999999999687e-05
5.800000000000000000e+01,5.900000000000000000e+01,3.957048000000000336e-03,3.762559000000000037e-05,4.130334999999999736e-03,4.027229000000000334e-05
5.900000000000000000e+01,6.000000000000000000e+01,4.162690000000000140e-03,3.810947999999999685e-05,4.256588000000000385e-03,4.080332999999999817e-05
6.000000000000000000e+01,6.100000000000000000e+01,4.163400000000000260e-03,3.812261000000000057e-05,4.453094000000000323e-03,4.209440000000000138e-05
6.100000000000000000e+01,6.200000000000000000e+01,4.258154000000000106e-03,3.880771999999999916e-05,4.520635999999999752e-03,4.211962999999999775e-05
6.200000000000000000e+01,6.300000000000000000e+01,4.416365999999999695e-03,3.958490000000000110e-05,4.641923000000000056e-03,4.250674000000000021e-05
6.300000000000000000e+01,6.400000000000000000e+01,4.501284999999999835e-03,4.003523000000000124e-05,4.858293999999999981e-03,4.364024999999999946e-05
6.400000000000000000e+01,6.500000000000000000e+01,4.638940999999999724e-03,4.021552999999999679e-05,4.983902000000000124e-03,4.396054999999999706e-05
6.500000000000000000e+01,6.600000000000000000e+01,4.781671999999999832e-03,4.073673000000000121e-05,4.971210999999999686e-03,4.377689999999999755e-05
6.600000000000000000e+01,6.700000000000000000e+01,4.892004999999999618e-03,4.094273999999999960e-05,5.184381000000000059e-03,4.497484999999999851e-05
6.700000000000000000e+01,6.800000000000000000e+01,5.018787999999999722e-03,4.150329999999999953e-05,5.421838000000000005e-03,4.604254000000000116e-05
6.800000000000000000e+01,6.900000000000000000e+01,5.145908999999999726e-03,4.220766999999999699e-05,5.451204000000000292e-03,4.623806999999999825e-05
6.900000000000000000e+01,7.000000000000000000e+01,5.297513999999999695e-03,4.283583000000000285e-05,5.622554000000000093e-03,4.707776000000000240e-05
7.000000000000000000e+01,7.100000000000000000e+01,5.471270999999999773e-03,4.364582000000000287e-05,5.703576999999999605e-03,4.734451000000000116e-05
7.100000000000000000e+01,7.200000000000000000e+01,5.576099999999999633e-03,4.403658999999999709e-05,5.806930000000000078e-03,4.767233000000000305e-05
7.200000000000000000e+01,7.300000000000000000e+01,5.738614000000000388e-03,4.482480999999999884e-05,5.997276000000000169e-03,4.791854000000000149e-05
7.300000000000000000e+01,7.400000000000000000e+01,5.854297999999999967e-03,4.533483000000000044e-05,6.206744999999999624e-03,4.886271000000000299e-05
7.400000000000000000e+01,7.500000000000000000e+01,6.000937999999999932e-03,4.596492999999999971e-05,6.362478999999999878e-03,4.967350999999999868e-05
7.500000000000000000e+01,7.600000000000000000e+01,6.165539999999999736e-03,4.649716000000000325e-05,6.453640000000000071e-03,5.016962000000000298e-05
7.600000000000000000e+01,7.700000000000000000e+01,6.299334000000000183e-03,4.675462000000000265e-05,6.676628000000000424e-03,5.112509000000000216e-05
7.700000000000000000e+01,7.800000000000000000e+01,6.489721000000000378e-03,4.750217999999999926e-05,6.848660000000000338e-03,5.169359000000000188e-05
7.800000000000000000e+01,7.900000000000000000e+01,6.638579000000000355e-03,4.802961999999999976e-05,6.964826000000000350e-03,5.252669999999999974e-05
7.900000000000000000e+01,8.000000000000000000e+01,6.736487000000000204e-03,4.845218000000000203e-05,7.085277000000000068e-03,5.283168000000000304e-05
8.000000000000000000e+01,8.100000000000000000e+01,6.945993000000000132e-03,4.907690999999999833e-05,7.364724999999999917e-03,5.410688000000000059e-05
8.100000000000000000e+01,8.200000000000000000e+01,7.194049000000000103e-03,5.011829999999999752e-05,7.473101000000000223e-03,5.487332000000000337e-05
8.200000000000000000e+01,8.300000000000000000e+01,7.255344000000000376e-03,5.041221999999999961e-05,7.736876000000000170e-03,5.519526000000000049e-05
8.300000000000000000e+01,8.400000000000000000e+01,7.479486999999999941e-03,5.136639000000000271e-05,7.828582000000000596e-03,5.571267999999999799e-05
8.400000000000000000e+01,8.500000000000000000e+01,7.757901999999999680e-03,5.218437999999999994e-05,8.164826999999999502e-03,5.710367999999999873e-05
8.500000000000000000e+01,8.600000000000000000e+01,7.866134000000000320e-03,5.221959999999999720e-05,8.310545000000000779e-03,5.790215999999999994e-05
8.600000000000000000e+01,8.700000000000000000e+01,8.158900000000000180e-03,5.348701999999999938e-05,8.434468999999999994e-03,5.815493000000000328e-05
8.700000000000000000e+01,8.800000000000000000e+01,8.326880000000000046e-03,5.391257000000000075e-05,8.720834999999999698e-03,5.915549999999999970e-05
8.800000000000000000e+01,8.900000000000000000e+01,8.609350999999999463e-03,5.474398000000000165e-05,8.966741999999999768e-03,5.996357000000000092e-05
8.900000000000000000e+01,9.000000000000000000e+01,8.797192000000000553e-03,5.546998000000000114e-05,9.159188999999999872e-03,5.975048000000000192e-05
9.000000000000000000e+01,9.100000000000000000e+01,9.113605000000000317e-03,5.657071999999999833e-05,9.414751000000000716e-03,6.102828999999999909e-05
9.100000000000000000e+01,9.200000000000000000e+01,9.407118000000000771e-03,5.753863000000000038e-05,9.807925999999999797e-03,6.242322999999999763e-05
9.200000000000000000e+01,9.300000000000000000e+01,9.752708000000000557e-03,5.840355000000000091e-05,1.012611000000000067e-02,6.325548999999999701e-05
9.300000000000000000e+01,9.400000000000000000e+01,9.959350999999999968e-03,5.907148999999999777e-05,1.030878000000000003e-02,6.361650000000000323e-05
9.400000000000000000e+01,9.500000000000000000e+01,1.020604999999999950e-02,5.960433999999999725e-05,1.056549000000000030e-02,6.450646000000000038e-05
9.500000000000000000e+01,9.600000000000000000e+01,1.063954999999999936e-02,6.093090000000000306e-05,1.099319999999999985e-02,6.598516999999999761e-05
9.600000000000000000e+01,9.700000000000000000e+01,1.099715000000000067e-02,6.217546999999999918e-05,1.129596000000000072e-02,6.685247999999999592e-05
9.700000000000000000e+01,9.800000000000000000e+01,1.124330999999999942e-02,6.279319000000000654e-05,1.163066999999999920e-02,6.793480000000000558e-05
9.800000000000000000e+01,9.900000000000000000e+01,1.171383999999999967e-02,6.419439000000000254e-05,1.196772999999999934e-02,6.869060999999999657e-05
9.900000000000000000e+01,1.000000000000000000e+02,1.205008999999999941e-02,6.505970999999999716e-05,1.238594999999999974e-02,7.002356000000000216e-05
1.000000000000000000e+02,1.010000000000000000e+02,1.241886000000000032e-02,6.582379999999999818e-05,1.273649999999999956e-02,7.102896999999999835e-05
1.010000000000000000e+02,1.020000000000000000e+02,1.287973000000000069e-02,6.725602999999999649e-05,1.317943000000000066e-02,7.224690999999999503e-05
1.020000000000000000e+02,1.030000000000000000e+02,1.332342000000000075e-02,6.828277999999999475e-05,1.355167999999999998e-02,7.378237000000000489e-05
1.030000000000000000e+02,1.040000000000000000e+02,1.386150000000000056e-02,6.986719000000000013e-05,1.410230999999999985e-02,7.496086999999999369e-05
1.040000000000000000e+02,1.050000000000000000e+02,1.444572000000000044e-02,7.098526000000000347e-05,1.463837999999999945e-02,7.665982000000000221e-05
1.050000000000000000e+02,1.060000000000000000e+02,1.493657999999999965e-02,7.211518999999999623e-05,1.513998000000000080e-02,7.852272000000000093e-05
1.060000000000000000e+02,1.070000000000000000e+02,1.544349000000000069e-02,7.320050999999999891e-05,1.560946000000000035e-02,7.971234999999999584e-05
1.070000000000000000e+02,1.080000000000000000e+02,1.605240000000000139e-02,7.482990000000000670e-05,1.623078999999999841e-02,8.206119999999999962e-05
1.080000000000000000e+02,1.090000000000000000e+02,1.663569999999999979e-02,7.604239000000000159e-05,1.673842000000000038e-02,8.298215999999999698e-05
1.090000000000000000e+02,1.100000000000000000e+02,1.728371000000000074e-02,7.733785000000000019e-05,1.748887999999999832e-02,8.554606000000000135e-05
1.100000000000000000e+02,1.110000000000000000e+02,1.800248999999999946e-02,7.911674000000000376e-05,1.813336999999999935e-02,8.639218999999999523e-05
1.110000000000000000e+02,1.120000000000000000e+02,1.866935000000000122e-02,8.058094000000000237e-05,1.872079000000000104e-02,8.748944000000000577e-05
1.120000000000000000e+02,1.130000000000000000e+02,1.928472999999999993e-02,8.193328999999999630e-05,1.941968999999999987e-02,8.863137999999999843e-05
1.130000000000000000e+02,1.140000000000000000e+02,2.017796000000000173e-02,8.359873000000000521e-05,2.017704000000000025e-02,1.258115999999999933e-04
1.140000000000000000e+02,1.150000000000000000e+02,2.104322000000000137e-02,8.536170000000000639e-05,2.100230000000000152e-02,9.186883999999999979e-05
1.150000000000000000e+02,1.160000000000000000e+02,2.197881000000000140e-02,8.704437000000000090e-05,2.154417000000000137e-02,9.269117999999999639e-05
1.160000000000000000e+02,1.170000000000000000e+02,2.267455999999999985e-02,8.820803999999999581e-05,2.244695000000000024e-02,9.579735000000000192e-05
1.170000000000000000e+02,1.180000000000000000e+02,2.373395000000000019e-02,9.038003000000000074e-05,2.331862999999999991e-02,9.743178999999999707e-05
1.180000000000000000e+02,1.190000000000000000e+02,2.482757000000000019e-02,9.236805999999999804e-05,2.396884999999999988e-02,9.974319999999999736e-05
1.190000000000000000e+02,1.200000000000000000e+02,2.562174999999999869e-02,9.383696000000000018e-05,2.486270000000000147e-02,1.013400000000000021e-04
1.200000000000000000e+02,1.210000000000000000e+02,2.708052000000000029e-02,9.644258999999999644e-05,2.595188999999999829e-02,1.036857999999999958e-04
1.210000000000000000e+02,1.220000000000000000e+02,2.797281999999999894e-02,9.797588000000000358e-05,2.721834999999999880e-02,1.085085000000000064e-04
1.220000000000000000e+02,1.230000000000000000e+02,2.944110000000000130e-02,1.004070000000000028e-04,2.827997000000000150e-02,1.070400999999999986e-04
1.230000000000000000e+02,1.240000000000000000e+02,3.071768000000000068e-02,1.024702000000000002e-04,2.904663000000000037e-02,1.087781999999999947e-04
1.240000000000000000e+02,1.250000000000000000e+02,3.203189000000000036e-02,1.047233999999999942e-04,3.007216999999999876e-02,1.103113000000000021e-04
1.250000000000000000e+02,1.260000000000000000e+02,3.332453999999999972e-02,1.069621000000000037e-04,3.064934999999999882e-02,1.115088000000000055e-04
1.260000000000000000e+02,1.270000000000000000e+02,3.402142999999999834e-02,1.078593000000000059e-04,3.127093000000000234e-02,1.123457000000000042e-04
1.270000000000000000e+02,1.280000000000000000e+02,3.452009000000000327e-02,1.088128999999999963e-04,3.109647000000000105e-02,1.112056999999999981e-04
1.280000000000000000e+02,1.290000000000000000e+02,3.365953000000000001e-02,1.075813999999999997e-04,3.241883999999999738e-02,1.696473999999999899e-03
1.290000000000000000e+02,1.300000000000000000e+02,2.747016999999999862e-02,1.062158999999999938e-04,2.975291000000000047e-02,4.559846000000000212e-03
