# xl,xh,LO,dLO,YFSLO,dYFSLO
5.000000000000000000e+01,5.100000000000000000e+01,2.750038000000000135e-02,1.059936000000000011e-04,2.970683000000000004e-02,4.559859000000000308e-03
5.100000000000000000e+01,5.200000000000000000e+01,3.378462000000000132e-02,1.076948999999999978e-04,3.059430000000000135e-02,1.097803999999999967e-04
5.200000000000000000e+01,5.300000000000000000e+01,3.442839999999999789e-02,1.084606999999999965e-04,3.303550000000000236e-02,1.694668000000000086e-03
5.300000000000000000e+01,5.400000000000000000e+01,3.401683999999999958e-02,1.078775999999999986e-04,3.108651000000000122e-02,1.095686000000000067e-04
5.400000000000000000e+01,5.500000000000000000e+01,3.319977999999999818e-02,1.066287999999999980e-04,3.068477000000000010e-02,1.094709000000000025e-04
5.500000000000000000e+01,5.600000000000000000e+01,3.199731000000000103e-02,1.045405000000000065e-04,3.010749999999999885e-02,1.105854999999999935e-04
5.600000000000000000e+01,5.700000000000000000e+01,3.076515999999999973e-02,1.025646999999999974e-04,2.905519999999999978e-02,1.300119999999999878e-04
5.700000000000000000e+01,5.800000000000000000e+01,2.947373000000000007e-02,1.003721999999999942e-04,2.822068999999999966e-02,1.089748999999999991e-04
5.800000000000000000e+01,5.900000000000000000e+01,2.814223999999999892e-02,9.821945999999999422e-05,2.711958999999999897e-02,1.068422999999999986e-04
5.900000000000000000e+01,6.000000000000000000e+01,2.705743999999999858e-02,9.620389999999999552e-05,2.608028999999999903e-02,1.031076999999999954e-04
6.000000000000000000e+01,6.100000000000000000e+01,2.569690000000000168e-02,9.377045999999999667e-05,2.476580000000000101e-02,9.910526999999999921e-05
6.100000000000000000e+01,6.200000000000000000e+01,2.471193000000000001e-02,9.192531000000000638e-05,2.420918999999999849e-02,9.751324000000000287e-05
6.200000000000000000e+01,6.300000000000000000e+01,2.368019000000000027e-02,8.994736999999999665e-05,2.335720999999999978e-02,9.749973999999999360e-05
6.300000000000000000e+01,6.400000000000000000e+01,2.270170999999999994e-02,8.830628999999999779e-05,2.229661999999999963e-02,9.418260000000000184e-05
6.400000000000000000e+01,6.500000000000000000e+01,2.175148000000000012e-02,8.651569000000000175e-05,2.169845999999999928e-02,9.264063999999999806e-05
6.500000000000000000e+01,6.600000000000000000e+01,2.112887999999999919e-02,8.533529000000000201e-05,2.088705000000000075e-02,9.126558000000000110e-05
6.600000000000000000e+01,6.700000000000000000e+01,2.011051000000000158e-02,8.328203999999999588e-05,1.998462999999999976e-02,8.903326000000000415e-05
6.700000000000000000e+01,6.800000000000000000e+01,1.938128999999999894e-02,8.199066999999999879e-05,1.924640999999999852e-02,8.731162999999999468e-05
6.800000000000000000e+01,6.900000000000000000e+01,1.871876999999999916e-02,8.050652000000000047e-05,1.859902999999999904e-02,8.719738999999999897e-05
6.900000000000000000e+01,7.000000000000000000e+01,1.785934999999999953e-02,7.851730000000000124e-05,1.829723999999999934e-02,8.745694999999999619e-05
7.000000000000000000e+01,7.100000000000000000e+01,1.737174000000000010e-02,7.724805999999999372e-05,1.756579000000000126e-02,1.227908000000000103e-04
7.100000000000000000e+01,7.200000000000000000e+01,1.662456000000000003e-02,7.571303000000000039e-05,1.682323000000000152e-02,8.377780999999999672e-05
7.200000000000000000e+01,7.300000000000000000e+01,1.607719000000000162e-02,7.471023999999999775e-05,1.634682000000000149e-02,8.375161999999999418e-05
7.300000000000000000e+01,7.400000000000000000e+01,1.548104999999999967e-02,7.316021999999999933e-05,1.561034000000000033e-02,7.996756000000000046e-05
7.400000000000000000e+01,7.500000000000000000e+01,1.489153000000000004e-02,7.185037999999999766e-05,1.510160999999999969e-02,7.822182999999999914e-05
7.500000000000000000e+01,7.600000000000000000e+01,1.449343999999999980e-02,7.081169000000000439e-05,1.466282000000000002e-02,7.682958000000000582e-05
7.600000000000000000e+01,7.700000000000000000e+01,1.383360999999999966e-02,6.944460999999999646e-05,1.418652999999999928e-02,7.526436000000000118e-05
7.700000000000000000e+01,7.800000000000000000e+01,1.343454999999999996e-02,6.815334000000000637e-05,1.355630000000000029e-02,7.382006999999999946e-05
7.800000000000000000e+01,7.900000000000000000e+01,1.277827999999999950e-02,6.671289000000000223e-05,1.316952000000000053e-02,7.235580999999999664e-05
7.900000000000000000e+01,8.000000000000000000e+01,1.252226000000000034e-02,6.594077999999999583e-05,1.297372999999999929e-02,7.219201000000000340e-05
8.000000000000000000e+01,8.100000000000000000e+01,1.204501000000000009e-02,6.480430000000000565e-05,1.238707999999999997e-02,7.044142000000000090e-05
8.100000000000000000e+01,8.200000000000000000e+01,1.172719000000000018e-02,6.400592000000000466e-05,1.189967999999999929e-02,6.844533999999999612e-05
8.200000000000000000e+01,8.300000000000000000e+01,1.137397000000000061e-02,6.288481000000000550e-05,1.152595000000000008e-02,6.756547000000000009e-05
8.300000000000000000e+01,8.400000000000000000e+01,1.092798000000000033e-02,6.187103000000000654e-05,1.137695000000000026e-02,6.753453000000000407e-05
8.400000000000000000e+01,8.500000000000000000e+01,1.053880999999999915e-02,6.046292000000000149e-05,1.095933999999999971e-02,6.658082000000000605e-05
8.500000000000000000e+01,8.600000000000000000e+01,1.026049000000000058e-02,5.959336000000000163e-05,1.059795000000000008e-02,6.506582000000000446e-05
8.600000000000000000e+01,8.700000000000000000e+01,9.953270000000000173e-03,5.889007999999999911e-05,1.044395000000000046e-02,6.527914000000000600e-05
8.700000000000000000e+01,8.800000000000000000e+01,9.592793000000000500e-03,5.769470000000000176e-05,1.007282999999999963e-02,6.401572999999999975e-05
8.800000000000000000e+01,8.900000000000000000e+01,9.394583999999999227e-03,5.709018000000000301e-05,9.697031000000000053e-03,6.312019000000000527e-05
8.900000000000000000e+01,9.000000000000000000e+01,9.203111999999999404e-03,5.674115000000000137e-05,9.448900999999999134e-03,6.261494000000000532e-05
9.000000000000000000e+01,9.100000000000000000e+01,8.894865000000000063e-03,5.589612999999999705e-05,9.147618999999999195e-03,6.108448999999999357e-05
9.100000000000000000e+01,9.200000000000000000e+01,8.582856999999999292e-03,5.452441000000000335e-05,8.855651000000000841e-03,6.034583999999999684e-05
9.200000000000000000e+01,9.300000000000000000e+01,8.404181999999999625e-03,5.375614000000000130e-05,8.753939999999999985e-03,6.022967000000000164e-05
9.300000000000000000e+01,9.400000000000000000e+01,8.138120999999999897e-03,5.327707999999999712e-05,8.521492999999999776e-03,5.924293999999999762e-05
9.400000000000000000e+01,9.500000000000000000e+01,7.896738000000000368e-03,5.248122000000000301e-05,8.262676000000000048e-03,5.840214999999999784e-05
9.500000000000000000e+01,9.600000000000000000e+01,7.679606999999999753e-03,5.161343999999999893e-05,8.141034000000000118e-03,5.818860000000000053e-05
9.600000000000000000e+01,9.700000000000000000e+01,7.501405000000000052e-03,5.104322000000000085e-05,7.889903000000000194e-03,5.707370000000000211e-05
9.700000000000000000e+01,9.800000000000000000e+01,7.280830999999999761e-03,5.041399000000000146e-05,7.698888000000000086e-03,5.590042999999999971e-05
9.800000000000000000e+01,9.900000000000000000e+01,7.105885999999999626e-03,4.980379999999999909e-05,7.510226000000000054e-03,5.555870000000000052e-05
9.900000000000000000e+01,1.000000000000000000e+02,6.917811999999999746e-03,4.910147000000000204e-05,7.325537000000000021e-03,5.496545999999999805e-05
1.000000000000000000e+02,1.010000000000000000e+02,6.741836000000000183e-03,4.832248000000000223e-05,7.076736000000000137e-03,5.388203999999999954e-05
1.010000000000000000e+02,1.020000000000000000e+02,6.638930999999999825e-03,4.791033999999999706e-05,7.025273999999999755e-03,5.369633999999999893e-05
1.020000000000000000e+02,1.030000000000000000e+02,6.431985999999999780e-03,4.739245000000000057e-05,6.792994999999999589e-03,5.222643000000000066e-05
1.030000000000000000e+02,1.040000000000000000e+02,6.319067999999999734e-03,4.703679000000000269e-05,6.636195000000000115e-03,5.164971000000000189e-05
1.040000000000000000e+02,1.050000000000000000e+02,6.206131000000000147e-03,4.656749999999999757e-05,6.443286999999999799e-03,5.079640000000000040e-05
1.050000000000000000e+02,1.060000000000000000e+02,5.968432000000000077e-03,4.578751000000000235e-05,6.280131000000000428e-03,5.021754000000000099e-05
1.060000000000000000e+02,1.070000000000000000e+02,5.783767999999999895e-03,4.507469999999999722e-05,6.191025999999999647e-03,4.963896000000000085e-05
1.070000000000000000e+02,1.080000000000000000e+02,5.698889999999999859e-03,4.476126999999999911e-05,6.009393000000000026e-03,4.883780000000000190e-05
1.080000000000000000e+02,1.090000000000000000e+02,5.620845000000000181e-03,4.461339000000000147e-05,5.874851999999999852e-03,4.885074999999999980e-05
1.090000000000000000e+02,1.100000000000000000e+02,5.459504999999999914e-03,4.385370999999999725e-05,5.642064999999999927e-03,4.743168000000000053e-05
1.100000000000000000e+02,1.110000000000000000e+02,5.324716000000000171e-03,4.340657999999999734e-05,5.652749999999999789e-03,4.752138000000000071e-05
1.110000000000000000e+02,1.120000000000000000e+02,5.234072000000000204e-03,4.295391999999999684e-05,5.468830000000000045e-03,4.677835000000000250e-05
1.120000000000000000e+02,1.130000000000000000e+02,5.072801000000000046e-03,4.233225999999999846e-05,5.342542999999999945e-03,4.621597999999999792e-05
1.130000000000000000e+02,1.140000000000000000e+02,4.877069000000000369e-03,4.153618000000000251e-05,5.241405000000000196e-03,4.600682999999999672e-05
1.140000000000000000e+02,1.150000000000000000e+02,4.819007999999999625e-03,4.157607000000000121e-05,5.058176999999999639e-03,4.485527000000000193e-05
1.150000000000000000e+02,1.160000000000000000e+02,4.650465999999999801e-03,4.092418000000000227e-05,4.914235999999999778e-03,4.418957999999999984e-05
1.160000000000000000e+02,1.170000000000000000e+02,4.509398000000000399e-03,4.041219999999999909e-05,4.829031999999999596e-03,4.415142000000000019e-05
1.170000000000000000e+02,1.180000000000000000e+02,4.436938999999999987e-03,4.037800999999999934e-05,4.696567999999999923e-03,4.353491999999999686e-05
1.180000000000000000e+02,1.190000000000000000e+02,4.215675999999999798e-03,3.939333000000000320e-05,4.533109999999999917e-03,4.257167000000000232e-05
1.190000000000000000e+02,1.200000000000000000e+02,4.141167000000000285e-03,3.877103000000000071e-05,4.435882999999999840e-03,4.228565999999999792e-05
1.200000000000000000e+02,1.210000000000000000e+02,4.090762000000000391e-03,3.861273999999999989e-05,4.342473999999999813e-03,4.170629999999999742e-05
1.210000000000000000e+02,1.220000000000000000e+02,3.989725000000000389e-03,3.873913999999999922e-05,4.194497999999999630e-03,4.114563999999999727e-05
1.220000000000000000e+02,1.230000000000000000e+02,3.823284000000000144e-03,3.822978999999999706e-05,4.028363000000000083e-03,4.057967999999999905e-05
1.230000000000000000e+02,1.240000000000000000e+02,3.847550999999999836e-03,3.877020999999999755e-05,3.927527999999999575e-03,4.008462000000000044e-05
1.240000000000000000e+02,1.250000000000000000e+02,3.694623000000000178e-03,3.840568000000000259e-05,3.752772000000000139e-03,3.906199999999999972e-05
1.250000000000000000e+02,1.260000000000000000e+02,3.494104999999999954e-03,3.795388000000000125e-05,3.610429999999999976e-03,3.830939000000000219e-05
1.260000000000000000e+02,1.270000000000000000e+02,3.337863999999999848e-03,3.743636999999999746e-05,3.462235000000000139e-03,3.852803000000000320e-05
1.270000000000000000e+02,1.280000000000000000e+02,3.173299999999999992e-03,3.709229999999999721e-05,3.300693999999999850e-03,3.843696000000000206e-05
1.280000000000000000e+02,1.290000000000000000e+02,2.915163000000000129e-03,3.602224999999999888e-05,3.005011000000000140e-03,3.689823000000000061e-05
1.290000000000000000e+02,1.300000000000000000e+02,2.448236999999999809e-03,3.379663999999999699e-05,2.685363999999999980e-03,3.581345000000000183e-05
