# xl,xh,LO,dLO,YFSLO,dYFSLO
5.000000000000000000e+01,5.100000000000000000e+01,1.831667000000000017e-02,9.034997999999999922e-05,1.655457999999999930e-02,8.900325000000000543e-05
5.100000000000000000e+01,5.200000000000000000e+01,2.004184999999999994e-02,8.828490000000000578e-05,1.823179000000000119e-02,8.946562000000000080e-05
5.200000000000000000e+01,5.300000000000000000e+01,2.001560999999999965e-02,8.749291000000000457e-05,1.848073999999999897e-02,8.898674000000000243e-05
5.300000000000000000e+01,5.400000000000000000e+01,1.965228000000000114e-02,8.604481999999999452e-05,1.832131999999999858e-02,8.728036000000000268e-05
5.400000000000000000e+01,5.500000000000000000e+01,1.890462999999999866e-02,8.416331999999999568e-05,1.769810999999999954e-02,8.601116999999999866e-05
5.500000000000000000e+01,5.600000000000000000e+01,1.829356000000000038e-02,8.243310999999999586e-05,1.742370000000000030e-02,8.544698999999999621e-05
5.600000000000000000e+01,5.700000000000000000e+01,1.750639999999999835e-02,8.008948000000000488e-05,1.673010999999999943e-02,8.353978000000000131e-05
5.700000000000000000e+01,5.800000000000000000e+01,1.695713999999999902e-02,7.851745999999999888e-05,1.637968000000000063e-02,8.245344999999999573e-05
5.800000000000000000e+01,5.900000000000000000e+01,1.618800000000000100e-02,7.643063000000000179e-05,1.589350999999999958e-02,8.118694000000000301e-05
5.900000000000000000e+01,6.000000000000000000e+01,1.563956000000000027e-02,7.482936999999999673e-05,1.523016999999999947e-02,7.952085000000000284e-05
6.000000000000000000e+01,6.100000000000000000e+01,1.507849999999999989e-02,7.323142000000000637e-05,1.479019999999999987e-02,7.818032999999999623e-05
6.100000000000000000e+01,6.200000000000000000e+01,1.464462000000000055e-02,7.189351999999999332e-05,1.432500999999999913e-02,7.725522000000000671e-05
6.200000000000000000e+01,6.300000000000000000e+01,1.391352000000000040e-02,6.975825999999999642e-05,1.387965000000000032e-02,7.558279999999999740e-05
6.300000000000000000e+01,6.400000000000000000e+01,1.348975000000000000e-02,6.845560999999999628e-05,1.356202999999999922e-02,7.433368000000000148e-05
6.400000000000000000e+01,6.500000000000000000e+01,1.315638000000000050e-02,6.737937000000000537e-05,1.309558000000000076e-02,7.237759000000000239e-05
6.500000000000000000e+01,6.600000000000000000e+01,1.263672000000000059e-02,6.575423999999999744e-05,1.272845000000000053e-02,7.114507000000000220e-05
6.600000000000000000e+01,6.700000000000000000e+01,1.224599999999999994e-02,6.457799000000000341e-05,1.236573000000000012e-02,7.010906999999999382e-05
6.700000000000000000e+01,6.800000000000000000e+01,1.204703000000000024e-02,6.376096999999999950e-05,1.213642000000000019e-02,6.913392000000000029e-05
6.800000000000000000e+01,6.900000000000000000e+01,1.164334000000000029e-02,6.252224999999999927e-05,1.169694999999999936e-02,6.770956999999999757e-05
6.900000000000000000e+01,7.000000000000000000e+01,1.135209000000000044e-02,6.160786000000000073e-05,1.156146000000000083e-02,6.705994999999999480e-05
7.000000000000000000e+01,7.100000000000000000e+01,1.109619000000000057e-02,6.059882000000000132e-05,1.131191999999999961e-02,6.623361000000000298e-05
7.100000000000000000e+01,7.200000000000000000e+01,1.068533999999999977e-02,5.929791000000000093e-05,1.101754999999999922e-02,6.528240000000000366e-05
7.200000000000000000e+01,7.300000000000000000e+01,1.048312000000000029e-02,5.857526999999999932e-05,1.085015999999999932e-02,6.425311000000000390e-05
7.300000000000000000e+01,7.400000000000000000e+01,1.034023000000000060e-02,5.799034000000000220e-05,1.054924999999999960e-02,6.317133000000000492e-05
7.400000000000000000e+01,7.500000000000000000e+01,1.005142000000000015e-02,5.693232999999999909e-05,1.499417999999999931e-02,4.558974000000000359e-03
7.500000000000000000e+01,7.600000000000000000e+01,9.987520999999999205e-03,5.668615999999999667e-05,1.020432999999999930e-02,6.160652000000000185e-05
7.600000000000000000e+01,7.700000000000000000e+01,9.768924999999999484e-03,5.604469000000000161e-05,1.001986000000000022e-02,6.118877999999999795e-05
7.700000000000000000e+01,7.800000000000000000e+01,9.553348999999999175e-03,5.544989999999999912e-05,9.897404999999999745e-03,6.084508999999999718e-05
7.800000000000000000e+01,7.900000000000000000e+01,9.393711000000000769e-03,5.470661999999999698e-05,9.768858000000000055e-03,6.039601000000000317e-05
7.900000000000000000e+01,8.000000000000000000e+01,9.214177999999999952e-03,5.406749999999999691e-05,9.721501000000000448e-03,5.985988999999999855e-05
8.000000000000000000e+01,8.100000000000000000e+01,9.130627000000000534e-03,5.389778000000000288e-05,9.435307000000000416e-03,5.899884999999999841e-05
8.100000000000000000e+01,8.200000000000000000e+01,9.094104000000000423e-03,5.377187999999999787e-05,9.419890000000000208e-03,5.937051999999999819e-05
8.200000000000000000e+01,8.300000000000000000e+01,8.964298000000000752e-03,5.332605000000000082e-05,9.248282999999999504e-03,5.799529000000000289e-05
8.300000000000000000e+01,8.400000000000000000e+01,8.766720000000000415e-03,5.254511000000000012e-05,1.094861999999999919e-02,1.692069000000000038e-03
8.400000000000000000e+01,8.500000000000000000e+01,8.821518999999999888e-03,5.265877000000000269e-05,9.238431999999999547e-03,5.937036000000000055e-05
8.500000000000000000e+01,8.600000000000000000e+01,8.707774999999999196e-03,5.223760999999999672e-05,9.161716999999999778e-03,5.784718999999999663e-05
8.600000000000000000e+01,8.700000000000000000e+01,8.741296000000000829e-03,5.242911999999999719e-05,9.185191000000000536e-03,5.884133999999999795e-05
8.700000000000000000e+01,8.800000000000000000e+01,8.669022000000000186e-03,5.206954000000000291e-05,9.115692999999999366e-03,1.074383000000000044e-04
8.800000000000000000e+01,8.900000000000000000e+01,8.591038000000000494e-03,5.207942999999999682e-05,9.063587999999999159e-03,5.778658999999999928e-05
8.900000000000000000e+01,9.000000000000000000e+01,8.540176000000000017e-03,5.195888000000000015e-05,9.001880999999999772e-03,5.750401999999999836e-05
9.000000000000000000e+01,9.100000000000000000e+01,8.562362999999999918e-03,5.190795000000000164e-05,8.956742999999999649e-03,5.822006999999999974e-05
9.100000000000000000e+01,9.200000000000000000e+01,8.580568000000000223e-03,5.199302999999999710e-05,9.037256000000000455e-03,6.402149999999999681e-05
9.200000000000000000e+01,9.300000000000000000e+01,8.636035000000000239e-03,5.226702000000000089e-05,9.038884000000000501e-03,6.006978999999999802e-05
9.300000000000000000e+01,9.400000000000000000e+01,8.600019000000000413e-03,5.226821000000000283e-05,9.143985000000000307e-03,5.837235000000000026e-05
9.400000000000000000e+01,9.500000000000000000e+01,8.703858999999999554e-03,5.252579999999999776e-05,9.107109999999999858e-03,5.801793000000000103e-05
9.500000000000000000e+01,9.600000000000000000e+01,8.783097999999999600e-03,5.298259000000000258e-05,9.168666000000000663e-03,5.822391999999999802e-05
9.600000000000000000e+01,9.700000000000000000e+01,8.749893999999999381e-03,5.297372999999999942e-05,9.242939000000000363e-03,5.855042000000000243e-05
9.700000000000000000e+01,9.800000000000000000e+01,8.934334000000000373e-03,5.349873999999999933e-05,9.335639999999999217e-03,6.168816999999999454e-05
9.800000000000000000e+01,9.900000000000000000e+01,9.099411999999999431e-03,5.408716999999999735e-05,9.446058999999999706e-03,5.926243999999999973e-05
9.900000000000000000e+01,1.000000000000000000e+02,9.066486000000000336e-03,5.399451000000000017e-05,9.485232999999999165e-03,6.108045999999999625e-05
1.000000000000000000e+02,1.010000000000000000e+02,9.279383000000000423e-03,5.465461999999999816e-05,9.579014000000000278e-03,5.979968000000000138e-05
1.010000000000000000e+02,1.020000000000000000e+02,9.400659999999999919e-03,5.520972000000000238e-05,9.846491000000000618e-03,9.576106999999999827e-05
1.020000000000000000e+02,1.030000000000000000e+02,9.537125000000000463e-03,5.568040000000000310e-05,9.881274000000000654e-03,6.138521999999999772e-05
1.030000000000000000e+02,1.040000000000000000e+02,9.678923000000000734e-03,5.617548000000000311e-05,1.002922000000000015e-02,6.161194000000000154e-05
1.040000000000000000e+02,1.050000000000000000e+02,9.881964000000000026e-03,5.696391999999999992e-05,1.011065000000000054e-02,6.185864999999999430e-05
1.050000000000000000e+02,1.060000000000000000e+02,1.016475000000000017e-02,5.800528999999999771e-05,1.040686000000000042e-02,6.300081000000000236e-05
1.060000000000000000e+02,1.070000000000000000e+02,1.023401999999999992e-02,5.830505000000000176e-05,1.065853999999999933e-02,6.419391999999999677e-05
1.070000000000000000e+02,1.080000000000000000e+02,1.051297999999999989e-02,5.915340000000000187e-05,1.071862999999999982e-02,6.470769999999999712e-05
1.080000000000000000e+02,1.090000000000000000e+02,1.093077999999999932e-02,6.035470000000000000e-05,1.093996000000000031e-02,6.575434000000000443e-05
1.090000000000000000e+02,1.100000000000000000e+02,1.102552000000000046e-02,6.078970999999999908e-05,1.126770000000000028e-02,6.708471000000000573e-05
1.100000000000000000e+02,1.110000000000000000e+02,1.132467000000000022e-02,6.175588000000000138e-05,1.148259000000000085e-02,6.746199999999999886e-05
1.110000000000000000e+02,1.120000000000000000e+02,1.155292999999999945e-02,6.258253000000000134e-05,1.175770999999999934e-02,6.814438000000000298e-05
1.120000000000000000e+02,1.130000000000000000e+02,1.198442000000000084e-02,6.397863000000000649e-05,1.210981000000000037e-02,6.869773000000000676e-05
1.130000000000000000e+02,1.140000000000000000e+02,1.229767000000000013e-02,6.500274999999999695e-05,1.245608999999999952e-02,6.981794999999999787e-05
1.140000000000000000e+02,1.150000000000000000e+02,1.277477999999999947e-02,6.641546999999999924e-05,1.284959999999999922e-02,7.112451000000000049e-05
1.150000000000000000e+02,1.160000000000000000e+02,1.299386999999999938e-02,6.721558999999999997e-05,1.308211999999999917e-02,7.172688000000000468e-05
1.160000000000000000e+02,1.170000000000000000e+02,1.353632999999999920e-02,6.885288000000000476e-05,1.350988000000000015e-02,7.341426000000000342e-05
1.170000000000000000e+02,1.180000000000000000e+02,1.397051000000000022e-02,7.011976999999999696e-05,1.383684999999999950e-02,7.421798999999999920e-05
1.180000000000000000e+02,1.190000000000000000e+02,1.444439999999999960e-02,7.148450000000000312e-05,1.438286000000000078e-02,7.638340000000000461e-05
1.190000000000000000e+02,1.200000000000000000e+02,1.491056999999999973e-02,7.289212000000000100e-05,1.472443000000000016e-02,7.760451000000000621e-05
1.200000000000000000e+02,1.210000000000000000e+02,1.552168999999999945e-02,7.461699999999999388e-05,1.531195999999999946e-02,8.012772999999999727e-05
1.210000000000000000e+02,1.220000000000000000e+02,1.618077000000000057e-02,7.670928000000000631e-05,1.576456000000000038e-02,8.138419000000000523e-05
1.220000000000000000e+02,1.230000000000000000e+02,1.692085000000000117e-02,7.875437999999999796e-05,1.624870999999999954e-02,8.332340000000000254e-05
1.230000000000000000e+02,1.240000000000000000e+02,1.751892000000000033e-02,8.051318000000000558e-05,1.690006999999999968e-02,8.552450999999999814e-05
1.240000000000000000e+02,1.250000000000000000e+02,1.837739000000000039e-02,8.272478000000000318e-05,1.747481000000000034e-02,8.719605000000000010e-05
1.250000000000000000e+02,1.260000000000000000e+02,1.899645000000000153e-02,8.453543000000000591e-05,1.776323999999999959e-02,8.882073000000000366e-05
1.260000000000000000e+02,1.270000000000000000e+02,1.941473999999999978e-02,8.581669000000000048e-05,1.828605999999999981e-02,9.092005999999999428e-05
1.270000000000000000e+02,1.280000000000000000e+02,1.999586000000000072e-02,8.754917999999999717e-05,1.851579000000000072e-02,9.245661999999999978e-05
1.280000000000000000e+02,1.290000000000000000e+02,2.017824999999999827e-02,8.892135999999999595e-05,1.848433000000000020e-02,9.311469999999999806e-05
1.290000000000000000e+02,1.300000000000000000e+02,1.841856999999999869e-02,9.039139999999999653e-05,1.641886000000000040e-02,9.357169999999999724e-05
