xl,xh,LO,dLO,LOISR,dLOISR,NLO,dNLO
3000.0,3020.0,2.59353054653143e-10,6.773845240181401e-13,2.2444244319121014e-10,7.685177934498526e-13,3.0955538605884286e-10,8.646124068532817e-12
3020.0,3040.0,2.618662093161956e-10,6.825297096744616e-13,2.2709532979066512e-10,7.732446043015922e-13,2.7487991890062665e-10,1.6692708413165767e-11
3040.0,3060.0,2.645433687415505e-10,6.885549234193809e-13,2.3113310491072127e-10,7.811413730764738e-13,3.207729340862823e-10,1.3124973368367414e-11
3060.0,3080.0,2.6842488748256665e-10,6.966245519823806e-13,2.36107201608727e-10,7.902804106794725e-13,3.276423348942848e-10,1.2378064579921457e-11
3080.0,3100.0,2.724264540174812e-10,7.046758976000604e-13,2.395560554428801e-10,7.973822721446082e-13,3.5065330382830064e-10,1.1144110064457693e-11
3100.0,3120.0,2.759323843939186e-10,7.12295215074893e-13,2.433525550209408e-10,8.041902028244721e-13,3.6815078907383117e-10,1.1506978914271507e-11
3120.0,3140.0,2.800705969178965e-10,7.203978937096368e-13,2.478480413162928e-10,8.125937346001603e-13,3.613265156105778e-10,1.6753935835588364e-11
3140.0,3160.0,2.8364105392020945e-10,7.277224612214857e-13,2.5200205437590253e-10,8.202722728346425e-13,4.792223566128543e-10,1.0448171174137613e-11
3160.0,3180.0,2.8570936137258637e-10,7.332556267849284e-13,2.5568091564067525e-10,8.266571751441092e-13,7.379044678934662e-10,1.2870918701486279e-11
3180.0,3200.0,2.9024305961767697e-10,7.421087401431229e-13,2.6019769733521013e-10,8.350711109750255e-13,1.831996744357061e-09,1.6463606119960926e-11
3200.0,3220.0,2.9590598053410953e-10,7.529893900341873e-13,2.6535152560652604e-10,8.443208453902118e-13,3.4077867914267855e-09,1.8742473276280493e-11
3220.0,3240.0,2.98238141176792e-10,7.588616163897122e-13,2.690707157396237e-10,8.51349266690889e-13,5.130397989946811e-09,2.1927418615260288e-11
3240.0,3260.0,3.0564062267918663e-10,7.717929656946054e-13,2.7694521737579217e-10,8.650176396024322e-13,7.117734914386928e-09,2.4496246215797512e-11
3260.0,3280.0,3.0949588006059565e-10,7.790693999294738e-13,2.8133510519545414e-10,8.724343484813049e-13,9.590733415735148e-09,2.8057895141545306e-11
3280.0,3300.0,3.15937260783558e-10,7.904718742282154e-13,2.8934699196742745e-10,8.85705347129467e-13,1.3552341019740769e-08,3.277458218257229e-11
3300.0,3320.0,3.2117842739072706e-10,8.010955887000727e-13,2.9380906932298646e-10,8.936892696741128e-13,1.9253056890542398e-08,3.9825815296521186e-11
3320.0,3340.0,3.2644123149014195e-10,8.108327775208637e-13,2.999053743764806e-10,9.037053971287916e-13,2.6563447580980267e-08,4.6530440494918396e-11
3340.0,3360.0,3.325295779372057e-10,8.220349629471579e-13,3.0561081427104724e-10,9.137739074605418e-13,3.513347754208181e-08,5.4795559784182513e-11
3360.0,3380.0,3.3870699877229506e-10,8.331089277899766e-13,3.123961705010837e-10,9.251828026459308e-13,4.406215821716402e-08,6.1042585520174e-11
3380.0,3400.0,3.4609204638968783e-10,8.461935103327287e-13,3.2057731271128236e-10,9.382703185448186e-13,5.298640568813001e-08,6.80454735119528e-11
3400.0,3420.0,3.5242300506461e-10,8.573606841048254e-13,3.271005488171075e-10,9.491406605597454e-13,5.990368042009632e-08,7.197882342832617e-11
3420.0,3440.0,3.594502065978945e-10,8.696526259854681e-13,3.3449449250676815e-10,9.611350374632214e-13,6.480814640329235e-08,7.541939715393144e-11
3440.0,3460.0,3.6741705320576514e-10,8.835395885957551e-13,3.424375877799269e-10,9.74087547463303e-13,6.913035511999132e-08,7.743537307816812e-11
3460.0,3480.0,3.750093871448772e-10,8.959595141073994e-13,3.509911957729835e-10,9.872510840897331e-13,7.371293327007617e-08,8.037179646131803e-11
3480.0,3500.0,3.8316168136023207e-10,9.097161452359168e-13,3.606733319900362e-10,1.002789919986997e-12,7.837377825206566e-08,8.23279705304363e-11
3500.0,3520.0,3.9087579210097487e-10,9.235536339623508e-13,3.671494348296845e-10,1.0132637653476838e-12,8.311792741659144e-08,8.553940211205138e-11
3520.0,3540.0,4.009482283604808e-10,9.390308327888491e-13,3.7885163852867715e-10,1.0306546292447812e-12,8.808255928432172e-08,8.81820616888154e-11
3540.0,3560.0,4.1066372067546063e-10,9.550600156425732e-13,3.8767451122107854e-10,1.0442258611441669e-12,9.323188687479435e-08,8.968223068025626e-11
3560.0,3580.0,4.2144798992614716e-10,9.722534769575122e-13,4.002666414622357e-10,1.0629844475125925e-12,9.867776308883681e-08,9.28112313260503e-11
3580.0,3600.0,4.3308372722790677e-10,9.89622650961372e-13,4.119293304684775e-10,1.0799390416112403e-12,1.0465471818478196e-07,9.565144024200106e-11
3600.0,3620.0,4.4338867339337635e-10,1.0067202219298431e-12,4.221088844434484e-10,1.0955698792919303e-12,1.1050242692461208e-07,9.876412771895069e-11
3620.0,3640.0,4.5606590063086345e-10,1.0260060480516257e-12,4.349606511018444e-10,1.114015856580092e-12,1.1720002566907788e-07,1.0074144956510664e-10
3640.0,3660.0,4.671185683495099e-10,1.0431702544101532e-12,4.466233644109382e-10,1.1315319076619775e-12,1.2383760391919805e-07,1.0393488506343632e-10
3660.0,3680.0,4.800211884606773e-10,1.0616573642346416e-12,4.5939067876616337e-10,1.1488659604809656e-12,1.3116601017468449e-07,1.0748094625578285e-10
3680.0,3700.0,4.933561677531748e-10,1.0826246945678128e-12,4.730315916985937e-10,1.1689871804397372e-12,1.3905282865039261e-07,1.1054178963432235e-10
3700.0,3720.0,5.080269113070038e-10,1.1031185177022901e-12,4.88926452802838e-10,1.1903494553400589e-12,1.4718574463854172e-07,1.1368167017933512e-10
3720.0,3740.0,5.231067553606669e-10,1.1245864870737663e-12,5.035455032650404e-10,1.2105961197038645e-12,1.5583386864286073e-07,1.1718859882336658e-10
3740.0,3760.0,5.40074056886397e-10,1.148383374997701e-12,5.207483416202227e-10,1.2340378602065259e-12,1.64840400294944e-07,1.20412209085548e-10
3760.0,3780.0,5.551007097198113e-10,1.1693572376414047e-12,5.378565719977673e-10,1.2565135340999562e-12,1.744126582297493e-07,1.245032208431304e-10
3780.0,3800.0,5.733191477075333e-10,1.1948985742030964e-12,5.552856599524523e-10,1.279844604904223e-12,1.8401505718303963e-07,1.2709498216797602e-10
3800.0,3820.0,5.911364889311243e-10,1.2192841503998358e-12,5.743201206972595e-10,1.3047008751845685e-12,1.9470117505811204e-07,1.3176939520497305e-10
3820.0,3840.0,6.161597928482382e-10,1.251932013610026e-12,5.996885273526592e-10,1.3362062366458462e-12,2.0523424354474659e-07,1.3394794253481192e-10
3840.0,3860.0,6.350904763997178e-10,1.277353356579022e-12,6.18081064976561e-10,1.3606158869789267e-12,2.166799203889064e-07,1.3806810178417756e-10
3860.0,3880.0,6.595080575179101e-10,1.3086680744148608e-12,6.430226953048622e-10,1.3917631308308902e-12,2.281721594230052e-07,1.4197458544852034e-10
3880.0,3900.0,6.845463747217102e-10,1.340024536685508e-12,6.672920561512388e-10,1.4211266584404911e-12,2.407552385144599e-07,1.4568991415902948e-10
3900.0,3920.0,7.11387676556397e-10,1.373794573768794e-12,6.957752717708562e-10,1.4556154946421854e-12,2.5335167832347217e-07,1.496888654243402e-10
3920.0,3940.0,7.371165821227133e-10,1.4054993322257123e-12,7.220837458717382e-10,1.4870061802680707e-12,2.670507617145535e-07,1.5380842039935401e-10
3940.0,3960.0,7.68079891938141e-10,1.4432688234857278e-12,7.528553688017104e-10,1.523159867364654e-12,2.8106821666719234e-07,1.5742731955786002e-10
3960.0,3980.0,8.005813732864064e-10,1.4823149360825117e-12,7.852009941516365e-10,1.5610408148375143e-12,2.9508527570984425e-07,1.6097382982721431e-10
3980.0,4000.0,8.331725903590706e-10,1.5203375694116116e-12,8.184014977892221e-10,1.5982802685418214e-12,3.101391690497404e-07,1.6559231263317247e-10
4000.0,4020.0,8.653904520607751e-10,1.56229554539566e-12,8.516048763606556e-10,1.637908587731044e-12,3.263862976061643e-07,1.6964610673707566e-10
4020.0,4040.0,8.986533933978168e-10,1.6061340707367051e-12,8.870868278465379e-10,1.6802100462882893e-12,3.4257998629760443e-07,1.7337105342268456e-10
4040.0,4060.0,9.35617141755176e-10,1.6527973728997102e-12,9.244778159029177e-10,1.7246957870538606e-12,3.5996308545769094e-07,1.78199182264956e-10
4060.0,4080.0,9.741309877436404e-10,1.6995047369227427e-12,9.64220853461889e-10,1.7697428286626674e-12,3.784262265894055e-07,1.824653969425098e-10
4080.0,4100.0,1.0184182454288208e-09,1.752447164718797e-12,1.0080077660258696e-09,1.8199960313491484e-12,3.9703294187903573e-07,1.8735729868942487e-10
4100.0,4120.0,1.0640617234001132e-09,1.8053893497916136e-12,1.0560894319327643e-09,1.8733030553077464e-12,4.173297973101121e-07,1.9140237743558176e-10
4120.0,4140.0,1.114088796444137e-09,1.8623692649756783e-12,1.1063172636218773e-09,1.9287055858040843e-12,4.3817891865724237e-07,1.9640615811825781e-10
4140.0,4160.0,1.1645735827560374e-09,1.919618279979116e-12,1.155388992777427e-09,1.98245574215292e-12,4.59808154088758e-07,2.0096185361439654e-10
4160.0,4180.0,1.2271606360216787e-09,1.987126413284978e-12,1.2193718868493284e-09,2.0494620940454087e-12,4.839719477748788e-07,2.061589575088973e-10
4180.0,4200.0,1.2913818770176733e-09,2.0563633195033907e-12,1.2844784981672112e-09,2.1180000652341547e-12,5.083551013289152e-07,2.1128833153225663e-10
4200.0,4220.0,1.3548889908714316e-09,2.1244940273697758e-12,1.3472212360711179e-09,2.183457284955099e-12,5.341822824213362e-07,2.1708707392094526e-10
4220.0,4240.0,1.4370319055920846e-09,2.2068104678101657e-12,1.430562004525615e-09,2.2652708961024298e-12,5.620305784325162e-07,2.223206317909906e-10
4240.0,4260.0,1.5266324221754035e-09,2.295857953882713e-12,1.5197721005670115e-09,2.352516288637036e-12,5.914647959456852e-07,2.2770966341333031e-10
4260.0,4280.0,1.6242833286879386e-09,2.391357720437368e-12,1.616988531644421e-09,2.44591982061405e-12,6.229137182367161e-07,2.3417219555841633e-10
4280.0,4300.0,1.7201649809557493e-09,2.4838056214239015e-12,1.7135677246790148e-09,2.537498646563968e-12,6.565622267070812e-07,2.4046213863908444e-10
4300.0,4320.0,1.8390420072656843e-09,2.59370607646857e-12,1.8339556491723959e-09,2.6471845174120305e-12,6.929044610021939e-07,2.4712969330752497e-10
4320.0,4340.0,1.963928526097477e-09,2.7079920918902923e-12,1.9567221484000008e-09,2.7583994513108782e-12,7.311041850743913e-07,2.536545311868754e-10
4340.0,4360.0,2.111487696224193e-09,2.8382228088473623e-12,2.1054717885170265e-09,2.888009028173472e-12,7.725121844155012e-07,2.6094634066574933e-10
4360.0,4380.0,2.269246567976531e-09,2.9759208967671542e-12,2.2632928598536555e-09,3.0243881511539238e-12,8.173107085206577e-07,2.691766448285902e-10
4380.0,4400.0,2.4609141413220304e-09,3.13545001886976e-12,2.4559979208012043e-09,3.1832554148762416e-12,8.659264134347614e-07,2.758728157453314e-10
4400.0,4420.0,2.672717068072797e-09,3.3095951105070262e-12,2.667269138973361e-09,3.3558835654989183e-12,9.187854609371544e-07,2.8526081643238086e-10
4420.0,4440.0,2.905759555470877e-09,3.4959236416806867e-12,2.900504639735368e-09,3.541260853419148e-12,9.760906797876246e-07,2.9424186383068456e-10
4440.0,4460.0,3.1822096281833597e-09,3.7099222328550885e-12,3.1766831666887605e-09,3.753526757629388e-12,1.038791084294353e-06,3.033350214659403e-10
4460.0,4480.0,3.4939549309164518e-09,3.947474319766823e-12,3.4886982319965786e-09,3.990118112713656e-12,1.1082040153479157e-06,3.138321384610552e-10
4480.0,4500.0,3.871461806445224e-09,4.224088559713059e-12,3.8664944188552554e-09,4.2658801724021174e-12,1.1836883507887968e-06,3.2469325792480416e-10
4500.0,4520.0,4.311231502600395e-09,4.537393940846281e-12,4.306445716780626e-09,4.578064066671559e-12,1.2671594387863093e-06,3.3674538709753587e-10
4520.0,4540.0,4.840361178071081e-09,4.9042188110321535e-12,4.8353395212795635e-09,4.943690954932934e-12,1.3618714998996586e-06,3.49213964684729e-10
4540.0,4560.0,5.506043697502759e-09,5.349674067903038e-12,5.502031821171362e-09,5.388998379152541e-12,1.4655781321129729e-06,3.625255642331668e-10
4560.0,4580.0,6.290206717365429e-09,5.863101790985183e-12,6.285240157638477e-09,5.90079751774201e-12,1.5829362137989391e-06,3.7813699537567866e-10
4580.0,4600.0,7.312670541455543e-09,6.509353943853793e-12,7.3080015103050885e-09,6.546629332937496e-12,1.7153112730338983e-06,3.94054252096997e-10
4600.0,4620.0,8.651751760030408e-09,7.330186731736497e-12,8.647545464507706e-09,7.36768891679324e-12,1.8657407519710029e-06,4.1246469479558616e-10
4620.0,4640.0,1.0433097235460921e-08,8.396551103267434e-12,1.042671897779315e-08,8.433094807825145e-12,2.037678394766044e-06,4.339169344849789e-10
4640.0,4660.0,1.2974556063693962e-08,9.878461364007647e-12,1.2966601434760497e-08,9.915190862245704e-12,2.2368981644858863e-06,4.5679486697537947e-10
4660.0,4680.0,1.6848642168302044e-08,1.2084351614632904e-11,1.6846508593519418e-08,1.2124910037712508e-11,2.4666397002864825e-06,4.846640702765983e-10
4680.0,4700.0,2.340302922787604e-08,1.57527881020158e-11,2.339756270136841e-08,1.5796013072604426e-11,2.736969939843129e-06,5.140431085391223e-10
4700.0,4720.0,3.693976478804172e-08,2.32558006105404e-11,3.6931264177410687e-08,2.3307736622012986e-11,3.0555944203363764e-06,5.583469902029002e-10
4720.0,4740.0,7.214377681312198e-08,4.233986067308986e-11,7.213940562780585e-08,4.241754068461331e-11,3.4277938445075436e-06,6.44922428473499e-10
4740.0,4760.0,7.25904226240504e-08,4.027189641821448e-11,7.258923553306872e-08,4.033284033592578e-11,3.809541798106086e-06,6.689120903228047e-10
4760.0,4780.0,6.127518862342969e-08,2.9924331822623595e-11,6.1274337510363e-08,2.9953484034995225e-11,4.261604035707948e-06,6.701478155961506e-10
4780.0,4800.0,1.3847266180213148e-07,6.169438506621507e-11,1.3847070842272105e-07,6.173287285619172e-11,4.8644338703896265e-06,8.044792430972196e-10
4800.0,4820.0,3.600683838135538e-07,1.424254075366927e-10,3.600808019721295e-07,1.4247353818623215e-10,5.6731579705835125e-06,1.1859712457857296e-09
4820.0,4840.0,6.671261102091371e-07,2.2679616078781937e-10,6.670999528924121e-07,2.2680715261369763e-10,6.651065538898225e-06,1.5638759910190488e-09
4840.0,4860.0,5.121022916504095e-07,1.558864527164153e-10,5.121017108161636e-07,1.5586328579458708e-10,7.595799637367791e-06,1.2302836834468025e-09
4860.0,4880.0,1.3533347116746087e-07,4.2311383627938753e-11,1.3532812711402322e-07,4.229649192184738e-11,8.916659976203607e-06,9.655406595225327e-10
4880.0,4900.0,3.531436288876779e-07,8.64548999288202e-11,3.531424722345011e-07,8.64025006165163e-11,1.1505873019291335e-05,1.1335128421100335e-09
4900.0,4920.0,2.731584839061142e-06,3.968539061608813e-10,2.7315741739724028e-06,3.965733395279007e-10,1.689493614653872e-05,2.0900434179448146e-09
4920.0,4940.0,8.122801605661153e-06,7.612879216560825e-10,8.122801270207477e-06,7.606877956510534e-10,2.771718261845579e-05,3.374096082146392e-09
4940.0,4960.0,3.839453390497057e-05,1.6829290015603685e-09,3.839451986548584e-05,1.681502929513159e-09,6.640484140794726e-05,6.9919709221823185e-09
4960.0,4980.0,0.0003864027618383639,6.72922748447465e-09,0.00038640292911728836,6.7232132993587806e-09,0.00025053335555656156,3.465262634964182e-08
4980.0,5000.0,8.248007931998199e-05,3.5551530305384414e-09,8.248015875563251e-05,3.552132450832092e-09,4.3808201579560496e-05,2.6373046101444284e-08
