 # xl, xh, LO, dLO, NLOPSnovp, dNLOPSnovp, NLOPSvp, dNLOPSvp, NLOPSvplt, dNLOPSvplt
  0.52000000000000002      ,  0.56219999999999937      ,   1.0699153272320081E-002 ,   1.7332694862736244E-007 ,   4.2310025446225738E-003 ,   3.2451877105224160E-006 ,   4.4448617097336673E-003 ,   5.0529496323868459E-006 ,   4.3665848869155061E-003 ,   3.3866471343010020E-006
  0.56219999999999937      ,  0.60439999999999872      ,   3.2708877133463155E-002 ,   3.1710889265640936E-007 ,   1.7324587957609272E-002 ,   6.6910146575543882E-006 ,   1.8184813919384028E-002 ,   9.5736532684527618E-006 ,   1.7885781638910442E-002 ,   7.0894256730955069E-006
  0.60439999999999872      ,  0.64659999999999807      ,   7.3258519277675987E-002 ,   5.0258208563630395E-007 ,   5.6925379619811908E-002 ,   1.2892747909133359E-005 ,   5.9819894599647129E-002 ,   1.7505493927722550E-005 ,   5.8812387702889851E-002 ,   1.3395431440084293E-005
  0.64659999999999807      ,  0.68879999999999741      ,  0.50595135720590856      ,   1.2502060033500649E-006 ,  0.38732490979172030      ,   1.8442363108802436E-005 ,  0.40778678877232943      ,   2.3449783680337558E-005 ,  0.40041275577078150      ,   1.9767674152304255E-005
  0.68879999999999741      ,  0.73099999999999676      ,  0.51218534356427747      ,   1.3184217152014143E-006 ,  0.40167456559165837      ,   3.1419551064956272E-005 ,  0.42324485042540949      ,   3.2975663152534590E-005 ,  0.41539611886161842      ,   3.4058954663458039E-005
  0.73099999999999676      ,  0.77319999999999611      ,  0.45937820409635588      ,   1.3201320599844005E-006 ,  0.36397859330753535      ,   2.8157984907374524E-005 ,  0.38388863393460015      ,   3.5918421032085380E-005 ,  0.37651916084281900      ,   2.8986939768513480E-005
  0.77319999999999611      ,  0.81539999999999546      ,  0.40974355067952295      ,   1.3220720354280889E-006 ,  0.32806020089878835      ,   4.6834371593352787E-005 ,  0.34618769837730073      ,   4.2089687026577538E-005 ,  0.33948890338495735      ,   5.1052474804571879E-005
  0.81539999999999546      ,  0.85759999999999481      ,  0.36636850809454602      ,   1.3281538119522502E-006 ,  0.29807229235182620      ,   6.7645083212002115E-005 ,  0.31479927895678805      ,   1.1833312861112818E-004 ,  0.30844451647218379      ,   5.6843968432237964E-005
  0.85759999999999481      ,  0.89979999999999416      ,  0.32862554432208807      ,   1.3383537839538247E-006 ,  0.27160765052422470      ,   4.3705996768880409E-005 ,  0.28699124269029919      ,   5.3787329017734442E-005 ,  0.28117744010985718      ,   4.6005768939744225E-005
  0.89979999999999416      ,  0.94199999999999351      ,  0.29579815219727879      ,   1.3555562632321972E-006 ,  0.24766510453653826      ,   7.2942770952378130E-005 ,  0.26180306626077438      ,   9.1527498012388645E-005 ,  0.25641562387159278      ,   7.9096861160412731E-005
  0.94199999999999351      ,  0.98419999999999286      ,  0.26738477151519846      ,   1.3832718391031106E-006 ,  0.22580503358995330      ,   1.1403259564683971E-004 ,  0.23871879803102261      ,   1.3207480525920262E-004 ,  0.23384230290557664      ,   1.2470297002073203E-004
  0.98419999999999286      ,   1.0263999999999922      ,  0.24283556985807267      ,   1.4248659524078466E-006 ,  0.20635193962574078      ,   1.6373441098362101E-004 ,  0.21908572196874457      ,   7.9499370459812195E-004 ,  0.21379231854200856      ,   2.0134124213162680E-004
   1.0263999999999922      ,   1.0685999999999916      ,  0.22162343882238522      ,   1.4833280828142952E-006 ,  0.18996624012359425      ,   7.6247897485403802E-004 ,  0.20026841912096366      ,   1.6361155051050955E-004 ,  0.19673178845123473      ,   7.1604322956449716E-004
   1.0685999999999916      ,   1.1107999999999909      ,  0.20329146684172200      ,   1.5615635438451386E-006 ,  0.17450554650999278      ,   3.3750752032234529E-004 ,  0.18448767413879796      ,   2.8922926655027150E-004 ,  0.18080607243246188      ,   3.4347771347505667E-004
   1.1107999999999909      ,   1.1529999999999903      ,  0.18732736637463748      ,   1.6643948057589273E-006 ,  0.16188525932882669      ,   4.3443764234568774E-004 ,  0.17208623006646029      ,   1.1952072858837362E-003 ,  0.16783764990723704      ,   4.9333740142741089E-004
   1.1529999999999903      ,   1.1951999999999896      ,  0.17320537815504089      ,   1.7985036815193959E-006 ,  0.15129214814046521      ,   1.1504793894819535E-003 ,  0.16119214228766598      ,   1.5227937975140840E-003 ,  0.15685537120926812      ,   1.2623586227026762E-003
   1.1951999999999896      ,   1.2373999999999890      ,  0.16071157554954935      ,   1.9751377141212042E-006 ,  0.14670444983681341      ,   7.7767749607854982E-003 ,  0.15516934914540439      ,   8.2807123149444151E-003 ,  0.15242405684907057      ,   8.4922676624310627E-003
   1.2373999999999890      ,   1.2795999999999883      ,  0.14967405131984218      ,   2.2129569810323511E-006 ,  0.12897911220427977      ,   3.0242408453652495E-004 ,  0.13700283072199682      ,   6.6887857300003471E-004 ,  0.13362815125323957      ,   3.0512966959999721E-004
   1.2795999999999883      ,   1.3217999999999877      ,  0.13995756188007252      ,   2.5480760712229038E-006 ,  0.11925592779774781      ,   2.3783043517108072E-004 ,  0.12650247488099325      ,   3.1066695058599839E-004 ,  0.12361104589065883      ,   2.5970207236620694E-004
   1.3217999999999877      ,   1.3639999999999870      ,  0.13147000006189904      ,   3.0592593487809504E-006 ,  0.11053089857465977      ,   4.8163633694199267E-004 ,  0.11738544486266833      ,   5.7348129938917852E-004 ,  0.11457094182881555      ,   4.9051480454783639E-004
   1.3639999999999870      ,   1.4061999999999863      ,  0.12422412560919086      ,   3.9363431134100816E-006 ,  0.10302155179391244      ,   1.1666243899031818E-003 ,  0.11105227371457772      ,   1.8404365558940758E-003 ,  0.10672774798017272      ,   1.1013298458791925E-003
   1.4061999999999863      ,   1.4483999999999857      ,  0.11851803702880567      ,   5.7068328364989332E-006 ,   9.4813277529437037E-002 ,   3.6938040190105529E-004 ,  0.10022468186592895      ,   2.4111936884706404E-004 ,   9.8476912066319436E-002 ,   3.8582082750772282E-004
   1.4483999999999857      ,   1.4905999999999850      ,  0.11555127049752248      ,   1.0786819221392175E-005 ,   9.0265657056236515E-002 ,   9.5402676513793713E-004 ,   9.4797503913432293E-002 ,   3.8492512581693461E-004 ,   9.3488987987340955E-002 ,   9.0796940031218055E-004
   1.4905999999999850      ,   1.5327999999999844      ,  0.11170196217550668      ,   1.8393845879128648E-005 ,   8.5309770802048129E-002 ,   9.0529748386252318E-004 ,   8.9775167815196247E-002 ,   2.0146300502173371E-004 ,   8.8523730235887055E-002 ,   8.8320547781333292E-004
   1.5327999999999844      ,   1.5749999999999837      ,  0.10083885289091434      ,   1.4988888955873722E-005 ,  0.14538065223679003      ,   6.2716848764248739E-002 ,  0.16292341323338003      ,   7.5334921508745295E-002 ,  0.14893374438520490      ,   6.3165789701313035E-002
   1.5749999999999837      ,   1.6171999999999831      ,   9.3908592669984151E-002 ,   1.4718332924872356E-005 ,   8.1560889540335663E-002 ,   3.7168494425535235E-004 ,   8.6659619070444366E-002 ,   3.5772488683751669E-004 ,   8.4495637484295477E-002 ,   3.5013381194813192E-004
   1.6171999999999831      ,   1.6593999999999824      ,   9.0320307011638859E-002 ,   1.6615395941053675E-005 ,   8.7971563800372271E-002 ,   3.0427406716100119E-003 ,   9.9825320239212118E-002 ,   1.0716789251275359E-002 ,   9.1519471497594942E-002 ,   3.3321757140607399E-003
   1.6593999999999824      ,   1.7015999999999818      ,   7.9894018328801067E-002 ,   7.9512429153935249E-006 ,   7.6486319063420752E-002 ,   1.1545768828469939E-003 ,   8.0505160492211791E-002 ,   5.5657556039948497E-004 ,   7.9252850114312975E-002 ,   1.1177119996952731E-003
   1.7015999999999818      ,   1.7437999999999811      ,   7.1406046044259042E-002 ,   4.0129217469980522E-006 ,   6.8294884123619490E-002 ,   1.1547172944608873E-003 ,   7.1817051797731402E-002 ,   7.8281730494925302E-004 ,   7.0841659016984096E-002 ,   1.1391722188113448E-003
   1.7437999999999811      ,   1.7859999999999805      ,   6.4971010762775824E-002 ,   2.5723698187372593E-006 ,   6.1018397825436783E-002 ,   2.6670057116689609E-004 ,   6.4762286946636771E-002 ,   2.5210195332056080E-004 ,   6.3379604532661754E-002 ,   2.5893694897462461E-004
   1.7859999999999805      ,   1.8281999999999798      ,   5.9599046860649652E-002 ,   1.8921413307823104E-006 ,   5.5181302239818791E-002 ,   1.3088563914986440E-004 ,   5.8722639022623119E-002 ,   1.4530945486730516E-004 ,   5.7315884641908767E-002 ,   1.3982807797662512E-004
   1.8281999999999798      ,   1.8703999999999792      ,   5.4905603519366603E-002 ,   1.5053173712392356E-006 ,   5.0589038248460928E-002 ,   1.4363505610333609E-004 ,   5.3878692526833562E-002 ,   1.7299111819972201E-004 ,   5.2573712350161568E-002 ,   1.4557272188508172E-004
   1.8703999999999792      ,   1.9125999999999785      ,   5.0715018964248404E-002 ,   1.2616052860120048E-006 ,   4.6166554531748435E-002 ,   1.0911854752550994E-004 ,   4.9241212762803299E-002 ,   9.1366393195847388E-005 ,   4.7921940399637292E-002 ,   7.8145104281286912E-005
   1.9125999999999785      ,   1.9547999999999779      ,   4.6904288887798767E-002 ,   1.0946160942718173E-006 ,   4.2416553430306383E-002 ,   1.5996864664620761E-004 ,   4.5582874612775937E-002 ,   4.2575700913120835E-004 ,   4.4099386491739778E-002 ,   1.7280339112529710E-004
   1.9547999999999779      ,   1.9969999999999772      ,   4.3377057861035795E-002 ,   9.7073904777488581E-007 ,   3.8990435345618517E-002 ,   4.2777439473457230E-004 ,   4.1249175795586603E-002 ,   1.5478353484747555E-004 ,   4.0591517873258598E-002 ,   4.7969190755776155E-004
   1.9969999999999772      ,   2.0391999999999766      ,   4.0064807932846780E-002 ,   8.7518818148992810E-007 ,   3.5134260193642040E-002 ,   1.3333440994465671E-004 ,   3.7525257977816327E-002 ,   1.5545078442627579E-004 ,   3.6565256557248425E-002 ,   1.4503785509428074E-004
   2.0391999999999766      ,   2.0813999999999759      ,   3.6916407429504729E-002 ,   7.9764066566288504E-007 ,   3.1844399462300367E-002 ,   7.7894490481077801E-005 ,   3.3911494867524601E-002 ,   4.3694087496417709E-005 ,   3.3162494085564959E-002 ,   9.1398606498015623E-005
   2.0813999999999759      ,   2.1235999999999753      ,   3.3990421009848483E-002 ,   7.3264225729893101E-007 ,   2.8902206778148636E-002 ,   7.7620277577515259E-005 ,   3.0780895495758791E-002 ,   3.9458141179340503E-005 ,   3.0095057199095346E-002 ,   9.0609121301342681E-005
   2.1235999999999753      ,   2.1657999999999746      ,   3.1270504075219314E-002 ,   6.7701867493949381E-007 ,   2.6254618202600406E-002 ,   5.1962123245482316E-005 ,   2.7932163046875881E-002 ,   4.1017602139753196E-005 ,   2.7344646116425682E-002 ,   5.6936811485564460E-005
   2.1657999999999746      ,   2.2079999999999740      ,   2.8694728994856398E-002 ,   6.2723763413693393E-007 ,   2.3652858686761730E-002 ,   2.5293829998113102E-005 ,   2.5302230212732091E-002 ,   4.8783375758575246E-005 ,   2.4637828245145106E-002 ,   2.6601849920200108E-005
   2.2079999999999740      ,   2.2501999999999733      ,   2.6221233449253881E-002 ,   5.8180002142892897E-007 ,   2.1476189882457662E-002 ,   1.0003961263403413E-004 ,   2.2846142369577903E-002 ,   4.0190155442594987E-005 ,   2.2367891636859073E-002 ,   9.6718835063182046E-005
   2.2501999999999733      ,   2.2923999999999727      ,   2.3803691702810482E-002 ,   5.3870444702887436E-007 ,   1.9264923948177165E-002 ,   5.7595887234073150E-005 ,   2.0526535159915746E-002 ,   3.2420326713365602E-005 ,   2.0064038134466583E-002 ,   5.5108975817162156E-005
   2.2923999999999727      ,   2.3345999999999720      ,   2.1409902814711321E-002 ,   4.9670411624926332E-007 ,   1.7154906364648965E-002 ,   3.3710997031584403E-005 ,   1.8276179025329381E-002 ,   2.8870830372968021E-005 ,   1.7891151875282695E-002 ,   3.9116504046263227E-005
   2.3345999999999720      ,   2.3767999999999714      ,   1.9060956958405255E-002 ,   4.5540855660349163E-007 ,   1.5114285899620016E-002 ,   1.5611417315371187E-005 ,   1.6124659861310241E-002 ,   1.7976876632932002E-005 ,   1.5761015068272904E-002 ,   1.6041799483189609E-005
   2.3767999999999714      ,   2.4189999999999707      ,   1.6725714978966473E-002 ,   4.1347084088168791E-007 ,   1.3126726291382784E-002 ,   1.8128840437560749E-005 ,   1.3987130120802074E-002 ,   1.7736766807990051E-005 ,   1.3692708053054179E-002 ,   1.9619354002219258E-005
   2.4189999999999707      ,   2.4611999999999701      ,   1.4287927311968585E-002 ,   3.6942738465722571E-007 ,   1.1050816919544033E-002 ,   2.1584504416975855E-005 ,   1.1764203502544899E-002 ,   2.1077679975142004E-005 ,   1.1519692174328213E-002 ,   2.3013626277122916E-005
   2.4611999999999701      ,   2.5033999999999694      ,   9.8627949065892943E-003 ,   3.1314695006540478E-007 ,   7.4761567214875905E-003 ,   5.6792602092740439E-006 ,   7.9664754303620487E-003 ,   8.0570309007819952E-006 ,   7.8006809579799470E-003 ,   7.0888625350240169E-006
   2.5033999999999694      ,   2.5455999999999688      ,   3.2996553941101042E-003 ,   2.3515855288175467E-007 ,   2.6226294019710155E-003 ,   1.7286509620767790E-005 ,   2.8441003884283307E-003 ,   4.3615698540506344E-005 ,   2.7341974393330923E-003 ,   1.8879478878734776E-005
   2.5455999999999688      ,   2.5877999999999681      ,   1.6398394460293308E-003 ,   1.6851658245971429E-007 ,   1.2132536852915666E-003 ,   4.3036840064395065E-006 ,   1.2887739511845586E-003 ,   3.7054533878899749E-006 ,   1.2649333822612767E-003 ,   4.4345380100829975E-006
   2.5877999999999681      ,   2.6299999999999675      ,   3.5839885007842606E-004 ,   7.8750076969701779E-008 ,   2.5031721727231560E-004 ,   6.1306403919366392E-007 ,   2.7152393778147598E-004 ,   4.2101370888316165E-006 ,   2.6063434851928031E-004 ,   6.2826642651752131E-007
