 # xl, xh, LO, dLO, NLOPSnovp, dNLOPSnovp, NLOPSvp, dNLOPSvp, NLOPSvplt, dNLOPSvplt
   8000.0000000000000      ,   8039.9999999999964      ,   0.0000000000000000      ,   0.0000000000000000      ,   3.1360370510242111E-006 ,   1.1976890940413676E-007 ,   3.3307327570189065E-006 ,   1.3222532477160577E-007 ,   3.2424229167901828E-006 ,   1.2319694384703246E-007
   8039.9999999999964      ,   8079.9999999999927      ,   0.0000000000000000      ,   0.0000000000000000      ,   3.2282439043586146E-006 ,   6.5512502903920824E-008 ,   3.3166689597623920E-006 ,   1.7523161048846139E-008 ,   3.2989793964357420E-006 ,   3.3248122450468943E-008
   8079.9999999999927      ,   8119.9999999999891      ,   0.0000000000000000      ,   0.0000000000000000      ,   3.3952840331754319E-006 ,   5.9309667458242637E-008 ,   3.5638268048290995E-006 ,   5.2305963911803065E-008 ,   3.5013130792905246E-006 ,   6.5110196209504204E-008
   8119.9999999999891      ,   8159.9999999999854      ,   0.0000000000000000      ,   0.0000000000000000      ,   3.6153844283566136E-006 ,   3.4184148040471040E-008 ,   3.9951977674498968E-006 ,   1.6576804184756107E-007 ,   3.7485224898796674E-006 ,   3.6359803739994032E-008
   8159.9999999999854      ,   8199.9999999999818      ,   0.0000000000000000      ,   0.0000000000000000      ,   3.8180761253806257E-006 ,   3.4716939401887662E-008 ,   3.9793741576219243E-006 ,   3.2366883082907109E-008 ,   3.9509745960825253E-006 ,   3.7635846773561790E-008
   8199.9999999999818      ,   8239.9999999999782      ,   0.0000000000000000      ,   0.0000000000000000      ,   4.0026065313595550E-006 ,   3.2665596329783080E-008 ,   4.2642338903023252E-006 ,   8.4206607018489483E-008 ,   4.1408650587933977E-006 ,   3.2131566677064153E-008
   8239.9999999999782      ,   8279.9999999999745      ,   0.0000000000000000      ,   0.0000000000000000      ,   4.2680713872960358E-006 ,   3.1888513749924844E-008 ,   1.5856859189046934E-005 ,   1.1296693021872456E-005 ,   4.4268698970639708E-006 ,   3.3730084059687327E-008
   8279.9999999999745      ,   8319.9999999999709      ,   0.0000000000000000      ,   0.0000000000000000      ,   4.5937847619360748E-006 ,   5.2574598030987579E-008 ,   4.8843196189614745E-006 ,   5.2339960943185167E-008 ,   4.7502216086300658E-006 ,   5.3554109167681239E-008
   8319.9999999999709      ,   8359.9999999999673      ,   0.0000000000000000      ,   0.0000000000000000      ,   5.6316262453091685E-006 ,   4.9648337472655486E-007 ,   5.6241944741587479E-006 ,   3.2497059683331310E-007 ,   5.8485987401271052E-006 ,   5.5313113999324728E-007
   8359.9999999999673      ,   8399.9999999999636      ,   0.0000000000000000      ,   0.0000000000000000      ,   5.4441535037671263E-006 ,   1.7987644703713117E-007 ,   5.5788335247229950E-006 ,   5.4749604596691834E-008 ,   5.6099161817647399E-006 ,   1.7062895766806851E-007
   8399.9999999999636      ,   8439.9999999999600      ,   0.0000000000000000      ,   0.0000000000000000      ,   5.9746174362705589E-006 ,   2.0316057276496449E-007 ,   6.6823774102996461E-006 ,   7.0926641876542331E-007 ,   6.1854111083647470E-006 ,   1.9714072725380439E-007
   8439.9999999999600      ,   8479.9999999999563      ,   0.0000000000000000      ,   0.0000000000000000      ,   7.2821052785555164E-006 ,   9.2348610639534662E-007 ,   6.5128814738364569E-006 ,   4.2603662633167974E-008 ,   7.5078506562931364E-006 ,   9.2612586581253862E-007
   8479.9999999999563      ,   8519.9999999999527      ,   0.0000000000000000      ,   0.0000000000000000      ,   7.6232169132970493E-006 ,   9.3571019421338403E-007 ,   7.0437053412163083E-006 ,   3.1600374290686565E-008 ,   7.8497443122877178E-006 ,   9.0624871828638990E-007
   8519.9999999999527      ,   8559.9999999999491      ,   0.0000000000000000      ,   0.0000000000000000      ,   7.4414110787438764E-006 ,   8.7149909360313281E-008 ,   7.9877923847900102E-006 ,   2.6290152348683338E-007 ,   7.7054095146898096E-006 ,   8.9784662804889959E-008
   8559.9999999999491      ,   8599.9999999999454      ,   0.0000000000000000      ,   0.0000000000000000      ,   8.1966138537752085E-006 ,   1.6491842243184002E-007 ,   8.7063242554748682E-006 ,   1.9552080541897813E-007 ,   8.4553412738105990E-006 ,   1.5559937489072870E-007
   8599.9999999999454      ,   8639.9999999999418      ,   0.0000000000000000      ,   0.0000000000000000      ,   1.0023561648957047E-005 ,   1.0798680698495471E-006 ,   1.0743878616097184E-005 ,   1.2202108371075385E-006 ,   1.0460466821495833E-005 ,   1.1831794382388001E-006
   8639.9999999999418      ,   8679.9999999999382      ,   0.0000000000000000      ,   0.0000000000000000      ,   1.0716730409713246E-005 ,   7.9009008480155669E-007 ,   1.0379115053402085E-005 ,   1.2366096960009860E-007 ,   1.1017317349532852E-005 ,   7.3347292443083810E-007
   8679.9999999999382      ,   8719.9999999999345      ,   0.0000000000000000      ,   0.0000000000000000      ,   1.0703513870791187E-005 ,   9.5024667941518852E-008 ,   1.1315210522141751E-005 ,   1.0524844505596253E-007 ,   1.1102382188268612E-005 ,   1.0634476639582111E-007
   8719.9999999999345      ,   8759.9999999999309      ,   0.0000000000000000      ,   0.0000000000000000      ,   1.1603369954399774E-005 ,   7.3920239536681064E-008 ,   1.2278515156241540E-005 ,   9.3406327606717423E-008 ,   1.1977377997886763E-005 ,   7.5268563358526270E-008
   8759.9999999999309      ,   8799.9999999999272      ,   0.0000000000000000      ,   0.0000000000000000      ,   1.2903722873351521E-005 ,   1.5809992739047961E-007 ,   1.3595295187789838E-005 ,   1.3490741341294473E-007 ,   1.3406974128315638E-005 ,   1.8707020139467070E-007
   8799.9999999999272      ,   8839.9999999999236      ,   0.0000000000000000      ,   0.0000000000000000      ,   1.4046086936682385E-005 ,   1.4503179992894051E-007 ,   1.5573661453229566E-005 ,   6.7514442808934050E-007 ,   1.4565663984803456E-005 ,   1.5676161813730195E-007
   8839.9999999999236      ,   8879.9999999999200      ,   0.0000000000000000      ,   0.0000000000000000      ,   1.5876172635520959E-005 ,   4.4887994889025201E-007 ,   1.6121573894059008E-005 ,   8.0906357834571168E-008 ,   1.6500982306471727E-005 ,   5.0582647123006239E-007
   8879.9999999999200      ,   8919.9999999999163      ,   0.0000000000000000      ,   0.0000000000000000      ,   1.7022634839284851E-005 ,   2.9852253333185224E-007 ,   1.8236397305227532E-005 ,   4.3318481747680403E-007 ,   1.7649627300749048E-005 ,   3.5192823288593626E-007
   8919.9999999999163      ,   8959.9999999999127      ,   0.0000000000000000      ,   0.0000000000000000      ,   1.8592652688020764E-005 ,   2.1155247226943730E-007 ,   2.0159529994052844E-005 ,   5.2110506091593930E-007 ,   1.9246573337819754E-005 ,   2.2059089595435886E-007
   8959.9999999999127      ,   8999.9999999999091      ,   0.0000000000000000      ,   0.0000000000000000      ,   1.9929624291940597E-005 ,   9.9755055626996085E-008 ,   2.1569516045014768E-005 ,   4.4573930086473495E-007 ,   2.0639313094565133E-005 ,   1.0305551395681083E-007
   8999.9999999999091      ,   9039.9999999999054      ,   0.0000000000000000      ,   0.0000000000000000      ,   2.1507435407336565E-005 ,   7.8387060064029105E-008 ,   2.3552032322752365E-005 ,   7.7941249956963138E-007 ,   2.2301677583879930E-005 ,   8.7487646729244687E-008
   9039.9999999999054      ,   9079.9999999999018      ,   0.0000000000000000      ,   0.0000000000000000      ,   2.3125680188037492E-005 ,   1.7057915704219889E-007 ,   2.4447593658724310E-005 ,   1.8574496424089538E-007 ,   2.3943547106730279E-005 ,   1.7242877555199882E-007
   9079.9999999999018      ,   9119.9999999998981      ,   0.0000000000000000      ,   0.0000000000000000      ,   2.5381095502154074E-005 ,   8.4139475500200348E-007 ,   2.7154685868626797E-005 ,   1.4023427161969140E-006 ,   2.6163968449913732E-005 ,   7.7778321606576542E-007
   9119.9999999998981      ,   9159.9999999998945      ,   0.0000000000000000      ,   0.0000000000000000      ,   2.6418105018847178E-005 ,   1.8809481893340047E-007 ,   2.7797625599004490E-005 ,   1.9404949556369930E-007 ,   2.7370951675305147E-005 ,   1.9093380448720680E-007
   9159.9999999998945      ,   9199.9999999998909      ,   0.0000000000000000      ,   0.0000000000000000      ,   2.8132023358324672E-005 ,   1.6069960344963409E-007 ,   2.9679328438508552E-005 ,   1.1805649117190173E-007 ,   2.9151889382418077E-005 ,   1.7971987771452036E-007
   9199.9999999998909      ,   9239.9999999998872      ,   0.0000000000000000      ,   0.0000000000000000      ,   3.1155387099758073E-005 ,   1.1939467506797176E-006 ,   3.3167286925458229E-005 ,   1.2403668039070259E-006 ,   3.2157290285495129E-005 ,   1.1250769719076270E-006
   9239.9999999998872      ,   9279.9999999998836      ,   0.0000000000000000      ,   0.0000000000000000      ,   3.1737910482841503E-005 ,   7.5860931813155184E-008 ,   3.4283849463306374E-005 ,   8.2745645781585582E-007 ,   3.2868987952688826E-005 ,   7.9239595596469299E-008
   9279.9999999998836      ,   9319.9999999998799      ,   0.0000000000000000      ,   0.0000000000000000      ,   3.4249986758350435E-005 ,   1.3145217758548393E-007 ,   3.6435664526803680E-005 ,   3.0830390040718937E-007 ,   3.5474801546539353E-005 ,   1.3707168632539647E-007
   9319.9999999998799      ,   9359.9999999998763      ,   0.0000000000000000      ,   0.0000000000000000      ,   3.7098020759246260E-005 ,   4.9095805724111941E-007 ,   3.8811970184845586E-005 ,   1.4828296347138903E-007 ,   3.8406507436735431E-005 ,   4.9497504829231524E-007
   9359.9999999998763      ,   9399.9999999998727      ,   0.0000000000000000      ,   0.0000000000000000      ,   3.9453864024212965E-005 ,   1.2862606194817158E-007 ,   4.1981427151700163E-005 ,   2.4904792044809927E-007 ,   4.0817464768356856E-005 ,   1.2620306551165455E-007
   9399.9999999998727      ,   9439.9999999998690      ,   0.0000000000000000      ,   0.0000000000000000      ,   5.1122567254879370E-005 ,   8.2033301083063848E-006 ,   5.4213497979438411E-005 ,   8.7358815613125797E-006 ,   5.3373812079660928E-005 ,   8.9580351912057213E-006
   9439.9999999998690      ,   9479.9999999998654      ,   0.0000000000000000      ,   0.0000000000000000      ,   4.6572186994555976E-005 ,   1.6778528577615166E-007 ,   4.9753123179549998E-005 ,   2.3486261520902601E-007 ,   4.8277380959686606E-005 ,   1.8079911092057402E-007
   9479.9999999998654      ,   9519.9999999998618      ,   0.0000000000000000      ,   0.0000000000000000      ,   5.0863009800113213E-005 ,   2.7016719071943168E-007 ,   5.3534429144371819E-005 ,   1.4972364514206461E-007 ,   5.2769123317188040E-005 ,   2.6883963768511399E-007
   9519.9999999998618      ,   9559.9999999998581      ,   0.0000000000000000      ,   0.0000000000000000      ,   5.6577266710521626E-005 ,   6.1596903907392304E-007 ,   5.9379063545268265E-005 ,   5.8016784389349937E-007 ,   5.8554121903864521E-005 ,   6.2089522527851184E-007
   9559.9999999998581      ,   9599.9999999998545      ,   0.0000000000000000      ,   0.0000000000000000      ,   6.2013787060731087E-005 ,   8.4518827506190318E-007 ,   6.4367900145595217E-005 ,   1.0966678109159653E-007 ,   6.4140376228141678E-005 ,   8.2444562516008882E-007
   9599.9999999998545      ,   9639.9999999998508      ,   0.0000000000000000      ,   0.0000000000000000      ,   6.8337314453253224E-005 ,   4.6249090351666389E-007 ,   7.2684196285324336E-005 ,   6.6342148621994384E-007 ,   7.0780158973866958E-005 ,   4.7674031885215941E-007
   9639.9999999998508      ,   9679.9999999998472      ,   0.0000000000000000      ,   0.0000000000000000      ,   7.6141594144333818E-005 ,   2.1413669128455807E-007 ,   8.0499961225021457E-005 ,   2.4494351702192997E-007 ,   7.8894597924552461E-005 ,   2.2701205504569722E-007
   9679.9999999998472      ,   9719.9999999998436      ,   0.0000000000000000      ,   0.0000000000000000      ,   8.6457733946427047E-005 ,   1.7627446874709109E-007 ,   9.1626657106376195E-005 ,   2.2868797136732962E-007 ,   8.9492111711078040E-005 ,   1.5956885709484400E-007
   9719.9999999998436      ,   9759.9999999998399      ,   0.0000000000000000      ,   0.0000000000000000      ,   9.9064348072866711E-005 ,   1.1182751722309385E-007 ,   1.0489083791345841E-004 ,   1.2826464215787309E-007 ,   1.0263234387663628E-004 ,   1.1626400128291220E-007
   9759.9999999998399      ,   9799.9999999998363      ,   0.0000000000000000      ,   0.0000000000000000      ,   1.1697260119815920E-004 ,   2.1353897848379308E-007 ,   1.2368600794481377E-004 ,   2.7548963174680473E-007 ,   1.2141100076067609E-004 ,   2.5866411092810035E-007
   9799.9999999998363      ,   9839.9999999998327      ,   0.0000000000000000      ,   0.0000000000000000      ,   1.4445298760659719E-004 ,   3.0348540186601176E-006 ,   1.4950890635183058E-004 ,   3.2788874658116430E-007 ,   1.4979625124236177E-004 ,   3.2931533762144229E-006
   9839.9999999998327      ,   9879.9999999998290      ,   0.0000000000000000      ,   0.0000000000000000      ,   1.7855746226213255E-004 ,   2.0059710825160788E-007 ,   1.8862258411395452E-004 ,   1.7895707274399046E-007 ,   1.8507017371505147E-004 ,   2.2387588557620241E-007
   9879.9999999998290      ,   9919.9999999998254      ,   0.0000000000000000      ,   0.0000000000000000      ,   2.4334999963576895E-004 ,   3.4408585903715057E-007 ,   2.5705211650427050E-004 ,   1.8021431487621173E-007 ,   2.5203811213014610E-004 ,   3.3246147262054274E-007
   9919.9999999998254      ,   9959.9999999998217      ,   0.0000000000000000      ,   0.0000000000000000      ,   3.9011684234797336E-004 ,   6.5131697522668007E-007 ,   4.1243349961162662E-004 ,   7.0193421152875589E-007 ,   4.0426214834484624E-004 ,   6.9410032092925057E-007
   9959.9999999998217      ,   9999.9999999998181      ,   6.5543821679815931E-003 ,   3.8955208118474466E-008 ,   3.4444985208074231E-003 ,   6.6183234316267981E-005 ,   3.6546242294329548E-003 ,   7.9488549302507582E-005 ,   3.5668880797318390E-003 ,   6.6658935227308910E-005
