 # xl, xh, LO, dLO, NLOPSnovp, dNLOPSnovp, NLOPSvp, dNLOPSvp, NLOPSvplt, dNLOPSvplt
  0.64999999999999858      ,  0.69999999999999840      ,   3.2453698196975377E-002 ,   5.4655340253617708E-006 ,   2.3599206905269100E-002 ,   2.0359645919338477E-004 ,   2.5006604072864043E-002 ,   1.5904159468257273E-004 ,   2.4514238706458181E-002 ,   1.9546187381770132E-004
  0.69999999999999840      ,  0.74999999999999822      ,   3.4437093543594297E-002 ,   5.6501096584315764E-006 ,   2.8543527938801369E-002 ,   2.5345033470646817E-003 ,   2.6900618233683008E-002 ,   5.1516365789093256E-005 ,   2.9936180166344990E-002 ,   2.7771988535244567E-003
  0.74999999999999822      ,  0.79999999999999805      ,   3.6336896047065213E-002 ,   5.9575443770538023E-006 ,   2.7522914646983261E-002 ,   1.1103742061928363E-004 ,   2.9368974874719705E-002 ,   1.3820523443369313E-004 ,   2.8540925020588599E-002 ,   1.0249705552802679E-004
  0.79999999999999805      ,  0.84999999999999787      ,   3.8216080553707642E-002 ,   6.1701909176220100E-006 ,   2.9366575913324384E-002 ,   8.5914983674663145E-005 ,   3.1239284225626059E-002 ,   1.1105039700195913E-004 ,   3.0409353150628114E-002 ,   5.0823790794915727E-005
  0.84999999999999787      ,  0.89999999999999769      ,   3.9940248727935938E-002 ,   5.8725159191626489E-006 ,   3.1638641668002121E-002 ,   2.4480190504958194E-004 ,   3.3161155716314145E-002 ,   4.9073093920453143E-005 ,   3.2910504053475377E-002 ,   2.8712426173703258E-004
  0.89999999999999769      ,  0.94999999999999751      ,   4.1608113360962956E-002 ,   5.5754461479340315E-006 ,   3.3259613271186317E-002 ,   7.6507384720861984E-005 ,   3.6008435760761404E-002 ,   4.7762787650028717E-004 ,   3.4550976832434709E-002 ,   7.9793944471282270E-005
  0.94999999999999751      ,  0.99999999999999734      ,   4.3244232029433616E-002 ,   5.2138718234616873E-006 ,   3.5592919073349646E-002 ,   3.9016825909355112E-004 ,   3.7473117774463986E-002 ,   8.4945495042968499E-005 ,   3.6995033132633151E-002 ,   3.9170699208374346E-004
  0.99999999999999734      ,   1.0499999999999972      ,   4.4899792225891924E-002 ,   4.7942227171036183E-006 ,   3.7272177527238409E-002 ,   1.1319317731811233E-004 ,   3.9837154471728406E-002 ,   2.0447961057513042E-004 ,   3.8742575825763889E-002 ,   1.2371219806450463E-004
   1.0499999999999972      ,   1.0999999999999970      ,   4.6635844713158243E-002 ,   4.5137586778712409E-006 ,   3.9515105831277361E-002 ,   1.6547473396537923E-004 ,   4.1962944327903040E-002 ,   1.5275821264987413E-004 ,   4.1064109228850912E-002 ,   1.6958584961048831E-004
   1.0999999999999970      ,   1.1499999999999968      ,   4.8479438537541733E-002 ,   4.2691857881368266E-006 ,   4.1805836147619076E-002 ,   3.1265436802894325E-004 ,   4.4342470053931007E-002 ,   3.3557293724343929E-004 ,   4.3437126142522299E-002 ,   3.2451854910124590E-004
   1.1499999999999968      ,   1.1999999999999966      ,   5.0444722994518937E-002 ,   3.9987811289533278E-006 ,   4.3463232684405807E-002 ,   9.4352715440623242E-005 ,   4.6219098628757040E-002 ,   6.7551867336736169E-005 ,   4.5171367881213884E-002 ,   9.2221660502217668E-005
   1.1999999999999966      ,   1.2499999999999964      ,   5.2590251045072818E-002 ,   3.8379333997517628E-006 ,   4.5895148526609725E-002 ,   9.6909375542689831E-005 ,   4.8813599180173001E-002 ,   1.1628621842826795E-004 ,   4.7675479896408038E-002 ,   9.7239592541915933E-005
   1.2499999999999964      ,   1.2999999999999963      ,   5.4924601333260048E-002 ,   3.6083252132883187E-006 ,   4.8276555244222398E-002 ,   1.0154936868634614E-004 ,   5.1249339363512683E-002 ,   7.5040335254967545E-005 ,   5.0215272654948670E-002 ,   1.1877502969994255E-004
   1.2999999999999963      ,   1.3499999999999961      ,   5.7503898034091318E-002 ,   3.4915773030604702E-006 ,   5.0621784962448353E-002 ,   5.8336966329623706E-005 ,   5.4032975521690785E-002 ,   9.6415447976021598E-005 ,   5.2597054158308912E-002 ,   6.0705966760203151E-005
   1.3499999999999961      ,   1.3999999999999959      ,   6.0323028363286832E-002 ,   3.3718321017439701E-006 ,   5.3429508827514495E-002 ,   8.0062513298522847E-005 ,   5.6870584607580946E-002 ,   7.6776107938281493E-005 ,   5.5514002129194842E-002 ,   8.6717311266440740E-005
   1.3999999999999959      ,   1.4499999999999957      ,   6.3433314548972608E-002 ,   3.2666427273888409E-006 ,   5.6380736602279637E-002 ,   8.7047205849579578E-005 ,   6.0088485219594881E-002 ,   1.1593598428991842E-004 ,   5.8552372069252540E-002 ,   9.0202447726706676E-005
   1.4499999999999957      ,   1.4999999999999956      ,   6.6881526581302669E-002 ,   3.2612791509932062E-006 ,   5.9520623130354673E-002 ,   7.9795713961493229E-005 ,   6.3908424337461633E-002 ,   6.2124296742056926E-004 ,   6.1805224374518575E-002 ,   7.8442846308952001E-005
   1.4999999999999956      ,   1.5499999999999954      ,   7.0714463502547023E-002 ,   3.2043834667094182E-006 ,  0.11632570741616345      ,   5.2931173903549796E-002 ,  0.13090433577700725      ,   6.3580662706737151E-002 ,  0.11921881175806781      ,   5.3309828016035829E-002
   1.5499999999999954      ,   1.5999999999999952      ,   7.4990659672199977E-002 ,   3.1943243448113554E-006 ,   6.6449417886579737E-002 ,   7.9323845213478633E-005 ,   7.0641525969049074E-002 ,   6.3966061237158021E-005 ,   6.9032886460002663E-002 ,   8.9504574395957260E-005
   1.5999999999999952      ,   1.6499999999999950      ,   7.9808152781837907E-002 ,   3.2188668574035165E-006 ,   7.1773317745436702E-002 ,   1.0174524232134444E-003 ,   7.5451138370915272E-002 ,   4.8370133261668128E-004 ,   7.4494680859292506E-002 ,   1.0009095740751545E-003
   1.6499999999999950      ,   1.6999999999999948      ,   8.5377587652531908E-002 ,   3.2357128955097945E-006 ,   7.5294535003484736E-002 ,   9.0656001207804643E-005 ,   8.0209331003122941E-002 ,   1.2246366781130182E-004 ,   7.8216063317631007E-002 ,   9.9005276703939321E-005
   1.6999999999999948      ,   1.7499999999999947      ,   9.1862582391192271E-002 ,   3.3120004604442241E-006 ,   8.0893634736789954E-002 ,   1.4701898697510389E-004 ,   8.5981291399369122E-002 ,   1.4855138519645838E-004 ,   8.3962986329794653E-002 ,   1.4532684926910105E-004
   1.7499999999999947      ,   1.7999999999999945      ,   9.9423352172721649E-002 ,   3.4176168149333493E-006 ,   8.7560142445724298E-002 ,   1.4632413681641126E-004 ,  0.10200308299804969      ,   9.0385679710928910E-003 ,   9.0906840166928043E-002 ,   1.5209319762315767E-004
   1.7999999999999945      ,   1.8499999999999943      ,  0.10826486712256241      ,   3.5847547948943932E-006 ,   9.4862847858749211E-002 ,   7.1223002982829741E-005 ,  0.10083762686069211      ,   7.7695945508360592E-005 ,   9.8413765458741614E-002 ,   6.9553908851491546E-005
   1.8499999999999943      ,   1.8999999999999941      ,  0.11861697490073153      ,   3.6507134135903518E-006 ,  0.10396806703269090      ,   3.5193287640829186E-004 ,  0.11006391367965804      ,   6.1231251217871996E-005 ,  0.10791345201191718      ,   3.9574768765011199E-004
   1.8999999999999941      ,   1.9499999999999940      ,  0.13083161418606098      ,   3.8886366459444733E-006 ,  0.11383971363688723      ,   1.1875608062930096E-004 ,  0.12096415919163886      ,   1.4887567692716379E-004 ,  0.11810050560540206      ,   1.3075000120512910E-004
   1.9499999999999940      ,   1.9999999999999938      ,  0.14525914292238154      ,   4.0833519526524855E-006 ,  0.12565963748906483      ,   9.4162319160944158E-005 ,  0.13341355193440710      ,   1.0622746470693640E-004 ,  0.13034826143958322      ,   1.0407497450053545E-004
   1.9999999999999938      ,   2.0499999999999936      ,  0.16238796759679641      ,   4.2972251378641406E-006 ,  0.14006315498938995      ,   6.4204702459294918E-004 ,  0.14816138196943116      ,   2.3939640019423713E-004 ,  0.14520061488987640      ,   6.2093898798017664E-004
   2.0499999999999936      ,   2.0999999999999934      ,  0.18280322207153921      ,   4.5979313569708415E-006 ,  0.15549259351150760      ,   1.2138710269932613E-004 ,  0.16480749176045567      ,   1.1918541842659701E-004 ,  0.16120883360375288      ,   1.2233774394989594E-004
   2.0999999999999934      ,   2.1499999999999932      ,  0.20721807381769591      ,   4.9455908473666561E-006 ,  0.17447242972894056      ,   1.4710835664500629E-004 ,  0.18481179651578994      ,   8.7423568330662052E-005 ,  0.18080852215488996      ,   1.4086234873958098E-004
   2.1499999999999932      ,   2.1999999999999931      ,  0.23652210094980056      ,   5.2448407621939015E-006 ,  0.19686362795499657      ,   8.0229302054577226E-005 ,  0.20846633084821120      ,   8.2996138942529550E-005 ,  0.20394629308945494      ,   8.0948282680147070E-005
   2.1999999999999931      ,   2.2499999999999929      ,  0.27191704482951351      ,   5.5978571310601739E-006 ,  0.22450820989394460      ,   1.4232222402946329E-004 ,  0.23756827006374451      ,   1.7958349695823068E-004 ,  0.23240891961275595      ,   1.0378697286316143E-004
   2.2499999999999929      ,   2.2999999999999927      ,  0.31483717858700278      ,   6.1442007518882939E-006 ,  0.25811491772262324      ,   1.8093718176825246E-004 ,  0.27278572872658569      ,   1.7795232618823446E-004 ,  0.26728918165225568      ,   1.7754194486627531E-004
   2.2999999999999927      ,   2.3499999999999925      ,  0.36662196197284286      ,   6.6109541825483640E-006 ,  0.29899340756432452      ,   7.9886761298307530E-004 ,  0.31493051107140446      ,   3.0179915319403634E-004 ,  0.30949964724433199      ,   8.1100328863353333E-004
   2.3499999999999925      ,   2.3999999999999924      ,  0.42831007905261337      ,   7.1596972181914880E-006 ,  0.34310636429337515      ,   5.7270470612874007E-005 ,  0.36250113196083961      ,   1.9890222447913443E-004 ,  0.35501495749476031      ,   6.1851746473224652E-005
   2.3999999999999924      ,   2.4499999999999922      ,  0.49726465966888644      ,   7.3000562562846119E-006 ,  0.39158958420647183      ,   2.2465150498021392E-004 ,  0.41378909500476635      ,   1.1441030120989816E-003 ,  0.40497240722733008      ,   2.1683461716575110E-004
   2.4499999999999922      ,   2.4999999999999920      ,  0.48124795865056669      ,   7.1490157703099767E-006 ,  0.36940907637946485      ,   2.8520787950397664E-004 ,  0.38885477083153885      ,   1.7786244091462004E-004 ,  0.38189143195025277      ,   2.8635801365148143E-004
   2.4999999999999920      ,   2.5499999999999918      ,  0.11844580601121163      ,   6.6564287017673858E-006 ,   9.5894344090834777E-002 ,   1.9969012087676599E-004 ,  0.10063338588304421      ,   1.9037484274591940E-004 ,   9.9047217489373313E-002 ,   2.0783924147814041E-004
   2.5499999999999918      ,   2.5999999999999917      ,   8.3825142716187698E-002 ,   5.9081625273211082E-006 ,   5.8981250656788192E-002 ,   7.9240894384797382E-004 ,   6.2085150836787902E-002 ,   7.0115906646039082E-004 ,   6.0854998369539073E-002 ,   7.7845708685798020E-004
   2.5999999999999917      ,   2.6499999999999915      ,   7.8936050725659845E-002 ,   4.4617744890511882E-006 ,   5.3220007378490787E-002 ,   1.7960024565083415E-004 ,   5.5666225878554909E-002 ,   1.6574501736869911E-004 ,   5.4869204633148511E-002 ,   1.7584465330023675E-004
   2.6499999999999915      ,   2.6999999999999913      ,   7.8554419950698354E-002 ,   3.1567756811762716E-006 ,   6.7365518620483691E-002 ,   6.5803082211946511E-003 ,   7.1646579340939071E-002 ,   7.0596078698524564E-003 ,   6.9879599770077655E-002 ,   7.1838781634883594E-003
   2.6999999999999913      ,   2.7499999999999911      ,   8.0810790370847402E-002 ,   2.8009627129608020E-006 ,   8.5373735512800891E-002 ,   1.7033702130563331E-003 ,   8.8333192225053619E-002 ,   1.8501673914390583E-003 ,   8.7845489426922135E-002 ,   1.7054361294832092E-003
