 # xl, xh, LO, dLO, NLOPSnovp, dNLOPSnovp, NLOPSvp, dNLOPSvp, NLOPSvplt, dNLOPSvplt
   3000.0000000000000      ,   3020.0000000000009      ,   6.8321324683568218E-006 ,   3.4317163777028278E-011 ,   6.1925713341710526E-006 ,   2.4159994681325196E-010 ,   6.5247416457599526E-006 ,   3.1082289720375581E-010 ,   6.4506318643632722E-006 ,   2.2833792797234772E-010
   3020.0000000000009      ,   3040.0000000000018      ,   6.7855967098014724E-006 ,   3.4387021251120754E-011 ,   6.1535470505382342E-006 ,   1.5285449487328897E-010 ,   6.4838700191058364E-006 ,   2.4475142744972444E-010 ,   6.4099781207206589E-006 ,   2.2841201268233011E-010
   3040.0000000000018      ,   3060.0000000000027      ,   6.7401605606353352E-006 ,   3.4463806137306601E-011 ,   6.1162715683865812E-006 ,   1.5384600959614615E-010 ,   6.4445630211214151E-006 ,   2.2731850596973801E-010 ,   6.3706866785325195E-006 ,   2.2948023629131967E-010
   3060.0000000000027      ,   3080.0000000000036      ,   6.6959507330971757E-006 ,   3.4547207278507773E-011 ,   6.0798296913302938E-006 ,   1.5538024404480589E-010 ,   6.4066358364004651E-006 ,   2.2217069184027311E-010 ,   6.3326390425735354E-006 ,   2.3151245016689311E-010
   3080.0000000000036      ,   3100.0000000000045      ,   6.6528502609365989E-006 ,   3.4637955546936175E-011 ,   6.0447395963772066E-006 ,   1.5720101182825414E-010 ,   6.3694250377234869E-006 ,   2.3604227792966057E-010 ,   6.2960249564188813E-006 ,   2.3380993479844370E-010
   3100.0000000000045      ,   3120.0000000000055      ,   6.6107510905074885E-006 ,   3.4735346796252397E-011 ,   6.0109273345123641E-006 ,   1.6125626203432184E-010 ,   6.3331328540405588E-006 ,   2.3087218732872354E-010 ,   6.2605535228853819E-006 ,   2.3636026456853095E-010
   3120.0000000000055      ,   3140.0000000000064      ,   6.5698476865416299E-006 ,   3.4839733687014735E-011 ,   5.9773007773851290E-006 ,   1.6240397109677442E-010 ,   6.2981244136069942E-006 ,   2.2686897026229479E-010 ,   6.2256604270154703E-006 ,   2.4037595942412032E-010
   3140.0000000000064      ,   3160.0000000000073      ,   6.5300612126873790E-006 ,   3.4951998674924297E-011 ,   5.9457208955086447E-006 ,   1.8753034583321578E-010 ,   6.2645783851063119E-006 ,   2.3856301719498997E-010 ,   6.1920456673335107E-006 ,   2.5666067162767649E-010
   3160.0000000000073      ,   3180.0000000000082      ,   6.4913649885774637E-006 ,   3.5072041012984122E-011 ,   5.9154416026566175E-006 ,   1.7714621182629467E-010 ,   6.2324868232921385E-006 ,   2.3408020766656442E-010 ,   6.1607472805013543E-006 ,   2.6122432300844520E-010
   3180.0000000000082      ,   3200.0000000000091      ,   6.4537795791164565E-006 ,   3.5199869089965973E-011 ,   5.8909096023424924E-006 ,   5.9462227376142365E-010 ,   6.2051348203777629E-006 ,   4.8979473043614070E-010 ,   6.1347996518630230E-006 ,   9.7146534018726716E-010
   3200.0000000000091      ,   3220.0000000000100      ,   6.4173109363166804E-006 ,   3.5335835913653296E-011 ,   5.8775774630132005E-006 ,   2.4153700701152178E-009 ,   6.1932552862601707E-006 ,   3.0616448760000110E-009 ,   6.1191853717208693E-006 ,   2.1215713299733880E-009
   3220.0000000000100      ,   3240.0000000000109      ,   6.3820489143234610E-006 ,   3.5481171776899806E-011 ,   5.8552233619610163E-006 ,   3.0640117902778230E-009 ,   6.1731693219800887E-006 ,   5.2257563094187864E-009 ,   6.0918743804077183E-006 ,   2.6581468305839859E-009
   3240.0000000000109      ,   3260.0000000000118      ,   6.3478746093258438E-006 ,   3.5634960558031129E-011 ,   5.8431172077659722E-006 ,   7.2279525331891472E-009 ,   6.1563877511715252E-006 ,   8.6515043650580392E-009 ,   6.0886489044872904E-006 ,   1.0366300276245647E-008
   3260.0000000000118      ,   3280.0000000000127      ,   6.3148318745025424E-006 ,   3.5797678228240637E-011 ,   5.8043133764377457E-006 ,   2.6485279083585264E-009 ,   6.1375919861276672E-006 ,   2.4220246997469410E-008 ,   6.0418387181186553E-006 ,   3.2700886411116232E-009
   3280.0000000000127      ,   3300.0000000000136      ,   6.2829074545295758E-006 ,   3.5970658671101142E-011 ,   5.7935469025666369E-006 ,   7.7688947719035113E-009 ,   6.1180274081934539E-006 ,   1.8271328424426839E-008 ,   6.0435183173016760E-006 ,   1.5851384845243594E-008
   3300.0000000000136      ,   3320.0000000000146      ,   6.2522338804757574E-006 ,   3.6152657762274769E-011 ,   5.7627814635000445E-006 ,   3.4773473727249272E-009 ,   6.0768644773039883E-006 ,   5.6059934310606951E-009 ,   6.0014962920042552E-006 ,   6.4149676357813496E-009
   3320.0000000000146      ,   3340.0000000000155      ,   6.2227591024630789E-006 ,   3.6345220306489593E-011 ,   5.7764380798956976E-006 ,   3.4099387231797025E-008 ,   6.0598448564077694E-006 ,   1.0270233519674943E-008 ,   6.0620562676233000E-006 ,   8.4154733097599900E-008
   3340.0000000000155      ,   3360.0000000000164      ,   6.1947157082661911E-006 ,   3.6549863180773018E-011 ,   5.7509903893467171E-006 ,   2.5490446662477778E-008 ,   6.0267226806202970E-006 ,   4.8532388885920442E-009 ,   5.9611536022314423E-006 ,   7.4947058328509428E-009
   3360.0000000000164      ,   3380.0000000000173      ,   6.1677167219544514E-006 ,   3.6764899164593027E-011 ,   5.7774973020591694E-006 ,   6.2246026952513671E-008 ,   6.0214682298330956E-006 ,   1.0566730035326978E-008 ,   5.9489376070746012E-006 ,   1.8031839709972257E-008
   3380.0000000000173      ,   3400.0000000000182      ,   6.1419388428803735E-006 ,   3.6990857186661012E-011 ,   5.7432600220553152E-006 ,   4.4176767274047479E-008 ,   5.9878763955422679E-006 ,   5.8802069199022717E-009 ,   6.0201069265941056E-006 ,   9.3655430068827580E-008
   3400.0000000000182      ,   3420.0000000000191      ,   6.1173151279014415E-006 ,   3.7229072752738174E-011 ,   5.6666893164313889E-006 ,   6.3211087089681391E-009 ,   5.9735862763641967E-006 ,   6.2311177428164840E-009 ,   5.9069735520688182E-006 ,   1.2696384670936154E-008
   3420.0000000000191      ,   3440.0000000000200      ,   6.0938924955442481E-006 ,   3.7478637004340880E-011 ,   5.7855174601424516E-006 ,   8.0257978191100641E-008 ,   6.0813408920310025E-006 ,   7.9497649447868339E-008 ,   6.0671344088914465E-006 ,   1.5426084594087589E-007
   3440.0000000000200      ,   3460.0000000000209      ,   6.0716632121090045E-006 ,   3.7741283377270629E-011 ,   5.6465062448418138E-006 ,   8.7880727827501251E-009 ,   6.8408857554901129E-006 ,   6.5582852386753417E-007 ,   5.8802633426391631E-006 ,   1.6109595629930306E-008
   3460.0000000000209      ,   3480.0000000000218      ,   6.0505561908421301E-006 ,   3.8016879496207461E-011 ,   5.6510007358108812E-006 ,   1.9514847579693905E-008 ,   6.0300672210220691E-006 ,   5.3167460847985115E-008 ,   5.8539686129343843E-006 ,   1.3646349946677848E-008
   3480.0000000000218      ,   3500.0000000000227      ,   6.0305860944626003E-006 ,   3.8305508053204405E-011 ,   5.6355018227273317E-006 ,   1.1876122386383913E-008 ,   5.9312631094280822E-006 ,   1.2234598500512789E-008 ,   5.8900654794056123E-006 ,   2.4043220530597032E-008
   3500.0000000000227      ,   3520.0000000000236      ,   6.0119467159093256E-006 ,   3.8609654810685174E-011 ,   5.6084882047101242E-006 ,   9.6893152615587443E-009 ,   5.9416890453251287E-006 ,   4.9776234643920584E-008 ,   5.8312786087650256E-006 ,   9.3562475764803012E-009
   3520.0000000000236      ,   3540.0000000000246      ,   5.9943793210007517E-006 ,   3.8926879279677865E-011 ,   5.6597664057854041E-006 ,   4.7550474771658329E-008 ,   5.9809888911182141E-006 ,   5.9894714590992837E-008 ,   5.8370947757475284E-006 ,   2.2628927394831372E-008
   3540.0000000000246      ,   3560.0000000000255      ,   5.9780469690513266E-006 ,   3.9260642943322261E-011 ,   5.7228927218595809E-006 ,   9.6898670998766664E-008 ,   5.9057802929896144E-006 ,   2.3435867081914921E-008 ,   5.8782348291324047E-006 ,   3.9419566375764189E-008
   3560.0000000000255      ,   3580.0000000000264      ,   5.9628731625672249E-006 ,   3.9607934568565252E-011 ,   5.6013080262749174E-006 ,   1.9796887059050841E-008 ,   6.1308592416631369E-006 ,   1.9476398026588707E-007 ,   5.8387925534106775E-006 ,   2.9209883920001154E-008
   3580.0000000000264      ,   3600.0000000000273      ,   5.9488541842118969E-006 ,   3.9972248267902162E-011 ,   5.6627379734988105E-006 ,   8.4935483273822238E-008 ,   5.8833026727460332E-006 ,   2.4621414045646406E-008 ,   6.0095175705829118E-006 ,   2.0523147240835663E-007
   3600.0000000000273      ,   3620.0000000000282      ,   5.9360347140804926E-006 ,   4.0352875303132608E-011 ,   5.5777057876550503E-006 ,   1.4726737352757415E-008 ,   5.8595205557534982E-006 ,   1.0990211359002327E-008 ,   5.7974530750732685E-006 ,   1.5355362169184882E-008
   3620.0000000000282      ,   3640.0000000000291      ,   5.9246188481568245E-006 ,   4.0753156668913911E-011 ,   5.5746351462094460E-006 ,   2.3759845369086725E-008 ,   5.8510123240064279E-006 ,   1.0086787469801230E-008 ,   5.8506257525117686E-006 ,   5.2369691402212049E-008
   3640.0000000000291      ,   3660.0000000000300      ,   5.9143529454632088E-006 ,   4.1171081330374446E-011 ,   5.5430603693060737E-006 ,   8.6723178750888920E-009 ,   5.8682548354024956E-006 ,   2.0880638723941859E-008 ,   5.7745553771578869E-006 ,   1.2917715202188659E-008
   3660.0000000000300      ,   3680.0000000000309      ,   5.9054752816254915E-006 ,   4.1609676425118980E-011 ,   5.5717474300074885E-006 ,   1.9613468305615253E-008 ,   6.0459376439105480E-006 ,   1.8665543374617267E-007 ,   5.8112963133543624E-006 ,   3.5177486024785627E-008
   3680.0000000000309      ,   3700.0000000000318      ,   5.8977686523418209E-006 ,   4.2068249744904305E-011 ,   5.5706445183172388E-006 ,   2.2784432401846746E-008 ,   5.8606776099906424E-006 ,   2.4994376757805474E-008 ,   5.8402118406490332E-006 ,   4.9466465207050236E-008
   3700.0000000000318      ,   3720.0000000000327      ,   5.8915929024220472E-006 ,   4.2549348020273314E-011 ,   5.5424775815603129E-006 ,   1.1004338169686228E-008 ,   5.9749992832937964E-006 ,   1.0170486120275647E-007 ,   5.7751635072343986E-006 ,   1.8126808677711914E-008
   3720.0000000000327      ,   3740.0000000000337      ,   5.8865912987808120E-006 ,   4.3050548074145661E-011 ,   5.5847905131665988E-006 ,   2.3721643495502043E-008 ,   5.8611283745741040E-006 ,   2.1372262220260726E-008 ,   5.8050231053237772E-006 ,   2.8296472097414452E-008
   3740.0000000000337      ,   3760.0000000000346      ,   5.8832405190869225E-006 ,   4.3579025454531720E-011 ,   5.5922068720197595E-006 ,   3.3403733208374926E-008 ,   5.8504841699903761E-006 ,   1.8455798637568530E-008 ,   5.8334065981569318E-006 ,   7.0097129631833256E-008
   3760.0000000000346      ,   3780.0000000000355      ,   5.8811081036599350E-006 ,   4.4130569165512565E-011 ,   5.5589096591787170E-006 ,   2.2938707767614741E-008 ,   5.8211545826434867E-006 ,   1.3519598430116159E-008 ,   5.8243065728786908E-006 ,   4.6954244104435771E-008
   3780.0000000000355      ,   3800.0000000000364      ,   5.8805102631079454E-006 ,   4.4708060795512001E-011 ,   5.5522568345361101E-006 ,   1.7846189244240359E-008 ,   6.1940458221032820E-006 ,   2.8007174435428918E-007 ,   5.7662587567354551E-006 ,   2.2218422897070273E-008
   3800.0000000000364      ,   3820.0000000000373      ,   5.8814185443698371E-006 ,   4.5313027512225590E-011 ,   5.5792324239044722E-006 ,   4.6174152380538104E-008 ,   7.5362383631638673E-006 ,   1.6913078257378679E-006 ,   5.7202627995219200E-006 ,   1.2460094059245163E-008
   3820.0000000000373      ,   3840.0000000000382      ,   5.8838887253892347E-006 ,   4.5946689004978375E-011 ,   5.6461730797174959E-006 ,   7.1575295129939991E-008 ,   5.9216917080291299E-006 ,   5.8845040550953091E-008 ,   5.8752451070961369E-006 ,   1.1028798484201429E-007
   3840.0000000000382      ,   3860.0000000000391      ,   5.8879243556558783E-006 ,   4.6612989198454880E-011 ,   5.5799812771901188E-006 ,   3.6534842511552564E-008 ,   5.8470382473043521E-006 ,   2.7800800305039915E-008 ,   5.8285991381000198E-006 ,   6.7173424666732143E-008
   3860.0000000000391      ,   3880.0000000000400      ,   5.8936546968861379E-006 ,   4.7312033646473799E-011 ,   5.5579558423773232E-006 ,   1.9711896691296700E-008 ,   6.0155946998915081E-006 ,   1.4596186911966174E-007 ,   5.7628355456666588E-006 ,   2.8330059302619235E-008
   3880.0000000000400      ,   3900.0000000000409      ,   5.9011742364767056E-006 ,   4.8044568789526088E-011 ,   5.7186744059647775E-006 ,   1.4377383245224185E-007 ,   5.8869343765249568E-006 ,   4.2016459093144853E-008 ,   5.7327481705892760E-006 ,   2.6623872510375917E-008
   3900.0000000000409      ,   3920.0000000000418      ,   5.9105222003591933E-006 ,   4.8816288745786759E-011 ,   5.5997566462572988E-006 ,   4.3751611310164882E-008 ,   5.9591567153747937E-006 ,   1.2163045461072178E-007 ,   5.8168862182441114E-006 ,   7.7937500256316358E-008
   3920.0000000000418      ,   3940.0000000000427      ,   5.9216446575731464E-006 ,   4.9625015871767553E-011 ,   5.5881009458104685E-006 ,   6.4523580525818533E-008 ,   5.7647506041118806E-006 ,   1.5454780762551768E-008 ,   5.7045039055755193E-006 ,   2.0698342564992196E-008
   3940.0000000000427      ,   3960.0000000000437      ,   5.9346849080427913E-006 ,   5.0474803718652573E-011 ,   5.6016865839601028E-006 ,   4.2736317500635103E-008 ,   5.9683166278070551E-006 ,   1.4667968850817860E-007 ,   5.7942804487406794E-006 ,   5.1146623901629604E-008
   3960.0000000000437      ,   3980.0000000000446      ,   5.9497289209342272E-006 ,   5.1368848866283166E-011 ,   5.5422738815282427E-006 ,   4.7939876307360991E-008 ,   5.7487797375997319E-006 ,   2.1469015816928801E-008 ,   5.6738361752651487E-006 ,   1.8550602460189689E-008
   3980.0000000000446      ,   4000.0000000000455      ,   5.9424599756052351E-006 ,   5.2305251904495443E-011 ,   5.5515582695496681E-006 ,   8.2618690050369510E-008 ,   5.7264365387530836E-006 ,   5.0622793489605703E-008 ,   5.8497671843336537E-006 ,   1.5553277151142537E-007
   4000.0000000000455      ,   4020.0000000000464      ,   5.3786424595561004E-006 ,   5.2828187911483384E-011 ,   5.0755204249146341E-006 ,   6.3436499348839108E-008 ,   5.3180804761528486E-006 ,   5.2914080743360832E-008 ,   5.1823484889776980E-006 ,   1.5394476901130333E-008
   4020.0000000000464      ,   4040.0000000000473      ,   5.0503952101144241E-006 ,   5.3103684576389813E-011 ,   4.8493346734817976E-006 ,   3.6145765203954363E-008 ,   5.2199258267845296E-006 ,   1.0558068268254151E-007 ,   5.0535313201214604E-006 ,   4.8729863376088882E-008
   4040.0000000000473      ,   4060.0000000000482      ,   4.8798817502722243E-006 ,   5.3432065095652826E-011 ,   4.7231442834344360E-006 ,   2.2440676726848493E-008 ,   5.0763143607305613E-006 ,   1.5380089371697292E-007 ,   4.9098009487574893E-006 ,   3.6375686743482607E-008
   4060.0000000000482      ,   4080.0000000000491      ,   4.7650380486852277E-006 ,   5.3817116504403290E-011 ,   4.8213434263311269E-006 ,   8.6618832346284991E-008 ,   4.9074812759742657E-006 ,   2.8717187364960638E-008 ,   4.8833489996852072E-006 ,   4.3796030898436664E-008
   4080.0000000000491      ,   4100.0000000000500      ,   4.6799840380103084E-006 ,   5.4259217717039455E-011 ,   4.6228350652794731E-006 ,   2.9223987303823105E-008 ,   4.8669279050183389E-006 ,   4.1874540606495742E-008 ,   4.7852668712246166E-006 ,   3.3341933286614751E-008
   4100.0000000000500      ,   4120.0000000000509      ,   4.6140820899595436E-006 ,   5.4762402489948994E-011 ,   4.6028729936924572E-006 ,   4.2182514284662361E-008 ,   4.8814351644638399E-006 ,   3.8805288863831214E-008 ,   4.7697914715237939E-006 ,   7.2911235449828218E-008
   4120.0000000000509      ,   4140.0000000000518      ,   4.5616095700878537E-006 ,   5.5319487277478529E-011 ,   4.7526956117406343E-006 ,   1.5495123720328995E-007 ,   4.7736853728376593E-006 ,   2.4515094714433941E-008 ,   5.0599485957958508E-006 ,   3.1107103232197843E-007
   4140.0000000000518      ,   4160.0000000000528      ,   4.5197471112774833E-006 ,   5.5946500384271122E-011 ,   4.5752934342232336E-006 ,   4.2960209198466278E-008 ,   4.7775175348618932E-006 ,   3.8882819560019668E-008 ,   4.6801082671409555E-006 ,   5.7110090494106772E-008
   4160.0000000000528      ,   4180.0000000000537      ,   4.4862457332679598E-006 ,   5.6631932619097261E-011 ,   4.6983226556557993E-006 ,   9.7066914580901161E-008 ,   4.9456255090350966E-006 ,   1.5943050819523737E-007 ,   4.9510951038630881E-006 ,   1.9422318368317287E-007
   4180.0000000000537      ,   4200.0000000000546      ,   4.4597950063196642E-006 ,   5.7389035949448480E-011 ,   4.5952906864801992E-006 ,   4.1525196431478106E-008 ,   4.8612556340671716E-006 ,   7.1199427112412616E-008 ,   4.7948962596595495E-006 ,   6.8524254008085069E-008
   4200.0000000000546      ,   4220.0000000000555      ,   4.4395697049547222E-006 ,   5.8215274813862791E-011 ,   4.7849102695428274E-006 ,   1.5517103308865091E-007 ,   4.9293842812018452E-006 ,   1.0053443675237547E-007 ,   4.9985909808246473E-006 ,   1.8331845248227840E-007
   4220.0000000000555      ,   4240.0000000000564      ,   4.4248946929294819E-006 ,   5.9115015207289338E-011 ,   4.5317101241543057E-006 ,   2.9171615975694854E-008 ,   4.7802522019763930E-006 ,   6.4063563925762701E-008 ,   4.7019322137790633E-006 ,   4.7265920349850980E-008
   4240.0000000000564      ,   4260.0000000000573      ,   4.4150921122437080E-006 ,   6.0091158100119918E-011 ,   4.7492814086216958E-006 ,   1.3587241619053203E-007 ,   4.8943855588061852E-006 ,   1.2711642678008280E-007 ,   5.0173598860756773E-006 ,   2.8213015406222185E-007
   4260.0000000000573      ,   4280.0000000000582      ,   4.4100387415912273E-006 ,   6.1147223971281314E-011 ,   4.5616246777247029E-006 ,   4.2288682975360669E-008 ,   4.8436550468264226E-006 ,   4.5579575230205405E-008 ,   4.7155919514085514E-006 ,   7.2863436996372719E-008
   4280.0000000000582      ,   4300.0000000000591      ,   4.4091865082083064E-006 ,   6.2288390266769147E-011 ,   4.6088181492796516E-006 ,   4.8632678209862464E-008 ,   4.9192256822861041E-006 ,   6.9200624312873296E-008 ,   4.8417251686242357E-006 ,   9.6621890639527982E-008
   4300.0000000000591      ,   4320.0000000000600      ,   4.4121217849617973E-006 ,   6.3512151902620366E-011 ,   4.6035250897477547E-006 ,   3.5791809681858150E-008 ,   5.0806879744416422E-006 ,   7.1335007486602212E-008 ,   4.7378441120193552E-006 ,   2.9102367566035378E-008
   4320.0000000000600      ,   4340.0000000000609      ,   4.4187558347932307E-006 ,   6.4825934289688980E-011 ,   4.6372473859408491E-006 ,   3.3725362706880118E-008 ,   5.0654533501714136E-006 ,   6.3638980736676424E-008 ,   4.8432252456369100E-006 ,   5.5368595933371768E-008
   4340.0000000000609      ,   4360.0000000000618      ,   4.4295051867211855E-006 ,   6.6246703621792178E-011 ,   4.7440369237503619E-006 ,   5.5727739249430101E-008 ,   5.1411608336722288E-006 ,   2.3621311271108576E-007 ,   4.9449006611416540E-006 ,   7.2493749195479564E-008
   4360.0000000000618      ,   4380.0000000000628      ,   4.4442087655631050E-006 ,   6.7777503126162631E-011 ,   4.8031851324195192E-006 ,   8.3804371780182271E-008 ,   4.9637415527897222E-006 ,   4.3479902968991330E-008 ,   4.9829280007219153E-006 ,   1.4734767081291560E-007
   4380.0000000000628      ,   4400.0000000000637      ,   4.4635236580054377E-006 ,   6.9440310652989991E-011 ,   4.9233167102135004E-006 ,   9.0213259661615769E-008 ,   5.1461020522789567E-006 ,   9.7844600247511463E-008 ,   5.0628456383667498E-006 ,   1.0628178376781671E-007
   4400.0000000000637      ,   4420.0000000000646      ,   4.4875530648123173E-006 ,   7.1240892448405798E-011 ,   5.0627927047359630E-006 ,   2.2811484620242568E-007 ,   5.1043255771828400E-006 ,   5.7899913979036565E-008 ,   4.9968313321729717E-006 ,   6.4750129581529476E-008
   4420.0000000000646      ,   4440.0000000000655      ,   4.5168165718426129E-006 ,   7.3205503844123863E-011 ,   4.9557529120022983E-006 ,   6.8369182014350320E-008 ,   5.3148242756570828E-006 ,   9.6838359482519573E-008 ,   5.1583073323440378E-006 ,   9.1077962044759350E-008
   4440.0000000000655      ,   4460.0000000000664      ,   4.5517108042051342E-006 ,   7.5348859578475214E-011 ,   4.9686171627594510E-006 ,   6.4757707549289192E-008 ,   5.4605885249590651E-006 ,   1.2714215389759117E-007 ,   5.1941243897185019E-006 ,   1.2558372583296834E-007
   4460.0000000000664      ,   4480.0000000000673      ,   4.5929011624258029E-006 ,   7.7700083481204557E-011 ,   5.4031415024002036E-006 ,   2.8224652414972040E-007 ,   5.8528633568637220E-006 ,   3.2278420957479233E-007 ,   5.3740417306420307E-006 ,   1.8211620249986091E-007
   4480.0000000000673      ,   4500.0000000000682      ,   4.6408125234276681E-006 ,   8.0279714449543979E-011 ,   5.0556855083640023E-006 ,   4.3067699613374408E-008 ,   5.7119971510589222E-006 ,   1.6624070472120128E-007 ,   5.1861776698246880E-006 ,   4.4733008423016582E-008
   4500.0000000000682      ,   4520.0000000000691      ,   4.6964438044443642E-006 ,   8.3123216645376565E-011 ,   5.1632531004855819E-006 ,   5.2927740571293116E-008 ,   6.4557650985852950E-006 ,   5.5295397885806473E-008 ,   5.3107006399114821E-006 ,   7.1404892091451462E-008
   4520.0000000000691      ,   4540.0000000000700      ,   4.7603817972891433E-006 ,   8.6264828308866517E-011 ,   5.2662638831636199E-006 ,   4.6048327147365540E-008 ,   7.4672028090202549E-006 ,   5.4490353894339417E-008 ,   5.3376181218894900E-006 ,   4.6983794299047390E-008
   4540.0000000000700      ,   4560.0000000000709      ,   4.8340024592108523E-006 ,   8.9755901427769488E-011 ,   5.4338618052502754E-006 ,   7.8453310103956705E-008 ,   5.6420866610708936E-006 ,   7.8657300203129000E-008 ,   5.5850680361936137E-006 ,   1.1381187482656252E-007
   4560.0000000000709      ,   4580.0000000000719      ,   4.9187602440794606E-006 ,   9.3656521773827351E-011 ,   5.5214076382641448E-006 ,   1.5007072915751336E-007 ,   5.9776408867761960E-006 ,   1.6594860470094496E-007 ,   5.6182463952248353E-006 ,   1.4731807093430115E-007
   4580.0000000000719      ,   4600.0000000000728      ,   5.0160490237123466E-006 ,   9.8031413283218891E-011 ,   5.6064470830170008E-006 ,   6.1751880910344197E-008 ,   6.2870753078914969E-006 ,   4.3575227027050426E-007 ,   5.7888173431457162E-006 ,   8.6011976354133631E-008
   4600.0000000000728      ,   4620.0000000000737      ,   5.1279449782095119E-006 ,   1.0296671343849312E-010 ,   5.8349300853669918E-006 ,   8.0812350135123535E-008 ,   6.1299415060145664E-006 ,   1.1061722024640416E-007 ,   5.9186183703120418E-006 ,   7.5714284274185329E-008
   4620.0000000000737      ,   4640.0000000000746      ,   5.2570373557565028E-006 ,   1.0857643603353854E-010 ,   6.0038051387459470E-006 ,   1.1000685550165701E-007 ,   6.2464583095168617E-006 ,   1.2368927755165518E-007 ,   6.1678828864599014E-006 ,   9.5831356204645278E-008
   4640.0000000000746      ,   4660.0000000000755      ,   5.4065937787819140E-006 ,   1.1499589485787925E-010 ,   6.0761762664277385E-006 ,   8.0674865257939889E-008 ,   6.5732014544467722E-006 ,   2.2326297179971454E-007 ,   6.1676683511001400E-006 ,   6.8224205617700966E-008
   4660.0000000000755      ,   4680.0000000000764      ,   5.5808369296206172E-006 ,   1.2242467699746837E-010 ,   6.2079679612512298E-006 ,   3.6624091573551648E-008 ,   6.6446272018887948E-006 ,   7.8166459817421321E-008 ,   6.4290928973232701E-006 ,   4.8958819681452479E-008
   4680.0000000000764      ,   4700.0000000000773      ,   5.7854089473513104E-006 ,   1.3110139017914303E-010 ,   6.9658353718523269E-006 ,   2.1708358503004870E-007 ,   7.2253018144017512E-006 ,   2.1573840230796453E-007 ,   7.1006996810702212E-006 ,   2.2828611342284252E-007
   4700.0000000000773      ,   4720.0000000000782      ,   6.0296608633654016E-006 ,   1.4138454729785133E-010 ,   6.7585050537905631E-006 ,   6.4673509553163528E-008 ,   7.2555685570782174E-006 ,   1.8475338277336800E-007 ,   6.9854977012133442E-006 ,   6.5866921537946874E-008
   4720.0000000000782      ,   4740.0000000000791      ,   6.3218431515347968E-006 ,   1.5370309675295346E-010 ,   7.3097727793196824E-006 ,   1.5245032766958745E-007 ,   7.8079606506715224E-006 ,   1.6267611334276687E-007 ,   7.7532075120630361E-006 ,   3.1316555922022859E-007
   4740.0000000000791      ,   4760.0000000000800      ,   6.6733740673700860E-006 ,   1.6863544107839769E-010 ,   7.6022078337402625E-006 ,   1.4179662135637359E-007 ,   7.7238487653601146E-006 ,   6.9219362061464994E-008 ,   8.0289596169343703E-006 ,   2.7027579054989266E-007
   4760.0000000000800      ,   4780.0000000000809      ,   7.0977569156511360E-006 ,   1.8695310541929471E-010 ,   8.0657517170911162E-006 ,   1.1038660627090845E-007 ,   8.5779388063127720E-006 ,   4.0571161082317273E-007 ,   8.3539099903269875E-006 ,   1.9331667792845553E-007
   4780.0000000000809      ,   4800.0000000000819      ,   7.6171223307821839E-006 ,   2.0982282418973433E-010 ,   8.6690318995574342E-006 ,   1.5455375158922443E-007 ,   9.1087916165857843E-006 ,   1.5820646223752796E-007 ,   9.1052106658393585E-006 ,   3.1113523221636539E-007
   4800.0000000000819      ,   4820.0000000000828      ,   8.2595620086073361E-006 ,   2.3895674505001821E-010 ,   9.3050437008480312E-006 ,   1.2165737398617425E-007 ,   1.0169087854325150E-005 ,   3.5321948143895397E-007 ,   9.4625635962933346E-006 ,   9.1567478714411121E-008
   4820.0000000000828      ,   4840.0000000000837      ,   9.0710798526327578E-006 ,   2.7707987192094802E-010 ,   1.0003708009345137E-005 ,   1.4262342779682637E-007 ,   1.0891098130198225E-005 ,   4.5339469303304963E-007 ,   1.0405893916881699E-005 ,   2.7279098311617921E-007
   4840.0000000000837      ,   4860.0000000000846      ,   1.0120349235274544E-005 ,   3.2856004865257507E-010 ,   1.1090309452192265E-005 ,   1.3048754490767758E-007 ,   1.1746066078534070E-005 ,   1.9344305700739199E-007 ,   1.1220494751365979E-005 ,   1.1899324282369845E-007
   4860.0000000000846      ,   4880.0000000000855      ,   1.1519710261447141E-005 ,   4.0104762228469500E-010 ,   1.2518776152574759E-005 ,   1.2923638085235013E-007 ,   1.3573652127814857E-005 ,   4.6088237472237481E-007 ,   1.3111540264251365E-005 ,   2.2588008878546393E-007
   4880.0000000000855      ,   4900.0000000000864      ,   1.3468991897688621E-005 ,   5.0896070181419618E-010 ,   1.4606706385436773E-005 ,   1.9456971621384120E-007 ,   1.7764442478925053E-005 ,   2.7289399848379562E-006 ,   1.5136560054434346E-005 ,   2.9840975164542410E-007
   4900.0000000000864      ,   4920.0000000000873      ,   1.6351234202360325E-005 ,   6.8273746514316009E-010 ,   1.7667956130730618E-005 ,   4.9174788120537948E-007 ,   1.7965891387305103E-005 ,   4.3373447276457993E-007 ,   1.7535399256493454E-005 ,   2.0485693658049277E-007
   4920.0000000000873      ,   4940.0000000000882      ,   2.1016774380470904E-005 ,   9.9763484057476629E-010 ,   2.2243108919588752E-005 ,   4.1485294780890856E-007 ,   2.3035934011110294E-005 ,   4.1819821351303081E-007 ,   2.2205077850064935E-005 ,   3.8901833608853995E-007
   4940.0000000000882      ,   4960.0000000000891      ,   2.9794076837491197E-005 ,   2.2690646265941986E-009 ,   2.8839540865544605E-005 ,   2.5253700132501007E-007 ,   3.0008172725802890E-005 ,   4.2118127770629640E-007 ,   3.0167347986721765E-005 ,   4.4487815197462715E-007
   4960.0000000000891      ,   4980.0000000000900      ,   5.2392230981000639E-005 ,   5.8086608026718136E-009 ,   4.8543521173975693E-005 ,   8.1560482612452529E-007 ,   5.1984892127839317E-005 ,   1.4879323649557486E-006 ,   4.9208524279363664E-005 ,   1.0398864254239525E-006
   4980.0000000000900      ,   5000.0000000000909      ,   1.9600464906195501E-004 ,   1.7948535431097460E-007 ,   1.3104215498704934E-004 ,   8.6290754949325576E-007 ,   1.3789679004220853E-004 ,   2.7574423046014046E-006 ,   1.3297172052332567E-004 ,   1.0433412813228982E-006
