 # xl, xh, LO, dLO, NLOPSnovp, dNLOPSnovp, NLOPSvp, dNLOPSvp, NLOPSvplt, dNLOPSvplt
   1000.0000000000000      ,   1040.0000000000000      ,   4.7810066587742828E-006 ,   5.0013198374880055E-009 ,   4.5438706174203031E-006 ,   2.3207154538826354E-008 ,   4.7983797479114312E-006 ,   4.4714830952746212E-008 ,   4.7112777076966073E-006 ,   3.4697939155672924E-008
   1040.0000000000000      ,   1080.0000000000000      ,   4.8401662974239255E-006 ,   4.9611461344207414E-009 ,   4.7095179112796308E-006 ,   6.8371261122381482E-008 ,   4.9057846677489568E-006 ,   6.9677449074009196E-008 ,   4.8653683618271166E-006 ,   6.3764377420195263E-008
   1080.0000000000000      ,   1120.0000000000000      ,   4.8942723994127958E-006 ,   6.0713596973577245E-009 ,   4.7970202683331027E-006 ,   5.5125149636569397E-008 ,   4.8713356901455041E-006 ,   3.8843451888012203E-008 ,   5.0430612284482503E-006 ,   1.0325674158139612E-007
   1120.0000000000000      ,   1160.0000000000000      ,   4.9356928040650925E-006 ,   5.3873580633908453E-009 ,   4.7415660538077205E-006 ,   7.8815782698946851E-008 ,   5.0977410985906227E-006 ,   1.9449493895891193E-007 ,   4.9891951925850541E-006 ,   1.5862976413687645E-007
   1160.0000000000000      ,   1200.0000000000000      ,   4.9772832198015930E-006 ,   5.3883221217108541E-009 ,   4.8148008561298669E-006 ,   7.5098176516403700E-008 ,   5.2376335710714671E-006 ,   1.4612469730182021E-007 ,   5.0184338001449120E-006 ,   1.1891790167501278E-007
   1200.0000000000000      ,   1240.0000000000000      ,   5.0343018380370004E-006 ,   6.0629915388841600E-009 ,   4.8104530801899878E-006 ,   4.2970217225917220E-008 ,   5.0521289505007875E-006 ,   6.2081920370179365E-008 ,   5.0005883546217255E-006 ,   6.3683625841003098E-008
   1240.0000000000000      ,   1280.0000000000000      ,   5.0781137171669758E-006 ,   5.8209818901115120E-009 ,   4.8336399398354395E-006 ,   4.5632203856110808E-008 ,   5.1814032333320566E-006 ,   6.9602454207404073E-008 ,   4.9104042483693959E-006 ,   3.9715905464014081E-008
   1280.0000000000000      ,   1320.0000000000000      ,   5.1223855496495822E-006 ,   6.3383622820858296E-009 ,   4.8729493861998521E-006 ,   4.8107281898694726E-008 ,   5.5061362077148808E-006 ,   2.9823338379356069E-007 ,   5.0922160089544704E-006 ,   9.1568155853478229E-008
   1320.0000000000000      ,   1360.0000000000000      ,   5.1648872013559435E-006 ,   6.3622951411468397E-009 ,   4.9309913169118201E-006 ,   4.4620161700451659E-008 ,   5.1925010705556499E-006 ,   4.4879661076975737E-008 ,   5.0512771625503539E-006 ,   7.1588630565104080E-008
   1360.0000000000000      ,   1400.0000000000000      ,   5.2182841926260886E-006 ,   7.3641908331894916E-009 ,   4.9755832793386991E-006 ,   4.5906123037225064E-008 ,   5.2194982741443192E-006 ,   4.2750263477326793E-008 ,   5.1196739357936092E-006 ,   6.1846387673699471E-008
   1400.0000000000000      ,   1440.0000000000000      ,   5.2564530835909805E-006 ,   6.8160633213535500E-009 ,   5.1989601277809894E-006 ,   1.1388275082481712E-007 ,   5.4513263497411669E-006 ,   1.7040312011408658E-007 ,   5.3606894773128694E-006 ,   1.8772140358065400E-007
   1440.0000000000000      ,   1480.0000000000000      ,   5.2815695366423296E-006 ,   6.4358998987677507E-009 ,   5.2018160600426017E-006 ,   1.1355188265009466E-007 ,   5.4389111538023425E-006 ,   1.1194451482714130E-007 ,   5.5051723344546746E-006 ,   2.0679642694043461E-007
   1480.0000000000000      ,   1520.0000000000000      ,   5.3408446627452435E-006 ,   7.1019218747400899E-009 ,   5.0702726231365577E-006 ,   6.0618481592507916E-008 ,   5.3170267874834821E-006 ,   6.3009994469775799E-008 ,   5.2541527684242866E-006 ,   1.0984766796676521E-007
   1520.0000000000000      ,   1560.0000000000000      ,   5.3943617636498571E-006 ,   7.6714716289895912E-009 ,   5.3163639578043061E-006 ,   1.1398139892129915E-007 ,   5.4795406444061746E-006 ,   1.1719527506569515E-007 ,   5.5312200942225290E-006 ,   1.8438303397930596E-007
   1560.0000000000000      ,   1600.0000000000000      ,   5.4496517636231741E-006 ,   1.2549752528663662E-008 ,   5.2074830973116053E-006 ,   8.1992443670015492E-008 ,   5.2924665227587196E-006 ,   4.4010463478311260E-008 ,   5.3433836289311457E-006 ,   7.3212719931427308E-008
   1600.0000000000000      ,   1640.0000000000000      ,   5.4738712328397104E-006 ,   7.6205384036644624E-009 ,   5.1835738656611323E-006 ,   6.3218066889779701E-008 ,   5.4724342249382355E-006 ,   1.1217626210860280E-007 ,   5.2889721442398063E-006 ,   7.3066932027022052E-008
   1640.0000000000000      ,   1680.0000000000000      ,   5.5127923886788841E-006 ,   7.3722304890530103E-009 ,   5.4175742988692643E-006 ,   2.2155858673666004E-007 ,   5.6111127439599574E-006 ,   2.1003396858668432E-007 ,   5.3519057091915419E-006 ,   6.8869521093976046E-008
   1680.0000000000000      ,   1720.0000000000000      ,   5.5852799583403608E-006 ,   9.1478331731561727E-009 ,   5.2658743146623929E-006 ,   8.3970461205004176E-008 ,   5.5950606769285032E-006 ,   1.1033431413406850E-007 ,   5.4611983492112620E-006 ,   1.5243574608359700E-007
   1720.0000000000000      ,   1760.0000000000000      ,   5.6363418264311140E-006 ,   1.1087948578315477E-008 ,   5.3636958988948066E-006 ,   6.5047423403983827E-008 ,   5.5626570051871959E-006 ,   6.6660535504121860E-008 ,   5.6768561299728608E-006 ,   1.1912615274595816E-007
   1760.0000000000000      ,   1800.0000000000000      ,   5.6745710560257039E-006 ,   8.9513236186459406E-009 ,   5.2627135771742881E-006 ,   6.8387106145806891E-008 ,   5.5065821338217552E-006 ,   5.1631480742561811E-008 ,   5.5527295229771715E-006 ,   1.0685901170401274E-007
   1800.0000000000000      ,   1840.0000000000000      ,   5.7288232252741473E-006 ,   1.0713396246487557E-008 ,   5.3345483929737217E-006 ,   6.5536080239014656E-008 ,   6.4533736178624060E-006 ,   8.4960774102530056E-007 ,   5.5248807362720431E-006 ,   1.0701317778659245E-007
   1840.0000000000000      ,   1880.0000000000000      ,   5.8066822268421535E-006 ,   1.1255713998439725E-008 ,   5.3605339116501423E-006 ,   5.0391003301074488E-008 ,   5.5621326856580603E-006 ,   7.0194355806296291E-008 ,   5.5148667467537007E-006 ,   7.7103953504130229E-008
   1880.0000000000000      ,   1920.0000000000000      ,   5.8407695649930032E-006 ,   9.9681285639771677E-009 ,   5.3557843034988498E-006 ,   8.6811787976541709E-008 ,   5.5947048035563564E-006 ,   9.1380758056007379E-008 ,   5.4989632722930268E-006 ,   9.2921036318653597E-008
   1920.0000000000000      ,   1960.0000000000000      ,   5.9018355081523376E-006 ,   9.4914119464242705E-009 ,   5.4107135822195002E-006 ,   9.2664762728697362E-008 ,   6.4246047993079206E-006 ,   6.1135323787533218E-007 ,   5.7678240444834598E-006 ,   1.7803667993574281E-007
   1960.0000000000000      ,   2000.0000000000000      ,   5.9812975109512683E-006 ,   1.1977330592627961E-008 ,   5.5699094293745453E-006 ,   2.0821859325531984E-007 ,   5.6196090416547120E-006 ,   9.7230112199675775E-008 ,   5.5992534751077331E-006 ,   1.2758241142267939E-007
   2000.0000000000000      ,   2040.0000000000000      ,   5.3025153241583686E-006 ,   1.0714302870329743E-008 ,   4.7511986642013251E-006 ,   5.9712156135045251E-008 ,   5.1598273711007796E-006 ,   1.5053771940002426E-007 ,   4.9546875303782761E-006 ,   1.0271232026626404E-007
   2040.0000000000000      ,   2080.0000000000000      ,   5.0117980325142427E-006 ,   1.4312690410138764E-008 ,   4.7378474904053865E-006 ,   1.1423539974835682E-007 ,   5.1969908573869972E-006 ,   2.3918293408597962E-007 ,   4.9424464182386964E-006 ,   2.0861088988644675E-007
   2080.0000000000000      ,   2120.0000000000000      ,   4.8548515127395540E-006 ,   1.0820698052902650E-008 ,   4.4755808296275987E-006 ,   5.5946636172730447E-008 ,   4.5412426349804695E-006 ,   3.9719459367136158E-008 ,   4.5809832944375963E-006 ,   7.1977511113256654E-008
   2120.0000000000000      ,   2160.0000000000000      ,   4.7424016187223008E-006 ,   1.0729180221134037E-008 ,   4.4125813318765241E-006 ,   5.4569111779612218E-008 ,   4.6531077946027339E-006 ,   9.6601744456869936E-008 ,   4.5222723276780092E-006 ,   6.5710133050303080E-008
   2160.0000000000000      ,   2200.0000000000000      ,   4.6586172269399171E-006 ,   1.1519227450552237E-008 ,   4.4788772139657055E-006 ,   8.2341707801756898E-008 ,   5.3080230070042987E-006 ,   6.0961787290035440E-007 ,   4.5806077216915585E-006 ,   9.5616629269702920E-008
   2200.0000000000000      ,   2240.0000000000000      ,   4.6259030451442404E-006 ,   1.2353594871522862E-008 ,   4.2854154504443200E-006 ,   7.1427926426711527E-008 ,   4.6386013650924339E-006 ,   1.5254294209621330E-007 ,   4.4733196024259379E-006 ,   9.8305981321922989E-008
   2240.0000000000000      ,   2280.0000000000000      ,   4.5619193643477162E-006 ,   1.2089352758302454E-008 ,   4.4162647984718473E-006 ,   1.0074566229095646E-007 ,   4.4641615098571664E-006 ,   9.4152378444631936E-008 ,   4.3682943578249151E-006 ,   7.8231639689009564E-008
   2280.0000000000000      ,   2320.0000000000000      ,   4.5272778066028647E-006 ,   1.1828852594195461E-008 ,   4.2324985426209477E-006 ,   6.2458744671207319E-008 ,   5.0820235398634211E-006 ,   6.6451057000666516E-007 ,   4.2322499762628749E-006 ,   5.5444504446747926E-008
   2320.0000000000000      ,   2360.0000000000000      ,   4.4948875624899818E-006 ,   1.4449983276235096E-008 ,   4.3624477660635196E-006 ,   1.8774960007454131E-007 ,   4.5361690986628730E-006 ,   1.8568582922585490E-007 ,   4.2894299965620300E-006 ,   1.0853963698621708E-007
   2360.0000000000000      ,   2400.0000000000000      ,   4.4526007430559137E-006 ,   2.0026175969776273E-008 ,   4.2582150424472769E-006 ,   7.0083979665407521E-008 ,   4.3721398441798252E-006 ,   6.3978504590736852E-008 ,   4.4746579884086470E-006 ,   1.1494564430833805E-007
   2400.0000000000000      ,   2440.0000000000000      ,   4.3958444695671027E-006 ,   1.1509148108703819E-008 ,   4.2753939433386611E-006 ,   9.6602806916419576E-008 ,   4.4084669150236159E-006 ,   7.8966803030454999E-008 ,   4.4882148105705951E-006 ,   1.8286847333937128E-007
   2440.0000000000000      ,   2480.0000000000000      ,   4.3891324268672971E-006 ,   2.2088569587304970E-008 ,   4.2279473434688659E-006 ,   9.2933103470805706E-008 ,   4.3345035999170680E-006 ,   6.2282935379812596E-008 ,   4.2434354962675090E-006 ,   9.2441024263984536E-008
   2480.0000000000000      ,   2520.0000000000000      ,   4.3607184655218095E-006 ,   1.2787779618956621E-008 ,   4.2658501338751108E-006 ,   9.8078959055977970E-008 ,   4.2999539062941388E-006 ,   6.2113930257473366E-008 ,   4.3198405257965761E-006 ,   1.0940882451307301E-007
   2520.0000000000000      ,   2560.0000000000000      ,   4.3898634058221482E-006 ,   2.0380528910616009E-008 ,   4.0859124794748536E-006 ,   6.6197595989484429E-008 ,   4.4401315768301434E-006 ,   1.2122600463993526E-007 ,   4.1004887026008757E-006 ,   6.6661354503972749E-008
   2560.0000000000000      ,   2600.0000000000000      ,   4.3430457296670790E-006 ,   1.6678081258225195E-008 ,   4.1697795076658608E-006 ,   7.5019691075846093E-008 ,   4.3851405083971531E-006 ,   1.2304067939004472E-007 ,   4.2290271034888103E-006 ,   9.3351319725716487E-008
   2600.0000000000000      ,   2640.0000000000000      ,   4.3088174062601441E-006 ,   1.2220531090817680E-008 ,   4.0718409653914749E-006 ,   7.4644729851459251E-008 ,   4.7722985013186584E-006 ,   3.8861548374410729E-007 ,   4.0345402268830142E-006 ,   5.4902636315248056E-008
   2640.0000000000000      ,   2680.0000000000000      ,   4.3000516224300265E-006 ,   1.3980490534170059E-008 ,   4.1513346508506816E-006 ,   1.0703216668013114E-007 ,   4.2603050426534723E-006 ,   5.5353046127604006E-008 ,   4.1929037577146426E-006 ,   9.4972534985463743E-008
   2680.0000000000000      ,   2720.0000000000000      ,   4.2708271137325414E-006 ,   1.3558336755640578E-008 ,   4.2720097323804068E-006 ,   1.5850300724348740E-007 ,   4.3806461594278053E-006 ,   1.1064087673033125E-007 ,   4.0493756848755788E-006 ,   6.1504419731946214E-008
   2720.0000000000000      ,   2760.0000000000000      ,   4.2807247420468720E-006 ,   1.3802609063004136E-008 ,   4.0409030301003657E-006 ,   6.0208652328914939E-008 ,   4.4257631768175463E-006 ,   1.8384805523659926E-007 ,   4.1271096288568260E-006 ,   8.6558814769391976E-008
   2760.0000000000000      ,   2800.0000000000000      ,   4.2920929883977357E-006 ,   1.2781744043906384E-008 ,   4.0882084107895049E-006 ,   1.0223334162763408E-007 ,   4.2575002082898778E-006 ,   9.4670150628038907E-008 ,   4.0882135069878926E-006 ,   7.3323114927032209E-008
   2800.0000000000000      ,   2840.0000000000000      ,   4.2582301262894858E-006 ,   1.1381830139056139E-008 ,   4.0689210531032170E-006 ,   1.2822465923473446E-007 ,   4.1976943414942346E-006 ,   6.7765745443368968E-008 ,   4.0018020110889107E-006 ,   5.4962869193945242E-008
   2840.0000000000000      ,   2880.0000000000000      ,   4.2484166620354131E-006 ,   1.0944824026575741E-008 ,   3.9830140621878908E-006 ,   6.0173075263227730E-008 ,   4.3018815770535052E-006 ,   7.3141915256030283E-008 ,   4.1469799025840932E-006 ,   1.0247815380359788E-007
   2880.0000000000000      ,   2920.0000000000000      ,   4.2484166411941370E-006 ,   1.1715570003786915E-008 ,   3.9355895127488459E-006 ,   5.3283504814120585E-008 ,   4.0612353530242480E-006 ,   4.1189230241920961E-008 ,   4.1206908379382913E-006 ,   9.8139627945788427E-008
   2920.0000000000000      ,   2960.0000000000000      ,   4.2523513793904213E-006 ,   1.0686109076474997E-008 ,   4.1038475151756959E-006 ,   1.0796447032244208E-007 ,   4.2448753269301602E-006 ,   1.0230678210137953E-007 ,   4.0773692525766609E-006 ,   8.2868867394775474E-008
   2960.0000000000000      ,   3000.0000000000000      ,   4.2413909558179010E-006 ,   1.2335929181229549E-008 ,   3.9817093721587628E-006 ,   7.2590148067880755E-008 ,   4.2310111549827380E-006 ,   6.4486797201726023E-008 ,   4.1072671774994262E-006 ,   1.0520387682906817E-007
   3000.0000000000000      ,   3040.0000000000000      ,   4.2476251703389523E-006 ,   9.7991321805867077E-009 ,   4.2233485129993927E-006 ,   7.2200745405711842E-008 ,   4.5185446627169325E-006 ,   1.9228896694302173E-007 ,   4.3630790555516384E-006 ,   1.2874786524486295E-007
   3040.0000000000000      ,   3080.0000000000000      ,   4.2699570133278632E-006 ,   1.0404551867606293E-008 ,   3.9649947160556018E-006 ,   4.7119926749325312E-008 ,   4.4162482131290536E-006 ,   2.2553027713070521E-007 ,   4.0909077933292246E-006 ,   5.6306398997456049E-008
   3080.0000000000000      ,   3120.0000000000000      ,   4.2537134465563773E-006 ,   9.6196267676296181E-009 ,   4.1699024505569062E-006 ,   1.3543697557090157E-007 ,   4.3003583755851632E-006 ,   1.2635520885941515E-007 ,   4.1406476732186627E-006 ,   6.1817814425386992E-008
   3120.0000000000000      ,   3160.0000000000000      ,   4.2895248867397351E-006 ,   1.1858029753613449E-008 ,   4.0744229388555468E-006 ,   5.6795601173073213E-008 ,   4.1323637833634356E-006 ,   3.6651477338017482E-008 ,   4.1931177748816495E-006 ,   8.4120953869729742E-008
   3160.0000000000000      ,   3200.0000000000000      ,   4.2758590637748643E-006 ,   1.0317460512990890E-008 ,   3.9875145721717913E-006 ,   5.3212097827328461E-008 ,   4.5541433950405442E-006 ,   2.0010826138328858E-007 ,   4.1868832939254478E-006 ,   9.9000466651550352E-008
   3200.0000000000000      ,   3240.0000000000000      ,   4.2825842864298686E-006 ,   1.1773081091852901E-008 ,   4.4366246172980055E-006 ,   2.7315787425572646E-007 ,   4.6340107988446939E-006 ,   2.5146863166573653E-007 ,   4.2525337128361992E-006 ,   9.8306654990184278E-008
   3240.0000000000000      ,   3280.0000000000000      ,   4.2966256040034836E-006 ,   8.7002861417542215E-009 ,   4.0345885750053635E-006 ,   4.7101691688959610E-008 ,   4.3741084359229741E-006 ,   8.8669163895117228E-008 ,   4.1107136920828843E-006 ,   5.8271736168533526E-008
   3280.0000000000000      ,   3320.0000000000000      ,   4.3292861629406324E-006 ,   8.6504096873498587E-009 ,   4.1173718037459261E-006 ,   5.2241156673683685E-008 ,   4.6413269606744012E-006 ,   2.2037691825563553E-007 ,   4.1368732018400583E-006 ,   5.2925236849193558E-008
   3320.0000000000000      ,   3360.0000000000000      ,   4.3496725743078887E-006 ,   9.2603994812166869E-009 ,   4.0989420151604326E-006 ,   5.9323784065822513E-008 ,   4.3118822094947777E-006 ,   5.0093068026991273E-008 ,   4.2321640113489343E-006 ,   8.1008277492104972E-008
   3360.0000000000000      ,   3400.0000000000000      ,   4.3589866880476322E-006 ,   7.8133354454947414E-009 ,   4.0887264010191665E-006 ,   4.2183003225747488E-008 ,   5.6750594835090522E-006 ,   1.3586088889682237E-006 ,   4.1884973078125683E-006 ,   5.3440723622549155E-008
   3400.0000000000000      ,   3440.0000000000000      ,   4.3730571192301927E-006 ,   7.9850014858733968E-009 ,   4.1632956370208097E-006 ,   8.4561102914447570E-008 ,   4.3767824143422726E-006 ,   8.7451439253309078E-008 ,   4.3518285065081209E-006 ,   1.4191853330623197E-007
   3440.0000000000000      ,   3480.0000000000000      ,   4.4012546318660090E-006 ,   7.6646450035882967E-009 ,   4.1738117756473642E-006 ,   4.5474341041933174E-008 ,   4.5141553548975317E-006 ,   1.0949113886303318E-007 ,   4.3809421453202561E-006 ,   8.0483221973693080E-008
   3480.0000000000000      ,   3520.0000000000000      ,   4.4168594403987393E-006 ,   7.7901935526573858E-009 ,   4.2373698302780948E-006 ,   6.2216129475222512E-008 ,   4.4309505461191491E-006 ,   5.3317016284091924E-008 ,   4.2907992143042004E-006 ,   6.4466620816564129E-008
   3520.0000000000000      ,   3560.0000000000000      ,   4.4420798090608866E-006 ,   7.0515439047946096E-009 ,   4.1966967532498150E-006 ,   4.4820651838611169E-008 ,   4.3791365471818019E-006 ,   5.4413960979064328E-008 ,   4.3185407531175361E-006 ,   5.5573107538916092E-008
   3560.0000000000000      ,   3600.0000000000000      ,   4.4649577141206354E-006 ,   7.9588519671140561E-009 ,   4.1753301728610965E-006 ,   4.2956081747370601E-008 ,   4.4050545066812096E-006 ,   7.5182440227208765E-008 ,   4.2843058193861300E-006 ,   5.5361585626424870E-008
   3600.0000000000000      ,   3640.0000000000000      ,   4.4925490089386629E-006 ,   6.4570835237709305E-009 ,   4.1672719111242616E-006 ,   3.5999684545732273E-008 ,   4.4144701525871844E-006 ,   5.2544677782172476E-008 ,   4.3914612418826351E-006 ,   6.4358667227185113E-008
   3640.0000000000000      ,   3680.0000000000000      ,   4.5375553287636791E-006 ,   7.1330573139762001E-009 ,   4.2530623601951859E-006 ,   5.7982981169499863E-008 ,   4.5500888878012990E-006 ,   1.7250721817251408E-007 ,   4.4996003720495101E-006 ,   1.1356972511166152E-007
   3680.0000000000000      ,   3720.0000000000000      ,   4.5572633032177416E-006 ,   6.4688432974450397E-009 ,   4.1620359221064151E-006 ,   3.4034457886966629E-008 ,   4.3647959530185934E-006 ,   3.4458933875967447E-008 ,   4.3106721094951861E-006 ,   4.9632474176506965E-008
   3720.0000000000000      ,   3760.0000000000000      ,   4.5916369390078847E-006 ,   6.3956419693635320E-009 ,   4.1470264742338060E-006 ,   3.8901457251502759E-008 ,   4.3999661208239557E-006 ,   4.3777207992306270E-008 ,   4.2813070715584072E-006 ,   7.5849283229154825E-008
   3760.0000000000000      ,   3800.0000000000000      ,   4.6059067057270333E-006 ,   5.6752446312101670E-009 ,   4.2260673843832370E-006 ,   5.2403725794165391E-008 ,   5.2733215375579470E-006 ,   9.2096040885466525E-007 ,   4.3793384210585462E-006 ,   5.4510321530671465E-008
   3800.0000000000000      ,   3840.0000000000000      ,   4.6602488767972974E-006 ,   5.6812080728365044E-009 ,   4.2422845327915949E-006 ,   5.1934706838928225E-008 ,   4.4468049892267140E-006 ,   5.6286825617513687E-008 ,   4.2571276172818451E-006 ,   3.2410164034679471E-008
   3840.0000000000000      ,   3880.0000000000000      ,   4.6884637572447169E-006 ,   5.5311364212224780E-009 ,   4.4292395259348838E-006 ,   2.1209779247487974E-007 ,   4.4916781038762255E-006 ,   8.7960081492733032E-008 ,   4.9068791232570205E-006 ,   4.5112206759855156E-007
   3880.0000000000000      ,   3920.0000000000000      ,   4.7296028800572330E-006 ,   5.4866781639799634E-009 ,   4.2032013470913353E-006 ,   4.4467907280315090E-008 ,   4.3332052892372077E-006 ,   2.8883916409441806E-008 ,   4.3105322122400000E-006 ,   4.8825350680826747E-008
   3920.0000000000000      ,   3960.0000000000000      ,   4.7592564208835047E-006 ,   5.0727027772379431E-009 ,   4.1427389002828389E-006 ,   5.2486174911121260E-008 ,   4.3959931870820909E-006 ,   5.4078114774454346E-008 ,   4.3957033192289403E-006 ,   1.0618256362060530E-007
   3960.0000000000000      ,   4000.0000000000000      ,   4.7696778529837212E-006 ,   4.6932066347308720E-009 ,   3.9375835071112855E-006 ,   2.7565939446956979E-008 ,   4.1354416454743101E-006 ,   2.7233605036056976E-008 ,   4.0639817598337879E-006 ,   2.8064901314155793E-008
   4000.0000000000000      ,   4040.0000000000000      ,   3.5025392512645823E-006 ,   5.6781027948650120E-010 ,   2.9143837685740617E-006 ,   1.8662135225231766E-009 ,   3.0740866364928937E-006 ,   2.0502041770551041E-009 ,   3.0273679443223475E-006 ,   2.8197970291003608E-009
   4040.0000000000000      ,   4080.0000000000000      ,   2.9562748254686261E-006 ,   1.0921069140979698E-010 ,   2.5261822111316370E-006 ,   3.8774712068662119E-010 ,   2.6707987417040952E-006 ,   5.5641191750899575E-010 ,   2.6246566291972716E-006 ,   5.7733449878847736E-010
   4080.0000000000000      ,   4120.0000000000000      ,   2.7294087068309216E-006 ,   6.9232984699526307E-011 ,   2.3564673924650229E-006 ,   2.5660739167856190E-010 ,   2.4937087664463853E-006 ,   4.4266871474558411E-010 ,   2.4489077206405030E-006 ,   3.8201251463275843E-010
   4120.0000000000000      ,   4160.0000000000000      ,   2.5892655853905854E-006 ,   5.3489744775331105E-011 ,   2.2484351981684422E-006 ,   2.0265913232527370E-010 ,   2.3809151811579905E-006 ,   4.4943987051052036E-010 ,   2.3368631607644225E-006 ,   3.0137563109933908E-010
   4160.0000000000000      ,   4200.0000000000000      ,   2.4904811740674622E-006 ,   4.4955760089050149E-011 ,   2.1716024013262316E-006 ,   1.7299796521627444E-010 ,   2.2994944171292565E-006 ,   4.2079855905185315E-010 ,   2.2580732206776499E-006 ,   2.5739304951022958E-010
   4200.0000000000000      ,   4240.0000000000000      ,   2.4159689558257106E-006 ,   3.9647614772365472E-011 ,   2.1129592901545207E-006 ,   1.5456695331572239E-010 ,   2.2368836831415146E-006 ,   3.9415821248664110E-010 ,   2.1973270722061501E-006 ,   2.2960250962733883E-010
   4240.0000000000000      ,   4280.0000000000000      ,   2.3569071425654014E-006 ,   3.6023546510118310E-011 ,   2.0659582649633230E-006 ,   1.4100650811479764E-010 ,   2.1870640320071343E-006 ,   3.9005664362337039E-010 ,   2.1490637571385119E-006 ,   2.1043643909650622E-010
   4280.0000000000000      ,   4320.0000000000000      ,   2.3081091903417918E-006 ,   3.3350085445418003E-011 ,   2.0272536101590462E-006 ,   1.3135737510017671E-010 ,   2.1456285099161566E-006 ,   3.7944166246207682E-010 ,   2.1090992089561506E-006 ,   1.9553697688365845E-010
   4320.0000000000000      ,   4360.0000000000000      ,   2.2662314294614411E-006 ,   3.1254381027253221E-011 ,   1.9943271658199206E-006 ,   1.2367154113027415E-010 ,   2.1094038865120708E-006 ,   3.3237583920733848E-010 ,   2.0756201417195144E-006 ,   1.8443330318033269E-010
   4360.0000000000000      ,   4400.0000000000000      ,   2.2300486848867616E-006 ,   2.9556112838618889E-011 ,   1.9671074103927943E-006 ,   1.1840503845382944E-010 ,   2.0796543880896676E-006 ,   3.4369282033803654E-010 ,   2.0475896798035476E-006 ,   1.7485066627408527E-010
   4400.0000000000000      ,   4440.0000000000000      ,   2.1998189144991619E-006 ,   2.8167343027707858E-011 ,   1.9453161726561935E-006 ,   1.1190271235607748E-010 ,   2.0547219537344215E-006 ,   2.9098545280269382E-010 ,   2.0255501427256098E-006 ,   1.6704492668975819E-010
   4440.0000000000000      ,   4480.0000000000000      ,   2.1758718396249784E-006 ,   2.7015619212963719E-011 ,   1.9293429907987099E-006 ,   1.0751582183306488E-010 ,   2.0352373080097420E-006 ,   2.5843396696733151E-010 ,   2.0095529011265712E-006 ,   1.6062244982732113E-010
   4480.0000000000000      ,   4520.0000000000000      ,   2.1586669516228981E-006 ,   2.6056258632999763E-011 ,   1.9199543453356911E-006 ,   1.0410438054515686E-010 ,   2.0198847449512892E-006 ,   1.1579650412281272E-010 ,   2.0005425359819043E-006 ,   1.5507692110895093E-010
   4520.0000000000000      ,   4560.0000000000000      ,   2.1492869480185254E-006 ,   2.5254737464660629E-011 ,   1.9182585055018260E-006 ,   1.0067893947759070E-010 ,   2.0184473142415877E-006 ,   1.1253173496403729E-010 ,   1.9990787691640411E-006 ,   1.5056517408887520E-010
   4560.0000000000000      ,   4600.0000000000000      ,   2.1491383452737127E-006 ,   2.4585361619768286E-011 ,   1.9253399067888576E-006 ,   9.7982339219252551E-011 ,   2.0251020252635335E-006 ,   1.0843319587386893E-010 ,   2.0069266980759088E-006 ,   1.4646951344352303E-010
   4600.0000000000000      ,   4640.0000000000000      ,   2.1606241407473346E-006 ,   2.4032730689660733E-011 ,   1.9432938726001062E-006 ,   9.5661729950223992E-011 ,   2.0432082920485894E-006 ,   1.2759879526237555E-010 ,   2.0262757173309259E-006 ,   1.4304388903137785E-010
   4640.0000000000000      ,   4680.0000000000000      ,   2.1874506139498252E-006 ,   2.3593399586578178E-011 ,   1.9757205277501413E-006 ,   9.3816152781879246E-011 ,   2.0762721850889784E-006 ,   1.0423326023647710E-010 ,   2.0603181907052639E-006 ,   1.4029237298652014E-010
   4680.0000000000000      ,   4720.0000000000000      ,   2.2357611766897199E-006 ,   2.3272723095868284E-011 ,   2.0274002116412301E-006 ,   9.2688755722883468E-011 ,   2.1298653435169928E-006 ,   1.0247675916639947E-010 ,   2.1148846714357149E-006 ,   1.3844422213761776E-010
   4720.0000000000000      ,   4760.0000000000000      ,   2.3157855020774227E-006 ,   2.3080617157282006E-011 ,   2.1077356939784772E-006 ,   9.3573101476184181E-011 ,   2.2132305255858346E-006 ,   1.0273043723270129E-010 ,   2.1987589555676250E-006 ,   1.3798841106224102E-010
   4760.0000000000000      ,   4800.0000000000000      ,   2.4427248280176896E-006 ,   2.3015527366528361E-011 ,   2.2299344608713416E-006 ,   9.0365601781791358E-011 ,   2.3408776586084737E-006 ,   9.9282335260991137E-011 ,   2.3263801274802150E-006 ,   1.3542862504617283E-010
   4800.0000000000000      ,   4840.0000000000000      ,   2.6460867687269176E-006 ,   2.3082551439381764E-011 ,   2.4192763908500318E-006 ,   8.9627356502919638E-011 ,   2.5390693882695745E-006 ,   9.7504408846931939E-011 ,   2.5241603738098576E-006 ,   1.3413261900078187E-010
   4840.0000000000000      ,   4880.0000000000000      ,   2.9910478453671749E-006 ,   2.3301040513768873E-011 ,   2.7284327576347014E-006 ,   8.9495232429523939E-011 ,   2.8626317217684026E-006 ,   9.6929731708939359E-011 ,   2.8466177539656094E-006 ,   1.3416512615896305E-010
   4880.0000000000000      ,   4920.0000000000000      ,   3.6526561120270223E-006 ,   2.3723871171042008E-011 ,   3.2906767128542403E-006 ,   9.7811438292899846E-011 ,   3.4506512108311486E-006 ,   1.0415994536273197E-010 ,   3.4330659294320141E-006 ,   1.3345226453631364E-010
   4920.0000000000000      ,   4960.0000000000000      ,   5.3182594162282099E-006 ,   2.4503584073653442E-011 ,   4.5854760303931733E-006 ,   9.7699443188378731E-011 ,   4.8029901316955795E-006 ,   9.5313750031738905E-011 ,   4.7839795278135576E-006 ,   1.3299215209075991E-010
   4960.0000000000000      ,   5000.0000000000000      ,   1.7700965301562852E-005 ,   2.6128766267879003E-011 ,   1.1250713614507517E-005 ,   8.5585099665600528E-011 ,   1.1727404203029850E-005 ,   9.1285059270231156E-011 ,   1.1738118891731975E-005 ,   1.2803581877740360E-010
