 # xl, xh, LO, dLO
   8000.0000000000000      ,   8003.3333333333330      ,   0.0000000000000000      ,   0.0000000000000000     
   8003.3333333333330      ,   8006.6666666666661      ,   0.0000000000000000      ,   0.0000000000000000     
   8006.6666666666661      ,   8009.9999999999991      ,   0.0000000000000000      ,   0.0000000000000000     
   8009.9999999999991      ,   8013.3333333333321      ,   0.0000000000000000      ,   0.0000000000000000     
   8013.3333333333321      ,   8016.6666666666652      ,   0.0000000000000000      ,   0.0000000000000000     
   8016.6666666666652      ,   8019.9999999999982      ,   0.0000000000000000      ,   0.0000000000000000     
   8019.9999999999982      ,   8023.3333333333312      ,   0.0000000000000000      ,   0.0000000000000000     
   8023.3333333333312      ,   8026.6666666666642      ,   0.0000000000000000      ,   0.0000000000000000     
   8026.6666666666642      ,   8029.9999999999973      ,   0.0000000000000000      ,   0.0000000000000000     
   8029.9999999999973      ,   8033.3333333333303      ,   0.0000000000000000      ,   0.0000000000000000     
   8033.3333333333303      ,   8036.6666666666633      ,   0.0000000000000000      ,   0.0000000000000000     
   8036.6666666666633      ,   8039.9999999999964      ,   0.0000000000000000      ,   0.0000000000000000     
   8039.9999999999964      ,   8043.3333333333294      ,   0.0000000000000000      ,   0.0000000000000000     
   8043.3333333333294      ,   8046.6666666666624      ,   0.0000000000000000      ,   0.0000000000000000     
   8046.6666666666624      ,   8049.9999999999955      ,   0.0000000000000000      ,   0.0000000000000000     
   8049.9999999999955      ,   8053.3333333333285      ,   0.0000000000000000      ,   0.0000000000000000     
   8053.3333333333285      ,   8056.6666666666615      ,   0.0000000000000000      ,   0.0000000000000000     
   8056.6666666666615      ,   8059.9999999999945      ,   0.0000000000000000      ,   0.0000000000000000     
   8059.9999999999945      ,   8063.3333333333276      ,   0.0000000000000000      ,   0.0000000000000000     
   8063.3333333333276      ,   8066.6666666666606      ,   0.0000000000000000      ,   0.0000000000000000     
   8066.6666666666606      ,   8069.9999999999936      ,   0.0000000000000000      ,   0.0000000000000000     
   8069.9999999999936      ,   8073.3333333333267      ,   0.0000000000000000      ,   0.0000000000000000     
   8073.3333333333267      ,   8076.6666666666597      ,   0.0000000000000000      ,   0.0000000000000000     
   8076.6666666666597      ,   8079.9999999999927      ,   0.0000000000000000      ,   0.0000000000000000     
   8079.9999999999927      ,   8083.3333333333258      ,   0.0000000000000000      ,   0.0000000000000000     
   8083.3333333333258      ,   8086.6666666666588      ,   0.0000000000000000      ,   0.0000000000000000     
   8086.6666666666588      ,   8089.9999999999918      ,   0.0000000000000000      ,   0.0000000000000000     
   8089.9999999999918      ,   8093.3333333333248      ,   0.0000000000000000      ,   0.0000000000000000     
   8093.3333333333248      ,   8096.6666666666579      ,   0.0000000000000000      ,   0.0000000000000000     
   8096.6666666666579      ,   8099.9999999999909      ,   0.0000000000000000      ,   0.0000000000000000     
   8099.9999999999909      ,   8103.3333333333239      ,   0.0000000000000000      ,   0.0000000000000000     
   8103.3333333333239      ,   8106.6666666666570      ,   0.0000000000000000      ,   0.0000000000000000     
   8106.6666666666570      ,   8109.9999999999900      ,   0.0000000000000000      ,   0.0000000000000000     
   8109.9999999999900      ,   8113.3333333333230      ,   0.0000000000000000      ,   0.0000000000000000     
   8113.3333333333230      ,   8116.6666666666561      ,   0.0000000000000000      ,   0.0000000000000000     
   8116.6666666666561      ,   8119.9999999999891      ,   0.0000000000000000      ,   0.0000000000000000     
   8119.9999999999891      ,   8123.3333333333221      ,   0.0000000000000000      ,   0.0000000000000000     
   8123.3333333333221      ,   8126.6666666666551      ,   0.0000000000000000      ,   0.0000000000000000     
   8126.6666666666551      ,   8129.9999999999882      ,   0.0000000000000000      ,   0.0000000000000000     
   8129.9999999999882      ,   8133.3333333333212      ,   0.0000000000000000      ,   0.0000000000000000     
   8133.3333333333212      ,   8136.6666666666542      ,   0.0000000000000000      ,   0.0000000000000000     
   8136.6666666666542      ,   8139.9999999999873      ,   0.0000000000000000      ,   0.0000000000000000     
   8139.9999999999873      ,   8143.3333333333203      ,   0.0000000000000000      ,   0.0000000000000000     
   8143.3333333333203      ,   8146.6666666666533      ,   0.0000000000000000      ,   0.0000000000000000     
   8146.6666666666533      ,   8149.9999999999864      ,   0.0000000000000000      ,   0.0000000000000000     
   8149.9999999999864      ,   8153.3333333333194      ,   0.0000000000000000      ,   0.0000000000000000     
   8153.3333333333194      ,   8156.6666666666524      ,   0.0000000000000000      ,   0.0000000000000000     
   8156.6666666666524      ,   8159.9999999999854      ,   0.0000000000000000      ,   0.0000000000000000     
   8159.9999999999854      ,   8163.3333333333185      ,   0.0000000000000000      ,   0.0000000000000000     
   8163.3333333333185      ,   8166.6666666666515      ,   0.0000000000000000      ,   0.0000000000000000     
   8166.6666666666515      ,   8169.9999999999845      ,   0.0000000000000000      ,   0.0000000000000000     
   8169.9999999999845      ,   8173.3333333333176      ,   0.0000000000000000      ,   0.0000000000000000     
   8173.3333333333176      ,   8176.6666666666506      ,   0.0000000000000000      ,   0.0000000000000000     
   8176.6666666666506      ,   8179.9999999999836      ,   0.0000000000000000      ,   0.0000000000000000     
   8179.9999999999836      ,   8183.3333333333167      ,   0.0000000000000000      ,   0.0000000000000000     
   8183.3333333333167      ,   8186.6666666666497      ,   0.0000000000000000      ,   0.0000000000000000     
   8186.6666666666497      ,   8189.9999999999827      ,   0.0000000000000000      ,   0.0000000000000000     
   8189.9999999999827      ,   8193.3333333333157      ,   0.0000000000000000      ,   0.0000000000000000     
   8193.3333333333157      ,   8196.6666666666497      ,   0.0000000000000000      ,   0.0000000000000000     
   8196.6666666666497      ,   8199.9999999999818      ,   0.0000000000000000      ,   0.0000000000000000     
   8199.9999999999836      ,   8203.3333333333176      ,   0.0000000000000000      ,   0.0000000000000000     
   8203.3333333333176      ,   8206.6666666666497      ,   0.0000000000000000      ,   0.0000000000000000     
   8206.6666666666515      ,   8209.9999999999854      ,   0.0000000000000000      ,   0.0000000000000000     
   8209.9999999999854      ,   8213.3333333333176      ,   0.0000000000000000      ,   0.0000000000000000     
   8213.3333333333194      ,   8216.6666666666533      ,   0.0000000000000000      ,   0.0000000000000000     
   8216.6666666666533      ,   8219.9999999999854      ,   0.0000000000000000      ,   0.0000000000000000     
   8219.9999999999873      ,   8223.3333333333212      ,   0.0000000000000000      ,   0.0000000000000000     
   8223.3333333333212      ,   8226.6666666666533      ,   0.0000000000000000      ,   0.0000000000000000     
   8226.6666666666551      ,   8229.9999999999891      ,   0.0000000000000000      ,   0.0000000000000000     
   8229.9999999999891      ,   8233.3333333333212      ,   0.0000000000000000      ,   0.0000000000000000     
   8233.3333333333230      ,   8236.6666666666570      ,   0.0000000000000000      ,   0.0000000000000000     
   8236.6666666666570      ,   8239.9999999999891      ,   0.0000000000000000      ,   0.0000000000000000     
   8239.9999999999909      ,   8243.3333333333248      ,   0.0000000000000000      ,   0.0000000000000000     
   8243.3333333333248      ,   8246.6666666666570      ,   0.0000000000000000      ,   0.0000000000000000     
   8246.6666666666588      ,   8249.9999999999927      ,   0.0000000000000000      ,   0.0000000000000000     
   8249.9999999999927      ,   8253.3333333333248      ,   0.0000000000000000      ,   0.0000000000000000     
   8253.3333333333267      ,   8256.6666666666606      ,   0.0000000000000000      ,   0.0000000000000000     
   8256.6666666666606      ,   8259.9999999999927      ,   0.0000000000000000      ,   0.0000000000000000     
   8259.9999999999945      ,   8263.3333333333285      ,   0.0000000000000000      ,   0.0000000000000000     
   8263.3333333333285      ,   8266.6666666666606      ,   0.0000000000000000      ,   0.0000000000000000     
   8266.6666666666624      ,   8269.9999999999964      ,   0.0000000000000000      ,   0.0000000000000000     
   8269.9999999999964      ,   8273.3333333333285      ,   0.0000000000000000      ,   0.0000000000000000     
   8273.3333333333303      ,   8276.6666666666642      ,   0.0000000000000000      ,   0.0000000000000000     
   8276.6666666666642      ,   8279.9999999999964      ,   0.0000000000000000      ,   0.0000000000000000     
   8279.9999999999982      ,   8283.3333333333321      ,   0.0000000000000000      ,   0.0000000000000000     
   8283.3333333333321      ,   8286.6666666666642      ,   0.0000000000000000      ,   0.0000000000000000     
   8286.6666666666661      ,   8290.0000000000000      ,   0.0000000000000000      ,   0.0000000000000000     
   8290.0000000000000      ,   8293.3333333333321      ,   0.0000000000000000      ,   0.0000000000000000     
   8293.3333333333339      ,   8296.6666666666679      ,   0.0000000000000000      ,   0.0000000000000000     
   8296.6666666666679      ,   8300.0000000000000      ,   0.0000000000000000      ,   0.0000000000000000     
   8300.0000000000018      ,   8303.3333333333358      ,   0.0000000000000000      ,   0.0000000000000000     
   8303.3333333333358      ,   8306.6666666666679      ,   0.0000000000000000      ,   0.0000000000000000     
   8306.6666666666697      ,   8310.0000000000036      ,   0.0000000000000000      ,   0.0000000000000000     
   8310.0000000000036      ,   8313.3333333333358      ,   0.0000000000000000      ,   0.0000000000000000     
   8313.3333333333376      ,   8316.6666666666715      ,   0.0000000000000000      ,   0.0000000000000000     
   8316.6666666666715      ,   8320.0000000000036      ,   0.0000000000000000      ,   0.0000000000000000     
   8320.0000000000055      ,   8323.3333333333394      ,   0.0000000000000000      ,   0.0000000000000000     
   8323.3333333333394      ,   8326.6666666666715      ,   0.0000000000000000      ,   0.0000000000000000     
   8326.6666666666733      ,   8330.0000000000073      ,   0.0000000000000000      ,   0.0000000000000000     
   8330.0000000000073      ,   8333.3333333333394      ,   0.0000000000000000      ,   0.0000000000000000     
   8333.3333333333412      ,   8336.6666666666752      ,   0.0000000000000000      ,   0.0000000000000000     
   8336.6666666666752      ,   8340.0000000000073      ,   0.0000000000000000      ,   0.0000000000000000     
   8340.0000000000091      ,   8343.3333333333430      ,   0.0000000000000000      ,   0.0000000000000000     
   8343.3333333333430      ,   8346.6666666666752      ,   0.0000000000000000      ,   0.0000000000000000     
   8346.6666666666770      ,   8350.0000000000109      ,   0.0000000000000000      ,   0.0000000000000000     
   8350.0000000000109      ,   8353.3333333333430      ,   0.0000000000000000      ,   0.0000000000000000     
   8353.3333333333449      ,   8356.6666666666788      ,   0.0000000000000000      ,   0.0000000000000000     
   8356.6666666666788      ,   8360.0000000000109      ,   0.0000000000000000      ,   0.0000000000000000     
   8360.0000000000127      ,   8363.3333333333467      ,   0.0000000000000000      ,   0.0000000000000000     
   8363.3333333333467      ,   8366.6666666666788      ,   0.0000000000000000      ,   0.0000000000000000     
   8366.6666666666806      ,   8370.0000000000146      ,   0.0000000000000000      ,   0.0000000000000000     
   8370.0000000000146      ,   8373.3333333333467      ,   0.0000000000000000      ,   0.0000000000000000     
   8373.3333333333485      ,   8376.6666666666824      ,   0.0000000000000000      ,   0.0000000000000000     
   8376.6666666666824      ,   8380.0000000000146      ,   0.0000000000000000      ,   0.0000000000000000     
   8380.0000000000164      ,   8383.3333333333503      ,   0.0000000000000000      ,   0.0000000000000000     
   8383.3333333333503      ,   8386.6666666666824      ,   0.0000000000000000      ,   0.0000000000000000     
   8386.6666666666843      ,   8390.0000000000182      ,   0.0000000000000000      ,   0.0000000000000000     
   8390.0000000000182      ,   8393.3333333333503      ,   0.0000000000000000      ,   0.0000000000000000     
   8393.3333333333521      ,   8396.6666666666861      ,   0.0000000000000000      ,   0.0000000000000000     
   8396.6666666666861      ,   8400.0000000000182      ,   0.0000000000000000      ,   0.0000000000000000     
   8400.0000000000200      ,   8403.3333333333539      ,   0.0000000000000000      ,   0.0000000000000000     
   8403.3333333333539      ,   8406.6666666666861      ,   0.0000000000000000      ,   0.0000000000000000     
   8406.6666666666879      ,   8410.0000000000218      ,   0.0000000000000000      ,   0.0000000000000000     
   8410.0000000000218      ,   8413.3333333333539      ,   0.0000000000000000      ,   0.0000000000000000     
   8413.3333333333558      ,   8416.6666666666897      ,   0.0000000000000000      ,   0.0000000000000000     
   8416.6666666666897      ,   8420.0000000000218      ,   0.0000000000000000      ,   0.0000000000000000     
   8420.0000000000236      ,   8423.3333333333576      ,   0.0000000000000000      ,   0.0000000000000000     
   8423.3333333333576      ,   8426.6666666666897      ,   0.0000000000000000      ,   0.0000000000000000     
   8426.6666666666915      ,   8430.0000000000255      ,   0.0000000000000000      ,   0.0000000000000000     
   8430.0000000000255      ,   8433.3333333333576      ,   0.0000000000000000      ,   0.0000000000000000     
   8433.3333333333594      ,   8436.6666666666933      ,   0.0000000000000000      ,   0.0000000000000000     
   8436.6666666666933      ,   8440.0000000000255      ,   0.0000000000000000      ,   0.0000000000000000     
   8440.0000000000273      ,   8443.3333333333612      ,   0.0000000000000000      ,   0.0000000000000000     
   8443.3333333333612      ,   8446.6666666666933      ,   0.0000000000000000      ,   0.0000000000000000     
   8446.6666666666952      ,   8450.0000000000291      ,   0.0000000000000000      ,   0.0000000000000000     
   8450.0000000000291      ,   8453.3333333333612      ,   0.0000000000000000      ,   0.0000000000000000     
   8453.3333333333630      ,   8456.6666666666970      ,   0.0000000000000000      ,   0.0000000000000000     
   8456.6666666666970      ,   8460.0000000000291      ,   0.0000000000000000      ,   0.0000000000000000     
   8460.0000000000309      ,   8463.3333333333649      ,   0.0000000000000000      ,   0.0000000000000000     
   8463.3333333333649      ,   8466.6666666666970      ,   0.0000000000000000      ,   0.0000000000000000     
   8466.6666666666988      ,   8470.0000000000327      ,   0.0000000000000000      ,   0.0000000000000000     
   8470.0000000000327      ,   8473.3333333333649      ,   0.0000000000000000      ,   0.0000000000000000     
   8473.3333333333667      ,   8476.6666666667006      ,   0.0000000000000000      ,   0.0000000000000000     
   8476.6666666667006      ,   8480.0000000000327      ,   0.0000000000000000      ,   0.0000000000000000     
   8480.0000000000346      ,   8483.3333333333685      ,   0.0000000000000000      ,   0.0000000000000000     
   8483.3333333333685      ,   8486.6666666667006      ,   0.0000000000000000      ,   0.0000000000000000     
   8486.6666666667024      ,   8490.0000000000364      ,   0.0000000000000000      ,   0.0000000000000000     
   8490.0000000000364      ,   8493.3333333333685      ,   0.0000000000000000      ,   0.0000000000000000     
   8493.3333333333703      ,   8496.6666666667043      ,   0.0000000000000000      ,   0.0000000000000000     
   8496.6666666667043      ,   8500.0000000000364      ,   0.0000000000000000      ,   0.0000000000000000     
   8500.0000000000382      ,   8503.3333333333721      ,   0.0000000000000000      ,   0.0000000000000000     
   8503.3333333333721      ,   8506.6666666667043      ,   0.0000000000000000      ,   0.0000000000000000     
   8506.6666666667061      ,   8510.0000000000400      ,   0.0000000000000000      ,   0.0000000000000000     
   8510.0000000000400      ,   8513.3333333333721      ,   0.0000000000000000      ,   0.0000000000000000     
   8513.3333333333740      ,   8516.6666666667079      ,   0.0000000000000000      ,   0.0000000000000000     
   8516.6666666667079      ,   8520.0000000000400      ,   0.0000000000000000      ,   0.0000000000000000     
   8520.0000000000418      ,   8523.3333333333758      ,   0.0000000000000000      ,   0.0000000000000000     
   8523.3333333333758      ,   8526.6666666667079      ,   0.0000000000000000      ,   0.0000000000000000     
   8526.6666666667097      ,   8530.0000000000437      ,   0.0000000000000000      ,   0.0000000000000000     
   8530.0000000000437      ,   8533.3333333333758      ,   0.0000000000000000      ,   0.0000000000000000     
   8533.3333333333776      ,   8536.6666666667115      ,   0.0000000000000000      ,   0.0000000000000000     
   8536.6666666667115      ,   8540.0000000000437      ,   0.0000000000000000      ,   0.0000000000000000     
   8540.0000000000455      ,   8543.3333333333794      ,   0.0000000000000000      ,   0.0000000000000000     
   8543.3333333333794      ,   8546.6666666667115      ,   0.0000000000000000      ,   0.0000000000000000     
   8546.6666666667134      ,   8550.0000000000473      ,   0.0000000000000000      ,   0.0000000000000000     
   8550.0000000000473      ,   8553.3333333333794      ,   0.0000000000000000      ,   0.0000000000000000     
   8553.3333333333812      ,   8556.6666666667152      ,   0.0000000000000000      ,   0.0000000000000000     
   8556.6666666667152      ,   8560.0000000000473      ,   0.0000000000000000      ,   0.0000000000000000     
   8560.0000000000491      ,   8563.3333333333831      ,   0.0000000000000000      ,   0.0000000000000000     
   8563.3333333333831      ,   8566.6666666667152      ,   0.0000000000000000      ,   0.0000000000000000     
   8566.6666666667170      ,   8570.0000000000509      ,   0.0000000000000000      ,   0.0000000000000000     
   8570.0000000000509      ,   8573.3333333333831      ,   0.0000000000000000      ,   0.0000000000000000     
   8573.3333333333849      ,   8576.6666666667188      ,   0.0000000000000000      ,   0.0000000000000000     
   8576.6666666667188      ,   8580.0000000000509      ,   0.0000000000000000      ,   0.0000000000000000     
   8580.0000000000528      ,   8583.3333333333867      ,   0.0000000000000000      ,   0.0000000000000000     
   8583.3333333333867      ,   8586.6666666667188      ,   0.0000000000000000      ,   0.0000000000000000     
   8586.6666666667206      ,   8590.0000000000546      ,   0.0000000000000000      ,   0.0000000000000000     
   8590.0000000000546      ,   8593.3333333333867      ,   0.0000000000000000      ,   0.0000000000000000     
   8593.3333333333885      ,   8596.6666666667224      ,   0.0000000000000000      ,   0.0000000000000000     
   8596.6666666667224      ,   8600.0000000000546      ,   0.0000000000000000      ,   0.0000000000000000     
   8600.0000000000564      ,   8603.3333333333903      ,   0.0000000000000000      ,   0.0000000000000000     
   8603.3333333333903      ,   8606.6666666667224      ,   0.0000000000000000      ,   0.0000000000000000     
   8606.6666666667243      ,   8610.0000000000582      ,   0.0000000000000000      ,   0.0000000000000000     
   8610.0000000000582      ,   8613.3333333333903      ,   0.0000000000000000      ,   0.0000000000000000     
   8613.3333333333921      ,   8616.6666666667261      ,   0.0000000000000000      ,   0.0000000000000000     
   8616.6666666667261      ,   8620.0000000000582      ,   0.0000000000000000      ,   0.0000000000000000     
   8620.0000000000600      ,   8623.3333333333940      ,   0.0000000000000000      ,   0.0000000000000000     
   8623.3333333333940      ,   8626.6666666667261      ,   0.0000000000000000      ,   0.0000000000000000     
   8626.6666666667279      ,   8630.0000000000618      ,   0.0000000000000000      ,   0.0000000000000000     
   8630.0000000000618      ,   8633.3333333333940      ,   0.0000000000000000      ,   0.0000000000000000     
   8633.3333333333958      ,   8636.6666666667297      ,   0.0000000000000000      ,   0.0000000000000000     
   8636.6666666667297      ,   8640.0000000000618      ,   0.0000000000000000      ,   0.0000000000000000     
   8640.0000000000637      ,   8643.3333333333976      ,   0.0000000000000000      ,   0.0000000000000000     
   8643.3333333333976      ,   8646.6666666667297      ,   0.0000000000000000      ,   0.0000000000000000     
   8646.6666666667315      ,   8650.0000000000655      ,   0.0000000000000000      ,   0.0000000000000000     
   8650.0000000000655      ,   8653.3333333333976      ,   0.0000000000000000      ,   0.0000000000000000     
   8653.3333333333994      ,   8656.6666666667334      ,   0.0000000000000000      ,   0.0000000000000000     
   8656.6666666667334      ,   8660.0000000000655      ,   0.0000000000000000      ,   0.0000000000000000     
   8660.0000000000673      ,   8663.3333333334012      ,   0.0000000000000000      ,   0.0000000000000000     
   8663.3333333334012      ,   8666.6666666667334      ,   0.0000000000000000      ,   0.0000000000000000     
   8666.6666666667352      ,   8670.0000000000691      ,   0.0000000000000000      ,   0.0000000000000000     
   8670.0000000000691      ,   8673.3333333334012      ,   0.0000000000000000      ,   0.0000000000000000     
   8673.3333333334031      ,   8676.6666666667370      ,   0.0000000000000000      ,   0.0000000000000000     
   8676.6666666667370      ,   8680.0000000000691      ,   0.0000000000000000      ,   0.0000000000000000     
   8680.0000000000709      ,   8683.3333333334049      ,   0.0000000000000000      ,   0.0000000000000000     
   8683.3333333334049      ,   8686.6666666667370      ,   0.0000000000000000      ,   0.0000000000000000     
   8686.6666666667388      ,   8690.0000000000728      ,   0.0000000000000000      ,   0.0000000000000000     
   8690.0000000000728      ,   8693.3333333334049      ,   0.0000000000000000      ,   0.0000000000000000     
   8693.3333333334067      ,   8696.6666666667406      ,   0.0000000000000000      ,   0.0000000000000000     
   8696.6666666667406      ,   8700.0000000000728      ,   0.0000000000000000      ,   0.0000000000000000     
   8700.0000000000746      ,   8703.3333333334085      ,   0.0000000000000000      ,   0.0000000000000000     
   8703.3333333334085      ,   8706.6666666667406      ,   0.0000000000000000      ,   0.0000000000000000     
   8706.6666666667425      ,   8710.0000000000764      ,   0.0000000000000000      ,   0.0000000000000000     
   8710.0000000000764      ,   8713.3333333334085      ,   0.0000000000000000      ,   0.0000000000000000     
   8713.3333333334103      ,   8716.6666666667443      ,   0.0000000000000000      ,   0.0000000000000000     
   8716.6666666667443      ,   8720.0000000000764      ,   0.0000000000000000      ,   0.0000000000000000     
   8720.0000000000782      ,   8723.3333333334122      ,   0.0000000000000000      ,   0.0000000000000000     
   8723.3333333334122      ,   8726.6666666667443      ,   0.0000000000000000      ,   0.0000000000000000     
   8726.6666666667461      ,   8730.0000000000800      ,   0.0000000000000000      ,   0.0000000000000000     
   8730.0000000000800      ,   8733.3333333334122      ,   0.0000000000000000      ,   0.0000000000000000     
   8733.3333333334140      ,   8736.6666666667479      ,   0.0000000000000000      ,   0.0000000000000000     
   8736.6666666667479      ,   8740.0000000000800      ,   0.0000000000000000      ,   0.0000000000000000     
   8740.0000000000819      ,   8743.3333333334158      ,   0.0000000000000000      ,   0.0000000000000000     
   8743.3333333334158      ,   8746.6666666667479      ,   0.0000000000000000      ,   0.0000000000000000     
   8746.6666666667497      ,   8750.0000000000837      ,   0.0000000000000000      ,   0.0000000000000000     
   8750.0000000000837      ,   8753.3333333334158      ,   0.0000000000000000      ,   0.0000000000000000     
   8753.3333333334176      ,   8756.6666666667516      ,   0.0000000000000000      ,   0.0000000000000000     
   8756.6666666667516      ,   8760.0000000000837      ,   0.0000000000000000      ,   0.0000000000000000     
   8760.0000000000855      ,   8763.3333333334194      ,   0.0000000000000000      ,   0.0000000000000000     
   8763.3333333334194      ,   8766.6666666667516      ,   0.0000000000000000      ,   0.0000000000000000     
   8766.6666666667534      ,   8770.0000000000873      ,   0.0000000000000000      ,   0.0000000000000000     
   8770.0000000000873      ,   8773.3333333334194      ,   0.0000000000000000      ,   0.0000000000000000     
   8773.3333333334213      ,   8776.6666666667552      ,   0.0000000000000000      ,   0.0000000000000000     
   8776.6666666667552      ,   8780.0000000000873      ,   0.0000000000000000      ,   0.0000000000000000     
   8780.0000000000891      ,   8783.3333333334231      ,   0.0000000000000000      ,   0.0000000000000000     
   8783.3333333334231      ,   8786.6666666667552      ,   0.0000000000000000      ,   0.0000000000000000     
   8786.6666666667570      ,   8790.0000000000909      ,   0.0000000000000000      ,   0.0000000000000000     
   8790.0000000000909      ,   8793.3333333334231      ,   0.0000000000000000      ,   0.0000000000000000     
   8793.3333333334249      ,   8796.6666666667588      ,   0.0000000000000000      ,   0.0000000000000000     
   8796.6666666667588      ,   8800.0000000000909      ,   0.0000000000000000      ,   0.0000000000000000     
   8800.0000000000928      ,   8803.3333333334267      ,   0.0000000000000000      ,   0.0000000000000000     
   8803.3333333334267      ,   8806.6666666667588      ,   0.0000000000000000      ,   0.0000000000000000     
   8806.6666666667606      ,   8810.0000000000946      ,   0.0000000000000000      ,   0.0000000000000000     
   8810.0000000000946      ,   8813.3333333334267      ,   0.0000000000000000      ,   0.0000000000000000     
   8813.3333333334285      ,   8816.6666666667625      ,   0.0000000000000000      ,   0.0000000000000000     
   8816.6666666667625      ,   8820.0000000000946      ,   0.0000000000000000      ,   0.0000000000000000     
   8820.0000000000964      ,   8823.3333333334303      ,   0.0000000000000000      ,   0.0000000000000000     
   8823.3333333334303      ,   8826.6666666667625      ,   0.0000000000000000      ,   0.0000000000000000     
   8826.6666666667643      ,   8830.0000000000982      ,   0.0000000000000000      ,   0.0000000000000000     
   8830.0000000000982      ,   8833.3333333334303      ,   0.0000000000000000      ,   0.0000000000000000     
   8833.3333333334322      ,   8836.6666666667661      ,   0.0000000000000000      ,   0.0000000000000000     
   8836.6666666667661      ,   8840.0000000000982      ,   0.0000000000000000      ,   0.0000000000000000     
   8840.0000000001000      ,   8843.3333333334340      ,   0.0000000000000000      ,   0.0000000000000000     
   8843.3333333334340      ,   8846.6666666667661      ,   0.0000000000000000      ,   0.0000000000000000     
   8846.6666666667679      ,   8850.0000000001019      ,   0.0000000000000000      ,   0.0000000000000000     
   8850.0000000001019      ,   8853.3333333334340      ,   0.0000000000000000      ,   0.0000000000000000     
   8853.3333333334358      ,   8856.6666666667697      ,   0.0000000000000000      ,   0.0000000000000000     
   8856.6666666667697      ,   8860.0000000001019      ,   0.0000000000000000      ,   0.0000000000000000     
   8860.0000000001037      ,   8863.3333333334376      ,   0.0000000000000000      ,   0.0000000000000000     
   8863.3333333334376      ,   8866.6666666667697      ,   0.0000000000000000      ,   0.0000000000000000     
   8866.6666666667716      ,   8870.0000000001055      ,   0.0000000000000000      ,   0.0000000000000000     
   8870.0000000001055      ,   8873.3333333334376      ,   0.0000000000000000      ,   0.0000000000000000     
   8873.3333333334394      ,   8876.6666666667734      ,   0.0000000000000000      ,   0.0000000000000000     
   8876.6666666667734      ,   8880.0000000001055      ,   0.0000000000000000      ,   0.0000000000000000     
   8880.0000000001073      ,   8883.3333333334413      ,   0.0000000000000000      ,   0.0000000000000000     
   8883.3333333334413      ,   8886.6666666667734      ,   0.0000000000000000      ,   0.0000000000000000     
   8886.6666666667752      ,   8890.0000000001091      ,   0.0000000000000000      ,   0.0000000000000000     
   8890.0000000001091      ,   8893.3333333334413      ,   0.0000000000000000      ,   0.0000000000000000     
   8893.3333333334431      ,   8896.6666666667770      ,   0.0000000000000000      ,   0.0000000000000000     
   8896.6666666667770      ,   8900.0000000001091      ,   0.0000000000000000      ,   0.0000000000000000     
   8900.0000000001110      ,   8903.3333333334449      ,   0.0000000000000000      ,   0.0000000000000000     
   8903.3333333334449      ,   8906.6666666667770      ,   0.0000000000000000      ,   0.0000000000000000     
   8906.6666666667788      ,   8910.0000000001128      ,   0.0000000000000000      ,   0.0000000000000000     
   8910.0000000001128      ,   8913.3333333334449      ,   0.0000000000000000      ,   0.0000000000000000     
   8913.3333333334467      ,   8916.6666666667807      ,   0.0000000000000000      ,   0.0000000000000000     
   8916.6666666667807      ,   8920.0000000001128      ,   0.0000000000000000      ,   0.0000000000000000     
   8920.0000000001146      ,   8923.3333333334485      ,   0.0000000000000000      ,   0.0000000000000000     
   8923.3333333334485      ,   8926.6666666667807      ,   0.0000000000000000      ,   0.0000000000000000     
   8926.6666666667825      ,   8930.0000000001164      ,   0.0000000000000000      ,   0.0000000000000000     
   8930.0000000001164      ,   8933.3333333334485      ,   0.0000000000000000      ,   0.0000000000000000     
   8933.3333333334504      ,   8936.6666666667843      ,   0.0000000000000000      ,   0.0000000000000000     
   8936.6666666667843      ,   8940.0000000001164      ,   0.0000000000000000      ,   0.0000000000000000     
   8940.0000000001182      ,   8943.3333333334522      ,   0.0000000000000000      ,   0.0000000000000000     
   8943.3333333334522      ,   8946.6666666667843      ,   0.0000000000000000      ,   0.0000000000000000     
   8946.6666666667861      ,   8950.0000000001201      ,   0.0000000000000000      ,   0.0000000000000000     
   8950.0000000001201      ,   8953.3333333334522      ,   0.0000000000000000      ,   0.0000000000000000     
   8953.3333333334540      ,   8956.6666666667879      ,   0.0000000000000000      ,   0.0000000000000000     
   8956.6666666667879      ,   8960.0000000001201      ,   0.0000000000000000      ,   0.0000000000000000     
   8960.0000000001219      ,   8963.3333333334558      ,   0.0000000000000000      ,   0.0000000000000000     
   8963.3333333334558      ,   8966.6666666667879      ,   0.0000000000000000      ,   0.0000000000000000     
   8966.6666666667898      ,   8970.0000000001237      ,   0.0000000000000000      ,   0.0000000000000000     
   8970.0000000001237      ,   8973.3333333334558      ,   0.0000000000000000      ,   0.0000000000000000     
   8973.3333333334576      ,   8976.6666666667916      ,   0.0000000000000000      ,   0.0000000000000000     
   8976.6666666667916      ,   8980.0000000001237      ,   0.0000000000000000      ,   0.0000000000000000     
   8980.0000000001255      ,   8983.3333333334594      ,   0.0000000000000000      ,   0.0000000000000000     
   8983.3333333334594      ,   8986.6666666667916      ,   0.0000000000000000      ,   0.0000000000000000     
   8986.6666666667934      ,   8990.0000000001273      ,   0.0000000000000000      ,   0.0000000000000000     
   8990.0000000001273      ,   8993.3333333334594      ,   0.0000000000000000      ,   0.0000000000000000     
   8993.3333333334613      ,   8996.6666666667952      ,   0.0000000000000000      ,   0.0000000000000000     
   8996.6666666667952      ,   9000.0000000001273      ,   0.0000000000000000      ,   0.0000000000000000     
   9000.0000000001291      ,   9003.3333333334631      ,   0.0000000000000000      ,   0.0000000000000000     
   9003.3333333334631      ,   9006.6666666667952      ,   0.0000000000000000      ,   0.0000000000000000     
   9006.6666666667970      ,   9010.0000000001310      ,   0.0000000000000000      ,   0.0000000000000000     
   9010.0000000001310      ,   9013.3333333334631      ,   0.0000000000000000      ,   0.0000000000000000     
   9013.3333333334649      ,   9016.6666666667988      ,   0.0000000000000000      ,   0.0000000000000000     
   9016.6666666667988      ,   9020.0000000001310      ,   0.0000000000000000      ,   0.0000000000000000     
   9020.0000000001328      ,   9023.3333333334667      ,   0.0000000000000000      ,   0.0000000000000000     
   9023.3333333334667      ,   9026.6666666667988      ,   0.0000000000000000      ,   0.0000000000000000     
   9026.6666666668007      ,   9030.0000000001346      ,   0.0000000000000000      ,   0.0000000000000000     
   9030.0000000001346      ,   9033.3333333334667      ,   0.0000000000000000      ,   0.0000000000000000     
   9033.3333333334685      ,   9036.6666666668025      ,   0.0000000000000000      ,   0.0000000000000000     
   9036.6666666668025      ,   9040.0000000001346      ,   0.0000000000000000      ,   0.0000000000000000     
   9040.0000000001364      ,   9043.3333333334704      ,   0.0000000000000000      ,   0.0000000000000000     
   9043.3333333334704      ,   9046.6666666668025      ,   0.0000000000000000      ,   0.0000000000000000     
   9046.6666666668043      ,   9050.0000000001382      ,   0.0000000000000000      ,   0.0000000000000000     
   9050.0000000001382      ,   9053.3333333334704      ,   0.0000000000000000      ,   0.0000000000000000     
   9053.3333333334722      ,   9056.6666666668061      ,   0.0000000000000000      ,   0.0000000000000000     
   9056.6666666668061      ,   9060.0000000001382      ,   0.0000000000000000      ,   0.0000000000000000     
   9060.0000000001401      ,   9063.3333333334740      ,   0.0000000000000000      ,   0.0000000000000000     
   9063.3333333334740      ,   9066.6666666668061      ,   0.0000000000000000      ,   0.0000000000000000     
   9066.6666666668079      ,   9070.0000000001419      ,   0.0000000000000000      ,   0.0000000000000000     
   9070.0000000001419      ,   9073.3333333334740      ,   0.0000000000000000      ,   0.0000000000000000     
   9073.3333333334758      ,   9076.6666666668098      ,   0.0000000000000000      ,   0.0000000000000000     
   9076.6666666668098      ,   9080.0000000001419      ,   0.0000000000000000      ,   0.0000000000000000     
   9080.0000000001437      ,   9083.3333333334776      ,   0.0000000000000000      ,   0.0000000000000000     
   9083.3333333334776      ,   9086.6666666668098      ,   0.0000000000000000      ,   0.0000000000000000     
   9086.6666666668116      ,   9090.0000000001455      ,   0.0000000000000000      ,   0.0000000000000000     
   9090.0000000001455      ,   9093.3333333334776      ,   0.0000000000000000      ,   0.0000000000000000     
   9093.3333333334795      ,   9096.6666666668134      ,   0.0000000000000000      ,   0.0000000000000000     
   9096.6666666668134      ,   9100.0000000001455      ,   0.0000000000000000      ,   0.0000000000000000     
   9100.0000000001473      ,   9103.3333333334813      ,   0.0000000000000000      ,   0.0000000000000000     
   9103.3333333334813      ,   9106.6666666668134      ,   0.0000000000000000      ,   0.0000000000000000     
   9106.6666666668152      ,   9110.0000000001492      ,   0.0000000000000000      ,   0.0000000000000000     
   9110.0000000001492      ,   9113.3333333334813      ,   0.0000000000000000      ,   0.0000000000000000     
   9113.3333333334831      ,   9116.6666666668170      ,   0.0000000000000000      ,   0.0000000000000000     
   9116.6666666668170      ,   9120.0000000001492      ,   0.0000000000000000      ,   0.0000000000000000     
   9120.0000000001510      ,   9123.3333333334849      ,   0.0000000000000000      ,   0.0000000000000000     
   9123.3333333334849      ,   9126.6666666668170      ,   0.0000000000000000      ,   0.0000000000000000     
   9126.6666666668189      ,   9130.0000000001528      ,   0.0000000000000000      ,   0.0000000000000000     
   9130.0000000001528      ,   9133.3333333334849      ,   0.0000000000000000      ,   0.0000000000000000     
   9133.3333333334867      ,   9136.6666666668207      ,   0.0000000000000000      ,   0.0000000000000000     
   9136.6666666668207      ,   9140.0000000001528      ,   0.0000000000000000      ,   0.0000000000000000     
   9140.0000000001546      ,   9143.3333333334886      ,   0.0000000000000000      ,   0.0000000000000000     
   9143.3333333334886      ,   9146.6666666668207      ,   0.0000000000000000      ,   0.0000000000000000     
   9146.6666666668225      ,   9150.0000000001564      ,   0.0000000000000000      ,   0.0000000000000000     
   9150.0000000001564      ,   9153.3333333334886      ,   0.0000000000000000      ,   0.0000000000000000     
   9153.3333333334904      ,   9156.6666666668243      ,   0.0000000000000000      ,   0.0000000000000000     
   9156.6666666668243      ,   9160.0000000001564      ,   0.0000000000000000      ,   0.0000000000000000     
   9160.0000000001583      ,   9163.3333333334922      ,   0.0000000000000000      ,   0.0000000000000000     
   9163.3333333334922      ,   9166.6666666668243      ,   0.0000000000000000      ,   0.0000000000000000     
   9166.6666666668261      ,   9170.0000000001601      ,   0.0000000000000000      ,   0.0000000000000000     
   9170.0000000001601      ,   9173.3333333334922      ,   0.0000000000000000      ,   0.0000000000000000     
   9173.3333333334940      ,   9176.6666666668280      ,   0.0000000000000000      ,   0.0000000000000000     
   9176.6666666668280      ,   9180.0000000001601      ,   0.0000000000000000      ,   0.0000000000000000     
   9180.0000000001619      ,   9183.3333333334958      ,   0.0000000000000000      ,   0.0000000000000000     
   9183.3333333334958      ,   9186.6666666668280      ,   0.0000000000000000      ,   0.0000000000000000     
   9186.6666666668298      ,   9190.0000000001637      ,   0.0000000000000000      ,   0.0000000000000000     
   9190.0000000001637      ,   9193.3333333334958      ,   0.0000000000000000      ,   0.0000000000000000     
   9193.3333333334976      ,   9196.6666666668316      ,   0.0000000000000000      ,   0.0000000000000000     
   9196.6666666668316      ,   9200.0000000001637      ,   0.0000000000000000      ,   0.0000000000000000     
   9200.0000000001655      ,   9203.3333333334995      ,   0.0000000000000000      ,   0.0000000000000000     
   9203.3333333334995      ,   9206.6666666668316      ,   0.0000000000000000      ,   0.0000000000000000     
   9206.6666666668334      ,   9210.0000000001673      ,   0.0000000000000000      ,   0.0000000000000000     
   9210.0000000001673      ,   9213.3333333334995      ,   0.0000000000000000      ,   0.0000000000000000     
   9213.3333333335013      ,   9216.6666666668352      ,   0.0000000000000000      ,   0.0000000000000000     
   9216.6666666668352      ,   9220.0000000001673      ,   0.0000000000000000      ,   0.0000000000000000     
   9220.0000000001692      ,   9223.3333333335031      ,   0.0000000000000000      ,   0.0000000000000000     
   9223.3333333335031      ,   9226.6666666668352      ,   0.0000000000000000      ,   0.0000000000000000     
   9226.6666666668370      ,   9230.0000000001710      ,   0.0000000000000000      ,   0.0000000000000000     
   9230.0000000001710      ,   9233.3333333335031      ,   0.0000000000000000      ,   0.0000000000000000     
   9233.3333333335049      ,   9236.6666666668389      ,   0.0000000000000000      ,   0.0000000000000000     
   9236.6666666668389      ,   9240.0000000001710      ,   0.0000000000000000      ,   0.0000000000000000     
   9240.0000000001728      ,   9243.3333333335067      ,   0.0000000000000000      ,   0.0000000000000000     
   9243.3333333335067      ,   9246.6666666668389      ,   0.0000000000000000      ,   0.0000000000000000     
   9246.6666666668407      ,   9250.0000000001746      ,   0.0000000000000000      ,   0.0000000000000000     
   9250.0000000001746      ,   9253.3333333335067      ,   0.0000000000000000      ,   0.0000000000000000     
   9253.3333333335086      ,   9256.6666666668425      ,   0.0000000000000000      ,   0.0000000000000000     
   9256.6666666668425      ,   9260.0000000001746      ,   0.0000000000000000      ,   0.0000000000000000     
   9260.0000000001764      ,   9263.3333333335104      ,   0.0000000000000000      ,   0.0000000000000000     
   9263.3333333335104      ,   9266.6666666668425      ,   0.0000000000000000      ,   0.0000000000000000     
   9266.6666666668443      ,   9270.0000000001783      ,   0.0000000000000000      ,   0.0000000000000000     
   9270.0000000001783      ,   9273.3333333335104      ,   0.0000000000000000      ,   0.0000000000000000     
   9273.3333333335122      ,   9276.6666666668461      ,   0.0000000000000000      ,   0.0000000000000000     
   9276.6666666668461      ,   9280.0000000001783      ,   0.0000000000000000      ,   0.0000000000000000     
   9280.0000000001801      ,   9283.3333333335140      ,   0.0000000000000000      ,   0.0000000000000000     
   9283.3333333335140      ,   9286.6666666668461      ,   0.0000000000000000      ,   0.0000000000000000     
   9286.6666666668480      ,   9290.0000000001819      ,   0.0000000000000000      ,   0.0000000000000000     
   9290.0000000001819      ,   9293.3333333335140      ,   0.0000000000000000      ,   0.0000000000000000     
   9293.3333333335158      ,   9296.6666666668498      ,   0.0000000000000000      ,   0.0000000000000000     
   9296.6666666668498      ,   9300.0000000001819      ,   0.0000000000000000      ,   0.0000000000000000     
   9300.0000000001837      ,   9303.3333333335177      ,   0.0000000000000000      ,   0.0000000000000000     
   9303.3333333335177      ,   9306.6666666668498      ,   0.0000000000000000      ,   0.0000000000000000     
   9306.6666666668516      ,   9310.0000000001855      ,   0.0000000000000000      ,   0.0000000000000000     
   9310.0000000001855      ,   9313.3333333335177      ,   0.0000000000000000      ,   0.0000000000000000     
   9313.3333333335195      ,   9316.6666666668534      ,   0.0000000000000000      ,   0.0000000000000000     
   9316.6666666668534      ,   9320.0000000001855      ,   0.0000000000000000      ,   0.0000000000000000     
   9320.0000000001874      ,   9323.3333333335213      ,   0.0000000000000000      ,   0.0000000000000000     
   9323.3333333335213      ,   9326.6666666668534      ,   0.0000000000000000      ,   0.0000000000000000     
   9326.6666666668552      ,   9330.0000000001892      ,   0.0000000000000000      ,   0.0000000000000000     
   9330.0000000001892      ,   9333.3333333335213      ,   0.0000000000000000      ,   0.0000000000000000     
   9333.3333333335231      ,   9336.6666666668571      ,   0.0000000000000000      ,   0.0000000000000000     
   9336.6666666668571      ,   9340.0000000001892      ,   0.0000000000000000      ,   0.0000000000000000     
   9340.0000000001910      ,   9343.3333333335249      ,   0.0000000000000000      ,   0.0000000000000000     
   9343.3333333335249      ,   9346.6666666668571      ,   0.0000000000000000      ,   0.0000000000000000     
   9346.6666666668589      ,   9350.0000000001928      ,   0.0000000000000000      ,   0.0000000000000000     
   9350.0000000001928      ,   9353.3333333335249      ,   0.0000000000000000      ,   0.0000000000000000     
   9353.3333333335268      ,   9356.6666666668607      ,   0.0000000000000000      ,   0.0000000000000000     
   9356.6666666668607      ,   9360.0000000001928      ,   0.0000000000000000      ,   0.0000000000000000     
   9360.0000000001946      ,   9363.3333333335286      ,   0.0000000000000000      ,   0.0000000000000000     
   9363.3333333335286      ,   9366.6666666668607      ,   0.0000000000000000      ,   0.0000000000000000     
   9366.6666666668625      ,   9370.0000000001965      ,   0.0000000000000000      ,   0.0000000000000000     
   9370.0000000001965      ,   9373.3333333335286      ,   0.0000000000000000      ,   0.0000000000000000     
   9373.3333333335304      ,   9376.6666666668643      ,   0.0000000000000000      ,   0.0000000000000000     
   9376.6666666668643      ,   9380.0000000001965      ,   0.0000000000000000      ,   0.0000000000000000     
   9380.0000000001983      ,   9383.3333333335322      ,   0.0000000000000000      ,   0.0000000000000000     
   9383.3333333335322      ,   9386.6666666668643      ,   0.0000000000000000      ,   0.0000000000000000     
   9386.6666666668661      ,   9390.0000000002001      ,   0.0000000000000000      ,   0.0000000000000000     
   9390.0000000002001      ,   9393.3333333335322      ,   0.0000000000000000      ,   0.0000000000000000     
   9393.3333333335340      ,   9396.6666666668680      ,   0.0000000000000000      ,   0.0000000000000000     
   9396.6666666668680      ,   9400.0000000002001      ,   0.0000000000000000      ,   0.0000000000000000     
   9400.0000000002019      ,   9403.3333333335358      ,   0.0000000000000000      ,   0.0000000000000000     
   9403.3333333335358      ,   9406.6666666668680      ,   0.0000000000000000      ,   0.0000000000000000     
   9406.6666666668698      ,   9410.0000000002037      ,   0.0000000000000000      ,   0.0000000000000000     
   9410.0000000002037      ,   9413.3333333335358      ,   0.0000000000000000      ,   0.0000000000000000     
   9413.3333333335377      ,   9416.6666666668716      ,   0.0000000000000000      ,   0.0000000000000000     
   9416.6666666668716      ,   9420.0000000002037      ,   0.0000000000000000      ,   0.0000000000000000     
   9420.0000000002055      ,   9423.3333333335395      ,   0.0000000000000000      ,   0.0000000000000000     
   9423.3333333335395      ,   9426.6666666668716      ,   0.0000000000000000      ,   0.0000000000000000     
   9426.6666666668734      ,   9430.0000000002074      ,   0.0000000000000000      ,   0.0000000000000000     
   9430.0000000002074      ,   9433.3333333335395      ,   0.0000000000000000      ,   0.0000000000000000     
   9433.3333333335413      ,   9436.6666666668752      ,   0.0000000000000000      ,   0.0000000000000000     
   9436.6666666668752      ,   9440.0000000002074      ,   0.0000000000000000      ,   0.0000000000000000     
   9440.0000000002092      ,   9443.3333333335431      ,   0.0000000000000000      ,   0.0000000000000000     
   9443.3333333335431      ,   9446.6666666668752      ,   0.0000000000000000      ,   0.0000000000000000     
   9446.6666666668771      ,   9450.0000000002110      ,   0.0000000000000000      ,   0.0000000000000000     
   9450.0000000002110      ,   9453.3333333335431      ,   0.0000000000000000      ,   0.0000000000000000     
   9453.3333333335449      ,   9456.6666666668789      ,   0.0000000000000000      ,   0.0000000000000000     
   9456.6666666668789      ,   9460.0000000002110      ,   0.0000000000000000      ,   0.0000000000000000     
   9460.0000000002128      ,   9463.3333333335468      ,   0.0000000000000000      ,   0.0000000000000000     
   9463.3333333335468      ,   9466.6666666668789      ,   0.0000000000000000      ,   0.0000000000000000     
   9466.6666666668807      ,   9470.0000000002146      ,   0.0000000000000000      ,   0.0000000000000000     
   9470.0000000002146      ,   9473.3333333335468      ,   0.0000000000000000      ,   0.0000000000000000     
   9473.3333333335486      ,   9476.6666666668825      ,   0.0000000000000000      ,   0.0000000000000000     
   9476.6666666668825      ,   9480.0000000002146      ,   0.0000000000000000      ,   0.0000000000000000     
   9480.0000000002165      ,   9483.3333333335504      ,   0.0000000000000000      ,   0.0000000000000000     
   9483.3333333335504      ,   9486.6666666668825      ,   0.0000000000000000      ,   0.0000000000000000     
   9486.6666666668843      ,   9490.0000000002183      ,   0.0000000000000000      ,   0.0000000000000000     
   9490.0000000002183      ,   9493.3333333335504      ,   0.0000000000000000      ,   0.0000000000000000     
   9493.3333333335522      ,   9496.6666666668862      ,   0.0000000000000000      ,   0.0000000000000000     
   9496.6666666668862      ,   9500.0000000002183      ,   0.0000000000000000      ,   0.0000000000000000     
   9500.0000000002201      ,   9503.3333333335540      ,   0.0000000000000000      ,   0.0000000000000000     
   9503.3333333335540      ,   9506.6666666668862      ,   0.0000000000000000      ,   0.0000000000000000     
   9506.6666666668880      ,   9510.0000000002219      ,   0.0000000000000000      ,   0.0000000000000000     
   9510.0000000002219      ,   9513.3333333335540      ,   0.0000000000000000      ,   0.0000000000000000     
   9513.3333333335559      ,   9516.6666666668898      ,   0.0000000000000000      ,   0.0000000000000000     
   9516.6666666668898      ,   9520.0000000002219      ,   0.0000000000000000      ,   0.0000000000000000     
   9520.0000000002237      ,   9523.3333333335577      ,   0.0000000000000000      ,   0.0000000000000000     
   9523.3333333335577      ,   9526.6666666668898      ,   0.0000000000000000      ,   0.0000000000000000     
   9526.6666666668916      ,   9530.0000000002256      ,   0.0000000000000000      ,   0.0000000000000000     
   9530.0000000002256      ,   9533.3333333335577      ,   0.0000000000000000      ,   0.0000000000000000     
   9533.3333333335595      ,   9536.6666666668934      ,   0.0000000000000000      ,   0.0000000000000000     
   9536.6666666668934      ,   9540.0000000002256      ,   0.0000000000000000      ,   0.0000000000000000     
   9540.0000000002274      ,   9543.3333333335613      ,   0.0000000000000000      ,   0.0000000000000000     
   9543.3333333335613      ,   9546.6666666668934      ,   0.0000000000000000      ,   0.0000000000000000     
   9546.6666666668953      ,   9550.0000000002292      ,   0.0000000000000000      ,   0.0000000000000000     
   9550.0000000002292      ,   9553.3333333335613      ,   0.0000000000000000      ,   0.0000000000000000     
   9553.3333333335631      ,   9556.6666666668971      ,   0.0000000000000000      ,   0.0000000000000000     
   9556.6666666668971      ,   9560.0000000002292      ,   0.0000000000000000      ,   0.0000000000000000     
   9560.0000000002310      ,   9563.3333333335650      ,   0.0000000000000000      ,   0.0000000000000000     
   9563.3333333335650      ,   9566.6666666668971      ,   0.0000000000000000      ,   0.0000000000000000     
   9566.6666666668989      ,   9570.0000000002328      ,   0.0000000000000000      ,   0.0000000000000000     
   9570.0000000002328      ,   9573.3333333335650      ,   0.0000000000000000      ,   0.0000000000000000     
   9573.3333333335668      ,   9576.6666666669007      ,   0.0000000000000000      ,   0.0000000000000000     
   9576.6666666669007      ,   9580.0000000002328      ,   0.0000000000000000      ,   0.0000000000000000     
   9580.0000000002346      ,   9583.3333333335686      ,   0.0000000000000000      ,   0.0000000000000000     
   9583.3333333335686      ,   9586.6666666669007      ,   0.0000000000000000      ,   0.0000000000000000     
   9586.6666666669025      ,   9590.0000000002365      ,   0.0000000000000000      ,   0.0000000000000000     
   9590.0000000002365      ,   9593.3333333335686      ,   0.0000000000000000      ,   0.0000000000000000     
   9593.3333333335704      ,   9596.6666666669043      ,   0.0000000000000000      ,   0.0000000000000000     
   9596.6666666669043      ,   9600.0000000002365      ,   0.0000000000000000      ,   0.0000000000000000     
   9600.0000000002383      ,   9603.3333333335722      ,   0.0000000000000000      ,   0.0000000000000000     
   9603.3333333335722      ,   9606.6666666669043      ,   0.0000000000000000      ,   0.0000000000000000     
   9606.6666666669062      ,   9610.0000000002401      ,   0.0000000000000000      ,   0.0000000000000000     
   9610.0000000002401      ,   9613.3333333335722      ,   0.0000000000000000      ,   0.0000000000000000     
   9613.3333333335740      ,   9616.6666666669080      ,   0.0000000000000000      ,   0.0000000000000000     
   9616.6666666669080      ,   9620.0000000002401      ,   0.0000000000000000      ,   0.0000000000000000     
   9620.0000000002419      ,   9623.3333333335759      ,   0.0000000000000000      ,   0.0000000000000000     
   9623.3333333335759      ,   9626.6666666669080      ,   0.0000000000000000      ,   0.0000000000000000     
   9626.6666666669098      ,   9630.0000000002437      ,   0.0000000000000000      ,   0.0000000000000000     
   9630.0000000002437      ,   9633.3333333335759      ,   0.0000000000000000      ,   0.0000000000000000     
   9633.3333333335777      ,   9636.6666666669116      ,   0.0000000000000000      ,   0.0000000000000000     
   9636.6666666669116      ,   9640.0000000002437      ,   0.0000000000000000      ,   0.0000000000000000     
   9640.0000000002456      ,   9643.3333333335795      ,   0.0000000000000000      ,   0.0000000000000000     
   9643.3333333335795      ,   9646.6666666669116      ,   0.0000000000000000      ,   0.0000000000000000     
   9646.6666666669134      ,   9650.0000000002474      ,   0.0000000000000000      ,   0.0000000000000000     
   9650.0000000002474      ,   9653.3333333335795      ,   0.0000000000000000      ,   0.0000000000000000     
   9653.3333333335813      ,   9656.6666666669153      ,   0.0000000000000000      ,   0.0000000000000000     
   9656.6666666669153      ,   9660.0000000002474      ,   0.0000000000000000      ,   0.0000000000000000     
   9660.0000000002492      ,   9663.3333333335831      ,   0.0000000000000000      ,   0.0000000000000000     
   9663.3333333335831      ,   9666.6666666669153      ,   0.0000000000000000      ,   0.0000000000000000     
   9666.6666666669171      ,   9670.0000000002510      ,   0.0000000000000000      ,   0.0000000000000000     
   9670.0000000002510      ,   9673.3333333335831      ,   0.0000000000000000      ,   0.0000000000000000     
   9673.3333333335850      ,   9676.6666666669189      ,   0.0000000000000000      ,   0.0000000000000000     
   9676.6666666669189      ,   9680.0000000002510      ,   0.0000000000000000      ,   0.0000000000000000     
   9680.0000000002528      ,   9683.3333333335868      ,   0.0000000000000000      ,   0.0000000000000000     
   9683.3333333335868      ,   9686.6666666669189      ,   0.0000000000000000      ,   0.0000000000000000     
   9686.6666666669207      ,   9690.0000000002547      ,   0.0000000000000000      ,   0.0000000000000000     
   9690.0000000002547      ,   9693.3333333335868      ,   0.0000000000000000      ,   0.0000000000000000     
   9693.3333333335886      ,   9696.6666666669225      ,   0.0000000000000000      ,   0.0000000000000000     
   9696.6666666669225      ,   9700.0000000002547      ,   0.0000000000000000      ,   0.0000000000000000     
   9700.0000000002565      ,   9703.3333333335904      ,   0.0000000000000000      ,   0.0000000000000000     
   9703.3333333335904      ,   9706.6666666669225      ,   0.0000000000000000      ,   0.0000000000000000     
   9706.6666666669244      ,   9710.0000000002583      ,   0.0000000000000000      ,   0.0000000000000000     
   9710.0000000002583      ,   9713.3333333335904      ,   0.0000000000000000      ,   0.0000000000000000     
   9713.3333333335922      ,   9716.6666666669262      ,   0.0000000000000000      ,   0.0000000000000000     
   9716.6666666669262      ,   9720.0000000002583      ,   0.0000000000000000      ,   0.0000000000000000     
   9720.0000000002601      ,   9723.3333333335941      ,   0.0000000000000000      ,   0.0000000000000000     
   9723.3333333335941      ,   9726.6666666669262      ,   0.0000000000000000      ,   0.0000000000000000     
   9726.6666666669280      ,   9730.0000000002619      ,   0.0000000000000000      ,   0.0000000000000000     
   9730.0000000002619      ,   9733.3333333335941      ,   0.0000000000000000      ,   0.0000000000000000     
   9733.3333333335959      ,   9736.6666666669298      ,   0.0000000000000000      ,   0.0000000000000000     
   9736.6666666669298      ,   9740.0000000002619      ,   0.0000000000000000      ,   0.0000000000000000     
   9740.0000000002638      ,   9743.3333333335977      ,   0.0000000000000000      ,   0.0000000000000000     
   9743.3333333335977      ,   9746.6666666669298      ,   0.0000000000000000      ,   0.0000000000000000     
   9746.6666666669316      ,   9750.0000000002656      ,   0.0000000000000000      ,   0.0000000000000000     
   9750.0000000002656      ,   9753.3333333335977      ,   0.0000000000000000      ,   0.0000000000000000     
   9753.3333333335995      ,   9756.6666666669335      ,   0.0000000000000000      ,   0.0000000000000000     
   9756.6666666669335      ,   9760.0000000002656      ,   0.0000000000000000      ,   0.0000000000000000     
   9760.0000000002674      ,   9763.3333333336013      ,   0.0000000000000000      ,   0.0000000000000000     
   9763.3333333336013      ,   9766.6666666669335      ,   0.0000000000000000      ,   0.0000000000000000     
   9766.6666666669353      ,   9770.0000000002692      ,   0.0000000000000000      ,   0.0000000000000000     
   9770.0000000002692      ,   9773.3333333336013      ,   0.0000000000000000      ,   0.0000000000000000     
   9773.3333333336032      ,   9776.6666666669371      ,   0.0000000000000000      ,   0.0000000000000000     
   9776.6666666669371      ,   9780.0000000002692      ,   0.0000000000000000      ,   0.0000000000000000     
   9780.0000000002710      ,   9783.3333333336050      ,   0.0000000000000000      ,   0.0000000000000000     
   9783.3333333336050      ,   9786.6666666669371      ,   0.0000000000000000      ,   0.0000000000000000     
   9786.6666666669389      ,   9790.0000000002728      ,   0.0000000000000000      ,   0.0000000000000000     
   9790.0000000002728      ,   9793.3333333336050      ,   0.0000000000000000      ,   0.0000000000000000     
   9793.3333333336068      ,   9796.6666666669407      ,   0.0000000000000000      ,   0.0000000000000000     
   9796.6666666669407      ,   9800.0000000002728      ,   0.0000000000000000      ,   0.0000000000000000     
   9800.0000000002747      ,   9803.3333333336086      ,   0.0000000000000000      ,   0.0000000000000000     
   9803.3333333336086      ,   9806.6666666669407      ,   0.0000000000000000      ,   0.0000000000000000     
   9806.6666666669425      ,   9810.0000000002765      ,   0.0000000000000000      ,   0.0000000000000000     
   9810.0000000002765      ,   9813.3333333336086      ,   0.0000000000000000      ,   0.0000000000000000     
   9813.3333333336104      ,   9816.6666666669444      ,   0.0000000000000000      ,   0.0000000000000000     
   9816.6666666669444      ,   9820.0000000002765      ,   0.0000000000000000      ,   0.0000000000000000     
   9820.0000000002783      ,   9823.3333333336122      ,   0.0000000000000000      ,   0.0000000000000000     
   9823.3333333336122      ,   9826.6666666669444      ,   0.0000000000000000      ,   0.0000000000000000     
   9826.6666666669462      ,   9830.0000000002801      ,   0.0000000000000000      ,   0.0000000000000000     
   9830.0000000002801      ,   9833.3333333336122      ,   0.0000000000000000      ,   0.0000000000000000     
   9833.3333333336141      ,   9836.6666666669480      ,   0.0000000000000000      ,   0.0000000000000000     
   9836.6666666669480      ,   9840.0000000002801      ,   0.0000000000000000      ,   0.0000000000000000     
   9840.0000000002819      ,   9843.3333333336159      ,   0.0000000000000000      ,   0.0000000000000000     
   9843.3333333336159      ,   9846.6666666669480      ,   0.0000000000000000      ,   0.0000000000000000     
   9846.6666666669498      ,   9850.0000000002838      ,   0.0000000000000000      ,   0.0000000000000000     
   9850.0000000002838      ,   9853.3333333336159      ,   0.0000000000000000      ,   0.0000000000000000     
   9853.3333333336177      ,   9856.6666666669516      ,   0.0000000000000000      ,   0.0000000000000000     
   9856.6666666669516      ,   9860.0000000002838      ,   0.0000000000000000      ,   0.0000000000000000     
   9860.0000000002856      ,   9863.3333333336195      ,   0.0000000000000000      ,   0.0000000000000000     
   9863.3333333336195      ,   9866.6666666669516      ,   0.0000000000000000      ,   0.0000000000000000     
   9866.6666666669535      ,   9870.0000000002874      ,   0.0000000000000000      ,   0.0000000000000000     
   9870.0000000002874      ,   9873.3333333336195      ,   0.0000000000000000      ,   0.0000000000000000     
   9873.3333333336213      ,   9876.6666666669553      ,   0.0000000000000000      ,   0.0000000000000000     
   9876.6666666669553      ,   9880.0000000002874      ,   0.0000000000000000      ,   0.0000000000000000     
   9880.0000000002892      ,   9883.3333333336232      ,   0.0000000000000000      ,   0.0000000000000000     
   9883.3333333336232      ,   9886.6666666669553      ,   0.0000000000000000      ,   0.0000000000000000     
   9886.6666666669571      ,   9890.0000000002910      ,   0.0000000000000000      ,   0.0000000000000000     
   9890.0000000002910      ,   9893.3333333336232      ,   0.0000000000000000      ,   0.0000000000000000     
   9893.3333333336250      ,   9896.6666666669589      ,   0.0000000000000000      ,   0.0000000000000000     
   9896.6666666669589      ,   9900.0000000002910      ,   0.0000000000000000      ,   0.0000000000000000     
   9900.0000000002929      ,   9903.3333333336268      ,   0.0000000000000000      ,   0.0000000000000000     
   9903.3333333336268      ,   9906.6666666669589      ,   0.0000000000000000      ,   0.0000000000000000     
   9906.6666666669607      ,   9910.0000000002947      ,   0.0000000000000000      ,   0.0000000000000000     
   9910.0000000002947      ,   9913.3333333336268      ,   0.0000000000000000      ,   0.0000000000000000     
   9913.3333333336286      ,   9916.6666666669626      ,   0.0000000000000000      ,   0.0000000000000000     
   9916.6666666669626      ,   9920.0000000002947      ,   0.0000000000000000      ,   0.0000000000000000     
   9920.0000000002965      ,   9923.3333333336304      ,   0.0000000000000000      ,   0.0000000000000000     
   9923.3333333336304      ,   9926.6666666669626      ,   0.0000000000000000      ,   0.0000000000000000     
   9926.6666666669644      ,   9930.0000000002983      ,   0.0000000000000000      ,   0.0000000000000000     
   9930.0000000002983      ,   9933.3333333336304      ,   0.0000000000000000      ,   0.0000000000000000     
   9933.3333333336323      ,   9936.6666666669662      ,   0.0000000000000000      ,   0.0000000000000000     
   9936.6666666669662      ,   9940.0000000002983      ,   0.0000000000000000      ,   0.0000000000000000     
   9940.0000000003001      ,   9943.3333333336341      ,   0.0000000000000000      ,   0.0000000000000000     
   9943.3333333336341      ,   9946.6666666669662      ,   0.0000000000000000      ,   0.0000000000000000     
   9946.6666666669680      ,   9950.0000000003020      ,   0.0000000000000000      ,   0.0000000000000000     
   9950.0000000003020      ,   9953.3333333336341      ,   0.0000000000000000      ,   0.0000000000000000     
   9953.3333333336359      ,   9956.6666666669698      ,   0.0000000000000000      ,   0.0000000000000000     
   9956.6666666669698      ,   9960.0000000003020      ,   0.0000000000000000      ,   0.0000000000000000     
   9960.0000000003038      ,   9963.3333333336377      ,   0.0000000000000000      ,   0.0000000000000000     
   9963.3333333336377      ,   9966.6666666669698      ,   0.0000000000000000      ,   0.0000000000000000     
   9966.6666666669717      ,   9970.0000000003056      ,   0.0000000000000000      ,   0.0000000000000000     
   9970.0000000003056      ,   9973.3333333336377      ,   0.0000000000000000      ,   0.0000000000000000     
   9973.3333333336395      ,   9976.6666666669735      ,   0.0000000000000000      ,   0.0000000000000000     
   9976.6666666669735      ,   9980.0000000003056      ,   0.0000000000000000      ,   0.0000000000000000     
   9980.0000000003074      ,   9983.3333333336413      ,   0.0000000000000000      ,   0.0000000000000000     
   9983.3333333336413      ,   9986.6666666669735      ,   0.0000000000000000      ,   0.0000000000000000     
   9986.6666666669753      ,   9990.0000000003092      ,   0.0000000000000000      ,   0.0000000000000000     
   9990.0000000003092      ,   9993.3333333336413      ,   0.0000000000000000      ,   0.0000000000000000     
   9993.3333333336432      ,   9996.6666666669771      ,   0.0000000000000000      ,   0.0000000000000000     
   9996.6666666669771      ,   10000.000000000309      ,   3.0947217915259988E-003 ,   7.4423338814782821E-007
