 # xl, xh, LO, dLO
   1000.0000000000000      ,   1006.6666666666666      ,   2.2168179825851476E-006 ,   1.2413882188689172E-008
   1006.6666666666666      ,   1013.3333333333333      ,   2.2554904964431385E-006 ,   1.2568122198842341E-008
   1013.3333333333333      ,   1019.9999999999999      ,   2.2554879809472457E-006 ,   1.2458702628772644E-008
   1019.9999999999999      ,   1026.6666666666665      ,   2.2669882464459527E-006 ,   1.2516415652184660E-008
   1026.6666666666665      ,   1033.3333333333330      ,   2.2885195699308040E-006 ,   1.2659412361562606E-008
   1033.3333333333333      ,   1040.0000000000000      ,   2.3096331768059738E-006 ,   1.2787411188633343E-008
   1040.0000000000000      ,   1046.6666666666665      ,   2.3160005202340120E-006 ,   1.2703119700237945E-008
   1046.6666666666667      ,   1053.3333333333335      ,   2.3358280227858318E-006 ,   1.2860486712587252E-008
   1053.3333333333335      ,   1060.0000000000000      ,   2.3584360321917107E-006 ,   1.3120709768980680E-008
   1060.0000000000002      ,   1066.6666666666670      ,   2.3803688925006925E-006 ,   1.2874274646261690E-008
   1066.6666666666670      ,   1073.3333333333335      ,   2.4098717344825493E-006 ,   1.3394515833920461E-008
   1073.3333333333337      ,   1080.0000000000005      ,   2.4080626343233900E-006 ,   1.3312581974108629E-008
   1080.0000000000005      ,   1086.6666666666670      ,   2.4000948505552541E-006 ,   1.3072956734972922E-008
   1086.6666666666672      ,   1093.3333333333339      ,   2.4465928857843266E-006 ,   1.3674337125311626E-008
   1093.3333333333339      ,   1100.0000000000005      ,   2.4272481610936974E-006 ,   1.3080909401059861E-008
   1100.0000000000007      ,   1106.6666666666674      ,   2.4389654945946970E-006 ,   1.3214393012662535E-008
   1106.6666666666674      ,   1113.3333333333339      ,   2.4957301418068858E-006 ,   1.3635413177919382E-008
   1113.3333333333342      ,   1120.0000000000009      ,   2.4833412432274442E-006 ,   1.3457143500254779E-008
   1120.0000000000009      ,   1126.6666666666674      ,   2.5065348209729026E-006 ,   1.3780750638639440E-008
   1126.6666666666677      ,   1133.3333333333344      ,   2.5136846994072660E-006 ,   1.3771215950001520E-008
   1133.3333333333344      ,   1140.0000000000009      ,   2.5506287006965818E-006 ,   1.3888100552407496E-008
   1140.0000000000011      ,   1146.6666666666679      ,   2.5461461763827969E-006 ,   1.3668678292223678E-008
   1146.6666666666679      ,   1153.3333333333344      ,   2.5611735986814095E-006 ,   1.3883048244752127E-008
   1153.3333333333346      ,   1160.0000000000014      ,   2.5336932425050851E-006 ,   1.3459057184852556E-008
   1160.0000000000014      ,   1166.6666666666679      ,   2.6018761614735772E-006 ,   1.4364288616964564E-008
   1166.6666666666681      ,   1173.3333333333348      ,   2.6072320760025387E-006 ,   1.4141597352792779E-008
   1173.3333333333348      ,   1180.0000000000014      ,   2.6068389804121206E-006 ,   1.3993044649875690E-008
   1180.0000000000016      ,   1186.6666666666683      ,   2.6432164241619013E-006 ,   1.4060878899714944E-008
   1186.6666666666683      ,   1193.3333333333348      ,   2.6491847703572594E-006 ,   1.4509530586397789E-008
   1193.3333333333351      ,   1200.0000000000018      ,   2.6705336470835300E-006 ,   1.4125833419185286E-008
   1200.0000000000018      ,   1206.6666666666683      ,   2.6999710995250044E-006 ,   1.4541406204500718E-008
   1206.6666666666686      ,   1213.3333333333353      ,   2.6937251900244897E-006 ,   1.4547312929603894E-008
   1213.3333333333353      ,   1220.0000000000018      ,   2.7139949625282003E-006 ,   1.4568875948497589E-008
   1220.0000000000020      ,   1226.6666666666688      ,   2.7122073416326162E-006 ,   1.4270610328489947E-008
   1226.6666666666688      ,   1233.3333333333353      ,   2.7090478702975898E-006 ,   1.4364529804319435E-008
   1233.3333333333355      ,   1240.0000000000023      ,   2.7266698714795415E-006 ,   1.4562067074899345E-008
   1240.0000000000023      ,   1246.6666666666688      ,   2.7503954644964892E-006 ,   1.4750748872148943E-008
   1246.6666666666690      ,   1253.3333333333358      ,   2.7930018893188352E-006 ,   1.4909570965794435E-008
   1253.3333333333358      ,   1260.0000000000023      ,   2.7851437315877966E-006 ,   1.4622783596762958E-008
   1260.0000000000025      ,   1266.6666666666692      ,   2.7821802714130665E-006 ,   1.4859998430020687E-008
   1266.6666666666692      ,   1273.3333333333358      ,   2.8020558836818687E-006 ,   1.4798330879233957E-008
   1273.3333333333360      ,   1280.0000000000027      ,   2.8359394102296644E-006 ,   1.5099862248593601E-008
   1280.0000000000027      ,   1286.6666666666692      ,   2.8560480900031035E-006 ,   1.5218013562819021E-008
   1286.6666666666695      ,   1293.3333333333362      ,   2.8550572318650849E-006 ,   1.5213400518781611E-008
   1293.3333333333362      ,   1300.0000000000027      ,   2.8882061475024702E-006 ,   1.5330516787732314E-008
   1300.0000000000030      ,   1306.6666666666697      ,   2.8697045701252212E-006 ,   1.5088557447613146E-008
   1306.6666666666697      ,   1313.3333333333362      ,   2.8895149504824313E-006 ,   1.5133257766304172E-008
   1313.3333333333364      ,   1320.0000000000032      ,   2.8931985067606250E-006 ,   1.5568300441948437E-008
   1320.0000000000032      ,   1326.6666666666697      ,   2.9156302754902156E-006 ,   1.5560956637542425E-008
   1326.6666666666699      ,   1333.3333333333367      ,   2.9363343945074047E-006 ,   1.5455789993506512E-008
   1333.3333333333367      ,   1340.0000000000032      ,   2.9499258962397792E-006 ,   1.6346054023551897E-008
   1340.0000000000034      ,   1346.6666666666702      ,   2.9551453969772166E-006 ,   1.5442475881137405E-008
   1346.6666666666702      ,   1353.3333333333367      ,   2.9892367894982185E-006 ,   1.5599467703543928E-008
   1353.3333333333369      ,   1360.0000000000036      ,   2.9914345991135101E-006 ,   1.6193264071872181E-008
   1360.0000000000036      ,   1366.6666666666702      ,   2.9878062394868592E-006 ,   1.5561665799780820E-008
   1366.6666666666704      ,   1373.3333333333371      ,   3.0142363718297359E-006 ,   1.5647362803960476E-008
   1373.3333333333371      ,   1380.0000000000036      ,   3.0270346721592739E-006 ,   1.5680419294205701E-008
   1380.0000000000039      ,   1386.6666666666706      ,   2.9917599801169231E-006 ,   1.5336323189591248E-008
   1386.6666666666706      ,   1393.3333333333371      ,   3.0437977973253250E-006 ,   1.5983541249052216E-008
   1393.3333333333374      ,   1400.0000000000041      ,   3.0517616913812264E-006 ,   1.6033463090622802E-008
   1400.0000000000041      ,   1406.6666666666706      ,   3.0667975423787705E-006 ,   1.6047826243553915E-008
   1406.6666666666708      ,   1413.3333333333376      ,   3.0718550339998373E-006 ,   1.5948589894382530E-008
   1413.3333333333376      ,   1420.0000000000041      ,   3.1081051566267409E-006 ,   1.6463073016586470E-008
   1420.0000000000043      ,   1426.6666666666711      ,   3.0998458388825452E-006 ,   1.6913225344473357E-008
   1426.6666666666711      ,   1433.3333333333376      ,   3.1111206568444920E-006 ,   1.6198975695188882E-008
   1433.3333333333378      ,   1440.0000000000045      ,   3.1400782892855476E-006 ,   1.6342179432962071E-008
   1440.0000000000045      ,   1446.6666666666711      ,   3.1321376414114167E-006 ,   1.5984637932477817E-008
   1446.6666666666713      ,   1453.3333333333380      ,   3.1719024200899316E-006 ,   1.6336635129848330E-008
   1453.3333333333380      ,   1460.0000000000045      ,   3.1888700774432505E-006 ,   1.6705860639584976E-008
   1460.0000000000048      ,   1466.6666666666715      ,   3.1590824047082107E-006 ,   1.6373084523832151E-008
   1466.6666666666715      ,   1473.3333333333380      ,   3.1806597485358466E-006 ,   1.6684224781317416E-008
   1473.3333333333383      ,   1480.0000000000050      ,   3.1978992279761417E-006 ,   1.6596653887858934E-008
   1480.0000000000050      ,   1486.6666666666715      ,   3.2026537896897239E-006 ,   1.6539539171045658E-008
   1486.6666666666717      ,   1493.3333333333385      ,   3.2342250896060802E-006 ,   1.7546989834210610E-008
   1493.3333333333385      ,   1500.0000000000050      ,   3.2265806896877013E-006 ,   1.6569802508963736E-008
   1500.0000000000052      ,   1506.6666666666720      ,   3.2477964378930016E-006 ,   1.6804384778282495E-008
   1506.6666666666720      ,   1513.3333333333385      ,   3.2399631470301884E-006 ,   1.6645366031530274E-008
   1513.3333333333387      ,   1520.0000000000055      ,   3.2405878234891894E-006 ,   1.7396454339095381E-008
   1520.0000000000055      ,   1526.6666666666720      ,   3.2672769638183334E-006 ,   1.6761861930366679E-008
   1526.6666666666722      ,   1533.3333333333389      ,   3.2927651448896855E-006 ,   1.6908913191036279E-008
   1533.3333333333389      ,   1540.0000000000055      ,   3.2751847133829901E-006 ,   1.6853944031796246E-008
   1540.0000000000057      ,   1546.6666666666724      ,   3.3213897518313716E-006 ,   1.6969032426233522E-008
   1546.6666666666724      ,   1553.3333333333389      ,   3.3055807922259261E-006 ,   1.6876989527204211E-008
   1553.3333333333392      ,   1560.0000000000059      ,   3.3157765454841937E-006 ,   1.6767366790477952E-008
   1560.0000000000059      ,   1566.6666666666724      ,   3.3212875139257132E-006 ,   1.7328669670820209E-008
   1566.6666666666727      ,   1573.3333333333394      ,   3.3317571008763401E-006 ,   1.6878092902707973E-008
   1573.3333333333394      ,   1580.0000000000059      ,   3.3678663502768380E-006 ,   1.7336308508395398E-008
   1580.0000000000061      ,   1586.6666666666729      ,   3.3491644623957754E-006 ,   1.7304711028412846E-008
   1586.6666666666729      ,   1593.3333333333394      ,   3.3867483712041018E-006 ,   1.7216670603320729E-008
   1593.3333333333396      ,   1600.0000000000064      ,   3.4101089978950145E-006 ,   1.7478853116498860E-008
   1600.0000000000064      ,   1606.6666666666729      ,   3.4439854813529084E-006 ,   1.7688750478186273E-008
   1606.6666666666731      ,   1613.3333333333399      ,   3.3943283990154991E-006 ,   1.7110146250948852E-008
   1613.3333333333399      ,   1620.0000000000064      ,   3.4129986295152220E-006 ,   1.7259318541253674E-008
   1620.0000000000066      ,   1626.6666666666733      ,   3.4279091990783457E-006 ,   1.7482791437029301E-008
   1626.6666666666733      ,   1633.3333333333399      ,   3.4437089231205404E-006 ,   1.7484695284016334E-008
   1633.3333333333401      ,   1640.0000000000068      ,   3.4442056510076384E-006 ,   1.7321486281040833E-008
   1640.0000000000068      ,   1646.6666666666733      ,   3.4744112290948377E-006 ,   1.7558386893573594E-008
   1646.6666666666736      ,   1653.3333333333403      ,   3.4630053261242180E-006 ,   1.7571364239011058E-008
   1653.3333333333403      ,   1660.0000000000068      ,   3.4488559943168343E-006 ,   1.7519540985085748E-008
   1660.0000000000070      ,   1666.6666666666738      ,   3.4830272372878107E-006 ,   1.7516403366792198E-008
   1666.6666666666738      ,   1673.3333333333403      ,   3.4750894288593752E-006 ,   1.7509452921497364E-008
   1673.3333333333405      ,   1680.0000000000073      ,   3.4930370378894323E-006 ,   1.7610425488765354E-008
   1680.0000000000073      ,   1686.6666666666738      ,   3.5189225183461985E-006 ,   1.7678508999683439E-008
   1686.6666666666740      ,   1693.3333333333408      ,   3.5376831707359990E-006 ,   1.8267842500562959E-008
   1693.3333333333408      ,   1700.0000000000073      ,   3.5111416348486544E-006 ,   1.7545955532459260E-008
   1700.0000000000075      ,   1706.6666666666742      ,   3.5157687161005876E-006 ,   1.7675719879307773E-008
   1706.6666666666742      ,   1713.3333333333408      ,   3.5382260067029314E-006 ,   1.7835134784035640E-008
   1713.3333333333410      ,   1720.0000000000077      ,   3.5838945923601385E-006 ,   1.8198236226220654E-008
   1720.0000000000077      ,   1726.6666666666742      ,   3.5444116237389869E-006 ,   1.7739898935088298E-008
   1726.6666666666745      ,   1733.3333333333412      ,   3.5861821977338458E-006 ,   1.7965884038544151E-008
   1733.3333333333412      ,   1740.0000000000077      ,   3.5897883171129940E-006 ,   1.7937633430516622E-008
   1740.0000000000080      ,   1746.6666666666747      ,   3.5698548982631583E-006 ,   1.7877201370307094E-008
   1746.6666666666747      ,   1753.3333333333412      ,   3.6079262635908558E-006 ,   1.8040910259910859E-008
   1753.3333333333414      ,   1760.0000000000082      ,   3.6021125530094689E-006 ,   1.8019001733566393E-008
   1760.0000000000082      ,   1766.6666666666747      ,   3.6114837067792864E-006 ,   1.7981808540001070E-008
   1766.6666666666749      ,   1773.3333333333417      ,   3.6098163333026224E-006 ,   1.8113309522464110E-008
   1773.3333333333417      ,   1780.0000000000082      ,   3.6234686279588315E-006 ,   1.8036059385851287E-008
   1780.0000000000084      ,   1786.6666666666752      ,   3.6477696994519661E-006 ,   1.8200675832036736E-008
   1786.6666666666752      ,   1793.3333333333417      ,   3.6653060254794418E-006 ,   1.8134793401182326E-008
   1793.3333333333419      ,   1800.0000000000086      ,   3.6631276621363684E-006 ,   1.8470446771615379E-008
   1800.0000000000086      ,   1806.6666666666752      ,   3.6593165069566464E-006 ,   1.8171144780838372E-008
   1806.6666666666754      ,   1813.3333333333421      ,   3.6407781065375465E-006 ,   1.8088056185883472E-008
   1813.3333333333421      ,   1820.0000000000086      ,   3.6844646567004070E-006 ,   2.1657654783582169E-008
   1820.0000000000089      ,   1826.6666666666756      ,   3.7130100013155982E-006 ,   1.8496919188548486E-008
   1826.6666666666756      ,   1833.3333333333421      ,   3.7038422565630905E-006 ,   1.8332132005977721E-008
   1833.3333333333424      ,   1840.0000000000091      ,   3.7288212058888450E-006 ,   1.8600644450431698E-008
   1840.0000000000091      ,   1846.6666666666756      ,   3.7153399093519575E-006 ,   1.8369612879619556E-008
   1846.6666666666758      ,   1853.3333333333426      ,   3.7200168838045004E-006 ,   1.9092697873904327E-008
   1853.3333333333426      ,   1860.0000000000091      ,   3.7156668512288124E-006 ,   1.8458873266374100E-008
   1860.0000000000093      ,   1866.6666666666761      ,   3.7506600191780030E-006 ,   1.8601627689255336E-008
   1866.6666666666761      ,   1873.3333333333426      ,   3.6849377099188588E-006 ,   1.8179256169186628E-008
   1873.3333333333428      ,   1880.0000000000095      ,   3.7263379658423745E-006 ,   1.8535167107532461E-008
   1880.0000000000095      ,   1886.6666666666761      ,   3.7656184336258776E-006 ,   1.8636730212965725E-008
   1886.6666666666763      ,   1893.3333333333430      ,   3.7726921927616041E-006 ,   1.8513530849566150E-008
   1893.3333333333430      ,   1900.0000000000095      ,   3.7450795311342762E-006 ,   1.8395819264502006E-008
   1900.0000000000098      ,   1906.6666666666765      ,   3.7359822369740890E-006 ,   1.8418997958939678E-008
   1906.6666666666765      ,   1913.3333333333430      ,   3.7992933079522820E-006 ,   1.8943358427690925E-008
   1913.3333333333433      ,   1920.0000000000100      ,   3.7747546368556050E-006 ,   1.8824502278884041E-008
   1920.0000000000100      ,   1926.6666666666765      ,   3.7998246413305910E-006 ,   1.8849636292171240E-008
   1926.6666666666767      ,   1933.3333333333435      ,   3.7925446601759333E-006 ,   1.8663085122261232E-008
   1933.3333333333435      ,   1940.0000000000100      ,   3.8010424566490157E-006 ,   1.8712693289657344E-008
   1940.0000000000102      ,   1946.6666666666770      ,   3.7884623772794341E-006 ,   1.8817685501903956E-008
   1946.6666666666770      ,   1953.3333333333435      ,   3.7988830664583739E-006 ,   1.8604411327140993E-008
   1953.3333333333437      ,   1960.0000000000105      ,   3.7756189989144436E-006 ,   1.8503268880886018E-008
   1960.0000000000105      ,   1966.6666666666770      ,   3.8416034057872199E-006 ,   1.8953596136825797E-008
   1966.6666666666772      ,   1973.3333333333439      ,   3.8217414922469757E-006 ,   1.8767187434214197E-008
   1973.3333333333439      ,   1980.0000000000105      ,   3.8439898360346766E-006 ,   1.8880697195575297E-008
   1980.0000000000107      ,   1986.6666666666774      ,   3.8178034235560741E-006 ,   1.8767131947829290E-008
   1986.6666666666774      ,   1993.3333333333439      ,   3.8545885510246419E-006 ,   1.8892785164928965E-008
   1993.3333333333442      ,   2000.0000000000109      ,   3.8672554629946791E-006 ,   1.9043248845508798E-008
   2000.0000000000109      ,   2006.6666666666774      ,   3.8377019266685869E-006 ,   1.8762081533378505E-008
   2006.6666666666777      ,   2013.3333333333444      ,   3.8816848774448572E-006 ,   1.8879729283104316E-008
   2013.3333333333444      ,   2020.0000000000109      ,   3.8346710650127236E-006 ,   1.8824250806604234E-008
   2020.0000000000111      ,   2026.6666666666779      ,   3.8958691852957134E-006 ,   1.9033437450913334E-008
   2026.6666666666779      ,   2033.3333333333444      ,   3.8864913815763838E-006 ,   1.8984247303286399E-008
   2033.3333333333446      ,   2040.0000000000114      ,   3.8781103827770375E-006 ,   1.8785379982139951E-008
   2040.0000000000114      ,   2046.6666666666779      ,   3.8887301806030514E-006 ,   1.8825263460519081E-008
   2046.6666666666781      ,   2053.3333333333449      ,   3.8751041167274739E-006 ,   1.8899061566627784E-008
   2053.3333333333449      ,   2060.0000000000114      ,   3.8946296836421579E-006 ,   1.9071516823431825E-008
   2060.0000000000114      ,   2066.6666666666779      ,   3.9147533629589245E-006 ,   2.0176296544188953E-008
   2066.6666666666779      ,   2073.3333333333444      ,   3.9055245392875104E-006 ,   1.9108057622943575E-008
   2073.3333333333444      ,   2080.0000000000109      ,   3.8964523906686548E-006 ,   1.8872118804568598E-008
   2080.0000000000109      ,   2086.6666666666774      ,   3.8880226398034721E-006 ,   1.8973973733634624E-008
   2086.6666666666774      ,   2093.3333333333439      ,   3.9234458903283742E-006 ,   1.9032672023182372E-008
   2093.3333333333439      ,   2100.0000000000105      ,   3.9153140241076177E-006 ,   1.9069360658846631E-008
   2100.0000000000105      ,   2106.6666666666770      ,   3.9141006062627897E-006 ,   1.8898769620377292E-008
   2106.6666666666770      ,   2113.3333333333435      ,   3.9347712265394613E-006 ,   1.9080803750427156E-008
   2113.3333333333435      ,   2120.0000000000100      ,   3.9736494553856828E-006 ,   1.9391214711911548E-008
   2120.0000000000100      ,   2126.6666666666765      ,   3.9569264607821375E-006 ,   1.9367009207144627E-008
   2126.6666666666765      ,   2133.3333333333430      ,   3.9379188537862360E-006 ,   1.9367870675784160E-008
   2133.3333333333430      ,   2140.0000000000095      ,   3.9491451916645771E-006 ,   1.9145343557959370E-008
   2140.0000000000095      ,   2146.6666666666761      ,   3.9526015518411963E-006 ,   1.9114139505132713E-008
   2146.6666666666761      ,   2153.3333333333426      ,   3.9704227372445959E-006 ,   1.9337471435447946E-008
   2153.3333333333426      ,   2160.0000000000091      ,   3.9583728458454877E-006 ,   1.9192180680431154E-008
   2160.0000000000091      ,   2166.6666666666756      ,   3.9643207006510190E-006 ,   1.9176173246100722E-008
   2166.6666666666756      ,   2173.3333333333421      ,   3.9619948460543343E-006 ,   1.9125924876696270E-008
   2173.3333333333421      ,   2180.0000000000086      ,   3.9654429501097716E-006 ,   1.9298898286841302E-008
   2180.0000000000086      ,   2186.6666666666752      ,   3.9379942713577930E-006 ,   1.8992816540281472E-008
   2186.6666666666752      ,   2193.3333333333417      ,   3.9814450868642802E-006 ,   1.9438808360967247E-008
   2193.3333333333417      ,   2200.0000000000082      ,   3.9438798930478941E-006 ,   1.9002629127802676E-008
   2200.0000000000082      ,   2206.6666666666747      ,   4.0036020523486713E-006 ,   1.9407748498143372E-008
   2206.6666666666747      ,   2213.3333333333412      ,   4.0011375115045885E-006 ,   1.9382584777145604E-008
   2213.3333333333412      ,   2220.0000000000077      ,   3.9738675976220401E-006 ,   1.8952071851830151E-008
   2220.0000000000077      ,   2226.6666666666742      ,   3.9677566331164010E-006 ,   1.9058845581583402E-008
   2226.6666666666742      ,   2233.3333333333408      ,   4.0204535310596506E-006 ,   1.9403624025080257E-008
   2233.3333333333408      ,   2240.0000000000073      ,   3.9927110847415035E-006 ,   1.9873109203254457E-008
   2240.0000000000073      ,   2246.6666666666738      ,   4.0257736416936667E-006 ,   1.9458949973076373E-008
   2246.6666666666738      ,   2253.3333333333403      ,   3.9945292960521391E-006 ,   1.9330030577328973E-008
   2253.3333333333403      ,   2260.0000000000068      ,   4.0259227366550650E-006 ,   1.9327357573655320E-008
   2260.0000000000068      ,   2266.6666666666733      ,   4.0216674500541748E-006 ,   1.9433648219847654E-008
   2266.6666666666733      ,   2273.3333333333399      ,   4.0176335420755869E-006 ,   1.9245877065994259E-008
   2273.3333333333399      ,   2280.0000000000064      ,   4.0086679439043751E-006 ,   1.9371125775265820E-008
   2280.0000000000064      ,   2286.6666666666729      ,   4.0473541062609096E-006 ,   1.9611212932419017E-008
   2286.6666666666729      ,   2293.3333333333394      ,   4.0121714775127261E-006 ,   1.9258240655872791E-008
   2293.3333333333394      ,   2300.0000000000059      ,   4.0531089627348090E-006 ,   1.9594657130733634E-008
   2300.0000000000059      ,   2306.6666666666724      ,   4.0532592212864301E-006 ,   1.9531304925934406E-008
   2306.6666666666724      ,   2313.3333333333389      ,   4.0201213781284857E-006 ,   1.9373321332581154E-008
   2313.3333333333389      ,   2320.0000000000055      ,   4.0447647192456025E-006 ,   1.9510124748769238E-008
   2320.0000000000055      ,   2326.6666666666720      ,   4.0322464592564750E-006 ,   1.9646617468679136E-008
   2326.6666666666720      ,   2333.3333333333385      ,   4.0247226180563077E-006 ,   1.9442921317103048E-008
   2333.3333333333385      ,   2340.0000000000050      ,   4.0377078712197497E-006 ,   1.9539662435545916E-008
   2340.0000000000050      ,   2346.6666666666715      ,   4.0513074092832797E-006 ,   1.9542945922302959E-008
   2346.6666666666715      ,   2353.3333333333380      ,   4.0299532968900600E-006 ,   1.9448483846996030E-008
   2353.3333333333380      ,   2360.0000000000045      ,   4.0202071868195684E-006 ,   1.9419438361391296E-008
   2360.0000000000045      ,   2366.6666666666711      ,   4.0632157627375358E-006 ,   1.9607195923897671E-008
   2366.6666666666711      ,   2373.3333333333376      ,   4.0315163990548049E-006 ,   1.9446836274201965E-008
   2373.3333333333376      ,   2380.0000000000041      ,   4.0543883017471613E-006 ,   1.9672819292269591E-008
   2380.0000000000041      ,   2386.6666666666706      ,   4.0662213936750185E-006 ,   1.9535852879126509E-008
   2386.6666666666706      ,   2393.3333333333371      ,   4.0487763903274428E-006 ,   1.9288693351177325E-008
   2393.3333333333371      ,   2400.0000000000036      ,   4.0464622572455776E-006 ,   1.9499009145652240E-008
   2400.0000000000036      ,   2406.6666666666702      ,   4.0599974839048035E-006 ,   1.9435291413447209E-008
   2406.6666666666702      ,   2413.3333333333367      ,   4.0608543247795611E-006 ,   1.9570407336997137E-008
   2413.3333333333367      ,   2420.0000000000032      ,   4.0439348036868943E-006 ,   1.9591926634150023E-008
   2420.0000000000032      ,   2426.6666666666697      ,   4.0817407891259884E-006 ,   1.9541552234170973E-008
   2426.6666666666697      ,   2433.3333333333362      ,   4.0469407866062576E-006 ,   1.9376997968321075E-008
   2433.3333333333362      ,   2440.0000000000027      ,   4.0679862059753479E-006 ,   1.9637967003418975E-008
   2440.0000000000027      ,   2446.6666666666692      ,   4.0558464453772329E-006 ,   1.9392494423029107E-008
   2446.6666666666692      ,   2453.3333333333358      ,   4.0645029280744705E-006 ,   1.9535414400468507E-008
   2453.3333333333358      ,   2460.0000000000023      ,   4.0759053602574643E-006 ,   1.9545661434041430E-008
   2460.0000000000023      ,   2466.6666666666688      ,   4.0521575160265557E-006 ,   1.9410448828267181E-008
   2466.6666666666688      ,   2473.3333333333353      ,   4.0848666517333534E-006 ,   1.9614474046281028E-008
   2473.3333333333353      ,   2480.0000000000018      ,   4.0388113909068642E-006 ,   1.9440369539083276E-008
   2480.0000000000018      ,   2486.6666666666683      ,   4.1063292086487239E-006 ,   1.9686596103391455E-008
   2486.6666666666683      ,   2493.3333333333348      ,   4.0589744015521564E-006 ,   1.9520803093387215E-008
   2493.3333333333348      ,   2500.0000000000014      ,   4.0309440768063407E-006 ,   1.9324142169054896E-008
   2500.0000000000014      ,   2506.6666666666679      ,   4.0734801289151877E-006 ,   1.9510446071857984E-008
   2506.6666666666679      ,   2513.3333333333344      ,   4.0479719865412615E-006 ,   1.9337648810506813E-008
   2513.3333333333344      ,   2520.0000000000009      ,   4.0767739023113838E-006 ,   1.9547889541085671E-008
   2520.0000000000009      ,   2526.6666666666674      ,   4.0338824292121904E-006 ,   1.9450147455804062E-008
   2526.6666666666674      ,   2533.3333333333339      ,   4.0673879788602818E-006 ,   1.9488208831278246E-008
   2533.3333333333339      ,   2540.0000000000005      ,   4.0548802991939720E-006 ,   1.9517754760999636E-008
   2540.0000000000005      ,   2546.6666666666670      ,   4.0546609017626683E-006 ,   1.9372151486300026E-008
   2546.6666666666670      ,   2553.3333333333335      ,   4.0580648126491508E-006 ,   1.9473344320906197E-008
   2553.3333333333335      ,   2560.0000000000000      ,   4.0775828204005039E-006 ,   1.9659464704905550E-008
   2560.0000000000000      ,   2566.6666666666665      ,   4.1250637517706340E-006 ,   1.9916565856076916E-008
   2566.6666666666665      ,   2573.3333333333330      ,   4.0431677207706190E-006 ,   1.9319166753182669E-008
   2573.3333333333330      ,   2579.9999999999995      ,   4.0609035265303670E-006 ,   1.9498706368407716E-008
   2579.9999999999995      ,   2586.6666666666661      ,   4.0690302153154388E-006 ,   1.9527766933869034E-008
   2586.6666666666661      ,   2593.3333333333326      ,   4.0862203654533278E-006 ,   1.9646382959831278E-008
   2593.3333333333326      ,   2599.9999999999991      ,   4.0365726359533775E-006 ,   1.9472967266441189E-008
   2599.9999999999991      ,   2606.6666666666656      ,   4.0253680447613981E-006 ,   1.9382413389125904E-008
   2606.6666666666656      ,   2613.3333333333321      ,   4.0459181795222895E-006 ,   1.9416428876008661E-008
   2613.3333333333321      ,   2619.9999999999986      ,   4.0259531906914397E-006 ,   1.9381757567653545E-008
   2619.9999999999986      ,   2626.6666666666652      ,   4.0508480906875764E-006 ,   1.9557555800128719E-008
   2626.6666666666652      ,   2633.3333333333317      ,   4.0494201621858337E-006 ,   1.9488297069463333E-008
   2633.3333333333317      ,   2639.9999999999982      ,   4.0675055741136681E-006 ,   1.9597752729539146E-008
   2639.9999999999982      ,   2646.6666666666647      ,   4.0861526091949195E-006 ,   1.9791123684608332E-008
   2646.6666666666647      ,   2653.3333333333312      ,   4.0606169580850036E-006 ,   1.9572768031056153E-008
   2653.3333333333312      ,   2659.9999999999977      ,   4.0274405767202571E-006 ,   1.9318915417832401E-008
   2659.9999999999977      ,   2666.6666666666642      ,   4.0713046758122415E-006 ,   1.9658309235762951E-008
   2666.6666666666642      ,   2673.3333333333308      ,   4.0318651158977898E-006 ,   1.9583538476075695E-008
   2673.3333333333308      ,   2679.9999999999973      ,   4.0571287505936235E-006 ,   1.9501879848078744E-008
   2679.9999999999973      ,   2686.6666666666638      ,   4.0158654704220615E-006 ,   1.9288187172410814E-008
   2686.6666666666638      ,   2693.3333333333303      ,   4.0508326146666354E-006 ,   1.9445787206494115E-008
   2693.3333333333303      ,   2699.9999999999968      ,   4.0222648330114708E-006 ,   1.9416600514182976E-008
   2699.9999999999968      ,   2706.6666666666633      ,   4.0302996251903944E-006 ,   1.9334150552833369E-008
   2706.6666666666633      ,   2713.3333333333298      ,   4.0338199390482773E-006 ,   1.9382497548964062E-008
   2713.3333333333298      ,   2719.9999999999964      ,   4.0416264981397305E-006 ,   1.9537872055338239E-008
   2719.9999999999964      ,   2726.6666666666629      ,   4.0052608714040140E-006 ,   1.9311831602269705E-008
   2726.6666666666629      ,   2733.3333333333294      ,   4.0014777887540186E-006 ,   1.9295122544618082E-008
   2733.3333333333294      ,   2739.9999999999959      ,   4.0402609246971092E-006 ,   1.9544525150039070E-008
   2739.9999999999959      ,   2746.6666666666624      ,   3.9919646656861341E-006 ,   1.9177186129890401E-008
   2746.6666666666624      ,   2753.3333333333289      ,   3.9913471221019250E-006 ,   1.9141486263775207E-008
   2753.3333333333289      ,   2759.9999999999955      ,   4.0354874207836430E-006 ,   1.9440183376802173E-008
   2759.9999999999955      ,   2766.6666666666620      ,   4.0257438957244147E-006 ,   1.9584338646413535E-008
   2766.6666666666620      ,   2773.3333333333285      ,   4.0001397198834518E-006 ,   1.9400817559539901E-008
   2773.3333333333285      ,   2779.9999999999950      ,   4.0281852820863266E-006 ,   1.9494580854202329E-008
   2779.9999999999950      ,   2786.6666666666615      ,   4.0100980515608592E-006 ,   1.9407356283874682E-008
   2786.6666666666615      ,   2793.3333333333280      ,   4.0172716531072751E-006 ,   2.0330997681797771E-008
   2793.3333333333280      ,   2799.9999999999945      ,   4.0165288413094604E-006 ,   1.9420158055821677E-008
   2799.9999999999945      ,   2806.6666666666611      ,   4.0127973296719155E-006 ,   1.9358171635358191E-008
   2806.6666666666611      ,   2813.3333333333276      ,   4.0054080988625592E-006 ,   1.9468766043548768E-008
   2813.3333333333276      ,   2819.9999999999941      ,   3.9437256021669412E-006 ,   1.9096383932502477E-008
   2819.9999999999941      ,   2826.6666666666606      ,   3.9690619813166801E-006 ,   1.9240441797417943E-008
   2826.6666666666606      ,   2833.3333333333271      ,   4.0103119120810123E-006 ,   1.9419834158239434E-008
   2833.3333333333271      ,   2839.9999999999936      ,   3.9884465907550956E-006 ,   1.9252513068895742E-008
   2839.9999999999936      ,   2846.6666666666601      ,   3.9783810395579019E-006 ,   1.9189016072344537E-008
   2846.6666666666601      ,   2853.3333333333267      ,   3.9757185435019720E-006 ,   1.9179820030160186E-008
   2853.3333333333267      ,   2859.9999999999932      ,   3.9618157702065602E-006 ,   1.9367234655190380E-008
   2859.9999999999932      ,   2866.6666666666597      ,   3.9411869276728959E-006 ,   1.9179173877874189E-008
   2866.6666666666597      ,   2873.3333333333262      ,   3.9295105493016186E-006 ,   1.8996152245082256E-008
   2873.3333333333262      ,   2879.9999999999927      ,   3.9550632309431520E-006 ,   1.9259668878492239E-008
   2879.9999999999927      ,   2886.6666666666592      ,   3.9468580046809298E-006 ,   1.9038372323977160E-008
   2886.6666666666592      ,   2893.3333333333258      ,   3.9590173906588259E-006 ,   1.9247846570320027E-008
   2893.3333333333258      ,   2899.9999999999923      ,   3.9374878434601863E-006 ,   1.9248916923557986E-008
   2899.9999999999923      ,   2906.6666666666588      ,   3.9542689192529020E-006 ,   1.9083982449425516E-008
   2906.6666666666588      ,   2913.3333333333253      ,   3.9269268347082044E-006 ,   1.8913707295569456E-008
   2913.3333333333253      ,   2919.9999999999918      ,   3.9199841069902233E-006 ,   1.9193618812382851E-008
   2919.9999999999918      ,   2926.6666666666583      ,   3.9309169862216697E-006 ,   1.9378306224844024E-008
   2926.6666666666583      ,   2933.3333333333248      ,   3.9709850396700888E-006 ,   1.9451643922393994E-008
   2933.3333333333248      ,   2939.9999999999914      ,   3.9233671084253445E-006 ,   1.9108249110439909E-008
   2939.9999999999914      ,   2946.6666666666579      ,   3.9084534272671090E-006 ,   1.8924615525473841E-008
   2946.6666666666579      ,   2953.3333333333244      ,   3.9103259871897481E-006 ,   1.8912682086372979E-008
   2953.3333333333244      ,   2959.9999999999909      ,   3.9036804867194225E-006 ,   1.8965692227392725E-008
   2959.9999999999909      ,   2966.6666666666574      ,   3.9133574880055002E-006 ,   1.9039369391367743E-008
   2966.6666666666574      ,   2973.3333333333239      ,   3.8867764903680763E-006 ,   1.8987718397165901E-008
   2973.3333333333239      ,   2979.9999999999905      ,   3.8878979975267900E-006 ,   1.9003033587939431E-008
   2979.9999999999905      ,   2986.6666666666570      ,   3.8559133705992832E-006 ,   1.8700986816303795E-008
   2986.6666666666570      ,   2993.3333333333235      ,   3.9126977346021662E-006 ,   1.9048125300774782E-008
   2993.3333333333235      ,   2999.9999999999900      ,   3.8953900320701109E-006 ,   1.8963200604119211E-008
   2999.9999999999900      ,   3006.6666666666565      ,   3.8684160522095563E-006 ,   1.9335704955061180E-008
   3006.6666666666565      ,   3013.3333333333230      ,   3.8493803072898155E-006 ,   1.8763796816129751E-008
   3013.3333333333230      ,   3019.9999999999895      ,   3.8983187519196046E-006 ,   1.9069661655097425E-008
   3019.9999999999895      ,   3026.6666666666561      ,   3.8646704608170899E-006 ,   1.8912778175278236E-008
   3026.6666666666561      ,   3033.3333333333226      ,   3.8537892068695990E-006 ,   1.8709526163169927E-008
   3033.3333333333226      ,   3039.9999999999891      ,   3.8455402854649908E-006 ,   1.8882711324885080E-008
   3039.9999999999891      ,   3046.6666666666556      ,   3.8106212299704353E-006 ,   1.8659551548863915E-008
   3046.6666666666556      ,   3053.3333333333221      ,   3.8473547744153353E-006 ,   1.8990792498555434E-008
   3053.3333333333221      ,   3059.9999999999886      ,   3.7993423539560901E-006 ,   1.8915691832403791E-008
   3059.9999999999886      ,   3066.6666666666551      ,   3.8185059742694766E-006 ,   1.8731820342843528E-008
   3066.6666666666551      ,   3073.3333333333217      ,   3.7924884528632686E-006 ,   1.8657394065474035E-008
   3073.3333333333217      ,   3079.9999999999882      ,   3.8003270817803267E-006 ,   1.8757798155801920E-008
   3079.9999999999882      ,   3086.6666666666547      ,   3.7631759891154809E-006 ,   1.8373507225050991E-008
   3086.6666666666547      ,   3093.3333333333212      ,   3.7796123367878741E-006 ,   1.9244935976438694E-008
   3093.3333333333212      ,   3099.9999999999877      ,   3.7936393074789399E-006 ,   1.8860081692759654E-008
   3099.9999999999877      ,   3106.6666666666542      ,   3.7711862898566655E-006 ,   1.8508656873077093E-008
   3106.6666666666542      ,   3113.3333333333208      ,   3.7649403832121578E-006 ,   1.8648460127629545E-008
   3113.3333333333208      ,   3119.9999999999873      ,   3.7305720409800863E-006 ,   1.8366980849695144E-008
   3119.9999999999873      ,   3126.6666666666538      ,   3.7312558198682745E-006 ,   1.8652760106995145E-008
   3126.6666666666538      ,   3133.3333333333203      ,   3.7790872507806655E-006 ,   1.8372349588043153E-008
   3133.3333333333203      ,   3139.9999999999868      ,   3.7837132145074750E-006 ,   1.8867663669132453E-008
   3139.9999999999868      ,   3146.6666666666533      ,   3.7437911870923257E-006 ,   1.8473640596627557E-008
   3146.6666666666533      ,   3153.3333333333198      ,   3.7083769971783117E-006 ,   1.8483044682644861E-008
   3153.3333333333198      ,   3159.9999999999864      ,   3.7355273861414000E-006 ,   1.8585247109030243E-008
   3159.9999999999864      ,   3166.6666666666529      ,   3.7281404268964063E-006 ,   1.8340010765107382E-008
   3166.6666666666529      ,   3173.3333333333194      ,   3.7159763912804938E-006 ,   1.8409201325695882E-008
   3173.3333333333194      ,   3179.9999999999859      ,   3.7105725600717849E-006 ,   1.8282208926814628E-008
   3179.9999999999859      ,   3186.6666666666524      ,   3.7063700754937463E-006 ,   1.9059588790214008E-008
   3186.6666666666524      ,   3193.3333333333189      ,   3.6748844771378619E-006 ,   1.8249118606081053E-008
   3193.3333333333189      ,   3199.9999999999854      ,   3.6792202861563144E-006 ,   1.8220161296169797E-008
   3199.9999999999854      ,   3206.6666666666520      ,   3.6731218517459017E-006 ,   1.8138214971372787E-008
   3206.6666666666520      ,   3213.3333333333185      ,   3.6855584671809226E-006 ,   1.8292957903275118E-008
   3213.3333333333185      ,   3219.9999999999850      ,   3.6590123059904247E-006 ,   1.8257046088042948E-008
   3219.9999999999850      ,   3226.6666666666515      ,   3.6587222366369459E-006 ,   1.8043092931249417E-008
   3226.6666666666515      ,   3233.3333333333180      ,   3.6620960852780548E-006 ,   1.8172089781005780E-008
   3233.3333333333180      ,   3239.9999999999845      ,   3.6387477217101298E-006 ,   1.8022484152126475E-008
   3239.9999999999845      ,   3246.6666666666511      ,   3.6279378730959300E-006 ,   1.8043672072299993E-008
   3246.6666666666511      ,   3253.3333333333176      ,   3.6340546811120056E-006 ,   1.8091752462202362E-008
   3253.3333333333176      ,   3259.9999999999841      ,   3.6403812033619817E-006 ,   1.8350593475669268E-008
   3259.9999999999841      ,   3266.6666666666506      ,   3.6110988834793812E-006 ,   1.8074479350385297E-008
   3266.6666666666506      ,   3273.3333333333171      ,   3.6207040411220656E-006 ,   1.8160555978468840E-008
   3273.3333333333171      ,   3279.9999999999836      ,   3.5941837858791340E-006 ,   1.7885963039561385E-008
   3279.9999999999836      ,   3286.6666666666501      ,   3.5690150298851997E-006 ,   1.7795563663915974E-008
   3286.6666666666501      ,   3293.3333333333167      ,   3.5856513648088512E-006 ,   1.7883781316257422E-008
   3293.3333333333167      ,   3299.9999999999832      ,   3.5381269120406955E-006 ,   1.7839659376501083E-008
   3299.9999999999832      ,   3306.6666666666497      ,   3.5706145700372985E-006 ,   1.7938617274544550E-008
   3306.6666666666497      ,   3313.3333333333162      ,   3.5592942949246599E-006 ,   1.8022952330732250E-008
   3313.3333333333162      ,   3319.9999999999827      ,   3.5315118127390545E-006 ,   1.7893646039381408E-008
   3319.9999999999827      ,   3326.6666666666492      ,   3.5338505779826246E-006 ,   1.7728567763084584E-008
   3326.6666666666492      ,   3333.3333333333157      ,   3.5272605701742194E-006 ,   1.7951458642912211E-008
   3333.3333333333157      ,   3339.9999999999823      ,   3.5295847958982459E-006 ,   2.1414903096790705E-008
   3339.9999999999823      ,   3346.6666666666488      ,   3.5214702794177231E-006 ,   1.7804014686182780E-008
   3346.6666666666488      ,   3353.3333333333153      ,   3.4900441027748083E-006 ,   1.7518430303809628E-008
   3353.3333333333153      ,   3359.9999999999818      ,   3.4732466622766068E-006 ,   1.7483281495414293E-008
   3359.9999999999818      ,   3366.6666666666483      ,   3.4616938182040223E-006 ,   1.7730674590514611E-008
   3366.6666666666483      ,   3373.3333333333148      ,   3.4518647760274660E-006 ,   1.7506700084707513E-008
   3373.3333333333148      ,   3379.9999999999814      ,   3.4844479474066703E-006 ,   1.7529420075379205E-008
   3379.9999999999814      ,   3386.6666666666479      ,   3.4310934066882465E-006 ,   1.7352199446306176E-008
   3386.6666666666479      ,   3393.3333333333144      ,   3.4550124800338359E-006 ,   1.7846461800031057E-008
   3393.3333333333144      ,   3399.9999999999809      ,   3.4154055005971675E-006 ,   1.7129088510861799E-008
   3399.9999999999809      ,   3406.6666666666474      ,   3.4294712077271721E-006 ,   1.7377446244389460E-008
   3406.6666666666474      ,   3413.3333333333139      ,   3.4298785476303062E-006 ,   1.7553789098258348E-008
   3413.3333333333139      ,   3419.9999999999804      ,   3.4178482902632703E-006 ,   1.7585335759956232E-008
   3419.9999999999804      ,   3426.6666666666470      ,   3.3928430149499334E-006 ,   1.7066245542991597E-008
   3426.6666666666470      ,   3433.3333333333135      ,   3.4069049869027919E-006 ,   1.7248000506531807E-008
   3433.3333333333135      ,   3439.9999999999800      ,   3.3847077531571797E-006 ,   1.7226524961121009E-008
   3439.9999999999800      ,   3446.6666666666465      ,   3.3533347723150972E-006 ,   1.7278087988441745E-008
   3446.6666666666465      ,   3453.3333333333130      ,   3.3623500088660803E-006 ,   1.7320315293552159E-008
   3453.3333333333130      ,   3459.9999999999795      ,   3.3590282865361734E-006 ,   1.7181332462882972E-008
   3459.9999999999795      ,   3466.6666666666461      ,   3.3437872019254853E-006 ,   1.7099263836018870E-008
   3466.6666666666461      ,   3473.3333333333126      ,   3.3058955569726788E-006 ,   1.6835965265421839E-008
   3473.3333333333126      ,   3479.9999999999791      ,   3.2898487488043921E-006 ,   1.6737631626324751E-008
   3479.9999999999791      ,   3486.6666666666456      ,   3.3048908388532717E-006 ,   1.7012088161015926E-008
   3486.6666666666456      ,   3493.3333333333121      ,   3.3056509899171482E-006 ,   1.6654137830335491E-008
   3493.3333333333121      ,   3499.9999999999786      ,   3.2548274061517860E-006 ,   1.6504650337730895E-008
   3499.9999999999786      ,   3506.6666666666451      ,   3.2972957802103468E-006 ,   1.7098732999667087E-008
   3506.6666666666451      ,   3513.3333333333117      ,   3.2738360553800856E-006 ,   1.6819904027607279E-008
   3513.3333333333117      ,   3519.9999999999782      ,   3.2803272056252031E-006 ,   1.6809763519518983E-008
   3519.9999999999782      ,   3526.6666666666447      ,   3.2350892662947602E-006 ,   1.6574141804697789E-008
   3526.6666666666447      ,   3533.3333333333112      ,   3.2323030799603873E-006 ,   1.6471244836923381E-008
   3533.3333333333112      ,   3539.9999999999777      ,   3.1990479070949406E-006 ,   1.6431368759456363E-008
   3539.9999999999777      ,   3546.6666666666442      ,   3.1983975634129581E-006 ,   1.6655273672698082E-008
   3546.6666666666442      ,   3553.3333333333107      ,   3.1661183297673542E-006 ,   1.6215088111356055E-008
   3553.3333333333107      ,   3559.9999999999773      ,   3.2075179900761750E-006 ,   1.6620830005918318E-008
   3559.9999999999773      ,   3566.6666666666438      ,   3.1914582825042683E-006 ,   1.7329742798420572E-008
   3566.6666666666438      ,   3573.3333333333103      ,   3.1588662375005081E-006 ,   1.6429155831528708E-008
   3573.3333333333103      ,   3579.9999999999768      ,   3.1465016073875797E-006 ,   1.6437540218240382E-008
   3579.9999999999768      ,   3586.6666666666433      ,   3.1220456843329488E-006 ,   1.6074926187221647E-008
   3586.6666666666433      ,   3593.3333333333098      ,   3.1336393423880429E-006 ,   1.6339015105929010E-008
   3593.3333333333098      ,   3599.9999999999764      ,   3.0869685735459751E-006 ,   1.6007202872540362E-008
   3599.9999999999764      ,   3606.6666666666429      ,   3.1131641215384981E-006 ,   1.6223805708828131E-008
   3606.6666666666429      ,   3613.3333333333094      ,   3.1007373172166913E-006 ,   1.6044524048122234E-008
   3613.3333333333094      ,   3619.9999999999759      ,   3.1032604320656485E-006 ,   1.6287312803477831E-008
   3619.9999999999759      ,   3626.6666666666424      ,   3.0647536625612742E-006 ,   1.5989544981033897E-008
   3626.6666666666424      ,   3633.3333333333089      ,   3.0745286828143371E-006 ,   1.6456346430824098E-008
   3633.3333333333089      ,   3639.9999999999754      ,   3.0238602370589421E-006 ,   1.5496153790353931E-008
   3639.9999999999754      ,   3646.6666666666420      ,   3.0160258539365242E-006 ,   1.6005289511787193E-008
   3646.6666666666420      ,   3653.3333333333085      ,   3.0325031588213814E-006 ,   1.5942139112567704E-008
   3653.3333333333085      ,   3659.9999999999750      ,   2.9895854954581141E-006 ,   1.5583722649552205E-008
   3659.9999999999750      ,   3666.6666666666415      ,   2.9909174945593786E-006 ,   1.5618207053046439E-008
   3666.6666666666415      ,   3673.3333333333080      ,   2.9776497011004745E-006 ,   1.5565962226051454E-008
   3673.3333333333080      ,   3679.9999999999745      ,   2.9582332060038039E-006 ,   1.6431661400938250E-008
   3679.9999999999745      ,   3686.6666666666410      ,   2.9534496400746143E-006 ,   1.5435723753070647E-008
   3686.6666666666410      ,   3693.3333333333076      ,   2.9526785995745667E-006 ,   1.5418861641822857E-008
   3693.3333333333076      ,   3699.9999999999741      ,   2.9191805935276204E-006 ,   1.5341047009882016E-008
   3699.9999999999741      ,   3706.6666666666406      ,   2.9030845756506643E-006 ,   1.5216229405473936E-008
   3706.6666666666406      ,   3713.3333333333071      ,   2.8898538576922557E-006 ,   1.5077297707606863E-008
   3713.3333333333071      ,   3719.9999999999736      ,   2.8799794633571426E-006 ,   1.5087322070393892E-008
   3719.9999999999736      ,   3726.6666666666401      ,   2.8860722132328783E-006 ,   1.5081410075194281E-008
   3726.6666666666401      ,   3733.3333333333067      ,   2.8712284714358257E-006 ,   1.5382219094726674E-008
   3733.3333333333067      ,   3739.9999999999732      ,   2.8574106193751717E-006 ,   1.5736658054330577E-008
   3739.9999999999732      ,   3746.6666666666397      ,   2.8205816754492793E-006 ,   1.5020271244444724E-008
   3746.6666666666397      ,   3753.3333333333062      ,   2.8199285634007633E-006 ,   1.5161533756478293E-008
   3753.3333333333062      ,   3759.9999999999727      ,   2.8267333609854240E-006 ,   1.5060855474360207E-008
   3759.9999999999727      ,   3766.6666666666392      ,   2.8035822361365689E-006 ,   1.4947233160070456E-008
   3766.6666666666392      ,   3773.3333333333057      ,   2.8038172780380135E-006 ,   1.6950821746937492E-008
   3773.3333333333057      ,   3779.9999999999723      ,   2.7599359439340928E-006 ,   1.4797296548139387E-008
   3779.9999999999723      ,   3786.6666666666388      ,   2.7524323987228292E-006 ,   1.4583406163585897E-008
   3786.6666666666388      ,   3793.3333333333053      ,   2.7428995604797155E-006 ,   1.4635748184735611E-008
   3793.3333333333053      ,   3799.9999999999718      ,   2.7363106283576800E-006 ,   1.4508921058550874E-008
   3799.9999999999718      ,   3806.6666666666383      ,   2.7066635194252192E-006 ,   1.4579802339531544E-008
   3806.6666666666383      ,   3813.3333333333048      ,   2.7023802492586966E-006 ,   1.4463300807731561E-008
   3813.3333333333048      ,   3819.9999999999714      ,   2.6877422760836464E-006 ,   1.4439967556402824E-008
   3819.9999999999714      ,   3826.6666666666379      ,   2.6534379837827390E-006 ,   1.4225393345280705E-008
   3826.6666666666379      ,   3833.3333333333044      ,   2.6672764746419013E-006 ,   1.4387463564942508E-008
   3833.3333333333044      ,   3839.9999999999709      ,   2.6417956292609048E-006 ,   1.4068420102691592E-008
   3839.9999999999709      ,   3846.6666666666374      ,   2.6179291501774801E-006 ,   1.3908808267214608E-008
   3846.6666666666374      ,   3853.3333333333039      ,   2.6433590259613348E-006 ,   1.4155564448678151E-008
   3853.3333333333039      ,   3859.9999999999704      ,   2.6239458873288636E-006 ,   1.4079950483750644E-008
   3859.9999999999704      ,   3866.6666666666370      ,   2.6110513718481656E-006 ,   1.3930990307431380E-008
   3866.6666666666370      ,   3873.3333333333035      ,   2.5771591583160436E-006 ,   1.3729018491473612E-008
   3873.3333333333035      ,   3879.9999999999700      ,   2.5452176242413207E-006 ,   1.3436763563559358E-008
   3879.9999999999700      ,   3886.6666666666365      ,   2.5595044308835324E-006 ,   1.3851063857478187E-008
   3886.6666666666365      ,   3893.3333333333030      ,   2.5327490532005972E-006 ,   1.3723142165161674E-008
   3893.3333333333030      ,   3899.9999999999695      ,   2.5224608861620456E-006 ,   1.3742167481016683E-008
   3899.9999999999695      ,   3906.6666666666360      ,   2.5086142529778568E-006 ,   1.3486209652370358E-008
   3906.6666666666360      ,   3913.3333333333026      ,   2.4785956826252650E-006 ,   1.3464734517723306E-008
   3913.3333333333026      ,   3919.9999999999691      ,   2.4743030021193858E-006 ,   1.3445535902791406E-008
   3919.9999999999691      ,   3926.6666666666356      ,   2.4628489028170032E-006 ,   1.3320937720381392E-008
   3926.6666666666356      ,   3933.3333333333021      ,   2.4285897668637575E-006 ,   1.3058862596466333E-008
   3933.3333333333021      ,   3939.9999999999686      ,   2.4107664107384143E-006 ,   1.2865843517923747E-008
   3939.9999999999686      ,   3946.6666666666351      ,   2.4163673847468210E-006 ,   1.3223759113218799E-008
   3946.6666666666351      ,   3953.3333333333017      ,   2.3965646168942995E-006 ,   1.2971395518600636E-008
   3953.3333333333017      ,   3959.9999999999682      ,   2.3545084838627120E-006 ,   1.2934581156669965E-008
   3959.9999999999682      ,   3966.6666666666347      ,   2.3745992123192410E-006 ,   1.2954964603342655E-008
   3966.6666666666347      ,   3973.3333333333012      ,   2.3464630349636692E-006 ,   1.2810923844273797E-008
   3973.3333333333012      ,   3979.9999999999677      ,   2.3341062724987441E-006 ,   1.3017945370497198E-008
   3979.9999999999677      ,   3986.6666666666342      ,   2.3152842801666599E-006 ,   1.2625421582620155E-008
   3986.6666666666342      ,   3993.3333333333007      ,   2.2935739673485020E-006 ,   1.2405121687663794E-008
   3993.3333333333007      ,   3999.9999999999673      ,   2.3050076557360021E-006 ,   2.3155983227137272E-008
   3999.9999999999673      ,   4006.6666666666338      ,   2.1264810937577212E-006 ,   1.2363729025639805E-008
   4006.6666666666338      ,   4013.3333333333003      ,   1.8147440154659514E-006 ,   1.1330217394734631E-008
   4013.3333333333003      ,   4019.9999999999668      ,   1.0491300650883876E-006 ,   7.1252280760746090E-009
   4019.9999999999668      ,   4026.6666666666333      ,   4.0866735374786445E-007 ,   2.3159105220519265E-009
   4026.6666666666333      ,   4033.3333333332998      ,   1.9629877850921468E-007 ,   7.8906194436524739E-010
   4033.3333333332998      ,   4039.9999999999663      ,   1.1668393943637719E-007 ,   3.7101235045133597E-010
   4039.9999999999663      ,   4046.6666666666329      ,   7.7888790184796830E-008 ,   2.1162339553214534E-010
   4046.6666666666329      ,   4053.3333333332994      ,   5.4653162389114983E-008 ,   1.2511665457095767E-010
   4053.3333333332994      ,   4059.9999999999659      ,   3.9692244158190114E-008 ,   7.0783907295832047E-011
   4059.9999999999659      ,   4066.6666666666324      ,   2.9400663052273588E-008 ,   4.3627867323130324E-011
   4066.6666666666324      ,   4073.3333333332989      ,   2.1999984657680502E-008 ,   2.8794672085874867E-011
   4073.3333333332989      ,   4079.9999999999654      ,   1.6769071639249180E-008 ,   1.8340692159206571E-011
   4079.9999999999654      ,   4086.6666666666320      ,   1.3324945957245595E-008 ,   1.1731582667310719E-011
   4086.6666666666320      ,   4093.3333333332985      ,   1.1302425403930766E-008 ,   8.5204495927127257E-012
   4093.3333333332985      ,   4099.9999999999654      ,   1.0385096075476595E-008 ,   7.6651129154302165E-012
   4099.9999999999654      ,   4106.6666666666324      ,   1.0114164030927198E-008 ,   7.5939321242614543E-012
   4106.6666666666324      ,   4113.3333333332994      ,   1.0015550659145256E-008 ,   7.5289113062611825E-012
   4113.3333333332994      ,   4119.9999999999663      ,   9.8744941301436394E-009 ,   7.4783269873149316E-012
   4119.9999999999663      ,   4126.6666666666333      ,   9.6026305346506948E-009 ,   7.4263286367939282E-012
   4126.6666666666333      ,   4133.3333333333003      ,   9.1228209650175319E-009 ,   7.2305397599559437E-012
   4133.3333333333003      ,   4139.9999999999673      ,   8.4839910304435624E-009 ,   6.9349161919147448E-012
   4139.9999999999673      ,   4146.6666666666342      ,   7.6351557501991448E-009 ,   6.4086655155615475E-012
   4146.6666666666342      ,   4153.3333333333012      ,   6.6570840223496972E-009 ,   5.6467581548025192E-012
   4153.3333333333012      ,   4159.9999999999682      ,   5.6181402091115395E-009 ,   4.6601905899659616E-012
   4159.9999999999682      ,   4166.6666666666351      ,   4.6479063605356824E-009 ,   3.6465483177494609E-012
   4166.6666666666351      ,   4173.3333333333021      ,   3.8318353526583282E-009 ,   2.7378018197251235E-012
   4173.3333333333021      ,   4179.9999999999691      ,   3.1961554811192957E-009 ,   2.0260835867229909E-012
   4179.9999999999691      ,   4186.6666666666360      ,   2.7334002324988598E-009 ,   1.5280339591873601E-012
   4186.6666666666360      ,   4193.3333333333030      ,   2.3969667250695936E-009 ,   1.2108391230744368E-012
   4193.3333333333030      ,   4199.9999999999700      ,   2.1515423161872646E-009 ,   1.0081688952591241E-012
   4199.9999999999700      ,   4206.6666666666370      ,   1.9714608401423133E-009 ,   8.8167887234290018E-013
   4206.6666666666370      ,   4213.3333333333039      ,   1.8358162650346415E-009 ,   8.0806343391193886E-013
   4213.3333333333039      ,   4219.9999999999709      ,   1.7324693923063058E-009 ,   7.6165261732676082E-013
   4219.9999999999709      ,   4226.6666666666379      ,   1.6458649488580493E-009 ,   7.2800214805818478E-013
   4226.6666666666379      ,   4233.3333333333048      ,   1.5697071120310693E-009 ,   7.0234698012685817E-013
   4233.3333333333048      ,   4239.9999999999718      ,   1.4832116046389366E-009 ,   6.6737697460251871E-013
   4239.9999999999718      ,   4246.6666666666388      ,   1.3673012705918048E-009 ,   6.0337760699019592E-013
   4246.6666666666388      ,   4253.3333333333057      ,   1.2317137010670398E-009 ,   5.0341533253647045E-013
   4253.3333333333057      ,   4259.9999999999727      ,   1.1085999782934180E-009 ,   4.0791830344575793E-013
   4259.9999999999727      ,   4266.6666666666397      ,   1.0120151222277851E-009 ,   3.3662807960752238E-013
   4266.6666666666397      ,   4273.3333333333067      ,   9.3706067052754700E-010 ,   2.8689009071118890E-013
   4273.3333333333067      ,   4279.9999999999736      ,   8.7584192803179421E-010 ,   2.5046501175824754E-013
   4279.9999999999736      ,   4286.6666666666406      ,   8.2486307888006906E-010 ,   2.2212581216278593E-013
   4286.6666666666406      ,   4293.3333333333076      ,   7.8083080383627170E-010 ,   1.9945641170856659E-013
   4293.3333333333076      ,   4299.9999999999745      ,   7.4299505793030977E-010 ,   1.8091297124191058E-013
   4299.9999999999745      ,   4306.6666666666415      ,   7.0841351978981175E-010 ,   1.6524750741049424E-013
   4306.6666666666415      ,   4313.3333333333085      ,   6.7840356972579194E-010 ,   1.5239378636620115E-013
   4313.3333333333085      ,   4319.9999999999754      ,   6.5051739038645847E-010 ,   1.4076142895246288E-013
   4319.9999999999754      ,   4326.6666666666424      ,   6.2511047127889366E-010 ,   1.3062967982440512E-013
   4326.6666666666424      ,   4333.3333333333094      ,   6.0200783950246106E-010 ,   1.2167735674333766E-013
   4333.3333333333094      ,   4339.9999999999764      ,   5.8019756248407075E-010 ,   1.1350201621962242E-013
   4339.9999999999764      ,   4346.6666666666433      ,   5.6034899387499012E-010 ,   1.0632148330859382E-013
   4346.6666666666433      ,   4353.3333333333103      ,   5.4149211948464186E-010 ,   9.9767651000072778E-014
   4353.3333333333103      ,   4359.9999999999773      ,   5.2400438097962051E-010 ,   9.3779067821931813E-014
   4359.9999999999773      ,   4366.6666666666442      ,   5.0764215406870268E-010 ,   8.8337243122739263E-014
   4366.6666666666442      ,   4373.3333333333112      ,   4.9179596463775808E-010 ,   8.3271927442534706E-014
   4373.3333333333112      ,   4379.9999999999782      ,   4.7723196572467544E-010 ,   7.8720685644862880E-014
   4379.9999999999782      ,   4386.6666666666451      ,   4.6330464610586025E-010 ,   7.4461709768146308E-014
   4386.6666666666451      ,   4393.3333333333121      ,   4.5031263546389273E-010 ,   7.0696220427538973E-014
   4393.3333333333121      ,   4399.9999999999791      ,   4.3769505587749159E-010 ,   6.7016207377073994E-014
   4399.9999999999791      ,   4406.6666666666461      ,   4.2573430741799326E-010 ,   6.3635726662617633E-014
   4406.6666666666461      ,   4413.3333333333130      ,   4.1452079704406939E-010 ,   6.0608544502039098E-014
   4413.3333333333130      ,   4419.9999999999800      ,   4.0364637908997373E-010 ,   5.7700425113556668E-014
   4419.9999999999800      ,   4426.6666666666470      ,   3.9334248208897111E-010 ,   5.4975019906355228E-014
   4426.6666666666470      ,   4433.3333333333139      ,   3.8333319237253071E-010 ,   5.2402578274621148E-014
   4433.3333333333139      ,   4439.9999999999809      ,   3.7388927107746902E-010 ,   5.0041283217567847E-014
   4439.9999999999809      ,   4446.6666666666479      ,   3.6472054794242103E-010 ,   4.7777313863897503E-014
   4446.6666666666479      ,   4453.3333333333148      ,   3.5610908672209081E-010 ,   4.5739768709741192E-014
   4453.3333333333148      ,   4459.9999999999818      ,   3.4770022360234354E-010 ,   4.3742002834707422E-014
   4459.9999999999818      ,   4466.6666666666488      ,   3.3956588277123656E-010 ,   4.1855541775211288E-014
   4466.6666666666488      ,   4473.3333333333157      ,   3.3185606505644264E-010 ,   4.0143527128325792E-014
   4473.3333333333157      ,   4479.9999999999827      ,   3.2433065584654246E-010 ,   3.8473872342155748E-014
   4479.9999999999827      ,   4486.6666666666497      ,   3.1715365218641306E-010 ,   3.6926269180088945E-014
   4486.6666666666497      ,   4493.3333333333167      ,   3.1019848489798784E-010 ,   3.5448782888520665E-014
   4493.3333333333167      ,   4499.9999999999836      ,   3.0349753557804722E-010 ,   3.4058579397885227E-014
   4499.9999999999836      ,   4506.6666666666506      ,   2.9696687553352270E-010 ,   3.2738591550559123E-014
   4506.6666666666506      ,   4513.3333333333176      ,   2.9075934489414101E-010 ,   3.1487990349058779E-014
   4513.3333333333176      ,   4519.9999999999845      ,   2.8463529517686914E-010 ,   3.0274118556682029E-014
   4519.9999999999845      ,   4526.6666666666515      ,   2.7879209461883595E-010 ,   2.9140529560646363E-014
   4526.6666666666515      ,   4533.3333333333185      ,   2.7314545468345380E-010 ,   2.8077063227617936E-014
   4533.3333333333185      ,   4539.9999999999854      ,   2.6757160475231612E-010 ,   2.7037463419918268E-014
   4539.9999999999854      ,   4546.6666666666524      ,   2.6230523054616781E-010 ,   2.6072116691723212E-014
   4546.6666666666524      ,   4553.3333333333194      ,   2.5710593851901869E-010 ,   2.5120124082111204E-014
   4553.3333333333194      ,   4559.9999999999864      ,   2.5208537975183470E-010 ,   2.4234985098798748E-014
   4559.9999999999864      ,   4566.6666666666533      ,   2.4724912093154450E-010 ,   2.3393369554906982E-014
   4566.6666666666533      ,   4573.3333333333203      ,   2.4247628535069503E-010 ,   2.2576970565850265E-014
   4573.3333333333203      ,   4579.9999999999873      ,   2.3789147290059275E-010 ,   2.1796685164801720E-014
   4579.9999999999873      ,   4586.6666666666542      ,   2.3343047574094190E-010 ,   2.1047945200544781E-014
   4586.6666666666542      ,   4593.3333333333212      ,   2.2909624115801110E-010 ,   2.0338438773105654E-014
   4593.3333333333212      ,   4599.9999999999882      ,   2.2488117360874980E-010 ,   1.9656094069980341E-014
   4599.9999999999882      ,   4606.6666666666551      ,   2.2079829518011869E-010 ,   1.9007734450051155E-014
   4606.6666666666551      ,   4613.3333333333221      ,   2.1677239305393140E-010 ,   1.8365824722055682E-014
   4613.3333333333221      ,   4619.9999999999891      ,   2.1290762188659566E-010 ,   1.7772564107026761E-014
   4619.9999999999891      ,   4626.6666666666561      ,   2.0913610262942473E-010 ,   1.7189018006835976E-014
   4626.6666666666561      ,   4633.3333333333230      ,   2.0545555393017379E-010 ,   1.6631390647798174E-014
   4633.3333333333230      ,   4639.9999999999900      ,   2.0189465242460805E-010 ,   1.6101853297977824E-014
   4639.9999999999900      ,   4646.6666666666570      ,   1.9842785051797176E-010 ,   1.5587492476171746E-014
   4646.6666666666570      ,   4653.3333333333239      ,   1.9498892217877302E-010 ,   1.5082602057347896E-014
   4653.3333333333239      ,   4659.9999999999909      ,   1.9172684770056781E-010 ,   1.4613152380773690E-014
   4659.9999999999909      ,   4666.6666666666579      ,   1.8846755520415183E-010 ,   1.4155418935239737E-014
   4666.6666666666579      ,   4673.3333333333248      ,   1.8533566582726504E-010 ,   1.3706048106421958E-014
   4673.3333333333248      ,   4679.9999999999918      ,   1.8225906664216493E-010 ,   1.3277804148395906E-014
   4679.9999999999918      ,   4686.6666666666588      ,   1.7927319671307048E-010 ,   1.2863419486519600E-014
   4686.6666666666588      ,   4693.3333333333258      ,   1.7636280693244093E-010 ,   1.2461362706772291E-014
   4693.3333333333258      ,   4699.9999999999927      ,   1.7350738385015447E-010 ,   1.2074098976366670E-014
   4699.9999999999927      ,   4706.6666666666597      ,   1.7073964368021931E-010 ,   1.1696797024449938E-014
   4706.6666666666597      ,   4713.3333333333267      ,   1.6807206637258710E-010 ,   1.1342672545832628E-014
   4713.3333333333267      ,   4719.9999999999936      ,   1.6544575021520251E-010 ,   1.0990754626665315E-014
   4719.9999999999936      ,   4726.6666666666606      ,   1.6287713886065237E-010 ,   1.0652175428007582E-014
   4726.6666666666606      ,   4733.3333333333276      ,   1.6038892530705735E-010 ,   1.0321706020092492E-014
   4733.3333333333276      ,   4739.9999999999945      ,   1.5795724017059600E-010 ,   1.0004077708715242E-014
   4739.9999999999945      ,   4746.6666666666615      ,   1.5561094745434919E-010 ,   9.6993925617627519E-015
   4746.6666666666615      ,   4753.3333333333285      ,   1.5328977015331157E-010 ,   9.3938765182446103E-015
   4753.3333333333285      ,   4759.9999999999955      ,   1.5104647559077038E-010 ,   9.1049155726465783E-015
   4759.9999999999955      ,   4766.6666666666624      ,   1.4885063852696867E-010 ,   8.8200125935863319E-015
   4766.6666666666624      ,   4773.3333333333294      ,   1.4671273363876748E-010 ,   8.5429379567141990E-015
   4773.3333333333294      ,   4779.9999999999964      ,   1.4466000236490544E-010 ,   8.2762705884811712E-015
   4779.9999999999964      ,   4786.6666666666633      ,   1.4265136103955004E-010 ,   8.0150717353895742E-015
   4786.6666666666633      ,   4793.3333333333303      ,   1.4067051598020689E-010 ,   7.7580254404037142E-015
   4793.3333333333303      ,   4799.9999999999973      ,   1.3879463515961017E-010 ,   7.5115234906942571E-015
   4799.9999999999973      ,   4806.6666666666642      ,   1.3693918861133491E-010 ,   7.2670040737535264E-015
   4806.6666666666642      ,   4813.3333333333312      ,   1.3515884345298984E-010 ,   7.0298229371425010E-015
   4813.3333333333312      ,   4819.9999999999982      ,   1.3343885039334604E-010 ,   6.7968182413256604E-015
   4819.9999999999982      ,   4826.6666666666652      ,   1.3178772334692198E-010 ,   6.5707378814585631E-015
   4826.6666666666652      ,   4833.3333333333321      ,   1.3019507611837081E-010 ,   6.3493565560629894E-015
   4833.3333333333321      ,   4839.9999999999991      ,   1.2866809218240174E-010 ,   6.1314769580717697E-015
   4839.9999999999991      ,   4846.6666666666661      ,   1.2720183632627626E-010 ,   5.9156300835463836E-015
   4846.6666666666661      ,   4853.3333333333330      ,   1.2582520734894898E-010 ,   5.7066047824111857E-015
   4853.3333333333330      ,   4860.0000000000000      ,   1.2454028953892799E-010 ,   5.5042595826680586E-015
   4860.0000000000000      ,   4866.6666666666670      ,   1.2329761821712626E-010 ,   5.2964918218150726E-015
   4866.6666666666670      ,   4873.3333333333339      ,   1.2217617872887709E-010 ,   5.0970767364202543E-015
   4873.3333333333339      ,   4880.0000000000009      ,   1.2115507306321076E-010 ,   4.8993663287199080E-015
   4880.0000000000009      ,   4886.6666666666679      ,   1.2023828163995735E-010 ,   4.7036956014353611E-015
   4886.6666666666679      ,   4893.3333333333348      ,   1.1945714146792120E-010 ,   4.5101203781923078E-015
   4893.3333333333348      ,   4900.0000000000018      ,   1.1882905012443317E-010 ,   4.3196838776747774E-015
   4900.0000000000018      ,   4906.6666666666688      ,   1.1835960420769910E-010 ,   4.1292229112177385E-015
   4906.6666666666688      ,   4913.3333333333358      ,   1.1809632135285183E-010 ,   3.9386394759249873E-015
   4913.3333333333358      ,   4920.0000000000027      ,   1.1807971009356332E-010 ,   3.7503455844373433E-015
   4920.0000000000027      ,   4926.6666666666697      ,   1.1835890684534242E-010 ,   3.5610512024413986E-015
   4926.6666666666697      ,   4933.3333333333367      ,   1.1901842398185232E-010 ,   3.3717352311215124E-015
   4933.3333333333367      ,   4940.0000000000036      ,   1.2015722850801313E-010 ,   3.1806125155738551E-015
   4940.0000000000036      ,   4946.6666666666706      ,   1.2192909391046043E-010 ,   2.9878607744266435E-015
   4946.6666666666706      ,   4953.3333333333376      ,   1.2456745975529340E-010 ,   2.7919799393409028E-015
   4953.3333333333376      ,   4960.0000000000045      ,   1.2847215566504407E-010 ,   2.5917203861259425E-015
   4960.0000000000045      ,   4966.6666666666715      ,   1.3426839961272295E-010 ,   2.3848893957343610E-015
   4966.6666666666715      ,   4973.3333333333385      ,   1.4319050329576762E-010 ,   2.1687510800986729E-015
   4973.3333333333385      ,   4980.0000000000055      ,   1.5783649006152088E-010 ,   1.9396344498385611E-015
   4980.0000000000055      ,   4986.6666666666724      ,   1.8456605323037076E-010 ,   1.6825056222950324E-015
   4986.6666666666724      ,   4993.3333333333394      ,   2.3960723840452351E-010 ,   1.3226979896759653E-015
   4993.3333333333394      ,   5000.0000000000064      ,   9.4682381316196007E-011 ,   4.5083805024852087E-016
