 # xl, xh, LO, dLO
  0.52000000000000002      ,  0.52351666666666663      ,   6.3197987186971621E-011 ,   2.2382662981511986E-013
  0.52351666666666663      ,  0.52703333333333324      ,   2.7679851881273483E-010 ,   4.8413713293580192E-013
  0.52703333333333324      ,  0.53054999999999986      ,   5.1442236024908180E-010 ,   6.8119342723505050E-013
  0.53054999999999986      ,  0.53406666666666647      ,   7.6559720293864770E-010 ,   8.4223572069485359E-013
  0.53406666666666647      ,  0.53758333333333308      ,   1.0332151981540385E-009 ,   9.8646057001387719E-013
  0.53758333333333308      ,  0.54109999999999969      ,   1.3174405888632240E-009 ,   1.1273115354012381E-012
  0.54109999999999969      ,  0.54461666666666630      ,   1.6216410085814605E-009 ,   1.2677524924762434E-012
  0.54461666666666630      ,  0.54813333333333292      ,   1.9382533695959946E-009 ,   1.3876786040757887E-012
  0.54813333333333292      ,  0.55164999999999953      ,   2.2780526490965319E-009 ,   1.5248382155534815E-012
  0.55164999999999953      ,  0.55516666666666614      ,   2.6380265249548777E-009 ,   1.6585633602424105E-012
  0.55516666666666614      ,  0.55868333333333275      ,   3.0183012860583011E-009 ,   1.7922864153372800E-012
  0.55868333333333275      ,  0.56219999999999937      ,   3.4109902767650956E-009 ,   1.9140655959067275E-012
  0.56219999999999937      ,  0.56571666666666598      ,   3.8276506759770901E-009 ,   2.0412642961379295E-012
  0.56571666666666598      ,  0.56923333333333259      ,   4.2697371105983228E-009 ,   2.1867198429638625E-012
  0.56923333333333259      ,  0.57274999999999920      ,   4.7372217206407313E-009 ,   2.3247910897544307E-012
  0.57274999999999920      ,  0.57626666666666582      ,   5.2183293421907391E-009 ,   2.4512680660578262E-012
  0.57626666666666582      ,  0.57978333333333243      ,   5.7321475882025362E-009 ,   2.5927055067023529E-012
  0.57978333333333243      ,  0.58329999999999904      ,   6.2631237034550566E-009 ,   2.7253486150888967E-012
  0.58329999999999904      ,  0.58681666666666565      ,   6.8353907347795129E-009 ,   2.8863040734894218E-012
  0.58681666666666565      ,  0.59033333333333227      ,   7.4198441233475421E-009 ,   3.0289062962096364E-012
  0.59033333333333227      ,  0.59384999999999888      ,   8.0355413704233145E-009 ,   3.1799893059348380E-012
  0.59384999999999888      ,  0.59736666666666549      ,   8.6745256555022599E-009 ,   3.3292895911858154E-012
  0.59736666666666549      ,  0.60088333333333210      ,   9.3457297525322204E-009 ,   3.4787937059503590E-012
  0.60088333333333210      ,  0.60439999999999872      ,   1.0057503685277521E-008 ,   3.6461187220248837E-012
  0.60439999999999872      ,  0.60791666666666533      ,   1.0794529735280905E-008 ,   3.8158406037663577E-012
  0.60791666666666533      ,  0.61143333333333194      ,   1.1576622601216505E-008 ,   4.0014070711836919E-012
  0.61143333333333194      ,  0.61494999999999855      ,   1.2367213612239344E-008 ,   4.1497338413483804E-012
  0.61494999999999855      ,  0.61846666666666517      ,   1.3216922653611103E-008 ,   4.3434057756387429E-012
  0.61846666666666517      ,  0.62198333333333178      ,   1.4096865851941834E-008 ,   4.5219556200548895E-012
  0.62198333333333178      ,  0.62549999999999839      ,   1.5009365421209119E-008 ,   4.7043624805249657E-012
  0.62549999999999839      ,  0.62901666666666500      ,   1.5968810061832870E-008 ,   4.8990641050497970E-012
  0.62901666666666500      ,  0.63253333333333162      ,   1.6995091722546825E-008 ,   5.1185662373432403E-012
  0.63253333333333162      ,  0.63604999999999823      ,   1.8071350200825310E-008 ,   5.3032097291634361E-012
  0.63604999999999823      ,  0.63956666666666484      ,   1.9199376529788525E-008 ,   5.5146200063342747E-012
  0.63956666666666484      ,  0.64308333333333145      ,   2.0390713791430798E-008 ,   5.7540999462064837E-012
  0.64308333333333145      ,  0.64659999999999807      ,   2.1608535597674424E-008 ,   5.9723575006528325E-012
  0.64659999999999807      ,  0.65011666666666468      ,   2.2870775309919665E-008 ,   6.1881950489354317E-012
  0.65011666666666468      ,  0.65363333333333129      ,   2.4194169914764381E-008 ,   6.4543993092143623E-012
  0.65363333333333129      ,  0.65714999999999790      ,   2.5550611717863047E-008 ,   6.6880419565193664E-012
  0.65714999999999790      ,  0.66066666666666451      ,   2.6959635437636550E-008 ,   6.9484365230660911E-012
  0.66066666666666451      ,  0.66418333333333113      ,   2.8412592665885419E-008 ,   7.2069950332324535E-012
  0.66418333333333113      ,  0.66769999999999774      ,   2.9929364218133298E-008 ,   7.4750001507879837E-012
  0.66769999999999774      ,  0.67121666666666435      ,   3.1493586770740582E-008 ,   7.7478640158886794E-012
  0.67121666666666435      ,  0.67473333333333096      ,   3.3150080064876683E-008 ,   8.0772584669689319E-012
  0.67473333333333096      ,  0.67824999999999758      ,   3.4806221918783588E-008 ,   8.3490528328366694E-012
  0.67824999999999758      ,  0.68176666666666419      ,   3.6547421669287882E-008 ,   8.6555993549668496E-012
  0.68176666666666419      ,  0.68528333333333080      ,   3.8337299266588513E-008 ,   8.9805238430933274E-012
  0.68528333333333080      ,  0.68879999999999741      ,   4.0208142480157703E-008 ,   9.3279048890218664E-012
  0.68879999999999741      ,  0.69231666666666403      ,   4.2121480148126420E-008 ,   9.6447673775095109E-012
  0.69231666666666403      ,  0.69583333333333064      ,   4.4118635887727268E-008 ,   1.0001160361563853E-011
  0.69583333333333064      ,  0.69934999999999725      ,   4.6178526886552474E-008 ,   1.0383965038634316E-011
  0.69934999999999725      ,  0.70286666666666386      ,   4.8286728222581730E-008 ,   1.0717969517661757E-011
  0.70286666666666386      ,  0.70638333333333048      ,   5.0500843704036954E-008 ,   1.1144135169327357E-011
  0.70638333333333048      ,  0.70989999999999709      ,   5.2776810868158474E-008 ,   1.1525103572003974E-011
  0.70989999999999709      ,  0.71341666666666370      ,   5.5130031514060092E-008 ,   1.1981634938200801E-011
  0.71341666666666370      ,  0.71693333333333031      ,   5.7565647687218818E-008 ,   1.2415338864871767E-011
  0.71693333333333031      ,  0.72044999999999693      ,   6.0081902676260302E-008 ,   1.2861955506109575E-011
  0.72044999999999693      ,  0.72396666666666354      ,   6.2667634739629710E-008 ,   1.3303826575674406E-011
  0.72396666666666354      ,  0.72748333333333015      ,   6.5367215258672644E-008 ,   1.3811190816720908E-011
  0.72748333333333015      ,  0.73099999999999676      ,   6.8145741279968219E-008 ,   1.4303541684895927E-011
  0.73099999999999676      ,  0.73451666666666338      ,   7.1009380278785409E-008 ,   1.4822561162618327E-011
  0.73451666666666338      ,  0.73803333333332999      ,   7.3963014725681114E-008 ,   1.5333219297368180E-011
  0.73803333333332999      ,  0.74154999999999660      ,   7.7047730101439411E-008 ,   1.5897400002671538E-011
  0.74154999999999660      ,  0.74506666666666321      ,   8.0200481398732423E-008 ,   1.6478932900857540E-011
  0.74506666666666321      ,  0.74858333333332983      ,   8.3491307844498775E-008 ,   1.7072749033732140E-011
  0.74858333333332983      ,  0.75209999999999644      ,   8.6898269855297499E-008 ,   1.7704747567642757E-011
  0.75209999999999644      ,  0.75561666666666305      ,   9.0400163844873514E-008 ,   1.8356670248554241E-011
  0.75561666666666305      ,  0.75913333333332966      ,   9.4018947102379651E-008 ,   1.9016493575805585E-011
  0.75913333333332966      ,  0.76264999999999628      ,   9.7763124823478020E-008 ,   1.9686604260968694E-011
  0.76264999999999628      ,  0.76616666666666289      ,   1.0164466736321927E-007 ,   2.0437906688427852E-011
  0.76616666666666289      ,  0.76968333333332950      ,   1.0563895156834020E-007 ,   2.1149200524853950E-011
  0.76968333333332950      ,  0.77319999999999611      ,   1.0977321131951407E-007 ,   2.1986587259865756E-011
  0.77319999999999611      ,  0.77671666666666273      ,   1.1402796085607199E-007 ,   2.2745782026950016E-011
  0.77671666666666273      ,  0.78023333333332934      ,   1.1850963950439124E-007 ,   2.3647858560698534E-011
  0.78023333333332934      ,  0.78374999999999595      ,   1.2308176613435228E-007 ,   2.4485577426882692E-011
  0.78374999999999595      ,  0.78726666666666256      ,   1.2780117330287777E-007 ,   2.5392785099303437E-011
  0.78726666666666256      ,  0.79078333333332917      ,   1.3266819929513427E-007 ,   2.6284080514143504E-011
  0.79078333333332917      ,  0.79429999999999579      ,   1.3769001257431942E-007 ,   2.7232786521478852E-011
  0.79429999999999579      ,  0.79781666666666240      ,   1.4295781754058310E-007 ,   2.8293819454044170E-011
  0.79781666666666240      ,  0.80133333333332901      ,   1.4838069897134533E-007 ,   2.9328895955127319E-011
  0.80133333333332901      ,  0.80484999999999562      ,   1.5398923480097706E-007 ,   3.0410865391720165E-011
  0.80484999999999562      ,  0.80836666666666224      ,   1.5979236130918679E-007 ,   3.1550336169682232E-011
  0.80836666666666224      ,  0.81188333333332885      ,   1.6574887625098426E-007 ,   3.2716289614143485E-011
  0.81188333333332885      ,  0.81539999999999546      ,   1.7201961525802686E-007 ,   3.4034807274041545E-011
  0.81539999999999546      ,  0.81891666666666207      ,   1.7841968440801714E-007 ,   3.5295453262919799E-011
  0.81891666666666207      ,  0.82243333333332869      ,   1.8503876926121414E-007 ,   3.6676618129346674E-011
  0.82243333333332869      ,  0.82594999999999530      ,   1.9197970923697862E-007 ,   3.8129650236980557E-011
  0.82594999999999530      ,  0.82946666666666191      ,   1.9905269982687202E-007 ,   3.9500382642225651E-011
  0.82946666666666191      ,  0.83298333333332852      ,   2.0644194582215226E-007 ,   4.1128972725521510E-011
  0.83298333333332852      ,  0.83649999999999514      ,   2.1404419898906307E-007 ,   4.2707766120563581E-011
  0.83649999999999514      ,  0.84001666666666175      ,   2.2190034611106908E-007 ,   4.4291020155226488E-011
  0.84001666666666175      ,  0.84353333333332836      ,   2.3014486577235708E-007 ,   4.6108834598720367E-011
  0.84353333333332836      ,  0.84704999999999497      ,   2.3857788018713461E-007 ,   4.7940666605193578E-011
  0.84704999999999497      ,  0.85056666666666159      ,   2.4733463714301375E-007 ,   4.9733335670340071E-011
  0.85056666666666159      ,  0.85408333333332820      ,   2.5645704493786313E-007 ,   5.1786410050957232E-011
  0.85408333333332820      ,  0.85759999999999481      ,   2.6581118170718534E-007 ,   5.3862782036890290E-011
  0.85759999999999481      ,  0.86111666666666142      ,   2.7558101065857981E-007 ,   5.5908533956076972E-011
  0.86111666666666142      ,  0.86463333333332804      ,   2.8559924474486757E-007 ,   5.8232364473746341E-011
  0.86463333333332804      ,  0.86814999999999465      ,   2.9610835565411991E-007 ,   6.0609690541147993E-011
  0.86814999999999465      ,  0.87166666666666126      ,   3.0687265196075779E-007 ,   6.3047361509946973E-011
  0.87166666666666126      ,  0.87518333333332787      ,   3.1825605549274848E-007 ,   6.5862118610625530E-011
  0.87518333333332787      ,  0.87869999999999449      ,   3.2996395243973431E-007 ,   6.8604788286365416E-011
  0.87869999999999449      ,  0.88221666666666110      ,   3.4208219445776071E-007 ,   7.1496055535440902E-011
  0.88221666666666110      ,  0.88573333333332771      ,   3.5449735807290434E-007 ,   7.4523200437476029E-011
  0.88573333333332771      ,  0.88924999999999432      ,   3.6757993453020460E-007 ,   7.7594223510616785E-011
  0.88924999999999432      ,  0.89276666666666094      ,   3.8108286568638270E-007 ,   8.0785999437818747E-011
  0.89276666666666094      ,  0.89628333333332755      ,   3.9519848704077856E-007 ,   8.4354738090213616E-011
  0.89628333333332755      ,  0.89979999999999416      ,   4.1010329699119435E-007 ,   8.8590575584918194E-011
  0.89979999999999416      ,  0.90331666666666077      ,   4.2510571160070166E-007 ,   9.2257912532215990E-011
  0.90331666666666077      ,  0.90683333333332738      ,   4.4104989594689843E-007 ,   9.6530477454046068E-011
  0.90683333333332738      ,  0.91034999999999400      ,   4.5748477399573063E-007 ,   1.0102410415458572E-010
  0.91034999999999400      ,  0.91386666666666061      ,   4.7464174453401631E-007 ,   1.0580475379125964E-010
  0.91386666666666061      ,  0.91738333333332722      ,   4.9258713053228944E-007 ,   1.1071191963588287E-010
  0.91738333333332722      ,  0.92089999999999383      ,   5.1114233878522116E-007 ,   1.1592032605574179E-010
  0.92089999999999383      ,  0.92441666666666045      ,   5.3056263004133491E-007 ,   1.2137827241076989E-010
  0.92441666666666045      ,  0.92793333333332706      ,   5.5095533639894720E-007 ,   1.2741779278890157E-010
  0.92793333333332706      ,  0.93144999999999367      ,   5.7208527434577615E-007 ,   1.3379807167784352E-010
  0.93144999999999367      ,  0.93496666666666028      ,   5.9444430505210679E-007 ,   1.4015584692292367E-010
  0.93496666666666028      ,  0.93848333333332690      ,   6.1719060225853150E-007 ,   1.4709700078538497E-010
  0.93848333333332690      ,  0.94199999999999351      ,   6.4190153641334489E-007 ,   1.5569697079013268E-010
  0.94199999999999351      ,  0.94551666666666012      ,   6.6725965827039582E-007 ,   1.6376942809160849E-010
  0.94551666666666012      ,  0.94903333333332673      ,   6.9376043151765515E-007 ,   1.7222611028527668E-010
  0.94903333333332673      ,  0.95254999999999335      ,   7.2194360956891839E-007 ,   1.8201515537729544E-010
  0.95254999999999335      ,  0.95606666666665996      ,   7.5213277895872236E-007 ,   1.9432221319592131E-010
  0.95606666666665996      ,  0.95958333333332657      ,   7.8271573652654432E-007 ,   2.0515439929869352E-010
  0.95958333333332657      ,  0.96309999999999318      ,   8.1544569959477831E-007 ,   2.1662650534978485E-010
  0.96309999999999318      ,  0.96661666666665980      ,   8.5047937934044319E-007 ,   2.3207518175291033E-010
  0.96661666666665980      ,  0.97013333333332641      ,   8.8719705414583817E-007 ,   2.4695463740813481E-010
  0.97013333333332641      ,  0.97364999999999302      ,   9.2673982398960987E-007 ,   2.6489917258856527E-010
  0.97364999999999302      ,  0.97716666666665963      ,   9.6799448596439687E-007 ,   2.8358705326479212E-010
  0.97716666666665963      ,  0.98068333333332625      ,   1.0130304584946592E-006 ,   3.0711476165277308E-010
  0.98068333333332625      ,  0.98419999999999286      ,   1.0606367543764024E-006 ,   3.2940739085663223E-010
  0.98419999999999286      ,  0.98771666666665947      ,   1.1123611013148828E-006 ,   3.6020642524250251E-010
  0.98771666666665947      ,  0.99123333333332608      ,   1.1679415027318971E-006 ,   3.9420286189875041E-010
  0.99123333333332608      ,  0.99474999999999270      ,   1.2281839564555616E-006 ,   4.3175383896028135E-010
  0.99474999999999270      ,  0.99826666666665931      ,   1.2914814404507061E-006 ,   4.6672200065622258E-010
  0.99826666666665931      ,   1.0017833333333259      ,   1.3609831863985908E-006 ,   5.1698752908629014E-010
   1.0017833333333259      ,   1.0052999999999925      ,   1.4327956983942330E-006 ,   5.5277651279933025E-010
   1.0052999999999925      ,   1.0088166666666591      ,   1.5095190728376604E-006 ,   5.9760357158260275E-010
   1.0088166666666591      ,   1.0123333333333258      ,   1.5875162849301040E-006 ,   6.3997206630737313E-010
   1.0123333333333258      ,   1.0158499999999924      ,   1.6705057267721891E-006 ,   6.7711336217705213E-010
   1.0158499999999924      ,   1.0193666666666590      ,   1.7550375096263217E-006 ,   7.1462903142057978E-010
   1.0193666666666590      ,   1.0228833333333256      ,   1.8466851247318338E-006 ,   7.6240907316182846E-010
   1.0228833333333256      ,   1.0263999999999922      ,   1.9407938927232285E-006 ,   7.9468091847712612E-010
   1.0263999999999922      ,   1.0299166666666588      ,   2.0393589444185605E-006 ,   8.3488590018836075E-010
   1.0299166666666588      ,   1.0334333333333254      ,   2.1443333689172489E-006 ,   8.8131457031495266E-010
   1.0334333333333254      ,   1.0369499999999920      ,   2.2551697360866489E-006 ,   9.2329601339150980E-010
   1.0369499999999920      ,   1.0404666666666587      ,   2.3729137564379788E-006 ,   9.7021241223342559E-010
   1.0404666666666587      ,   1.0439833333333253      ,   2.4987710809145794E-006 ,   1.0225110685787369E-009
   1.0439833333333253      ,   1.0474999999999919      ,   2.6348103477822965E-006 ,   1.0769693319945080E-009
   1.0474999999999919      ,   1.0510166666666585      ,   2.7750760813754726E-006 ,   1.1278414075676582E-009
   1.0510166666666585      ,   1.0545333333333251      ,   2.9289899702857958E-006 ,   1.1951259381494653E-009
   1.0545333333333251      ,   1.0580499999999917      ,   3.0933100389868737E-006 ,   1.2613270586731458E-009
   1.0580499999999917      ,   1.0615666666666583      ,   3.2760234365870137E-006 ,   1.3468239789179781E-009
   1.0615666666666583      ,   1.0650833333333249      ,   3.4638462895047256E-006 ,   1.4251535195734856E-009
   1.0650833333333249      ,   1.0685999999999916      ,   3.6765008794627957E-006 ,   1.5218005070262744E-009
   1.0685999999999916      ,   1.0721166666666582      ,   3.9047816656624045E-006 ,   1.6326002325597935E-009
   1.0721166666666582      ,   1.0756333333333248      ,   4.1554289497497461E-006 ,   1.7608432199205983E-009
   1.0756333333333248      ,   1.0791499999999914      ,   4.4310253016339345E-006 ,   1.9196090441639730E-009
   1.0791499999999914      ,   1.0826666666666580      ,   4.7269890551714272E-006 ,   2.0677502158288307E-009
   1.0826666666666580      ,   1.0861833333333246      ,   5.0660430479253626E-006 ,   2.2829826029872411E-009
   1.0861833333333246      ,   1.0896999999999912      ,   5.4316501540094743E-006 ,   2.5282127969738048E-009
   1.0896999999999912      ,   1.0932166666666578      ,   5.8441025199101369E-006 ,   2.7972444312981854E-009
   1.0932166666666578      ,   1.0967333333333245      ,   6.2871091876659592E-006 ,   3.0889424306392631E-009
   1.0967333333333245      ,   1.1002499999999911      ,   6.7925756767019238E-006 ,   3.4552257611859607E-009
   1.1002499999999911      ,   1.1037666666666577      ,   7.3502359642666375E-006 ,   3.8637163470840689E-009
   1.1037666666666577      ,   1.1072833333333243      ,   7.9549193254441116E-006 ,   4.2465622206099636E-009
   1.1072833333333243      ,   1.1107999999999909      ,   8.6277356372121978E-006 ,   4.7677964512608347E-009
   1.1107999999999909      ,   1.1143166666666575      ,   9.3739030989295926E-006 ,   5.3056740488156097E-009
   1.1143166666666575      ,   1.1178333333333241      ,   1.0162652938585817E-005 ,   5.8761165135746144E-009
   1.1178333333333241      ,   1.1213499999999907      ,   1.1011063580450082E-005 ,   6.4518182181031931E-009
   1.1213499999999907      ,   1.1248666666666574      ,   1.1888713940496266E-005 ,   7.0463371396938976E-009
   1.1248666666666574      ,   1.1283833333333240      ,   1.2736088069022115E-005 ,   7.6591556755325510E-009
   1.1283833333333240      ,   1.1318999999999906      ,   1.3583952279392812E-005 ,   8.3026960646313657E-009
   1.1318999999999906      ,   1.1354166666666572      ,   1.4392262020487190E-005 ,   8.9400160999124060E-009
   1.1354166666666572      ,   1.1389333333333238      ,   1.5284826676344540E-005 ,   9.5614220876037631E-009
   1.1389333333333238      ,   1.1424499999999904      ,   1.6257681336250664E-005 ,   1.0181418482188373E-008
   1.1424499999999904      ,   1.1459666666666570      ,   1.7356967941978788E-005 ,   1.0959936163626095E-008
   1.1459666666666570      ,   1.1494833333333236      ,   1.8576363008397240E-005 ,   1.1608391540440218E-008
   1.1494833333333236      ,   1.1529999999999903      ,   1.9927365499484188E-005 ,   1.2331557382304162E-008
   1.1529999999999903      ,   1.1565166666666569      ,   2.1396695455768514E-005 ,   1.3069556298703103E-008
   1.1565166666666569      ,   1.1600333333333235      ,   2.3050253771023758E-005 ,   1.3880210807668530E-008
   1.1600333333333235      ,   1.1635499999999901      ,   2.4818996416281037E-005 ,   1.4701893773734998E-008
   1.1635499999999901      ,   1.1670666666666567      ,   2.6705581722500854E-005 ,   1.5474789363321760E-008
   1.1670666666666567      ,   1.1705833333333233      ,   2.8793822321382195E-005 ,   1.6382975559788968E-008
   1.1705833333333233      ,   1.1740999999999899      ,   3.1047788773635569E-005 ,   1.7341998754302543E-008
   1.1740999999999899      ,   1.1776166666666565      ,   3.3434366975577705E-005 ,   1.8271905224837533E-008
   1.1776166666666565      ,   1.1811333333333232      ,   3.6033411085589504E-005 ,   1.9440346082038415E-008
   1.1811333333333232      ,   1.1846499999999898      ,   3.8783735388134900E-005 ,   2.0490819351417317E-008
   1.1846499999999898      ,   1.1881666666666564      ,   4.1724452314543197E-005 ,   2.1602978051926622E-008
   1.1881666666666564      ,   1.1916833333333230      ,   4.4751603919969886E-005 ,   2.2922468436765110E-008
   1.1916833333333230      ,   1.1951999999999896      ,   4.7862820996025019E-005 ,   2.4126437318926007E-008
   1.1951999999999896      ,   1.1987166666666562      ,   5.1004032848861721E-005 ,   2.5498128010063395E-008
   1.1987166666666562      ,   1.2022333333333228      ,   5.4115618404520347E-005 ,   2.6778753338344752E-008
   1.2022333333333228      ,   1.2057499999999894      ,   5.7038841815674221E-005 ,   2.8108675510738612E-008
   1.2057499999999894      ,   1.2092666666666561      ,   5.9717267408629722E-005 ,   2.9175593909645744E-008
   1.2092666666666561      ,   1.2127833333333227      ,   6.1945690322445126E-005 ,   3.0079386971700664E-008
   1.2127833333333227      ,   1.2162999999999893      ,   6.3843836827739473E-005 ,   3.0800346267713606E-008
   1.2162999999999893      ,   1.2198166666666559      ,   6.5298749430638733E-005 ,   3.1314832148064197E-008
   1.2198166666666559      ,   1.2233333333333225      ,   6.6361143297646261E-005 ,   3.1653303221193886E-008
   1.2233333333333225      ,   1.2268499999999891      ,   6.6990109486045373E-005 ,   3.1699258842006006E-008
   1.2268499999999891      ,   1.2303666666666557      ,   6.7438646996072522E-005 ,   3.1885367869270902E-008
   1.2303666666666557      ,   1.2338833333333223      ,   6.7775506595934453E-005 ,   3.2178555948724189E-008
   1.2338833333333223      ,   1.2373999999999890      ,   6.7932824470571106E-005 ,   3.2491312950240408E-008
   1.2373999999999890      ,   1.2409166666666556      ,   6.8153094420854242E-005 ,   3.3150927414276492E-008
   1.2409166666666556      ,   1.2444333333333222      ,   6.8577081255211629E-005 ,   3.4280891077336917E-008
   1.2444333333333222      ,   1.2479499999999888      ,   6.9252359947203886E-005 ,   3.6092658268808733E-008
   1.2479499999999888      ,   1.2514666666666554      ,   7.0220097449250806E-005 ,   3.8583300028678933E-008
   1.2514666666666554      ,   1.2549833333333220      ,   7.1668244440211364E-005 ,   4.1887510202195003E-008
   1.2549833333333220      ,   1.2584999999999886      ,   7.3810557550959516E-005 ,   4.6188052272088946E-008
   1.2584999999999886      ,   1.2620166666666552      ,   7.6771729566429893E-005 ,   5.1388314400271392E-008
   1.2620166666666552      ,   1.2655333333333219      ,   8.0658923796501615E-005 ,   5.7153360081041953E-008
   1.2655333333333219      ,   1.2690499999999885      ,   8.5655158015345321E-005 ,   6.3445679102883545E-008
   1.2690499999999885      ,   1.2725666666666551      ,   9.2593560578896846E-005 ,   7.2726219098514960E-008
   1.2725666666666551      ,   1.2760833333333217      ,   1.0082282398468524E-004 ,   8.1472455804791850E-008
   1.2760833333333217      ,   1.2795999999999883      ,   1.1112210828551589E-004 ,   9.1640172537977194E-008
   1.2795999999999883      ,   1.2831166666666549      ,   1.2400541737333354E-004 ,   1.0467164418461944E-007
   1.2831166666666549      ,   1.2866333333333215      ,   1.3898206840201585E-004 ,   1.1797404731893745E-007
   1.2866333333333215      ,   1.2901499999999881      ,   1.5666946209486521E-004 ,   1.3491017131158940E-007
   1.2901499999999881      ,   1.2936666666666548      ,   1.7753929555798111E-004 ,   1.5847581696926519E-007
   1.2936666666666548      ,   1.2971833333333214      ,   2.0071312176498711E-004 ,   1.8295549286344474E-007
   1.2971833333333214      ,   1.3006999999999880      ,   2.2676419487376045E-004 ,   2.1252096811060320E-007
   1.3006999999999880      ,   1.3042166666666546      ,   2.5575571213323897E-004 ,   2.4448314866839387E-007
   1.3042166666666546      ,   1.3077333333333212      ,   2.8816748034979784E-004 ,   2.8157097523015282E-007
   1.3077333333333212      ,   1.3112499999999878      ,   3.2242171020943183E-004 ,   3.2084749712877102E-007
   1.3112499999999878      ,   1.3147666666666544      ,   3.6085695316226966E-004 ,   3.7205709138798582E-007
   1.3147666666666544      ,   1.3182833333333210      ,   4.0299881074027901E-004 ,   4.2071557103088054E-007
   1.3182833333333210      ,   1.3217999999999877      ,   4.4808679264502632E-004 ,   4.8223568975201310E-007
   1.3217999999999877      ,   1.3253166666666543      ,   4.9899849455934070E-004 ,   5.5006380684315918E-007
   1.3253166666666543      ,   1.3288333333333209      ,   5.5349616450693629E-004 ,   6.2368926737028393E-007
   1.3288333333333209      ,   1.3323499999999875      ,   6.1646912896625491E-004 ,   7.2313336160903777E-007
   1.3323499999999875      ,   1.3358666666666541      ,   6.8272221142420873E-004 ,   8.2451876144299122E-007
   1.3358666666666541      ,   1.3393833333333207      ,   7.5640906651409955E-004 ,   9.3704955559599098E-007
   1.3393833333333207      ,   1.3428999999999873      ,   8.4029642910646437E-004 ,   1.0831432609452518E-006
   1.3428999999999873      ,   1.3464166666666539      ,   9.3868790126919567E-004 ,   1.2534486949128222E-006
   1.3464166666666539      ,   1.3499333333333206      ,   1.0458249626497434E-003 ,   1.4414016934422592E-006
   1.3499333333333206      ,   1.3534499999999872      ,   1.1685106283064986E-003 ,   1.6668472556312234E-006
   1.3534499999999872      ,   1.3569666666666538      ,   1.3076790121262566E-003 ,   1.8953233211239718E-006
   1.3569666666666538      ,   1.3604833333333204      ,   1.4726987939210387E-003 ,   2.2153270548518042E-006
   1.3604833333333204      ,   1.3639999999999870      ,   1.6622110514536226E-003 ,   2.6076310660713046E-006
   1.3639999999999870      ,   1.3675166666666536      ,   1.8907054871925512E-003 ,   3.0704311960118406E-006
   1.3675166666666536      ,   1.3710333333333202      ,   2.1486488539653142E-003 ,   3.5811574490196561E-006
   1.3710333333333202      ,   1.3745499999999868      ,   2.4714532783756795E-003 ,   4.3093729456294278E-006
   1.3745499999999868      ,   1.3780666666666535      ,   2.8407772549429002E-003 ,   5.1959656339756160E-006
   1.3780666666666535      ,   1.3815833333333201      ,   3.2993033625275977E-003 ,   6.2408693710381408E-006
   1.3815833333333201      ,   1.3850999999999867      ,   3.8719779473344882E-003 ,   7.7037053898362828E-006
   1.3850999999999867      ,   1.3886166666666533      ,   4.5675129286659724E-003 ,   9.5106059438634418E-006
   1.3886166666666533      ,   1.3921333333333199      ,   5.4404072353893378E-003 ,   1.1895850380124733E-005
   1.3921333333333199      ,   1.3956499999999865      ,   6.5164289575567226E-003 ,   1.4627185442409727E-005
   1.3956499999999865      ,   1.3991666666666531      ,   7.8732918908290955E-003 ,   1.8376026323666515E-005
   1.3991666666666531      ,   1.4026833333333197      ,   9.5941656672494918E-003 ,   2.3582844675809063E-005
   1.4026833333333197      ,   1.4061999999999863      ,   1.1645304260959485E-002 ,   2.8711710780007957E-005
   1.4061999999999863      ,   1.4097166666666530      ,   1.4082012780182007E-002 ,   3.4936083837468074E-005
   1.4097166666666530      ,   1.4132333333333196      ,   1.7010046575496925E-002 ,   4.1749591439649957E-005
   1.4132333333333196      ,   1.4167499999999862      ,   2.0409656141863592E-002 ,   5.0036706416355120E-005
   1.4167499999999862      ,   1.4202666666666528      ,   2.4075428259634199E-002 ,   5.8471735913257839E-005
   1.4202666666666528      ,   1.4237833333333194      ,   2.7932160743685291E-002 ,   6.6831048121323330E-005
   1.4237833333333194      ,   1.4272999999999860      ,   3.2317613903623935E-002 ,   7.8102855880061124E-005
   1.4272999999999860      ,   1.4308166666666526      ,   3.5431686442866671E-002 ,   8.4801754578202999E-005
   1.4308166666666526      ,   1.4343333333333192      ,   3.7516916000498994E-002 ,   8.8499912005406275E-005
   1.4343333333333192      ,   1.4378499999999859      ,   3.8294314294993866E-002 ,   8.8914976085400517E-005
   1.4378499999999859      ,   1.4413666666666525      ,   3.8418639135755210E-002 ,   8.8532671961434763E-005
   1.4413666666666525      ,   1.4448833333333191      ,   3.8232300335347670E-002 ,   8.7262384826970033E-005
   1.4448833333333191      ,   1.4483999999999857      ,   3.7321049795274397E-002 ,   8.4507085496771496E-005
   1.4483999999999857      ,   1.4519166666666523      ,   3.6686363137803400E-002 ,   8.2743041020769901E-005
   1.4519166666666523      ,   1.4554333333333189      ,   3.5687338049027885E-002 ,   8.0373014452103506E-005
   1.4554333333333189      ,   1.4589499999999855      ,   3.4904522304432972E-002 ,   7.9206909888021061E-005
   1.4589499999999855      ,   1.4624666666666521      ,   3.4281278448563927E-002 ,   7.7452729411949680E-005
   1.4624666666666521      ,   1.4659833333333188      ,   3.3667620999837451E-002 ,   7.6547720669864656E-005
   1.4659833333333188      ,   1.4694999999999854      ,   3.3073391316827905E-002 ,   7.4999415078610648E-005
   1.4694999999999854      ,   1.4730166666666520      ,   3.2350007912257235E-002 ,   7.3824195764332862E-005
   1.4730166666666520      ,   1.4765333333333186      ,   3.1940833107017778E-002 ,   7.3178260949543396E-005
   1.4765333333333186      ,   1.4800499999999852      ,   3.1536463143716748E-002 ,   7.2697779650910752E-005
   1.4800499999999852      ,   1.4835666666666518      ,   3.0981867818525202E-002 ,   7.1412422259463411E-005
   1.4835666666666518      ,   1.4870833333333184      ,   3.0751571724727547E-002 ,   7.1359854241560158E-005
   1.4870833333333184      ,   1.4905999999999850      ,   3.0411900481790100E-002 ,   7.0690346132393881E-005
   1.4905999999999850      ,   1.4941166666666517      ,   3.0005087735339438E-002 ,   7.0469453646039508E-005
   1.4941166666666517      ,   1.4976333333333183      ,   2.9900831298182124E-002 ,   7.0515240067266940E-005
   1.4976333333333183      ,   1.5011499999999849      ,   2.9575237294021995E-002 ,   6.9884994675203718E-005
   1.5011499999999849      ,   1.5046666666666515      ,   2.9386487633765293E-002 ,   6.9744129832126497E-005
   1.5046666666666515      ,   1.5081833333333181      ,   2.9192539020988097E-002 ,   6.9578918025866185E-005
   1.5081833333333181      ,   1.5116999999999847      ,   2.8960666458786633E-002 ,   6.9634465293947175E-005
   1.5116999999999847      ,   1.5152166666666513      ,   2.8764427617600716E-002 ,   6.9636091324241554E-005
   1.5152166666666513      ,   1.5187333333333179      ,   2.8620244777827437E-002 ,   6.9545170469543225E-005
   1.5187333333333179      ,   1.5222499999999846      ,   2.8517244509030256E-002 ,   7.0445854709947533E-005
   1.5222499999999846      ,   1.5257666666666512      ,   2.8337032517675165E-002 ,   7.0545734370399936E-005
   1.5257666666666512      ,   1.5292833333333178      ,   2.8147024333467829E-002 ,   7.0619717658697263E-005
   1.5292833333333178      ,   1.5327999999999844      ,   2.7947698825959367E-002 ,   7.0015562631071981E-005
   1.5327999999999844      ,   1.5363166666666510      ,   2.7807024788077409E-002 ,   7.0027700569397089E-005
   1.5363166666666510      ,   1.5398333333333176      ,   2.7683310431050948E-002 ,   6.9777551855605070E-005
   1.5398333333333176      ,   1.5433499999999842      ,   2.7762025933847981E-002 ,   7.1162461534289825E-005
   1.5433499999999842      ,   1.5468666666666508      ,   2.7464499579947444E-002 ,   7.0484511197035912E-005
   1.5468666666666508      ,   1.5503833333333175      ,   2.7458923380040086E-002 ,   7.3896530703107245E-005
   1.5503833333333175      ,   1.5538999999999841      ,   2.7349311376153242E-002 ,   7.9531007030684013E-005
   1.5538999999999841      ,   1.5574166666666507      ,   2.7458355645762211E-002 ,   7.0634391475139498E-005
   1.5574166666666507      ,   1.5609333333333173      ,   2.7156920210942799E-002 ,   7.0796188393738236E-005
   1.5609333333333173      ,   1.5644499999999839      ,   2.7288243196698682E-002 ,   7.0441425594020487E-005
   1.5644499999999839      ,   1.5679666666666505      ,   2.7277707899770621E-002 ,   7.0688243057990521E-005
   1.5679666666666505      ,   1.5714833333333171      ,   2.7372627253622751E-002 ,   7.1038675909589901E-005
   1.5714833333333171      ,   1.5749999999999837      ,   2.7209561766348585E-002 ,   7.0154189266182512E-005
   1.5749999999999837      ,   1.5785166666666504      ,   2.7269750314900032E-002 ,   7.3084821517711436E-005
   1.5785166666666504      ,   1.5820333333333170      ,   2.7336560599098836E-002 ,   7.0884857840201280E-005
   1.5820333333333170      ,   1.5855499999999836      ,   2.7363390039117121E-002 ,   7.1739724249118454E-005
   1.5855499999999836      ,   1.5890666666666502      ,   2.7294791583316019E-002 ,   7.1140683640907217E-005
   1.5890666666666502      ,   1.5925833333333168      ,   2.7348828635494617E-002 ,   7.1750861559277218E-005
   1.5925833333333168      ,   1.5960999999999834      ,   2.7284802970668126E-002 ,   7.0178385611471375E-005
   1.5960999999999834      ,   1.5996166666666500      ,   2.7655049150509193E-002 ,   7.3976064230227648E-005
   1.5996166666666500      ,   1.6031333333333166      ,   2.7715629419256749E-002 ,   7.1090426059525007E-005
   1.6031333333333166      ,   1.6066499999999833      ,   2.7843964781527897E-002 ,   7.0986882425720887E-005
   1.6066499999999833      ,   1.6101666666666499      ,   2.7908093408728886E-002 ,   7.0036259634217044E-005
   1.6101666666666499      ,   1.6136833333333165      ,   2.8146371321761517E-002 ,   7.0301423721398087E-005
   1.6136833333333165      ,   1.6171999999999831      ,   2.8216590869839055E-002 ,   7.0479628063399100E-005
   1.6171999999999831      ,   1.6207166666666497      ,   2.8374365377010546E-002 ,   6.9665926819370577E-005
   1.6207166666666497      ,   1.6242333333333163      ,   2.8480494020746795E-002 ,   6.9539452067995613E-005
   1.6242333333333163      ,   1.6277499999999829      ,   2.8606725376097937E-002 ,   6.9374855390982835E-005
   1.6277499999999829      ,   1.6312666666666495      ,   2.8775791243827134E-002 ,   6.9217903921839572E-005
   1.6312666666666495      ,   1.6347833333333162      ,   2.8962489441765077E-002 ,   6.9358548472087065E-005
   1.6347833333333162      ,   1.6382999999999828      ,   2.9348090335074618E-002 ,   6.9915737320763822E-005
   1.6382999999999828      ,   1.6418166666666494      ,   2.9404825898839606E-002 ,   6.9725360252911826E-005
   1.6418166666666494      ,   1.6453333333333160      ,   2.9681848276930236E-002 ,   6.9875865166103165E-005
   1.6453333333333160      ,   1.6488499999999826      ,   2.9803407058101108E-002 ,   6.9912371927861804E-005
   1.6488499999999826      ,   1.6523666666666492      ,   3.0275783516194494E-002 ,   7.0700733537070574E-005
   1.6523666666666492      ,   1.6558833333333158      ,   3.0464718279497396E-002 ,   7.1036255568843637E-005
   1.6558833333333158      ,   1.6593999999999824      ,   3.0870994790821196E-002 ,   7.1305807989533091E-005
   1.6593999999999824      ,   1.6629166666666491      ,   3.1309020831132128E-002 ,   7.1917386247478496E-005
   1.6629166666666491      ,   1.6664333333333157      ,   3.1722961791755551E-002 ,   7.3244158510756379E-005
   1.6664333333333157      ,   1.6699499999999823      ,   3.2123319754359426E-002 ,   7.3667695944045785E-005
   1.6699499999999823      ,   1.6734666666666489      ,   3.2540357315789123E-002 ,   7.4319679433259455E-005
   1.6734666666666489      ,   1.6769833333333155      ,   3.3245646016761658E-002 ,   7.5303486151798323E-005
   1.6769833333333155      ,   1.6804999999999821      ,   3.3980627698857443E-002 ,   7.7167330546437730E-005
   1.6804999999999821      ,   1.6840166666666487      ,   3.4451985073578231E-002 ,   7.8001727383109109E-005
   1.6840166666666487      ,   1.6875333333333153      ,   3.5256134307804297E-002 ,   7.9553035628666848E-005
   1.6875333333333153      ,   1.6910499999999820      ,   3.6124409320423372E-002 ,   8.1202101803561742E-005
   1.6910499999999820      ,   1.6945666666666486      ,   3.6883582964472389E-002 ,   8.3594319357219149E-005
   1.6945666666666486      ,   1.6980833333333152      ,   3.7771930548791272E-002 ,   8.5572273218342319E-005
   1.6980833333333152      ,   1.7015999999999818      ,   3.8371837068428873E-002 ,   8.8077511484239881E-005
   1.7015999999999818      ,   1.7051166666666484      ,   3.8533713799651759E-002 ,   8.9144217449242774E-005
   1.7051166666666484      ,   1.7086333333333150      ,   3.8230409448641117E-002 ,   8.9136264935425088E-005
   1.7086333333333150      ,   1.7121499999999816      ,   3.6851988108914151E-002 ,   8.7434913389157010E-005
   1.7121499999999816      ,   1.7156666666666482      ,   3.4391520286664055E-002 ,   8.2225002175429439E-005
   1.7156666666666482      ,   1.7191833333333149      ,   3.0486911107122885E-002 ,   7.3081532704275887E-005
   1.7191833333333149      ,   1.7226999999999815      ,   2.6513765210294894E-002 ,   6.4176054684560892E-005
   1.7226999999999815      ,   1.7262166666666481      ,   2.2654872463645129E-002 ,   5.5223513196558799E-005
   1.7262166666666481      ,   1.7297333333333147      ,   1.9014922454595268E-002 ,   4.6600027129341059E-005
   1.7297333333333147      ,   1.7332499999999813      ,   1.5875102467511289E-002 ,   3.9196705811366976E-005
   1.7332499999999813      ,   1.7367666666666479      ,   1.3064983356729523E-002 ,   3.2310586592601567E-005
   1.7367666666666479      ,   1.7402833333333145      ,   1.0756243015897518E-002 ,   2.6350400407230806E-005
   1.7402833333333145      ,   1.7437999999999811      ,   8.8565175396693018E-003 ,   2.1067040517030930E-005
   1.7437999999999811      ,   1.7473166666666478      ,   7.3039994663363431E-003 ,   1.6919430289021809E-005
   1.7473166666666478      ,   1.7508333333333144      ,   6.0733377509563438E-003 ,   1.3582990116297798E-005
   1.7508333333333144      ,   1.7543499999999810      ,   5.0823579737704037E-003 ,   1.0794569094408714E-005
   1.7543499999999810      ,   1.7578666666666476      ,   4.2859455924787113E-003 ,   8.8047328243134617E-006
   1.7578666666666476      ,   1.7613833333333142      ,   3.6380766328674846E-003 ,   7.1471503945338758E-006
   1.7613833333333142      ,   1.7648999999999808      ,   3.1096476782131125E-003 ,   5.7797968529739042E-006
   1.7648999999999808      ,   1.7684166666666474      ,   2.6824591796062516E-003 ,   4.7891561850158798E-006
   1.7684166666666474      ,   1.7719333333333140      ,   2.3494944291203991E-003 ,   4.0516375059658711E-006
   1.7719333333333140      ,   1.7754499999999807      ,   2.0520287898577994E-003 ,   3.4030400517142889E-006
   1.7754499999999807      ,   1.7789666666666473      ,   1.8029409944033384E-003 ,   2.8752584633252141E-006
   1.7789666666666473      ,   1.7824833333333139      ,   1.5925630791300523E-003 ,   2.4573708459771054E-006
   1.7824833333333139      ,   1.7859999999999805      ,   1.4140918746620686E-003 ,   2.1035693160158151E-006
   1.7859999999999805      ,   1.7895166666666471      ,   1.2583263769939783E-003 ,   1.8230833284550914E-006
   1.7895166666666471      ,   1.7930333333333137      ,   1.1203415579082465E-003 ,   1.5684386238104815E-006
   1.7930333333333137      ,   1.7965499999999803      ,   1.0056132726929880E-003 ,   1.3604149465569753E-006
   1.7965499999999803      ,   1.8000666666666469      ,   8.9955902681649604E-004 ,   1.1775117539128617E-006
   1.8000666666666469      ,   1.8035833333333136      ,   8.0921724051142424E-004 ,   1.0238690926041780E-006
   1.8035833333333136      ,   1.8070999999999802      ,   7.2849776758151911E-004 ,   8.9002723906798750E-007
   1.8070999999999802      ,   1.8106166666666468      ,   6.5774550680975210E-004 ,   7.8022129290333831E-007
   1.8106166666666468      ,   1.8141333333333134      ,   5.9211103636360634E-004 ,   6.8127928068448050E-007
   1.8141333333333134      ,   1.8176499999999800      ,   5.3286515991410289E-004 ,   6.0084337473369129E-007
   1.8176499999999800      ,   1.8211666666666466      ,   4.8072657370292534E-004 ,   5.2662999992148666E-007
   1.8211666666666466      ,   1.8246833333333132      ,   4.3086709069475437E-004 ,   4.5950204593342148E-007
   1.8246833333333132      ,   1.8281999999999798      ,   3.8688543696378406E-004 ,   3.9976541731104022E-007
   1.8281999999999798      ,   1.8317166666666465      ,   3.4715672465842435E-004 ,   3.5223071713382854E-007
   1.8317166666666465      ,   1.8352333333333131      ,   3.1045432778176543E-004 ,   3.1083831737770573E-007
   1.8352333333333131      ,   1.8387499999999797      ,   2.7668941415026838E-004 ,   2.6939827403168576E-007
   1.8387499999999797      ,   1.8422666666666463      ,   2.4501381245609191E-004 ,   2.3009067415094114E-007
   1.8422666666666463      ,   1.8457833333333129      ,   2.1711062266002143E-004 ,   2.0025428512278631E-007
   1.8457833333333129      ,   1.8492999999999795      ,   1.9211751941909102E-004 ,   1.7264078185725157E-007
   1.8492999999999795      ,   1.8528166666666461      ,   1.6983551651429671E-004 ,   1.4987299872739391E-007
   1.8528166666666461      ,   1.8563333333333127      ,   1.5045221751738629E-004 ,   1.2867568565959867E-007
   1.8563333333333127      ,   1.8598499999999794      ,   1.3353613921372254E-004 ,   1.1179817605361705E-007
   1.8598499999999794      ,   1.8633666666666460      ,   1.1941189696134752E-004 ,   9.9522668616487848E-008
   1.8633666666666460      ,   1.8668833333333126      ,   1.0756091970640444E-004 ,   8.7478567246188356E-008
   1.8668833333333126      ,   1.8703999999999792      ,   9.8053591030040479E-005 ,   7.7378779439372705E-008
   1.8703999999999792      ,   1.8739166666666458      ,   9.0240389450119076E-005 ,   6.8850641037308989E-008
   1.8739166666666458      ,   1.8774333333333124      ,   8.4329716313757562E-005 ,   6.1352011655222263E-008
   1.8774333333333124      ,   1.8809499999999790      ,   7.9695767150630850E-005 ,   5.4883075528869978E-008
   1.8809499999999790      ,   1.8844666666666456      ,   7.6221945883506842E-005 ,   4.9353584090634967E-008
   1.8844666666666456      ,   1.8879833333333123      ,   7.3532262008393226E-005 ,   4.4386288987004768E-008
   1.8879833333333123      ,   1.8914999999999789      ,   7.1684039556993125E-005 ,   4.0547952299036583E-008
   1.8914999999999789      ,   1.8950166666666455      ,   7.0446360389661455E-005 ,   3.7743733443743152E-008
   1.8950166666666455      ,   1.8985333333333121      ,   6.9586330780853711E-005 ,   3.5480960333216342E-008
   1.8985333333333121      ,   1.9020499999999787      ,   6.9108716147134436E-005 ,   3.4078511595727897E-008
   1.9020499999999787      ,   1.9055666666666453      ,   6.8850143271614034E-005 ,   3.3114842276200879E-008
   1.9055666666666453      ,   1.9090833333333119      ,   6.8697029431412395E-005 ,   3.2561416184456290E-008
   1.9090833333333119      ,   1.9125999999999785      ,   6.8417216317290570E-005 ,   3.2190491644356829E-008
   1.9125999999999785      ,   1.9161166666666452      ,   6.8099287945479363E-005 ,   3.2069025684476160E-008
   1.9161166666666452      ,   1.9196333333333118      ,   6.7638105040439622E-005 ,   3.1998728879127827E-008
   1.9196333333333118      ,   1.9231499999999784      ,   6.6709361185844445E-005 ,   3.1688266064924630E-008
   1.9231499999999784      ,   1.9266666666666450      ,   6.5637789289755294E-005 ,   3.1428339624105192E-008
   1.9266666666666450      ,   1.9301833333333116      ,   6.3998659674154867E-005 ,   3.0781256292330008E-008
   1.9301833333333116      ,   1.9336999999999782      ,   6.1921625982056588E-005 ,   2.9966182137515147E-008
   1.9336999999999782      ,   1.9372166666666448      ,   5.9535343537970286E-005 ,   2.9007221670817838E-008
   1.9372166666666448      ,   1.9407333333333114      ,   5.6698282340915226E-005 ,   2.7774796631098401E-008
   1.9407333333333114      ,   1.9442499999999781      ,   5.3699000951077001E-005 ,   2.6524510903650890E-008
   1.9442499999999781      ,   1.9477666666666447      ,   5.0530124927314132E-005 ,   2.5180182279342161E-008
   1.9477666666666447      ,   1.9512833333333113      ,   4.7378855044981371E-005 ,   2.3880890654013262E-008
   1.9512833333333113      ,   1.9547999999999779      ,   4.4243105860466880E-005 ,   2.2602161723467560E-008
   1.9547999999999779      ,   1.9583166666666445      ,   4.1250911720158476E-005 ,   2.1396225074341005E-008
   1.9583166666666445      ,   1.9618333333333111      ,   3.8398864250877184E-005 ,   2.0231193227178792E-008
   1.9618333333333111      ,   1.9653499999999777      ,   3.5650349236594741E-005 ,   1.9186883146578602E-008
   1.9653499999999777      ,   1.9688666666666443      ,   3.3123085603094289E-005 ,   1.8145468013671322E-008
   1.9688666666666443      ,   1.9723833333333110      ,   3.0750061254804826E-005 ,   1.7062673088666271E-008
   1.9723833333333110      ,   1.9758999999999776      ,   2.8550113946222201E-005 ,   1.6111412697504157E-008
   1.9758999999999776      ,   1.9794166666666442      ,   2.6519681342847432E-005 ,   1.5307939222077243E-008
   1.9794166666666442      ,   1.9829333333333108      ,   2.4662223025871011E-005 ,   1.4497284582573320E-008
   1.9829333333333108      ,   1.9864499999999774      ,   2.2923546042640134E-005 ,   1.3710421059249654E-008
   1.9864499999999774      ,   1.9899666666666440      ,   2.1358852550780265E-005 ,   1.2962314463237463E-008
   1.9899666666666440      ,   1.9934833333333106      ,   1.9893649689898526E-005 ,   1.2161039711595497E-008
   1.9934833333333106      ,   1.9969999999999772      ,   1.8588549449506118E-005 ,   1.1482381265802519E-008
   1.9969999999999772      ,   2.0005166666666439      ,   1.7381465739325366E-005 ,   1.0692261693654664E-008
   2.0005166666666439      ,   2.0040333333333105      ,   1.6328508083891000E-005 ,   1.0047614631366569E-008
   2.0040333333333105      ,   2.0075499999999771      ,   1.5403316496292375E-005 ,   9.4984335741749872E-009
   2.0075499999999771      ,   2.0110666666666437      ,   1.4532743039648945E-005 ,   8.7461120152054329E-009
   2.0110666666666437      ,   2.0145833333333103      ,   1.3695768363779457E-005 ,   8.1158213847302267E-009
   2.0145833333333103      ,   2.0180999999999769      ,   1.2855412609215513E-005 ,   7.5479227073604807E-009
   2.0180999999999769      ,   2.0216166666666435      ,   1.1966890011168705E-005 ,   6.8584475089601201E-009
   2.0216166666666435      ,   2.0251333333333101      ,   1.1097705295511637E-005 ,   6.3290234693543968E-009
   2.0251333333333101      ,   2.0286499999999767      ,   1.0247293215774671E-005 ,   5.7062093602214854E-009
   2.0286499999999767      ,   2.0321666666666434      ,   9.4643744392689072E-006 ,   5.1679682249999741E-009
   2.0321666666666434      ,   2.0356833333333100      ,   8.7435178745929938E-006 ,   4.6558912698307996E-009
   2.0356833333333100      ,   2.0391999999999766      ,   8.0737516817335814E-006 ,   4.1766555063691742E-009
   2.0391999999999766      ,   2.0427166666666432      ,   7.4829123483683808E-006 ,   3.7667137322787552E-009
   2.0427166666666432      ,   2.0462333333333098      ,   6.9332228118641403E-006 ,   3.3629039530936816E-009
   2.0462333333333098      ,   2.0497499999999764      ,   6.4391809172078333E-006 ,   3.0096297847918957E-009
   2.0497499999999764      ,   2.0532666666666430      ,   6.0030543082300889E-006 ,   2.7502437231724587E-009
   2.0532666666666430      ,   2.0567833333333096      ,   5.6003040929400706E-006 ,   2.4808478972601771E-009
   2.0567833333333096      ,   2.0602999999999763      ,   5.2408665962288815E-006 ,   2.2511884353642623E-009
   2.0602999999999763      ,   2.0638166666666429      ,   4.9126084253679348E-006 ,   2.0584889750198367E-009
   2.0638166666666429      ,   2.0673333333333095      ,   4.6191817363644490E-006 ,   1.9123917848867663E-009
   2.0673333333333095      ,   2.0708499999999761      ,   4.3424248860771655E-006 ,   1.7502981112434604E-009
   2.0708499999999761      ,   2.0743666666666427      ,   4.0994932232920129E-006 ,   1.6439128812539615E-009
   2.0743666666666427      ,   2.0778833333333093      ,   3.8700541662653809E-006 ,   1.5365969997380006E-009
   2.0778833333333093      ,   2.0813999999999759      ,   3.6604231010475295E-006 ,   1.4329591576471627E-009
   2.0813999999999759      ,   2.0849166666666425      ,   3.4675678984408170E-006 ,   1.3512828766781671E-009
   2.0849166666666425      ,   2.0884333333333092      ,   3.2872025735731846E-006 ,   1.2747639059290429E-009
   2.0884333333333092      ,   2.0919499999999758      ,   3.1226119167790526E-006 ,   1.2106698825536248E-009
   2.0919499999999758      ,   2.0954666666666424      ,   2.9664476698830442E-006 ,   1.1422040567609155E-009
   2.0954666666666424      ,   2.0989833333333090      ,   2.8237267948393628E-006 ,   1.0921377612691518E-009
   2.0989833333333090      ,   2.1024999999999756      ,   2.6873044551859071E-006 ,   1.0348318042757481E-009
   2.1024999999999756      ,   2.1060166666666422      ,   2.5613213922835557E-006 ,   9.9140043361476269E-010
   2.1060166666666422      ,   2.1095333333333088      ,   2.4397457319176320E-006 ,   9.3687647301935727E-010
   2.1095333333333088      ,   2.1130499999999754      ,   2.3279936128030809E-006 ,   8.9377022397990719E-010
   2.1130499999999754      ,   2.1165666666666421      ,   2.2207254145166404E-006 ,   8.5740248198903627E-010
   2.1165666666666421      ,   2.1200833333333087      ,   2.1191623483267127E-006 ,   8.0940752963798147E-010
   2.1200833333333087      ,   2.1235999999999753      ,   2.0224108664003164E-006 ,   7.6869048277430911E-010
   2.1235999999999753      ,   2.1271166666666419      ,   1.9285809250366022E-006 ,   7.2837004236614374E-010
   2.1271166666666419      ,   2.1306333333333085      ,   1.8413592146458308E-006 ,   6.9084284930005336E-010
   2.1306333333333085      ,   2.1341499999999751      ,   1.7561796577494272E-006 ,   6.4882347099269955E-010
   2.1341499999999751      ,   2.1376666666666417      ,   1.6741488965935275E-006 ,   6.0239264350378591E-010
   2.1376666666666417      ,   2.1411833333333083      ,   1.5972038479509476E-006 ,   5.6551154923554979E-010
   2.1411833333333083      ,   2.1446999999999750      ,   1.5219599205228310E-006 ,   5.1968284698033363E-010
   2.1446999999999750      ,   2.1482166666666416      ,   1.4523041910142942E-006 ,   4.8019479900140570E-010
   2.1482166666666416      ,   2.1517333333333082      ,   1.3850698703780374E-006 ,   4.3350623691735566E-010
   2.1517333333333082      ,   2.1552499999999748      ,   1.3232370353160679E-006 ,   3.9801327164313912E-010
   2.1552499999999748      ,   2.1587666666666414      ,   1.2668889772853815E-006 ,   3.6800203823757601E-010
   2.1587666666666414      ,   2.1622833333333080      ,   1.2130409192693528E-006 ,   3.3880420349931324E-010
   2.1622833333333080      ,   2.1657999999999746      ,   1.1635229474358265E-006 ,   3.1601527472939666E-010
   2.1657999999999746      ,   2.1693166666666412      ,   1.1171730346125631E-006 ,   2.9199457993758289E-010
   2.1693166666666412      ,   2.1728333333333079      ,   1.0734143013308816E-006 ,   2.7500745826658375E-010
   2.1728333333333079      ,   2.1763499999999745      ,   1.0323241524103551E-006 ,   2.5825976143296945E-010
   2.1763499999999745      ,   2.1798666666666411      ,   9.9338973626294859E-007 ,   2.4260894827853538E-010
   2.1798666666666411      ,   2.1833833333333077      ,   9.5676147166404163E-007 ,   2.2867659008025253E-010
   2.1833833333333077      ,   2.1868999999999743      ,   9.2199137507068921E-007 ,   2.1733937313875553E-010
   2.1868999999999743      ,   2.1904166666666409      ,   8.8818048076876218E-007 ,   2.0454133518105438E-010
   2.1904166666666409      ,   2.1939333333333075      ,   8.5741448578660516E-007 ,   1.9473237196684834E-010
   2.1939333333333075      ,   2.1974499999999741      ,   8.2708948242398949E-007 ,   1.8458066871290137E-010
   2.1974499999999741      ,   2.2009666666666408      ,   7.9844264982915830E-007 ,   1.7549021638478423E-010
   2.2009666666666408      ,   2.2044833333333074      ,   7.7078639237087673E-007 ,   1.6722057889978520E-010
   2.2044833333333074      ,   2.2079999999999740      ,   7.4421861312470535E-007 ,   1.5936453201296953E-010
   2.2079999999999740      ,   2.2115166666666406      ,   7.1913526434475887E-007 ,   1.5170309114233254E-010
   2.2115166666666406      ,   2.2150333333333072      ,   6.9510808701923202E-007 ,   1.4502366423635999E-010
   2.2150333333333072      ,   2.2185499999999738      ,   6.7164864055909119E-007 ,   1.3861104845368123E-010
   2.2185499999999738      ,   2.2220666666666404      ,   6.4943779555410362E-007 ,   1.3218403338830016E-010
   2.2220666666666404      ,   2.2255833333333070      ,   6.2808624148788582E-007 ,   1.2683533224759937E-010
   2.2255833333333070      ,   2.2290999999999737      ,   6.0715093068912003E-007 ,   1.2099749869450072E-010
   2.2290999999999737      ,   2.2326166666666403      ,   5.8758760776799772E-007 ,   1.1604495172162037E-010
   2.2326166666666403      ,   2.2361333333333069      ,   5.6825528689004288E-007 ,   1.1126473536095148E-010
   2.2361333333333069      ,   2.2396499999999735      ,   5.5014205821414955E-007 ,   1.0710519149221556E-010
   2.2396499999999735      ,   2.2431666666666401      ,   5.3239596060347226E-007 ,   1.0273706324784040E-010
   2.2431666666666401      ,   2.2466833333333067      ,   5.1508096376728197E-007 ,   9.8097090502227895E-011
   2.2466833333333067      ,   2.2501999999999733      ,   4.9874615255068662E-007 ,   9.4512596365186932E-011
   2.2501999999999733      ,   2.2537166666666399      ,   4.8278246231892894E-007 ,   9.0880489981173575E-011
   2.2537166666666399      ,   2.2572333333333066      ,   4.6742020938186458E-007 ,   8.7218880228072613E-011
   2.2572333333333066      ,   2.2607499999999732      ,   4.5236942408961137E-007 ,   8.3610076745891636E-011
   2.2607499999999732      ,   2.2642666666666398      ,   4.3809742292675903E-007 ,   8.0667191379806588E-011
   2.2642666666666398      ,   2.2677833333333064      ,   4.2402785347661592E-007 ,   7.7318053655518746E-011
   2.2677833333333064      ,   2.2712999999999730      ,   4.1075702020535678E-007 ,   7.4743456270231347E-011
   2.2712999999999730      ,   2.2748166666666396      ,   3.9768321273152931E-007 ,   7.1946335548786636E-011
   2.2748166666666396      ,   2.2783333333333062      ,   3.8519433155718633E-007 ,   6.9267825288609133E-011
   2.2783333333333062      ,   2.2818499999999728      ,   3.7313208140183760E-007 ,   6.6862896738470526E-011
   2.2818499999999728      ,   2.2853666666666395      ,   3.6122723077355810E-007 ,   6.4474559537193204E-011
   2.2853666666666395      ,   2.2888833333333061      ,   3.4970065822182143E-007 ,   6.1848771734957709E-011
   2.2888833333333061      ,   2.2923999999999727      ,   3.3877546258804989E-007 ,   5.9783392342185548E-011
   2.2923999999999727      ,   2.2959166666666393      ,   3.2796150449009663E-007 ,   5.7583740261413460E-011
   2.2959166666666393      ,   2.2994333333333059      ,   3.1768697525762144E-007 ,   5.5680514192540157E-011
   2.2994333333333059      ,   2.3029499999999725      ,   3.0763062964702868E-007 ,   5.3758523656105597E-011
   2.3029499999999725      ,   2.3064666666666391      ,   2.9777479906006643E-007 ,   5.1733716765754993E-011
   2.3064666666666391      ,   2.3099833333333057      ,   2.8830492397619618E-007 ,   4.9999402031490519E-011
   2.3099833333333057      ,   2.3134999999999724      ,   2.7913164250905527E-007 ,   4.8265122873724709E-011
   2.3134999999999724      ,   2.3170166666666390      ,   2.7027580152699084E-007 ,   4.6567137957685120E-011
   2.3170166666666390      ,   2.3205333333333056      ,   2.6170808209519502E-007 ,   4.5133726665444264E-011
   2.3205333333333056      ,   2.3240499999999722      ,   2.5325297263420623E-007 ,   4.3478122236294485E-011
   2.3240499999999722      ,   2.3275666666666388      ,   2.4523596791325978E-007 ,   4.2043983391757788E-011
   2.3275666666666388      ,   2.3310833333333054      ,   2.3725287501862894E-007 ,   4.0499874159352029E-011
   2.3310833333333054      ,   2.3345999999999720      ,   2.2970956084491349E-007 ,   3.9217307721689640E-011
   2.3345999999999720      ,   2.3381166666666386      ,   2.2230256620216545E-007 ,   3.7879562706001744E-011
   2.3381166666666386      ,   2.3416333333333053      ,   2.1506850516139139E-007 ,   3.6688760531922932E-011
   2.3416333333333053      ,   2.3451499999999719      ,   2.0815068081080760E-007 ,   3.5463772995920164E-011
   2.3451499999999719      ,   2.3486666666666385      ,   2.0141411358975584E-007 ,   3.4248235361287877E-011
   2.3486666666666385      ,   2.3521833333333051      ,   1.9497275646088328E-007 ,   3.3288007894574774E-011
   2.3521833333333051      ,   2.3556999999999717      ,   1.8856725360621734E-007 ,   3.2100899237241506E-011
   2.3556999999999717      ,   2.3592166666666383      ,   1.8234201714067887E-007 ,   3.1030812155801690E-011
   2.3592166666666383      ,   2.3627333333333049      ,   1.7636127906325968E-007 ,   3.0055420070491534E-011
   2.3627333333333049      ,   2.3662499999999715      ,   1.7046348012687392E-007 ,   2.9035861215325721E-011
   2.3662499999999715      ,   2.3697666666666382      ,   1.6487441873044461E-007 ,   2.8141827679217657E-011
   2.3697666666666382      ,   2.3732833333333048      ,   1.5940118144271168E-007 ,   2.7255429023713794E-011
   2.3732833333333048      ,   2.3767999999999714      ,   1.5403685865894585E-007 ,   2.6375037591540148E-011
   2.3767999999999714      ,   2.3803166666666380      ,   1.4889594152508299E-007 ,   2.5511229523632369E-011
   2.3803166666666380      ,   2.3838333333333046      ,   1.4383574859944821E-007 ,   2.4721000568735225E-011
   2.3838333333333046      ,   2.3873499999999712      ,   1.3889946287567017E-007 ,   2.3845163932938917E-011
   2.3873499999999712      ,   2.3908666666666378      ,   1.3421481578354778E-007 ,   2.3186687989557892E-011
   2.3908666666666378      ,   2.3943833333333044      ,   1.2955189866540195E-007 ,   2.2367580569807069E-011
   2.3943833333333044      ,   2.3978999999999711      ,   1.2511341692800812E-007 ,   2.1742070780006664E-011
   2.3978999999999711      ,   2.4014166666666377      ,   1.2073921862925234E-007 ,   2.1002754261898496E-011
   2.4014166666666377      ,   2.4049333333333043      ,   1.1650578318000787E-007 ,   2.0366670179576946E-011
   2.4049333333333043      ,   2.4084499999999709      ,   1.1236296390341164E-007 ,   1.9697604059540842E-011
   2.4084499999999709      ,   2.4119666666666375      ,   1.0839147325679043E-007 ,   1.9096185965856491E-011
   2.4119666666666375      ,   2.4154833333333041      ,   1.0448150231066560E-007 ,   1.8493262859937047E-011
   2.4154833333333041      ,   2.4189999999999707      ,   1.0072464410603805E-007 ,   1.7903454046060364E-011
   2.4189999999999707      ,   2.4225166666666373      ,   9.7062645639997882E-008 ,   1.7368831017036846E-011
   2.4225166666666373      ,   2.4260333333333040      ,   9.3469296617661391E-008 ,   1.6797915170805350E-011
   2.4260333333333040      ,   2.4295499999999706      ,   9.0029131637132271E-008 ,   1.6273254591670295E-011
   2.4295499999999706      ,   2.4330666666666372      ,   8.6641848647071491E-008 ,   1.5758989144203363E-011
   2.4330666666666372      ,   2.4365833333333038      ,   8.3372189735023201E-008 ,   1.5249739376622519E-011
   2.4365833333333038      ,   2.4400999999999704      ,   8.0188891482918291E-008 ,   1.4795712548597795E-011
   2.4400999999999704      ,   2.4436166666666370      ,   7.7067818854213405E-008 ,   1.4307982440019564E-011
   2.4436166666666370      ,   2.4471333333333036      ,   7.4047754585012500E-008 ,   1.3844045922992161E-011
   2.4471333333333036      ,   2.4506499999999702      ,   7.1114321109429825E-008 ,   1.3408202461948640E-011
   2.4506499999999702      ,   2.4541666666666369      ,   6.8313340733741920E-008 ,   1.2991810454355478E-011
   2.4541666666666369      ,   2.4576833333333035      ,   6.5514696029978637E-008 ,   1.2554359187714191E-011
   2.4576833333333035      ,   2.4611999999999701      ,   6.2834056280044336E-008 ,   1.2188378654275102E-011
   2.4611999999999701      ,   2.4647166666666367      ,   6.0206130219948567E-008 ,   1.1777478216897691E-011
   2.4647166666666367      ,   2.4682333333333033      ,   5.7677157784031690E-008 ,   1.1419380281406450E-011
   2.4682333333333033      ,   2.4717499999999699      ,   5.5219904953019377E-008 ,   1.1052368771003428E-011
   2.4717499999999699      ,   2.4752666666666365      ,   5.2822799811258466E-008 ,   1.0696821348448697E-011
   2.4752666666666365      ,   2.4787833333333031      ,   5.0467540124708950E-008 ,   1.0329389895848220E-011
   2.4787833333333031      ,   2.4822999999999698      ,   4.8206137589006484E-008 ,   9.9991062735723392E-012
   2.4822999999999698      ,   2.4858166666666364      ,   4.6014726226396446E-008 ,   9.6619735890744328E-012
   2.4858166666666364      ,   2.4893333333333030      ,   4.3887664815933796E-008 ,   9.3574932175713528E-012
   2.4893333333333030      ,   2.4928499999999696      ,   4.1806446371068088E-008 ,   9.0346994356206302E-012
   2.4928499999999696      ,   2.4963666666666362      ,   3.9808081691028071E-008 ,   8.7263080561421116E-012
   2.4963666666666362      ,   2.4998833333333028      ,   3.7849005619337033E-008 ,   8.4335663334725443E-012
   2.4998833333333028      ,   2.5033999999999694      ,   3.5943121241801657E-008 ,   8.1363716726742466E-012
   2.5033999999999694      ,   2.5069166666666360      ,   3.4127518614876706E-008 ,   7.8761360909508898E-012
   2.5069166666666360      ,   2.5104333333333027      ,   3.2315797740201269E-008 ,   7.5931338409489439E-012
   2.5104333333333027      ,   2.5139499999999693      ,   3.0611444713366322E-008 ,   7.3345650461272703E-012
   2.5139499999999693      ,   2.5174666666666359      ,   2.8957858856832766E-008 ,   7.0750322417386286E-012
   2.5174666666666359      ,   2.5209833333333025      ,   2.7366539485281052E-008 ,   6.8229565152592126E-012
   2.5209833333333025      ,   2.5244999999999691      ,   2.5814609249237235E-008 ,   6.5697973969950167E-012
   2.5244999999999691      ,   2.5280166666666357      ,   2.4324505740448342E-008 ,   6.3176685867717984E-012
   2.5280166666666357      ,   2.5315333333333023      ,   2.2887281413799664E-008 ,   6.0844973835707130E-012
   2.5315333333333023      ,   2.5350499999999689      ,   2.1501289380715136E-008 ,   5.8409708173974072E-012
   2.5350499999999689      ,   2.5385666666666356      ,   2.0166627944680710E-008 ,   5.6183243626542005E-012
   2.5385666666666356      ,   2.5420833333333022      ,   1.8872900443043879E-008 ,   5.3970974239807336E-012
   2.5420833333333022      ,   2.5455999999999688      ,   1.7645906301039905E-008 ,   5.1818669912597345E-012
   2.5455999999999688      ,   2.5491166666666354      ,   1.6432174830205404E-008 ,   4.9558878265172562E-012
   2.5491166666666354      ,   2.5526333333333020      ,   1.5278303234919840E-008 ,   4.7404122756686092E-012
   2.5526333333333020      ,   2.5561499999999686      ,   1.4180062401950193E-008 ,   4.5372172638909571E-012
   2.5561499999999686      ,   2.5596666666666352      ,   1.3100861591008419E-008 ,   4.3310638242053013E-012
   2.5596666666666352      ,   2.5631833333333018      ,   1.2079642655242696E-008 ,   4.1190491885864446E-012
   2.5631833333333018      ,   2.5666999999999685      ,   1.1082785677575807E-008 ,   3.9172922836402838E-012
   2.5666999999999685      ,   2.5702166666666351      ,   1.0148343065392470E-008 ,   3.7328718832382188E-012
   2.5702166666666351      ,   2.5737333333333017      ,   9.2296324758022532E-009 ,   3.5261556995294420E-012
   2.5737333333333017      ,   2.5772499999999683      ,   8.3512967842313039E-009 ,   3.3248694489551540E-012
   2.5772499999999683      ,   2.5807666666666349      ,   7.5145983531235481E-009 ,   3.1387276195634763E-012
   2.5807666666666349      ,   2.5842833333333015      ,   6.7148333358913890E-009 ,   2.9478679360163507E-012
   2.5842833333333015      ,   2.5877999999999681      ,   5.9424516651295276E-009 ,   2.7548871002593576E-012
   2.5877999999999681      ,   2.5913166666666347      ,   5.2042285417938322E-009 ,   2.5593388037361906E-012
   2.5913166666666347      ,   2.5948333333333014      ,   4.5029930780740295E-009 ,   2.3608228723569189E-012
   2.5948333333333014      ,   2.5983499999999680      ,   3.8266339388361943E-009 ,   2.1585388990484022E-012
   2.5983499999999680      ,   2.6018666666666346      ,   3.1871962012318596E-009 ,   1.9610420071685082E-012
   2.6018666666666346      ,   2.6053833333333012      ,   2.5750942107586598E-009 ,   1.7464556566460736E-012
   2.6053833333333012      ,   2.6088999999999678      ,   1.9912096112364604E-009 ,   1.5179408925251713E-012
   2.6088999999999678      ,   2.6124166666666344      ,   1.4394918113864880E-009 ,   1.2770572193080287E-012
   2.6124166666666344      ,   2.6159333333333010      ,   9.1299685530044710E-010 ,   1.0042809725522655E-012
   2.6159333333333010      ,   2.6194499999999676      ,   4.1694719817976102E-010 ,   6.7614678882628492E-013
   2.6194499999999676      ,   2.6229666666666343      ,   3.3765519200318305E-011 ,   1.8778836354896335E-013
   2.6229666666666343      ,   2.6264833333333009      ,   0.0000000000000000      ,   0.0000000000000000     
   2.6264833333333009      ,   2.6299999999999675      ,   0.0000000000000000      ,   0.0000000000000000     
