 # xl, xh, LO, dLO
  0.25000000000000000      ,  0.25416666666666665      ,   0.0000000000000000      ,   0.0000000000000000     
  0.25416666666666665      ,  0.25833333333333330      ,   0.0000000000000000      ,   0.0000000000000000     
  0.25833333333333330      ,  0.26249999999999996      ,   0.0000000000000000      ,   0.0000000000000000     
  0.26249999999999996      ,  0.26666666666666661      ,   0.0000000000000000      ,   0.0000000000000000     
  0.26666666666666661      ,  0.27083333333333326      ,   0.0000000000000000      ,   0.0000000000000000     
  0.27083333333333326      ,  0.27499999999999991      ,   0.0000000000000000      ,   0.0000000000000000     
  0.27499999999999991      ,  0.27916666666666656      ,   0.0000000000000000      ,   0.0000000000000000     
  0.27916666666666656      ,  0.28333333333333321      ,   0.0000000000000000      ,   0.0000000000000000     
  0.28333333333333321      ,  0.28749999999999987      ,   0.0000000000000000      ,   0.0000000000000000     
  0.28749999999999987      ,  0.29166666666666652      ,   0.0000000000000000      ,   0.0000000000000000     
  0.29166666666666652      ,  0.29583333333333317      ,   0.0000000000000000      ,   0.0000000000000000     
  0.29583333333333317      ,  0.29999999999999982      ,   0.0000000000000000      ,   0.0000000000000000     
  0.29999999999999982      ,  0.30416666666666647      ,   0.0000000000000000      ,   0.0000000000000000     
  0.30416666666666647      ,  0.30833333333333313      ,   0.0000000000000000      ,   0.0000000000000000     
  0.30833333333333313      ,  0.31249999999999978      ,   0.0000000000000000      ,   0.0000000000000000     
  0.31249999999999978      ,  0.31666666666666643      ,   0.0000000000000000      ,   0.0000000000000000     
  0.31666666666666643      ,  0.32083333333333308      ,   0.0000000000000000      ,   0.0000000000000000     
  0.32083333333333308      ,  0.32499999999999973      ,   0.0000000000000000      ,   0.0000000000000000     
  0.32499999999999973      ,  0.32916666666666639      ,   0.0000000000000000      ,   0.0000000000000000     
  0.32916666666666639      ,  0.33333333333333304      ,   0.0000000000000000      ,   0.0000000000000000     
  0.33333333333333304      ,  0.33749999999999969      ,   0.0000000000000000      ,   0.0000000000000000     
  0.33749999999999969      ,  0.34166666666666634      ,   0.0000000000000000      ,   0.0000000000000000     
  0.34166666666666634      ,  0.34583333333333299      ,   0.0000000000000000      ,   0.0000000000000000     
  0.34583333333333299      ,  0.34999999999999964      ,   0.0000000000000000      ,   0.0000000000000000     
  0.34999999999999964      ,  0.35416666666666630      ,   0.0000000000000000      ,   0.0000000000000000     
  0.35416666666666630      ,  0.35833333333333295      ,   0.0000000000000000      ,   0.0000000000000000     
  0.35833333333333295      ,  0.36249999999999960      ,   0.0000000000000000      ,   0.0000000000000000     
  0.36249999999999960      ,  0.36666666666666625      ,   0.0000000000000000      ,   0.0000000000000000     
  0.36666666666666625      ,  0.37083333333333290      ,   0.0000000000000000      ,   0.0000000000000000     
  0.37083333333333290      ,  0.37499999999999956      ,   0.0000000000000000      ,   0.0000000000000000     
  0.37499999999999956      ,  0.37916666666666621      ,   0.0000000000000000      ,   0.0000000000000000     
  0.37916666666666621      ,  0.38333333333333286      ,   0.0000000000000000      ,   0.0000000000000000     
  0.38333333333333286      ,  0.38749999999999951      ,   0.0000000000000000      ,   0.0000000000000000     
  0.38749999999999951      ,  0.39166666666666616      ,   0.0000000000000000      ,   0.0000000000000000     
  0.39166666666666616      ,  0.39583333333333282      ,   0.0000000000000000      ,   0.0000000000000000     
  0.39583333333333282      ,  0.39999999999999947      ,   0.0000000000000000      ,   0.0000000000000000     
  0.39999999999999947      ,  0.40416666666666612      ,   0.0000000000000000      ,   0.0000000000000000     
  0.40416666666666612      ,  0.40833333333333277      ,   0.0000000000000000      ,   0.0000000000000000     
  0.40833333333333277      ,  0.41249999999999942      ,   0.0000000000000000      ,   0.0000000000000000     
  0.41249999999999942      ,  0.41666666666666607      ,   0.0000000000000000      ,   0.0000000000000000     
  0.41666666666666607      ,  0.42083333333333273      ,   0.0000000000000000      ,   0.0000000000000000     
  0.42083333333333273      ,  0.42499999999999938      ,   0.0000000000000000      ,   0.0000000000000000     
  0.42499999999999938      ,  0.42916666666666603      ,   0.0000000000000000      ,   0.0000000000000000     
  0.42916666666666603      ,  0.43333333333333268      ,   0.0000000000000000      ,   0.0000000000000000     
  0.43333333333333268      ,  0.43749999999999933      ,   0.0000000000000000      ,   0.0000000000000000     
  0.43749999999999933      ,  0.44166666666666599      ,   0.0000000000000000      ,   0.0000000000000000     
  0.44166666666666599      ,  0.44583333333333264      ,   0.0000000000000000      ,   0.0000000000000000     
  0.44583333333333264      ,  0.44999999999999929      ,   0.0000000000000000      ,   0.0000000000000000     
  0.44999999999999929      ,  0.45416666666666594      ,   0.0000000000000000      ,   0.0000000000000000     
  0.45416666666666594      ,  0.45833333333333259      ,   0.0000000000000000      ,   0.0000000000000000     
  0.45833333333333259      ,  0.46249999999999925      ,   0.0000000000000000      ,   0.0000000000000000     
  0.46249999999999925      ,  0.46666666666666590      ,   0.0000000000000000      ,   0.0000000000000000     
  0.46666666666666590      ,  0.47083333333333255      ,   0.0000000000000000      ,   0.0000000000000000     
  0.47083333333333255      ,  0.47499999999999920      ,   0.0000000000000000      ,   0.0000000000000000     
  0.47499999999999920      ,  0.47916666666666585      ,   0.0000000000000000      ,   0.0000000000000000     
  0.47916666666666585      ,  0.48333333333333250      ,   0.0000000000000000      ,   0.0000000000000000     
  0.48333333333333250      ,  0.48749999999999916      ,   0.0000000000000000      ,   0.0000000000000000     
  0.48749999999999916      ,  0.49166666666666581      ,   0.0000000000000000      ,   0.0000000000000000     
  0.49166666666666581      ,  0.49583333333333246      ,   0.0000000000000000      ,   0.0000000000000000     
  0.49583333333333246      ,  0.49999999999999911      ,   0.0000000000000000      ,   0.0000000000000000     
  0.49999999999999911      ,  0.50416666666666576      ,   0.0000000000000000      ,   0.0000000000000000     
  0.50416666666666576      ,  0.50833333333333242      ,   0.0000000000000000      ,   0.0000000000000000     
  0.50833333333333242      ,  0.51249999999999907      ,   0.0000000000000000      ,   0.0000000000000000     
  0.51249999999999907      ,  0.51666666666666572      ,   0.0000000000000000      ,   0.0000000000000000     
  0.51666666666666572      ,  0.52083333333333237      ,   0.0000000000000000      ,   0.0000000000000000     
  0.52083333333333237      ,  0.52499999999999902      ,   0.0000000000000000      ,   0.0000000000000000     
  0.52499999999999902      ,  0.52916666666666567      ,   0.0000000000000000      ,   0.0000000000000000     
  0.52916666666666567      ,  0.53333333333333233      ,   0.0000000000000000      ,   0.0000000000000000     
  0.53333333333333233      ,  0.53749999999999898      ,   0.0000000000000000      ,   0.0000000000000000     
  0.53749999999999898      ,  0.54166666666666563      ,   0.0000000000000000      ,   0.0000000000000000     
  0.54166666666666563      ,  0.54583333333333228      ,   0.0000000000000000      ,   0.0000000000000000     
  0.54583333333333228      ,  0.54999999999999893      ,   0.0000000000000000      ,   0.0000000000000000     
  0.54999999999999893      ,  0.55416666666666559      ,   0.0000000000000000      ,   0.0000000000000000     
  0.55416666666666559      ,  0.55833333333333224      ,   0.0000000000000000      ,   0.0000000000000000     
  0.55833333333333224      ,  0.56249999999999889      ,   0.0000000000000000      ,   0.0000000000000000     
  0.56249999999999889      ,  0.56666666666666554      ,   0.0000000000000000      ,   0.0000000000000000     
  0.56666666666666554      ,  0.57083333333333219      ,   0.0000000000000000      ,   0.0000000000000000     
  0.57083333333333219      ,  0.57499999999999885      ,   0.0000000000000000      ,   0.0000000000000000     
  0.57499999999999885      ,  0.57916666666666550      ,   0.0000000000000000      ,   0.0000000000000000     
  0.57916666666666550      ,  0.58333333333333215      ,   0.0000000000000000      ,   0.0000000000000000     
  0.58333333333333215      ,  0.58749999999999880      ,   0.0000000000000000      ,   0.0000000000000000     
  0.58749999999999880      ,  0.59166666666666545      ,   0.0000000000000000      ,   0.0000000000000000     
  0.59166666666666545      ,  0.59583333333333210      ,   0.0000000000000000      ,   0.0000000000000000     
  0.59583333333333210      ,  0.59999999999999876      ,   0.0000000000000000      ,   0.0000000000000000     
  0.59999999999999876      ,  0.60416666666666541      ,   0.0000000000000000      ,   0.0000000000000000     
  0.60416666666666541      ,  0.60833333333333206      ,   0.0000000000000000      ,   0.0000000000000000     
  0.60833333333333206      ,  0.61249999999999871      ,   0.0000000000000000      ,   0.0000000000000000     
  0.61249999999999871      ,  0.61666666666666536      ,   0.0000000000000000      ,   0.0000000000000000     
  0.61666666666666536      ,  0.62083333333333202      ,   0.0000000000000000      ,   0.0000000000000000     
  0.62083333333333202      ,  0.62499999999999867      ,   0.0000000000000000      ,   0.0000000000000000     
  0.62499999999999867      ,  0.62916666666666532      ,   0.0000000000000000      ,   0.0000000000000000     
  0.62916666666666532      ,  0.63333333333333197      ,   0.0000000000000000      ,   0.0000000000000000     
  0.63333333333333197      ,  0.63749999999999862      ,   0.0000000000000000      ,   0.0000000000000000     
  0.63749999999999862      ,  0.64166666666666528      ,   0.0000000000000000      ,   0.0000000000000000     
  0.64166666666666528      ,  0.64583333333333193      ,   0.0000000000000000      ,   0.0000000000000000     
  0.64583333333333193      ,  0.64999999999999858      ,   0.0000000000000000      ,   0.0000000000000000     
  0.64999999999999858      ,  0.65416666666666523      ,   4.6296678731743346E-003 ,   3.5264312778137706E-005
  0.65416666666666523      ,  0.65833333333333188      ,   4.6693818792592177E-003 ,   3.5064396202652617E-005
  0.65833333333333188      ,  0.66249999999999853      ,   4.6531401783371741E-003 ,   3.4764714309354180E-005
  0.66249999999999853      ,  0.66666666666666519      ,   4.6068377603507762E-003 ,   3.4363500197320483E-005
  0.66666666666666519      ,  0.67083333333333184      ,   4.7098452230790672E-003 ,   3.4625547186247926E-005
  0.67083333333333184      ,  0.67499999999999849      ,   4.7246542340536532E-003 ,   3.4477357647382930E-005
  0.67499999999999849      ,  0.67916666666666514      ,   4.6571803029304693E-003 ,   3.3908888467591274E-005
  0.67916666666666514      ,  0.68333333333333179      ,   4.7125947292060866E-003 ,   3.4048207322938964E-005
  0.68333333333333179      ,  0.68749999999999845      ,   4.7143359650948513E-003 ,   3.3550883038151249E-005
  0.68749999999999845      ,  0.69166666666666510      ,   4.7798944757369627E-003 ,   3.3884798753754568E-005
  0.69166666666666510      ,  0.69583333333333175      ,   4.8235696710987961E-003 ,   3.3759999066055315E-005
  0.69583333333333175      ,  0.69999999999999840      ,   4.8773258436924961E-003 ,   3.4156481336865205E-005
  0.69999999999999840      ,  0.70416666666666505      ,   4.8117981256240727E-003 ,   3.3083366535029739E-005
  0.70416666666666505      ,  0.70833333333333171      ,   4.8571572161741905E-003 ,   3.3301467730921816E-005
  0.70833333333333171      ,  0.71249999999999836      ,   4.8782603014206859E-003 ,   3.3197414729535430E-005
  0.71249999999999836      ,  0.71666666666666501      ,   4.9103433810218748E-003 ,   3.8210515736609250E-005
  0.71666666666666501      ,  0.72083333333333166      ,   4.8842681838991223E-003 ,   3.2762833744675339E-005
  0.72083333333333166      ,  0.72499999999999831      ,   4.9880132214020455E-003 ,   3.4720325172160702E-005
  0.72499999999999831      ,  0.72916666666666496      ,   4.9371726597114245E-003 ,   3.2506018096293720E-005
  0.72916666666666496      ,  0.73333333333333162      ,   4.9723873310807028E-003 ,   3.2400991378539911E-005
  0.73333333333333162      ,  0.73749999999999827      ,   4.9780081794254865E-003 ,   3.2772392050996672E-005
  0.73749999999999827      ,  0.74166666666666492      ,   4.9772312088461309E-003 ,   3.2060218731026965E-005
  0.74166666666666492      ,  0.74583333333333157      ,   5.0021711770208577E-003 ,   3.2122321026416450E-005
  0.74583333333333157      ,  0.74999999999999822      ,   5.0458869315135706E-003 ,   3.3248593725467890E-005
  0.74999999999999822      ,  0.75416666666666488      ,   5.0187816630615032E-003 ,   3.1610689549283203E-005
  0.75416666666666488      ,  0.75833333333333153      ,   5.0673715705534979E-003 ,   3.2215778736220015E-005
  0.75833333333333153      ,  0.76249999999999818      ,   5.1085025524097568E-003 ,   3.2038542392991104E-005
  0.76249999999999818      ,  0.76666666666666483      ,   5.0931644160613111E-003 ,   3.1727035791466500E-005
  0.76666666666666483      ,  0.77083333333333148      ,   5.0840823830421936E-003 ,   3.1374576445701355E-005
  0.77083333333333148      ,  0.77499999999999813      ,   5.1378672504281721E-003 ,   3.1311318029397412E-005
  0.77499999999999813      ,  0.77916666666666479      ,   5.1863620864452502E-003 ,   3.3936843622664471E-005
  0.77916666666666479      ,  0.78333333333333144      ,   5.1907103759518958E-003 ,   3.1457439487016902E-005
  0.78333333333333144      ,  0.78749999999999809      ,   5.1785243415079759E-003 ,   3.1286944178252230E-005
  0.78749999999999809      ,  0.79166666666666474      ,   5.2392676617726702E-003 ,   3.1174224023271142E-005
  0.79166666666666474      ,  0.79583333333333139      ,   5.2842164051759479E-003 ,   3.1494158825866616E-005
  0.79583333333333139      ,  0.79999999999999805      ,   5.2919267221315652E-003 ,   3.1073481839641766E-005
  0.79999999999999805      ,  0.80416666666666470      ,   5.2830740185043808E-003 ,   3.1072851064926774E-005
  0.80416666666666470      ,  0.80833333333333135      ,   5.2420382425388389E-003 ,   3.0522608935245872E-005
  0.80833333333333135      ,  0.81249999999999800      ,   5.3198484423370813E-003 ,   3.0542564704687620E-005
  0.81249999999999800      ,  0.81666666666666465      ,   5.3324651631002778E-003 ,   3.0331420511702501E-005
  0.81666666666666465      ,  0.82083333333333131      ,   5.3438598707850797E-003 ,   3.0322833610431275E-005
  0.82083333333333131      ,  0.82499999999999796      ,   5.4115833784948043E-003 ,   3.0829753962143206E-005
  0.82499999999999796      ,  0.82916666666666461      ,   5.3956761860923163E-003 ,   3.0071411406883282E-005
  0.82916666666666461      ,  0.83333333333333126      ,   5.4191295112332016E-003 ,   3.0112352671080625E-005
  0.83333333333333126      ,  0.83749999999999791      ,   5.4150795679862229E-003 ,   2.9950122982448870E-005
  0.83749999999999791      ,  0.84166666666666456      ,   5.4450407496042762E-003 ,   2.9886262568094316E-005
  0.84166666666666456      ,  0.84583333333333122      ,   5.4804412816801418E-003 ,   2.9858316751332636E-005
  0.84583333333333122      ,  0.84999999999999787      ,   5.4269618075862090E-003 ,   2.9676895251244284E-005
  0.84999999999999787      ,  0.85416666666666452      ,   5.4958722784148057E-003 ,   2.9661709449321541E-005
  0.85416666666666452      ,  0.85833333333333117      ,   5.4990566250488681E-003 ,   2.9570623535152432E-005
  0.85833333333333117      ,  0.86249999999999782      ,   5.5712127976812950E-003 ,   2.9837973344611483E-005
  0.86249999999999782      ,  0.86666666666666448      ,   5.5950673983105924E-003 ,   2.9838119515543534E-005
  0.86666666666666448      ,  0.87083333333333113      ,   5.6015445351672178E-003 ,   2.9618455488893361E-005
  0.87083333333333113      ,  0.87499999999999778      ,   5.6337639791559507E-003 ,   2.9608706819309630E-005
  0.87499999999999778      ,  0.87916666666666443      ,   5.6717951419410981E-003 ,   3.0934574245019482E-005
  0.87916666666666443      ,  0.88333333333333108      ,   5.7212757484696947E-003 ,   2.9750948339987846E-005
  0.88333333333333108      ,  0.88749999999999774      ,   5.7160597928171044E-003 ,   2.9512966217867415E-005
  0.88749999999999774      ,  0.89166666666666439      ,   5.7103801409218941E-003 ,   2.9253128817632999E-005
  0.89166666666666439      ,  0.89583333333333104      ,   5.7389219325413524E-003 ,   3.0781452993599366E-005
  0.89583333333333104      ,  0.89999999999999769      ,   5.7878623872624994E-003 ,   2.9310882991184756E-005
  0.89999999999999769      ,  0.90416666666666434      ,   5.7508996037607413E-003 ,   2.9140239617176638E-005
  0.90416666666666434      ,  0.90833333333333099      ,   5.8717567303008915E-003 ,   2.9751542574927383E-005
  0.90833333333333099      ,  0.91249999999999765      ,   5.9528452623148547E-003 ,   2.9750394683167782E-005
  0.91249999999999765      ,  0.91666666666666430      ,   5.9232896546212504E-003 ,   2.9411057651885470E-005
  0.91666666666666430      ,  0.92083333333333095      ,   5.9641650024347117E-003 ,   2.9568542686908129E-005
  0.92083333333333095      ,  0.92499999999999760      ,   5.9712499651325898E-003 ,   2.9513888942201686E-005
  0.92499999999999760      ,  0.92916666666666425      ,   6.0375726008792836E-003 ,   2.9688525136213547E-005
  0.92916666666666425      ,  0.93333333333333091      ,   6.0592849587987399E-003 ,   3.0588668083088809E-005
  0.93333333333333091      ,  0.93749999999999756      ,   6.0884320458536988E-003 ,   4.2821612887270512E-005
  0.93749999999999756      ,  0.94166666666666421      ,   6.0893336465308043E-003 ,   2.9630013797043765E-005
  0.94166666666666421      ,  0.94583333333333086      ,   6.1038601444890787E-003 ,   2.9241781631948469E-005
  0.94583333333333086      ,  0.94999999999999751      ,   6.1363669720448412E-003 ,   2.9411561525382758E-005
  0.94999999999999751      ,  0.95416666666666416      ,   6.1013562466724729E-003 ,   2.9156077813964216E-005
  0.95416666666666416      ,  0.95833333333333082      ,   6.1260269735928762E-003 ,   2.9096209810484911E-005
  0.95833333333333082      ,  0.96249999999999747      ,   6.1223723683011926E-003 ,   3.0341854456057449E-005
  0.96249999999999747      ,  0.96666666666666412      ,   6.0764856596807748E-003 ,   2.8399495528688497E-005
  0.96666666666666412      ,  0.97083333333333077      ,   6.1547562570859471E-003 ,   2.8663240063588549E-005
  0.97083333333333077      ,  0.97499999999999742      ,   6.1113895672063557E-003 ,   2.8403389029618651E-005
  0.97499999999999742      ,  0.97916666666666408      ,   6.0790770437619658E-003 ,   2.7788441554881640E-005
  0.97916666666666408      ,  0.98333333333333073      ,   6.0526033885444242E-003 ,   2.7584221102257307E-005
  0.98333333333333073      ,  0.98749999999999738      ,   6.0769245199045543E-003 ,   2.7673741671863150E-005
  0.98749999999999738      ,  0.99166666666666403      ,   6.0585506239550970E-003 ,   2.7401392612885790E-005
  0.99166666666666403      ,  0.99583333333333068      ,   5.9692355053599169E-003 ,   2.6785432863526702E-005
  0.99583333333333068      ,  0.99999999999999734      ,   6.0140373370725086E-003 ,   2.6941212835122182E-005
  0.99999999999999734      ,   1.0041666666666640      ,   5.9346895235188046E-003 ,   2.6527467680396697E-005
   1.0041666666666640      ,   1.0083333333333306      ,   5.9786259325102804E-003 ,   2.6529164496285831E-005
   1.0083333333333306      ,   1.0124999999999973      ,   5.9014481189882265E-003 ,   2.6068086141175419E-005
   1.0124999999999973      ,   1.0166666666666639      ,   5.9635256581598165E-003 ,   2.6144006435840880E-005
   1.0166666666666639      ,   1.0208333333333306      ,   5.8881105377109099E-003 ,   2.5688393250227584E-005
   1.0208333333333306      ,   1.0249999999999972      ,   5.8309872598730087E-003 ,   2.5519166280884865E-005
   1.0249999999999972      ,   1.0291666666666639      ,   5.8145891870978669E-003 ,   2.5159494547000229E-005
   1.0291666666666639      ,   1.0333333333333306      ,   5.7997732736920857E-003 ,   2.5034471213446675E-005
   1.0333333333333306      ,   1.0374999999999972      ,   5.7333832078317456E-003 ,   2.4579864731046882E-005
   1.0374999999999972      ,   1.0416666666666639      ,   5.7902362872412575E-003 ,   2.4837530605932231E-005
   1.0416666666666639      ,   1.0458333333333305      ,   5.7174717157531044E-003 ,   2.4378802563366685E-005
   1.0458333333333305      ,   1.0499999999999972      ,   5.6784972574980448E-003 ,   2.4084157286436813E-005
   1.0499999999999972      ,   1.0541666666666638      ,   5.6280335120678978E-003 ,   2.3770527526947700E-005
   1.0541666666666638      ,   1.0583333333333305      ,   5.6405783475564769E-003 ,   2.3988216101674683E-005
   1.0583333333333305      ,   1.0624999999999971      ,   5.6175169842716602E-003 ,   2.3519910957516651E-005
   1.0624999999999971      ,   1.0666666666666638      ,   5.5705814972413703E-003 ,   2.3248402633309036E-005
   1.0666666666666638      ,   1.0708333333333304      ,   5.5223311068424465E-003 ,   2.3473478237677118E-005
   1.0708333333333304      ,   1.0749999999999971      ,   5.5596076921692050E-003 ,   2.3149293343696290E-005
   1.0749999999999971      ,   1.0791666666666637      ,   5.5410692533260893E-003 ,   2.2889429499389827E-005
   1.0791666666666637      ,   1.0833333333333304      ,   5.4692378249562813E-003 ,   2.2474852158294225E-005
   1.0833333333333304      ,   1.0874999999999970      ,   5.4634211324884815E-003 ,   2.2324761245140303E-005
   1.0874999999999970      ,   1.0916666666666637      ,   5.4105023139082208E-003 ,   2.2113268281880411E-005
   1.0916666666666637      ,   1.0958333333333303      ,   5.3954035597247084E-003 ,   2.1901269047238579E-005
   1.0958333333333303      ,   1.0999999999999970      ,   5.3616500745655412E-003 ,   2.1782088260611360E-005
   1.0999999999999970      ,   1.1041666666666636      ,   5.3487404430741514E-003 ,   2.1591848203813895E-005
   1.1041666666666636      ,   1.1083333333333303      ,   5.3364707981193912E-003 ,   2.1414661678647358E-005
   1.1083333333333303      ,   1.1124999999999969      ,   5.2850711501279402E-003 ,   2.1213755331568395E-005
   1.1124999999999969      ,   1.1166666666666636      ,   5.2813433205562230E-003 ,   2.1111125098942427E-005
   1.1166666666666636      ,   1.1208333333333302      ,   5.2602484024043749E-003 ,   2.0975043902404500E-005
   1.1208333333333302      ,   1.1249999999999969      ,   5.2247260952319732E-003 ,   2.0775074440427509E-005
   1.1249999999999969      ,   1.1291666666666635      ,   5.2050604457261514E-003 ,   2.0687320647651626E-005
   1.1291666666666635      ,   1.1333333333333302      ,   5.1696856157914615E-003 ,   2.0394165212457052E-005
   1.1333333333333302      ,   1.1374999999999968      ,   5.1492063736692881E-003 ,   2.0409219899014847E-005
   1.1374999999999968      ,   1.1416666666666635      ,   5.1333875668547330E-003 ,   2.0267553642751162E-005
   1.1416666666666635      ,   1.1458333333333302      ,   5.1345253728511024E-003 ,   2.0097768769297967E-005
   1.1458333333333302      ,   1.1499999999999968      ,   5.0922071733509652E-003 ,   1.9824295172156078E-005
   1.1499999999999968      ,   1.1541666666666635      ,   5.0583610033552344E-003 ,   1.9709457754048354E-005
   1.1541666666666635      ,   1.1583333333333301      ,   5.0378308700530896E-003 ,   1.9630848000154770E-005
   1.1583333333333301      ,   1.1624999999999968      ,   5.0338560048176330E-003 ,   1.9562244856457501E-005
   1.1624999999999968      ,   1.1666666666666634      ,   4.9735753156422069E-003 ,   1.9182586727774476E-005
   1.1666666666666634      ,   1.1708333333333301      ,   4.9813464169499392E-003 ,   1.9189162451632169E-005
   1.1708333333333301      ,   1.1749999999999967      ,   4.9683536932119783E-003 ,   1.9097944924069800E-005
   1.1749999999999967      ,   1.1791666666666634      ,   4.9328435427801525E-003 ,   1.8901904459133556E-005
   1.1791666666666634      ,   1.1833333333333300      ,   4.9000070846316399E-003 ,   1.8812368938845124E-005
   1.1833333333333300      ,   1.1874999999999967      ,   4.8849309665323307E-003 ,   1.8721071588294523E-005
   1.1874999999999967      ,   1.1916666666666633      ,   4.8656364767840502E-003 ,   1.8517652549715556E-005
   1.1916666666666633      ,   1.1958333333333300      ,   4.8240106546027853E-003 ,   1.8296614952316658E-005
   1.1958333333333300      ,   1.1999999999999966      ,   4.8560957486666187E-003 ,   1.8374326465586126E-005
   1.1999999999999966      ,   1.2041666666666633      ,   4.8150830624729508E-003 ,   1.8264235413724386E-005
   1.2041666666666633      ,   1.2083333333333299      ,   4.7944393731132193E-003 ,   1.8100109827458373E-005
   1.2083333333333299      ,   1.2124999999999966      ,   4.7548099371015028E-003 ,   1.7926300894824055E-005
   1.2124999999999966      ,   1.2166666666666632      ,   4.7590025101315742E-003 ,   1.7817519589448675E-005
   1.2166666666666632      ,   1.2208333333333299      ,   4.7327120468477679E-003 ,   1.7752093458054432E-005
   1.2208333333333299      ,   1.2249999999999965      ,   4.7496369039610690E-003 ,   1.7798540059875988E-005
   1.2249999999999965      ,   1.2291666666666632      ,   4.6872626298853247E-003 ,   1.7488615092738071E-005
   1.2291666666666632      ,   1.2333333333333298      ,   4.6909485163391627E-003 ,   1.7423894669524425E-005
   1.2333333333333298      ,   1.2374999999999965      ,   4.6763894658329759E-003 ,   1.7326957395010631E-005
   1.2374999999999965      ,   1.2416666666666631      ,   4.6434379216331815E-003 ,   1.7172017528761233E-005
   1.2416666666666631      ,   1.2458333333333298      ,   4.6133806961596996E-003 ,   1.7110724288284138E-005
   1.2458333333333298      ,   1.2499999999999964      ,   4.6029659018670633E-003 ,   1.7010826249640523E-005
   1.2499999999999964      ,   1.2541666666666631      ,   4.6025589543045855E-003 ,   1.6902568430071850E-005
   1.2541666666666631      ,   1.2583333333333298      ,   4.5848450247038637E-003 ,   1.6824526977010152E-005
   1.2583333333333298      ,   1.2624999999999964      ,   4.5687536854325502E-003 ,   1.6744192828303293E-005
   1.2624999999999964      ,   1.2666666666666631      ,   4.5685233718137938E-003 ,   1.6637543447314893E-005
   1.2666666666666631      ,   1.2708333333333297      ,   4.5040797908281723E-003 ,   1.6518725582423551E-005
   1.2708333333333297      ,   1.2749999999999964      ,   4.5097720468843736E-003 ,   1.6483029064576292E-005
   1.2749999999999964      ,   1.2791666666666630      ,   4.4686168760567800E-003 ,   1.6278552151964933E-005
   1.2791666666666630      ,   1.2833333333333297      ,   4.4630068203295719E-003 ,   1.6192729449016002E-005
   1.2833333333333297      ,   1.2874999999999963      ,   4.4531525997137597E-003 ,   1.6108982575838217E-005
   1.2874999999999963      ,   1.2916666666666630      ,   4.4614392779659248E-003 ,   1.6128042357779362E-005
   1.2916666666666630      ,   1.2958333333333296      ,   4.4195606598661482E-003 ,   1.5962581199653895E-005
   1.2958333333333296      ,   1.2999999999999963      ,   4.4355810770284835E-003 ,   1.6008299575354520E-005
   1.2999999999999963      ,   1.3041666666666629      ,   4.4326434471126559E-003 ,   1.5952491727162067E-005
   1.3041666666666629      ,   1.3083333333333296      ,   4.4065077457436860E-003 ,   1.5773620061315613E-005
   1.3083333333333296      ,   1.3124999999999962      ,   4.3800148661698735E-003 ,   1.5674078390893507E-005
   1.3124999999999962      ,   1.3166666666666629      ,   4.3586238320643964E-003 ,   1.5618219680400060E-005
   1.3166666666666629      ,   1.3208333333333295      ,   4.3524783274507045E-003 ,   1.5539207267535605E-005
   1.3208333333333295      ,   1.3249999999999962      ,   4.3474739132980103E-003 ,   1.5636300630366027E-005
   1.3249999999999962      ,   1.3291666666666628      ,   4.3348279391124287E-003 ,   1.5452958794533490E-005
   1.3291666666666628      ,   1.3333333333333295      ,   4.3303973016051382E-003 ,   1.5376323215401404E-005
   1.3333333333333295      ,   1.3374999999999961      ,   4.3076798891222828E-003 ,   1.5278827701270074E-005
   1.3374999999999961      ,   1.3416666666666628      ,   4.2687969700135374E-003 ,   1.5128428979438079E-005
   1.3416666666666628      ,   1.3458333333333294      ,   4.2669837720311007E-003 ,   1.5067384059787353E-005
   1.3458333333333294      ,   1.3499999999999961      ,   4.2809983537487554E-003 ,   1.5087490398577273E-005
   1.3499999999999961      ,   1.3541666666666627      ,   4.2531653555796531E-003 ,   1.5146813997232120E-005
   1.3541666666666627      ,   1.3583333333333294      ,   4.2521414550919295E-003 ,   1.4981828185417297E-005
   1.3583333333333294      ,   1.3624999999999960      ,   4.2178874095252323E-003 ,   1.4832450997518949E-005
   1.3624999999999960      ,   1.3666666666666627      ,   4.2437432483307305E-003 ,   1.4929781956190476E-005
   1.3666666666666627      ,   1.3708333333333294      ,   4.2071793063635206E-003 ,   1.4771259025711363E-005
   1.3708333333333294      ,   1.3749999999999960      ,   4.1999310464360092E-003 ,   1.4684008222286838E-005
   1.3749999999999960      ,   1.3791666666666627      ,   4.1821996008267184E-003 ,   1.4612305564943745E-005
   1.3791666666666627      ,   1.3833333333333293      ,   4.1877183997746370E-003 ,   1.4679392662746578E-005
   1.3833333333333293      ,   1.3874999999999960      ,   4.1930448051023311E-003 ,   1.4616316999585305E-005
   1.3874999999999960      ,   1.3916666666666626      ,   4.1522854493418115E-003 ,   1.4498797056283301E-005
   1.3916666666666626      ,   1.3958333333333293      ,   4.1698089564125244E-003 ,   1.4531723793663842E-005
   1.3958333333333293      ,   1.3999999999999959      ,   4.1737841330916903E-003 ,   1.4504258833949678E-005
   1.3999999999999959      ,   1.4041666666666626      ,   4.1365975389013347E-003 ,   1.4371531674161593E-005
   1.4041666666666626      ,   1.4083333333333292      ,   4.1265576684463776E-003 ,   1.4340079745994422E-005
   1.4083333333333292      ,   1.4124999999999959      ,   4.1005225735239147E-003 ,   1.4781393530159773E-005
   1.4124999999999959      ,   1.4166666666666625      ,   4.1145466724408766E-003 ,   1.4251775752766571E-005
   1.4166666666666625      ,   1.4208333333333292      ,   4.1025427823334088E-003 ,   1.4174667651717519E-005
   1.4208333333333292      ,   1.4249999999999958      ,   4.0967713903825283E-003 ,   1.4158408735754976E-005
   1.4249999999999958      ,   1.4291666666666625      ,   4.1001176651838207E-003 ,   1.4154869566993046E-005
   1.4291666666666625      ,   1.4333333333333291      ,   4.0823481290943354E-003 ,   1.4075786319825524E-005
   1.4333333333333291      ,   1.4374999999999958      ,   4.0878303588682162E-003 ,   1.4048061094337419E-005
   1.4374999999999958      ,   1.4416666666666624      ,   4.0605185388504442E-003 ,   1.4124564869940762E-005
   1.4416666666666624      ,   1.4458333333333291      ,   4.0710661194016300E-003 ,   1.4020788001491784E-005
   1.4458333333333291      ,   1.4499999999999957      ,   4.0545815283221653E-003 ,   1.4177544784878215E-005
   1.4499999999999957      ,   1.4541666666666624      ,   4.0415007855242506E-003 ,   1.3866132682979240E-005
   1.4541666666666624      ,   1.4583333333333290      ,   4.0293141952354927E-003 ,   1.3788898613463436E-005
   1.4583333333333290      ,   1.4624999999999957      ,   4.0363243256227007E-003 ,   1.3910277793299871E-005
   1.4624999999999957      ,   1.4666666666666623      ,   4.0103558428555147E-003 ,   1.3753602286444703E-005
   1.4666666666666623      ,   1.4708333333333290      ,   4.0413470135420874E-003 ,   1.3865308270619366E-005
   1.4708333333333290      ,   1.4749999999999956      ,   4.0366169145803479E-003 ,   1.3869249085646601E-005
   1.4749999999999956      ,   1.4791666666666623      ,   4.0137497782913633E-003 ,   1.3695062454329785E-005
   1.4791666666666623      ,   1.4833333333333290      ,   4.0183526499145269E-003 ,   1.3742505984225803E-005
   1.4833333333333290      ,   1.4874999999999956      ,   4.0077169741807904E-003 ,   1.3698810862906603E-005
   1.4874999999999956      ,   1.4916666666666623      ,   4.0273212823801795E-003 ,   1.3726550018436087E-005
   1.4916666666666623      ,   1.4958333333333289      ,   3.9979829352495598E-003 ,   1.3635110431913455E-005
   1.4958333333333289      ,   1.4999999999999956      ,   4.0087527497692597E-003 ,   1.3675970280751561E-005
   1.4999999999999956      ,   1.5041666666666622      ,   3.9869851121446852E-003 ,   1.3617260165990056E-005
   1.5041666666666622      ,   1.5083333333333289      ,   4.0032409113082952E-003 ,   1.3609935923384295E-005
   1.5083333333333289      ,   1.5124999999999955      ,   3.9898524846144964E-003 ,   1.3578413357440061E-005
   1.5124999999999955      ,   1.5166666666666622      ,   3.9781754804177746E-003 ,   1.3555726960830478E-005
   1.5166666666666622      ,   1.5208333333333288      ,   4.0039102636493309E-003 ,   1.3596719783418588E-005
   1.5208333333333288      ,   1.5249999999999955      ,   3.9679481403620915E-003 ,   1.3506313342693198E-005
   1.5249999999999955      ,   1.5291666666666621      ,   3.9940311337992003E-003 ,   1.3557188116348829E-005
   1.5291666666666621      ,   1.5333333333333288      ,   3.9836442022492561E-003 ,   1.3523839065528174E-005
   1.5333333333333288      ,   1.5374999999999954      ,   3.9599094256977411E-003 ,   1.3414445675640290E-005
   1.5374999999999954      ,   1.5416666666666621      ,   3.9773458432514237E-003 ,   1.3607277845643567E-005
   1.5416666666666621      ,   1.5458333333333287      ,   3.9556720820439371E-003 ,   1.3415614645113119E-005
   1.5458333333333287      ,   1.5499999999999954      ,   3.9959240388386360E-003 ,   1.3528740233662428E-005
   1.5499999999999954      ,   1.5541666666666620      ,   3.9456781120258107E-003 ,   1.3396166797373892E-005
   1.5541666666666620      ,   1.5583333333333287      ,   3.9889357258410781E-003 ,   1.3543392456711737E-005
   1.5583333333333287      ,   1.5624999999999953      ,   3.9583148054129760E-003 ,   1.3427559437560991E-005
   1.5624999999999953      ,   1.5666666666666620      ,   3.9592508777136865E-003 ,   1.3440593609302026E-005
   1.5666666666666620      ,   1.5708333333333286      ,   3.9623790577618528E-003 ,   1.3488172847434503E-005
   1.5708333333333286      ,   1.5749999999999953      ,   3.9705951484924609E-003 ,   1.3507614274863495E-005
   1.5749999999999953      ,   1.5791666666666619      ,   3.9756147715655958E-003 ,   1.3497083572624932E-005
   1.5791666666666619      ,   1.5833333333333286      ,   3.9548619644859482E-003 ,   1.3433219968057508E-005
   1.5833333333333286      ,   1.5874999999999952      ,   3.9634395265359989E-003 ,   1.3426828193399587E-005
   1.5874999999999952      ,   1.5916666666666619      ,   3.9885942980836574E-003 ,   1.4416791742166524E-005
   1.5916666666666619      ,   1.5958333333333286      ,   3.9814796377397677E-003 ,   1.3514278185614894E-005
   1.5958333333333286      ,   1.5999999999999952      ,   3.9692822822513085E-003 ,   1.3595325879745716E-005
   1.5999999999999952      ,   1.6041666666666619      ,   3.9500547152241028E-003 ,   1.3439357909889292E-005
   1.6041666666666619      ,   1.6083333333333285      ,   3.9593029006544317E-003 ,   1.3572978487042017E-005
   1.6083333333333285      ,   1.6124999999999952      ,   3.9766411239907122E-003 ,   1.3518433115856048E-005
   1.6124999999999952      ,   1.6166666666666618      ,   3.9781276072442780E-003 ,   1.3535580615260210E-005
   1.6166666666666618      ,   1.6208333333333285      ,   3.9710527677526801E-003 ,   1.3486591201622636E-005
   1.6208333333333285      ,   1.6249999999999951      ,   3.9727407488280801E-003 ,   1.3478628932160644E-005
   1.6249999999999951      ,   1.6291666666666618      ,   3.9872364595187710E-003 ,   1.3582111962355841E-005
   1.6291666666666618      ,   1.6333333333333284      ,   4.0002742431663922E-003 ,   1.3705359416506177E-005
   1.6333333333333284      ,   1.6374999999999951      ,   3.9867595247465052E-003 ,   1.3585141303849226E-005
   1.6374999999999951      ,   1.6416666666666617      ,   4.0112724648954648E-003 ,   1.3693911765826595E-005
   1.6416666666666617      ,   1.6458333333333284      ,   4.0021116161255742E-003 ,   1.3639731575225442E-005
   1.6458333333333284      ,   1.6499999999999950      ,   4.0027694560856092E-003 ,   1.3616067506935812E-005
   1.6499999999999950      ,   1.6541666666666617      ,   3.9923694996234589E-003 ,   1.3639497429095128E-005
   1.6541666666666617      ,   1.6583333333333283      ,   4.0089678404098368E-003 ,   1.3702984420046756E-005
   1.6583333333333283      ,   1.6624999999999950      ,   4.0381655906293499E-003 ,   1.3758121382042780E-005
   1.6624999999999950      ,   1.6666666666666616      ,   4.0051541220854610E-003 ,   1.3751036254214814E-005
   1.6666666666666616      ,   1.6708333333333283      ,   4.0245994596428232E-003 ,   1.3777719272860064E-005
   1.6708333333333283      ,   1.6749999999999949      ,   4.0113149381870803E-003 ,   1.3728297772595111E-005
   1.6749999999999949      ,   1.6791666666666616      ,   4.0493248593883920E-003 ,   1.3851526904224045E-005
   1.6791666666666616      ,   1.6833333333333282      ,   4.0354193962349868E-003 ,   1.3800722523196451E-005
   1.6833333333333282      ,   1.6874999999999949      ,   4.0235868985511389E-003 ,   1.3830230975725054E-005
   1.6874999999999949      ,   1.6916666666666615      ,   4.0618721719080791E-003 ,   1.3929725686942809E-005
   1.6916666666666615      ,   1.6958333333333282      ,   4.0690014386287080E-003 ,   1.3921388491727457E-005
   1.6958333333333282      ,   1.6999999999999948      ,   4.0601948657796733E-003 ,   1.3940529697836868E-005
   1.6999999999999948      ,   1.7041666666666615      ,   4.0580312492166761E-003 ,   1.3961577724025226E-005
   1.7041666666666615      ,   1.7083333333333282      ,   4.0707047555510406E-003 ,   1.4021157689693052E-005
   1.7083333333333282      ,   1.7124999999999948      ,   4.1201569723759773E-003 ,   1.4496914095953569E-005
   1.7124999999999948      ,   1.7166666666666615      ,   4.0703676164725302E-003 ,   1.4078058275920420E-005
   1.7166666666666615      ,   1.7208333333333281      ,   4.0959164470849149E-003 ,   1.4127149364458558E-005
   1.7208333333333281      ,   1.7249999999999948      ,   4.1150561352453581E-003 ,   1.4500374525377278E-005
   1.7249999999999948      ,   1.7291666666666614      ,   4.1096675662572633E-003 ,   1.4206529713411309E-005
   1.7291666666666614      ,   1.7333333333333281      ,   4.1264728785480416E-003 ,   1.4315971475650891E-005
   1.7333333333333281      ,   1.7374999999999947      ,   4.1421440688798961E-003 ,   1.4342413249290040E-005
   1.7374999999999947      ,   1.7416666666666614      ,   4.1402340306162756E-003 ,   1.4365400374421786E-005
   1.7416666666666614      ,   1.7458333333333280      ,   4.1602481289388215E-003 ,   1.4452321846499956E-005
   1.7458333333333280      ,   1.7499999999999947      ,   4.1764903357141628E-003 ,   1.4763398138242641E-005
   1.7499999999999947      ,   1.7541666666666613      ,   4.1597115762757085E-003 ,   1.4470673998093472E-005
   1.7541666666666613      ,   1.7583333333333280      ,   4.1736571470740239E-003 ,   1.4525623492246736E-005
   1.7583333333333280      ,   1.7624999999999946      ,   4.1854032579269193E-003 ,   1.4619528868050607E-005
   1.7624999999999946      ,   1.7666666666666613      ,   4.2091832671486504E-003 ,   1.4731109526469490E-005
   1.7666666666666613      ,   1.7708333333333279      ,   4.1892782489679030E-003 ,   1.4813709131358188E-005
   1.7708333333333279      ,   1.7749999999999946      ,   4.2210904057521682E-003 ,   1.4770972976026190E-005
   1.7749999999999946      ,   1.7791666666666612      ,   4.2280394837011020E-003 ,   1.4818922398322246E-005
   1.7791666666666612      ,   1.7833333333333279      ,   4.2470244539372709E-003 ,   1.4873764632478100E-005
   1.7833333333333279      ,   1.7874999999999945      ,   4.2201864881486742E-003 ,   1.4875100962182100E-005
   1.7874999999999945      ,   1.7916666666666612      ,   4.2404565447852691E-003 ,   1.4962498680385672E-005
   1.7916666666666612      ,   1.7958333333333278      ,   4.2736923881006895E-003 ,   1.5085976070908916E-005
   1.7958333333333278      ,   1.7999999999999945      ,   4.2707810761912109E-003 ,   1.6467326236416062E-005
   1.7999999999999945      ,   1.8041666666666611      ,   4.2758856108313986E-003 ,   1.5134810498457548E-005
   1.8041666666666611      ,   1.8083333333333278      ,   4.3030990934324132E-003 ,   1.5230179453192095E-005
   1.8083333333333278      ,   1.8124999999999944      ,   4.3344007220331845E-003 ,   1.5391124542034311E-005
   1.8124999999999944      ,   1.8166666666666611      ,   4.3052191897750966E-003 ,   1.5439142500281522E-005
   1.8166666666666611      ,   1.8208333333333278      ,   4.3543510691177309E-003 ,   1.5485479621488235E-005
   1.8208333333333278      ,   1.8249999999999944      ,   4.3567261748799517E-003 ,   1.5531271732450378E-005
   1.8249999999999944      ,   1.8291666666666611      ,   4.3718354241151034E-003 ,   1.5625551673364441E-005
   1.8291666666666611      ,   1.8333333333333277      ,   4.3676552267467124E-003 ,   1.5645188420936677E-005
   1.8333333333333277      ,   1.8374999999999944      ,   4.4145977131983790E-003 ,   1.5865036687930307E-005
   1.8374999999999944      ,   1.8416666666666610      ,   4.4131490126267450E-003 ,   1.5829489572282813E-005
   1.8416666666666610      ,   1.8458333333333277      ,   4.4384400908701362E-003 ,   1.6015524100479109E-005
   1.8458333333333277      ,   1.8499999999999943      ,   4.4675899174146097E-003 ,   1.6044788332796511E-005
   1.8499999999999943      ,   1.8541666666666610      ,   4.4284818782186815E-003 ,   1.5988795002781576E-005
   1.8541666666666610      ,   1.8583333333333276      ,   4.4722655494621082E-003 ,   1.6126333767533825E-005
   1.8583333333333276      ,   1.8624999999999943      ,   4.4841269332513969E-003 ,   1.6285405990350782E-005
   1.8624999999999943      ,   1.8666666666666609      ,   4.5077064607223312E-003 ,   1.6366281278592356E-005
   1.8666666666666609      ,   1.8708333333333276      ,   4.5071912072188374E-003 ,   1.6479365964755485E-005
   1.8708333333333276      ,   1.8749999999999942      ,   4.5219522868247333E-003 ,   1.6490008943923516E-005
   1.8749999999999942      ,   1.8791666666666609      ,   4.5367287956413005E-003 ,   1.6562977071117182E-005
   1.8791666666666609      ,   1.8833333333333275      ,   4.5698562563624284E-003 ,   1.6758953384262210E-005
   1.8833333333333275      ,   1.8874999999999942      ,   4.5891284219381863E-003 ,   1.6842662456570091E-005
   1.8874999999999942      ,   1.8916666666666608      ,   4.5851667449272300E-003 ,   1.6845492627969818E-005
   1.8916666666666608      ,   1.8958333333333275      ,   4.6040006020552976E-003 ,   1.6949123688841921E-005
   1.8958333333333275      ,   1.8999999999999941      ,   4.6294344312501163E-003 ,   1.7922778501879398E-005
   1.8999999999999941      ,   1.9041666666666608      ,   4.6678770821450251E-003 ,   1.7373194890198090E-005
   1.9041666666666608      ,   1.9083333333333274      ,   4.6549170006738002E-003 ,   1.7235530142736856E-005
   1.9083333333333274      ,   1.9124999999999941      ,   4.6929811433935181E-003 ,   1.7428490733561321E-005
   1.9124999999999941      ,   1.9166666666666607      ,   4.7178217758259162E-003 ,   1.7600260912042545E-005
   1.9166666666666607      ,   1.9208333333333274      ,   4.7408392734225096E-003 ,   1.7653195350859714E-005
   1.9208333333333274      ,   1.9249999999999940      ,   4.7448466072217352E-003 ,   1.7818488640792340E-005
   1.9249999999999940      ,   1.9291666666666607      ,   4.7462724269124526E-003 ,   1.7711031341039146E-005
   1.9291666666666607      ,   1.9333333333333274      ,   4.7913794117270163E-003 ,   1.7962112258193963E-005
   1.9333333333333274      ,   1.9374999999999940      ,   4.7920100187592825E-003 ,   1.8356893742804941E-005
   1.9374999999999940      ,   1.9416666666666607      ,   4.8007504609585546E-003 ,   1.8144932056028079E-005
   1.9416666666666607      ,   1.9458333333333273      ,   4.8408354812355080E-003 ,   1.8215464681601429E-005
   1.9458333333333273      ,   1.9499999999999940      ,   4.8807076619304043E-003 ,   1.8586712647040854E-005
   1.9499999999999940      ,   1.9541666666666606      ,   4.8807690264813493E-003 ,   1.8500303799357892E-005
   1.9541666666666606      ,   1.9583333333333273      ,   4.9089956090407746E-003 ,   1.8717857963152140E-005
   1.9583333333333273      ,   1.9624999999999939      ,   4.9555529998848123E-003 ,   1.8866439072595395E-005
   1.9624999999999939      ,   1.9666666666666606      ,   4.9308977600384211E-003 ,   1.8858595687072648E-005
   1.9666666666666606      ,   1.9708333333333272      ,   4.9453765376135418E-003 ,   1.8984285757218543E-005
   1.9708333333333272      ,   1.9749999999999939      ,   5.0188779648201107E-003 ,   1.9643784240830616E-005
   1.9749999999999939      ,   1.9791666666666605      ,   5.0188984574968502E-003 ,   1.9354067765917801E-005
   1.9791666666666605      ,   1.9833333333333272      ,   5.0349727759946205E-003 ,   1.9426852556486004E-005
   1.9833333333333272      ,   1.9874999999999938      ,   5.0383442798349505E-003 ,   1.9505813750748206E-005
   1.9874999999999938      ,   1.9916666666666605      ,   5.0806502840780934E-003 ,   1.9740436705302485E-005
   1.9916666666666605      ,   1.9958333333333271      ,   5.1113100502995492E-003 ,   1.9887145200716015E-005
   1.9958333333333271      ,   1.9999999999999938      ,   5.1525177461592062E-003 ,   2.0059145480831634E-005
   1.9999999999999938      ,   2.0041666666666602      ,   5.1350416159693241E-003 ,   2.0181159418829922E-005
   2.0041666666666607      ,   2.0083333333333275      ,   5.1967475905509274E-003 ,   2.0420780768333484E-005
   2.0083333333333275      ,   2.0124999999999940      ,   5.2100993822935277E-003 ,   2.0536322953324366E-005
   2.0124999999999944      ,   2.0166666666666613      ,   5.2360936500161206E-003 ,   2.0609678758877970E-005
   2.0166666666666613      ,   2.0208333333333277      ,   5.2523720972754498E-003 ,   2.0868526778552647E-005
   2.0208333333333282      ,   2.0249999999999950      ,   5.3430246053928696E-003 ,   2.1250576357470662E-005
   2.0249999999999950      ,   2.0291666666666615      ,   5.3056659245648754E-003 ,   2.1249360466066744E-005
   2.0291666666666619      ,   2.0333333333333288      ,   5.3720162979883877E-003 ,   2.1516977289757613E-005
   2.0333333333333288      ,   2.0374999999999952      ,   5.3204590698141090E-003 ,   2.1229239881830026E-005
   2.0374999999999956      ,   2.0416666666666625      ,   5.3626439850849193E-003 ,   2.1538476862209343E-005
   2.0416666666666625      ,   2.0458333333333290      ,   5.3684723474048627E-003 ,   2.1617475425981254E-005
   2.0458333333333294      ,   2.0499999999999963      ,   5.3954548529113249E-003 ,   2.1903134611518872E-005
   2.0499999999999963      ,   2.0541666666666627      ,   5.4644368256885241E-003 ,   2.2214117767102305E-005
   2.0541666666666631      ,   2.0583333333333300      ,   5.5251959579515637E-003 ,   2.2524227645881969E-005
   2.0583333333333300      ,   2.0624999999999964      ,   5.5262161991664477E-003 ,   2.2570319550362746E-005
   2.0624999999999969      ,   2.0666666666666638      ,   5.5510199779743741E-003 ,   2.2750680554364196E-005
   2.0666666666666638      ,   2.0708333333333302      ,   5.5796302392693209E-003 ,   2.2904163686448747E-005
   2.0708333333333306      ,   2.0749999999999975      ,   5.5941380322276886E-003 ,   2.2968031281259420E-005
   2.0749999999999975      ,   2.0791666666666639      ,   5.6179067708836891E-003 ,   2.3342898867376172E-005
   2.0791666666666644      ,   2.0833333333333313      ,   5.6421041822507121E-003 ,   2.4206996009516499E-005
   2.0833333333333313      ,   2.0874999999999977      ,   5.6972187054638501E-003 ,   2.3568995916681912E-005
   2.0874999999999981      ,   2.0916666666666650      ,   5.6997511515120653E-003 ,   2.3783167699761242E-005
   2.0916666666666650      ,   2.0958333333333314      ,   5.7193254525815000E-003 ,   2.4021911661135658E-005
   2.0958333333333319      ,   2.0999999999999988      ,   5.7949300506310092E-003 ,   2.4336518706890620E-005
   2.0999999999999988      ,   2.1041666666666652      ,   5.8102615815290234E-003 ,   2.4462040949661275E-005
   2.1041666666666656      ,   2.1083333333333325      ,   5.8549824612279672E-003 ,   2.4725933732431541E-005
   2.1083333333333325      ,   2.1124999999999989      ,   5.9389447861863025E-003 ,   2.5437090852215664E-005
   2.1124999999999994      ,   2.1166666666666663      ,   5.9046110091655578E-003 ,   2.5050142315764315E-005
   2.1166666666666663      ,   2.1208333333333327      ,   5.9472180541234251E-003 ,   2.5632320164074534E-005
   2.1208333333333331      ,   2.1250000000000000      ,   6.0014037933407878E-003 ,   2.5754929570428164E-005
   2.1250000000000000      ,   2.1291666666666664      ,   6.0166578652854760E-003 ,   2.5939254720397170E-005
   2.1291666666666669      ,   2.1333333333333337      ,   6.0727629516039335E-003 ,   2.6286174169523614E-005
   2.1333333333333337      ,   2.1375000000000002      ,   6.0638976113962144E-003 ,   2.6413270820766108E-005
   2.1375000000000006      ,   2.1416666666666675      ,   6.1081271145766430E-003 ,   2.6651390262638008E-005
   2.1416666666666675      ,   2.1458333333333339      ,   6.1729362569747179E-003 ,   2.6919943611386613E-005
   2.1458333333333344      ,   2.1500000000000012      ,   6.2171116012542035E-003 ,   2.7265248227591985E-005
   2.1500000000000012      ,   2.1541666666666677      ,   6.2256494446686064E-003 ,   2.7569943089266847E-005
   2.1541666666666681      ,   2.1583333333333350      ,   6.2283891937676581E-003 ,   2.7530508395833074E-005
   2.1583333333333350      ,   2.1625000000000014      ,   6.2838296810836611E-003 ,   2.7714543259573394E-005
   2.1625000000000019      ,   2.1666666666666687      ,   6.3379991736115544E-003 ,   2.8210088708552324E-005
   2.1666666666666687      ,   2.1708333333333352      ,   6.3443240712988741E-003 ,   2.8967735531292851E-005
   2.1708333333333356      ,   2.1750000000000025      ,   6.3967892933636727E-003 ,   2.8626866415813633E-005
   2.1750000000000025      ,   2.1791666666666689      ,   6.4706758020435422E-003 ,   2.9099446016667576E-005
   2.1791666666666694      ,   2.1833333333333362      ,   6.5514327301932247E-003 ,   2.9691520282906409E-005
   2.1833333333333362      ,   2.1875000000000027      ,   6.5730070837417623E-003 ,   3.0049870502108120E-005
   2.1875000000000031      ,   2.1916666666666700      ,   6.5818393582476572E-003 ,   2.9797199536801676E-005
   2.1916666666666700      ,   2.1958333333333364      ,   6.6270730211460240E-003 ,   3.0486391986165145E-005
   2.1958333333333369      ,   2.2000000000000037      ,   6.6721021274596774E-003 ,   3.0629139079157622E-005
   2.2000000000000037      ,   2.2041666666666702      ,   6.7180768151656970E-003 ,   3.1003120846343350E-005
   2.2041666666666706      ,   2.2083333333333375      ,   6.7345782416220780E-003 ,   3.1281032985631968E-005
   2.2083333333333375      ,   2.2125000000000039      ,   6.7673528811134642E-003 ,   3.1990705945921224E-005
   2.2125000000000044      ,   2.2166666666666712      ,   6.8255925886874513E-003 ,   3.1750472103734536E-005
   2.2166666666666712      ,   2.2208333333333377      ,   6.8609998798343707E-003 ,   3.2323177534093412E-005
   2.2208333333333381      ,   2.2250000000000050      ,   6.8609797816268307E-003 ,   3.2422682059564713E-005
   2.2250000000000050      ,   2.2291666666666714      ,   6.9948738382545079E-003 ,   3.3383208269955863E-005
   2.2291666666666718      ,   2.2333333333333387      ,   6.9758632876708556E-003 ,   3.3061483340285026E-005
   2.2333333333333387      ,   2.2375000000000052      ,   6.9617295689732633E-003 ,   3.3447042071883927E-005
   2.2375000000000056      ,   2.2416666666666725      ,   7.0921681740006778E-003 ,   3.4962308173557916E-005
   2.2416666666666725      ,   2.2458333333333389      ,   7.1043716726463813E-003 ,   3.4038025179576253E-005
   2.2458333333333393      ,   2.2500000000000062      ,   7.0769144833241040E-003 ,   3.4213069679896313E-005
   2.2500000000000062      ,   2.2541666666666726      ,   7.1502906323736102E-003 ,   3.4610348662962402E-005
   2.2541666666666731      ,   2.2583333333333400      ,   7.2381926990597676E-003 ,   3.5105752229404427E-005
   2.2583333333333400      ,   2.2625000000000064      ,   7.3007283889478681E-003 ,   3.6186605346302228E-005
   2.2625000000000068      ,   2.2666666666666737      ,   7.2259734400082001E-003 ,   3.5680827135830657E-005
   2.2666666666666737      ,   2.2708333333333401      ,   7.4083415106975499E-003 ,   3.6713276655764973E-005
   2.2708333333333406      ,   2.2750000000000075      ,   7.4204626853827896E-003 ,   3.7299770982064937E-005
   2.2750000000000075      ,   2.2791666666666739      ,   7.4431592565433113E-003 ,   3.7273603449595117E-005
   2.2791666666666743      ,   2.2833333333333412      ,   7.4673169150808408E-003 ,   3.7372840983647298E-005
   2.2833333333333412      ,   2.2875000000000076      ,   7.5068523560643521E-003 ,   3.8287731160136391E-005
   2.2875000000000081      ,   2.2916666666666750      ,   7.5557706760863699E-003 ,   3.8678633611050913E-005
   2.2916666666666750      ,   2.2958333333333414      ,   7.5937476262473774E-003 ,   3.8666480291012526E-005
   2.2958333333333418      ,   2.3000000000000087      ,   7.6317724428904251E-003 ,   3.9226385841991658E-005
   2.3000000000000087      ,   2.3041666666666751      ,   7.6605843727266063E-003 ,   3.9530155664561430E-005
   2.3041666666666756      ,   2.3083333333333425      ,   7.7003846059068327E-003 ,   3.9831651996937097E-005
   2.3083333333333425      ,   2.3125000000000089      ,   7.7202570203933315E-003 ,   4.0409883919713125E-005
   2.3125000000000093      ,   2.3166666666666762      ,   7.8371079222207020E-003 ,   4.1226909224924037E-005
   2.3166666666666762      ,   2.3208333333333426      ,   7.8293419657143211E-003 ,   4.1296446198847082E-005
   2.3208333333333431      ,   2.3250000000000099      ,   7.8781938144858003E-003 ,   4.1979814641617062E-005
   2.3250000000000099      ,   2.3291666666666764      ,   7.8083244629806427E-003 ,   4.1732049915140421E-005
   2.3291666666666768      ,   2.3333333333333437      ,   7.8890376959442846E-003 ,   4.2376306083397372E-005
   2.3333333333333437      ,   2.3375000000000101      ,   7.9212393489142188E-003 ,   4.3393093477229683E-005
   2.3375000000000106      ,   2.3416666666666774      ,   7.9470752361652016E-003 ,   4.3036044933443453E-005
   2.3416666666666774      ,   2.3458333333333439      ,   7.9884614381917837E-003 ,   4.3232407476544608E-005
   2.3458333333333443      ,   2.3500000000000112      ,   7.9433305896449268E-003 ,   4.3590669607017493E-005
   2.3500000000000112      ,   2.3541666666666776      ,   8.0030639393909170E-003 ,   4.4367785740365029E-005
   2.3541666666666781      ,   2.3583333333333449      ,   8.0808384533546385E-003 ,   4.4433015843812928E-005
   2.3583333333333449      ,   2.3625000000000114      ,   8.0101200028169263E-003 ,   4.4421354802786740E-005
   2.3625000000000118      ,   2.3666666666666787      ,   7.9736783677419078E-003 ,   4.4686067316875970E-005
   2.3666666666666787      ,   2.3708333333333451      ,   7.9989328485170832E-003 ,   4.5176020451366474E-005
   2.3708333333333456      ,   2.3750000000000124      ,   7.9991609386899764E-003 ,   4.5284472677277726E-005
   2.3750000000000124      ,   2.3791666666666789      ,   7.9957207046539008E-003 ,   4.5957664913870281E-005
   2.3791666666666793      ,   2.3833333333333462      ,   7.9338848195679625E-003 ,   4.5173697040137770E-005
   2.3833333333333462      ,   2.3875000000000126      ,   7.9826999582666269E-003 ,   4.5847735802194784E-005
   2.3875000000000131      ,   2.3916666666666799      ,   7.8940998196170876E-003 ,   4.6410715017651977E-005
   2.3916666666666799      ,   2.3958333333333464      ,   7.9520298058079249E-003 ,   4.6352654034986704E-005
   2.3958333333333468      ,   2.4000000000000137      ,   7.8042243642614043E-003 ,   4.5563954458333756E-005
   2.4000000000000137      ,   2.4041666666666801      ,   7.8990601812669297E-003 ,   4.6442219532837005E-005
   2.4041666666666806      ,   2.4083333333333474      ,   7.8054554893261692E-003 ,   4.6163753244920510E-005
   2.4083333333333474      ,   2.4125000000000139      ,   7.7385287465662929E-003 ,   4.6323513588508382E-005
   2.4125000000000143      ,   2.4166666666666812      ,   7.6369971132054740E-003 ,   4.5952873552608236E-005
   2.4166666666666812      ,   2.4208333333333476      ,   7.6858355456384019E-003 ,   4.6591877849351758E-005
   2.4208333333333480      ,   2.4250000000000149      ,   7.5654970365842834E-003 ,   4.6008701097612580E-005
   2.4250000000000149      ,   2.4291666666666814      ,   7.4083946025377788E-003 ,   4.5584041375385942E-005
   2.4291666666666818      ,   2.4333333333333487      ,   7.4386769099030045E-003 ,   4.6008284584637211E-005
   2.4333333333333487      ,   2.4375000000000151      ,   7.2270567471600560E-003 ,   4.5195612691059336E-005
   2.4375000000000155      ,   2.4416666666666824      ,   7.1941869923109157E-003 ,   4.5366121372474156E-005
   2.4416666666666824      ,   2.4458333333333488      ,   7.0976733399311029E-003 ,   4.4799237597373223E-005
   2.4458333333333493      ,   2.4500000000000162      ,   7.0868335355933681E-003 ,   4.5308623056349773E-005
   2.4500000000000162      ,   2.4541666666666826      ,   6.9667079750233831E-003 ,   4.4638445836303736E-005
   2.4541666666666830      ,   2.4583333333333499      ,   6.8298176335698825E-003 ,   4.7486562577667752E-005
   2.4583333333333499      ,   2.4625000000000163      ,   6.7827734638669620E-003 ,   4.4727951131744769E-005
   2.4625000000000168      ,   2.4666666666666837      ,   6.6315593993229354E-003 ,   4.5982217982605349E-005
   2.4666666666666837      ,   2.4708333333333501      ,   6.5330663910960849E-003 ,   4.3660132895287269E-005
   2.4708333333333505      ,   2.4750000000000174      ,   6.3499385022244880E-003 ,   4.2715528061669648E-005
   2.4750000000000174      ,   2.4791666666666838      ,   6.2778611692644306E-003 ,   4.3118297500199032E-005
   2.4791666666666843      ,   2.4833333333333512      ,   6.0381471958751397E-003 ,   4.2099337910849128E-005
   2.4833333333333512      ,   2.4875000000000176      ,   6.0044028028953846E-003 ,   4.1768878602457211E-005
   2.4875000000000180      ,   2.4916666666666849      ,   5.8661671106132809E-003 ,   4.1583432125114999E-005
   2.4916666666666849      ,   2.4958333333333513      ,   5.7586138215584897E-003 ,   4.1261137952945044E-005
   2.4958333333333518      ,   2.5000000000000187      ,   5.6395709831476440E-003 ,   4.1267378891528175E-005
   2.5000000000000187      ,   2.5041666666666851      ,   5.6100001520514448E-003 ,   4.0785846189292772E-005
   2.5041666666666855      ,   2.5083333333333524      ,   5.5034171303694791E-003 ,   4.1143409931737842E-005
   2.5083333333333524      ,   2.5125000000000188      ,   5.3917045554206693E-003 ,   4.0394001211879067E-005
   2.5125000000000193      ,   2.5166666666666861      ,   5.2722360071126356E-003 ,   4.0411500718262090E-005
   2.5166666666666861      ,   2.5208333333333526      ,   5.1444810860684538E-003 ,   4.0259907819386506E-005
   2.5208333333333530      ,   2.5250000000000199      ,   5.0700684001055282E-003 ,   3.9679595224178340E-005
   2.5250000000000199      ,   2.5291666666666863      ,   4.9462033725456737E-003 ,   3.9160711685068135E-005
   2.5291666666666868      ,   2.5333333333333536      ,   4.8525321890889820E-003 ,   3.9123085885293152E-005
   2.5333333333333536      ,   2.5375000000000201      ,   4.7470442902731533E-003 ,   3.8625842035077735E-005
   2.5375000000000205      ,   2.5416666666666874      ,   4.6515841367521784E-003 ,   3.8517646720526047E-005
   2.5416666666666874      ,   2.5458333333333538      ,   4.5535098686118169E-003 ,   3.8332578603593042E-005
   2.5458333333333543      ,   2.5500000000000211      ,   4.4893309259564059E-003 ,   3.8464855382593170E-005
   2.5500000000000211      ,   2.5541666666666876      ,   4.4575354743250119E-003 ,   3.8355488046844225E-005
   2.5541666666666880      ,   2.5583333333333549      ,   4.2867676444077575E-003 ,   3.7827324589237990E-005
   2.5583333333333549      ,   2.5625000000000213      ,   4.2141332867314755E-003 ,   3.7604132674562926E-005
   2.5625000000000218      ,   2.5666666666666886      ,   4.0550527848198514E-003 ,   3.7063940624647752E-005
   2.5666666666666886      ,   2.5708333333333551      ,   3.9701620437967364E-003 ,   3.6649517728542696E-005
   2.5708333333333555      ,   2.5750000000000224      ,   3.8854408338099503E-003 ,   3.6764634501765747E-005
   2.5750000000000224      ,   2.5791666666666888      ,   3.7042209062272988E-003 ,   3.5492740901145379E-005
   2.5791666666666893      ,   2.5833333333333561      ,   3.6615463567515427E-003 ,   3.5761647020234474E-005
   2.5833333333333561      ,   2.5875000000000226      ,   3.5132407511616857E-003 ,   3.5415814641773614E-005
   2.5875000000000230      ,   2.5916666666666899      ,   3.4742898281106085E-003 ,   3.5334907714728337E-005
   2.5916666666666899      ,   2.5958333333333563      ,   3.3316874414273342E-003 ,   3.4404379323777878E-005
   2.5958333333333568      ,   2.6000000000000236      ,   3.2267706061857044E-003 ,   3.4341722229095128E-005
   2.6000000000000236      ,   2.6041666666666901      ,   3.0371432809015195E-003 ,   3.3164273502103109E-005
   2.6041666666666905      ,   2.6083333333333574      ,   2.9487786127588818E-003 ,   3.3107498865778094E-005
   2.6083333333333574      ,   2.6125000000000238      ,   2.8468621562079514E-003 ,   3.2486867814015026E-005
   2.6125000000000242      ,   2.6166666666666911      ,   2.6548027473021667E-003 ,   3.1327731579347449E-005
   2.6166666666666911      ,   2.6208333333333576      ,   2.5423523690281790E-003 ,   3.0801977778031039E-005
   2.6208333333333580      ,   2.6250000000000249      ,   2.4017040806268435E-003 ,   2.9951224174419938E-005
   2.6250000000000249      ,   2.6291666666666913      ,   2.3050341575891579E-003 ,   2.9518445100402981E-005
   2.6291666666666917      ,   2.6333333333333586      ,   2.1609115987577046E-003 ,   2.8412830586017633E-005
   2.6333333333333586      ,   2.6375000000000250      ,   2.0026622319928070E-003 ,   2.7300685636430392E-005
   2.6375000000000255      ,   2.6416666666666924      ,   1.9010988819763098E-003 ,   2.6703990929698626E-005
   2.6416666666666924      ,   2.6458333333333588      ,   1.8026841727508604E-003 ,   2.5757644620323965E-005
   2.6458333333333592      ,   2.6500000000000261      ,   1.7228496326887215E-003 ,   2.5369442951929253E-005
   2.6500000000000261      ,   2.6541666666666925      ,   1.6244412325066315E-003 ,   2.4460272893097164E-005
   2.6541666666666930      ,   2.6583333333333599      ,   1.5122065024022612E-003 ,   2.3568262935664353E-005
   2.6583333333333599      ,   2.6625000000000263      ,   1.3929752296267810E-003 ,   2.2528574755647083E-005
   2.6625000000000267      ,   2.6666666666666936      ,   1.3218622012124562E-003 ,   2.2057466098222097E-005
   2.6666666666666936      ,   2.6708333333333600      ,   1.2080192672355463E-003 ,   2.0620594033023393E-005
   2.6708333333333605      ,   2.6750000000000274      ,   1.1125863802460118E-003 ,   1.9740557690705486E-005
   2.6750000000000274      ,   2.6791666666666938      ,   1.0419632661495908E-003 ,   1.9095682451318370E-005
   2.6791666666666942      ,   2.6833333333333611      ,   1.0007907347055608E-003 ,   1.8738552980443631E-005
   2.6833333333333611      ,   2.6875000000000275      ,   9.0113010923394783E-004 ,   1.7396515419941364E-005
   2.6875000000000280      ,   2.6916666666666949      ,   8.4987262631468186E-004 ,   1.6872360083189374E-005
   2.6916666666666949      ,   2.6958333333333613      ,   7.6923003733121362E-004 ,   1.5950948016365040E-005
   2.6958333333333617      ,   2.7000000000000286      ,   7.1626315139116281E-004 ,   1.5381753617634304E-005
   2.7000000000000286      ,   2.7041666666666950      ,   6.9327436803478333E-004 ,   1.5265008129814432E-005
   2.7041666666666955      ,   2.7083333333333623      ,   6.3424323761719929E-004 ,   1.4530999220254847E-005
   2.7083333333333623      ,   2.7125000000000288      ,   5.6699393124815315E-004 ,   1.3269404745297910E-005
   2.7125000000000292      ,   2.7166666666666961      ,   5.3358026784835653E-004 ,   1.2885006799644194E-005
   2.7166666666666961      ,   2.7208333333333625      ,   4.7937599629970868E-004 ,   1.1737941598660343E-005
   2.7208333333333630      ,   2.7250000000000298      ,   4.2408436648876655E-004 ,   1.0882443503197775E-005
   2.7250000000000298      ,   2.7291666666666963      ,   3.8878782782660612E-004 ,   1.0361419143883090E-005
   2.7291666666666967      ,   2.7333333333333636      ,   3.7045823258851816E-004 ,   1.0278790089898678E-005
   2.7333333333333636      ,   2.7375000000000300      ,   3.2189908436814382E-004 ,   9.4601272807847880E-006
   2.7375000000000305      ,   2.7416666666666973      ,   3.1928773478592847E-004 ,   9.3849760755698504E-006
   2.7416666666666973      ,   2.7458333333333638      ,   2.8545160185335772E-004 ,   8.6831941985035624E-006
   2.7458333333333642      ,   2.7500000000000311      ,   2.5831240207173410E-004 ,   8.1390145155417798E-006
