# xl,xh,LO,dLO,LOISC,dLOISC,NLO,dNLO,NLOISC,dNLOISC,NLOL,dNLOL,NLOnovp,dNLOnovp
5.000000000000000000e+01,5.100000000000000000e+01,1.288909269573035310e+00,1.840345609938380197e-04,1.288909269573035310e+00,1.840345609938380197e-04,1.126994462183075640e+00,1.080498666854857190e-03,1.126994462183075640e+00,1.080498666854857190e-03,1.124637170410139886e+00,1.080498543249312554e-03,1.098714684460124325e+00,1.080487378621609960e-03
5.100000000000000000e+01,5.200000000000000000e+01,1.202393237665944747e+00,1.883783898679359267e-04,1.202393237665944747e+00,1.883783898679359267e-04,1.054304142879859629e+00,9.954038013929612794e-04,1.054304142879859629e+00,9.954038013929612794e-04,1.052032200007303464e+00,9.954037057133670405e-04,1.027731772243574371e+00,9.953983451456149822e-04
5.200000000000000000e+01,5.300000000000000000e+01,1.123064688511896225e+00,1.560333542617697421e-04,1.123064688511896225e+00,1.560333542617697421e-04,9.903217420990241271e-01,1.118702655173431197e-03,9.903217420990241271e-01,1.118702655173431197e-03,9.881313176741459703e-01,1.118702574086951002e-03,9.653274061473907652e-01,1.118696960870582506e-03
5.300000000000000000e+01,5.400000000000000000e+01,1.052515476154550322e+00,1.525184203212567554e-04,1.052515476154550322e+00,1.525184203212567554e-04,9.393176684976832780e-01,9.035413076445619534e-04,9.393176684976832780e-01,9.035413076445619534e-04,9.372019143896318516e-01,9.035412139524885396e-04,9.157308966751480650e-01,9.035346752616192981e-04
5.400000000000000000e+01,5.500000000000000000e+01,1.055975617308233083e+00,1.759351493047153759e-04,1.055975617308233083e+00,1.759351493047153759e-04,9.503652458052410656e-01,1.401491212100640588e-03,9.503652458052410656e-01,1.401491212100640588e-03,9.481735492049880865e-01,1.401491136925670389e-03,9.265556354846053999e-01,1.401486510542674941e-03
5.500000000000000000e+01,5.600000000000000000e+01,1.121368677028014460e+00,1.595816634588478943e-04,1.121368677028014460e+00,1.595816634588478943e-04,9.893752968002650361e-01,1.181635073014546556e-03,9.893752968002650361e-01,1.181635073014546556e-03,9.869714957952361312e-01,1.181634983406620442e-03,9.639481548066619609e-01,1.181630082229625589e-03
5.600000000000000000e+01,5.700000000000000000e+01,1.157953827003467273e+00,1.576351175775984729e-04,1.157953827003467273e+00,1.576351175775984729e-04,1.010497892335696424e+00,9.031073520971908113e-04,1.010497892335696424e+00,9.031073520971908113e-04,1.007960205313632951e+00,9.031072452376978773e-04,9.841370042291723852e-01,9.031009921812254131e-04
5.700000000000000000e+01,5.800000000000000000e+01,1.173811975946415398e+00,1.657010680590242143e-04,1.173811975946415398e+00,1.657010680590242143e-04,1.016639991330295922e+00,7.821733975000606928e-04,1.016639991330295922e+00,7.821733975000606928e-04,1.014022830415903575e+00,7.821732729285029795e-04,9.897979142059043500e-01,7.821660756261811448e-04
5.800000000000000000e+01,5.900000000000000000e+01,1.175630190079460569e+00,1.572464162301614944e-04,1.175630190079460569e+00,1.572464162301614944e-04,1.013332980242774628e+00,1.032816163526543854e-03,1.013332980242774628e+00,1.032816163526543854e-03,1.010672508125785241e+00,1.032816087550540371e-03,9.863532438712427908e-01,1.032810188476826919e-03
5.900000000000000000e+01,6.000000000000000000e+01,1.167756432242452957e+00,1.876931688731374860e-04,1.167756432242452957e+00,1.876931688731374860e-04,1.002306519756238634e+00,8.352320237284638436e-04,1.002306519756238634e+00,8.352320237284638436e-04,9.996297253363189972e-01,8.352319200000318583e-04,9.754066369523723967e-01,8.352259020241089302e-04
6.000000000000000000e+01,6.100000000000000000e+01,1.152686889286774985e+00,1.576556463803132681e-04,1.152686889286774985e+00,1.576556463803132681e-04,9.861340835273254557e-01,8.358549561461752798e-04,9.861340835273254557e-01,8.358549561461752798e-04,9.834587372872536370e-01,8.358548569808197737e-04,9.594790075731453038e-01,8.358483242446775865e-04
6.100000000000000000e+01,6.200000000000000000e+01,1.132712181577800070e+00,1.578381751228960994e-04,1.132712181577800070e+00,1.578381751228960994e-04,9.675924704456748682e-01,8.704067118491742253e-04,9.675924704456748682e-01,8.704067118491742253e-04,9.649321144477972512e-01,8.704066155312339481e-04,9.412991067428141401e-01,8.704002310649153716e-04
6.200000000000000000e+01,6.300000000000000000e+01,1.109478342747436175e+00,1.494755866853310008e-04,1.109478342747436175e+00,1.494755866853310008e-04,9.463936553591714151e-01,7.883991540213662564e-04,9.463936553591714151e-01,7.883991540213662564e-04,9.437565780157629591e-01,7.883990493546554111e-04,9.205477876515451019e-01,7.883928254154376697e-04
6.300000000000000000e+01,6.400000000000000000e+01,1.084202366339465318e+00,1.469425570635609463e-04,1.084202366339465318e+00,1.469425570635609463e-04,9.239312189188420010e-01,9.758141768182937090e-04,9.239312189188420010e-01,9.758141768182937090e-04,9.213250432794793943e-01,9.758140950515060323e-04,8.985853426033900693e-01,9.758086967647582955e-04
6.400000000000000000e+01,6.500000000000000000e+01,1.057423013385792920e+00,1.432890168300511634e-04,1.057423013385792920e+00,1.432890168300511634e-04,9.004282900880339335e-01,8.719687457298724766e-04,9.004282900880339335e-01,8.719687457298724766e-04,8.978585948393675853e-01,8.719686441030827023e-04,8.756263868270928175e-01,8.719627878823263270e-04
6.500000000000000000e+01,6.600000000000000000e+01,1.029302127055795157e+00,1.443584355132010531e-04,1.029302127055795157e+00,1.443584355132010531e-04,8.757241420619428229e-01,8.665428825731717570e-04,8.757241420619428229e-01,8.665428825731717570e-04,8.731928160749008461e-01,8.665427816644151460e-04,8.514852345498655772e-01,8.665365743705783332e-04
6.600000000000000000e+01,6.700000000000000000e+01,1.001444739318292143e+00,1.455104822849186878e-04,1.001444739318292143e+00,1.455104822849186878e-04,8.505573950094109659e-01,7.802064922184287531e-04,8.505573950094109659e-01,7.802064922184287531e-04,8.480690575363297734e-01,7.802063989148840667e-04,8.269019953905500930e-01,7.802004559924382437e-04
6.700000000000000000e+01,6.800000000000000000e+01,9.731013407012600869e-01,1.462672879297158507e-04,9.731013407012600869e-01,1.462672879297158507e-04,8.265557301855092076e-01,9.498484138241978809e-04,8.265557301855092076e-01,9.498484138241978809e-04,8.241093566845177909e-01,9.498483417518148800e-04,8.034836373826632627e-01,9.498439073736898762e-04
6.800000000000000000e+01,6.900000000000000000e+01,9.451304300629114197e-01,1.448777575548038966e-04,9.451304300629114197e-01,1.448777575548038966e-04,8.041960952575302191e-01,8.698138873621762395e-04,8.041960952575302191e-01,8.698138873621762395e-04,8.017934978628871168e-01,8.698138152114980124e-04,7.817182643491753513e-01,8.698092204121775839e-04
6.900000000000000000e+01,7.000000000000000000e+01,9.176005492781702522e-01,1.447806661170372407e-04,9.176005492781702522e-01,1.447806661170372407e-04,7.799594440602684031e-01,6.984017612158499805e-04,7.799594440602684031e-01,6.984017612158499805e-04,7.776009426286580872e-01,6.984016559769814711e-04,7.580578200611227668e-01,6.983949124590507762e-04
7.000000000000000000e+01,7.100000000000000000e+01,8.903143917185927236e-01,1.401954670220923263e-04,8.903143917185927236e-01,1.401954670220923263e-04,7.556020334597752797e-01,6.650879052557376369e-04,7.556020334597752797e-01,6.650879052557376369e-04,7.532867731284981216e-01,6.650878197705597811e-04,7.342810902408801743e-01,6.650827124432223637e-04
7.100000000000000000e+01,7.200000000000000000e+01,8.637763763072192624e-01,1.231431186318157796e-04,8.637763763072192624e-01,1.231431186318157796e-04,7.341991588236198574e-01,7.787807662549779469e-04,7.341991588236198574e-01,7.787807662549779469e-04,7.319281422448200569e-01,7.787806789570756415e-04,7.134428891293809194e-01,7.787758152772161768e-04
7.200000000000000000e+01,7.300000000000000000e+01,8.368538027322552919e-01,1.317899502516440766e-04,8.368538027322552919e-01,1.317899502516440766e-04,7.110192570234767917e-01,1.264381056797203627e-03,7.110192570234767917e-01,1.264381056797203627e-03,7.087917537679878643e-01,1.264381010087771515e-03,6.908345721020330288e-01,1.264377697020376652e-03
7.300000000000000000e+01,7.400000000000000000e+01,8.108728746439884949e-01,1.278232797047727700e-04,8.108728746439884949e-01,1.278232797047727700e-04,6.888900433078535279e-01,7.214280870868494287e-04,6.888900433078535279e-01,7.214280870868494287e-04,6.867053998706661444e-01,7.214280057674984361e-04,6.692714740888557889e-01,7.214234633710047686e-04
7.400000000000000000e+01,7.500000000000000000e+01,7.854050364254191452e-01,1.264058615979910666e-04,7.854050364254191452e-01,1.264058615979910666e-04,6.680229679662019748e-01,6.713963262455192003e-04,6.680229679662019748e-01,6.713963262455192003e-04,6.658801404406414770e-01,6.713962323017868498e-04,6.489513189428033346e-01,6.713918043956525411e-04
7.500000000000000000e+01,7.600000000000000000e+01,7.610288162086888963e-01,1.228942790549397116e-04,7.610288162086888963e-01,1.228942790549397116e-04,6.468884498141758144e-01,7.410319128370001758e-04,6.468884498141758144e-01,7.410319128370001758e-04,6.447891887229457719e-01,7.410318418631899051e-04,6.283478043677567237e-01,7.410270615257869660e-04
7.600000000000000000e+01,7.700000000000000000e+01,7.371563709897048788e-01,1.170067199287278903e-04,7.371563709897048788e-01,1.170067199287278903e-04,6.271821576147345034e-01,6.947920923619345726e-04,6.271821576147345034e-01,6.947920923619345726e-04,6.251235352152242353e-01,6.947920174391720256e-04,6.091573619520903593e-01,6.947873892664560786e-04
7.700000000000000000e+01,7.800000000000000000e+01,7.143881274440795348e-01,1.203813266091826093e-04,7.143881274440795348e-01,1.203813266091826093e-04,6.077852864256558796e-01,8.848380854468181197e-04,6.077852864256558796e-01,8.848380854468181197e-04,6.057467676012712188e-01,8.848380250099450572e-04,5.902446841592910998e-01,8.848347301642384578e-04
7.800000000000000000e+01,7.900000000000000000e+01,6.923686393622643376e-01,1.218241862730346127e-04,6.923686393622643376e-01,1.218241862730346127e-04,5.889944700186651172e-01,6.225118335895449013e-04,5.889944700186651172e-01,6.225118335895449013e-04,5.869592494992559306e-01,6.225117394503509568e-04,5.718995075236841252e-01,6.225067730025431526e-04
7.900000000000000000e+01,8.000000000000000000e+01,6.713629642281545573e-01,1.129338099605702776e-04,6.713629642281545573e-01,1.129338099605702776e-04,5.716361911038869703e-01,7.363971827178159924e-04,5.716361911038869703e-01,7.363971827178159924e-04,5.696056090541213868e-01,7.363971013890196473e-04,5.549747825255144651e-01,7.363934140026496622e-04
8.000000000000000000e+01,8.100000000000000000e+01,6.509501372024022459e-01,1.163157529709435715e-04,6.509501372024022459e-01,1.163157529709435715e-04,5.538690885136884345e-01,5.702633213947771096e-04,5.538690885136884345e-01,5.702633213947771096e-04,5.518424165977406926e-01,5.702632213470341244e-04,5.376257981652187157e-01,5.702580861377778195e-04
8.100000000000000000e+01,8.200000000000000000e+01,6.315816916211218768e-01,1.190316904916885449e-04,6.315816916211218768e-01,1.190316904916885449e-04,5.374984993147130519e-01,5.413447671217938486e-04,5.374984993147130519e-01,5.413447671217938486e-04,5.354768461005547930e-01,5.413446608867457464e-04,5.216572405518297151e-01,5.413391877972347421e-04
8.200000000000000000e+01,8.300000000000000000e+01,6.125991774465551210e-01,9.584577242508599839e-05,6.125991774465551210e-01,9.584577242508599839e-05,5.220093198036591664e-01,7.781651054027506967e-04,5.220093198036591664e-01,7.781651054027506967e-04,5.199922354279481462e-01,7.781650303117215988e-04,5.065539890099702847e-01,7.781616178504054734e-04
8.300000000000000000e+01,8.400000000000000000e+01,5.947599611419885912e-01,1.052326301589526729e-04,5.947599611419885912e-01,1.052326301589526729e-04,5.060019617591325902e-01,8.143599180446758293e-04,5.060019617591325902e-01,8.143599180446758293e-04,5.039888429910721612e-01,8.143598532627158680e-04,4.909197032618172196e-01,8.143567721654223351e-04
8.400000000000000000e+01,8.500000000000000000e+01,5.773895338814705180e-01,1.002754619580922742e-04,5.773895338814705180e-01,1.002754619580922742e-04,4.919955631473559854e-01,5.561334941699482308e-04,4.919955631473559854e-01,5.561334941699482308e-04,4.899863170237369614e-01,5.561333763715434111e-04,4.772754118571799764e-01,5.561289132241788126e-04
8.500000000000000000e+01,8.600000000000000000e+01,5.606899440701668125e-01,9.899948990036837879e-05,5.606899440701668125e-01,9.899948990036837879e-05,4.776089378864839530e-01,6.779781870999331819e-04,4.776089378864839530e-01,6.779781870999331819e-04,4.756038018104191689e-01,6.779780964961812503e-04,4.632306179778628574e-01,6.779740527705625753e-04
8.600000000000000000e+01,8.700000000000000000e+01,5.447049889353686725e-01,9.901387753682259498e-05,5.447049889353686725e-01,9.901387753682259498e-05,4.640776310744885169e-01,6.682311974161035716e-04,4.640776310744885169e-01,6.682311974161035716e-04,4.620771278813721183e-01,6.682311046314316988e-04,4.500370540674933362e-01,6.682273874267758524e-04
8.700000000000000000e+01,8.800000000000000000e+01,5.294325390281303667e-01,1.013842041176272367e-04,5.294325390281303667e-01,1.013842041176272367e-04,4.512700373597000603e-01,5.198958041507076473e-04,4.512700373597000603e-01,5.198958041507076473e-04,4.492736987140626970e-01,5.198956910193434531e-04,4.375498791173374480e-01,5.198912410394034705e-04
8.800000000000000000e+01,8.900000000000000000e+01,5.147006600152471689e-01,9.953328651712621100e-05,5.147006600152471689e-01,9.953328651712621100e-05,4.387141043239439764e-01,5.985166939865011870e-04,4.387141043239439764e-01,5.985166939865011870e-04,4.367223441287784169e-01,5.985165931528018323e-04,4.253034965971960735e-01,5.985127097103445752e-04
8.900000000000000000e+01,9.000000000000000000e+01,5.006446404506221803e-01,9.969481642417327323e-05,5.006446404506221803e-01,9.969481642417327323e-05,4.263692694436684305e-01,6.159372131729764447e-04,4.263692694436684305e-01,6.159372131729764447e-04,4.243825134720921599e-01,6.159371246586964463e-04,4.132623347537375813e-01,6.159327266148030729e-04
9.000000000000000000e+01,9.100000000000000000e+01,4.869808253333330339e-01,9.906550824281503591e-05,4.869808253333330339e-01,9.906550824281503591e-05,4.158136908156230827e-01,5.636873286322916258e-04,4.158136908156230827e-01,5.636873286322916258e-04,4.138333614604551292e-01,5.636872118814702671e-04,4.029962163484056559e-01,5.636830921215930587e-04
9.100000000000000000e+01,9.200000000000000000e+01,4.738960484499340486e-01,9.260938703201523567e-05,4.738960484499340486e-01,9.260938703201523567e-05,4.037281796602871231e-01,6.380791062112994676e-04,4.037281796602871231e-01,6.380791062112994676e-04,4.017535917659708633e-01,6.380790018992773399e-04,3.911872159454181652e-01,6.380757913002791997e-04
9.200000000000000000e+01,9.300000000000000000e+01,4.613196026623238577e-01,9.620221186875956801e-05,4.613196026623238577e-01,9.620221186875956801e-05,3.931400506313037502e-01,5.057879566600742387e-04,3.931400506313037502e-01,5.057879566600742387e-04,3.911729821779921235e-01,5.057878186325020110e-04,3.808684792738125102e-01,5.057840033583834577e-04
9.300000000000000000e+01,9.400000000000000000e+01,4.491400765414795826e-01,9.464563100950109276e-05,4.491400765414795826e-01,9.464563100950109276e-05,3.831760606994880081e-01,5.791073800532190764e-04,3.831760606994880081e-01,5.791073800532190764e-04,3.812168569510825389e-01,5.791072705477776864e-04,3.711670303174496865e-01,5.791034313432015827e-04
9.400000000000000000e+01,9.500000000000000000e+01,4.377155612651381644e-01,8.971981637823659090e-05,4.377155612651381644e-01,8.971981637823659090e-05,3.739919296960354522e-01,5.926023399415982157e-04,3.739919296960354522e-01,5.926023399415982157e-04,3.720411902082870759e-01,5.926022262939632931e-04,3.622402274531137389e-01,5.925986422098008079e-04
9.500000000000000000e+01,9.600000000000000000e+01,4.263917846425291924e-01,8.943413693118626342e-05,4.263917846425291924e-01,8.943413693118626342e-05,3.629612806494070809e-01,5.240822487085835006e-04,3.629612806494070809e-01,5.240822487085835006e-04,3.610191931836114754e-01,5.240821171563960629e-04,3.514508044825703781e-01,5.240781434852871071e-04
9.600000000000000000e+01,9.700000000000000000e+01,4.156537861559224112e-01,8.600857110332791190e-05,4.156537861559224112e-01,8.600857110332791190e-05,3.551239522773251833e-01,5.698367132855184291e-04,3.551239522773251833e-01,5.698367132855184291e-04,3.531917126141932428e-01,5.698365871614828430e-04,3.438521012843090419e-01,5.698336750072094739e-04
9.700000000000000000e+01,9.800000000000000000e+01,4.053841813924450310e-01,9.066269417667615022e-05,4.053841813924450310e-01,9.066269417667615022e-05,3.452711128244861927e-01,5.375700281910420755e-04,3.452711128244861927e-01,5.375700281910420755e-04,3.433499160584665977e-01,5.375699063211096355e-04,3.342293983271090729e-01,5.375661169967133795e-04
9.800000000000000000e+01,9.900000000000000000e+01,3.951763561865537788e-01,8.967479024136702228e-05,3.951763561865537788e-01,8.967479024136702228e-05,3.371982245361822006e-01,7.088407134441961598e-04,3.371982245361822006e-01,7.088407134441961598e-04,3.352874471941066359e-01,7.088406212845218450e-04,3.263803440501673037e-01,7.088377941929977465e-04
9.900000000000000000e+01,1.000000000000000000e+02,3.855252323100106238e-01,8.685695334963625092e-05,3.855252323100106238e-01,8.685695334963625092e-05,3.286415640824319473e-01,5.421737535659543888e-04,3.286415640824319473e-01,5.421737535659543888e-04,3.267443188073044236e-01,5.421736337481965684e-04,3.180454595759857339e-01,5.421702443180307805e-04
1.000000000000000000e+02,1.010000000000000000e+02,3.763149289966773448e-01,8.206187210318468411e-05,3.763149289966773448e-01,8.206187210318468411e-05,3.206859243667650183e-01,5.076230639439698175e-04,3.206859243667650183e-01,5.076230639439698175e-04,3.188014933791433747e-01,5.076229349012997133e-04,3.103015142772074242e-01,5.076191829258684153e-04
1.010000000000000000e+02,1.020000000000000000e+02,3.672125175871103209e-01,8.121304527621770798e-05,3.672125175871103209e-01,8.121304527621770798e-05,3.133840456422947729e-01,5.018284281981107110e-04,3.133840456422947729e-01,5.018284281981107110e-04,3.115127877375938881e-01,5.018282906772471991e-04,3.032044368906678944e-01,5.018245274354847171e-04
1.020000000000000000e+02,1.030000000000000000e+02,3.585691379481047991e-01,8.124551637596031403e-05,3.585691379481047991e-01,8.124551637596031403e-05,3.056108174312692771e-01,5.787776247622316867e-04,3.056108174312692771e-01,5.787776247622316867e-04,3.037537424079085335e-01,5.787775132604993603e-04,2.956312881297569195e-01,5.787743851591070805e-04
1.030000000000000000e+02,1.040000000000000000e+02,3.502380926484857659e-01,8.758723191501942881e-05,3.502380926484857659e-01,8.758723191501942881e-05,2.977063962841069444e-01,7.017126180245449041e-04,2.977063962841069444e-01,7.017126180245449041e-04,2.958705017661231729e-01,7.017125190397302016e-04,2.879316071829204904e-01,7.017096521939864386e-04
1.040000000000000000e+02,1.050000000000000000e+02,3.418417056125594988e-01,8.089895471632102509e-05,3.418417056125594988e-01,8.089895471632102509e-05,2.907880074936690651e-01,4.140214345898494443e-04,2.907880074936690651e-01,4.140214345898494443e-04,2.889818280966324204e-01,4.140212460300625192e-04,2.812223713998329155e-01,4.140177283182243915e-04
1.050000000000000000e+02,1.060000000000000000e+02,3.338154742339904391e-01,8.594318768642297639e-05,3.338154742339904391e-01,8.594318768642297639e-05,2.837806399452090789e-01,4.570974089971385703e-04,2.837806399452090789e-01,4.570974089971385703e-04,2.820048915293006941e-01,4.570972815089531429e-04,2.744185651769825429e-01,4.570937969281897218e-04
1.060000000000000000e+02,1.070000000000000000e+02,3.258222691409226601e-01,7.759735200430978373e-05,3.258222691409226601e-01,7.759735200430978373e-05,2.767813310460444098e-01,4.742509083419927220e-04,2.767813310460444098e-01,4.742509083419927220e-04,2.750357534826039507e-01,4.742507629842559157e-04,2.676255285924022953e-01,4.742473320103412723e-04
1.070000000000000000e+02,1.080000000000000000e+02,3.181526209332695698e-01,8.206973072693890840e-05,3.181526209332695698e-01,8.206973072693890840e-05,2.701380532125657874e-01,4.077568699278116479e-04,2.701380532125657874e-01,4.077568699278116479e-04,2.684230950451616526e-01,4.077567246282163757e-04,2.611746664691125819e-01,4.077526549559736739e-04
1.080000000000000000e+02,1.090000000000000000e+02,3.098809061981003810e-01,8.149379639285183924e-05,3.098809061981003810e-01,8.149379639285183924e-05,2.613509059865629092e-01,5.016752040473745206e-04,2.613509059865629092e-01,5.016752040473745206e-04,2.596703442134957185e-01,5.016750841031877763e-04,2.526059351077747372e-01,5.016718331756280739e-04
1.090000000000000000e+02,1.100000000000000000e+02,3.000410249939365892e-01,8.233620326843933137e-05,3.000410249939365892e-01,8.233620326843933137e-05,2.530666061704670566e-01,5.430404972593950693e-04,2.530666061704670566e-01,5.430404972593950693e-04,2.514249043809158590e-01,5.430403952102387261e-04,2.445699141649343156e-01,5.430372579808417791e-04
1.100000000000000000e+02,1.110000000000000000e+02,2.902318141734300805e-01,7.735485945001440333e-05,2.902318141734300805e-01,7.735485945001440333e-05,2.451987378870158774e-01,5.098878311546955165e-04,2.451987378870158774e-01,5.098878311546955165e-04,2.435973959736192629e-01,5.098877136244743926e-04,2.369515366247046673e-01,5.098844753635393837e-04
1.110000000000000000e+02,1.120000000000000000e+02,2.809081509731463089e-01,7.577176747382132827e-05,2.809081509731463089e-01,7.577176747382132827e-05,2.369746619585049174e-01,4.413886995231179481e-04,2.369746619585049174e-01,4.413886995231179481e-04,2.354140269488285142e-01,4.413885688306800107e-04,2.289728615310956117e-01,4.413847843272580493e-04
1.120000000000000000e+02,1.130000000000000000e+02,2.714738240660822255e-01,7.387178764523189868e-05,2.714738240660822255e-01,7.387178764523189868e-05,2.291015683272530357e-01,3.627469357118193335e-04,2.291015683272530357e-01,3.627469357118193335e-04,2.275824853079533583e-01,3.627467818545967982e-04,2.213428269474815580e-01,3.627432763362677852e-04
1.130000000000000000e+02,1.140000000000000000e+02,2.624688948540384592e-01,7.624937918218887027e-05,2.624688948540384592e-01,7.624937918218887027e-05,2.206019055776889948e-01,4.894359684024127089e-04,2.206019055776889948e-01,4.894359684024127089e-04,2.191243755849468511e-01,4.894358553625027027e-04,2.130791396546577177e-01,4.894331569680624100e-04
1.140000000000000000e+02,1.150000000000000000e+02,2.534810274163561417e-01,8.018917446056352308e-05,2.534810274163561417e-01,8.018917446056352308e-05,2.133027553702726564e-01,4.384375543601397329e-04,2.133027553702726564e-01,4.384375543601397329e-04,2.118680408111044688e-01,4.384374223064901963e-04,2.060180430447695610e-01,4.384343725293212172e-04
1.150000000000000000e+02,1.160000000000000000e+02,2.447733360488238419e-01,7.484732685127936931e-05,2.447733360488238419e-01,7.484732685127936931e-05,2.057902865066465747e-01,3.842250204861039986e-04,2.057902865066465747e-01,3.842250204861039986e-04,2.043980386830681895e-01,3.842248887194085164e-04,1.987384943018176697e-01,3.842214047443541004e-04
1.160000000000000000e+02,1.170000000000000000e+02,2.364622186797637471e-01,7.449607035982599729e-05,2.364622186797637471e-01,7.449607035982599729e-05,1.989742983578867142e-01,4.435433377581894914e-04,1.989742983578867142e-01,4.435433377581894914e-04,1.976270918439138879e-01,4.435432318348535253e-04,1.921576152328073883e-01,4.435399686808799312e-04
1.170000000000000000e+02,1.180000000000000000e+02,2.276995606999169253e-01,7.205401126680827182e-05,2.276995606999169253e-01,7.205401126680827182e-05,1.915219205448211448e-01,6.944322617253939969e-04,1.915219205448211448e-01,6.944322617253939969e-04,1.902199018482474135e-01,6.944321865190616243e-04,1.849422828273808439e-01,6.944304031883196488e-04
1.180000000000000000e+02,1.190000000000000000e+02,2.192741807805471677e-01,7.585397438716818045e-05,2.192741807805471677e-01,7.585397438716818045e-05,1.845132829678663988e-01,5.148975382903604736e-04,1.845132829678663988e-01,5.148975382903604736e-04,1.832574973855402301e-01,5.148974443880592828e-04,1.781693498589471958e-01,5.148948804061167237e-04
1.190000000000000000e+02,1.200000000000000000e+02,2.107685290492028185e-01,7.349118647164047473e-05,2.107685290492028185e-01,7.349118647164047473e-05,1.773614592059169770e-01,4.076372843257690111e-04,1.773614592059169770e-01,4.076372843257690111e-04,1.761548255121120066e-01,4.076371888159321011e-04,1.712589687816140627e-01,4.076345344473655753e-04
1.200000000000000000e+02,1.210000000000000000e+02,2.020898926810199558e-01,7.049636846033351687e-05,2.020898926810199558e-01,7.049636846033351687e-05,1.699642207466877386e-01,4.321652901816633459e-04,1.699642207466877386e-01,4.321652901816633459e-04,1.688068657391472438e-01,4.321651730764590688e-04,1.641053193077097183e-01,4.321624767972366619e-04
1.210000000000000000e+02,1.220000000000000000e+02,1.931619703222575979e-01,7.140939773932268543e-05,1.931619703222575979e-01,7.140939773932268543e-05,1.627682849410632682e-01,4.517710333369474147e-04,1.627682849410632682e-01,4.517710333369474147e-04,1.616640081291018938e-01,4.517709389742558717e-04,1.571629275727545738e-01,4.517685174447150210e-04
1.220000000000000000e+02,1.230000000000000000e+02,1.840521061741599851e-01,6.873698341422520273e-05,1.840521061741599851e-01,6.873698341422520273e-05,1.556991266108005145e-01,5.997114729857877481e-04,1.556991266108005145e-01,5.997114729857877481e-04,1.546505138033532623e-01,5.997114017208558584e-04,1.503672321041434334e-01,5.997095218664769264e-04
1.230000000000000000e+02,1.240000000000000000e+02,1.744710882720659773e-01,6.507218818151381818e-05,1.744710882720659773e-01,6.507218818151381818e-05,1.481861000821750873e-01,3.445402514110324594e-04,1.481861000821750873e-01,3.445402514110324594e-04,1.471961992711126321e-01,3.445401313018648932e-04,1.431354497859618491e-01,3.445371098085274627e-04
1.240000000000000000e+02,1.250000000000000000e+02,1.638402817498671726e-01,6.659174254634130910e-05,1.638402817498671726e-01,6.659174254634130910e-05,1.399899553479622694e-01,3.506045767681333276e-04,1.399899553479622694e-01,3.506045767681333276e-04,1.390626425787703513e-01,3.506044852111696569e-04,1.352442409649583510e-01,3.506015637592359898e-04
1.250000000000000000e+02,1.260000000000000000e+02,1.525175016542059392e-01,6.258477768325314478e-05,1.525175016542059392e-01,6.258477768325314478e-05,1.313299557768363712e-01,3.830922990263686866e-04,1.313299557768363712e-01,3.830922990263686866e-04,1.304701281028363968e-01,3.830922097625081690e-04,1.269276655505416629e-01,3.830897841805180242e-04
1.260000000000000000e+02,1.270000000000000000e+02,1.456466577508286342e-01,6.082768697045054903e-05,1.456466577508286342e-01,6.082768697045054903e-05,1.244357503817793836e-01,4.570831038053683277e-04,1.244357503817793836e-01,4.570831038053683277e-04,1.236100843902785129e-01,4.570830396302383823e-04,1.202248225664577230e-01,4.570810940131876123e-04
1.270000000000000000e+02,1.280000000000000000e+02,1.425261145419699227e-01,6.129585927615007271e-05,1.425261145419699227e-01,6.129585927615007271e-05,1.214871718631505976e-01,5.560783389078918738e-04,1.214871718631505976e-01,5.560783389078918738e-04,1.206738014077971266e-01,5.560782713471392000e-04,1.173565036590596272e-01,5.560766982862334895e-04
1.280000000000000000e+02,1.290000000000000000e+02,1.393917188367062021e-01,5.901061518808403336e-05,1.393917188367062021e-01,5.901061518808403336e-05,1.182137908746859617e-01,4.057537400926184454e-04,1.182137908746859617e-01,4.057537400926184454e-04,1.174133169199168131e-01,4.057536519821711217e-04,1.141607347544042750e-01,4.057514053984962788e-04
1.290000000000000000e+02,1.300000000000000000e+02,1.364271079070513981e-01,6.419001424356123942e-05,1.364271079070513981e-01,6.419001424356123942e-05,1.153164585756771277e-01,5.051364219188583544e-04,1.153164585756771277e-01,5.051364219188583544e-04,1.145283999271287378e-01,5.051363323365389273e-04,1.113396432833173577e-01,5.051342534292344857e-04
