# xl,xh,LO,dLO,LOISC,dLOISC,NLO,dNLO,NLOISC,dNLOISC,NLOL,dNLOL,NLOnovp,dNLOnovp
2.150000000000000000e+02,2.200000000000000000e+02,0.000000000000000000e+00,0.000000000000000000e+00,0.000000000000000000e+00,0.000000000000000000e+00,0.000000000000000000e+00,0.000000000000000000e+00,0.000000000000000000e+00,0.000000000000000000e+00,0.000000000000000000e+00,0.000000000000000000e+00,0.000000000000000000e+00,0.000000000000000000e+00
2.200000000000000000e+02,2.250000000000000000e+02,0.000000000000000000e+00,0.000000000000000000e+00,0.000000000000000000e+00,0.000000000000000000e+00,0.000000000000000000e+00,0.000000000000000000e+00,0.000000000000000000e+00,0.000000000000000000e+00,0.000000000000000000e+00,0.000000000000000000e+00,0.000000000000000000e+00,0.000000000000000000e+00
2.250000000000000000e+02,2.300000000000000000e+02,0.000000000000000000e+00,0.000000000000000000e+00,0.000000000000000000e+00,0.000000000000000000e+00,0.000000000000000000e+00,0.000000000000000000e+00,0.000000000000000000e+00,0.000000000000000000e+00,0.000000000000000000e+00,0.000000000000000000e+00,0.000000000000000000e+00,0.000000000000000000e+00
2.300000000000000000e+02,2.350000000000000000e+02,0.000000000000000000e+00,0.000000000000000000e+00,0.000000000000000000e+00,0.000000000000000000e+00,0.000000000000000000e+00,0.000000000000000000e+00,0.000000000000000000e+00,0.000000000000000000e+00,0.000000000000000000e+00,0.000000000000000000e+00,0.000000000000000000e+00,0.000000000000000000e+00
2.350000000000000000e+02,2.400000000000000000e+02,0.000000000000000000e+00,0.000000000000000000e+00,0.000000000000000000e+00,0.000000000000000000e+00,0.000000000000000000e+00,0.000000000000000000e+00,0.000000000000000000e+00,0.000000000000000000e+00,0.000000000000000000e+00,0.000000000000000000e+00,0.000000000000000000e+00,0.000000000000000000e+00
2.400000000000000000e+02,2.450000000000000000e+02,0.000000000000000000e+00,0.000000000000000000e+00,0.000000000000000000e+00,0.000000000000000000e+00,1.015620601047897173e-08,5.028541871314179832e-09,1.015620601047897173e-08,5.028541871314179832e-09,1.015620601047897173e-08,5.028541871314179832e-09,1.015620601047897173e-08,5.028541871314179832e-09
2.450000000000000000e+02,2.500000000000000000e+02,0.000000000000000000e+00,0.000000000000000000e+00,0.000000000000000000e+00,0.000000000000000000e+00,3.569942803063309632e-06,4.104232491705372975e-07,3.569942803063309632e-06,4.104232491705372975e-07,3.569942803063309632e-06,4.104232491705372975e-07,3.569942803063309632e-06,4.104232491705372975e-07
2.500000000000000000e+02,2.550000000000000000e+02,3.522391971647755457e-06,3.839016932091960054e-07,3.522391971647755457e-06,3.839016932091960054e-07,2.745612295609472397e-05,2.155414143596196736e-06,2.745612295609472397e-05,2.155414143596196736e-06,2.745148625682953557e-05,2.155413832275276741e-06,2.739023870337972173e-05,2.155408342965782436e-06
2.550000000000000000e+02,2.600000000000000000e+02,2.321873556267305087e-05,1.487468263919523843e-06,2.321873556267305087e-05,1.487468263919523843e-06,9.514528012204670449e-05,4.629109137212847386e-06,9.514528012204670449e-05,4.629109137212847386e-06,9.510328284097979105e-05,4.629108443143381179e-06,9.461044700140151418e-05,4.629080856025821248e-06
2.600000000000000000e+02,2.650000000000000000e+02,7.513481778155654573e-05,1.208105440110548135e-06,7.513481778155654573e-05,1.208105440110548135e-06,2.241863571149216164e-04,6.506939645078213369e-06,2.241863571149216164e-04,6.506939645078213369e-06,2.240509590594910012e-04,6.506938639981298249e-06,2.224983796234388683e-04,6.506877356991607847e-06
2.650000000000000000e+02,2.700000000000000000e+02,1.715139472812343929e-04,2.065414947356327136e-06,1.715139472812343929e-04,2.065414947356327136e-06,4.299260965397590055e-04,9.159187372639505478e-06,4.299260965397590055e-04,9.159187372639505478e-06,4.296060197328330091e-04,9.159186008958520667e-06,4.261791708560534807e-04,9.159107720498246965e-06
2.700000000000000000e+02,2.750000000000000000e+02,3.171570087051643421e-04,2.218872676700490353e-06,3.171570087051643421e-04,2.218872676700490353e-06,7.951298483001485468e-04,1.296102940451825755e-05,7.951298483001485468e-04,1.296102940451825755e-05,7.945251741712163222e-04,1.296102809468750417e-05,7.880779797765238934e-04,1.296094939423036088e-05
2.750000000000000000e+02,2.800000000000000000e+02,5.373016089627389701e-04,2.776511824254765618e-06,5.373016089627389701e-04,2.776511824254765618e-06,1.380532368949053236e-03,1.374986577233972140e-05,1.380532368949053236e-03,1.374986577233972140e-05,1.379449124045889052e-03,1.374986389941846802e-05,1.368589360965377514e-03,1.374974011568026971e-05
2.800000000000000000e+02,2.850000000000000000e+02,8.467935016688447935e-04,3.162619975052772847e-06,8.467935016688447935e-04,3.162619975052772847e-06,2.161044163018732180e-03,1.945656061873410171e-05,2.161044163018732180e-03,1.945656061873410171e-05,2.159249358287949894e-03,1.945655796614417218e-05,2.142035970823294617e-03,1.945647038458167628e-05
2.850000000000000000e+02,2.900000000000000000e+02,1.300712730164763813e-03,3.635691585779094180e-06,1.300712730164763813e-03,3.635691585779094180e-06,3.214159608610886801e-03,2.680875570753531829e-05,3.214159608610886801e-03,2.680875570753531829e-05,3.211317725326508481e-03,2.680875346691979504e-05,3.184880778452184834e-03,2.680864539609993061e-05
2.900000000000000000e+02,2.950000000000000000e+02,1.937700907475329790e-03,4.768439944049406589e-06,1.937700907475329790e-03,4.768439944049406589e-06,4.612634361659847040e-03,3.877948005896046820e-05,4.612634361659847040e-03,3.877948005896046820e-05,4.608229820102792244e-03,3.877947834391331009e-05,4.568718721989415560e-03,3.877937973021905292e-05
2.950000000000000000e+02,3.000000000000000000e+02,2.903987961930650820e-03,5.139770798859504298e-06,2.903987961930650820e-03,5.139770798859504298e-06,6.478069349704624995e-03,4.244813856498378464e-05,6.478069349704624995e-03,4.244813856498378464e-05,6.471224680276195865e-03,4.244813594585719613e-05,6.411856204591516104e-03,4.244799725063256587e-05
3.000000000000000000e+02,3.050000000000000000e+02,4.714349872215631808e-03,6.759924869075034167e-06,4.714349872215631808e-03,6.759924869075034167e-06,9.209119504033004555e-03,6.116020346293938518e-05,9.209119504033004555e-03,6.116020346293938518e-05,9.197608977440967920e-03,6.116020115544821873e-05,9.101583240621104534e-03,6.116006334403913797e-05
3.050000000000000000e+02,3.100000000000000000e+02,1.072855637414629054e-02,1.024816160906349566e-05,1.072855637414629054e-02,1.024816160906349566e-05,1.532613412227580921e-02,1.142766178510556382e-04,1.532613412227580921e-02,1.142766178510556382e-04,1.529903330223904810e-02,1.142766148932734122e-04,1.508165280268934996e-02,1.142764737422524598e-04
3.100000000000000000e+02,3.150000000000000000e+02,1.841343207555403913e-02,1.201856660421631018e-05,1.841343207555403913e-02,1.201856660421631018e-05,2.240577851997503991e-02,1.695307837060008773e-04,2.240577851997503991e-02,1.695307837060008773e-04,2.235731024378388720e-02,1.695307806084348640e-04,2.198315158314461532e-02,1.695306136907738558e-04
3.150000000000000000e+02,3.200000000000000000e+02,2.566230586944415193e-02,1.447318559342184985e-05,2.566230586944415193e-02,1.447318559342184985e-05,2.951061410589640027e-02,1.642893135306066135e-04,2.951061410589640027e-02,1.642893135306066135e-04,2.944084250171459527e-02,1.642893086180313841e-04,2.891778189258823600e-02,1.642890609171013857e-04
3.200000000000000000e+02,3.250000000000000000e+02,3.259595561181780066e-02,1.425648390699542599e-05,3.259595561181780066e-02,1.425648390699542599e-05,3.610323260636132819e-02,1.989175085491899078e-04,3.610323260636132819e-02,1.989175085491899078e-04,3.601203614210925219e-02,1.989175035846197845e-04,3.534566999703858681e-02,1.989172742523198894e-04
3.250000000000000000e+02,3.300000000000000000e+02,3.938174646027551434e-02,1.709034165780120963e-05,3.938174646027551434e-02,1.709034165780120963e-05,4.233229302511366809e-02,2.177747393558861449e-04,4.233229302511366809e-02,2.177747393558861449e-04,4.221936336223438418e-02,2.177747337734763664e-04,4.141156442432170071e-02,2.177744883854938632e-04
3.300000000000000000e+02,3.350000000000000000e+02,4.618531503211694561e-02,1.697965063334151627e-05,4.618531503211694561e-02,1.697965063334151627e-05,4.897358286089040919e-02,2.527965282622044981e-04,4.897358286089040919e-02,2.527965282622044981e-04,4.883876539149604318e-02,2.527965232109490230e-04,4.788977890141372928e-02,2.527962956151658743e-04
3.350000000000000000e+02,3.400000000000000000e+02,5.298152723678693082e-02,1.775460441570998963e-05,5.298152723678693082e-02,1.775460441570998963e-05,5.518786647009645691e-02,2.715357325492131785e-04,5.518786647009645691e-02,2.715357325492131785e-04,5.503120944095713646e-02,2.715357270621047438e-04,5.393859597646410292e-02,2.715354704497786290e-04
3.400000000000000000e+02,3.450000000000000000e+02,5.985693344704730995e-02,1.869848146756275132e-05,5.985693344704730995e-02,1.869848146756275132e-05,6.161723834467679184e-02,2.744145320758726789e-04,6.161723834467679184e-02,2.744145320758726789e-04,6.143915773875095743e-02,2.744145261115346602e-04,6.020040639058275855e-02,2.744142210252272060e-04
3.450000000000000000e+02,3.500000000000000000e+02,6.693507590715890021e-02,1.983517616069263681e-05,6.693507590715890021e-02,1.983517616069263681e-05,6.833030512140177148e-02,2.445079991391772996e-04,6.833030512140177148e-02,2.445079991391772996e-04,6.813105727996561500e-02,2.445079918532412850e-04,6.674200106275633704e-02,2.445076097320433742e-04
3.500000000000000000e+02,3.550000000000000000e+02,7.424908623520984352e-02,2.031317043469573155e-05,7.424908623520984352e-02,2.031317043469573155e-05,7.501465605668264369e-02,2.543348996336114703e-04,7.501465605668264369e-02,2.543348996336114703e-04,7.479397560775154219e-02,2.543348924868476038e-04,7.324929980620564773e-02,2.543345192362608071e-04
3.550000000000000000e+02,3.600000000000000000e+02,8.185603214969527919e-02,2.272319046975863026e-05,8.185603214969527919e-02,2.272319046975863026e-05,8.196265741392336213e-02,2.691684539533842368e-04,8.196265741392336213e-02,2.691684539533842368e-04,8.172480475041273007e-02,2.691684467569977922e-04,8.001730295247326541e-02,2.691680739940829643e-04
3.600000000000000000e+02,3.650000000000000000e+02,8.980637344204640826e-02,2.173020478526787566e-05,8.980637344204640826e-02,2.173020478526787566e-05,8.918156690694792332e-02,3.057897711627823359e-04,8.918156690694792332e-02,3.057897711627823359e-04,8.893517102750925218e-02,3.057897657775010308e-04,8.705763568822451337e-02,3.057893638012628736e-04
3.650000000000000000e+02,3.700000000000000000e+02,9.814440898306774075e-02,2.392342663134382007e-05,9.814440898306774075e-02,2.392342663134382007e-05,9.683760674936883750e-02,3.862556459886238203e-04,9.683760674936883750e-02,3.862556459886238203e-04,9.657660151857641595e-02,3.862556408174151984e-04,9.452046180994871927e-02,3.862553367511931818e-04
3.700000000000000000e+02,3.750000000000000000e+02,1.069887759124436427e-01,2.409829588588024548e-05,1.069887759124436427e-01,2.409829588588024548e-05,1.046118577245394449e-01,2.900328743732126860e-04,1.046118577245394449e-01,2.900328743732126860e-04,1.043303751522200451e-01,2.900328674041203906e-04,1.020837203685106831e-01,2.900324579492947683e-04
3.750000000000000000e+02,3.800000000000000000e+02,1.160192055089593055e-01,2.492105970863030696e-05,1.160192055089593055e-01,2.492105970863030696e-05,1.124179317078507351e-01,3.165390984630156944e-04,1.124179317078507351e-01,3.165390984630156944e-04,1.121119037601845253e-01,3.165390925149799565e-04,1.096711838294309183e-01,3.165386853723574975e-04
3.800000000000000000e+02,3.850000000000000000e+02,1.246147675713185493e-01,2.795427357534570011e-05,1.246147675713185493e-01,2.795427357534570011e-05,1.200741460834553465e-01,3.851237988872276575e-04,1.200741460834553465e-01,3.851237988872276575e-04,1.197417368750102740e-01,3.851237924606522398e-04,1.171149712967914785e-01,3.851234716161630795e-04
3.850000000000000000e+02,3.900000000000000000e+02,1.335067615267171437e-01,2.627438433801343405e-05,1.335067615267171437e-01,2.627438433801343405e-05,1.277725928138662148e-01,3.563231132488173030e-04,1.277725928138662148e-01,3.563231132488173030e-04,1.274100610095300068e-01,3.563231060542050468e-04,1.245877936492022497e-01,3.563226999110769119e-04
3.900000000000000000e+02,3.950000000000000000e+02,1.430929968661588947e-01,2.614534065911654115e-05,1.430929968661588947e-01,2.614534065911654115e-05,1.361832491927031374e-01,2.938388123559204754e-04,1.361832491927031374e-01,2.938388123559204754e-04,1.357865735869364654e-01,2.938388029797622597e-04,1.327553009342930801e-01,2.938382686044982775e-04
3.950000000000000000e+02,4.000000000000000000e+02,1.534377809212059129e-01,2.702362440347532061e-05,1.534377809212059129e-01,2.702362440347532061e-05,1.451003701806715951e-01,4.458923394842525915e-04,1.451003701806715951e-01,4.458923394842525915e-04,1.446651146650526076e-01,4.458923322289921800e-04,1.414069532497432280e-01,4.458919682952597460e-04
4.000000000000000000e+02,4.050000000000000000e+02,1.647564231844367288e-01,2.866099569886210925e-05,1.647564231844367288e-01,2.866099569886210925e-05,1.548029521659138319e-01,3.757014086926878599e-04,1.548029521659138319e-01,3.757014086926878599e-04,1.543246786570843521e-01,3.757013993065808424e-04,1.508184447359388058e-01,3.757009688123373451e-04
4.050000000000000000e+02,4.100000000000000000e+02,1.772410577437906198e-01,2.895622827123708919e-05,1.772410577437906198e-01,2.895622827123708919e-05,1.650771078418342142e-01,4.007518642681927919e-04,1.650771078418342142e-01,4.007518642681927919e-04,1.645510543883571264e-01,4.007518543432081297e-04,1.607709756372052989e-01,4.007513723330988404e-04
4.100000000000000000e+02,4.150000000000000000e+02,1.910896721283999733e-01,3.053651477162964035e-05,1.910896721283999733e-01,3.053651477162964035e-05,1.770687603192372395e-01,5.887659958815907261e-04,1.770687603192372395e-01,5.887659958815907261e-04,1.764899008273971281e-01,5.887659888054405134e-04,1.724073803245605996e-01,5.887656784454114956e-04
4.150000000000000000e+02,4.200000000000000000e+02,2.064596911749844721e-01,3.284016745317295464e-05,2.064596911749844721e-01,3.284016745317295464e-05,1.891465878575375459e-01,4.798967519582416057e-04,1.891465878575375459e-01,4.798967519582416057e-04,1.885094722680861756e-01,4.798967432052234387e-04,1.840897019205106344e-01,4.798963146084285567e-04
4.200000000000000000e+02,4.250000000000000000e+02,2.237323493229201876e-01,3.217660978162415250e-05,2.237323493229201876e-01,3.217660978162415250e-05,2.035537904401993892e-01,5.332735226659736675e-04,2.035537904401993892e-01,5.332735226659736675e-04,2.028527502603971466e-01,5.332735136066846498e-04,1.980526660910575110e-01,5.332730347544880397e-04
4.250000000000000000e+02,4.300000000000000000e+02,2.433519298984098134e-01,3.346236957824620661e-05,2.433519298984098134e-01,3.346236957824620661e-05,2.190049860406028670e-01,3.852007844156023360e-04,2.190049860406028670e-01,3.852007844156023360e-04,2.182337537254840920e-01,3.852007685770383687e-04,2.130046083647657851e-01,3.852001308455309009e-04
4.300000000000000000e+02,4.350000000000000000e+02,2.656185053088492287e-01,3.464590946739552914e-05,2.656185053088492287e-01,3.464590946739552914e-05,2.373425048148982974e-01,5.365749646191238925e-04,2.373425048148982974e-01,5.365749646191238925e-04,2.364936761678085031e-01,5.365749540387205856e-04,2.307760131412485982e-01,5.365744688794286130e-04
4.350000000000000000e+02,4.400000000000000000e+02,2.912299404864979180e-01,3.525447807985640871e-05,2.912299404864979180e-01,3.525447807985640871e-05,2.574605525629941605e-01,7.883494251253955363e-04,2.574605525629941605e-01,7.883494251253955363e-04,2.565252389483504980e-01,7.883494172091445483e-04,2.502450163955526885e-01,7.883490729298334339e-04
4.400000000000000000e+02,4.450000000000000000e+02,3.210120496592676065e-01,3.497255026499898172e-05,3.210120496592676065e-01,3.497255026499898172e-05,2.807407305520349117e-01,5.322453744570149669e-04,2.807407305520349117e-01,5.322453744570149669e-04,2.797075420156630576e-01,5.322453605430884239e-04,2.727755940599232432e-01,5.322447635968877286e-04
4.450000000000000000e+02,4.500000000000000000e+02,3.558824299981462880e-01,3.935836286961134418e-05,3.558824299981462880e-01,3.935836286961134418e-05,3.076731999235273740e-01,7.107778055875745146e-04,3.076731999235273740e-01,7.107778055875745146e-04,3.065279761428838512e-01,7.107777940706320585e-04,2.988304041670926114e-01,7.107772703021180381e-04
4.500000000000000000e+02,4.550000000000000000e+02,3.973412181347891758e-01,3.948544469391411033e-05,3.973412181347891758e-01,3.948544469391411033e-05,3.390196967641893044e-01,6.003664731778198069e-04,3.390196967641893044e-01,6.003664731778198069e-04,3.377413785251306977e-01,6.003664578737574276e-04,3.291353917127509132e-01,6.003658832214092602e-04
4.550000000000000000e+02,4.600000000000000000e+02,4.472448915971227734e-01,4.180144903870740329e-05,4.472448915971227734e-01,4.180144903870740329e-05,3.767055376620916385e-01,6.594388540126459039e-04,3.767055376620916385e-01,6.594388540126459039e-04,3.752481071451269634e-01,6.594388390356752854e-04,3.655465662248610359e-01,6.594382285541294363e-04
4.600000000000000000e+02,4.650000000000000000e+02,5.084616025425917618e-01,4.506491538446529742e-05,5.084616025425917618e-01,4.506491538446529742e-05,4.213614631268297606e-01,6.624518068808429470e-04,4.213614631268297606e-01,6.624518068808429470e-04,4.196765065019703589e-01,6.624517901550267939e-04,4.086338585554535885e-01,6.624511508435908637e-04
4.650000000000000000e+02,4.700000000000000000e+02,5.849716360928244319e-01,4.662534034696553056e-05,5.849716360928244319e-01,4.662534034696553056e-05,4.771610408611411391e-01,7.670606422630733097e-04,4.771610408611411391e-01,7.670606422630733097e-04,4.751881875937119526e-01,7.670606273668684888e-04,4.624666729244132357e-01,7.670598668445629837e-04
4.700000000000000000e+02,4.750000000000000000e+02,6.714962553638789133e-01,5.181977505823619147e-05,6.714962553638789133e-01,5.181977505823619147e-05,5.375398672665275823e-01,6.953159198444205285e-04,5.375398672665275823e-01,6.953159198444205285e-04,5.352132386071565273e-01,6.953159010824939458e-04,5.205783202908436103e-01,6.953150200481739021e-04
4.750000000000000000e+02,4.800000000000000000e+02,6.126963312717482735e-01,4.706959693751126838e-05,6.126963312717482735e-01,4.706959693751126838e-05,5.054762822268127342e-01,9.983459368811010027e-04,5.054762822268127342e-01,9.983459368811010027e-04,5.032039898274097700e-01,9.983459256972550527e-04,4.896915498878241513e-01,9.983454412904992428e-04
4.800000000000000000e+02,4.850000000000000000e+02,5.608443840560306537e-01,4.230671517084301541e-05,5.608443840560306537e-01,4.230671517084301541e-05,4.629392466433297493e-01,6.950419684867938834e-04,4.629392466433297493e-01,6.950419684867938834e-04,4.608588014037443559e-01,6.950419530834676994e-04,4.484682898608389756e-01,6.950413246699163605e-04
4.850000000000000000e+02,4.900000000000000000e+02,5.677738447572457936e-01,4.199705713644023706e-05,5.677738447572457936e-01,4.199705713644023706e-05,4.517130535032207184e-01,6.859158104521514022e-04,4.517130535032207184e-01,6.859158104521514022e-04,4.497233703403435423e-01,6.859157959262563754e-04,4.373009096322254541e-01,6.859151677616344943e-04
4.900000000000000000e+02,4.950000000000000000e+02,5.871535977586295196e-01,4.538435334979955889e-05,5.871535977586295196e-01,4.538435334979955889e-05,4.398576800199184289e-01,8.612185821302784094e-04,4.398576800199184289e-01,8.612185821302784094e-04,4.379775430180138929e-01,8.612185717424184579e-04,4.253422299092690650e-01,8.612181000418419642e-04
4.950000000000000000e+02,5.000000000000000000e+02,5.024680455018362135e-01,4.023646696642067626e-05,5.024680455018362135e-01,4.023646696642067626e-05,3.395781571344709815e-01,6.435562160561996130e-04,3.395781571344709815e-01,6.435562160561996130e-04,3.381713048998156723e-01,6.435562035438862705e-04,3.275962900554525437e-01,6.435556517621066064e-04
5.000000000000000000e+02,5.050000000000000000e+02,8.263092321305483268e-02,2.633650654379208664e-05,8.263092321305483268e-02,2.633650654379208664e-05,5.509736816008021371e-02,3.343472935565634189e-04,5.509736816008021371e-02,3.343472935565634189e-04,5.492400004090520343e-02,3.343472859614429770e-04,5.321716241906901401e-02,3.343467949319833170e-04
5.050000000000000000e+02,5.100000000000000000e+02,5.575045907797825508e-05,4.397648193173195214e-06,5.575045907797825508e-05,4.397648193173195214e-06,1.176259260501779871e-05,1.097275024108084635e-05,1.176259260501779871e-05,1.097275024108084635e-05,1.173201975167115316e-05,1.097275005288173830e-05,1.077962734612030322e-05,1.097257380894101342e-05
5.100000000000000000e+02,5.150000000000000000e+02,0.000000000000000000e+00,0.000000000000000000e+00,0.000000000000000000e+00,0.000000000000000000e+00,0.000000000000000000e+00,0.000000000000000000e+00,0.000000000000000000e+00,0.000000000000000000e+00,0.000000000000000000e+00,0.000000000000000000e+00,0.000000000000000000e+00,0.000000000000000000e+00
