# xl,xh,LO,dLO,LOISC,dLOISC,NLO,dNLO,NLOISC,dNLOISC,NLOL,dNLOL,NLOnovp,dNLOnovp
5.910000000000000000e+02,5.986800000000000637e+02,1.714841369400962878e-02,1.539581475647951191e-05,1.714841369400962878e-02,1.539581475647951191e-05,1.862594064475223132e-02,1.282241750248559883e-04,1.862594064475223132e-02,1.282241750248559883e-04,1.858398375217958087e-02,1.282241704469434763e-04,1.823616119866117852e-02,1.282239287270004510e-04
5.986800000000000637e+02,6.063599999999999000e+02,1.982198440804450526e-02,1.209915386080233253e-05,1.982198440804450526e-02,1.209915386080233253e-05,2.151198213653482752e-02,1.637362036772485618e-04,2.151198213653482752e-02,1.637362036772485618e-04,2.146250986463747734e-02,1.637362006762435184e-04,2.105919592493102344e-02,1.637360107815210946e-04
6.063600000000001273e+02,6.140399999999999636e+02,2.114273165661361212e-02,1.002232202387088339e-05,2.114273165661361212e-02,1.002232202387088339e-05,2.283106920481573973e-02,1.668266142316269780e-04,2.283106920481573973e-02,1.668266142316269780e-04,2.277736483110485641e-02,1.668266111696283796e-04,2.234675175685961468e-02,1.668264937853745867e-04
6.140399999999999636e+02,6.217200000000000273e+02,2.242674685701098736e-02,9.613059408736565926e-06,2.242674685701098736e-02,9.613059408736565926e-06,2.400274117418900802e-02,2.301472372190783554e-04,2.400274117418900802e-02,2.301472372190783554e-04,2.394444382174987923e-02,2.301472357125680798e-04,2.348586363536491958e-02,2.301471472441112627e-04
6.217200000000000273e+02,6.293999999999998636e+02,2.379289960510464971e-02,9.165973714202956015e-06,2.379289960510464971e-02,9.165973714202956015e-06,2.528094878821482427e-02,1.881461555870898264e-04,2.528094878821482427e-02,1.881461555870898264e-04,2.521786952327125311e-02,1.881461535993482579e-04,2.473028200223921849e-02,1.881460550562383336e-04
6.294000000000000909e+02,6.370799999999999272e+02,2.519638826095760287e-02,9.483717174502077273e-06,2.519638826095760287e-02,9.483717174502077273e-06,2.662669436576978882e-02,2.225497666409017217e-04,2.662669436576978882e-02,2.225497666409017217e-04,2.655854828738156773e-02,2.225497650853131102e-04,2.604152961474282685e-02,2.225496772387420825e-04
6.370799999999999272e+02,6.447599999999999909e+02,2.662025661459408235e-02,9.349195963785483364e-06,2.662025661459408235e-02,9.349195963785483364e-06,2.796115628690479943e-02,1.474126574033207497e-04,2.796115628690479943e-02,1.474126574033207497e-04,2.788765857905727008e-02,1.474126548181815073e-04,2.733965349038748952e-02,1.474125136948258572e-04
6.447599999999999909e+02,6.524400000000000546e+02,2.812663609787557570e-02,9.754277461354590246e-06,2.812663609787557570e-02,9.754277461354590246e-06,2.940168186439716391e-02,1.836746296468684341e-04,2.940168186439716391e-02,1.836746296468684341e-04,2.932251928706695529e-02,1.836746272189688643e-04,2.874224975237287677e-02,1.836745015762490576e-04
6.524400000000000546e+02,6.601199999999998909e+02,2.968321527327663287e-02,1.046846118785344048e-05,2.968321527327663287e-02,1.046846118785344048e-05,3.076422426438681773e-02,1.796396187890094180e-04,3.076422426438681773e-02,1.796396187890094180e-04,3.067908949563499105e-02,1.796396161532050827e-04,3.006538382340820728e-02,1.796394749800012862e-04
6.601200000000001182e+02,6.677999999999999545e+02,3.130254919935906988e-02,1.049959545125015502e-05,3.130254919935906988e-02,1.049959545125015502e-05,3.229693069860861687e-02,1.681201005685681858e-04,3.229693069860861687e-02,1.681201005685681858e-04,3.220540071704913743e-02,1.681200975319564522e-04,3.155727551471887438e-02,1.681199578992336417e-04
6.677999999999999545e+02,6.754800000000000182e+02,3.298038641014754135e-02,1.109403880364748749e-05,3.298038641014754135e-02,1.109403880364748749e-05,3.397110614935711786e-02,1.637544044685144853e-04,3.397110614935711786e-02,1.637544044685144853e-04,3.387276143735670764e-02,1.637544012645114773e-04,3.318861552859067587e-02,1.637542500040190376e-04
6.754800000000000182e+02,6.831599999999998545e+02,3.474487708346091913e-02,1.122315115197901922e-05,3.474487708346091913e-02,1.122315115197901922e-05,3.542828154820645836e-02,2.256852774086446039e-04,3.542828154820645836e-02,2.256852774086446039e-04,3.532289583693438983e-02,2.256852746005210786e-04,3.460074719465116438e-02,2.256851491130373118e-04
6.831600000000000819e+02,6.908399999999999181e+02,3.656817473934666912e-02,1.195874620230452618e-05,3.656817473934666912e-02,1.195874620230452618e-05,3.735903122627539513e-02,2.058627411967782581e-04,3.735903122627539513e-02,2.058627411967782581e-04,3.724604869977445054e-02,2.058627381388540643e-04,3.648429026218226456e-02,2.058625962492011780e-04
6.908399999999999181e+02,6.985199999999999818e+02,3.847854138383299816e-02,1.214715313422476693e-05,3.847854138383299816e-02,1.214715313422476693e-05,3.893803846955490311e-02,1.753782679011347482e-04,3.893803846955490311e-02,1.753782679011347482e-04,3.881706227397669490e-02,1.753782637674962755e-04,3.801366905977152794e-02,1.753780999503926216e-04
6.985199999999999818e+02,7.062000000000000455e+02,4.051592217974774035e-02,1.201392918757362974e-05,4.051592217974774035e-02,1.201392918757362974e-05,4.067854447004158602e-02,2.293490388320433505e-04,4.067854447004158602e-02,2.293490388320433505e-04,4.054929825245780217e-02,2.293490355834821811e-04,3.970200423347184510e-02,2.293488936679415014e-04
7.062000000000000455e+02,7.138799999999998818e+02,4.263485576768368673e-02,1.276443470355681354e-05,4.263485576768368673e-02,1.276443470355681354e-05,4.274164077266418699e-02,1.757404703043779018e-04,4.274164077266418699e-02,1.757404703043779018e-04,4.260390558634996605e-02,1.757404652123336296e-04,4.171070043309259290e-02,1.757402793419515557e-04
7.138799999999998818e+02,7.215599999999999454e+02,4.485797293133112623e-02,1.267443832345646557e-05,4.485797293133112623e-02,1.267443832345646557e-05,4.477166401046894090e-02,1.956785296357591247e-04,4.477166401046894090e-02,1.956785296357591247e-04,4.462520287117372614e-02,1.956785257228195452e-04,4.368354921382386347e-02,1.956783379841887244e-04
7.215599999999999454e+02,7.292400000000000091e+02,4.725792654039547014e-02,1.294187565574895248e-05,4.725792654039547014e-02,1.294187565574895248e-05,4.682703082470034139e-02,1.952303820100208514e-04,4.682703082470034139e-02,1.952303820100208514e-04,4.667159215601193040e-02,1.952303773844150719e-04,4.567913346306416017e-02,1.952301817635379089e-04
7.292400000000000091e+02,7.369199999999998454e+02,4.971931108280915057e-02,1.334923446800849586e-05,4.971931108280915057e-02,1.334923446800849586e-05,4.928818651631513420e-02,2.518929251829729100e-04,4.928818651631513420e-02,2.518929251829729100e-04,4.912362508264105088e-02,2.518929214836595934e-04,4.807661306156249537e-02,2.518927658195088616e-04
7.369199999999998454e+02,7.445999999999999091e+02,5.238259159262457360e-02,1.380059854052809947e-05,5.238259159262457360e-02,1.380059854052809947e-05,5.163346616425695118e-02,2.324770632099886793e-04,5.163346616425695118e-02,2.324770632099886793e-04,5.145980980990274428e-02,2.324770592797544488e-04,5.035523769820686446e-02,2.324768792580081866e-04
7.446000000000001364e+02,7.522800000000002001e+02,5.517964969210506498e-02,1.362588002985729786e-05,5.517964969210506498e-02,1.362588002985729786e-05,5.413270763870688812e-02,2.330736001176976241e-04,5.413270763870688812e-02,2.330736001176976241e-04,5.394964740005104425e-02,2.330735959585782590e-04,5.278432346254208901e-02,2.330734163105390301e-04
7.522799999999999727e+02,7.599599999999998090e+02,5.818787647940198982e-02,1.412126561546888875e-05,5.818787647940198982e-02,1.412126561546888875e-05,5.663029836093270292e-02,2.298728547281117171e-04,5.663029836093270292e-02,2.298728547281117171e-04,5.643771559577919622e-02,2.298728505564762950e-04,5.520663309593225321e-02,2.298726488897332300e-04
7.599600000000000364e+02,7.676400000000001000e+02,6.138473489907253500e-02,1.454895456797238451e-05,6.138473489907253500e-02,1.454895456797238451e-05,5.958518880203365203e-02,2.493407602655356068e-04,5.958518880203365203e-02,2.493407602655356068e-04,5.938059972549922932e-02,2.493407565168877845e-04,5.808097350910097767e-02,2.493405760813947945e-04
7.676400000000001000e+02,7.753199999999999363e+02,6.479122358532599102e-02,1.454740700478280185e-05,6.479122358532599102e-02,1.454740700478280185e-05,6.242178433500764761e-02,3.202347014731369798e-04,6.242178433500764761e-02,3.202347014731369798e-04,6.220086219261199839e-02,3.202346984850014703e-04,6.082642751601052139e-02,3.202345482756218135e-04
7.753199999999999363e+02,7.830000000000000000e+02,6.840171516405385566e-02,1.513144648668502429e-05,6.840171516405385566e-02,1.513144648668502429e-05,6.532011639203841313e-02,3.350517697595994330e-04,6.532011639203841313e-02,3.350517697595994330e-04,6.509697892113285034e-02,3.350517670485057679e-04,6.364314560791926867e-02,3.350516197620880053e-04
7.830000000000000000e+02,7.906800000000000637e+02,7.235611079546602764e-02,1.512151302203080658e-05,7.235611079546602764e-02,1.512151302203080658e-05,6.893599094518350345e-02,3.884940243820561318e-04,6.893599094518350345e-02,3.884940243820561318e-04,6.876979552444566213e-02,3.884940217823721004e-04,6.723079219215663538e-02,3.884938911756889712e-04
7.906800000000000637e+02,7.983600000000001273e+02,7.655611558523378601e-02,1.569612912747301353e-05,7.655611558523378601e-02,1.569612912747301353e-05,7.257248234687432853e-02,4.226399920052740849e-04,7.257248234687432853e-02,4.226399920052740849e-04,7.238305322272299558e-02,4.226399898228790325e-04,7.075254437239672511e-02,4.226398568017432052e-04
7.983599999999999000e+02,8.060399999999999636e+02,8.107114249848641763e-02,1.607239596762714397e-05,8.107114249848641763e-02,1.607239596762714397e-05,7.637209512789741583e-02,2.709337266385565654e-04,7.637209512789741583e-02,2.709337266385565654e-04,7.616110782007372293e-02,2.709337227996238130e-04,7.443151623639628067e-02,2.709335054033471597e-04
8.060399999999999636e+02,8.137200000000000273e+02,8.599456275112055126e-02,1.709590033035059478e-05,8.599456275112055126e-02,1.709590033035059478e-05,8.068476090907299170e-02,3.177901368261499431e-04,8.068476090907299170e-02,3.177901368261499431e-04,8.045550756543340398e-02,3.177901334075150476e-04,7.861977456299931721e-02,3.177899311236104685e-04
8.137200000000000273e+02,8.213999999999998636e+02,9.128180422147585960e-02,1.689400602565361688e-05,9.128180422147585960e-02,1.689400602565361688e-05,8.481203837020925840e-02,3.107685011773194837e-04,8.481203837020925840e-02,3.107685011773194837e-04,8.456450542801133285e-02,3.107684969103218127e-04,8.261257620186794604e-02,3.107682911212790509e-04
8.214000000000000909e+02,8.290800000000001546e+02,9.706669640527182397e-02,1.749282317355294706e-05,9.706669640527182397e-02,1.749282317355294706e-05,8.989457537735982828e-02,4.863551111284133304e-04,8.989457537735982828e-02,4.863551111284133304e-04,8.962857689393823046e-02,4.863551085012593022e-04,8.755143912182328236e-02,4.863549666257194486e-04
8.290799999999999272e+02,8.367599999999999909e+02,1.033403664031701530e-01,1.803260814700052427e-05,1.033403664031701530e-01,1.803260814700052427e-05,9.504432677616561631e-02,3.143576433701550832e-04,9.504432677616561631e-02,3.143576433701550832e-04,9.475753638755646246e-02,3.143576384303817749e-04,9.254294381846712991e-02,3.143574072641085854e-04
8.367599999999999909e+02,8.444399999999998272e+02,1.101786059685179453e-01,1.877224185871736875e-05,1.101786059685179453e-01,1.877224185871736875e-05,1.013451064175838745e-01,4.952465831329667945e-04,1.013451064175838745e-01,4.952465831329667945e-04,1.010354221374236416e-01,4.952465797535956843e-04,9.867120741405088769e-02,4.952464395437805719e-04
8.444399999999998272e+02,8.521199999999998909e+02,1.177402851967731118e-01,1.738730943658519927e-05,1.177402851967731118e-01,1.738730943658519927e-05,1.066404913487189327e-01,3.836176721428258773e-04,1.066404913487189327e-01,3.836176721428258773e-04,1.063045200786764954e-01,3.836176677658138866e-04,1.037753638350364244e-01,3.836174638198908029e-04
8.521200000000001182e+02,8.597999999999999545e+02,1.260179685495081414e-01,1.936267762559160991e-05,1.260179685495081414e-01,1.936267762559160991e-05,1.136497265217839558e-01,3.796325141543496567e-04,1.136497265217839558e-01,3.796325141543496567e-04,1.132853954247201311e-01,3.796325095531872152e-04,1.105748643048532626e-01,3.796322814800155926e-04
8.597999999999999545e+02,8.674800000000000182e+02,1.351987224339837035e-01,1.915911295020064585e-05,1.351987224339837035e-01,1.915911295020064585e-05,1.209050958372148293e-01,3.599966502469753647e-04,1.209050958372148293e-01,3.599966502469753647e-04,1.205097427158440121e-01,3.599966453205416463e-04,1.175993215278361564e-01,3.599964065048146325e-04
8.674800000000000182e+02,8.751600000000000819e+02,1.454092787892694583e-01,2.074713294708838295e-05,1.454092787892694583e-01,2.074713294708838295e-05,1.290184554083634583e-01,4.356883911996980627e-04,1.290184554083634583e-01,4.356883911996980627e-04,1.285876739466156327e-01,4.356883866024307259e-04,1.254546431205181833e-01,4.356881809396068780e-04
8.751600000000000819e+02,8.828399999999999181e+02,1.567301977987372308e-01,2.108877738591501160e-05,1.567301977987372308e-01,2.108877738591501160e-05,1.378432684718934043e-01,4.314773451819055631e-04,1.378432684718934043e-01,4.314773451819055631e-04,1.373719047438730911e-01,4.314773403785413138e-04,1.339907086294070404e-01,4.314770956959290888e-04
8.828399999999999181e+02,8.905199999999999818e+02,1.694981602420861377e-01,2.181294350506786061e-05,1.694981602420861377e-01,2.181294350506786061e-05,1.477329135968125096e-01,4.796717667419389650e-04,1.477329135968125096e-01,4.796717667419389650e-04,1.472167137033781881e-01,4.796717619314286307e-04,1.435565246377532023e-01,4.796715358555595594e-04
8.905199999999997544e+02,8.981999999999998181e+02,1.839439883368072237e-01,2.377210925945076597e-05,1.839439883368072237e-01,2.377210925945076597e-05,1.590089442963253108e-01,5.142548790234056184e-04,1.590089442963253108e-01,5.142548790234056184e-04,1.584401055456540197e-01,5.142548745807403072e-04,1.544652612470392705e-01,5.142546584008063273e-04
8.982000000000000455e+02,9.058799999999998818e+02,2.003121009116036466e-01,2.291376124522882576e-05,2.003121009116036466e-01,2.291376124522882576e-05,1.713387738264151861e-01,4.731714470336951498e-04,1.713387738264151861e-01,4.731714470336951498e-04,1.707107575017293433e-01,4.731714415457313879e-04,1.663769027494504116e-01,4.731711882102391555e-04
9.058799999999998818e+02,9.135599999999999454e+02,2.190853031128306982e-01,2.516909097762625287e-05,2.190853031128306982e-01,2.516909097762625287e-05,1.851335906969248934e-01,5.375454596976273532e-04,1.851335906969248934e-01,5.375454596976273532e-04,1.844379675738281044e-01,5.375454546542602621e-04,1.796940574638854204e-01,5.375452192402294365e-04
9.135599999999999454e+02,9.212400000000000091e+02,2.408105749440420662e-01,2.554262368778209780e-05,2.408105749440420662e-01,2.554262368778209780e-05,2.008233759342824831e-01,4.997931542673268897e-04,2.008233759342824831e-01,4.997931542673268897e-04,2.000474481983079422e-01,4.997931483569205023e-04,1.948279851593451850e-01,4.997928322513125587e-04
9.212400000000000091e+02,9.289200000000000728e+02,2.661854115705113433e-01,2.679703092450246523e-05,2.661854115705113433e-01,2.679703092450246523e-05,2.195899375632171246e-01,5.222084904722357679e-04,2.195899375632171246e-01,5.222084904722357679e-04,2.187192226870868228e-01,5.222084843942868598e-04,2.129443473257196795e-01,5.222081817255205078e-04
9.289199999999998454e+02,9.365999999999999091e+02,2.961532501827358055e-01,2.743136534625974766e-05,2.961532501827358055e-01,2.743136534625974766e-05,2.410046683996886485e-01,5.886380738417098168e-04,2.410046683996886485e-01,5.886380738417098168e-04,2.400208373437583698e-01,5.886380670033470415e-04,2.335900366785313986e-01,5.886377524613012032e-04
9.365999999999999091e+02,9.442799999999999727e+02,3.321188791507218019e-01,2.853396201390088227e-05,3.321188791507218019e-01,2.853396201390088227e-05,2.662850288391904741e-01,8.681927771835802393e-04,2.662850288391904741e-01,8.681927771835802393e-04,2.651642423393678061e-01,8.681927718265223430e-04,2.579457594953525890e-01,8.681925504087142096e-04
9.442799999999999727e+02,9.519600000000000364e+02,3.760123384895966980e-01,3.179062335231483302e-05,3.760123384895966980e-01,3.179062335231483302e-05,2.960419528130867617e-01,7.838508603421188341e-04,2.960419528130867617e-01,7.838508603421188341e-04,2.947517166820469159e-01,7.838508542967834863e-04,2.865739692132814875e-01,7.838505559133579883e-04
9.519600000000002638e+02,9.596400000000001000e+02,4.305607091010353882e-01,3.162301399747538468e-05,4.305607091010353882e-01,3.162301399747538468e-05,3.329574574299729028e-01,7.213519686680546893e-04,3.329574574299729028e-01,7.213519686680546893e-04,3.314537859171836631e-01,7.213519611108150245e-04,3.220804564499570311e-01,7.213516558121822958e-04
9.596400000000001000e+02,9.673199999999999363e+02,5.003621811808642850e-01,3.362730275358296792e-05,5.003621811808642850e-01,3.362730275358296792e-05,3.787126690220908865e-01,6.535874406968013870e-04,3.787126690220908865e-01,6.535874406968013870e-04,3.769309971533965076e-01,6.535874326734771944e-04,3.660296315247674737e-01,6.535870775143414781e-04
9.673199999999999363e+02,9.749999999999997726e+02,5.655477005722766570e-01,3.812230622077969570e-05,5.655477005722766570e-01,3.812230622077969570e-05,4.168529539798027095e-01,6.726703914883643996e-04,4.168529539798027095e-01,6.726703914883643996e-04,4.147945522510386729e-01,6.726703787144015225e-04,4.024633195988085443e-01,6.726698126323701205e-04
