# xl,xh,LO,dLO,LOISC,dLOISC,NLO,dNLO,NLOISC,dNLOISC,NLOL,dNLOL,NLOnovp,dNLOnovp
0.000000000000000000e+00,1.000000000000000000e+01,8.802440242463748232e-01,2.416709549632447545e-05,8.802440242463748232e-01,2.416709549632447545e-05,2.637824867375601068e-01,6.776864939303554707e-03,2.637824867375601068e-01,6.776864939303554707e-03,2.611876720788471329e-01,6.776864939027305197e-03,2.424875215943184115e-01,6.776864928563273646e-03
1.000000000000000000e+01,2.000000000000000000e+01,0.000000000000000000e+00,0.000000000000000000e+00,0.000000000000000000e+00,0.000000000000000000e+00,1.391615110422953772e-01,5.452908954515898630e-04,1.391615110422953772e-01,5.452908954515898630e-04,1.391615110422953772e-01,5.452908954515898630e-04,1.391615110422953772e-01,5.452908954515898630e-04
2.000000000000000000e+01,3.000000000000000000e+01,0.000000000000000000e+00,0.000000000000000000e+00,0.000000000000000000e+00,0.000000000000000000e+00,7.887059534864666877e-02,2.496462275816744951e-04,7.887059534864666877e-02,2.496462275816744951e-04,7.887059534864666877e-02,2.496462275816744951e-04,7.887059534864666877e-02,2.496462275816744951e-04
3.000000000000000000e+01,4.000000000000000000e+01,0.000000000000000000e+00,0.000000000000000000e+00,0.000000000000000000e+00,0.000000000000000000e+00,5.484513509109974205e-02,1.444946296554597189e-04,5.484513509109974205e-02,1.444946296554597189e-04,5.484513509109974205e-02,1.444946296554597189e-04,5.484513509109974205e-02,1.444946296554597189e-04
4.000000000000000000e+01,5.000000000000000000e+01,0.000000000000000000e+00,0.000000000000000000e+00,0.000000000000000000e+00,0.000000000000000000e+00,4.238252345945662386e-02,1.362090906986374668e-04,4.238252345945662386e-02,1.362090906986374668e-04,4.238252345945662386e-02,1.362090906986374668e-04,4.238252345945662386e-02,1.362090906986374668e-04
5.000000000000000000e+01,6.000000000000000000e+01,0.000000000000000000e+00,0.000000000000000000e+00,0.000000000000000000e+00,0.000000000000000000e+00,3.436507327477485857e-02,9.277546066894948470e-05,3.436507327477485857e-02,9.277546066894948470e-05,3.436507327477485857e-02,9.277546066894948470e-05,3.436507327477485857e-02,9.277546066894948470e-05
6.000000000000000000e+01,7.000000000000000000e+01,0.000000000000000000e+00,0.000000000000000000e+00,0.000000000000000000e+00,0.000000000000000000e+00,2.909152195993571638e-02,7.850974923275244870e-05,2.909152195993571638e-02,7.850974923275244870e-05,2.909152195993571638e-02,7.850974923275244870e-05,2.909152195993571638e-02,7.850974923275244870e-05
7.000000000000000000e+01,8.000000000000000000e+01,0.000000000000000000e+00,0.000000000000000000e+00,0.000000000000000000e+00,0.000000000000000000e+00,2.520443961350861753e-02,7.649468939055160596e-05,2.520443961350861753e-02,7.649468939055160596e-05,2.520443961350861753e-02,7.649468939055160596e-05,2.520443961350861753e-02,7.649468939055160596e-05
8.000000000000000000e+01,9.000000000000000000e+01,0.000000000000000000e+00,0.000000000000000000e+00,0.000000000000000000e+00,0.000000000000000000e+00,2.240441409696205741e-02,7.977848642147802817e-05,2.240441409696205741e-02,7.977848642147802817e-05,2.240441409696205741e-02,7.977848642147802817e-05,2.240441409696205741e-02,7.977848642147802817e-05
9.000000000000000000e+01,1.000000000000000000e+02,0.000000000000000000e+00,0.000000000000000000e+00,0.000000000000000000e+00,0.000000000000000000e+00,1.991967631872561262e-02,5.571811013821279706e-05,1.991967631872561262e-02,5.571811013821279706e-05,1.991967631872561262e-02,5.571811013821279706e-05,1.991967631872561262e-02,5.571811013821279706e-05
1.000000000000000000e+02,1.100000000000000000e+02,0.000000000000000000e+00,0.000000000000000000e+00,0.000000000000000000e+00,0.000000000000000000e+00,1.744459231728722262e-02,4.852110952525510860e-05,1.744459231728722262e-02,4.852110952525510860e-05,1.744459231728722262e-02,4.852110952525510860e-05,1.744459231728722262e-02,4.852110952525510860e-05
1.100000000000000000e+02,1.200000000000000000e+02,0.000000000000000000e+00,0.000000000000000000e+00,0.000000000000000000e+00,0.000000000000000000e+00,1.491640135422187333e-02,3.895300377552827521e-05,1.491640135422187333e-02,3.895300377552827521e-05,1.491640135422187333e-02,3.895300377552827521e-05,1.491640135422187333e-02,3.895300377552827521e-05
1.200000000000000000e+02,1.300000000000000000e+02,0.000000000000000000e+00,0.000000000000000000e+00,0.000000000000000000e+00,0.000000000000000000e+00,1.265606485005210322e-02,2.804365184616940715e-05,1.265606485005210322e-02,2.804365184616940715e-05,1.265606485005210322e-02,2.804365184616940715e-05,1.265606485005210322e-02,2.804365184616940715e-05
1.300000000000000000e+02,1.400000000000000000e+02,0.000000000000000000e+00,0.000000000000000000e+00,0.000000000000000000e+00,0.000000000000000000e+00,1.077304447832763169e-02,2.924111272645594012e-05,1.077304447832763169e-02,2.924111272645594012e-05,1.077304447832763169e-02,2.924111272645594012e-05,1.077304447832763169e-02,2.924111272645594012e-05
1.400000000000000000e+02,1.500000000000000000e+02,0.000000000000000000e+00,0.000000000000000000e+00,0.000000000000000000e+00,0.000000000000000000e+00,9.205222652781938630e-03,2.475049411569665365e-05,9.205222652781938630e-03,2.475049411569665365e-05,9.205222652781938630e-03,2.475049411569665365e-05,9.205222652781938630e-03,2.475049411569665365e-05
1.500000000000000000e+02,1.600000000000000000e+02,0.000000000000000000e+00,0.000000000000000000e+00,0.000000000000000000e+00,0.000000000000000000e+00,7.804861071230397192e-03,1.589775286575243724e-05,7.804861071230397192e-03,1.589775286575243724e-05,7.804861071230397192e-03,1.589775286575243724e-05,7.804861071230397192e-03,1.589775286575243724e-05
1.600000000000000000e+02,1.700000000000000000e+02,0.000000000000000000e+00,0.000000000000000000e+00,0.000000000000000000e+00,0.000000000000000000e+00,6.589353950469871261e-03,1.120288633253603877e-05,6.589353950469871261e-03,1.120288633253603877e-05,6.589353950469871261e-03,1.120288633253603877e-05,6.589353950469871261e-03,1.120288633253603877e-05
1.700000000000000000e+02,1.800000000000000000e+02,0.000000000000000000e+00,0.000000000000000000e+00,0.000000000000000000e+00,0.000000000000000000e+00,5.599729722965979088e-03,9.506789322141642748e-06,5.599729722965979088e-03,9.506789322141642748e-06,5.599729722965979088e-03,9.506789322141642748e-06,5.599729722965979088e-03,9.506789322141642748e-06
1.800000000000000000e+02,1.900000000000000000e+02,0.000000000000000000e+00,0.000000000000000000e+00,0.000000000000000000e+00,0.000000000000000000e+00,4.882066406478194863e-03,6.988763546552606425e-06,4.882066406478194863e-03,6.988763546552606425e-06,4.882066406478194863e-03,6.988763546552606425e-06,4.882066406478194863e-03,6.988763546552606425e-06
1.899999999999999716e+02,1.999999999999999716e+02,0.000000000000000000e+00,0.000000000000000000e+00,0.000000000000000000e+00,0.000000000000000000e+00,4.402352735056683924e-03,4.679348688901734164e-06,4.402352735056683924e-03,4.679348688901734164e-06,4.402352735056683924e-03,4.679348688901734164e-06,4.402352735056683924e-03,4.679348688901734164e-06
1.999999999999999716e+02,2.099999999999999716e+02,0.000000000000000000e+00,0.000000000000000000e+00,0.000000000000000000e+00,0.000000000000000000e+00,4.078411430820405061e-03,5.107891423560827881e-06,4.078411430820405061e-03,5.107891423560827881e-06,4.078411430820405061e-03,5.107891423560827881e-06,4.078411430820405061e-03,5.107891423560827881e-06
2.100000000000000000e+02,2.200000000000000000e+02,0.000000000000000000e+00,0.000000000000000000e+00,0.000000000000000000e+00,0.000000000000000000e+00,3.829485528509163610e-03,6.021860537304224794e-06,3.829485528509163610e-03,6.021860537304224794e-06,3.829485528509163610e-03,6.021860537304224794e-06,3.829485528509163610e-03,6.021860537304224794e-06
2.200000000000000000e+02,2.300000000000000000e+02,0.000000000000000000e+00,0.000000000000000000e+00,0.000000000000000000e+00,0.000000000000000000e+00,3.625742745034148465e-03,6.123041664809387431e-06,3.625742745034148465e-03,6.123041664809387431e-06,3.625742745034148465e-03,6.123041664809387431e-06,3.625742745034148465e-03,6.123041664809387431e-06
2.300000000000000000e+02,2.400000000000000000e+02,0.000000000000000000e+00,0.000000000000000000e+00,0.000000000000000000e+00,0.000000000000000000e+00,3.459280617149979031e-03,5.699395834600133792e-06,3.459280617149979031e-03,5.699395834600133792e-06,3.459280617149979031e-03,5.699395834600133792e-06,3.459280617149979031e-03,5.699395834600133792e-06
2.400000000000000000e+02,2.500000000000000000e+02,0.000000000000000000e+00,0.000000000000000000e+00,0.000000000000000000e+00,0.000000000000000000e+00,3.309947238389096807e-03,6.989204702939563085e-06,3.309947238389096807e-03,6.989204702939563085e-06,3.309947238389096807e-03,6.989204702939563085e-06,3.309947238389096807e-03,6.989204702939563085e-06
2.500000000000000000e+02,2.600000000000000000e+02,0.000000000000000000e+00,0.000000000000000000e+00,0.000000000000000000e+00,0.000000000000000000e+00,3.156545156818935192e-03,6.803029605742795856e-06,3.156545156818935192e-03,6.803029605742795856e-06,3.156545156818935192e-03,6.803029605742795856e-06,3.156545156818935192e-03,6.803029605742795856e-06
2.599999999999999432e+02,2.699999999999999432e+02,0.000000000000000000e+00,0.000000000000000000e+00,0.000000000000000000e+00,0.000000000000000000e+00,2.986731309164419607e-03,5.857418584825280818e-06,2.986731309164419607e-03,5.857418584825280818e-06,2.986731309164419607e-03,5.857418584825280818e-06,2.986731309164419607e-03,5.857418584825280818e-06
2.699999999999999432e+02,2.799999999999999432e+02,0.000000000000000000e+00,0.000000000000000000e+00,0.000000000000000000e+00,0.000000000000000000e+00,2.809425122038847721e-03,5.733757128875351347e-06,2.809425122038847721e-03,5.733757128875351347e-06,2.809425122038847721e-03,5.733757128875351347e-06,2.809425122038847721e-03,5.733757128875351347e-06
2.799999999999999432e+02,2.899999999999999432e+02,0.000000000000000000e+00,0.000000000000000000e+00,0.000000000000000000e+00,0.000000000000000000e+00,2.541951108526043380e-03,5.634613182266047944e-06,2.541951108526043380e-03,5.634613182266047944e-06,2.541951108526043380e-03,5.634613182266047944e-06,2.541951108526043380e-03,5.634613182266047944e-06
2.900000000000000000e+02,3.000000000000000000e+02,0.000000000000000000e+00,0.000000000000000000e+00,0.000000000000000000e+00,0.000000000000000000e+00,2.134114520644063775e-03,6.042077523326715879e-06,2.134114520644063775e-03,6.042077523326715879e-06,2.134114520644063775e-03,6.042077523326715879e-06,2.134114520644063775e-03,6.042077523326715879e-06
3.000000000000000000e+02,3.100000000000000000e+02,0.000000000000000000e+00,0.000000000000000000e+00,0.000000000000000000e+00,0.000000000000000000e+00,1.685524972166056734e-03,4.295409837617296004e-06,1.685524972166056734e-03,4.295409837617296004e-06,1.685524972166056734e-03,4.295409837617296004e-06,1.685524972166056734e-03,4.295409837617296004e-06
3.100000000000000000e+02,3.200000000000000000e+02,0.000000000000000000e+00,0.000000000000000000e+00,0.000000000000000000e+00,0.000000000000000000e+00,1.289304904481359398e-03,3.889166008193484674e-06,1.289304904481359398e-03,3.889166008193484674e-06,1.289304904481359398e-03,3.889166008193484674e-06,1.289304904481359398e-03,3.889166008193484674e-06
3.200000000000000000e+02,3.300000000000000000e+02,0.000000000000000000e+00,0.000000000000000000e+00,0.000000000000000000e+00,0.000000000000000000e+00,9.271464804931758494e-04,2.895460112753602458e-06,9.271464804931758494e-04,2.895460112753602458e-06,9.271464804931758494e-04,2.895460112753602458e-06,9.271464804931758494e-04,2.895460112753602458e-06
3.300000000000000000e+02,3.400000000000000000e+02,0.000000000000000000e+00,0.000000000000000000e+00,0.000000000000000000e+00,0.000000000000000000e+00,6.057154760243433668e-04,2.721749810448599424e-06,6.057154760243433668e-04,2.721749810448599424e-06,6.057154760243433668e-04,2.721749810448599424e-06,6.057154760243433668e-04,2.721749810448599424e-06
3.400000000000000000e+02,3.500000000000000000e+02,0.000000000000000000e+00,0.000000000000000000e+00,0.000000000000000000e+00,0.000000000000000000e+00,3.362018053566421085e-04,1.600828123122940945e-06,3.362018053566421085e-04,1.600828123122940945e-06,3.362018053566421085e-04,1.600828123122940945e-06,3.362018053566421085e-04,1.600828123122940945e-06
3.500000000000000000e+02,3.600000000000000000e+02,0.000000000000000000e+00,0.000000000000000000e+00,0.000000000000000000e+00,0.000000000000000000e+00,1.257857458477468476e-04,8.700500829320058285e-07,1.257857458477468476e-04,8.700500829320058285e-07,1.257857458477468476e-04,8.700500829320058285e-07,1.257857458477468476e-04,8.700500829320058285e-07
3.600000000000000000e+02,3.700000000000000000e+02,0.000000000000000000e+00,0.000000000000000000e+00,0.000000000000000000e+00,0.000000000000000000e+00,1.139917570504132708e-05,1.641515268903656714e-07,1.139917570504132708e-05,1.641515268903656714e-07,1.139917570504132708e-05,1.641515268903656714e-07,1.139917570504132708e-05,1.641515268903656714e-07
3.700000000000000568e+02,3.800000000000000568e+02,0.000000000000000000e+00,0.000000000000000000e+00,0.000000000000000000e+00,0.000000000000000000e+00,0.000000000000000000e+00,0.000000000000000000e+00,0.000000000000000000e+00,0.000000000000000000e+00,0.000000000000000000e+00,0.000000000000000000e+00,0.000000000000000000e+00,0.000000000000000000e+00
3.800000000000000568e+02,3.900000000000000568e+02,0.000000000000000000e+00,0.000000000000000000e+00,0.000000000000000000e+00,0.000000000000000000e+00,0.000000000000000000e+00,0.000000000000000000e+00,0.000000000000000000e+00,0.000000000000000000e+00,0.000000000000000000e+00,0.000000000000000000e+00,0.000000000000000000e+00,0.000000000000000000e+00
3.900000000000000568e+02,4.000000000000000568e+02,0.000000000000000000e+00,0.000000000000000000e+00,0.000000000000000000e+00,0.000000000000000000e+00,0.000000000000000000e+00,0.000000000000000000e+00,0.000000000000000000e+00,0.000000000000000000e+00,0.000000000000000000e+00,0.000000000000000000e+00,0.000000000000000000e+00,0.000000000000000000e+00
4.000000000000000568e+02,4.100000000000000568e+02,0.000000000000000000e+00,0.000000000000000000e+00,0.000000000000000000e+00,0.000000000000000000e+00,0.000000000000000000e+00,0.000000000000000000e+00,0.000000000000000000e+00,0.000000000000000000e+00,0.000000000000000000e+00,0.000000000000000000e+00,0.000000000000000000e+00,0.000000000000000000e+00
4.100000000000000000e+02,4.200000000000000000e+02,0.000000000000000000e+00,0.000000000000000000e+00,0.000000000000000000e+00,0.000000000000000000e+00,0.000000000000000000e+00,0.000000000000000000e+00,0.000000000000000000e+00,0.000000000000000000e+00,0.000000000000000000e+00,0.000000000000000000e+00,0.000000000000000000e+00,0.000000000000000000e+00
4.200000000000000000e+02,4.300000000000000000e+02,0.000000000000000000e+00,0.000000000000000000e+00,0.000000000000000000e+00,0.000000000000000000e+00,0.000000000000000000e+00,0.000000000000000000e+00,0.000000000000000000e+00,0.000000000000000000e+00,0.000000000000000000e+00,0.000000000000000000e+00,0.000000000000000000e+00,0.000000000000000000e+00
4.300000000000000000e+02,4.400000000000000000e+02,0.000000000000000000e+00,0.000000000000000000e+00,0.000000000000000000e+00,0.000000000000000000e+00,0.000000000000000000e+00,0.000000000000000000e+00,0.000000000000000000e+00,0.000000000000000000e+00,0.000000000000000000e+00,0.000000000000000000e+00,0.000000000000000000e+00,0.000000000000000000e+00
4.400000000000000000e+02,4.500000000000000000e+02,0.000000000000000000e+00,0.000000000000000000e+00,0.000000000000000000e+00,0.000000000000000000e+00,0.000000000000000000e+00,0.000000000000000000e+00,0.000000000000000000e+00,0.000000000000000000e+00,0.000000000000000000e+00,0.000000000000000000e+00,0.000000000000000000e+00,0.000000000000000000e+00
4.500000000000000000e+02,4.600000000000000000e+02,0.000000000000000000e+00,0.000000000000000000e+00,0.000000000000000000e+00,0.000000000000000000e+00,0.000000000000000000e+00,0.000000000000000000e+00,0.000000000000000000e+00,0.000000000000000000e+00,0.000000000000000000e+00,0.000000000000000000e+00,0.000000000000000000e+00,0.000000000000000000e+00
4.600000000000000000e+02,4.700000000000000000e+02,0.000000000000000000e+00,0.000000000000000000e+00,0.000000000000000000e+00,0.000000000000000000e+00,0.000000000000000000e+00,0.000000000000000000e+00,0.000000000000000000e+00,0.000000000000000000e+00,0.000000000000000000e+00,0.000000000000000000e+00,0.000000000000000000e+00,0.000000000000000000e+00
4.700000000000000000e+02,4.800000000000000000e+02,0.000000000000000000e+00,0.000000000000000000e+00,0.000000000000000000e+00,0.000000000000000000e+00,0.000000000000000000e+00,0.000000000000000000e+00,0.000000000000000000e+00,0.000000000000000000e+00,0.000000000000000000e+00,0.000000000000000000e+00,0.000000000000000000e+00,0.000000000000000000e+00
4.800000000000000000e+02,4.900000000000000000e+02,0.000000000000000000e+00,0.000000000000000000e+00,0.000000000000000000e+00,0.000000000000000000e+00,0.000000000000000000e+00,0.000000000000000000e+00,0.000000000000000000e+00,0.000000000000000000e+00,0.000000000000000000e+00,0.000000000000000000e+00,0.000000000000000000e+00,0.000000000000000000e+00
4.900000000000000000e+02,5.000000000000000000e+02,0.000000000000000000e+00,0.000000000000000000e+00,0.000000000000000000e+00,0.000000000000000000e+00,0.000000000000000000e+00,0.000000000000000000e+00,0.000000000000000000e+00,0.000000000000000000e+00,0.000000000000000000e+00,0.000000000000000000e+00,0.000000000000000000e+00,0.000000000000000000e+00
