# xl,xh,LO,dLO,LOISC,dLOISC,NLO,dNLO,NLOISC,dNLOISC,NLOL,dNLOL,NLOnovp,dNLOnovp
2.000000000000000000e+02,2.050000000000000000e+02,0.000000000000000000e+00,0.000000000000000000e+00,0.000000000000000000e+00,0.000000000000000000e+00,0.000000000000000000e+00,0.000000000000000000e+00,0.000000000000000000e+00,0.000000000000000000e+00,0.000000000000000000e+00,0.000000000000000000e+00,0.000000000000000000e+00,0.000000000000000000e+00
2.050000000000000000e+02,2.100000000000000000e+02,0.000000000000000000e+00,0.000000000000000000e+00,0.000000000000000000e+00,0.000000000000000000e+00,0.000000000000000000e+00,0.000000000000000000e+00,0.000000000000000000e+00,0.000000000000000000e+00,0.000000000000000000e+00,0.000000000000000000e+00,0.000000000000000000e+00,0.000000000000000000e+00
2.100000000000000000e+02,2.150000000000000000e+02,0.000000000000000000e+00,0.000000000000000000e+00,0.000000000000000000e+00,0.000000000000000000e+00,0.000000000000000000e+00,0.000000000000000000e+00,0.000000000000000000e+00,0.000000000000000000e+00,0.000000000000000000e+00,0.000000000000000000e+00,0.000000000000000000e+00,0.000000000000000000e+00
2.150000000000000000e+02,2.200000000000000000e+02,0.000000000000000000e+00,0.000000000000000000e+00,0.000000000000000000e+00,0.000000000000000000e+00,0.000000000000000000e+00,0.000000000000000000e+00,0.000000000000000000e+00,0.000000000000000000e+00,0.000000000000000000e+00,0.000000000000000000e+00,0.000000000000000000e+00,0.000000000000000000e+00
2.200000000000000000e+02,2.250000000000000000e+02,0.000000000000000000e+00,0.000000000000000000e+00,0.000000000000000000e+00,0.000000000000000000e+00,0.000000000000000000e+00,0.000000000000000000e+00,0.000000000000000000e+00,0.000000000000000000e+00,0.000000000000000000e+00,0.000000000000000000e+00,0.000000000000000000e+00,0.000000000000000000e+00
2.250000000000000000e+02,2.300000000000000000e+02,0.000000000000000000e+00,0.000000000000000000e+00,0.000000000000000000e+00,0.000000000000000000e+00,9.714339020061584627e-08,2.068905608658795179e-08,9.714339020061584627e-08,2.068905608658795179e-08,9.714339020061584627e-08,2.068905608658795179e-08,9.714339020061584627e-08,2.068905608658795179e-08
2.300000000000000000e+02,2.350000000000000000e+02,0.000000000000000000e+00,0.000000000000000000e+00,0.000000000000000000e+00,0.000000000000000000e+00,5.312443765337107673e-06,6.251524682854903526e-07,5.312443765337107673e-06,6.251524682854903526e-07,5.312443765337107673e-06,6.251524682854903526e-07,5.312443765337107673e-06,6.251524682854903526e-07
2.350000000000000000e+02,2.400000000000000000e+02,0.000000000000000000e+00,0.000000000000000000e+00,0.000000000000000000e+00,0.000000000000000000e+00,3.043075708911659977e-05,9.991242091769046682e-07,3.043075708911659977e-05,9.991242091769046682e-07,3.043075708911659977e-05,9.991242091769046682e-07,3.043075708911659977e-05,9.991242091769046682e-07
2.400000000000000000e+02,2.450000000000000000e+02,0.000000000000000000e+00,0.000000000000000000e+00,0.000000000000000000e+00,0.000000000000000000e+00,7.659237170655015727e-05,1.455897797739207410e-06,7.659237170655015727e-05,1.455897797739207410e-06,7.659237170655015727e-05,1.455897797739207410e-06,7.659237170655015727e-05,1.455897797739207410e-06
2.450000000000000000e+02,2.500000000000000000e+02,4.635095986486095630e-06,4.429130371384341337e-07,4.635095986486095630e-06,4.429130371384341337e-07,1.660137343696333118e-04,2.137694769224342884e-06,1.660137343696333118e-04,2.137694769224342884e-06,1.660074621032818260e-04,2.137694636758638609e-06,1.658978912727717054e-04,2.137667615023775613e-06
2.500000000000000000e+02,2.550000000000000000e+02,4.389219363768795526e-05,1.280169241822708868e-06,4.389219363768795526e-05,1.280169241822708868e-06,3.535252794746990127e-04,4.098823502918241693e-06,3.535252794746990127e-04,4.098823502918241693e-06,3.534488995974717864e-04,4.098822427829782037e-06,3.525783448987408991e-04,4.098754572756074738e-06
2.550000000000000000e+02,2.600000000000000000e+02,1.728418127239560263e-04,2.115429305889947876e-06,1.728418127239560263e-04,2.115429305889947876e-06,7.060395313883657039e-04,9.013939329838743084e-06,7.060395313883657039e-04,9.013939329838743084e-06,7.056702879719491681e-04,9.013936705049612261e-06,7.021390445332501961e-04,9.013823594085513724e-06
2.600000000000000000e+02,2.650000000000000000e+02,4.436053395365381190e-04,2.873562369795551636e-06,4.436053395365381190e-04,2.873562369795551636e-06,1.354727682474651676e-03,1.719135971944868135e-05,1.354727682474651676e-03,1.719135971944868135e-05,1.353739913947600180e-03,1.719135794473646822e-05,1.344512825055856065e-03,1.719125139792500808e-05
2.650000000000000000e+02,2.700000000000000000e+02,8.854084108699411147e-04,3.828944743920774874e-06,8.854084108699411147e-04,3.828944743920774874e-06,2.341573331030579255e-03,2.330406366456692392e-05,2.341573331030579255e-03,2.330406366456692392e-05,2.339552593650551411e-03,2.330406170583338438e-05,2.321704675571561322e-03,2.330396253237528305e-05
2.700000000000000000e+02,2.750000000000000000e+02,1.520225082683182398e-03,4.647336846682629354e-06,1.520225082683182398e-03,4.647336846682629354e-06,3.652952690548785363e-03,2.805696009130102049e-05,3.652952690548785363e-03,2.805696009130102049e-05,3.649374105579810887e-03,2.805695789761390418e-05,3.618481827648773082e-03,2.805684131052208630e-05
2.750000000000000000e+02,2.800000000000000000e+02,2.476406861542301482e-03,5.266003516600695974e-06,2.476406861542301482e-03,5.266003516600695974e-06,5.537942389594482234e-03,5.145328402992024663e-05,5.537942389594482234e-03,5.145328402992024663e-05,5.531949251748449758e-03,5.145328236019885829e-05,5.481598186658005745e-03,5.145317199703788581e-05
2.800000000000000000e+02,2.850000000000000000e+02,3.981634633476202438e-03,6.241915773742311561e-06,3.981634633476202438e-03,6.241915773742311561e-06,8.184011945554937884e-03,5.964839285249904852e-05,8.184011945554937884e-03,5.964839285249904852e-05,8.174161325547150969e-03,5.964839064838414008e-05,8.092707446210854055e-03,5.964825821270695563e-05
2.850000000000000000e+02,2.900000000000000000e+02,7.145343053274407635e-03,9.505793668423118380e-06,7.145343053274407635e-03,9.505793668423118380e-06,1.287890755432669759e-02,8.485477844039706024e-05,1.287890755432669759e-02,8.485477844039706024e-05,1.286099903634459543e-02,8.485477532379832497e-05,1.271562352932585453e-02,8.485461108641649249e-05
2.900000000000000000e+02,2.950000000000000000e+02,1.911601404255226441e-02,1.716861540554924254e-05,1.911601404255226441e-02,1.716861540554924254e-05,2.454072881764839467e-02,1.197148304671921790e-04,2.454072881764839467e-02,1.197148304671921790e-04,2.449256401823002305e-02,1.197148245965357468e-04,2.410488086637557412e-02,1.197144724339821252e-04
2.950000000000000000e+02,3.000000000000000000e+02,3.708626160877034200e-02,2.104708546216775534e-05,3.708626160877034200e-02,2.104708546216775534e-05,4.068350341288417410e-02,1.886994497109455019e-04,4.068350341288417410e-02,1.886994497109455019e-04,4.058902713187831357e-02,1.886994429722134794e-04,3.983572714698991463e-02,1.886990107319510982e-04
3.000000000000000000e+02,3.050000000000000000e+02,4.522402963665371478e-02,1.847419246946676574e-05,4.522402963665371478e-02,1.847419246946676574e-05,4.920693672067243812e-02,3.175839249687109167e-04,4.920693672067243812e-02,3.175839249687109167e-04,4.908873038891755497e-02,3.175839207412619594e-04,4.816663080884352882e-02,3.175837025048494568e-04
3.050000000000000000e+02,3.100000000000000000e+02,5.166288012207646829e-02,1.737818897579448073e-05,5.166288012207646829e-02,1.737818897579448073e-05,5.627314867022975564e-02,2.468789548701642920e-04,5.627314867022975564e-02,2.468789548701642920e-04,5.613421466220590988e-02,2.468789497635840401e-04,5.507679917103623646e-02,2.468786900769488887e-04
3.100000000000000000e+02,3.150000000000000000e+02,5.826963411974939167e-02,1.818274561744063944e-05,5.826963411974939167e-02,1.818274561744063944e-05,6.291965145601735587e-02,2.825312619789493670e-04,6.291965145601735587e-02,2.825312619789493670e-04,6.275879964925967780e-02,2.825312567849788421e-04,6.156433210782992493e-02,2.825309757965062808e-04
3.150000000000000000e+02,3.200000000000000000e+02,6.519166189674020784e-02,1.902802579015677175e-05,6.519166189674020784e-02,1.902802579015677175e-05,7.010396466937304782e-02,2.540246099664839985e-04,7.010396466937304782e-02,2.540246099664839985e-04,6.991867811882157557e-02,2.540246035492956574e-04,6.857752667892348664e-02,2.540242820902525707e-04
3.200000000000000000e+02,3.250000000000000000e+02,7.272412358902215213e-02,2.117440946303630320e-05,7.272412358902215213e-02,2.117440946303630320e-05,7.736875757810036947e-02,2.391332194451971913e-04,7.736875757810036947e-02,2.391332194451971913e-04,7.715655228541389021e-02,2.391332110684217082e-04,7.565691833981967596e-02,2.391328690132036282e-04
3.250000000000000000e+02,3.300000000000000000e+02,8.112804395584254091e-02,2.119867311357464344e-05,8.112804395584254091e-02,2.119867311357464344e-05,8.612513662056664465e-02,3.535566265817428042e-04,8.612513662056664465e-02,3.535566265817428042e-04,8.588276496567501250e-02,3.535566204810587187e-04,8.420774581705633977e-02,3.535563536229100216e-04
3.300000000000000000e+02,3.350000000000000000e+02,9.047526528114062383e-02,2.436688879960825281e-05,9.047526528114062383e-02,2.436688879960825281e-05,9.482745593229642556e-02,3.104050781911008722e-04,9.482745593229642556e-02,3.104050781911008722e-04,9.455199325975018054e-02,3.104050702146551421e-04,9.267775433567944365e-02,3.104047008804703247e-04
3.350000000000000000e+02,3.400000000000000000e+02,1.010694557523476173e-01,2.387566341344044877e-05,1.010694557523476173e-01,2.387566341344044877e-05,1.057668680999151595e-01,2.957126360299169973e-04,1.057668680999151595e-01,2.957126360299169973e-04,1.054559788751536636e-01,2.957126254404489471e-04,1.033590460368742220e-01,2.957122049576636378e-04
3.400000000000000000e+02,3.450000000000000000e+02,1.133049040200538593e-01,2.502143382534219966e-05,1.133049040200538593e-01,2.502143382534219966e-05,1.167114613375128535e-01,4.846501142707109930e-04,1.167114613375128535e-01,4.846501142707109930e-04,1.163633269342954774e-01,4.846501078911189886e-04,1.140073754865058853e-01,4.846498146786073721e-04
3.450000000000000000e+02,3.500000000000000000e+02,1.276548171129656128e-01,2.596864312594410071e-05,1.276548171129656128e-01,2.596864312594410071e-05,1.308128387853362828e-01,4.779285347168654805e-04,1.308128387853362828e-01,4.779285347168654805e-04,1.304302932787658464e-01,4.779285281138868999e-04,1.277731003402793608e-01,4.779282079608049034e-04
3.500000000000000000e+02,3.550000000000000000e+02,1.449045020521711191e-01,2.949329471158331024e-05,1.449045020521711191e-01,2.949329471158331024e-05,1.469193244279477784e-01,3.187740290005533906e-04,1.469193244279477784e-01,3.187740290005533906e-04,1.465188050276820808e-01,3.187740187614261905e-04,1.434974854684563372e-01,3.187734916172701733e-04
3.550000000000000000e+02,3.600000000000000000e+02,1.660826854409142572e-01,2.917854517450692550e-05,1.660826854409142572e-01,2.917854517450692550e-05,1.660297356196003549e-01,3.680826749267693569e-04,1.660297356196003549e-01,3.680826749267693569e-04,1.656016627689572140e-01,3.680826652260975589e-04,1.621365833019960956e-01,3.680821452841399064e-04
3.600000000000000000e+02,3.650000000000000000e+02,1.927133274569085009e-01,3.270029838925558722e-05,1.927133274569085009e-01,3.270029838925558722e-05,1.901160321367704742e-01,3.869956185437369045e-04,1.901160321367704742e-01,3.869956185437369045e-04,1.896455354099357282e-01,3.869956081911867614e-04,1.856206647792942310e-01,3.869950375908318726e-04
3.650000000000000000e+02,3.700000000000000000e+02,2.273603683138866183e-01,3.484759521681129102e-05,2.273603683138866183e-01,3.484759521681129102e-05,2.210554510010024343e-01,6.610445405568434905e-04,2.210554510010024343e-01,6.610445405568434905e-04,2.205201940090155965e-01,6.610445348662684177e-04,2.157689517677720548e-01,6.610441289907357989e-04
3.700000000000000000e+02,3.750000000000000000e+02,2.748986464800290963e-01,3.613877623044929409e-05,2.748986464800290963e-01,3.613877623044929409e-05,2.620931009030402214e-01,6.261435446206662855e-04,2.620931009030402214e-01,6.261435446206662855e-04,2.614573818301984542e-01,6.261435368334019626e-04,2.557153077096080418e-01,6.261430582622948488e-04
3.750000000000000000e+02,3.800000000000000000e+02,3.446052786055328054e-01,4.200309133816941331e-05,3.446052786055328054e-01,4.200309133816941331e-05,3.183595207960632223e-01,7.323871323783597183e-04,3.183595207960632223e-01,7.323871323783597183e-04,3.175599392052573799e-01,7.323871239762258034e-04,3.103669196333329050e-01,7.323865676159437401e-04
3.800000000000000000e+02,3.850000000000000000e+02,4.532227176848181993e-01,5.497655232838341165e-05,4.532227176848181993e-01,5.497655232838341165e-05,3.949808884593229430e-01,8.314444637534290812e-04,3.949808884593229430e-01,8.314444637534290812e-04,3.938983258425353684e-01,8.314444520852578777e-04,3.844498027551408459e-01,8.314437859641574330e-04
3.850000000000000000e+02,3.900000000000000000e+02,4.992181935624743216e-01,5.255191587302740768e-05,4.992181935624743216e-01,5.255191587302740768e-05,4.198145197745200563e-01,9.992637566752005963e-04,4.198145197745200563e-01,9.992637566752005963e-04,4.185714870856838687e-01,9.992637462410852191e-04,4.081372258344704851e-01,9.992630319967928196e-04
3.900000000000000000e+02,3.950000000000000000e+02,4.800169060857157333e-01,4.982091870006938875e-05,4.800169060857157333e-01,4.982091870006938875e-05,4.016309612088252989e-01,6.399049199383942919e-04,4.016309612088252989e-01,6.399049199383942919e-04,4.003792888354864021e-01,6.399049043257102947e-04,3.902922214858812189e-01,6.399040898751858029e-04
3.950000000000000000e+02,4.000000000000000000e+02,4.594925095030990558e-01,4.618852800949537141e-05,4.594925095030990558e-01,4.618852800949537141e-05,3.829179074777279146e-01,7.953963891783644201e-04,3.829179074777279146e-01,7.953963891783644201e-04,3.816665385924982723e-01,7.953963775343365558e-04,3.719576342845946626e-01,7.953957308122174474e-04
4.000000000000000000e+02,4.050000000000000000e+02,4.400513996714144338e-01,4.595871629004914794e-05,4.400513996714144338e-01,4.595871629004914794e-05,3.654041978567733051e-01,6.654517684556745909e-04,3.654041978567733051e-01,6.654517684556745909e-04,3.641535969484082647e-01,6.654517542207523222e-04,3.548040897647781744e-01,6.654511565681610601e-04
4.050000000000000000e+02,4.100000000000000000e+02,4.215797280161811544e-01,4.225563807430980038e-05,4.215797280161811544e-01,4.225563807430980038e-05,3.482992152307249345e-01,7.205169819163869966e-04,3.482992152307249345e-01,7.205169819163869966e-04,3.470502350763940980e-01,7.205169689599794569e-04,3.380421090136472850e-01,7.205163704187217757e-04
4.100000000000000000e+02,4.150000000000000000e+02,4.042656163825548710e-01,4.111543066296361251e-05,4.042656163825548710e-01,4.111543066296361251e-05,3.326239777650095708e-01,5.152317626985542702e-04,3.326239777650095708e-01,5.152317626985542702e-04,3.313771590174621751e-01,5.152317445155365702e-04,3.226929008564267676e-01,5.152309824623383565e-04
4.150000000000000000e+02,4.200000000000000000e+02,3.877507728505479312e-01,4.193578129165873334e-05,3.877507728505479312e-01,4.193578129165873334e-05,3.177131911025088962e-01,5.566557118789180938e-04,3.177131911025088962e-01,5.566557118789180938e-04,3.164692609074954421e-01,5.566556977241298582e-04,3.080933535295982684e-01,5.566551166510541344e-04
4.200000000000000000e+02,4.250000000000000000e+02,3.720420471600386914e-01,3.563301342710290404e-05,3.720420471600386914e-01,3.563301342710290404e-05,3.038953602698802325e-01,5.559326707176362459e-04,3.038953602698802325e-01,5.559326707176362459e-04,3.026554988239555377e-01,5.559326560842446337e-04,2.945750751517400845e-01,5.559320299798137461e-04
4.250000000000000000e+02,4.300000000000000000e+02,3.570405212782495896e-01,3.734771239995969560e-05,3.570405212782495896e-01,3.734771239995969560e-05,2.895387432718749543e-01,6.669651552269533022e-04,2.895387432718749543e-01,6.669651552269533022e-04,2.883036523653221272e-01,6.669651424473868346e-04,2.805066483474554229e-01,6.669646701597128045e-04
4.300000000000000000e+02,4.350000000000000000e+02,3.426193201158939661e-01,3.435627516648509825e-05,3.426193201158939661e-01,3.435627516648509825e-05,2.759578790002344961e-01,4.994415154953159124e-04,2.759578790002344961e-01,4.994415154953159124e-04,2.747291259664749186e-01,4.994414996317094770e-04,2.672061441758259992e-01,4.994409498175013179e-04
4.350000000000000000e+02,4.400000000000000000e+02,3.287237611073771104e-01,3.419999308596329896e-05,3.287237611073771104e-01,3.419999308596329896e-05,2.630967833323011318e-01,4.590968792544855006e-04,2.630967833323011318e-01,4.590968792544855006e-04,2.618763389550498588e-01,4.590968616158160585e-04,2.546198919926688786e-01,4.590962300597886941e-04
4.400000000000000000e+02,4.450000000000000000e+02,3.151909529961042233e-01,3.539337556190623842e-05,3.151909529961042233e-01,3.539337556190623842e-05,2.509392667197828386e-01,5.532787455847389515e-04,2.509392667197828386e-01,5.532787455847389515e-04,2.497287140504832470e-01,5.532787325534720222e-04,2.427341034195801273e-01,5.532782309144607677e-04
4.450000000000000000e+02,4.500000000000000000e+02,3.017041077023204787e-01,3.201111570742862613e-05,3.017041077023204787e-01,3.201111570742862613e-05,2.379867564780277500e-01,4.792205007247165010e-04,2.379867564780277500e-01,4.792205007247165010e-04,2.367898039237252561e-01,4.792204856856579608e-04,2.300587442063288246e-01,4.792199770615911602e-04
4.500000000000000000e+02,4.550000000000000000e+02,2.881344358131774919e-01,2.893355918001808076e-05,2.881344358131774919e-01,2.893355918001808076e-05,2.259371378288805854e-01,7.574891054701977586e-04,2.259371378288805854e-01,7.574891054701977586e-04,2.247575484761059894e-01,7.574890968911172787e-04,2.182947737778776487e-01,7.574887505684642147e-04
4.550000000000000000e+02,4.600000000000000000e+02,2.740126754257742880e-01,3.090977675688218824e-05,2.740126754257742880e-01,3.090977675688218824e-05,2.121635271670459510e-01,4.639094974968328801e-04,2.121635271670459510e-01,4.639094974968328801e-04,2.110073086834652056e-01,4.639094836968372828e-04,2.048290630413162061e-01,4.639089831652582082e-04
4.600000000000000000e+02,4.650000000000000000e+02,2.588349722153853172e-01,2.799778296899249719e-05,2.588349722153853172e-01,2.799778296899249719e-05,1.987783722229136962e-01,4.786334708526932707e-04,1.987783722229136962e-01,4.786334708526932707e-04,1.976543128830240414e-01,4.786334568938309928e-04,1.917881409770925139e-01,4.786330293384030818e-04
4.650000000000000000e+02,4.700000000000000000e+02,2.416057491759690257e-01,2.669689808191535999e-05,2.416057491759690257e-01,2.669689808191535999e-05,1.835138156733648052e-01,5.163938708052017920e-04,1.835138156733648052e-01,5.163938708052017920e-04,1.824355670887790881e-01,5.163938601111319219e-04,1.769328900499188006e-01,5.163934860581364215e-04
4.700000000000000000e+02,4.750000000000000000e+02,2.204472066891120519e-01,2.485928807706028757e-05,2.204472066891120519e-01,2.485928807706028757e-05,1.641954666726695156e-01,4.493488693731441884e-04,1.641954666726695156e-01,4.493488693731441884e-04,1.631858100223889108e-01,4.493488580184159956e-04,1.581405905222385000e-01,4.493484841135069537e-04
4.750000000000000000e+02,4.800000000000000000e+02,1.915990219384013094e-01,2.164833940636294590e-05,1.915990219384013094e-01,2.164833940636294590e-05,1.407365608418737202e-01,3.027952963998657688e-04,1.407365608418737202e-01,3.027952963998657688e-04,1.398375438445167152e-01,3.027952829349845405e-04,1.354313688494786505e-01,3.027948208405675562e-04
4.800000000000000000e+02,4.850000000000000000e+02,1.434364727833921660e-01,1.849979491478971705e-05,1.434364727833921660e-01,1.849979491478971705e-05,1.032246680118261706e-01,2.833785199538318175e-04,1.032246680118261706e-01,2.833785199538318175e-04,1.025367869620773115e-01,2.833785094577966784e-04,9.922267962684643006e-02,2.833781797090858656e-04
4.850000000000000000e+02,4.900000000000000000e+02,3.906130221927723439e-02,1.117055739491007048e-05,3.906130221927723439e-02,1.117055739491007048e-05,2.931773576030053188e-02,1.170930357141030195e-04,2.931773576030053188e-02,1.170930357141030195e-04,2.912777490503030281e-02,1.170930265194774627e-04,2.822248873109223580e-02,1.170927057393278951e-04
4.900000000000000000e+02,4.950000000000000000e+02,6.238313734506022949e-04,1.952550310402809599e-06,6.238313734506022949e-04,1.952550310402809599e-06,5.866353005371001536e-04,1.150302232289032152e-05,5.866353005371001536e-04,1.150302232289032152e-05,5.835753790147535239e-04,1.150301953961518527e-05,5.691003125256738609e-04,1.150290141241353933e-05
4.950000000000000000e+02,5.000000000000000000e+02,0.000000000000000000e+00,0.000000000000000000e+00,0.000000000000000000e+00,0.000000000000000000e+00,0.000000000000000000e+00,0.000000000000000000e+00,0.000000000000000000e+00,0.000000000000000000e+00,0.000000000000000000e+00,0.000000000000000000e+00,0.000000000000000000e+00,0.000000000000000000e+00
