# xl,xh,LO,dLO,LOISC,dLOISC,NLO,dNLO,NLOISC,dNLOISC,NLOL,dNLOL,NLOnovp,dNLOnovp
5.910000000000000000e+02,5.986800000000000637e+02,1.649030894229830705e-03,1.067987226506134392e-06,1.645734202475519683e-03,1.066557278576097934e-06,1.821926446901916919e-03,1.253849732092807655e-06,1.807144435052706645e-03,1.214063349088230848e-06,1.842532636819122415e-03,1.253774833877063275e-06,1.806716212801271924e-03,1.253567361858061135e-06
5.986800000000000637e+02,6.063599999999999000e+02,1.924414913333291535e-03,9.259865266994709601e-07,1.920394462616668027e-03,9.243876930386429435e-07,2.110117687913686414e-03,1.118760786920304725e-06,2.094159389959810488e-03,1.069544564564627470e-06,2.135097108492678680e-03,1.118692116749276842e-06,2.093168062892213858e-03,1.118486530363484090e-06
6.063600000000001273e+02,6.140399999999999636e+02,2.061012393299111248e-03,7.828105170551768669e-07,2.056691984673367397e-03,7.810219868557415505e-07,2.245397555992455305e-03,1.014765778573746831e-06,2.229757147908678107e-03,9.595279824653232160e-07,2.273231107011622343e-03,1.014691182387672781e-06,2.228116047128557604e-03,1.014519999743156431e-06
6.140399999999999636e+02,6.217200000000000273e+02,2.200501631867700196e-03,7.680669780833411245e-07,2.195692867594622837e-03,7.664666140908538190e-07,2.382091955682151714e-03,9.846534627328692422e-07,2.366495394482400882e-03,9.268569990565036047e-07,2.413229766475240290e-03,9.845848893275582214e-07,2.364887549720589340e-03,9.844319438980965289e-07
6.217200000000000273e+02,6.293999999999998636e+02,2.340005698551107186e-03,7.249245191404110007e-07,2.334733272809885220e-03,7.235180535405368159e-07,2.518208820117027319e-03,1.021188043667259306e-06,2.503248639239953090e-03,9.457306144151585772e-07,2.552872516223705143e-03,1.021116591984321314e-06,2.501305708076213656e-03,1.020985272188221508e-06
6.294000000000000909e+02,6.370799999999999272e+02,2.481322285324060167e-03,7.411547548526627279e-07,2.475567284697619344e-03,7.396107745550582472e-07,2.656159036964880760e-03,9.917662479278143050e-07,2.641326424043903554e-03,8.887645960580799588e-07,2.694514980179280473e-03,9.916921452635682316e-07,2.639654887482536204e-03,9.915422555340409566e-07
6.370799999999999272e+02,6.447599999999999909e+02,2.622632488068127321e-03,7.684218775744847183e-07,2.616405042513983686e-03,7.671280466813552286e-07,2.794023052040174333e-03,1.013864161932403129e-06,2.779459771796009664e-03,9.169885193291712261e-07,2.836310430814659861e-03,1.013785352250521166e-06,2.778037391261708056e-03,1.013648298243372042e-06
6.447599999999999909e+02,6.524400000000000546e+02,2.768853773991271187e-03,8.250895904646062340e-07,2.762068356207527785e-03,8.235795847077138085e-07,2.935052643633210157e-03,1.020514875979439946e-06,2.921399311277259048e-03,9.614974726536673578e-07,2.981484066835607318e-03,1.020422148109143886e-06,2.919792802349617349e-03,1.020264659243927084e-06
6.524400000000000546e+02,6.601199999999998909e+02,2.916568098696706648e-03,8.311199316032897485e-07,2.909256295052622347e-03,8.297372865409739159e-07,3.077891586139795254e-03,1.034343423503460355e-06,3.064889585244057538e-03,9.814696887933117815e-07,3.128610641010259180e-03,1.034245243173502301e-06,3.063417106866512737e-03,1.034046231833470532e-06
6.601200000000001182e+02,6.677999999999999545e+02,3.067198369911467923e-03,8.383035806977557240e-07,3.059309893193111560e-03,8.369142720907173144e-07,3.222280035878479984e-03,1.076680161477398706e-06,3.210244535641876458e-03,1.005025607091669022e-06,3.277783276335983868e-03,1.076581280078815205e-06,3.208950294878630972e-03,1.076424701762073537e-06
6.677999999999999545e+02,6.754800000000000182e+02,3.218613246559358810e-03,8.951925371824097651e-07,3.210045476267426451e-03,8.937781417183451703e-07,3.367269493514081155e-03,1.136218398468382172e-06,3.355937292855626277e-03,1.069435149804607825e-06,3.427766529518530645e-03,1.136103277808617400e-06,3.355244883040266191e-03,1.135897434703006439e-06
6.754800000000000182e+02,6.831599999999998545e+02,3.379884204787313075e-03,8.758955821241877515e-07,3.370702177073348332e-03,8.741492178863112887e-07,3.521730080120252272e-03,1.136906734116843052e-06,3.511600192845126291e-03,1.083986070568878331e-06,3.586963835955260180e-03,1.136779273352571061e-06,3.510649093637512042e-03,1.136581732763967880e-06
6.831600000000000819e+02,6.908399999999999181e+02,3.542782844116288549e-03,9.469548461453848364e-07,3.532734536379129094e-03,9.454052701244765086e-07,3.678144416072281608e-03,1.169921978936915331e-06,3.668417520672888690e-03,1.107832542542400828e-06,3.748048262895998725e-03,1.169802652654345754e-06,3.667836787531210656e-03,1.169583802677044971e-06
6.908399999999999181e+02,6.985199999999999818e+02,3.709891270428035751e-03,9.323244107975933111e-07,3.699034028950677708e-03,9.303793474936257718e-07,3.837789415850734794e-03,1.161171534687332581e-06,3.828879933119153436e-03,1.090108951854557689e-06,3.912541677082916926e-03,1.161043183870844980e-06,3.828176778859817327e-03,1.160806629427577762e-06
6.985199999999999818e+02,7.062000000000000455e+02,3.881964952284158547e-03,1.008672250910533632e-06,3.870427013975994909e-03,1.006859354675826615e-06,4.003565598456740489e-03,1.261609077466339196e-06,3.996019237799147521e-03,1.194313465051003005e-06,4.081292207136593721e-03,1.261481823005785168e-06,3.992687931299857516e-03,1.261285682181611534e-06
7.062000000000000455e+02,7.138799999999998818e+02,4.062367245198029303e-03,9.857805309207479420e-07,4.049985402818405238e-03,9.838188022338982219e-07,4.177312835282851432e-03,1.240187726550397297e-06,4.171865433035799355e-03,1.166450091910712757e-06,4.256924865678880614e-03,1.240055995850651186e-06,4.163987231122071205e-03,1.239854281467681029e-06
7.138799999999998818e+02,7.215599999999999454e+02,4.248938305275670041e-03,9.930056821377876198e-07,4.235697157111740357e-03,9.910624148887352946e-07,4.359255096979508005e-03,1.262440742969481048e-06,4.355294400009881127e-03,1.179306281936944117e-06,4.439266025912049288e-03,1.262310479721872576e-06,4.341726005002903219e-03,1.262106041207666593e-06
7.215599999999999454e+02,7.292400000000000091e+02,4.442828639405167930e-03,1.007774079109104412e-06,4.428522730365233410e-03,1.005482022895142464e-06,4.549211409639229708e-03,1.303536381156239925e-06,4.546429067401121411e-03,1.230741952515409022e-06,4.627720469863945592e-03,1.303412012494946169e-06,4.525415374452616997e-03,1.303179866412258655e-06
7.292400000000000091e+02,7.369199999999998454e+02,4.647061542114450626e-03,1.075035017462614826e-06,4.631724436197291218e-03,1.072784552702961745e-06,4.750983544347525678e-03,1.374619377616139204e-06,4.749984500994637766e-03,1.242421334138864963e-06,4.826241965658261898e-03,1.374515577094356928e-06,4.718947745653465434e-03,1.374295897208223314e-06
7.369199999999998454e+02,7.445999999999999091e+02,4.860895116759367425e-03,1.054033146717665340e-06,4.844347993311783236e-03,1.052002683791165978e-06,4.963227101947985387e-03,1.331529339244673193e-06,4.964749030941432648e-03,1.232278621336624334e-06,5.032124186273286524e-03,1.331427472374460765e-06,4.919566188187546492e-03,1.331209423564317958e-06
7.446000000000001364e+02,7.522800000000002001e+02,5.084607623709247112e-03,1.105041448183836867e-06,5.066919667494908762e-03,1.102802619073870087e-06,5.187233968233794651e-03,1.374780163551144316e-06,5.190702487626592046e-03,1.285298366147930284e-06,5.247930912524671754e-03,1.374709583809081294e-06,5.129840045801014117e-03,1.374480175906089682e-06
7.522799999999999727e+02,7.599599999999998090e+02,5.317389766466602483e-03,1.129978613054159507e-06,5.298432623890495310e-03,1.127718433536371196e-06,5.420291865872083927e-03,1.422270410735103838e-06,5.426662936079058516e-03,1.329760828630187381e-06,5.471216392182376952e-03,1.422223432474539616e-06,5.347340701820964964e-03,1.421986940522472958e-06
7.599600000000000364e+02,7.676400000000001000e+02,5.565348666061795471e-03,1.153241995633838572e-06,5.544841752755044935e-03,1.151197209257050808e-06,5.659020755658760241e-03,1.419164878654382474e-06,5.667965475339857388e-03,1.331106676627795752e-06,5.708616625605518469e-03,1.419123034172891719e-06,5.578562875830329719e-03,1.418882792195763211e-06
7.676400000000001000e+02,7.753199999999999363e+02,5.831281974921184372e-03,1.104371758230569151e-06,5.809408229626270535e-03,1.101513973333193467e-06,5.898216036424391677e-03,1.413142172134866019e-06,5.910568901484067675e-03,1.315953877016316670e-06,5.961607563987571766e-03,1.413090418842981420e-06,5.825072985007192714e-03,1.412826561909713331e-06
7.753199999999999363e+02,7.830000000000000000e+02,6.104114003220350963e-03,1.154366062472160135e-06,6.080633400988632274e-03,1.151956849053082712e-06,6.209036148944132444e-03,1.473999794558420537e-06,6.224835285936167716e-03,1.372325470741323910e-06,6.222089553565080151e-03,1.473954599526434941e-06,6.078660482864381778e-03,1.473695891858733005e-06
7.830000000000000000e+02,7.906800000000000637e+02,6.401095060939311632e-03,1.187321874627759188e-06,6.375710986158705622e-03,1.184520172289923665e-06,6.786189013072336379e-03,1.500168473085662704e-06,6.805544799676236864e-03,1.386465813576060284e-06,6.502955686554387493e-03,1.499839761813655556e-06,6.352149558799956471e-03,1.499581425153496630e-06
7.906800000000000637e+02,7.983600000000001273e+02,6.718194338796888362e-03,1.230051128199080108e-06,6.691004233182528370e-03,1.227481177421103818e-06,7.046357120269772061e-03,1.552317804924808301e-06,7.069878420237921644e-03,1.444922192235377494e-06,6.801957561853253127e-03,1.552064493167952851e-06,6.643385134437677919e-03,1.551794669437161907e-06
7.983599999999999000e+02,8.060399999999999636e+02,7.051820511874222139e-03,1.238399574956868783e-06,7.022608338099096958e-03,1.235325672648725178e-06,7.334358526870669512e-03,1.586094897475325204e-06,7.363412591784177820e-03,1.467440661364913790e-06,7.115280543073466274e-03,1.585856492573200822e-06,6.948312735388326514e-03,1.585579028754163258e-06
8.060399999999999636e+02,8.137200000000000273e+02,7.413519768364265801e-03,1.277712591984363563e-06,7.381890362353750630e-03,1.274560496536621735e-06,7.666510925474858719e-03,1.619811075788179807e-06,7.700981956520747129e-03,1.486523997602465518e-06,7.453596160685061443e-03,1.619610048314778563e-06,7.277634906150417561e-03,1.619335326852685760e-06
8.137200000000000273e+02,8.213999999999998636e+02,7.802455019415878434e-03,1.328857269383931867e-06,7.768460089860193540e-03,1.325808501905111773e-06,8.029834466940716578e-03,1.666195044717550673e-06,8.070656860299209312e-03,1.542960744863625468e-06,7.816619187243014841e-03,1.665979248850343064e-06,7.630980503676254231e-03,1.665700192191771490e-06
8.214000000000000909e+02,8.290800000000001546e+02,8.218452217269566276e-03,1.346097108303578945e-06,8.181696415747596526e-03,1.342703905225959118e-06,8.420817472023804304e-03,1.690628468214848524e-06,8.468231732890595109e-03,1.577864870126168528e-06,8.202224161513163234e-03,1.690418931426834836e-06,8.006152503295999381e-03,1.690153537624378740e-06
8.290799999999999272e+02,8.367599999999999909e+02,8.670560363477982854e-03,1.377667841201648559e-06,8.630937050612092626e-03,1.374489546505852856e-06,8.843644631899948497e-03,1.696828279475008439e-06,8.899019658696603538e-03,1.576092247188642468e-06,8.620543008552195019e-03,1.696617145865196961e-06,8.413151589844071812e-03,1.696318786749482838e-06
8.367599999999999909e+02,8.444399999999998272e+02,9.163745119400596231e-03,1.383091006033706328e-06,9.120842589988010368e-03,1.379494286981756406e-06,9.301587318831298218e-03,1.811658136560372777e-06,9.366222016211239385e-03,1.665954386932690782e-06,9.073807935323412177e-03,1.811467262353510658e-06,8.854123357782198167e-03,1.811155438247149862e-06
8.444399999999998272e+02,8.521199999999998909e+02,9.699708664492505752e-03,1.405379681430772803e-06,9.653280619693159828e-03,1.401825750816744414e-06,9.794021607151181738e-03,1.781585041705222974e-06,9.869269915930000206e-03,1.643972509216513445e-06,9.564302568698163434e-03,1.781365602518513499e-06,9.331236502934872265e-03,1.781062506105877133e-06
8.521200000000001182e+02,8.597999999999999545e+02,1.028124592630784255e-02,1.465504591112285247e-06,1.023065789212310867e-02,1.461657472521074779e-06,1.032753656880298042e-02,1.848850271968405058e-06,1.041463463172235572e-02,1.705686785726397304e-06,1.009295832416795893e-02,1.848644432503980791e-06,9.845287558833352298e-03,1.848315691940578640e-06
8.597999999999999545e+02,8.674800000000000182e+02,1.092998439902919186e-02,1.481472394846592218e-06,1.087514820904868056e-02,1.477442617103261513e-06,1.092214851513019676e-02,1.909961608044488706e-06,1.102300063158379029e-02,1.728563548842796268e-06,1.068127943909190705e-02,1.909762034719233082e-06,1.041740912170485006e-02,1.909424536339626699e-06
8.674800000000000182e+02,8.751600000000000819e+02,1.163920067609678331e-02,1.577033874469478551e-06,1.157935759612952441e-02,1.572601231844882442e-06,1.156559595331539854e-02,2.009174165324297527e-06,1.168185832325609359e-02,1.842617003211821234e-06,1.131937294572902750e-02,2.008960669630290030e-06,1.103763897568540639e-02,2.008654344839504848e-06
8.751600000000000819e+02,8.828399999999999181e+02,1.242916442874875994e-02,1.580575085385345034e-06,1.236387693247172244e-02,1.576293969081215305e-06,1.227754325503736116e-02,2.022510917611263670e-06,1.241181936921994210e-02,1.861988786961209497e-06,1.202740839527463752e-02,2.022312317088868787e-06,1.172593037476158014e-02,2.021947876768879859e-06
8.828399999999999181e+02,8.905199999999999818e+02,1.331099084400063325e-02,1.697133905239037656e-06,1.323950304148627070e-02,1.692342899463585956e-06,1.306869827844138465e-02,2.149116769562787374e-06,1.322460555697288834e-02,2.000874556784610225e-06,1.281215325303992209e-02,2.148913952845669733e-06,1.248853652071021600e-02,2.148567362992385960e-06
8.905199999999997544e+02,8.981999999999998181e+02,1.430291732312890217e-02,1.668930667247904720e-06,1.422428249874366571e-02,1.664331054584245727e-06,1.394848396233639570e-02,2.099972115665621756e-06,1.412998237834308009e-02,1.941264185851561974e-06,1.368861577297757204e-02,2.099788375381997108e-06,1.334011846991059111e-02,2.099401444088626238e-06
8.982000000000000455e+02,9.058799999999998818e+02,1.542360239826631382e-02,1.824319643422773886e-06,1.533692764704319353e-02,1.819764321868463081e-06,1.493852764184185576e-02,2.272981344291401536e-06,1.514954310808744320e-02,2.120767799494829303e-06,1.467269859474990522e-02,2.272806472735369277e-06,1.429610185877826928e-02,2.272421133965027545e-06
9.058799999999998818e+02,9.135599999999999454e+02,1.670521376833640145e-02,1.793443326282693533e-06,1.660931794257083927e-02,1.788093152570710277e-06,1.606413742061172517e-02,2.235433050056289203e-06,1.631089460572220443e-02,2.092470707410074080e-06,1.579010126738639511e-02,2.235252193859944822e-06,1.538133430641124358e-02,2.234838653648138286e-06
9.135599999999999454e+02,9.212400000000000091e+02,1.817814754424120285e-02,1.838165395482557396e-06,1.807137010109748781e-02,1.833033383781903035e-06,1.734367876883460488e-02,2.330006508056878291e-06,1.763399832836224854e-02,2.171118714016934911e-06,1.706383834326591353e-02,2.329826041621070004e-06,1.661793194034326404e-02,2.329379972943245165e-06
9.212400000000000091e+02,9.289200000000000728e+02,1.989520542722833518e-02,1.910299664156514535e-06,1.977600057803192979e-02,1.904411906996604060e-06,1.882228999061814206e-02,2.401991234638302648e-06,1.916440597632956128e-02,2.238247607784864140e-06,1.853751977442440885e-02,2.401808049590625382e-06,1.804853656269509929e-02,2.401327961199237699e-06
9.289199999999998454e+02,9.365999999999999091e+02,2.191396447018971808e-02,1.933762965180015076e-06,2.177998994941734642e-02,1.927725557475688244e-06,2.054196874778976487e-02,2.412952576001483940e-06,2.094990124839798962e-02,2.244590650651189440e-06,2.025264496448421839e-02,2.412772480378573456e-06,1.971287150244087696e-02,2.412328659279946568e-06
9.365999999999999091e+02,9.442799999999999727e+02,2.433007318866818938e-02,2.030795566045300920e-06,2.417807632121278527e-02,2.025043183930866907e-06,2.258040549741333058e-02,2.550025632361692341e-06,2.307042791695952319e-02,2.349104486165843604e-06,2.228703304997332185e-02,2.549875901624386175e-06,2.168657750883680457e-02,2.549365120759304683e-06
9.442799999999999727e+02,9.519600000000000364e+02,2.726693832897704797e-02,2.170665525999438752e-06,2.709287284105358490e-02,2.165008391255131057e-06,2.502734209501001825e-02,2.719425527339162705e-06,2.562212088939194721e-02,2.525502274059540692e-06,2.473282086683600139e-02,2.719273189276155608e-06,2.405841491099827006e-02,2.718791608044368610e-06
9.519600000000002638e+02,9.596400000000001000e+02,3.091307044068882307e-02,2.279687325657824883e-06,3.071166447989380141e-02,2.273076500387425438e-06,2.802432146020831030e-02,2.786229047602881331e-06,2.875752161857082767e-02,2.607267038501138231e-06,2.773231893027332945e-02,2.786084295734357012e-06,2.696628073877829421e-02,2.785543638746208454e-06
9.596400000000001000e+02,9.673199999999999363e+02,3.555880761261033529e-02,2.398759553612762627e-06,3.532228259959026284e-02,2.391942764293885318e-06,3.178337602002373474e-02,2.919621260291893912e-06,3.270313884763484391e-02,2.780356428703673901e-06,3.150333935811240604e-02,2.919501078753520143e-06,3.062029413986082707e-02,2.918918486953140819e-06
9.673199999999999363e+02,9.749999999999997726e+02,3.978867393665558305e-02,2.872217004743045741e-06,3.951868027541344947e-02,2.864053357033271376e-06,3.499344482309424409e-02,3.345774635357237211e-06,3.611931448844788589e-02,3.189468842717703689e-06,3.475426536014315781e-02,3.345651990907013591e-06,3.376429837955480240e-02,3.344884212146284553e-06
