# xl,xh,LO,dLO,LOISC,dLOISC,NLO,dNLO,NLOISC,dNLOISC,NLOL,dNLOL,NLOnovp,dNLOnovp
0.000000000000000000e+00,5.000000000000000000e+00,1.386445586017946534e-02,1.927107858920928169e-06,1.379825199853127772e-02,1.921939393380034287e-06,1.356270983873837134e-02,2.198543663618275492e-06,1.373894376090813163e-02,2.138206225633898862e-06,1.339765971624093562e-02,2.198291011498908641e-06,1.306255595079812079e-02,2.197757162077903509e-06
5.000000000000000000e+00,1.000000000000000000e+01,1.386125997028572060e-02,1.990984932818496462e-06,1.379510142612072610e-02,1.985574596172775088e-06,1.355903825529288474e-02,2.222614649918294462e-06,1.373479605692702783e-02,2.150496332525470258e-06,1.339387087489798261e-02,2.222360824578065974e-06,1.305874346327155940e-02,2.221846835003462896e-06
1.000000000000000000e+01,1.500000000000000000e+01,1.386574531213038974e-02,1.922775955599918027e-06,1.379944529936593701e-02,1.917187972295870335e-06,1.356329910275737120e-02,2.228466741230516502e-06,1.373949003915142693e-02,2.164293789660398548e-06,1.339811480244052465e-02,2.228208977846115571e-06,1.306304324603036610e-02,2.227719005712564862e-06
1.500000000000000000e+01,2.000000000000000000e+01,1.386974126854373206e-02,1.918819729026278822e-06,1.380346763186087941e-02,1.913075292074560178e-06,1.356742908952399476e-02,2.169271282933501816e-06,1.374327677029117678e-02,2.088273862605243824e-06,1.340216109369654976e-02,2.169033073916093996e-06,1.306694447723999800e-02,2.168443719779419123e-06
2.000000000000000000e+01,2.500000000000000000e+01,1.386712253106485958e-02,2.159654947182991719e-06,1.380084367302557985e-02,2.154957756257602817e-06,1.356433136345173117e-02,2.392394155473541639e-06,1.374068616956038158e-02,2.315472746339202525e-06,1.339892684695091242e-02,2.392197169494278395e-06,1.306377903043961022e-02,2.391787570751963377e-06
2.500000000000000000e+01,3.000000000000000000e+01,1.387466994531067442e-02,1.907793808207008667e-06,1.380812704529959731e-02,1.902141105177461340e-06,1.357107234779124892e-02,2.171284299833226497e-06,1.374690576082294308e-02,2.104636659737062906e-06,1.340545366713500122e-02,2.171034222584142185e-06,1.307019513519026149e-02,2.170582244049533625e-06
3.000000000000000000e+01,3.500000000000000000e+01,1.387783856820024551e-02,1.986721083256876614e-06,1.381121049379774313e-02,1.982200741161806894e-06,1.357293306037776238e-02,2.240715768746412227e-06,1.374887570631225589e-02,2.174083640525467495e-06,1.340720789973262259e-02,2.240453387798815152e-06,1.307180435723940756e-02,2.239988653994806706e-06
3.500000000000000000e+01,4.000000000000000000e+01,1.388173933507370200e-02,1.970317296208717457e-06,1.381534011515135434e-02,1.965566861972275913e-06,1.357701560848881446e-02,2.230382724350077737e-06,1.375303379865854339e-02,2.166602178747054046e-06,1.341119976369373364e-02,2.230129492957034452e-06,1.307579548986984724e-02,2.229567861554939984e-06
4.000000000000000000e+01,4.500000000000000000e+01,1.388660430726822159e-02,2.074228926064396190e-06,1.381989275935657097e-02,2.068918465775441051e-06,1.357914108394045298e-02,2.291037151614014972e-06,1.375526723819384123e-02,2.220695103307425417e-06,1.341319466577570868e-02,2.290767271082620141e-06,1.307772964768088957e-02,2.290241588232931720e-06
4.500000000000000000e+01,5.000000000000000000e+01,1.389282791104861844e-02,1.973667755593814433e-06,1.382587080421208980e-02,1.968151211058484452e-06,1.358350422983312447e-02,2.223918869986539854e-06,1.375969110983763823e-02,2.150309232731501051e-06,1.341756889460609531e-02,2.223659819139478824e-06,1.308191295253880761e-02,2.223125776307235638e-06
5.000000000000000000e+01,5.500000000000000000e+01,1.389898966055404597e-02,2.001696273100972856e-06,1.383242728508198363e-02,1.996014330694855565e-06,1.358747398086852451e-02,2.221504042257406409e-06,1.376379439451331371e-02,2.149616018649675127e-06,1.342137104601381047e-02,2.221285814603207541e-06,1.308567125670226892e-02,2.220767968541347902e-06
5.500000000000000000e+01,6.000000000000000000e+01,1.390695692635258995e-02,2.084012485622596479e-06,1.383996173825102066e-02,2.078896567073571642e-06,1.359322091050939145e-02,2.327087242898650515e-06,1.376938706423039283e-02,2.250580431684566048e-06,1.342691883366093318e-02,2.326829479067877198e-06,1.309112939698626847e-02,2.326370271208311788e-06
6.000000000000000000e+01,6.500000000000000000e+01,1.391487938378590215e-02,2.015683918745803543e-06,1.384783924141317138e-02,2.011013984597141928e-06,1.359992364712431061e-02,2.243342629656713674e-06,1.377635705931876640e-02,2.180444889213592495e-06,1.343325015536877762e-02,2.243100797784730704e-06,1.309743534085751338e-02,2.242594017649945883e-06
6.500000000000000000e+01,7.000000000000000000e+01,1.392127401853360084e-02,1.943536908707962160e-06,1.385415567154389856e-02,1.938564313415380713e-06,1.360273865625600404e-02,2.193786444177013392e-06,1.377977992858662147e-02,2.129990276880469810e-06,1.343569754570682687e-02,2.193536555904451177e-06,1.309957933520885728e-02,2.193051028963048969e-06
7.000000000000000000e+01,7.500000000000000000e+01,1.392970102187584928e-02,2.235051961229341065e-06,1.386220233942800535e-02,2.230990283873637315e-06,1.360715104682646767e-02,2.453108935182913988e-06,1.378430660799422058e-02,2.403758563221483341e-06,1.344122802971386803e-02,2.452858110765300761e-06,1.310507343768650169e-02,2.452411018134914099e-06
7.500000000000000000e+01,8.000000000000000000e+01,1.393976060312561611e-02,2.007449617143131554e-06,1.387227960285667208e-02,2.001579732288480563e-06,1.360831647847782905e-02,2.233911797137949299e-06,1.378514704065883500e-02,2.163977386888279931e-06,1.344625259137034561e-02,2.233649936270078969e-06,1.311000291181779222e-02,2.233108233310544261e-06
8.000000000000000000e+01,8.500000000000000000e+01,1.394216413506509274e-02,2.053645885624527157e-06,1.387483505681471989e-02,2.047756308526283608e-06,1.360329408582743212e-02,2.291021937111813453e-06,1.378121584927039650e-02,2.220074579814863841e-06,1.344537916392085294e-02,2.290816822583478203e-06,1.310902823246674898e-02,2.290297453076668644e-06
8.500000000000000000e+01,9.000000000000000000e+01,1.395445448103291991e-02,2.161733528856426604e-06,1.388676323105360669e-02,2.156504185460664647e-06,1.360740148216396141e-02,2.388102425578483122e-06,1.378550974181625040e-02,2.324194177147276656e-06,1.345331856015081692e-02,2.387903933034555359e-06,1.311686885416881408e-02,2.387465064114007582e-06
9.000000000000000000e+01,9.500000000000000000e+01,1.396198593704545306e-02,2.033691904884858441e-06,1.389415392260502126e-02,2.029080116203321424e-06,1.360588790350548798e-02,2.255616179937065330e-06,1.378441986695584827e-02,2.196766718625005762e-06,1.345535167904627835e-02,2.255382794780776429e-06,1.311887693863576787e-02,2.254887981838910456e-06
9.500000000000000000e+01,1.000000000000000000e+02,1.396070422040609355e-02,2.117258441673797296e-06,1.389278511765645180e-02,2.112017712900829433e-06,1.359520976196092537e-02,2.391183218624764701e-06,1.377448155074465809e-02,2.317898056040141751e-06,1.344798665176492186e-02,2.390927600791650557e-06,1.311148186882114125e-02,2.390392773337117796e-06
1.000000000000000000e+02,1.050000000000000000e+02,1.396678882326864157e-02,1.993328294347968309e-06,1.389867768445792427e-02,1.988105450400724238e-06,1.358982104246704223e-02,2.225684855714041090e-06,1.377010555907695437e-02,2.153352273023702929e-06,1.344586593272106313e-02,2.225402028305149608e-06,1.310941814069638278e-02,2.224907150953217388e-06
1.050000000000000000e+02,1.100000000000000000e+02,1.396419131903660869e-02,2.083466786401979863e-06,1.389627665772812451e-02,2.077386702437655621e-06,1.357621557204638334e-02,2.367206375401644295e-06,1.375773665771622654e-02,2.278983532541531129e-06,1.343533918907831130e-02,2.366963095179068288e-06,1.309905535462883505e-02,2.366477231333056121e-06
1.100000000000000000e+02,1.150000000000000000e+02,1.393487034043182013e-02,2.096741828957346158e-06,1.386656420453348006e-02,2.092046415815981104e-06,1.353526994635918627e-02,2.324430342278222251e-06,1.371800673014813080e-02,2.252574834310936285e-06,1.339704032073374060e-02,2.324186148563108627e-06,1.306140903691821106e-02,2.323621473061057888e-06
1.150000000000000000e+02,1.200000000000000000e+02,1.387981836921402777e-02,2.006758305836061591e-06,1.381161674993991451e-02,2.002079331960507357e-06,1.347762888119309610e-02,2.250041364210275685e-06,1.365987220195854536e-02,2.172424969366133372e-06,1.334169732207006291e-02,2.249793608573932733e-06,1.300744014186304594e-02,2.249204520894263804e-06
1.200000000000000000e+02,1.250000000000000000e+02,1.381234080323577064e-02,2.110668649877874326e-06,1.374403161728349025e-02,2.104938332643650687e-06,1.340861632343250814e-02,2.382402455285397121e-06,1.358994579980200672e-02,2.295714322631683253e-06,1.327488649276634125e-02,2.382172204429979127e-06,1.294215363216610730e-02,2.381677604418438160e-06
1.250000000000000000e+02,1.300000000000000000e+02,1.374608293808084018e-02,2.150346715296473949e-06,1.367769793758816937e-02,2.146100347126457964e-06,1.333747870978007656e-02,2.365140916458843044e-06,1.351838977895753607e-02,2.297210363675623768e-06,1.320591862739848611e-02,2.364916438905270829e-06,1.287472852744849655e-02,2.364423319675674544e-06
1.300000000000000000e+02,1.350000000000000000e+02,1.367791295580559827e-02,2.048305926531644088e-06,1.360950848021775031e-02,2.041878907104499430e-06,1.326791824955835669e-02,2.361140164736594824e-06,1.344843320285024277e-02,2.290260498821885361e-06,1.313854767602122900e-02,2.360898083330263287e-06,1.280900096115658235e-02,2.360415924372938066e-06
1.350000000000000000e+02,1.400000000000000000e+02,1.360542759136741491e-02,2.054635449649738581e-06,1.353702846566570347e-02,2.048857522685800069e-06,1.319267672377754871e-02,2.286627280640742852e-06,1.337254377937047330e-02,2.215224977079662027e-06,1.306541143875186890e-02,2.286411357486289499e-06,1.273747751843916191e-02,2.285904403550781042e-06
1.400000000000000000e+02,1.450000000000000000e+02,1.353826841795926876e-02,1.986696104827963507e-06,1.346976329951154149e-02,1.981367503400064416e-06,1.312578038534426700e-02,2.260744906858895076e-06,1.330385861448238165e-02,2.185981524409239111e-06,1.300063838024475248e-02,2.260528877415270432e-06,1.267443583303165359e-02,2.259908789832617895e-06
1.450000000000000000e+02,1.500000000000000000e+02,1.346416703361838149e-02,1.943913854012451595e-06,1.339560369025890631e-02,1.938197303743506875e-06,1.304848585028352444e-02,2.192126777179443279e-06,1.322616159978210783e-02,2.114324713644737332e-06,1.292549935289302038e-02,2.191872799697398054e-06,1.260092546375930246e-02,2.191405900117083786e-06
1.500000000000000000e+02,1.550000000000000000e+02,1.339268981449401319e-02,2.255866875774523628e-06,1.332394444991261660e-02,2.251333925274570469e-06,1.297792520084395385e-02,2.502565820407484760e-06,1.315391254722638077e-02,2.430614559409125859e-06,1.285706596753573815e-02,2.502378835748722440e-06,1.253428709638129343e-02,2.501900284290578783e-06
1.550000000000000000e+02,1.600000000000000000e+02,1.331954996607481040e-02,2.157435562833972463e-06,1.325096417782651269e-02,2.152451595809454750e-06,1.290249435547911362e-02,2.414398843370752944e-06,1.307798167335839576e-02,2.322758947546647397e-06,1.278380985218578389e-02,2.414224768639325393e-06,1.246282021579592919e-02,2.413836811213212480e-06
1.600000000000000000e+02,1.650000000000000000e+02,1.324298155702752396e-02,2.029196787591410981e-06,1.317433295828842124e-02,2.024264442140246437e-06,1.282561867279678226e-02,2.286992936072338390e-06,1.299922258462823943e-02,2.211659658957128513e-06,1.270899309677894426e-02,2.286778356110302866e-06,1.238982901317451854e-02,2.286267422401940231e-06
1.650000000000000000e+02,1.700000000000000000e+02,1.316070539122821993e-02,2.029648935256757889e-06,1.309189985603672300e-02,2.023847226635270478e-06,1.274432673298823114e-02,2.273317900947546995e-06,1.291708785864023427e-02,2.192260213976255602e-06,1.262995231038067413e-02,2.273090446239515253e-06,1.231262026713867384e-02,2.272578232030279182e-06
1.700000000000000000e+02,1.750000000000000000e+02,1.308047836400407643e-02,2.154529544057686647e-06,1.301176231611370256e-02,2.149132318261553629e-06,1.266545127434254119e-02,2.389965149126029276e-06,1.283681140840832804e-02,2.316930592704595687e-06,1.255318842840963053e-02,2.389760070601412208e-06,1.223788695654921127e-02,2.389254642100149511e-06
1.750000000000000000e+02,1.800000000000000000e+02,1.299562100887322741e-02,2.118650983575959006e-06,1.292702107842919924e-02,2.113868600190411967e-06,1.258082283273845130e-02,2.387138281423986403e-06,1.275015278932048468e-02,2.311832073827529827e-06,1.247078956937850910e-02,2.386947088539229321e-06,1.215761063689317807e-02,2.386454557967947058e-06
1.800000000000000000e+02,1.850000000000000000e+02,1.290889272312974699e-02,2.046253959429323054e-06,1.284030959258383037e-02,2.041181954844944599e-06,1.249602733336397341e-02,2.283349317138434703e-06,1.266378472327969219e-02,2.210316329577782859e-06,1.238816592430076399e-02,2.283132280969088697e-06,1.207702299361006031e-02,2.282650323529610397e-06
1.850000000000000000e+02,1.900000000000000000e+02,1.281618483257771814e-02,2.042039018384119249e-06,1.274765566714968455e-02,2.036343898033000497e-06,1.240696330511437649e-02,2.304688507637261066e-06,1.257251421418731710e-02,2.233552350912752791e-06,1.230122388431538136e-02,2.304479330275030226e-06,1.199228001631363026e-02,2.304005974534565619e-06
1.900000000000000000e+02,1.950000000000000000e+02,1.272337523417882421e-02,2.081345421744440951e-06,1.265489663456590731e-02,2.076495591034454481e-06,1.231653196222124921e-02,2.346934742879168486e-06,1.248002931669279711e-02,2.256520270903762515e-06,1.221297452582290229e-02,2.346727376206220873e-06,1.190636810214477405e-02,2.346209701052910354e-06
1.950000000000000000e+02,2.000000000000000000e+02,1.262333972540413338e-02,1.968552710477641315e-06,1.255529809077177671e-02,1.962571178397365511e-06,1.222013659829663049e-02,2.230318688928144486e-06,1.238110866327623606e-02,2.156001483015559323e-06,1.211874494667809776e-02,2.230098495110856904e-06,1.181474514740054639e-02,2.229552511505584655e-06
2.000000000000000000e+02,2.050000000000000000e+02,1.251537272241079295e-02,2.000699074795586698e-06,1.244742379604666868e-02,1.995787730147898494e-06,1.211342022625383139e-02,2.260337386287509740e-06,1.227248766498876230e-02,2.181334005035836887e-06,1.201429516568682833e-02,2.260121377748831028e-06,1.171284372731362135e-02,2.259586673058886340e-06
2.050000000000000000e+02,2.100000000000000000e+02,1.239982802960709271e-02,2.039692690532600010e-06,1.233199795900289698e-02,2.034236150176514460e-06,1.200087098470581370e-02,2.287139807097478000e-06,1.215680142880840725e-02,2.207637937780422403e-06,1.190398327749887797e-02,2.286943780218230908e-06,1.160534202105242135e-02,2.286445153361855899e-06
2.100000000000000000e+02,2.150000000000000000e+02,1.227353432759867129e-02,2.089867675153789680e-06,1.220610788101392057e-02,2.084576922706288524e-06,1.187715558538656943e-02,2.319755184035035256e-06,1.203043819607113943e-02,2.238621798094480306e-06,1.178248229748599975e-02,2.319555011918681089e-06,1.148680388979606871e-02,2.319098685236064431e-06
2.150000000000000000e+02,2.200000000000000000e+02,1.213994159812885332e-02,2.042292817911188924e-06,1.207315093404331963e-02,2.037217885740032918e-06,1.174276074146126010e-02,2.277218323361065645e-06,1.189445719881997848e-02,2.211357736765706472e-06,1.165023184751554607e-02,2.276999700228053183e-06,1.135800130832097070e-02,2.276524104193762510e-06
2.200000000000000000e+02,2.250000000000000000e+02,1.198380495808873750e-02,1.968692139031892761e-06,1.191761532524754016e-02,1.963188774597699738e-06,1.158594829781249037e-02,2.227796128731117349e-06,1.173492625585155491e-02,2.141620785654051602e-06,1.149547619757303012e-02,2.227582574909929550e-06,1.120699494024262818e-02,2.227091322622375137e-06
2.250000000000000000e+02,2.300000000000000000e+02,1.179202019813392621e-02,2.018582549552629437e-06,1.172672277177218628e-02,2.013920399654533158e-06,1.139002980125870985e-02,2.288434837294070392e-06,1.153667018282925408e-02,2.217895891252808416e-06,1.130122952978383777e-02,2.288205107714118614e-06,1.101744207364762328e-02,2.287662650883015293e-06
2.300000000000000000e+02,2.350000000000000000e+02,1.148647356558614441e-02,2.082051811870116862e-06,1.142168251588901798e-02,2.077729682040627428e-06,1.108572323947032597e-02,2.324155625776375563e-06,1.122813505835290777e-02,2.245338092196768323e-06,1.099721952591757070e-02,2.323914771255655512e-06,1.072054056183227057e-02,2.323422658793463079e-06
2.350000000000000000e+02,2.400000000000000000e+02,1.111900507180040021e-02,1.979424311374173251e-06,1.105576922850664938e-02,1.973734342711711923e-06,1.072487243629716494e-02,2.241205192706352228e-06,1.086340918638598226e-02,2.148531709011847015e-06,1.063590071495632873e-02,2.241011783614306711e-06,1.036773727737934359e-02,2.240537582071562996e-06
2.400000000000000000e+02,2.450000000000000000e+02,1.071837027293510124e-02,1.957896294355370376e-06,1.065652221530525960e-02,1.952629284196179268e-06,1.033176004957089313e-02,2.190353812268467496e-06,1.046562664019974088e-02,2.111657592785172382e-06,1.024183992987423748e-02,2.190144703600032273e-06,9.983241189189666007e-03,2.189694565449505196e-06
2.450000000000000000e+02,2.500000000000000000e+02,1.028261460093596834e-02,1.960849175769000577e-06,1.022221313581893852e-02,1.956107570067902751e-06,9.907927055612317235e-03,2.234661465828068986e-06,1.003652254969482002e-02,2.158718487901406124e-06,9.816463721626894623e-03,2.234467081890326782e-06,9.568076132451516780e-03,2.233997548776669622e-06
2.500000000000000000e+02,2.550000000000000000e+02,9.802800506127876123e-03,1.924427023997943337e-06,9.744350213208217287e-03,1.918786453157516407e-06,9.442985130290246568e-03,2.190277849721963902e-06,9.565361616372135278e-03,2.121495910685417921e-06,9.349222780138121552e-03,2.190074455236126300e-06,9.111981515486622038e-03,2.189583589053397638e-06
2.550000000000000000e+02,2.600000000000000000e+02,9.285512224212689320e-03,1.811385367117272239e-06,9.229270060299084658e-03,1.806298600438825084e-06,8.946197032334159138e-03,2.050542723019613228e-06,9.062423627633622164e-03,1.965274033657769563e-06,8.849521700415986444e-03,2.050346474156575212e-06,8.624738809738038622e-03,2.049816593687459772e-06
2.600000000000000000e+02,2.650000000000000000e+02,8.711382250880311470e-03,1.849987755553839077e-06,8.657859726044414214e-03,1.843579329240579906e-06,8.400710592028721654e-03,2.086569531504333338e-06,8.507659271763381645e-03,2.010247836021949724e-06,8.300397442814202997e-03,2.086392873444033229e-06,8.089272969318883622e-03,2.085922783528346082e-06
2.650000000000000000e+02,2.700000000000000000e+02,8.076672914584298937e-03,1.836922421968852016e-06,8.026776072727269742e-03,1.832049593756046577e-06,7.798731839883291973e-03,2.053977835923303931e-06,7.898348228427529844e-03,1.981547441579432833e-06,7.694374857297471212e-03,2.053795687114211652e-06,7.498422410454215134e-03,2.053368695647553036e-06
2.700000000000000000e+02,2.750000000000000000e+02,7.536998352715690470e-03,1.588059832390099614e-06,7.489917878887214324e-03,1.583288910617360336e-06,7.253354134857863643e-03,1.781567098421458917e-06,7.352338396438384653e-03,1.719427071285383665e-06,7.144451762010966059e-03,1.781365551978768888e-06,6.961304536052971732e-03,1.780924008059724951e-06
2.750000000000000000e+02,2.800000000000000000e+02,7.211046312304318293e-03,1.606256289652717577e-06,7.164688671495418083e-03,1.602531971426381503e-06,6.875281357669343375e-03,1.796025348929924103e-06,6.981067012725244991e-03,1.733012116264833829e-06,6.762108816646763415e-03,1.795854036462233880e-06,6.586587547371752609e-03,1.795470294233518967e-06
2.800000000000000000e+02,2.850000000000000000e+02,6.837295404675412282e-03,1.453607955694952944e-06,6.791622300119544431e-03,1.449176917792100158e-06,6.461981915897953288e-03,1.708572083618714890e-06,6.569495066944466312e-03,1.645546089417678897e-06,6.349908164705340106e-03,1.708396597532842237e-06,6.183150759604898183e-03,1.707999512967653957e-06
2.850000000000000000e+02,2.900000000000000000e+02,6.396095960990360284e-03,1.512899649441606184e-06,6.351888913234017900e-03,1.508397884747102946e-06,5.980166075746660981e-03,1.693751138022173398e-06,6.087817323716098773e-03,1.640057982064542662e-06,5.880564724369947288e-03,1.693592590989391854e-06,5.724048146280406868e-03,1.693222417416036164e-06
2.900000000000000000e+02,2.950000000000000000e+02,5.863923706691454539e-03,1.475044524908336326e-06,5.821534234192477647e-03,1.470780368723363070e-06,5.414670351114784716e-03,1.652047391316792743e-06,5.520120603138369865e-03,1.601364672171075027e-06,5.329258530167035185e-03,1.651904303053942294e-06,5.185455132899640350e-03,1.651585516251859497e-06
2.950000000000000000e+02,3.000000000000000000e+02,5.203081815992805469e-03,1.362321019551909492e-06,5.163768330754339719e-03,1.357974981979891275e-06,4.732292192626934291e-03,1.537732235589586654e-06,4.834729495810864003e-03,1.478227094870636701e-06,4.662739528695661849e-03,1.537562671434305463e-06,4.534694309552083323e-03,1.537253393874966510e-06
3.000000000000000000e+02,3.050000000000000000e+02,4.346660076013807682e-03,1.518548915734461035e-06,4.311901925402780375e-03,1.514689138709369622e-06,3.873264400115780312e-03,1.646667853903046820e-06,3.968090972025732979e-03,1.606426257600210134e-06,3.821408913829713386e-03,1.646528464892652607e-06,3.714115953005280198e-03,1.646141218125807706e-06
3.050000000000000000e+02,3.100000000000000000e+02,3.161719357725350111e-03,1.398208978221227823e-06,3.134564619202687662e-03,1.392954357708310939e-06,2.725177575490226722e-03,1.518886977297427847e-06,2.805798300669022638e-03,1.468525004503762328e-06,2.693059769380527421e-03,1.518768157684508896e-06,2.614852865639669295e-03,1.518348761024365848e-06
3.100000000000000000e+02,3.150000000000000000e+02,1.315321055792341605e-03,1.245405507975175202e-06,1.302144986058558244e-03,1.241619773985210008e-06,1.064258475850621928e-03,1.309432597403197944e-06,1.106036032797543455e-03,1.284963058790645555e-06,1.053617631742930503e-03,1.309357241465532819e-06,1.020917425818734965e-03,1.309089700263989255e-06
3.150000000000000000e+02,3.200000000000000000e+02,1.402702211738029428e-05,1.700174791554424276e-07,1.320148767151045467e-05,1.652051941629093090e-07,1.110663012495482731e-05,1.769513244911080797e-07,1.055370226781152207e-05,1.692086802149346308e-07,1.096083308506690777e-05,1.769379253605498031e-07,1.062334595886804069e-05,1.768924544075286465e-07
3.200000000000000000e+02,3.250000000000000000e+02,0.000000000000000000e+00,0.000000000000000000e+00,0.000000000000000000e+00,0.000000000000000000e+00,0.000000000000000000e+00,0.000000000000000000e+00,0.000000000000000000e+00,0.000000000000000000e+00,0.000000000000000000e+00,0.000000000000000000e+00,0.000000000000000000e+00,0.000000000000000000e+00
3.250000000000000000e+02,3.300000000000000000e+02,0.000000000000000000e+00,0.000000000000000000e+00,0.000000000000000000e+00,0.000000000000000000e+00,0.000000000000000000e+00,0.000000000000000000e+00,0.000000000000000000e+00,0.000000000000000000e+00,0.000000000000000000e+00,0.000000000000000000e+00,0.000000000000000000e+00,0.000000000000000000e+00
3.300000000000000000e+02,3.350000000000000000e+02,0.000000000000000000e+00,0.000000000000000000e+00,0.000000000000000000e+00,0.000000000000000000e+00,0.000000000000000000e+00,0.000000000000000000e+00,0.000000000000000000e+00,0.000000000000000000e+00,0.000000000000000000e+00,0.000000000000000000e+00,0.000000000000000000e+00,0.000000000000000000e+00
3.350000000000000000e+02,3.400000000000000000e+02,0.000000000000000000e+00,0.000000000000000000e+00,0.000000000000000000e+00,0.000000000000000000e+00,0.000000000000000000e+00,0.000000000000000000e+00,0.000000000000000000e+00,0.000000000000000000e+00,0.000000000000000000e+00,0.000000000000000000e+00,0.000000000000000000e+00,0.000000000000000000e+00
3.400000000000000000e+02,3.450000000000000000e+02,0.000000000000000000e+00,0.000000000000000000e+00,0.000000000000000000e+00,0.000000000000000000e+00,0.000000000000000000e+00,0.000000000000000000e+00,0.000000000000000000e+00,0.000000000000000000e+00,0.000000000000000000e+00,0.000000000000000000e+00,0.000000000000000000e+00,0.000000000000000000e+00
3.450000000000000000e+02,3.500000000000000000e+02,0.000000000000000000e+00,0.000000000000000000e+00,0.000000000000000000e+00,0.000000000000000000e+00,0.000000000000000000e+00,0.000000000000000000e+00,0.000000000000000000e+00,0.000000000000000000e+00,0.000000000000000000e+00,0.000000000000000000e+00,0.000000000000000000e+00,0.000000000000000000e+00
3.500000000000000000e+02,3.550000000000000000e+02,0.000000000000000000e+00,0.000000000000000000e+00,0.000000000000000000e+00,0.000000000000000000e+00,0.000000000000000000e+00,0.000000000000000000e+00,0.000000000000000000e+00,0.000000000000000000e+00,0.000000000000000000e+00,0.000000000000000000e+00,0.000000000000000000e+00,0.000000000000000000e+00
3.550000000000000000e+02,3.600000000000000000e+02,0.000000000000000000e+00,0.000000000000000000e+00,0.000000000000000000e+00,0.000000000000000000e+00,0.000000000000000000e+00,0.000000000000000000e+00,0.000000000000000000e+00,0.000000000000000000e+00,0.000000000000000000e+00,0.000000000000000000e+00,0.000000000000000000e+00,0.000000000000000000e+00
3.600000000000000000e+02,3.650000000000000000e+02,0.000000000000000000e+00,0.000000000000000000e+00,0.000000000000000000e+00,0.000000000000000000e+00,0.000000000000000000e+00,0.000000000000000000e+00,0.000000000000000000e+00,0.000000000000000000e+00,0.000000000000000000e+00,0.000000000000000000e+00,0.000000000000000000e+00,0.000000000000000000e+00
3.650000000000000000e+02,3.700000000000000000e+02,0.000000000000000000e+00,0.000000000000000000e+00,0.000000000000000000e+00,0.000000000000000000e+00,0.000000000000000000e+00,0.000000000000000000e+00,0.000000000000000000e+00,0.000000000000000000e+00,0.000000000000000000e+00,0.000000000000000000e+00,0.000000000000000000e+00,0.000000000000000000e+00
3.700000000000000000e+02,3.750000000000000000e+02,0.000000000000000000e+00,0.000000000000000000e+00,0.000000000000000000e+00,0.000000000000000000e+00,0.000000000000000000e+00,0.000000000000000000e+00,0.000000000000000000e+00,0.000000000000000000e+00,0.000000000000000000e+00,0.000000000000000000e+00,0.000000000000000000e+00,0.000000000000000000e+00
