# xl,xh,LO,dLO,LOISC,dLOISC,NLO,dNLO,NLOISC,dNLOISC,NLOL,dNLOL,NLOnovp,dNLOnovp
0.000000000000000000e+00,1.000000000000000000e+01,0.000000000000000000e+00,0.000000000000000000e+00,0.000000000000000000e+00,0.000000000000000000e+00,0.000000000000000000e+00,0.000000000000000000e+00,0.000000000000000000e+00,0.000000000000000000e+00,0.000000000000000000e+00,0.000000000000000000e+00,0.000000000000000000e+00,0.000000000000000000e+00
1.000000000000000000e+01,2.000000000000000000e+01,0.000000000000000000e+00,0.000000000000000000e+00,0.000000000000000000e+00,0.000000000000000000e+00,0.000000000000000000e+00,0.000000000000000000e+00,0.000000000000000000e+00,0.000000000000000000e+00,0.000000000000000000e+00,0.000000000000000000e+00,0.000000000000000000e+00,0.000000000000000000e+00
2.000000000000000000e+01,3.000000000000000000e+01,0.000000000000000000e+00,0.000000000000000000e+00,0.000000000000000000e+00,0.000000000000000000e+00,0.000000000000000000e+00,0.000000000000000000e+00,0.000000000000000000e+00,0.000000000000000000e+00,0.000000000000000000e+00,0.000000000000000000e+00,0.000000000000000000e+00,0.000000000000000000e+00
3.000000000000000000e+01,4.000000000000000000e+01,0.000000000000000000e+00,0.000000000000000000e+00,0.000000000000000000e+00,0.000000000000000000e+00,0.000000000000000000e+00,0.000000000000000000e+00,0.000000000000000000e+00,0.000000000000000000e+00,0.000000000000000000e+00,0.000000000000000000e+00,0.000000000000000000e+00,0.000000000000000000e+00
4.000000000000000000e+01,5.000000000000000000e+01,0.000000000000000000e+00,0.000000000000000000e+00,0.000000000000000000e+00,0.000000000000000000e+00,0.000000000000000000e+00,0.000000000000000000e+00,0.000000000000000000e+00,0.000000000000000000e+00,0.000000000000000000e+00,0.000000000000000000e+00,0.000000000000000000e+00,0.000000000000000000e+00
5.000000000000000000e+01,6.000000000000000000e+01,0.000000000000000000e+00,0.000000000000000000e+00,0.000000000000000000e+00,0.000000000000000000e+00,0.000000000000000000e+00,0.000000000000000000e+00,0.000000000000000000e+00,0.000000000000000000e+00,0.000000000000000000e+00,0.000000000000000000e+00,0.000000000000000000e+00,0.000000000000000000e+00
6.000000000000000000e+01,7.000000000000000000e+01,0.000000000000000000e+00,0.000000000000000000e+00,0.000000000000000000e+00,0.000000000000000000e+00,0.000000000000000000e+00,0.000000000000000000e+00,0.000000000000000000e+00,0.000000000000000000e+00,0.000000000000000000e+00,0.000000000000000000e+00,0.000000000000000000e+00,0.000000000000000000e+00
7.000000000000000000e+01,8.000000000000000000e+01,0.000000000000000000e+00,0.000000000000000000e+00,0.000000000000000000e+00,0.000000000000000000e+00,0.000000000000000000e+00,0.000000000000000000e+00,0.000000000000000000e+00,0.000000000000000000e+00,0.000000000000000000e+00,0.000000000000000000e+00,0.000000000000000000e+00,0.000000000000000000e+00
8.000000000000000000e+01,9.000000000000000000e+01,0.000000000000000000e+00,0.000000000000000000e+00,0.000000000000000000e+00,0.000000000000000000e+00,0.000000000000000000e+00,0.000000000000000000e+00,0.000000000000000000e+00,0.000000000000000000e+00,0.000000000000000000e+00,0.000000000000000000e+00,0.000000000000000000e+00,0.000000000000000000e+00
9.000000000000000000e+01,1.000000000000000000e+02,0.000000000000000000e+00,0.000000000000000000e+00,0.000000000000000000e+00,0.000000000000000000e+00,0.000000000000000000e+00,0.000000000000000000e+00,0.000000000000000000e+00,0.000000000000000000e+00,0.000000000000000000e+00,0.000000000000000000e+00,0.000000000000000000e+00,0.000000000000000000e+00
1.000000000000000000e+02,1.100000000000000000e+02,7.822419601043890947e-02,1.415593507972913586e-06,7.791995609222626684e-02,1.410193972671415713e-06,6.204533677195019081e-02,2.535904357631821958e-06,6.589026782745968647e-02,2.091343272264322185e-06,6.127660563829839813e-02,2.535710769956828451e-06,5.943915323137999307e-02,2.535521104087323185e-06
1.100000000000000000e+02,1.200000000000000000e+02,0.000000000000000000e+00,0.000000000000000000e+00,0.000000000000000000e+00,0.000000000000000000e+00,5.776536936670662557e-03,5.838732881565561623e-07,4.380127021740473289e-03,4.348230480573355186e-07,5.776536936670662557e-03,5.838732881565561623e-07,5.776536936670662557e-03,5.838732881565561623e-07
1.200000000000000000e+02,1.300000000000000000e+02,0.000000000000000000e+00,0.000000000000000000e+00,0.000000000000000000e+00,0.000000000000000000e+00,2.514106048667079374e-03,3.027935042074687880e-07,1.869194760778242941e-03,2.187011447285562655e-07,2.514106048667079374e-03,3.027935042074687880e-07,2.514106048667079374e-03,3.027935042074687880e-07
1.300000000000000000e+02,1.400000000000000000e+02,0.000000000000000000e+00,0.000000000000000000e+00,0.000000000000000000e+00,0.000000000000000000e+00,1.633333292806916784e-03,2.244023489668800278e-07,1.211273807997053720e-03,1.650431922796306553e-07,1.633333292806916784e-03,2.244023489668800278e-07,1.633333292806916784e-03,2.244023489668800278e-07
1.400000000000000000e+02,1.500000000000000000e+02,0.000000000000000000e+00,0.000000000000000000e+00,0.000000000000000000e+00,0.000000000000000000e+00,1.208870856222345972e-03,1.722780762870849697e-07,9.050740566800614300e-04,1.288247716387864630e-07,1.208870856222345972e-03,1.722780762870849697e-07,1.208870856222345972e-03,1.722780762870849697e-07
1.500000000000000000e+02,1.600000000000000000e+02,0.000000000000000000e+00,0.000000000000000000e+00,0.000000000000000000e+00,0.000000000000000000e+00,9.532276854374788699e-04,1.432406858783297302e-07,7.281349277626758933e-04,1.081437517409955814e-07,9.532276854374788699e-04,1.432406858783297302e-07,9.532276854374788699e-04,1.432406858783297302e-07
1.600000000000000000e+02,1.700000000000000000e+02,0.000000000000000000e+00,0.000000000000000000e+00,0.000000000000000000e+00,0.000000000000000000e+00,7.813911980752428262e-04,1.172998131012230128e-07,6.134285417921632802e-04,8.956526692835944627e-08,7.813911980752428262e-04,1.172998131012230128e-07,7.813911980752428262e-04,1.172998131012230128e-07
1.700000000000000000e+02,1.800000000000000000e+02,0.000000000000000000e+00,0.000000000000000000e+00,0.000000000000000000e+00,0.000000000000000000e+00,6.571628769713116309e-04,9.534236443424356812e-08,5.327916137905390264e-04,7.480856156978662356e-08,6.571628769713116309e-04,9.534236443424356812e-08,6.571628769713116309e-04,9.534236443424356812e-08
1.800000000000000000e+02,1.900000000000000000e+02,0.000000000000000000e+00,0.000000000000000000e+00,0.000000000000000000e+00,0.000000000000000000e+00,5.648301018368022267e-04,8.285320263487307027e-08,4.731691629543099942e-04,6.693835090020304433e-08,5.648301018368022267e-04,8.285320263487307027e-08,5.648301018368022267e-04,8.285320263487307027e-08
1.899999999999999716e+02,1.999999999999999716e+02,0.000000000000000000e+00,0.000000000000000000e+00,0.000000000000000000e+00,0.000000000000000000e+00,4.943485716117212037e-04,6.578931651157076552e-08,4.271639568887557756e-04,5.334738314488742169e-08,4.943485716117212037e-04,6.578931651157076552e-08,4.943485716117212037e-04,6.578931651157076552e-08
1.999999999999999716e+02,2.099999999999999716e+02,0.000000000000000000e+00,0.000000000000000000e+00,0.000000000000000000e+00,0.000000000000000000e+00,4.400733496769125065e-04,5.335180431931443144e-08,3.908195070430619828e-04,4.530208877680798590e-08,4.400733496769125065e-04,5.335180431931443144e-08,4.400733496769125065e-04,5.335180431931443144e-08
2.100000000000000000e+02,2.200000000000000000e+02,0.000000000000000000e+00,0.000000000000000000e+00,0.000000000000000000e+00,0.000000000000000000e+00,3.971595434701244366e-04,4.619913327987673398e-08,3.610533311737738026e-04,3.746909187701426284e-08,3.971595434701244366e-04,4.619913327987673398e-08,3.971595434701244366e-04,4.619913327987673398e-08
2.200000000000000000e+02,2.300000000000000000e+02,0.000000000000000000e+00,0.000000000000000000e+00,0.000000000000000000e+00,0.000000000000000000e+00,3.628643044196951952e-04,5.216062716772678074e-08,3.362761452424078263e-04,4.486030622907162760e-08,3.628643044196951952e-04,5.216062716772678074e-08,3.628643044196951952e-04,5.216062716772678074e-08
2.300000000000000000e+02,2.400000000000000000e+02,0.000000000000000000e+00,0.000000000000000000e+00,0.000000000000000000e+00,0.000000000000000000e+00,3.346856272694633525e-04,5.208362771726208197e-08,3.150888120876895642e-04,4.622583577428796788e-08,3.346856272694633525e-04,5.208362771726208197e-08,3.346856272694633525e-04,5.208362771726208197e-08
2.400000000000000000e+02,2.500000000000000000e+02,0.000000000000000000e+00,0.000000000000000000e+00,0.000000000000000000e+00,0.000000000000000000e+00,3.109900809581746554e-04,4.940544373157756911e-08,2.964582371945446992e-04,4.473836365784934937e-08,3.109900809581746554e-04,4.940544373157756911e-08,3.109900809581746554e-04,4.940544373157756911e-08
2.500000000000000000e+02,2.600000000000000000e+02,0.000000000000000000e+00,0.000000000000000000e+00,0.000000000000000000e+00,0.000000000000000000e+00,2.903949863229285215e-04,4.478778658834457376e-08,2.795765154555425827e-04,4.047756121922157902e-08,2.903949863229285215e-04,4.478778658834457376e-08,2.903949863229285215e-04,4.478778658834457376e-08
2.599999999999999432e+02,2.699999999999999432e+02,0.000000000000000000e+00,0.000000000000000000e+00,0.000000000000000000e+00,0.000000000000000000e+00,2.719807432329445981e-04,4.446829312440806568e-08,2.639982957100596179e-04,4.124401186458221472e-08,2.719807432329445981e-04,4.446829312440806568e-08,2.719807432329445981e-04,4.446829312440806568e-08
2.699999999999999432e+02,2.799999999999999432e+02,0.000000000000000000e+00,0.000000000000000000e+00,0.000000000000000000e+00,0.000000000000000000e+00,2.542124584437502723e-04,4.359141806814338762e-08,2.483831185140006120e-04,4.083378120380255917e-08,2.542124584437502723e-04,4.359141806814338762e-08,2.542124584437502723e-04,4.359141806814338762e-08
2.799999999999999432e+02,2.899999999999999432e+02,0.000000000000000000e+00,0.000000000000000000e+00,0.000000000000000000e+00,0.000000000000000000e+00,2.363124771053702632e-04,4.205301474749125385e-08,2.321106019605362119e-04,3.976472377365006930e-08,2.363124771053702632e-04,4.205301474749125385e-08,2.363124771053702632e-04,4.205301474749125385e-08
2.900000000000000000e+02,3.000000000000000000e+02,0.000000000000000000e+00,0.000000000000000000e+00,0.000000000000000000e+00,0.000000000000000000e+00,2.165190789813897928e-04,4.284903967902210062e-08,2.135983002565481237e-04,4.117200063565851531e-08,2.165190789813897928e-04,4.284903967902210062e-08,2.165190789813897928e-04,4.284903967902210062e-08
3.000000000000000000e+02,3.100000000000000000e+02,0.000000000000000000e+00,0.000000000000000000e+00,0.000000000000000000e+00,0.000000000000000000e+00,1.908160142806814930e-04,3.898573268979987207e-08,1.888310663916662889e-04,3.757492098539506279e-08,1.908160142806814930e-04,3.898573268979987207e-08,1.908160142806814930e-04,3.898573268979987207e-08
3.100000000000000000e+02,3.200000000000000000e+02,0.000000000000000000e+00,0.000000000000000000e+00,0.000000000000000000e+00,0.000000000000000000e+00,1.542046203276918181e-04,3.627476007293192086e-08,1.529375029654197365e-04,3.532818195739896980e-08,1.542046203276918181e-04,3.627476007293192086e-08,1.542046203276918181e-04,3.627476007293192086e-08
3.200000000000000000e+02,3.300000000000000000e+02,0.000000000000000000e+00,0.000000000000000000e+00,0.000000000000000000e+00,0.000000000000000000e+00,1.181899680998883839e-04,3.267144605071829314e-08,1.174268737664081280e-04,3.185978713261410900e-08,1.181899680998883839e-04,3.267144605071829314e-08,1.181899680998883839e-04,3.267144605071829314e-08
3.300000000000000000e+02,3.400000000000000000e+02,0.000000000000000000e+00,0.000000000000000000e+00,0.000000000000000000e+00,0.000000000000000000e+00,8.655956493182962428e-05,2.945352853327576261e-08,8.614325361862231085e-05,2.891413813091278113e-08,8.655956493182962428e-05,2.945352853327576261e-08,8.655956493182962428e-05,2.945352853327576261e-08
3.400000000000000000e+02,3.500000000000000000e+02,0.000000000000000000e+00,0.000000000000000000e+00,0.000000000000000000e+00,0.000000000000000000e+00,5.906370436501278136e-05,2.299869653032386608e-08,5.884890659895763212e-05,2.260375148299789177e-08,5.906370436501278136e-05,2.299869653032386608e-08,5.906370436501278136e-05,2.299869653032386608e-08
3.500000000000000000e+02,3.600000000000000000e+02,0.000000000000000000e+00,0.000000000000000000e+00,0.000000000000000000e+00,0.000000000000000000e+00,3.563305576868091527e-05,1.915360115310668696e-08,3.554744715081992841e-05,1.886953502653049158e-08,3.563305576868091527e-05,1.915360115310668696e-08,3.563305576868091527e-05,1.915360115310668696e-08
3.600000000000000000e+02,3.700000000000000000e+02,0.000000000000000000e+00,0.000000000000000000e+00,0.000000000000000000e+00,0.000000000000000000e+00,1.673413199615101838e-05,1.391836292401900971e-08,1.670924609488809516e-05,1.380888997086661721e-08,1.673413199615101838e-05,1.391836292401900971e-08,1.673413199615101838e-05,1.391836292401900971e-08
3.700000000000000568e+02,3.800000000000000568e+02,0.000000000000000000e+00,0.000000000000000000e+00,0.000000000000000000e+00,0.000000000000000000e+00,3.843899504724519429e-06,7.066047909914302860e-09,3.841118532333073944e-06,7.042756434945813185e-09,3.843899504724519429e-06,7.066047909914302860e-09,3.843899504724519429e-06,7.066047909914302860e-09
3.800000000000000568e+02,3.900000000000000568e+02,0.000000000000000000e+00,0.000000000000000000e+00,0.000000000000000000e+00,0.000000000000000000e+00,1.973949822694177110e-08,5.004341743158849116e-10,1.974550961878647222e-08,5.002117597006800993e-10,1.973949822694177110e-08,5.004341743158849116e-10,1.973949822694177110e-08,5.004341743158849116e-10
3.900000000000000568e+02,4.000000000000000568e+02,0.000000000000000000e+00,0.000000000000000000e+00,0.000000000000000000e+00,0.000000000000000000e+00,0.000000000000000000e+00,0.000000000000000000e+00,0.000000000000000000e+00,0.000000000000000000e+00,0.000000000000000000e+00,0.000000000000000000e+00,0.000000000000000000e+00,0.000000000000000000e+00
4.000000000000000568e+02,4.100000000000000568e+02,0.000000000000000000e+00,0.000000000000000000e+00,0.000000000000000000e+00,0.000000000000000000e+00,0.000000000000000000e+00,0.000000000000000000e+00,0.000000000000000000e+00,0.000000000000000000e+00,0.000000000000000000e+00,0.000000000000000000e+00,0.000000000000000000e+00,0.000000000000000000e+00
4.100000000000000000e+02,4.200000000000000000e+02,0.000000000000000000e+00,0.000000000000000000e+00,0.000000000000000000e+00,0.000000000000000000e+00,0.000000000000000000e+00,0.000000000000000000e+00,0.000000000000000000e+00,0.000000000000000000e+00,0.000000000000000000e+00,0.000000000000000000e+00,0.000000000000000000e+00,0.000000000000000000e+00
4.200000000000000000e+02,4.300000000000000000e+02,0.000000000000000000e+00,0.000000000000000000e+00,0.000000000000000000e+00,0.000000000000000000e+00,0.000000000000000000e+00,0.000000000000000000e+00,0.000000000000000000e+00,0.000000000000000000e+00,0.000000000000000000e+00,0.000000000000000000e+00,0.000000000000000000e+00,0.000000000000000000e+00
4.300000000000000000e+02,4.400000000000000000e+02,0.000000000000000000e+00,0.000000000000000000e+00,0.000000000000000000e+00,0.000000000000000000e+00,0.000000000000000000e+00,0.000000000000000000e+00,0.000000000000000000e+00,0.000000000000000000e+00,0.000000000000000000e+00,0.000000000000000000e+00,0.000000000000000000e+00,0.000000000000000000e+00
4.400000000000000000e+02,4.500000000000000000e+02,0.000000000000000000e+00,0.000000000000000000e+00,0.000000000000000000e+00,0.000000000000000000e+00,0.000000000000000000e+00,0.000000000000000000e+00,0.000000000000000000e+00,0.000000000000000000e+00,0.000000000000000000e+00,0.000000000000000000e+00,0.000000000000000000e+00,0.000000000000000000e+00
4.500000000000000000e+02,4.600000000000000000e+02,0.000000000000000000e+00,0.000000000000000000e+00,0.000000000000000000e+00,0.000000000000000000e+00,0.000000000000000000e+00,0.000000000000000000e+00,0.000000000000000000e+00,0.000000000000000000e+00,0.000000000000000000e+00,0.000000000000000000e+00,0.000000000000000000e+00,0.000000000000000000e+00
4.600000000000000000e+02,4.700000000000000000e+02,0.000000000000000000e+00,0.000000000000000000e+00,0.000000000000000000e+00,0.000000000000000000e+00,0.000000000000000000e+00,0.000000000000000000e+00,0.000000000000000000e+00,0.000000000000000000e+00,0.000000000000000000e+00,0.000000000000000000e+00,0.000000000000000000e+00,0.000000000000000000e+00
4.700000000000000000e+02,4.800000000000000000e+02,0.000000000000000000e+00,0.000000000000000000e+00,0.000000000000000000e+00,0.000000000000000000e+00,0.000000000000000000e+00,0.000000000000000000e+00,0.000000000000000000e+00,0.000000000000000000e+00,0.000000000000000000e+00,0.000000000000000000e+00,0.000000000000000000e+00,0.000000000000000000e+00
4.800000000000000000e+02,4.900000000000000000e+02,0.000000000000000000e+00,0.000000000000000000e+00,0.000000000000000000e+00,0.000000000000000000e+00,0.000000000000000000e+00,0.000000000000000000e+00,0.000000000000000000e+00,0.000000000000000000e+00,0.000000000000000000e+00,0.000000000000000000e+00,0.000000000000000000e+00,0.000000000000000000e+00
4.900000000000000000e+02,5.000000000000000000e+02,0.000000000000000000e+00,0.000000000000000000e+00,0.000000000000000000e+00,0.000000000000000000e+00,0.000000000000000000e+00,0.000000000000000000e+00,0.000000000000000000e+00,0.000000000000000000e+00,0.000000000000000000e+00,0.000000000000000000e+00,0.000000000000000000e+00,0.000000000000000000e+00
