# xl,xh,LO,dLO,LOISC,dLOISC,NLO,dNLO,NLOISC,dNLOISC,NLOL,dNLOL,NLOnovp,dNLOnovp
0.000000000000000000e+00,1.000000000000000000e+01,0.000000000000000000e+00,0.000000000000000000e+00,0.000000000000000000e+00,0.000000000000000000e+00,0.000000000000000000e+00,0.000000000000000000e+00,0.000000000000000000e+00,0.000000000000000000e+00,0.000000000000000000e+00,0.000000000000000000e+00,0.000000000000000000e+00,0.000000000000000000e+00
1.000000000000000000e+01,2.000000000000000000e+01,0.000000000000000000e+00,0.000000000000000000e+00,0.000000000000000000e+00,0.000000000000000000e+00,0.000000000000000000e+00,0.000000000000000000e+00,0.000000000000000000e+00,0.000000000000000000e+00,0.000000000000000000e+00,0.000000000000000000e+00,0.000000000000000000e+00,0.000000000000000000e+00
2.000000000000000000e+01,3.000000000000000000e+01,0.000000000000000000e+00,0.000000000000000000e+00,0.000000000000000000e+00,0.000000000000000000e+00,0.000000000000000000e+00,0.000000000000000000e+00,0.000000000000000000e+00,0.000000000000000000e+00,0.000000000000000000e+00,0.000000000000000000e+00,0.000000000000000000e+00,0.000000000000000000e+00
3.000000000000000000e+01,4.000000000000000000e+01,0.000000000000000000e+00,0.000000000000000000e+00,0.000000000000000000e+00,0.000000000000000000e+00,0.000000000000000000e+00,0.000000000000000000e+00,0.000000000000000000e+00,0.000000000000000000e+00,0.000000000000000000e+00,0.000000000000000000e+00,0.000000000000000000e+00,0.000000000000000000e+00
4.000000000000000000e+01,5.000000000000000000e+01,0.000000000000000000e+00,0.000000000000000000e+00,0.000000000000000000e+00,0.000000000000000000e+00,0.000000000000000000e+00,0.000000000000000000e+00,0.000000000000000000e+00,0.000000000000000000e+00,0.000000000000000000e+00,0.000000000000000000e+00,0.000000000000000000e+00,0.000000000000000000e+00
5.000000000000000000e+01,6.000000000000000000e+01,0.000000000000000000e+00,0.000000000000000000e+00,0.000000000000000000e+00,0.000000000000000000e+00,0.000000000000000000e+00,0.000000000000000000e+00,0.000000000000000000e+00,0.000000000000000000e+00,0.000000000000000000e+00,0.000000000000000000e+00,0.000000000000000000e+00,0.000000000000000000e+00
6.000000000000000000e+01,7.000000000000000000e+01,0.000000000000000000e+00,0.000000000000000000e+00,0.000000000000000000e+00,0.000000000000000000e+00,0.000000000000000000e+00,0.000000000000000000e+00,0.000000000000000000e+00,0.000000000000000000e+00,0.000000000000000000e+00,0.000000000000000000e+00,0.000000000000000000e+00,0.000000000000000000e+00
7.000000000000000000e+01,8.000000000000000000e+01,0.000000000000000000e+00,0.000000000000000000e+00,0.000000000000000000e+00,0.000000000000000000e+00,0.000000000000000000e+00,0.000000000000000000e+00,0.000000000000000000e+00,0.000000000000000000e+00,0.000000000000000000e+00,0.000000000000000000e+00,0.000000000000000000e+00,0.000000000000000000e+00
8.000000000000000000e+01,9.000000000000000000e+01,0.000000000000000000e+00,0.000000000000000000e+00,0.000000000000000000e+00,0.000000000000000000e+00,0.000000000000000000e+00,0.000000000000000000e+00,0.000000000000000000e+00,0.000000000000000000e+00,0.000000000000000000e+00,0.000000000000000000e+00,0.000000000000000000e+00,0.000000000000000000e+00
9.000000000000000000e+01,1.000000000000000000e+02,0.000000000000000000e+00,0.000000000000000000e+00,0.000000000000000000e+00,0.000000000000000000e+00,0.000000000000000000e+00,0.000000000000000000e+00,0.000000000000000000e+00,0.000000000000000000e+00,0.000000000000000000e+00,0.000000000000000000e+00,0.000000000000000000e+00,0.000000000000000000e+00
1.000000000000000000e+02,1.100000000000000000e+02,3.731997372102797694e-01,3.205563077363325529e-06,3.712409355242384246e-01,3.191877902402167410e-06,2.874379125983110295e-01,4.927104057458771269e-06,3.073305371116511475e-01,4.153570365504969170e-06,2.835882314004671834e-01,4.926864550516303581e-06,2.745770834151068929e-01,4.926391284870932090e-06
1.100000000000000000e+02,1.200000000000000000e+02,0.000000000000000000e+00,0.000000000000000000e+00,0.000000000000000000e+00,0.000000000000000000e+00,2.709308089338871225e-02,1.198234811234038153e-06,1.991946842563391967e-02,9.004026527270509165e-07,2.709308089338871225e-02,1.198234811234038153e-06,2.709308089338871225e-02,1.198234811234038153e-06
1.200000000000000000e+02,1.300000000000000000e+02,0.000000000000000000e+00,0.000000000000000000e+00,0.000000000000000000e+00,0.000000000000000000e+00,1.143049459914249541e-02,6.005605587797879395e-07,8.465065979815037181e-03,4.372168919592747572e-07,1.143049459914249541e-02,6.005605587797879395e-07,1.143049459914249541e-02,6.005605587797879395e-07
1.300000000000000000e+02,1.400000000000000000e+02,0.000000000000000000e+00,0.000000000000000000e+00,0.000000000000000000e+00,0.000000000000000000e+00,7.132922406328654624e-03,4.301835100631431086e-07,5.482193120914489147e-03,3.369219630844634810e-07,7.132922406328654624e-03,4.301835100631431086e-07,7.132922406328654624e-03,4.301835100631431086e-07
1.400000000000000000e+02,1.500000000000000000e+02,0.000000000000000000e+00,0.000000000000000000e+00,0.000000000000000000e+00,0.000000000000000000e+00,5.108631011962064782e-03,3.248204658571808376e-07,4.094273488356975355e-03,2.582706846236763302e-07,5.108631011962064782e-03,3.248204658571808376e-07,5.108631011962064782e-03,3.248204658571808376e-07
1.500000000000000000e+02,1.600000000000000000e+02,0.000000000000000000e+00,0.000000000000000000e+00,0.000000000000000000e+00,0.000000000000000000e+00,3.948115045103316352e-03,2.602677906663095386e-07,3.288165283110972611e-03,2.106066652632434969e-07,3.948115045103316352e-03,2.602677906663095386e-07,3.948115045103316352e-03,2.602677906663095386e-07
1.600000000000000000e+02,1.700000000000000000e+02,0.000000000000000000e+00,0.000000000000000000e+00,0.000000000000000000e+00,0.000000000000000000e+00,3.197896659466285818e-03,2.086928932855691216e-07,2.752318520182047736e-03,1.744565065451019318e-07,3.197896659466285818e-03,2.086928932855691216e-07,3.197896659466285818e-03,2.086928932855691216e-07
1.700000000000000000e+02,1.800000000000000000e+02,0.000000000000000000e+00,0.000000000000000000e+00,0.000000000000000000e+00,0.000000000000000000e+00,2.657823632194560286e-03,1.748303695053414971e-07,2.349878616015860407e-03,1.483517677451081814e-07,2.657823632194560286e-03,1.748303695053414971e-07,2.657823632194560286e-03,1.748303695053414971e-07
1.800000000000000000e+02,1.900000000000000000e+02,0.000000000000000000e+00,0.000000000000000000e+00,0.000000000000000000e+00,0.000000000000000000e+00,2.195843776773618791e-03,1.466582890635659365e-07,1.979543514929711125e-03,1.284167572720784934e-07,2.195843776773618791e-03,1.466582890635659365e-07,2.195843776773618791e-03,1.466582890635659365e-07
1.899999999999999716e+02,1.999999999999999716e+02,0.000000000000000000e+00,0.000000000000000000e+00,0.000000000000000000e+00,0.000000000000000000e+00,1.791201610025582426e-03,1.233683216740716746e-07,1.637176285661458633e-03,1.083202746449407935e-07,1.791201610025582426e-03,1.233683216740716746e-07,1.791201610025582426e-03,1.233683216740716746e-07
1.999999999999999716e+02,2.099999999999999716e+02,0.000000000000000000e+00,0.000000000000000000e+00,0.000000000000000000e+00,0.000000000000000000e+00,1.482684410220100465e-03,9.769487262014168718e-08,1.371728686922674785e-03,8.709534467608345139e-08,1.482684410220100465e-03,9.769487262014168718e-08,1.482684410220100465e-03,9.769487262014168718e-08
2.100000000000000000e+02,2.200000000000000000e+02,0.000000000000000000e+00,0.000000000000000000e+00,0.000000000000000000e+00,0.000000000000000000e+00,1.241913401756415550e-03,7.991919209967515543e-08,1.161394734490180970e-03,6.951903592454990518e-08,1.241913401756415550e-03,7.991919209967515543e-08,1.241913401756415550e-03,7.991919209967515543e-08
2.200000000000000000e+02,2.300000000000000000e+02,0.000000000000000000e+00,0.000000000000000000e+00,0.000000000000000000e+00,0.000000000000000000e+00,1.050501758456197062e-03,8.011698883376908445e-08,9.915995667660636777e-04,7.071818316496325358e-08,1.050501758456197062e-03,8.011698883376908445e-08,1.050501758456197062e-03,8.011698883376908445e-08
2.300000000000000000e+02,2.400000000000000000e+02,0.000000000000000000e+00,0.000000000000000000e+00,0.000000000000000000e+00,0.000000000000000000e+00,8.951718837571168022e-04,7.919473560277080741e-08,8.519968468188140109e-04,7.126744799899785022e-08,8.951718837571168022e-04,7.919473560277080741e-08,8.951718837571168022e-04,7.919473560277080741e-08
2.400000000000000000e+02,2.500000000000000000e+02,0.000000000000000000e+00,0.000000000000000000e+00,0.000000000000000000e+00,0.000000000000000000e+00,7.672659188597331405e-04,7.679047127891740396e-08,7.353719915315610296e-04,7.025012934633724203e-08,7.672659188597331405e-04,7.679047127891740396e-08,7.672659188597331405e-04,7.679047127891740396e-08
2.500000000000000000e+02,2.600000000000000000e+02,0.000000000000000000e+00,0.000000000000000000e+00,0.000000000000000000e+00,0.000000000000000000e+00,6.602413020470392861e-04,7.279488377345391832e-08,6.366642744953193798e-04,6.718622985208556539e-08,6.602413020470392861e-04,7.279488377345391832e-08,6.602413020470392861e-04,7.279488377345391832e-08
2.599999999999999432e+02,2.699999999999999432e+02,0.000000000000000000e+00,0.000000000000000000e+00,0.000000000000000000e+00,0.000000000000000000e+00,5.700286617729789567e-04,6.598069909027532265e-08,5.525885483670712767e-04,6.071730051523804844e-08,5.700286617729789567e-04,6.598069909027532265e-08,5.700286617729789567e-04,6.598069909027532265e-08
2.699999999999999432e+02,2.799999999999999432e+02,0.000000000000000000e+00,0.000000000000000000e+00,0.000000000000000000e+00,0.000000000000000000e+00,4.927007731329236711e-04,6.403062625076921865e-08,4.797998564573796175e-04,5.997880606150946300e-08,4.927007731329236711e-04,6.403062625076921865e-08,4.927007731329236711e-04,6.403062625076921865e-08
2.799999999999999432e+02,2.899999999999999432e+02,0.000000000000000000e+00,0.000000000000000000e+00,0.000000000000000000e+00,0.000000000000000000e+00,4.259301382845779986e-04,5.944632997719637855e-08,4.163920386290475184e-04,5.574763954738676180e-08,4.259301382845779986e-04,5.944632997719637855e-08,4.259301382845779986e-04,5.944632997719637855e-08
2.900000000000000000e+02,3.000000000000000000e+02,0.000000000000000000e+00,0.000000000000000000e+00,0.000000000000000000e+00,0.000000000000000000e+00,3.678992262449676752e-04,5.797224870371440766e-08,3.609098087844338719e-04,5.481522991816913166e-08,3.678992262449676752e-04,5.797224870371440766e-08,3.678992262449676752e-04,5.797224870371440766e-08
3.000000000000000000e+02,3.100000000000000000e+02,0.000000000000000000e+00,0.000000000000000000e+00,0.000000000000000000e+00,0.000000000000000000e+00,3.167627484025276139e-04,5.427966931101577842e-08,3.116272814012247807e-04,5.151156327760176853e-08,3.167627484025276139e-04,5.427966931101577842e-08,3.167627484025276139e-04,5.427966931101577842e-08
3.100000000000000000e+02,3.200000000000000000e+02,0.000000000000000000e+00,0.000000000000000000e+00,0.000000000000000000e+00,0.000000000000000000e+00,2.714845393283354144e-04,5.091990550087433984e-08,2.677428139326019398e-04,4.887825754085200567e-08,2.714845393283354144e-04,5.091990550087433984e-08,2.714845393283354144e-04,5.091990550087433984e-08
3.200000000000000000e+02,3.300000000000000000e+02,0.000000000000000000e+00,0.000000000000000000e+00,0.000000000000000000e+00,0.000000000000000000e+00,2.310248006524930921e-04,4.728584407590286123e-08,2.283672256500576575e-04,4.522145513062879365e-08,2.310248006524930921e-04,4.728584407590286123e-08,2.310248006524930921e-04,4.728584407590286123e-08
3.300000000000000000e+02,3.400000000000000000e+02,0.000000000000000000e+00,0.000000000000000000e+00,0.000000000000000000e+00,0.000000000000000000e+00,1.948260187340582715e-04,4.310735224265054403e-08,1.929633940110196547e-04,4.151887024851773394e-08,1.948260187340582715e-04,4.310735224265054403e-08,1.948260187340582715e-04,4.310735224265054403e-08
3.400000000000000000e+02,3.500000000000000000e+02,0.000000000000000000e+00,0.000000000000000000e+00,0.000000000000000000e+00,0.000000000000000000e+00,1.621040636081737328e-04,4.164627470789383856e-08,1.608339726570847674e-04,4.031494217539432034e-08,1.621040636081737328e-04,4.164627470789383856e-08,1.621040636081737328e-04,4.164627470789383856e-08
3.500000000000000000e+02,3.600000000000000000e+02,0.000000000000000000e+00,0.000000000000000000e+00,0.000000000000000000e+00,0.000000000000000000e+00,1.324736523246684069e-04,3.664170300426965430e-08,1.316006549241386032e-04,3.567018155408988064e-08,1.324736523246684069e-04,3.664170300426965430e-08,1.324736523246684069e-04,3.664170300426965430e-08
3.600000000000000000e+02,3.700000000000000000e+02,0.000000000000000000e+00,0.000000000000000000e+00,0.000000000000000000e+00,0.000000000000000000e+00,1.055462589119691709e-04,3.399716980006882919e-08,1.049943310421546446e-04,3.323887352110873777e-08,1.055462589119691709e-04,3.399716980006882919e-08,1.055462589119691709e-04,3.399716980006882919e-08
3.700000000000000568e+02,3.800000000000000568e+02,0.000000000000000000e+00,0.000000000000000000e+00,0.000000000000000000e+00,0.000000000000000000e+00,8.105034970620091897e-05,2.947494509100690720e-08,8.071529422511256480e-05,2.895983934457614710e-08,8.105034970620091897e-05,2.947494509100690720e-08,8.105034970620091897e-05,2.947494509100690720e-08
3.800000000000000568e+02,3.900000000000000568e+02,0.000000000000000000e+00,0.000000000000000000e+00,0.000000000000000000e+00,0.000000000000000000e+00,5.893210582903644966e-05,2.706666637892356006e-08,5.875302591231077441e-05,2.674510152556167743e-08,5.893210582903644966e-05,2.706666637892356006e-08,5.893210582903644966e-05,2.706666637892356006e-08
3.900000000000000568e+02,4.000000000000000568e+02,0.000000000000000000e+00,0.000000000000000000e+00,0.000000000000000000e+00,0.000000000000000000e+00,3.920759106435190095e-05,2.170580857237568254e-08,3.912321534319563194e-05,2.148801251276602986e-08,3.920759106435190095e-05,2.170580857237568254e-08,3.920759106435190095e-05,2.170580857237568254e-08
4.000000000000000568e+02,4.100000000000000568e+02,0.000000000000000000e+00,0.000000000000000000e+00,0.000000000000000000e+00,0.000000000000000000e+00,2.220318086436777103e-05,1.691709281709843373e-08,2.217078831237998611e-05,1.681976485420997184e-08,2.220318086436777103e-05,1.691709281709843373e-08,2.220318086436777103e-05,1.691709281709843373e-08
4.100000000000000000e+02,4.200000000000000000e+02,0.000000000000000000e+00,0.000000000000000000e+00,0.000000000000000000e+00,0.000000000000000000e+00,8.780522124198294901e-06,1.098177503207681486e-08,8.773852604541735581e-06,1.093801258977465875e-08,8.780522124198294901e-06,1.098177503207681486e-08,8.780522124198294901e-06,1.098177503207681486e-08
4.200000000000000000e+02,4.300000000000000000e+02,0.000000000000000000e+00,0.000000000000000000e+00,0.000000000000000000e+00,0.000000000000000000e+00,1.022155754224874058e-06,4.259395095479978749e-09,1.021525933447405800e-06,4.252829951611287935e-09,1.022155754224874058e-06,4.259395095479978749e-09,1.022155754224874058e-06,4.259395095479978749e-09
4.300000000000000000e+02,4.400000000000000000e+02,0.000000000000000000e+00,0.000000000000000000e+00,0.000000000000000000e+00,0.000000000000000000e+00,0.000000000000000000e+00,0.000000000000000000e+00,0.000000000000000000e+00,0.000000000000000000e+00,0.000000000000000000e+00,0.000000000000000000e+00,0.000000000000000000e+00,0.000000000000000000e+00
4.400000000000000000e+02,4.500000000000000000e+02,0.000000000000000000e+00,0.000000000000000000e+00,0.000000000000000000e+00,0.000000000000000000e+00,0.000000000000000000e+00,0.000000000000000000e+00,0.000000000000000000e+00,0.000000000000000000e+00,0.000000000000000000e+00,0.000000000000000000e+00,0.000000000000000000e+00,0.000000000000000000e+00
4.500000000000000000e+02,4.600000000000000000e+02,0.000000000000000000e+00,0.000000000000000000e+00,0.000000000000000000e+00,0.000000000000000000e+00,0.000000000000000000e+00,0.000000000000000000e+00,0.000000000000000000e+00,0.000000000000000000e+00,0.000000000000000000e+00,0.000000000000000000e+00,0.000000000000000000e+00,0.000000000000000000e+00
4.600000000000000000e+02,4.700000000000000000e+02,0.000000000000000000e+00,0.000000000000000000e+00,0.000000000000000000e+00,0.000000000000000000e+00,0.000000000000000000e+00,0.000000000000000000e+00,0.000000000000000000e+00,0.000000000000000000e+00,0.000000000000000000e+00,0.000000000000000000e+00,0.000000000000000000e+00,0.000000000000000000e+00
4.700000000000000000e+02,4.800000000000000000e+02,0.000000000000000000e+00,0.000000000000000000e+00,0.000000000000000000e+00,0.000000000000000000e+00,0.000000000000000000e+00,0.000000000000000000e+00,0.000000000000000000e+00,0.000000000000000000e+00,0.000000000000000000e+00,0.000000000000000000e+00,0.000000000000000000e+00,0.000000000000000000e+00
4.800000000000000000e+02,4.900000000000000000e+02,0.000000000000000000e+00,0.000000000000000000e+00,0.000000000000000000e+00,0.000000000000000000e+00,0.000000000000000000e+00,0.000000000000000000e+00,0.000000000000000000e+00,0.000000000000000000e+00,0.000000000000000000e+00,0.000000000000000000e+00,0.000000000000000000e+00,0.000000000000000000e+00
4.900000000000000000e+02,5.000000000000000000e+02,0.000000000000000000e+00,0.000000000000000000e+00,0.000000000000000000e+00,0.000000000000000000e+00,0.000000000000000000e+00,0.000000000000000000e+00,0.000000000000000000e+00,0.000000000000000000e+00,0.000000000000000000e+00,0.000000000000000000e+00,0.000000000000000000e+00,0.000000000000000000e+00
