# xl,xh,LO,dLO,LOISC,dLOISC,NLO,dNLO,NLOISC,dNLOISC,NLOL,dNLOL,NLOnovp,dNLOnovp
5.000000000000000000e+01,5.100000000000000000e+01,3.551951755956966883e-02,1.016267605453694761e-05,3.534063867591372837e-02,1.014024613320330090e-05,3.344345921394915183e-02,1.087580908056604673e-05,3.477010811295290493e-02,1.059433568489507305e-05,3.318633969587923838e-02,1.087474003284525819e-05,3.233884295364630040e-02,1.087240074384629023e-05
5.100000000000000000e+01,5.200000000000000000e+01,3.536161851774264481e-02,8.573211169751062099e-06,3.518844031294955654e-02,8.553180734591791750e-06,3.339543971259136684e-02,9.404292726791537024e-06,3.468921660614879277e-02,9.085821475443409443e-06,3.313862783026768483e-02,9.403433322575026107e-06,3.229399867676321922e-02,9.401344078001649284e-06
5.200000000000000000e+01,5.300000000000000000e+01,3.522668292701063020e-02,8.221680122301999524e-06,3.505843063851005886e-02,8.204464129664119329e-06,3.341601025007490816e-02,9.027348489083842687e-06,3.467057731878748356e-02,8.726092369167169507e-06,3.315956419691424434e-02,9.026375468056463259e-06,3.231869718483391246e-02,9.024448012205303464e-06
5.300000000000000000e+01,5.400000000000000000e+01,3.506204264928922121e-02,7.815900306818637908e-06,3.490469499565614087e-02,7.791341225803454149e-06,3.349351251130287116e-02,8.699271960948511530e-06,3.468862638476601090e-02,8.407410884546919280e-06,3.323719550413205270e-02,8.698459368144189374e-06,3.239994709873285361e-02,8.696282151357461683e-06
5.400000000000000000e+01,5.500000000000000000e+01,3.579488907160422589e-02,8.625904138154508389e-06,3.568527566170538734e-02,8.600699539872447115e-06,3.436810819712635828e-02,9.465119180606059623e-06,3.557342180416851740e-02,9.171422855551384970e-06,3.410885689199022464e-02,9.464291257800307335e-06,3.325319264510743361e-02,9.462152277443035723e-06
5.500000000000000000e+01,5.600000000000000000e+01,3.802689588264589887e-02,8.472216379263771332e-06,3.790924805972867295e-02,8.446240628144690288e-06,3.626737020983183957e-02,9.570487130047006732e-06,3.761412309606809723e-02,9.289508076680505239e-06,3.599125254618906755e-02,9.569555260224268649e-06,3.507922497828851183e-02,9.567620775136241192e-06
5.600000000000000000e+01,5.700000000000000000e+01,3.993663272007299397e-02,8.564750929793253040e-06,3.980045031090440055e-02,8.543608270302325926e-06,3.792337788513407831e-02,9.388325916464677995e-06,3.936231153893673257e-02,9.103019792484394143e-06,3.762852778157827621e-02,9.387245107508079934e-06,3.666925059515618868e-02,9.384781967577805894e-06
5.700000000000000000e+01,5.800000000000000000e+01,4.148152449890068344e-02,9.746849032474459146e-06,4.133126220998119271e-02,9.727195142796792217e-06,3.927750282724912223e-02,1.050205095150777704e-05,4.078635666698158385e-02,1.025666695078563339e-05,3.896400065666051626e-02,1.050113210906949782e-05,3.796601985841294158e-02,1.049937368096944534e-05
5.800000000000000000e+01,5.900000000000000000e+01,4.278546274248443138e-02,9.252792802814912285e-06,4.262359175123212052e-02,9.231640537706273681e-06,4.045359206069091412e-02,1.007916663225663581e-05,4.200457026963053120e-02,9.791580340857613054e-06,4.012160125862659910e-02,1.007809076222123597e-05,3.909127651626839728e-02,1.007615757788846465e-05
5.900000000000000000e+01,6.000000000000000000e+01,4.392701972912138597e-02,8.716973255002701828e-06,4.375593147714759018e-02,8.694216948399173363e-06,4.151164181163459477e-02,9.646606014638555376e-06,4.308715010193989170e-02,9.314658252644831480e-06,4.116251006766055709e-02,9.645697085667489221e-06,4.010436667651693515e-02,9.643609788728342263e-06
6.000000000000000000e+01,6.100000000000000000e+01,4.488569338729277852e-02,8.986621662294362245e-06,4.470581690253933038e-02,8.968054636394065066e-06,4.239608970152861089e-02,9.814501818868695221e-06,4.399063549918861421e-02,9.484609984300464193e-06,4.202996744498353754e-02,9.813649693247811451e-06,4.094798902233708765e-02,9.811459793644721823e-06
6.100000000000000000e+01,6.200000000000000000e+01,4.573852972526204486e-02,8.756195855361136748e-06,4.555205091621788993e-02,8.732946677727971118e-06,4.321934930985058682e-02,9.632551360751446612e-06,4.481672819733019397e-02,9.358661207705389832e-06,4.283715656264996258e-02,9.631592581741963078e-06,4.173396861708555255e-02,9.629475350986510930e-06
6.200000000000000000e+01,6.300000000000000000e+01,4.649926000003152399e-02,8.564178389329686771e-06,4.630803649347633999e-02,8.538633854773754498e-06,4.395431879675854026e-02,9.458674347960335435e-06,4.554818333137646003e-02,9.167562452970219348e-06,4.355685382778968356e-02,9.457816728635235758e-06,4.243521608505461395e-02,9.455666905446931497e-06
6.300000000000000000e+01,6.400000000000000000e+01,4.714015896283698520e-02,8.539888944797894755e-06,4.694475069304719639e-02,8.515958620259163813e-06,4.458462747994400982e-02,9.478024054525518663e-06,4.617306909426410061e-02,9.131343479135983510e-06,4.417237137146021869e-02,9.477150431858285726e-06,4.303435307382701830e-02,9.474758560825047285e-06
6.400000000000000000e+01,6.500000000000000000e+01,4.774395478395685594e-02,8.338555131467409784e-06,4.754395387853553590e-02,8.309494177135271341e-06,4.518580964221168006e-02,9.234645862930054234e-06,4.675862196557377393e-02,8.965272786788686476e-06,4.475952622878207748e-02,9.233568882726697071e-06,4.360718663724747618e-02,9.231548961473191235e-06
6.500000000000000000e+01,6.600000000000000000e+01,4.829154612430364840e-02,8.976480877999417913e-06,4.809020571480465689e-02,8.954790985243801517e-06,4.574560852622201745e-02,9.765260460598371658e-06,4.730440882717993484e-02,9.493928630247538337e-06,4.530517025530123726e-02,9.764300557534213575e-06,4.413966544492227417e-02,9.762175302837322436e-06
6.600000000000000000e+01,6.700000000000000000e+01,4.876194234461034976e-02,8.815780480570046258e-06,4.855771224499719207e-02,8.794427709278849662e-06,4.622807257148324467e-02,9.788836803392285497e-06,4.776761453154648035e-02,9.502747074577752665e-06,4.577454079001995468e-02,9.787896162166277833e-06,4.459731774568461565e-02,9.786047476684155122e-06
6.700000000000000000e+01,6.800000000000000000e+01,4.918036979645500073e-02,8.542409614766107508e-06,4.897242992477358198e-02,8.516673949449385251e-06,4.667709998516367254e-02,9.727365137757179996e-06,4.818661909997840054e-02,9.433655921322194892e-06,4.621029942221537012e-02,9.726354663765332523e-06,4.502226100937862380e-02,9.724303768618693531e-06
6.800000000000000000e+01,6.900000000000000000e+01,4.948291885441215288e-02,8.179511817510557771e-06,4.926993916925846706e-02,8.152664436495942924e-06,4.701891269213216706e-02,9.194979695116644680e-06,4.849836069199004590e-02,8.840890341409271850e-06,4.653838771567790633e-02,9.193998638171007391e-06,4.534321070467414727e-02,9.191971462315470079e-06
6.900000000000000000e+01,7.000000000000000000e+01,4.964575562673086834e-02,8.736313369060991674e-06,4.942904382563929194e-02,8.714301771577619200e-06,4.724063794992858917e-02,9.669197733832163107e-06,4.868677482932899647e-02,9.388549926743264669e-06,4.674498160207782999e-02,9.668259478101588902e-06,4.554553077971683350e-02,9.665837222709038981e-06
7.000000000000000000e+01,7.100000000000000000e+01,4.979399417447540749e-02,8.524292592225620016e-06,4.957550572991729215e-02,8.503538999925580534e-06,4.744464635713370460e-02,9.434035234965589952e-06,4.885733214594171342e-02,9.177176445108095791e-06,4.693454126841462015e-02,9.433067355117579823e-06,4.573144170316190138e-02,9.430548284991618069e-06
7.100000000000000000e+01,7.200000000000000000e+01,4.992012479196276248e-02,8.121355960214197891e-06,4.969858410971055018e-02,8.095761085799697178e-06,4.762135558643286470e-02,9.118723580412939599e-06,4.900299043048150782e-02,8.823658770499839276e-06,4.709640528563265038e-02,9.117636882214739285e-06,4.588945312213709576e-02,9.115055217705552031e-06
7.200000000000000000e+01,7.300000000000000000e+01,4.999860516557843443e-02,8.642100991417873238e-06,4.977470955670156710e-02,8.618778318314725131e-06,4.775147590263142255e-02,9.480267581153205948e-06,4.909573079910750648e-02,9.181478070966446340e-06,4.721240770544248011e-02,9.479230286763323836e-06,4.600325470447507586e-02,9.477037368673850377e-06
7.300000000000000000e+01,7.400000000000000000e+01,5.006088085843066193e-02,8.419303135348928501e-06,4.983483100160054913e-02,8.393690130102158292e-06,4.787005017213846053e-02,9.358615706397064980e-06,4.918026463740527571e-02,9.058614433572316575e-06,4.731645444439774861e-02,9.357558177364518301e-06,4.610542379691724008e-02,9.354992128184539294e-06
7.400000000000000000e+01,7.500000000000000000e+01,5.012863356516619739e-02,8.350930644499395957e-06,4.990233374893050800e-02,8.325753802546032059e-06,4.797903925379527063e-02,9.483074409558313846e-06,4.925895343324325493e-02,9.165804141890072457e-06,4.741096179504921543e-02,9.482132504565649010e-06,4.619820138329641668e-02,9.479853697152002318e-06
7.500000000000000000e+01,7.600000000000000000e+01,5.016834167443315340e-02,8.178618616525086429e-06,4.994036192666865409e-02,8.156861233921709143e-06,4.807530391471526166e-02,8.997392537448618255e-06,4.931664955164663522e-02,8.739235369463232140e-06,4.749271834475398552e-02,8.996339509882889348e-06,4.627830742738602704e-02,8.994320265778939694e-06
7.600000000000000000e+01,7.700000000000000000e+01,5.019362245302020492e-02,8.661284601749220043e-06,4.996498444828822993e-02,8.639005817805540222e-06,4.815902998500551369e-02,9.560492994204866760e-06,4.936606308222254297e-02,9.258615029952371611e-06,4.756101865759301828e-02,9.559483976145468609e-06,4.634594542939216716e-02,9.557111626229874553e-06
7.700000000000000000e+01,7.800000000000000000e+01,5.022733605542653579e-02,8.534733644413952059e-06,4.999743135683683976e-02,8.511456000209309682e-06,4.824510350449880830e-02,9.547280231722741895e-06,4.941605858015696295e-02,9.313532723856252977e-06,4.763062514677521286e-02,9.546252247343721390e-06,4.641417506734116238e-02,9.544208863223761218e-06
7.800000000000000000e+01,7.900000000000000000e+01,5.025904840586482847e-02,8.812441629715266625e-06,5.002785633213775035e-02,8.790853181627928683e-06,4.832343030851474208e-02,9.666737960845509745e-06,4.945945533161071744e-02,9.396106261942133013e-06,4.769971438087973470e-02,9.665718309446211747e-06,4.648274337341893464e-02,9.663237828993507470e-06
7.900000000000000000e+01,8.000000000000000000e+01,5.026339199217112752e-02,8.156780246281898606e-06,5.003195493920798570e-02,8.132629591860207854e-06,4.836922287390325176e-02,9.195611770930556134e-06,4.946868751211655479e-02,8.893401289205757186e-06,4.774474478519383919e-02,9.194625571158995423e-06,4.652718522255672867e-02,9.192547081665560879e-06
8.000000000000000000e+01,8.100000000000000000e+01,5.028428699169120580e-02,8.081374336178127966e-06,5.005168975335703291e-02,8.058341475174872695e-06,4.842186839097688961e-02,9.037663611213496475e-06,4.948633454251485930e-02,8.752428489525643820e-06,4.779719049050824148e-02,9.036535285094005193e-06,4.657918356243071628e-02,9.034544296872942229e-06
8.100000000000000000e+01,8.200000000000000000e+01,5.027846707004402643e-02,8.438685244151627825e-06,5.004442439293652067e-02,8.416322265534066110e-06,4.845793234138508904e-02,9.307900776378071167e-06,4.948462909756400768e-02,9.016624823186836980e-06,4.783287968021334574e-02,9.306906615082676933e-06,4.661497280831444073e-02,9.304517888755727144e-06
8.200000000000000000e+01,8.300000000000000000e+01,5.028363822497635555e-02,7.922073515356457395e-06,5.004917698270940074e-02,7.899476341670462121e-06,4.849778059069801556e-02,8.820450596209006668e-06,4.948858840119865071e-02,8.579371110305589150e-06,4.787235667923648436e-02,8.819401795594238982e-06,4.665387320100604363e-02,8.817232283274150205e-06
8.300000000000000000e+01,8.400000000000000000e+01,5.029388296430026967e-02,8.030732744254425213e-06,5.005876353212112412e-02,8.006665114536308452e-06,4.855170132879829681e-02,8.965032611080421077e-06,4.950430545081395406e-02,8.701479155029599903e-06,4.792616851242503806e-02,8.964075006432711479e-06,4.670743526792789369e-02,8.961482171777966198e-06
8.400000000000000000e+01,8.500000000000000000e+01,5.027735852639418634e-02,8.172781287892053921e-06,5.003998962165476239e-02,8.152383494041995598e-06,4.856953701073463137e-02,9.025732369456808084e-06,4.948603114985420520e-02,8.770521742972892324e-06,4.794366161656198749e-02,9.024780391978425644e-06,4.672494965731079780e-02,9.022396974550944573e-06
8.500000000000000000e+01,8.600000000000000000e+01,5.028774517216458295e-02,8.964542613194570871e-06,5.004990583978792540e-02,8.947538833705709772e-06,4.862113815948830575e-02,9.957703421728247579e-06,4.950158679290810049e-02,9.751394106276391869e-06,4.799529843598488582e-02,9.956674786940865262e-06,4.677663546970035197e-02,9.954601273572933311e-06
8.600000000000000000e+01,8.700000000000000000e+01,5.028390448542734148e-02,7.937473446118598427e-06,5.004420085750330843e-02,7.917383892556690604e-06,4.865056894343364191e-02,8.939074841776173768e-06,4.949150577605017365e-02,8.668680804255483708e-06,4.802503494633270087e-02,8.938025074960867316e-06,4.680593257518304157e-02,8.935835478848896642e-06
8.700000000000000000e+01,8.800000000000000000e+01,5.028835658619401627e-02,8.168825159340172595e-06,5.004734018928642947e-02,8.145385617564703947e-06,4.869762503768963052e-02,9.126768326997629577e-06,4.949989578000809493e-02,8.876277217891838324e-06,4.807223983275127344e-02,9.125907796538683370e-06,4.685362725543037316e-02,9.123790090775756869e-06
8.800000000000000000e+01,8.900000000000000000e+01,5.028683989003173566e-02,8.561003646345913598e-06,5.004532760415950771e-02,8.540741165009044998e-06,4.872455004513168847e-02,9.438605783512933560e-06,4.949166348299929852e-02,9.169738473824489767e-06,4.809927770536578245e-02,9.437504150137890905e-06,4.688047995921831856e-02,9.435271646477717223e-06
8.900000000000000000e+01,9.000000000000000000e+01,5.028907909948864691e-02,8.356375784772127687e-06,5.004579589513569182e-02,8.334802720193299624e-06,4.876749623626570190e-02,9.174781340431711823e-06,4.949590342479467248e-02,8.929047698698620487e-06,4.814234677540073920e-02,9.173805633873437237e-06,4.692328520362051836e-02,9.171473118301828634e-06
9.000000000000000000e+01,9.100000000000000000e+01,5.029782409975913637e-02,8.425943105988961004e-06,5.005337115620626248e-02,8.407615599176275310e-06,4.881316093941925893e-02,9.279540780444579603e-06,4.950568924274616894e-02,9.023027239832480148e-06,4.818787312541254753e-02,9.278538429933432571e-06,4.696882311692562872e-02,9.275947899908303708e-06
9.100000000000000000e+01,9.200000000000000000e+01,5.028942151252498854e-02,8.058242692003171772e-06,5.004239513356715380e-02,8.035249037330889673e-06,4.883770573454052077e-02,8.941820679802867626e-06,4.948881288718966903e-02,8.685641292865948650e-06,4.821232148734889977e-02,8.940848040004294249e-06,4.699340588746996061e-02,8.938797067641200049e-06
9.200000000000000000e+01,9.300000000000000000e+01,5.029845620113382321e-02,7.807647940943169759e-06,5.005031957515994334e-02,7.785227409493843313e-06,4.888001304574478290e-02,8.710607301017872601e-06,4.949590816525002712e-02,8.455375232038801219e-06,4.825440905583649326e-02,8.709615287060255048e-06,4.703533476026108134e-02,8.707369073738706534e-06
9.300000000000000000e+01,9.400000000000000000e+01,5.029256270440209120e-02,8.843744058512722670e-06,5.004146198661076766e-02,8.824654315629453007e-06,4.891582178911421663e-02,9.635120910500390769e-06,4.949093446730191276e-02,9.395310486515969051e-06,4.828978301963001568e-02,9.634145510784971616e-06,4.707092517585622499e-02,9.631919065453612477e-06
9.400000000000000000e+01,9.500000000000000000e+01,5.031400921541627491e-02,8.046175256504208391e-06,5.006224211622518905e-02,8.021774981942848243e-06,4.897464944304519979e-02,8.924894274319609321e-06,4.951140310543993006e-02,8.661844747690223881e-06,4.834842270708686329e-02,8.923923554330059001e-06,4.712917259065446673e-02,8.921481403033440470e-06
9.500000000000000000e+01,9.600000000000000000e+01,5.029952871459416469e-02,8.698985896109400802e-06,5.004451065303366225e-02,8.676103536252641920e-06,4.899917518904751274e-02,9.618445922161605868e-06,4.949422814997775366e-02,9.380583747766098142e-06,4.837297448496424151e-02,9.617549211026970939e-06,4.715365184333432380e-02,9.615588856821538226e-06
9.600000000000000000e+01,9.700000000000000000e+01,5.031368462131425440e-02,8.843255510177489264e-06,5.005617094840230513e-02,8.826357658013119937e-06,4.903701765410724278e-02,9.652554397071570243e-06,4.949687847866682949e-02,9.405476966563932167e-06,4.841058387323040474e-02,9.651635518955470463e-06,4.719154889095744654e-02,9.649196015389849802e-06
9.700000000000000000e+01,9.800000000000000000e+01,5.031106773385604636e-02,8.463339689491821433e-06,5.005198280417561679e-02,8.445472701434367645e-06,4.907057099104387282e-02,9.317161134060598606e-06,4.949144457884278175e-02,9.093532574281747776e-06,4.844424291601848176e-02,9.316306292917456554e-06,4.722528283549171785e-02,9.314418493944604560e-06
9.800000000000000000e+01,9.900000000000000000e+01,5.030768486403471018e-02,8.764380440872145445e-06,5.004588770168706680e-02,8.738617225427064463e-06,4.910907010445073745e-02,9.565654648337320259e-06,4.948976481268351629e-02,9.353090821857811359e-06,4.848291379513981758e-02,9.564715138737221636e-06,4.726374323099997998e-02,9.562335429719320281e-06
9.900000000000000000e+01,1.000000000000000000e+02,5.030605345507617454e-02,8.170841268310100419e-06,5.004059554096047108e-02,8.148516397207252945e-06,4.913503127482080762e-02,9.026267215121330331e-06,4.947325820469455904e-02,8.815930544943198713e-06,4.850936429945761769e-02,9.025131962399352212e-06,4.729068334894280523e-02,9.023094161052463050e-06
1.000000000000000000e+02,1.010000000000000000e+02,5.030079975770712641e-02,8.477607353679373616e-06,5.003364820226678666e-02,8.459639757159095213e-06,4.916643767056586012e-02,9.245569353121798408e-06,4.946827657054072430e-02,9.017983014439869607e-06,4.854076661264663389e-02,9.244527005931697051e-06,4.732261651919852929e-02,9.242269606712325567e-06
1.010000000000000000e+02,1.020000000000000000e+02,5.029917297080847144e-02,8.804939820614741147e-06,5.002860661237136519e-02,8.782135022832272066e-06,4.919681313124243255e-02,9.637779614581662001e-06,4.945737121890733667e-02,9.440196452538867215e-06,4.857148633650442554e-02,9.636701110824982559e-06,4.735341967031056476e-02,9.634964051040170759e-06
1.020000000000000000e+02,1.030000000000000000e+02,5.026626343357923354e-02,8.566335967316159459e-06,4.999270329576802063e-02,8.542339783183437201e-06,4.919443831905622594e-02,9.368210240178494644e-06,4.941376434768438020e-02,9.125486935500581076e-06,4.857770635705271900e-02,9.367252345338234135e-06,4.736042584955942047e-02,9.365187305373220224e-06
1.030000000000000000e+02,1.040000000000000000e+02,5.025506629478368459e-02,8.578573746442128928e-06,4.997938609067333060e-02,8.553323752734589847e-06,4.919178335868947677e-02,9.317331368968843907e-06,4.937520000065571957e-02,9.108735802713581836e-06,4.859056762872678015e-02,9.316253305998975812e-06,4.737409869110787569e-02,9.314280700252808624e-06
1.040000000000000000e+02,1.050000000000000000e+02,5.023114764264608595e-02,8.702732087468037110e-06,4.995228410976166461e-02,8.680808927490591160e-06,4.919086651573615493e-02,9.515451696156070798e-06,4.932978462754349092e-02,9.321974461251741014e-06,4.860519022736776301e-02,9.514468833541468398e-06,4.738950700396780263e-02,9.512457802392205062e-06
1.050000000000000000e+02,1.060000000000000000e+02,5.017251161675735649e-02,8.870038402298745936e-06,4.988928353982980540e-02,8.848425839708739661e-06,4.915380975959501852e-02,9.656188060659798294e-06,4.925242694491017287e-02,9.474014803650907408e-06,4.858223361188697409e-02,9.655235196993591342e-06,4.736788452176610847e-02,9.653093725274481830e-06
1.060000000000000000e+02,1.070000000000000000e+02,5.012347477541211072e-02,8.596142138253170444e-06,4.983671358100878052e-02,8.576115093713009832e-06,4.911499552243236283e-02,9.382298549309151431e-06,4.917319920456023064e-02,9.158617830831541939e-06,4.855783790022889790e-02,9.381319555662439235e-06,4.734506317029904543e-02,9.379214714444992712e-06
1.070000000000000000e+02,1.080000000000000000e+02,5.005268872029595972e-02,8.562180832721213698e-06,4.976380171561854693e-02,8.542163158063007083e-06,4.906895132472653687e-02,9.449906224105245181e-06,4.908880266284029043e-02,9.144544172657006193e-06,4.852584808387647164e-02,9.448849026154064099e-06,4.731520622914493768e-02,9.446800210033981732e-06
1.080000000000000000e+02,1.090000000000000000e+02,4.999154732274112972e-02,8.265736536721134085e-06,4.969618175867589888e-02,8.241257978441216084e-06,4.902147516178762682e-02,9.083647123898445829e-06,4.899929378569383570e-02,8.864292504745278778e-06,4.849255103619634633e-02,9.082658289245363505e-06,4.728430685792106569e-02,9.080649145378087353e-06
1.090000000000000000e+02,1.100000000000000000e+02,4.986754954651782118e-02,9.185241503437061429e-06,4.956877965688000903e-02,9.164377253596125110e-06,4.890774085872649085e-02,1.007169550845614828e-05,4.884730038439956401e-02,9.884471947859245432e-06,4.839288751118795556e-02,1.007078065363494967e-05,4.718734786055639452e-02,1.006857430320247317e-05
1.100000000000000000e+02,1.110000000000000000e+02,4.974176327797219521e-02,8.323778848736521581e-06,4.943741277488480218e-02,8.296810901118141155e-06,4.879985553847809854e-02,9.155691241720395756e-06,4.869885035159301351e-02,8.916350109867415157e-06,4.829944080783737936e-02,9.154767176672586027e-06,4.709772171739669278e-02,9.152327241585640752e-06
1.110000000000000000e+02,1.120000000000000000e+02,4.956502839308209174e-02,8.894579396363074474e-06,4.925528104140688285e-02,8.868682084647008782e-06,4.862705119070750981e-02,9.638492633614589299e-06,4.848866721339320507e-02,9.445929250273878434e-06,4.814108077622294285e-02,9.637510808157964741e-06,4.694416298328109999e-02,9.635144704681961302e-06
1.120000000000000000e+02,1.130000000000000000e+02,4.931637788762864572e-02,8.697435334869010488e-06,4.899990709701870090e-02,8.670660501091210649e-06,4.839240581171802558e-02,9.463548025433354911e-06,4.821342324579475785e-02,9.249110369725427726e-06,4.792000302438233217e-02,9.462769214255861315e-06,4.672963253785466370e-02,9.460192863826953733e-06
1.130000000000000000e+02,1.140000000000000000e+02,4.886720991869467762e-02,8.937360127506723131e-06,4.854829734797381363e-02,8.917134899599052405e-06,4.797680810154064668e-02,9.723880540911213809e-06,4.775773975300420804e-02,9.546617711559791136e-06,4.751704071848045219e-02,9.723025307199442718e-06,4.633674340438795336e-02,9.720780951501217557e-06
1.140000000000000000e+02,1.150000000000000000e+02,4.839715321273123372e-02,8.758280387660578729e-06,4.807548035179446538e-02,8.734569999033453034e-06,4.754966641894671497e-02,9.514623642611853751e-06,4.728490331151060516e-02,9.328177764593897280e-06,4.710321202401802215e-02,9.513641573439255819e-06,4.593488338542103810e-02,9.511441806572542109e-06
1.150000000000000000e+02,1.160000000000000000e+02,4.787678943512350266e-02,8.929643036761114017e-06,4.755356394495820205e-02,8.907121352413982458e-06,4.707163121838676273e-02,9.757003241023169034e-06,4.676775078345267456e-02,9.571637784610780874e-06,4.663838830300282012e-02,9.756085565980949397e-06,4.548283356866761329e-02,9.753981371354261782e-06
1.160000000000000000e+02,1.170000000000000000e+02,4.728767491224237368e-02,8.579762987942144678e-06,4.696134418612945421e-02,8.551894962316764444e-06,4.653466149088380382e-02,9.339391404094744497e-06,4.618893294897020996e-02,9.133928434273518303e-06,4.611564922351322343e-02,9.338416394230625254e-06,4.497453454555760261e-02,9.336264835502910037e-06
1.170000000000000000e+02,1.180000000000000000e+02,4.661182623835289501e-02,8.725749345011705901e-06,4.628370477679139700e-02,8.703438425302570668e-06,4.590705332389540677e-02,9.459105150618672903e-06,4.552298684912468862e-02,9.276471831729227633e-06,4.550235564265839999e-02,9.458176738291014719e-06,4.437753358033801054e-02,9.456219028412681416e-06
1.180000000000000000e+02,1.190000000000000000e+02,4.588920735689519526e-02,8.721063694580520847e-06,4.555832375579045579e-02,8.695542591421822438e-06,4.523604869369429737e-02,9.524181594420103091e-06,4.481578633065691486e-02,9.360395232868519476e-06,4.484643153203984184e-02,9.523319500238089903e-06,4.373985752773162927e-02,9.521203611580999454e-06
1.190000000000000000e+02,1.200000000000000000e+02,4.504713067867743836e-02,8.856855428474906338e-06,4.471685523380142940e-02,8.832382750816731003e-06,4.446131296575019098e-02,9.709801590024510411e-06,4.400643247849524847e-02,9.553921285012166085e-06,4.408742314345748953e-02,9.708849277253710970e-06,4.300138352857613838e-02,9.706835912313462123e-06
1.200000000000000000e+02,1.210000000000000000e+02,4.407673855495815307e-02,8.707250374683569378e-06,4.374559172813048680e-02,8.684086812373352236e-06,4.355854542852071604e-02,9.423621569128611439e-06,4.307273301500131463e-02,9.252018158104716679e-06,4.320109641117649696e-02,9.422732124160011796e-06,4.213890197547028732e-02,9.420584883899086053e-06
1.210000000000000000e+02,1.220000000000000000e+02,4.296755709943910623e-02,8.296037996798917281e-06,4.263613444013032022e-02,8.272832064044275332e-06,4.253504174324505838e-02,9.089469072329305662e-06,4.201790160712580435e-02,8.860853119677649257e-06,4.219484096748558205e-02,9.088436199339257668e-06,4.116037013827003599e-02,9.086166126397541019e-06
1.220000000000000000e+02,1.230000000000000000e+02,4.167115617269907119e-02,8.110575156890384929e-06,4.134107873031409031e-02,8.084489401692424279e-06,4.133389936827672889e-02,8.832120057461520214e-06,4.079497875555625902e-02,8.643250718992001854e-06,4.101142452687045470e-02,8.831096084385911402e-06,4.000928722648893626e-02,8.828591835244612717e-06
1.230000000000000000e+02,1.240000000000000000e+02,4.012494826885305149e-02,8.850319225043143157e-06,3.979979860956294607e-02,8.827603747992986168e-06,3.991659659600826221e-02,9.597118887754216339e-06,3.936552962039938097e-02,9.437823756549753044e-06,3.961238429041615688e-02,9.596225333057440706e-06,3.864880804216027504e-02,9.593805428833782119e-06
1.240000000000000000e+02,1.250000000000000000e+02,3.823592295068867913e-02,8.835096130184361439e-06,3.791720659684957861e-02,8.807634972505453761e-06,3.818013556377215789e-02,9.537469596366536555e-06,3.761965836607182589e-02,9.377545157665832920e-06,3.789420083226820168e-02,9.536622921498106957e-06,3.697727661682644745e-02,9.534503476152933758e-06
1.250000000000000000e+02,1.260000000000000000e+02,3.598110348282566179e-02,8.202263366999289345e-06,3.568558428052570619e-02,8.183872749826859845e-06,3.611694381611964960e-02,8.904416075685032608e-06,3.557458145879296985e-02,8.750977900779986510e-06,3.584886136628710057e-02,8.903524445362528427e-06,3.498835768076761360e-02,8.901040331504876389e-06
1.260000000000000000e+02,1.270000000000000000e+02,3.514015419629193393e-02,8.202318477865370592e-06,3.490931146742212721e-02,8.182586452047132088e-06,3.518153159423296344e-02,8.860660803745298297e-06,3.469233925572096783e-02,8.710857553944204964e-06,3.492202685603964379e-02,8.859929062380233347e-06,3.408299996444947438e-02,8.857896582611940670e-06
1.270000000000000000e+02,1.280000000000000000e+02,3.527546091889616209e-02,8.333926811122359740e-06,3.504809238912284797e-02,8.314195029294882262e-06,3.517540151357923667e-02,9.035040560091973019e-06,3.465950974924469213e-02,8.868911492741729478e-06,3.491605534033952879e-02,9.034135901591436663e-06,3.407378236745028932e-02,9.032493262872573359e-06
1.280000000000000000e+02,1.290000000000000000e+02,3.541761575639152532e-02,8.270140179119235112e-06,3.518676436812626096e-02,8.248814472344007708e-06,3.525288954233374294e-02,8.996877589580149927e-06,3.469469245630591586e-02,8.819582244625176999e-06,3.499331510222460084e-02,8.995722094755672827e-06,3.414731277291300354e-02,8.993554905440926349e-06
1.290000000000000000e+02,1.300000000000000000e+02,3.555993174737341611e-02,8.619065998403987170e-06,3.532647099729374629e-02,8.594164704489206096e-06,3.535703026976049629e-02,9.365387671035394122e-06,3.475432692116365435e-02,9.179919469653079536e-06,3.509769937515092031e-02,9.364173805995863213e-06,3.424853104813034566e-02,9.361544819410212254e-06
