# xl,xh,LO,dLO,LOISC,dLOISC,NLO,dNLO,NLOISC,dNLOISC,NLOL,dNLOL,NLOnovp,dNLOnovp
0.000000000000000000e+00,1.000000000000000000e+01,0.000000000000000000e+00,0.000000000000000000e+00,0.000000000000000000e+00,0.000000000000000000e+00,0.000000000000000000e+00,0.000000000000000000e+00,0.000000000000000000e+00,0.000000000000000000e+00,0.000000000000000000e+00,0.000000000000000000e+00,0.000000000000000000e+00,0.000000000000000000e+00
1.000000000000000000e+01,2.000000000000000000e+01,0.000000000000000000e+00,0.000000000000000000e+00,0.000000000000000000e+00,0.000000000000000000e+00,0.000000000000000000e+00,0.000000000000000000e+00,0.000000000000000000e+00,0.000000000000000000e+00,0.000000000000000000e+00,0.000000000000000000e+00,0.000000000000000000e+00,0.000000000000000000e+00
2.000000000000000000e+01,3.000000000000000000e+01,0.000000000000000000e+00,0.000000000000000000e+00,0.000000000000000000e+00,0.000000000000000000e+00,0.000000000000000000e+00,0.000000000000000000e+00,0.000000000000000000e+00,0.000000000000000000e+00,0.000000000000000000e+00,0.000000000000000000e+00,0.000000000000000000e+00,0.000000000000000000e+00
3.000000000000000000e+01,4.000000000000000000e+01,0.000000000000000000e+00,0.000000000000000000e+00,0.000000000000000000e+00,0.000000000000000000e+00,0.000000000000000000e+00,0.000000000000000000e+00,0.000000000000000000e+00,0.000000000000000000e+00,0.000000000000000000e+00,0.000000000000000000e+00,0.000000000000000000e+00,0.000000000000000000e+00
4.000000000000000000e+01,5.000000000000000000e+01,0.000000000000000000e+00,0.000000000000000000e+00,0.000000000000000000e+00,0.000000000000000000e+00,0.000000000000000000e+00,0.000000000000000000e+00,0.000000000000000000e+00,0.000000000000000000e+00,0.000000000000000000e+00,0.000000000000000000e+00,0.000000000000000000e+00,0.000000000000000000e+00
5.000000000000000000e+01,6.000000000000000000e+01,0.000000000000000000e+00,0.000000000000000000e+00,0.000000000000000000e+00,0.000000000000000000e+00,0.000000000000000000e+00,0.000000000000000000e+00,0.000000000000000000e+00,0.000000000000000000e+00,0.000000000000000000e+00,0.000000000000000000e+00,0.000000000000000000e+00,0.000000000000000000e+00
6.000000000000000000e+01,7.000000000000000000e+01,0.000000000000000000e+00,0.000000000000000000e+00,0.000000000000000000e+00,0.000000000000000000e+00,0.000000000000000000e+00,0.000000000000000000e+00,0.000000000000000000e+00,0.000000000000000000e+00,0.000000000000000000e+00,0.000000000000000000e+00,0.000000000000000000e+00,0.000000000000000000e+00
7.000000000000000000e+01,8.000000000000000000e+01,0.000000000000000000e+00,0.000000000000000000e+00,0.000000000000000000e+00,0.000000000000000000e+00,0.000000000000000000e+00,0.000000000000000000e+00,0.000000000000000000e+00,0.000000000000000000e+00,0.000000000000000000e+00,0.000000000000000000e+00,0.000000000000000000e+00,0.000000000000000000e+00
8.000000000000000000e+01,9.000000000000000000e+01,0.000000000000000000e+00,0.000000000000000000e+00,0.000000000000000000e+00,0.000000000000000000e+00,0.000000000000000000e+00,0.000000000000000000e+00,0.000000000000000000e+00,0.000000000000000000e+00,0.000000000000000000e+00,0.000000000000000000e+00,0.000000000000000000e+00,0.000000000000000000e+00
9.000000000000000000e+01,1.000000000000000000e+02,0.000000000000000000e+00,0.000000000000000000e+00,0.000000000000000000e+00,0.000000000000000000e+00,0.000000000000000000e+00,0.000000000000000000e+00,0.000000000000000000e+00,0.000000000000000000e+00,0.000000000000000000e+00,0.000000000000000000e+00,0.000000000000000000e+00,0.000000000000000000e+00
1.000000000000000000e+02,1.100000000000000000e+02,0.000000000000000000e+00,0.000000000000000000e+00,0.000000000000000000e+00,0.000000000000000000e+00,0.000000000000000000e+00,0.000000000000000000e+00,0.000000000000000000e+00,0.000000000000000000e+00,0.000000000000000000e+00,0.000000000000000000e+00,0.000000000000000000e+00,0.000000000000000000e+00
1.100000000000000000e+02,1.200000000000000000e+02,0.000000000000000000e+00,0.000000000000000000e+00,0.000000000000000000e+00,0.000000000000000000e+00,0.000000000000000000e+00,0.000000000000000000e+00,0.000000000000000000e+00,0.000000000000000000e+00,0.000000000000000000e+00,0.000000000000000000e+00,0.000000000000000000e+00,0.000000000000000000e+00
1.200000000000000000e+02,1.300000000000000000e+02,0.000000000000000000e+00,0.000000000000000000e+00,0.000000000000000000e+00,0.000000000000000000e+00,0.000000000000000000e+00,0.000000000000000000e+00,0.000000000000000000e+00,0.000000000000000000e+00,0.000000000000000000e+00,0.000000000000000000e+00,0.000000000000000000e+00,0.000000000000000000e+00
1.300000000000000000e+02,1.400000000000000000e+02,1.645613998369829245e+00,1.279187405402856829e-05,1.643997720669380769e+00,1.278935086644990172e-05,1.154154274519741286e+00,1.482137374801573210e-05,1.152537996819292809e+00,1.481919611684127251e-05,1.154154274519741286e+00,1.482137374801573210e-05,1.154154274519741286e+00,1.482137374801573210e-05
1.400000000000000000e+02,1.500000000000000000e+02,0.000000000000000000e+00,0.000000000000000000e+00,0.000000000000000000e+00,0.000000000000000000e+00,2.573088749225859173e-01,9.546474074699865810e-06,2.573088749225859173e-01,9.546474074699865810e-06,2.573088749225859173e-01,9.546474074699865810e-06,2.573088749225859173e-01,9.546474074699865810e-06
1.500000000000000000e+02,1.600000000000000000e+02,0.000000000000000000e+00,0.000000000000000000e+00,0.000000000000000000e+00,0.000000000000000000e+00,4.756376846510493306e-02,2.635501262508576085e-06,4.756376846510493306e-02,2.635501262508576085e-06,4.756376846510493306e-02,2.635501262508576085e-06,4.756376846510493306e-02,2.635501262508576085e-06
1.600000000000000000e+02,1.700000000000000000e+02,0.000000000000000000e+00,0.000000000000000000e+00,0.000000000000000000e+00,0.000000000000000000e+00,2.765904137252791703e-02,1.778318399483795276e-06,2.765904137252791703e-02,1.778318399483795276e-06,2.765904137252791703e-02,1.778318399483795276e-06,2.765904137252791703e-02,1.778318399483795276e-06
1.700000000000000000e+02,1.800000000000000000e+02,0.000000000000000000e+00,0.000000000000000000e+00,0.000000000000000000e+00,0.000000000000000000e+00,1.968389463773402570e-02,1.314108510111695271e-06,1.968389463773402570e-02,1.314108510111695271e-06,1.968389463773402570e-02,1.314108510111695271e-06,1.968389463773402570e-02,1.314108510111695271e-06
1.800000000000000000e+02,1.900000000000000000e+02,0.000000000000000000e+00,0.000000000000000000e+00,0.000000000000000000e+00,0.000000000000000000e+00,1.537876355731111755e-02,1.071632895939608395e-06,1.537876355731111755e-02,1.071632895939608395e-06,1.537876355731111755e-02,1.071632895939608395e-06,1.537876355731111755e-02,1.071632895939608395e-06
1.899999999999999716e+02,1.999999999999999716e+02,0.000000000000000000e+00,0.000000000000000000e+00,0.000000000000000000e+00,0.000000000000000000e+00,1.265470856976930007e-02,9.296412951454182368e-07,1.265470856976930007e-02,9.296412951454182368e-07,1.265470856976930007e-02,9.296412951454182368e-07,1.265470856976930007e-02,9.296412951454182368e-07
1.999999999999999716e+02,2.099999999999999716e+02,0.000000000000000000e+00,0.000000000000000000e+00,0.000000000000000000e+00,0.000000000000000000e+00,1.068766702730740079e-02,7.602565156911596850e-07,1.068766702730740079e-02,7.602565156911596850e-07,1.068766702730740079e-02,7.602565156911596850e-07,1.068766702730740079e-02,7.602565156911596850e-07
2.100000000000000000e+02,2.200000000000000000e+02,0.000000000000000000e+00,0.000000000000000000e+00,0.000000000000000000e+00,0.000000000000000000e+00,9.133758740730654399e-03,6.361218614181989419e-07,9.133758740730654399e-03,6.361218614181989419e-07,9.133758740730654399e-03,6.361218614181989419e-07,9.133758740730654399e-03,6.361218614181989419e-07
2.200000000000000000e+02,2.300000000000000000e+02,0.000000000000000000e+00,0.000000000000000000e+00,0.000000000000000000e+00,0.000000000000000000e+00,7.942449010010801946e-03,5.416067977856770754e-07,7.942449010010801946e-03,5.416067977856770754e-07,7.942449010010801946e-03,5.416067977856770754e-07,7.942449010010801946e-03,5.416067977856770754e-07
2.300000000000000000e+02,2.400000000000000000e+02,0.000000000000000000e+00,0.000000000000000000e+00,0.000000000000000000e+00,0.000000000000000000e+00,6.998423848596673109e-03,4.475324441743708471e-07,6.998423848596673109e-03,4.475324441743708471e-07,6.998423848596673109e-03,4.475324441743708471e-07,6.998423848596673109e-03,4.475324441743708471e-07
2.400000000000000000e+02,2.500000000000000000e+02,0.000000000000000000e+00,0.000000000000000000e+00,0.000000000000000000e+00,0.000000000000000000e+00,6.224375690402305511e-03,4.228747475085862046e-07,6.224375690402305511e-03,4.228747475085862046e-07,6.224375690402305511e-03,4.228747475085862046e-07,6.224375690402305511e-03,4.228747475085862046e-07
2.500000000000000000e+02,2.600000000000000000e+02,0.000000000000000000e+00,0.000000000000000000e+00,0.000000000000000000e+00,0.000000000000000000e+00,5.571571880140019882e-03,3.950986627392393768e-07,5.571571880140019882e-03,3.950986627392393768e-07,5.571571880140019882e-03,3.950986627392393768e-07,5.571571880140019882e-03,3.950986627392393768e-07
2.599999999999999432e+02,2.699999999999999432e+02,0.000000000000000000e+00,0.000000000000000000e+00,0.000000000000000000e+00,0.000000000000000000e+00,5.005559724088477248e-03,3.855937145040557807e-07,5.005559724088477248e-03,3.855937145040557807e-07,5.005559724088477248e-03,3.855937145040557807e-07,5.005559724088477248e-03,3.855937145040557807e-07
2.699999999999999432e+02,2.799999999999999432e+02,0.000000000000000000e+00,0.000000000000000000e+00,0.000000000000000000e+00,0.000000000000000000e+00,4.502903362872775171e-03,3.500514685845231094e-07,4.502903362872775171e-03,3.500514685845231094e-07,4.502903362872775171e-03,3.500514685845231094e-07,4.502903362872775171e-03,3.500514685845231094e-07
2.799999999999999432e+02,2.899999999999999432e+02,0.000000000000000000e+00,0.000000000000000000e+00,0.000000000000000000e+00,0.000000000000000000e+00,4.042439936165613014e-03,3.584153562282516008e-07,4.042439936165613014e-03,3.584153562282516008e-07,4.042439936165613014e-03,3.584153562282516008e-07,4.042439936165613014e-03,3.584153562282516008e-07
2.900000000000000000e+02,3.000000000000000000e+02,0.000000000000000000e+00,0.000000000000000000e+00,0.000000000000000000e+00,0.000000000000000000e+00,3.611489015986925170e-03,3.368944023154774491e-07,3.611489015986925170e-03,3.368944023154774491e-07,3.611489015986925170e-03,3.368944023154774491e-07,3.611489015986925170e-03,3.368944023154774491e-07
3.000000000000000000e+02,3.100000000000000000e+02,0.000000000000000000e+00,0.000000000000000000e+00,0.000000000000000000e+00,0.000000000000000000e+00,3.200163366701184401e-03,3.136416954511143447e-07,3.200163366701184401e-03,3.136416954511143447e-07,3.200163366701184401e-03,3.136416954511143447e-07,3.200163366701184401e-03,3.136416954511143447e-07
3.100000000000000000e+02,3.200000000000000000e+02,0.000000000000000000e+00,0.000000000000000000e+00,0.000000000000000000e+00,0.000000000000000000e+00,2.797995107424398106e-03,2.999726627236330849e-07,2.797995107424398106e-03,2.999726627236330849e-07,2.797995107424398106e-03,2.999726627236330849e-07,2.797995107424398106e-03,2.999726627236330849e-07
3.200000000000000000e+02,3.300000000000000000e+02,0.000000000000000000e+00,0.000000000000000000e+00,0.000000000000000000e+00,0.000000000000000000e+00,2.398646244341350042e-03,2.950816349944186561e-07,2.398646244341350042e-03,2.950816349944186561e-07,2.398646244341350042e-03,2.950816349944186561e-07,2.398646244341350042e-03,2.950816349944186561e-07
3.300000000000000000e+02,3.400000000000000000e+02,0.000000000000000000e+00,0.000000000000000000e+00,0.000000000000000000e+00,0.000000000000000000e+00,2.001072500665522069e-03,2.586837673542921144e-07,2.001072500665522069e-03,2.586837673542921144e-07,2.001072500665522069e-03,2.586837673542921144e-07,2.001072500665522069e-03,2.586837673542921144e-07
3.400000000000000000e+02,3.500000000000000000e+02,0.000000000000000000e+00,0.000000000000000000e+00,0.000000000000000000e+00,0.000000000000000000e+00,1.606742057140527532e-03,2.289192244437789363e-07,1.606742057140527532e-03,2.289192244437789363e-07,1.606742057140527532e-03,2.289192244437789363e-07,1.606742057140527532e-03,2.289192244437789363e-07
3.500000000000000000e+02,3.600000000000000000e+02,0.000000000000000000e+00,0.000000000000000000e+00,0.000000000000000000e+00,0.000000000000000000e+00,1.219166725292745610e-03,1.949220256800322107e-07,1.219166725292745610e-03,1.949220256800322107e-07,1.219166725292745610e-03,1.949220256800322107e-07,1.219166725292745610e-03,1.949220256800322107e-07
3.600000000000000000e+02,3.700000000000000000e+02,0.000000000000000000e+00,0.000000000000000000e+00,0.000000000000000000e+00,0.000000000000000000e+00,8.601255252185819461e-04,1.423581593169531951e-07,8.601255252185819461e-04,1.423581593169531951e-07,8.601255252185819461e-04,1.423581593169531951e-07,8.601255252185819461e-04,1.423581593169531951e-07
3.700000000000000568e+02,3.800000000000000568e+02,0.000000000000000000e+00,0.000000000000000000e+00,0.000000000000000000e+00,0.000000000000000000e+00,5.726107450077647706e-04,1.067927980972807982e-07,5.726107450077647706e-04,1.067927980972807982e-07,5.726107450077647706e-04,1.067927980972807982e-07,5.726107450077647706e-04,1.067927980972807982e-07
3.800000000000000568e+02,3.900000000000000568e+02,0.000000000000000000e+00,0.000000000000000000e+00,0.000000000000000000e+00,0.000000000000000000e+00,3.610034067181916093e-04,7.302053894670332160e-08,3.610034067181916093e-04,7.302053894670332160e-08,3.610034067181916093e-04,7.302053894670332160e-08,3.610034067181916093e-04,7.302053894670332160e-08
3.900000000000000568e+02,4.000000000000000568e+02,0.000000000000000000e+00,0.000000000000000000e+00,0.000000000000000000e+00,0.000000000000000000e+00,2.153298531549057966e-04,4.637590308537772156e-08,2.153298531549057966e-04,4.637590308537772156e-08,2.153298531549057966e-04,4.637590308537772156e-08,2.153298531549057966e-04,4.637590308537772156e-08
4.000000000000000568e+02,4.100000000000000568e+02,0.000000000000000000e+00,0.000000000000000000e+00,0.000000000000000000e+00,0.000000000000000000e+00,1.186865538194041499e-04,3.108379220112090803e-08,1.186865538194041499e-04,3.108379220112090803e-08,1.186865538194041499e-04,3.108379220112090803e-08,1.186865538194041499e-04,3.108379220112090803e-08
4.100000000000000000e+02,4.200000000000000000e+02,0.000000000000000000e+00,0.000000000000000000e+00,0.000000000000000000e+00,0.000000000000000000e+00,5.649263511290776823e-05,1.796083274626008148e-08,5.649263511290776823e-05,1.796083274626008148e-08,5.649263511290776823e-05,1.796083274626008148e-08,5.649263511290776823e-05,1.796083274626008148e-08
4.200000000000000000e+02,4.300000000000000000e+02,0.000000000000000000e+00,0.000000000000000000e+00,0.000000000000000000e+00,0.000000000000000000e+00,1.883870007698267384e-05,1.051855956911682305e-08,1.883870007698267384e-05,1.051855956911682305e-08,1.883870007698267384e-05,1.051855956911682305e-08,1.883870007698267384e-05,1.051855956911682305e-08
4.300000000000000000e+02,4.400000000000000000e+02,0.000000000000000000e+00,0.000000000000000000e+00,0.000000000000000000e+00,0.000000000000000000e+00,1.779968120935758252e-06,2.837532218651859163e-09,1.779968120935758252e-06,2.837532218651859163e-09,1.779968120935758252e-06,2.837532218651859163e-09,1.779968120935758252e-06,2.837532218651859163e-09
4.400000000000000000e+02,4.500000000000000000e+02,0.000000000000000000e+00,0.000000000000000000e+00,0.000000000000000000e+00,0.000000000000000000e+00,0.000000000000000000e+00,0.000000000000000000e+00,0.000000000000000000e+00,0.000000000000000000e+00,0.000000000000000000e+00,0.000000000000000000e+00,0.000000000000000000e+00,0.000000000000000000e+00
4.500000000000000000e+02,4.600000000000000000e+02,0.000000000000000000e+00,0.000000000000000000e+00,0.000000000000000000e+00,0.000000000000000000e+00,0.000000000000000000e+00,0.000000000000000000e+00,0.000000000000000000e+00,0.000000000000000000e+00,0.000000000000000000e+00,0.000000000000000000e+00,0.000000000000000000e+00,0.000000000000000000e+00
4.600000000000000000e+02,4.700000000000000000e+02,0.000000000000000000e+00,0.000000000000000000e+00,0.000000000000000000e+00,0.000000000000000000e+00,0.000000000000000000e+00,0.000000000000000000e+00,0.000000000000000000e+00,0.000000000000000000e+00,0.000000000000000000e+00,0.000000000000000000e+00,0.000000000000000000e+00,0.000000000000000000e+00
4.700000000000000000e+02,4.800000000000000000e+02,0.000000000000000000e+00,0.000000000000000000e+00,0.000000000000000000e+00,0.000000000000000000e+00,0.000000000000000000e+00,0.000000000000000000e+00,0.000000000000000000e+00,0.000000000000000000e+00,0.000000000000000000e+00,0.000000000000000000e+00,0.000000000000000000e+00,0.000000000000000000e+00
4.800000000000000000e+02,4.900000000000000000e+02,0.000000000000000000e+00,0.000000000000000000e+00,0.000000000000000000e+00,0.000000000000000000e+00,0.000000000000000000e+00,0.000000000000000000e+00,0.000000000000000000e+00,0.000000000000000000e+00,0.000000000000000000e+00,0.000000000000000000e+00,0.000000000000000000e+00,0.000000000000000000e+00
4.900000000000000000e+02,5.000000000000000000e+02,0.000000000000000000e+00,0.000000000000000000e+00,0.000000000000000000e+00,0.000000000000000000e+00,0.000000000000000000e+00,0.000000000000000000e+00,0.000000000000000000e+00,0.000000000000000000e+00,0.000000000000000000e+00,0.000000000000000000e+00,0.000000000000000000e+00,0.000000000000000000e+00
