xl,xh,LO,dLO,LOISR,dLOISR,NLO,dNLO
0.0,40.0,0.0,0.0,0.0,0.0,0.0,0.0
40.0,80.0,0.0,0.0,0.0,0.0,0.0,0.0
80.0,120.0,0.0,0.0,0.0,0.0,0.0,0.0
120.0,160.0,0.0,0.0,0.0,0.0,0.0,0.0
160.0,200.0,0.0,0.0,0.0,0.0,0.0,0.0
200.0,240.0,0.0,0.0,0.0,0.0,0.0,0.0
240.0,280.0,0.0,0.0,0.0,0.0,0.0,0.0
280.0,320.0,0.0,0.0,0.0,0.0,0.0,0.0
320.0,360.0,0.0,0.0,0.0,0.0,6.48974288705981e-11,1.396395784067112e-11
360.0,400.0,0.0,0.0,0.0,0.0,3.965740247253143e-10,3.372916522690991e-11
400.0,440.0,0.0,0.0,0.0,0.0,9.160198757099817e-10,6.92843916992189e-11
440.0,480.0,0.0,0.0,0.0,0.0,1.6737760942235205e-09,9.859930101920878e-11
480.0,520.0,0.0,0.0,0.0,0.0,2.9634908667295607e-09,1.432257451037657e-10
520.0,560.0,0.0,0.0,0.0,0.0,4.413020762312843e-09,1.791907379040599e-10
560.0,600.0,0.0,0.0,0.0,0.0,7.315659225797729e-09,2.4438101042276404e-10
600.0,640.0,0.0,0.0,0.0,0.0,1.1169325766052088e-08,3.0692029588537223e-10
640.0,680.0,0.0,0.0,0.0,0.0,1.9183751484937213e-08,4.334437908529725e-10
680.0,720.0,0.0,0.0,0.0,0.0,3.629223208801873e-08,6.4685393521368e-10
720.0,760.0,0.0,0.0,0.0,0.0,5.8802671049513686e-08,8.351711285494142e-10
760.0,800.0,0.0,0.0,0.0,0.0,6.636647120618965e-08,7.443754151601648e-10
800.0,840.0,0.0,0.0,0.0,0.0,5.587173235628827e-08,4.578491929622583e-10
840.0,880.0,0.0,0.0,0.0,0.0,5.835145534920906e-08,3.366468317376676e-10
880.0,920.0,0.0,0.0,0.0,0.0,8.75982323090891e-08,3.207259543249052e-10
920.0,960.0,0.0,0.0,0.0,0.0,1.6475752166885722e-07,3.735105248676872e-10
960.0,1000.0,0.0,0.0,0.0,0.0,2.9467593312341673e-07,4.464890739259949e-10
1000.0,1040.0,0.0,0.0,0.0,0.0,4.367432776371066e-07,5.007301932963388e-10
1040.0,1080.0,0.0,0.0,0.0,0.0,5.637911295914397e-07,5.400329266897824e-10
1080.0,1120.0,0.0,0.0,0.0,0.0,6.739149488101516e-07,5.697745329928903e-10
1120.0,1160.0,0.0,0.0,0.0,0.0,7.704594812345676e-07,5.915328174438504e-10
1160.0,1200.0,0.0,0.0,0.0,0.0,8.583769664052408e-07,6.080226473885686e-10
1200.0,1240.0,0.0,0.0,0.0,0.0,9.363941874469534e-07,6.200908545803765e-10
1240.0,1280.0,0.0,0.0,0.0,0.0,1.0056469223088586e-06,6.285760165959642e-10
1280.0,1320.0,0.0,0.0,0.0,0.0,1.0654447901982515e-06,6.330739320291788e-10
1320.0,1360.0,0.0,0.0,0.0,0.0,1.1191121422062826e-06,6.351826063002975e-10
1360.0,1400.0,0.0,0.0,0.0,0.0,1.166313837002591e-06,6.34304390447183e-10
1400.0,1440.0,0.0,0.0,0.0,0.0,1.2083387189648537e-06,6.319805456920515e-10
1440.0,1480.0,0.0,0.0,0.0,0.0,1.2485807217861838e-06,6.306588351663107e-10
1480.0,1520.0,0.0,0.0,0.0,0.0,1.2910586792101058e-06,6.322198462297828e-10
1520.0,1560.0,0.0,0.0,0.0,0.0,1.33906621196758e-06,6.367726554792437e-10
1560.0,1600.0,0.0,0.0,0.0,0.0,1.3918867907352287e-06,6.432932672498044e-10
1600.0,1640.0,0.0,0.0,0.0,0.0,1.4486486591548103e-06,6.51424213197479e-10
1640.0,1680.0,0.0,0.0,0.0,0.0,1.510077606469091e-06,6.612231564856854e-10
1680.0,1720.0,0.0,0.0,0.0,0.0,1.5762795584526682e-06,6.726315962478259e-10
1720.0,1760.0,0.0,0.0,0.0,0.0,1.6478548585057855e-06,6.860404382187847e-10
1760.0,1800.0,0.0,0.0,0.0,0.0,1.7251282392279445e-06,7.011012567032223e-10
1800.0,1840.0,0.0,0.0,0.0,0.0,1.8047525980939616e-06,7.162858358398569e-10
1840.0,1880.0,0.0,0.0,0.0,0.0,1.8813300123276348e-06,7.287269064639502e-10
1880.0,1920.0,0.0,0.0,0.0,0.0,1.9594463830939517e-06,7.387020291356657e-10
1920.0,1960.0,0.0,0.0,0.0,0.0,2.034122273303973e-06,7.468635833109102e-10
1960.0,2000.0,0.0,0.0,0.0,0.0,2.1026706190619173e-06,7.540213869253848e-10
2000.0,2040.0,0.0,0.0,0.0,0.0,2.1581396743052934e-06,7.597191983321702e-10
2040.0,2080.0,0.0,0.0,0.0,0.0,2.2073102328824e-06,7.654676297874594e-10
2080.0,2120.0,0.0,0.0,0.0,0.0,2.255755839852608e-06,7.719516669768498e-10
2120.0,2160.0,0.0,0.0,0.0,0.0,2.305677364317963e-06,7.79153730997476e-10
2160.0,2200.0,0.0,0.0,0.0,0.0,2.357523676008275e-06,7.873231522797418e-10
2200.0,2240.0,0.0,0.0,0.0,0.0,2.4111922154751644e-06,7.96558346470499e-10
2240.0,2280.0,0.0,0.0,0.0,0.0,2.4714395898729883e-06,8.084780672745503e-10
2280.0,2320.0,0.0,0.0,0.0,0.0,2.5293140763592096e-06,8.181368214771016e-10
2320.0,2360.0,0.0,0.0,0.0,0.0,2.5813900109094897e-06,8.253906133742527e-10
2360.0,2400.0,0.0,0.0,0.0,0.0,2.6408474578744843e-06,8.348108085295019e-10
2400.0,2440.0,0.0,0.0,0.0,0.0,2.7066842393044537e-06,8.45862346751345e-10
2440.0,2480.0,0.0,0.0,0.0,0.0,2.7784795496049513e-06,8.578921233014332e-10
2480.0,2520.0,0.0,0.0,0.0,0.0,2.85532562512633e-06,8.724074136353427e-10
2520.0,2560.0,0.0,0.0,0.0,0.0,2.938117887407373e-06,8.869109713632669e-10
2560.0,2600.0,0.0,0.0,0.0,0.0,3.0268171930766997e-06,9.042185226069797e-10
2600.0,2640.0,0.0,0.0,0.0,0.0,3.1204957007269026e-06,9.212240710890632e-10
2640.0,2680.0,0.0,0.0,0.0,0.0,3.219779060980789e-06,9.386727600969163e-10
2680.0,2720.0,0.0,0.0,0.0,0.0,3.3259284306919063e-06,9.589048363663816e-10
2720.0,2760.0,0.0,0.0,0.0,0.0,3.43942106034634e-06,9.78564710110935e-10
2760.0,2800.0,0.0,0.0,0.0,0.0,3.5633750371255028e-06,1.003115951153467e-09
2800.0,2840.0,0.0,0.0,0.0,0.0,3.698755899567951e-06,1.028315775687814e-09
2840.0,2880.0,0.0,0.0,0.0,0.0,3.841774525294517e-06,1.0540807440192294e-09
2880.0,2920.0,0.0,0.0,0.0,0.0,3.999063963554092e-06,1.0820915399465591e-09
2920.0,2960.0,0.0,0.0,0.0,0.0,4.166866479723148e-06,1.1118409379065924e-09
2960.0,3000.0,0.0,0.0,0.0,0.0,4.350094735970328e-06,1.1449957486177836e-09
3000.0,3040.0,0.0,0.0,0.0,0.0,4.549277621128039e-06,1.1813894947459812e-09
3040.0,3080.0,0.0,0.0,0.0,0.0,4.771011585169318e-06,1.2191320498986314e-09
3080.0,3120.0,0.0,0.0,0.0,0.0,5.010347607061329e-06,1.2593023002850184e-09
3120.0,3160.0,0.0,0.0,0.0,0.0,5.273933871588197e-06,1.3040669129142465e-09
3160.0,3200.0,0.0,0.0,0.0,0.0,5.5667639491387035e-06,1.3511067745598344e-09
3200.0,3240.0,0.0,0.0,0.0,0.0,5.884364605855203e-06,1.398904685297223e-09
3240.0,3280.0,0.0,0.0,0.0,0.0,6.2464683052674404e-06,1.457336148216728e-09
3280.0,3320.0,0.0,0.0,0.0,0.0,6.64451897303619e-06,1.5194468989934296e-09
3320.0,3360.0,0.0,0.0,0.0,0.0,7.092975464073088e-06,1.5841068738343498e-09
3360.0,3400.0,0.0,0.0,0.0,0.0,7.609077846965288e-06,1.6535316845956805e-09
3400.0,3440.0,0.0,0.0,0.0,0.0,8.192006280845107e-06,1.7373634296202332e-09
3440.0,3480.0,0.0,0.0,0.0,0.0,8.8659375645766e-06,1.8247171455021647e-09
3480.0,3520.0,0.0,0.0,0.0,0.0,9.648491063627265e-06,1.921427436385056e-09
3520.0,3560.0,0.0,0.0,0.0,0.0,1.0566157557275173e-05,2.0310619633986186e-09
3560.0,3600.0,0.0,0.0,0.0,0.0,1.3360113421339187e-05,2.9273463773071435e-09
3600.0,3640.0,0.0,0.0,0.0,0.0,1.6340785803623583e-05,3.61046649844781e-09
3640.0,3680.0,0.0,0.0,0.0,0.0,1.8485325290970887e-05,3.888562763336021e-09
3680.0,3720.0,0.0,0.0,0.0,0.0,2.1220252195564047e-05,4.214299465784181e-09
3720.0,3760.0,0.0,0.0,0.0,0.0,2.4811007726279652e-05,4.60967911244575e-09
3760.0,3800.0,0.0,0.0,0.0,0.0,2.9746931895037126e-05,5.100606099734397e-09
3800.0,3840.0,0.0,0.0,0.0,0.0,3.693216640475529e-05,5.74757366379422e-09
3840.0,3880.0,0.0,0.0,0.0,0.0,4.834644187688122e-05,6.661398969353559e-09
3880.0,3920.0,0.0,0.0,0.0,0.0,6.928397261148531e-05,8.093542770907025e-09
3920.0,3960.0,0.0,0.0,0.0,0.0,0.00012052813106966177,1.0828575477010372e-08
3960.0,4000.0,0.0008186244807318117,2.0161274247853708e-08,0.0008186291078690894,1.9805207099625865e-08,0.0012330529802422035,3.5813540004470783e-08
