xl,xh,LO,dLO,LOISR,dLOISR,NLO,dNLO
300.0,320.0,6.61284375200672e-06,1.6310848168176865e-09,6.612570247213444e-06,1.6033668351323829e-09,8.086461549665456e-06,4.640582457118736e-09
320.0,340.0,1.2453916639190171e-05,2.3515227226067318e-09,1.2454062005976315e-05,2.311469243751885e-09,1.5160402885788296e-05,6.670851120013278e-09
340.0,360.0,1.6736813989509555e-05,2.852163477129247e-09,1.6735921213990485e-05,2.803439019488158e-09,2.022048893291495e-05,8.050167346712487e-09
360.0,380.0,2.0545811053346727e-05,3.289927287260015e-09,2.0544990909090196e-05,3.233881087599041e-09,2.4683769887289778e-05,9.272691763671017e-09
380.0,400.0,2.409787566830352e-05,3.694258453162895e-09,2.4097133720778093e-05,3.631588553664352e-09,2.8779122519565758e-05,1.0372042599441225e-08
400.0,420.0,2.7473211949309285e-05,4.0756149178521856e-09,2.747199879488411e-05,4.006879142696368e-09,3.2633145389342456e-05,1.1383725724553061e-08
420.0,440.0,3.0701153785501914e-05,4.438255114951096e-09,3.0699551386560696e-05,4.363668410295771e-09,3.631217469001713e-05,1.238832346343473e-08
440.0,460.0,3.3806571326035216e-05,4.785740419303036e-09,3.3804219127640475e-05,4.705217294396633e-09,3.97539178781509e-05,1.3270208282313607e-08
460.0,480.0,3.681967071723842e-05,5.121148508784989e-09,3.681730978765371e-05,5.0347932383594e-09,4.307610826682644e-05,1.413593696962983e-08
480.0,500.0,3.971112523472605e-05,5.442139670576194e-09,3.970783731046707e-05,5.349951092215763e-09,4.632115558897347e-05,1.5058389635094656e-08
500.0,520.0,4.250144843518694e-05,5.750919382593768e-09,4.249977914292088e-05,5.653304921661265e-09,4.937410916692738e-05,1.5891023210179186e-08
520.0,540.0,4.520337102864483e-05,6.048997636520746e-09,4.520055808599482e-05,5.945961519308704e-09,5.232747736192203e-05,1.6707662165384805e-08
540.0,560.0,4.782046361915148e-05,6.3360384459098924e-09,4.78201009522007e-05,6.2279540488508375e-09,5.516552685042949e-05,1.750409365800975e-08
560.0,580.0,5.033245631055014e-05,6.611404275966138e-09,5.033329276678515e-05,6.4984599619441265e-09,5.7843571283726354e-05,1.8243899428990026e-08
580.0,600.0,5.2748555332761984e-05,6.875445773705941e-09,5.2745681299489004e-05,6.757526829302598e-09,6.035131441712001e-05,1.89182107044139e-08
600.0,620.0,5.507940743763266e-05,7.128818257200011e-09,5.507854623685175e-05,7.006598478743683e-09,6.280411461117793e-05,1.961761456942755e-08
620.0,640.0,5.734218825824604e-05,7.372983247192886e-09,5.733760626409324e-05,7.246111615299521e-09,6.512430448518344e-05,2.0282576413087282e-08
640.0,660.0,5.949914817927329e-05,7.605377532224325e-09,5.9494597249592674e-05,7.474508756173632e-09,6.735303175129871e-05,2.092908715370862e-08
660.0,680.0,6.155980189366898e-05,7.826318107529645e-09,6.1556564075037e-05,7.691703659575202e-09,6.943001891939809e-05,2.1550577370224466e-08
680.0,700.0,6.351016184600885e-05,8.035193586558938e-09,6.350744934720025e-05,7.896878270627864e-09,7.138670402328963e-05,2.2063501457603744e-08
700.0,720.0,6.539433788117774e-05,8.235650804240382e-09,6.539038167168511e-05,8.093712132647365e-09,7.325853066556518e-05,2.2662147564705595e-08
720.0,740.0,6.715326005346998e-05,8.422444211875465e-09,6.715349974638814e-05,8.277514261290552e-09,7.497431964225562e-05,2.3153166612448505e-08
740.0,760.0,6.883897621312732e-05,8.600741565052412e-09,6.883487490227523e-05,8.452401810499184e-09,7.659081391067624e-05,2.35952417678954e-08
760.0,780.0,7.042557801018906e-05,8.76714643510483e-09,7.041801895095099e-05,8.615574320714703e-09,7.814206546379603e-05,2.4129409855158718e-08
780.0,800.0,7.189763159373835e-05,8.92147249305788e-09,7.189438238316857e-05,8.7675103796167e-09,7.950215110339256e-05,2.4501535556092824e-08
800.0,820.0,7.325144941765884e-05,9.063511880702658e-09,7.324872041908867e-05,8.907030272304221e-09,8.08137202992318e-05,2.493728117150475e-08
820.0,840.0,7.426704407864275e-05,9.174827450618536e-09,7.426229887365193e-05,9.016296436243572e-09,8.158768671391719e-05,2.5209752309615707e-08
840.0,860.0,7.501563949337542e-05,9.263370229438751e-09,7.500592862462277e-05,9.102883144236211e-09,8.206712062826584e-05,2.5443702407159527e-08
860.0,880.0,7.56979183546284e-05,9.34221719769441e-09,7.569219753229891e-05,9.180638254171464e-09,8.257853574841111e-05,2.5719907564964065e-08
880.0,900.0,7.630559936019713e-05,9.412752754620195e-09,7.63002163268152e-05,9.2499288388322e-09,8.283294091711752e-05,2.580097731922532e-08
900.0,920.0,7.683579209601098e-05,9.473621339118256e-09,7.682882721462886e-05,9.30977453792092e-09,8.309006186176179e-05,2.6000382046247844e-08
920.0,940.0,7.727773038839984e-05,9.524473960205344e-09,7.727213020862172e-05,9.359710102499622e-09,8.321712878936989e-05,2.6108714817135153e-08
940.0,960.0,7.765092663153706e-05,9.566109422210727e-09,7.76444232613255e-05,9.400644781927755e-09,8.330229489910776e-05,2.6222260041810352e-08
960.0,980.0,7.795084306727357e-05,9.59865910459628e-09,7.793973095859434e-05,9.432249613190543e-09,8.329248411239874e-05,2.6331851657427007e-08
980.0,1000.0,7.814166844006336e-05,9.619962340797604e-09,7.813292464432015e-05,9.45327257149733e-09,8.31742737234752e-05,2.636036036928918e-08
1000.0,1020.0,7.829045018825279e-05,9.633130743398944e-09,7.82790314025987e-05,9.466206681938197e-09,8.296769112762699e-05,2.63733019131782e-08
1020.0,1040.0,7.831572859264776e-05,9.635017341484076e-09,7.830650599335849e-05,9.468190425279371e-09,8.268868456799141e-05,2.6395606016639956e-08
1040.0,1060.0,7.829963677780432e-05,9.628897044976791e-09,7.82896506123264e-05,9.462139629749715e-09,8.234212992837762e-05,2.6338056172199904e-08
1060.0,1080.0,7.81717838611187e-05,9.611332022191462e-09,7.816899456776692e-05,9.445405213600545e-09,8.183585801643209e-05,2.627770091988316e-08
1080.0,1100.0,7.800259666713114e-05,9.586824629527678e-09,7.79949766572515e-05,9.421018827068408e-09,8.132289309651684e-05,2.6181876136187128e-08
1100.0,1120.0,7.775251135360075e-05,9.552088700134604e-09,7.77423975540557e-05,9.386797842154532e-09,8.06915923270745e-05,2.6095820190393392e-08
1120.0,1140.0,7.738143581336226e-05,9.50509721640743e-09,7.737336707709377e-05,9.340914557051563e-09,7.986010722411038e-05,2.5852322121657402e-08
1140.0,1160.0,7.696920000566451e-05,9.451552168488907e-09,7.695735816001808e-05,9.288052153893304e-09,7.909677929724802e-05,2.5705141029007185e-08
1160.0,1180.0,7.647096217683929e-05,9.387681768696717e-09,7.645764874565003e-05,9.225274029293478e-09,7.8251707324846e-05,2.5554771371943893e-08
1180.0,1200.0,7.585646526029615e-05,9.311509104987826e-09,7.58440539680254e-05,9.150616258596894e-09,7.722027067627707e-05,2.5321442780545448e-08
1200.0,1220.0,7.515549495186592e-05,9.224671130518603e-09,7.51410824235389e-05,9.065189742942994e-09,7.613312614280845e-05,2.5091331932981264e-08
1220.0,1240.0,7.43083588593761e-05,9.121091354785135e-09,7.429330777117164e-05,8.963536440454497e-09,7.483447377320638e-05,2.478821467420505e-08
1240.0,1260.0,7.32014751183962e-05,8.993207050620844e-09,7.318665458338171e-05,8.837953423257926e-09,7.331470823808876e-05,2.4396618820552236e-08
1260.0,1280.0,7.187014021434621e-05,8.845624462722546e-09,7.185370628027181e-05,8.692923040397062e-09,7.161537087372595e-05,2.3920038231357548e-08
1280.0,1300.0,7.043492633493023e-05,8.686927127818109e-09,7.041572551094387e-05,8.537011677027007e-09,6.978905071319942e-05,2.347202166625168e-08
1300.0,1320.0,6.887062218730367e-05,8.515271600091947e-09,6.88493467885236e-05,8.368265240364931e-09,6.790956479610281e-05,2.299297005323168e-08
1320.0,1340.0,6.719097045503183e-05,8.331211762269187e-09,6.716761643641399e-05,8.187460477913525e-09,6.593787474911367e-05,2.249325109252605e-08
1340.0,1360.0,6.540458163213216e-05,8.135662595863807e-09,6.538895780485122e-05,7.995931671745559e-09,6.378840979168315e-05,2.1893267433869468e-08
1360.0,1380.0,6.354701274404817e-05,7.930547864669187e-09,6.352628919876109e-05,7.794201207334761e-09,6.160077576809262e-05,2.130040836948168e-08
1380.0,1400.0,6.155015816919284e-05,7.71199159091822e-09,6.152642999492798e-05,7.57948979184016e-09,5.934772441798292e-05,2.0732521859872306e-08
1400.0,1420.0,5.947366655781433e-05,7.483263922484033e-09,5.944963398909938e-05,7.3549269947279605e-09,5.697793843722921e-05,2.0056536605661323e-08
1420.0,1440.0,5.7312966166085365e-05,7.2442221191529434e-09,5.728990056536278e-05,7.120346735357498e-09,5.45513878411582e-05,1.9400803222941546e-08
1440.0,1460.0,5.502546789476733e-05,6.992224891110508e-09,5.499841839079224e-05,6.872614671226789e-09,5.2019713781687596e-05,1.8689404673345585e-08
1460.0,1480.0,5.266128085849846e-05,6.7299072584585115e-09,5.263164272177072e-05,6.6149884581020484e-09,4.938121879372234e-05,1.7936425161649855e-08
1480.0,1500.0,5.017728455458664e-05,6.455066432207252e-09,5.0146130370441524e-05,6.34509522637705e-09,4.6723904738006735e-05,1.7192892477813138e-08
1500.0,1520.0,4.762444887267277e-05,6.1708850559456965e-09,4.759024579322736e-05,6.065955842521886e-09,4.394825529330515e-05,1.643581632738825e-08
1520.0,1540.0,4.4929921240183086e-05,5.871929765523158e-09,4.4893736593246865e-05,5.772387601165665e-09,4.108637931158669e-05,1.5579750588163622e-08
1540.0,1560.0,4.214647137270264e-05,5.562137426386246e-09,4.2109615344971165e-05,5.4683128405056095e-09,3.817743987397124e-05,1.4754217424933946e-08
1560.0,1580.0,3.925792136488765e-05,5.240093296946948e-09,3.921922145747332e-05,5.152125747397671e-09,3.517844444848951e-05,1.3921806418784362e-08
1580.0,1600.0,3.622822606132671e-05,4.902887895953645e-09,3.619014750286621e-05,4.821155271097538e-09,3.208552792332058e-05,1.2998326528436929e-08
1600.0,1620.0,3.305851642920052e-05,4.551165071441498e-09,3.303217632139428e-05,4.475810596446188e-09,2.8847303113573046e-05,1.2008583058834696e-08
1620.0,1640.0,2.9732866874076946e-05,4.181624224184501e-09,2.9711460460057213e-05,4.113062351187188e-09,2.551001867685193e-05,1.1004289993044647e-08
1640.0,1660.0,2.622177929193353e-05,3.7913426484535055e-09,2.620174437134035e-05,3.7299827804239184e-09,2.207304100123912e-05,9.972836243979011e-09
1660.0,1680.0,2.243819590939629e-05,3.3722121283161933e-09,2.2418603128142936e-05,3.3186581807345537e-09,1.8432885898680053e-05,8.839769915728907e-09
1680.0,1700.0,1.8201867881028214e-05,2.906289524566201e-09,1.8182144478477152e-05,2.8615599295716318e-09,1.4484101299512836e-05,7.534331129256134e-09
1700.0,1720.0,1.323107845338538e-05,2.347532987835931e-09,1.3213012430949786e-05,2.3140044965053396e-09,1.0125115768622933e-05,6.015198188297426e-09
1720.0,1740.0,7.3636182696099825e-06,1.6173831185940886e-09,7.3453881164926146e-06,1.5998636270731545e-09,5.480476978280922e-06,4.02220778910505e-09
1740.0,1760.0,3.19240452913498e-06,1.0149562429941183e-09,3.1740404414440965e-06,1.0140503864210857e-09,2.5036508755675803e-06,2.383205887019133e-09
1760.0,1780.0,1.816582915649717e-06,7.661698604461871e-10,1.7972952135618389e-06,7.744904053890626e-10,1.5110135375028596e-06,1.7480582581352257e-09
1780.0,1800.0,1.2631454412637646e-06,6.287970201726813e-10,1.2431736875245304e-06,6.435979172580797e-10,1.0773285820442396e-06,1.3892553518781076e-09
1800.0,1820.0,9.586832081325076e-07,5.327864285531156e-10,9.376793342090764e-07,5.531058414554795e-10,8.335928685163426e-07,1.1704788089625054e-09
1820.0,1840.0,7.652334078361383e-07,4.5885977948345e-10,7.424389162205906e-07,4.841038029290049e-10,6.700785308420169e-07,9.930733421235393e-10
1840.0,1860.0,6.322140580490011e-07,3.9969541264330083e-10,6.074197569470579e-07,4.300429141000658e-10,5.579889175212882e-07,8.801539382139754e-10
1860.0,1880.0,5.389706911841391e-07,3.5214993572589533e-10,5.114009298864985e-07,3.8782493528861016e-10,4.758778280573887e-07,7.790086296929949e-10
1880.0,1900.0,4.750880763048333e-07,3.144618259810856e-10,4.4338710876738776e-07,3.554777878043284e-10,4.179857344515083e-07,7.071301798113152e-10
1900.0,1920.0,4.3341318871716214e-07,2.837190341774219e-10,3.958456729664885e-07,3.307551757770637e-10,3.775761132932333e-07,6.586408306703892e-10
1920.0,1940.0,4.125427905793054e-07,2.5678014012926457e-10,3.6454966353870354e-07,3.114596934182433e-10,3.520241136978342e-07,6.323145208579781e-10
1940.0,1960.0,4.0678252985897506e-07,2.2575275921147433e-10,3.399030187506156e-07,2.926701630791872e-10,3.3521154195839584e-07,6.084135131178256e-10
1960.0,1980.0,4.3014900915199797e-07,1.8131340933901242e-10,3.138752311907358e-07,2.728674516684393e-10,3.2677475452940173e-07,5.891482006519027e-10
1980.0,2000.0,3.484447945708257e-07,9.199058319894059e-11,1.3284108119126347e-07,1.5775725648563042e-10,2.0420820837854444e-07,5.900208420575392e-10
