xl,xh,LO,dLO,LOISR,dLOISR,NLO,dNLO
300.0,320.0,6.248031080567086e-05,7.413667416277622e-09,6.248088096519272e-05,7.285871034179813e-09,7.514723900834934e-05,2.050274848365978e-08
320.0,340.0,6.629148468931363e-05,7.800103041700433e-09,6.628961868362899e-05,7.665459234310274e-09,7.926096901129027e-05,2.164176312736308e-08
340.0,360.0,6.98728371144866e-05,8.15686140744355e-09,6.987126066650487e-05,8.016117915315922e-09,8.308088884300302e-05,2.2642041140788908e-08
360.0,380.0,7.324809033084748e-05,8.487337104274415e-09,7.324465535713288e-05,8.340786288893209e-09,8.654913312175585e-05,2.3501358520734877e-08
380.0,400.0,7.638668419686489e-05,8.78746254264653e-09,7.638252875437614e-05,8.635871725792199e-09,8.973636921773685e-05,2.4316445998143e-08
400.0,420.0,7.932522727031462e-05,9.0619877811707e-09,7.932256802025881e-05,8.905798199254704e-09,9.264815227455727e-05,2.5103740835187126e-08
420.0,440.0,8.2025899676831e-05,9.307190737129524e-09,8.202262122189777e-05,9.146799624144846e-09,9.517929955302874e-05,2.5740240935836485e-08
440.0,460.0,8.445113061350829e-05,9.522073561715167e-09,8.444685068010323e-05,9.357887586023992e-09,9.7423819654477e-05,2.6311138504926852e-08
460.0,480.0,8.667277451412886e-05,9.711248738667967e-09,8.666564456351934e-05,9.543560849601278e-09,9.93215192081778e-05,2.681993908362342e-08
480.0,500.0,8.861861702920946e-05,9.87135454276371e-09,8.8617703014639e-05,9.70134330027238e-09,0.00010082979586674461,2.7225085263846023e-08
500.0,520.0,9.036010148632978e-05,1.0008493525970986e-08,9.035546729412104e-05,9.835868060599662e-09,0.00010208917708993354,2.7547095115079947e-08
520.0,540.0,9.187561142992786e-05,1.0120777127303986e-08,9.18684539768979e-05,9.946036720813405e-09,0.00010298072179918124,2.7796974853734e-08
540.0,560.0,9.313235864102725e-05,1.0205870332532643e-08,9.312820684480696e-05,1.0029777866990373e-08,0.00010363775349666273,2.8012724954322927e-08
560.0,580.0,9.418716086256357e-05,1.0268474660979173e-08,9.418045933571284e-05,1.0091035588826134e-08,0.00010391128588524846,2.811854462527575e-08
580.0,600.0,9.494394579099976e-05,1.0303336769186364e-08,9.494250343963629e-05,1.0125648711547317e-08,0.00010393205708961086,2.8203996611921583e-08
600.0,620.0,9.538994533816088e-05,1.031217920881116e-08,9.53852524375592e-05,1.0134172656458216e-08,0.00010353819209388549,2.8147176627267556e-08
620.0,640.0,9.534143854371569e-05,1.0291653817950992e-08,9.533583450519113e-05,1.011395285556822e-08,0.00010271592706204404,2.8041153055560268e-08
640.0,660.0,9.464004720025278e-05,1.0240631292015059e-08,9.463723975879505e-05,1.0064021628230876e-08,0.00010136192834773304,2.7885301776026302e-08
660.0,680.0,9.363117197643549e-05,1.0175327107465924e-08,9.362409401483217e-05,9.999684658793861e-09,9.967651103170952e-05,2.7667682671082192e-08
680.0,700.0,9.23493435150311e-05,1.009022911966702e-08,9.234201805693647e-05,9.915889263342545e-09,9.781255157420126e-05,2.7383495228156884e-08
700.0,720.0,9.085950688328176e-05,9.987495774769851e-09,9.084900040766689e-05,9.814768007615626e-09,9.575191313265761e-05,2.7087558525926382e-08
720.0,740.0,8.918158186195337e-05,9.869058482972822e-09,8.916905134578147e-05,9.698403280690808e-09,9.357558854718149e-05,2.675548088767161e-08
740.0,760.0,8.73399905793398e-05,9.739595185155817e-09,8.733146524437943e-05,9.571342979624207e-09,9.132300177648603e-05,2.6444488037090694e-08
760.0,780.0,8.543127381210443e-05,9.607744650189464e-09,8.541742611410702e-05,9.441513453229549e-09,8.893291116622709e-05,2.606313395424267e-08
780.0,800.0,8.350902864541521e-05,9.475669400373583e-09,8.349588099278975e-05,9.31186618151828e-09,8.66757002431812e-05,2.576258771037478e-08
800.0,820.0,8.160711318000529e-05,9.345649276776905e-09,8.159905995103177e-05,9.184481364064809e-09,8.445709130111037e-05,2.5442152135060316e-08
820.0,840.0,7.978753099743438e-05,9.220859206867009e-09,7.977636950703337e-05,9.061711586933064e-09,8.223842185385245e-05,2.5114983928155216e-08
840.0,860.0,7.807953706279286e-05,9.102932785353358e-09,7.807038834903112e-05,8.945865844629559e-09,8.024735660951269e-05,2.481830205403828e-08
860.0,880.0,7.648727799981138e-05,8.992273780950472e-09,7.647608489790429e-05,8.837199528438834e-09,7.832769350611852e-05,2.4555808657788198e-08
880.0,900.0,7.502625919735182e-05,8.889955477458838e-09,7.501306627034503e-05,8.736642354927735e-09,7.65266090535582e-05,2.4284422346913494e-08
900.0,920.0,7.365146796839387e-05,8.790332227063038e-09,7.364015614100467e-05,8.638822296723354e-09,7.478882260806469e-05,2.3966983027812128e-08
920.0,940.0,7.228647479302168e-05,8.685638018087101e-09,7.227474580094283e-05,8.536037759021358e-09,7.307981387700574e-05,2.367753302148374e-08
940.0,960.0,7.089526966801088e-05,8.572504417694609e-09,7.08812619025948e-05,8.424737899489269e-09,7.13299257783198e-05,2.3354605983991494e-08
960.0,980.0,6.937939729363022e-05,8.445620342116255e-09,6.936683762888716e-05,8.30024654021595e-09,6.944867405216897e-05,2.299104082262101e-08
980.0,1000.0,6.773574584369205e-05,8.304645276486286e-09,6.77234209273037e-05,8.161797743173574e-09,6.752137675133227e-05,2.2601123755923726e-08
1000.0,1020.0,6.593798365984229e-05,8.148804572470717e-09,6.592302959307117e-05,8.008614984285203e-09,6.537375081817613e-05,2.2093227453478025e-08
1020.0,1040.0,6.396773645752912e-05,7.977206419829285e-09,6.395269444003855e-05,7.840028676557245e-09,6.313321221838522e-05,2.1591235257949425e-08
1040.0,1060.0,6.184781308999794e-05,7.793471531938574e-09,6.182811707950256e-05,7.659322924890903e-09,6.07785661239167e-05,2.1131598461869402e-08
1060.0,1080.0,5.9584426809316396e-05,7.598661002222446e-09,5.956929244807454e-05,7.468314249074087e-09,5.8306337906617726e-05,2.0561984434938042e-08
1080.0,1100.0,5.7281653985433715e-05,7.4004105463799345e-09,5.7262472727634044e-05,7.2734022355256454e-09,5.5887770922329746e-05,2.005350333038616e-08
1100.0,1120.0,5.495924065385831e-05,7.1987666669857996e-09,5.49427393413811e-05,7.07558366732613e-09,5.338135767189727e-05,1.9436143826778472e-08
1120.0,1140.0,5.267083308798199e-05,6.997213459578233e-09,5.265279084969495e-05,6.877578970004166e-09,5.0997298335366915e-05,1.889931633925154e-08
1140.0,1160.0,5.0402347645003574e-05,6.794874986035775e-09,5.038426103026728e-05,6.678916586005187e-09,4.8676413337904654e-05,1.8374184215676438e-08
1160.0,1180.0,4.81969650461125e-05,6.594360689552998e-09,4.817807803627009e-05,6.482049969956553e-09,4.6328078558247555e-05,1.7831339209917536e-08
1180.0,1200.0,4.601174198323263e-05,6.392604395600862e-09,4.598962254993515e-05,6.283715413859202e-09,4.408101521410285e-05,1.7255622389407666e-08
1200.0,1220.0,4.387689576946902e-05,6.191758986801444e-09,4.3853478571073024e-05,6.086444181349871e-09,4.185256922028669e-05,1.6691073558469585e-08
1220.0,1240.0,4.1776575119837206e-05,5.99050147445521e-09,4.1754230989237077e-05,5.888940873102057e-09,3.9702763315412566e-05,1.6146177430573675e-08
1240.0,1260.0,3.973031085816565e-05,5.790835427586474e-09,3.970833525657528e-05,5.692942647004851e-09,3.758968479629187e-05,1.5566903573378518e-08
1260.0,1280.0,3.771511614219215e-05,5.589864188531102e-09,3.769164239774933e-05,5.495532209187948e-09,3.555979634892209e-05,1.505470498787949e-08
1280.0,1300.0,3.5759533860797665e-05,5.390923376641081e-09,3.573487870795106e-05,5.300036819496561e-09,3.3562470060336305e-05,1.4517416248367599e-08
1300.0,1320.0,3.381807678727133e-05,5.189744406555526e-09,3.3794621639604906e-05,5.10256399967248e-09,3.158895168020733e-05,1.3929376246226389e-08
1320.0,1340.0,3.1931874738754083e-05,4.989839954137012e-09,3.190758286424484e-05,4.906144618543146e-09,2.969285739672851e-05,1.3427027563336467e-08
1340.0,1360.0,3.0086107922556823e-05,4.790623859074102e-09,3.005881839732901e-05,4.71018881731077e-09,2.783705875406061e-05,1.2874339143983748e-08
1360.0,1380.0,2.827143512344909e-05,4.590420000836365e-09,2.8242822979646587e-05,4.5133938262590845e-09,2.5995739957198292e-05,1.2314173651149708e-08
1380.0,1400.0,2.649000111708851e-05,4.3906285535669005e-09,2.646495336021781e-05,4.317523129614582e-09,2.423167010311117e-05,1.1763712497934492e-08
1400.0,1420.0,2.474879614974848e-05,4.190825188465926e-09,2.472089546735364e-05,4.121034457451714e-09,2.251362843567675e-05,1.1226674775321208e-08
1420.0,1440.0,2.3058604224999565e-05,3.9930671530103415e-09,2.303112224362814e-05,3.926971479153469e-09,2.0838180699667455e-05,1.0692983216159137e-08
1440.0,1460.0,2.1394542264210865e-05,3.7940952988378804e-09,2.136503276758129e-05,3.731549633495614e-09,1.9185190628016532e-05,1.0128609051602548e-08
1460.0,1480.0,1.9767035648482127e-05,3.595345197406589e-09,1.973803856668427e-05,3.5365672594595464e-09,1.758630309788661e-05,9.564456744236366e-09
1480.0,1500.0,1.816575942188403e-05,3.3956844350015117e-09,1.8136370575144305e-05,3.340637710756594e-09,1.6043843844975008e-05,9.047328859049132e-09
1500.0,1520.0,1.659059772540886e-05,3.1946504629184362e-09,1.6561735755536133e-05,3.1433555786080696e-09,1.4511298288601122e-05,8.489686400729409e-09
1520.0,1540.0,1.5027759412228421e-05,2.991110544114017e-09,1.4997045192982998e-05,2.94332285738858e-09,1.3007975668954988e-05,7.917483676625242e-09
1540.0,1560.0,1.3477588975948475e-05,2.784410033177344e-09,1.344784508903398e-05,2.740486848358026e-09,1.1527473647769345e-05,7.348930631361975e-09
1560.0,1580.0,1.1928051965074105e-05,2.5729329483822686e-09,1.1899641921168638e-05,2.533019550795183e-09,1.0060577997573388e-05,6.763531193947433e-09
1580.0,1600.0,1.0365918252764704e-05,2.354551672719184e-09,1.0339840779462093e-05,2.3187828774395085e-09,8.615635604056706e-06,6.173115263349384e-09
1600.0,1620.0,8.749064066840898e-06,2.122733025518943e-09,8.725712824090536e-06,2.0913234447104745e-09,7.132611009529053e-06,5.492836623732087e-09
1620.0,1640.0,7.037126485583191e-06,1.8653090275981074e-09,7.015233387253959e-06,1.8390490200616669e-09,5.636943556447175e-06,4.786109445361903e-09
1640.0,1660.0,5.371279710305366e-06,1.5885449965655326e-09,5.349083877067215e-06,1.5678558014058362e-09,4.235634545489515e-06,4.003990093154823e-09
1660.0,1680.0,3.910651195653195e-06,1.3161126680989955e-09,3.888463748547987e-06,1.301220656310646e-09,3.036112802079864e-06,3.2493411618739633e-09
1680.0,1700.0,2.6615838483491156e-06,1.0482299011124731e-09,2.6390947088443776e-06,1.0396379463035004e-09,2.0281578659556152e-06,2.5058881506110426e-09
1700.0,1720.0,1.6357613382172589e-06,7.793421616085761e-10,1.6129802821859914e-06,7.782147842258837e-10,1.2347083019772346e-06,1.7897468490287539e-09
1720.0,1740.0,8.817211141863994e-07,5.279805819890828e-10,8.580293200457415e-07,5.3621211789646e-10,6.846410788917965e-07,1.1459124032743175e-09
1740.0,1760.0,5.204962194527413e-07,3.846894338025328e-10,4.961104728300062e-07,4.0077584381909936e-10,4.298152322265237e-07,7.988903292442067e-10
1760.0,1780.0,3.8964012093214366e-07,3.2244941026877256e-10,3.6454315328767855e-07,3.4286861537707536e-10,3.3207806399122115e-07,6.718996779517378e-10
1780.0,1800.0,3.2146952803759827e-07,2.829960344673092e-10,2.954679305125461e-07,3.063605278774657e-10,2.7491399437385234e-07,5.847577200205691e-10
1800.0,1820.0,2.7594518645513096e-07,2.528919927259512e-10,2.488574111515188e-07,2.78548123599707e-10,2.3747433889271413e-07,5.345877969787736e-10
1820.0,1840.0,2.428378164793008e-07,2.292289376988965e-10,2.1456517892164694e-07,2.57166503053001e-10,2.0799315040001246e-07,4.925447621281933e-10
1840.0,1860.0,2.1639309739747056e-07,2.0866670282749301e-10,1.8649834690380762e-07,2.3833725347371285e-10,1.8467893584610665e-07,4.676728528212612e-10
1860.0,1880.0,1.936976295849868e-07,1.899475000107699e-10,1.6227304205192074e-07,2.213221894789692e-10,1.6277359243775835e-07,4.323429716778731e-10
1880.0,1900.0,1.7498117023465299e-07,1.7271659322457937e-10,1.4159490595339095e-07,2.0600102522632492e-10,1.449713341083567e-07,4.055922381547893e-10
1900.0,1920.0,1.577498157397444e-07,1.5528240849508897e-10,1.2230507571600742e-07,1.9052427529352672e-10,1.2768324999321934e-07,3.9787547988442426e-10
1920.0,1940.0,1.3970748685394173e-07,1.3503030431271412e-10,1.0216971841688266e-07,1.7289136083142616e-10,1.0958574249539344e-07,3.592115943108728e-10
1940.0,1960.0,1.214270191105161e-07,1.1125795917818779e-10,8.061088307448091e-08,1.5208489851961116e-10,9.025354253743805e-08,3.558688525040587e-10
1960.0,1980.0,9.901357966783623e-08,7.966358798239195e-11,5.3703023364552107e-08,1.2199618238217794e-10,6.763296812414239e-08,3.372716613575352e-10
1980.0,2000.0,4.062845213267393e-08,3.360677250318827e-11,1.1093285252107424e-08,4.932314615038382e-11,2.1981129271731543e-08,2.4801748296991856e-10
