# xl,xh,LO,dLO
0.000000000000000000e+00,2.999999999999999889e-02,3.955799999999999983e+00,7.755767746221733927e-02
2.999999999999999889e-02,5.999999999999999778e-02,4.030343333333333611e+00,7.946362550109187239e-02
5.999999999999999778e-02,8.999999999999999667e-02,4.016890000000000072e+00,8.079425859689673417e-02
8.999999999999999667e-02,1.199999999999999956e-01,4.174453333333333127e+00,8.083481785578401635e-02
1.199999999999999956e-01,1.499999999999999944e-01,4.117233333333333967e+00,7.871149146655073703e-02
1.499999999999999944e-01,1.799999999999999933e-01,4.291053333333333164e+00,8.357345405224211876e-02
1.799999999999999933e-01,2.099999999999999922e-01,4.477356666666666207e+00,8.614020225448999757e-02
2.099999999999999922e-01,2.399999999999999911e-01,4.519660000000000899e+00,8.519229229611484377e-02
2.399999999999999911e-01,2.700000000000000178e-01,4.674993333333329559e+00,8.522982002927266543e-02
2.700000000000000178e-01,2.999999999999999889e-01,5.262436666666671314e+00,9.587563124520580293e-02
2.999999999999999889e-01,3.300000000000000155e-01,5.345556666666661627e+00,9.368659930261569180e-02
3.300000000000000155e-01,3.599999999999999867e-01,5.608680000000005883e+00,9.956883715969246096e-02
3.599999999999999867e-01,3.900000000000000133e-01,5.967363333333328690e+00,1.017725568772511191e-01
3.900000000000000133e-01,4.199999999999999845e-01,6.393573333333339548e+00,1.049860678587614532e-01
4.199999999999999845e-01,4.500000000000000111e-01,7.112739999999993401e+00,1.083657900097831778e-01
4.500000000000000111e-01,4.799999999999999822e-01,7.614063333333341177e+00,1.128185859392562967e-01
4.799999999999999822e-01,5.100000000000000089e-01,8.418193333333325867e+00,1.240065858466126159e-01
5.100000000000000089e-01,5.400000000000000355e-01,9.012666666666659054e+00,1.280148428894086199e-01
5.400000000000000355e-01,5.699999999999999512e-01,1.022044666666669421e+01,1.394817789772799521e-01
5.699999999999999512e-01,5.999999999999999778e-01,1.154257999999999029e+01,1.398897978966140432e-01
5.999999999999999778e-01,6.300000000000000044e-01,1.300889666666665612e+01,1.443945982369145287e-01
6.300000000000000044e-01,6.600000000000000311e-01,1.517345666666665238e+01,1.542536511363307994e-01
6.600000000000000311e-01,6.899999999999999467e-01,1.749918000000004881e+01,1.708882675902595738e-01
6.899999999999999467e-01,7.199999999999999734e-01,2.076929999999998344e+01,1.795443925297830756e-01
7.199999999999999734e-01,7.500000000000000000e-01,2.488322666666664418e+01,1.984211570260477064e-01
7.500000000000000000e-01,7.800000000000000266e-01,3.004612999999997314e+01,2.162141428203887550e-01
7.800000000000000266e-01,8.100000000000000533e-01,2.796906666666664165e+01,2.148414143812436561e-01
8.100000000000000533e-01,8.399999999999999689e-01,1.571310333333337717e+01,1.555528848977097423e-01
8.399999999999999689e-01,8.699999999999999956e-01,3.981286666666662910e+01,2.520358880970898219e-01
8.699999999999999956e-01,9.000000000000000222e-01,1.062842333333332476e+02,4.209972288111482608e-01
9.000000000000000222e-01,9.300000000000000488e-01,1.109507999999999015e+02,4.250989427311138158e-01
