# xl,xh,LO,dLO
0.000000000000000000e+00,2.000000000000000042e-02,1.883649500000000199e+00,6.118927602121143616e-02
2.000000000000000042e-02,4.000000000000000083e-02,1.899603500000000000e+00,5.838910429181115580e-02
4.000000000000000083e-02,5.999999999999999778e-02,1.895348500000000103e+00,6.020550224024379810e-02
5.999999999999999778e-02,8.000000000000000167e-02,2.006847499999999673e+00,6.543489130425753086e-02
8.000000000000000167e-02,1.000000000000000056e-01,1.927618499999999679e+00,6.132222272553400355e-02
1.000000000000000056e-01,1.199999999999999956e-01,1.957424500000001011e+00,6.246368945235306752e-02
1.199999999999999956e-01,1.400000000000000133e-01,1.902701499999998491e+00,6.062289171591860731e-02
1.400000000000000133e-01,1.600000000000000033e-01,2.109715000000000895e+00,6.396117963264907891e-02
1.600000000000000033e-01,1.799999999999999933e-01,2.178881000000000956e+00,6.812413302200626131e-02
1.799999999999999933e-01,2.000000000000000111e-01,2.037745999999998059e+00,6.732105911228664086e-02
2.000000000000000111e-01,2.200000000000000011e-01,2.232056500000000998e+00,6.606423010979545207e-02
2.200000000000000011e-01,2.399999999999999911e-01,2.189232000000000955e+00,6.393674608548674532e-02
2.399999999999999911e-01,2.600000000000000089e-01,2.307085999999997750e+00,6.911676714083198059e-02
2.600000000000000089e-01,2.800000000000000266e-01,2.428840999999998029e+00,6.934363705488769125e-02
2.800000000000000266e-01,2.999999999999999889e-01,2.437252500000004485e+00,7.247239129489256582e-02
2.999999999999999889e-01,3.200000000000000067e-01,2.574446499999997862e+00,7.418182054924231383e-02
3.200000000000000067e-01,3.400000000000000244e-01,2.649031499999997763e+00,7.660967628178565192e-02
3.400000000000000244e-01,3.599999999999999867e-01,2.869810000000005523e+00,8.003892802880373247e-02
3.599999999999999867e-01,3.800000000000000044e-01,2.872095999999997318e+00,7.899406623285060158e-02
3.800000000000000044e-01,4.000000000000000222e-01,2.926782999999997692e+00,8.007502731813451180e-02
4.000000000000000222e-01,4.199999999999999845e-01,3.192624000000006124e+00,8.139679047726651462e-02
4.199999999999999845e-01,4.400000000000000022e-01,3.289228999999996628e+00,8.114069570813395305e-02
4.400000000000000022e-01,4.600000000000000200e-01,3.631534499999996779e+00,8.585608598113465828e-02
4.600000000000000200e-01,4.799999999999999822e-01,3.731623000000007018e+00,9.096404509475175537e-02
4.799999999999999822e-01,5.000000000000000000e-01,4.091047999999996243e+00,9.612530884215657323e-02
5.000000000000000000e-01,5.200000000000000178e-01,4.190885499999996711e+00,9.698573348694118634e-02
5.200000000000000178e-01,5.400000000000000355e-01,4.582040499999996186e+00,1.046634248436385667e-01
5.400000000000000355e-01,5.600000000000000533e-01,5.022279999999994970e+00,1.117466106868569703e-01
5.600000000000000533e-01,5.799999999999999600e-01,5.454840000000024780e+00,1.178500106067035119e-01
5.799999999999999600e-01,5.999999999999999778e-01,5.853264999999995055e+00,1.147527450652051917e-01
5.999999999999999778e-01,6.199999999999999956e-01,6.383244999999994285e+00,1.181841148378240114e-01
6.199999999999999956e-01,6.400000000000000133e-01,6.994129999999993963e+00,1.212416595069531894e-01
6.400000000000000133e-01,6.600000000000000311e-01,7.922724999999992690e+00,1.352657754200964624e-01
6.600000000000000311e-01,6.800000000000000488e-01,8.762079999999992097e+00,1.439222098913158221e-01
6.800000000000000488e-01,6.999999999999999556e-01,1.023329000000004818e+01,1.559970913190378283e-01
6.999999999999999556e-01,7.199999999999999734e-01,1.112798999999998983e+01,1.585117503530888428e-01
7.199999999999999734e-01,7.399999999999999911e-01,1.285885999999998752e+01,1.753719618411105907e-01
7.399999999999999911e-01,7.600000000000000089e-01,1.457959499999998698e+01,1.775349965499758709e-01
7.600000000000000089e-01,7.800000000000000266e-01,1.702445999999998349e+01,2.046033968437472594e-01
7.800000000000000266e-01,8.000000000000000444e-01,2.041963999999998336e+01,2.234014883567249365e-01
8.000000000000000444e-01,8.199999999999999512e-01,0.000000000000000000e+00,0.000000000000000000e+00
8.199999999999999512e-01,8.399999999999999689e-01,0.000000000000000000e+00,0.000000000000000000e+00
8.399999999999999689e-01,8.599999999999999867e-01,0.000000000000000000e+00,0.000000000000000000e+00
8.599999999999999867e-01,8.800000000000000044e-01,4.838402499999995854e+01,3.492560665185356350e-01
8.800000000000000044e-01,9.000000000000000222e-01,6.473359999999993875e+01,4.086666122892836372e-01
9.000000000000000222e-01,9.200000000000000400e-01,8.974609999999991317e+01,4.889494861435070283e-01
9.200000000000000400e-01,9.399999999999999467e-01,0.000000000000000000e+00,0.000000000000000000e+00
9.399999999999999467e-01,9.599999999999999645e-01,0.000000000000000000e+00,0.000000000000000000e+00
9.599999999999999645e-01,9.799999999999999822e-01,0.000000000000000000e+00,0.000000000000000000e+00
9.799999999999999822e-01,1.000000000000000000e+00,0.000000000000000000e+00,0.000000000000000000e+00
