# xl,xh,LO,dLO
0.000000000000000000e+00,4.000000000000000000e+01,0.000000000000000000e+00,0.000000000000000000e+00
4.000000000000000000e+01,8.000000000000000000e+01,0.000000000000000000e+00,0.000000000000000000e+00
8.000000000000000000e+01,1.200000000000000000e+02,0.000000000000000000e+00,0.000000000000000000e+00
1.200000000000000000e+02,1.600000000000000000e+02,0.000000000000000000e+00,0.000000000000000000e+00
1.600000000000000000e+02,2.000000000000000000e+02,0.000000000000000000e+00,0.000000000000000000e+00
2.000000000000000000e+02,2.400000000000000000e+02,0.000000000000000000e+00,0.000000000000000000e+00
2.400000000000000000e+02,2.800000000000000000e+02,0.000000000000000000e+00,0.000000000000000000e+00
2.800000000000000000e+02,3.200000000000000000e+02,0.000000000000000000e+00,0.000000000000000000e+00
3.200000000000000000e+02,3.600000000000000000e+02,0.000000000000000000e+00,0.000000000000000000e+00
3.600000000000000000e+02,4.000000000000000000e+02,0.000000000000000000e+00,0.000000000000000000e+00
4.000000000000000000e+02,4.400000000000000000e+02,0.000000000000000000e+00,0.000000000000000000e+00
4.400000000000000000e+02,4.800000000000000000e+02,0.000000000000000000e+00,0.000000000000000000e+00
4.800000000000000000e+02,5.200000000000000000e+02,0.000000000000000000e+00,0.000000000000000000e+00
5.200000000000000000e+02,5.600000000000000000e+02,0.000000000000000000e+00,0.000000000000000000e+00
5.600000000000000000e+02,6.000000000000000000e+02,0.000000000000000000e+00,0.000000000000000000e+00
6.000000000000000000e+02,6.400000000000000000e+02,0.000000000000000000e+00,0.000000000000000000e+00
6.400000000000000000e+02,6.800000000000000000e+02,0.000000000000000000e+00,0.000000000000000000e+00
6.800000000000000000e+02,7.200000000000000000e+02,0.000000000000000000e+00,0.000000000000000000e+00
7.200000000000000000e+02,7.600000000000000000e+02,0.000000000000000000e+00,0.000000000000000000e+00
7.600000000000000000e+02,8.000000000000000000e+02,0.000000000000000000e+00,0.000000000000000000e+00
8.000000000000000000e+02,8.400000000000000000e+02,0.000000000000000000e+00,0.000000000000000000e+00
8.400000000000000000e+02,8.800000000000000000e+02,0.000000000000000000e+00,0.000000000000000000e+00
8.800000000000000000e+02,9.200000000000000000e+02,0.000000000000000000e+00,0.000000000000000000e+00
9.200000000000000000e+02,9.600000000000000000e+02,0.000000000000000000e+00,0.000000000000000000e+00
9.600000000000000000e+02,1.000000000000000000e+03,0.000000000000000000e+00,0.000000000000000000e+00
1.000000000000000000e+03,1.040000000000000000e+03,0.000000000000000000e+00,0.000000000000000000e+00
1.040000000000000000e+03,1.080000000000000000e+03,0.000000000000000000e+00,0.000000000000000000e+00
1.080000000000000000e+03,1.120000000000000000e+03,0.000000000000000000e+00,0.000000000000000000e+00
1.120000000000000000e+03,1.160000000000000000e+03,0.000000000000000000e+00,0.000000000000000000e+00
1.160000000000000000e+03,1.200000000000000000e+03,0.000000000000000000e+00,0.000000000000000000e+00
1.200000000000000000e+03,1.240000000000000000e+03,0.000000000000000000e+00,0.000000000000000000e+00
1.240000000000000000e+03,1.280000000000000000e+03,0.000000000000000000e+00,0.000000000000000000e+00
1.280000000000000000e+03,1.320000000000000000e+03,0.000000000000000000e+00,0.000000000000000000e+00
1.320000000000000000e+03,1.360000000000000000e+03,0.000000000000000000e+00,0.000000000000000000e+00
1.360000000000000000e+03,1.400000000000000000e+03,0.000000000000000000e+00,0.000000000000000000e+00
1.400000000000000000e+03,1.440000000000000000e+03,0.000000000000000000e+00,0.000000000000000000e+00
1.440000000000000000e+03,1.480000000000000000e+03,0.000000000000000000e+00,0.000000000000000000e+00
1.480000000000000000e+03,1.520000000000000000e+03,0.000000000000000000e+00,0.000000000000000000e+00
1.520000000000000000e+03,1.560000000000000000e+03,0.000000000000000000e+00,0.000000000000000000e+00
1.560000000000000000e+03,1.600000000000000000e+03,0.000000000000000000e+00,0.000000000000000000e+00
1.600000000000000000e+03,1.640000000000000000e+03,0.000000000000000000e+00,0.000000000000000000e+00
1.640000000000000000e+03,1.680000000000000000e+03,0.000000000000000000e+00,0.000000000000000000e+00
1.680000000000000000e+03,1.720000000000000000e+03,0.000000000000000000e+00,0.000000000000000000e+00
1.720000000000000000e+03,1.760000000000000000e+03,0.000000000000000000e+00,0.000000000000000000e+00
1.760000000000000000e+03,1.800000000000000000e+03,0.000000000000000000e+00,0.000000000000000000e+00
1.800000000000000000e+03,1.840000000000000000e+03,0.000000000000000000e+00,0.000000000000000000e+00
1.840000000000000000e+03,1.880000000000000000e+03,0.000000000000000000e+00,0.000000000000000000e+00
1.880000000000000000e+03,1.920000000000000000e+03,0.000000000000000000e+00,0.000000000000000000e+00
1.920000000000000000e+03,1.960000000000000000e+03,0.000000000000000000e+00,0.000000000000000000e+00
1.960000000000000000e+03,2.000000000000000000e+03,0.000000000000000000e+00,0.000000000000000000e+00
2.000000000000000000e+03,2.040000000000000000e+03,0.000000000000000000e+00,0.000000000000000000e+00
2.040000000000000000e+03,2.080000000000000000e+03,0.000000000000000000e+00,0.000000000000000000e+00
2.080000000000000000e+03,2.120000000000000000e+03,0.000000000000000000e+00,0.000000000000000000e+00
2.120000000000000000e+03,2.160000000000000000e+03,0.000000000000000000e+00,0.000000000000000000e+00
2.160000000000000000e+03,2.200000000000000000e+03,0.000000000000000000e+00,0.000000000000000000e+00
2.200000000000000000e+03,2.240000000000000000e+03,0.000000000000000000e+00,0.000000000000000000e+00
2.240000000000000000e+03,2.280000000000000000e+03,0.000000000000000000e+00,0.000000000000000000e+00
2.280000000000000000e+03,2.320000000000000000e+03,0.000000000000000000e+00,0.000000000000000000e+00
2.320000000000000000e+03,2.360000000000000000e+03,0.000000000000000000e+00,0.000000000000000000e+00
2.360000000000000000e+03,2.400000000000000000e+03,0.000000000000000000e+00,0.000000000000000000e+00
2.400000000000000000e+03,2.440000000000000000e+03,0.000000000000000000e+00,0.000000000000000000e+00
2.440000000000000000e+03,2.480000000000000000e+03,0.000000000000000000e+00,0.000000000000000000e+00
2.480000000000000000e+03,2.520000000000000000e+03,0.000000000000000000e+00,0.000000000000000000e+00
2.520000000000000000e+03,2.560000000000000000e+03,0.000000000000000000e+00,0.000000000000000000e+00
2.560000000000000000e+03,2.600000000000000000e+03,0.000000000000000000e+00,0.000000000000000000e+00
2.600000000000000000e+03,2.640000000000000000e+03,0.000000000000000000e+00,0.000000000000000000e+00
2.640000000000000000e+03,2.680000000000000000e+03,0.000000000000000000e+00,0.000000000000000000e+00
2.680000000000000000e+03,2.720000000000000000e+03,0.000000000000000000e+00,0.000000000000000000e+00
2.720000000000000000e+03,2.760000000000000000e+03,0.000000000000000000e+00,0.000000000000000000e+00
2.760000000000000000e+03,2.800000000000000000e+03,0.000000000000000000e+00,0.000000000000000000e+00
2.800000000000000000e+03,2.840000000000000000e+03,0.000000000000000000e+00,0.000000000000000000e+00
2.840000000000000000e+03,2.880000000000000000e+03,0.000000000000000000e+00,0.000000000000000000e+00
2.880000000000000000e+03,2.920000000000000000e+03,0.000000000000000000e+00,0.000000000000000000e+00
2.920000000000000000e+03,2.960000000000000000e+03,0.000000000000000000e+00,0.000000000000000000e+00
2.960000000000000000e+03,3.000000000000000000e+03,0.000000000000000000e+00,0.000000000000000000e+00
3.000000000000000000e+03,3.040000000000000000e+03,0.000000000000000000e+00,0.000000000000000000e+00
3.040000000000000000e+03,3.080000000000000000e+03,0.000000000000000000e+00,0.000000000000000000e+00
3.080000000000000000e+03,3.120000000000000000e+03,0.000000000000000000e+00,0.000000000000000000e+00
3.120000000000000000e+03,3.160000000000000000e+03,0.000000000000000000e+00,0.000000000000000000e+00
3.160000000000000000e+03,3.200000000000000000e+03,0.000000000000000000e+00,0.000000000000000000e+00
3.200000000000000000e+03,3.240000000000000000e+03,0.000000000000000000e+00,0.000000000000000000e+00
3.240000000000000000e+03,3.280000000000000000e+03,0.000000000000000000e+00,0.000000000000000000e+00
3.280000000000000000e+03,3.320000000000000000e+03,0.000000000000000000e+00,0.000000000000000000e+00
3.320000000000000000e+03,3.360000000000000000e+03,0.000000000000000000e+00,0.000000000000000000e+00
3.360000000000000000e+03,3.400000000000000000e+03,0.000000000000000000e+00,0.000000000000000000e+00
3.400000000000000000e+03,3.440000000000000000e+03,0.000000000000000000e+00,0.000000000000000000e+00
3.440000000000000000e+03,3.480000000000000000e+03,0.000000000000000000e+00,0.000000000000000000e+00
3.480000000000000000e+03,3.520000000000000000e+03,0.000000000000000000e+00,0.000000000000000000e+00
3.520000000000000000e+03,3.560000000000000000e+03,0.000000000000000000e+00,0.000000000000000000e+00
3.560000000000000000e+03,3.600000000000000000e+03,0.000000000000000000e+00,0.000000000000000000e+00
3.600000000000000000e+03,3.640000000000000000e+03,0.000000000000000000e+00,0.000000000000000000e+00
3.640000000000000000e+03,3.680000000000000000e+03,0.000000000000000000e+00,0.000000000000000000e+00
3.680000000000000000e+03,3.720000000000000000e+03,0.000000000000000000e+00,0.000000000000000000e+00
3.720000000000000000e+03,3.760000000000000000e+03,0.000000000000000000e+00,0.000000000000000000e+00
3.760000000000000000e+03,3.800000000000000000e+03,0.000000000000000000e+00,0.000000000000000000e+00
3.800000000000000000e+03,3.840000000000000000e+03,0.000000000000000000e+00,0.000000000000000000e+00
3.840000000000000000e+03,3.880000000000000000e+03,0.000000000000000000e+00,0.000000000000000000e+00
3.880000000000000000e+03,3.920000000000000000e+03,0.000000000000000000e+00,0.000000000000000000e+00
3.920000000000000000e+03,3.960000000000000000e+03,0.000000000000000000e+00,0.000000000000000000e+00
3.960000000000000000e+03,4.000000000000000000e+03,5.508457500000000368e-02,2.612932978474572085e-04
