# xl,xh,ISR,dISR,FSR,dFSR,FULL,dFULL
0.0,0.03,0.1470561191845776,0.000263895067425,0.1002061788230462,0.0001183305345816,0.2458489094498638,0.0004978496768448
0.03,0.06,0.1476686580971352,0.0002649790773999,0.1002907502857425,0.0001184873812329,0.2465414076982542,0.0004992780943759
0.06,0.09,0.1480903540475603,0.0002654514671816,0.1009062016684681,0.0001190473637222,0.2465345175765334,0.0004987087183551
0.09,0.12,0.148314205750463,0.0002656080164246,0.10111200589648,0.0001194420170539,0.247946995757112,0.0005026622940741
0.12,0.15,0.1490323449732873,0.0002669220108846,0.1018345012308177,0.0001202272359278,0.2498191525310404,0.0005059135726677
0.15,0.18,0.1504277877296764,0.0002691614142716,0.1022721030195133,0.0001210086973263,0.2510052823186222,0.0005083000386176
0.18,0.21,0.1518607883674823,0.0002712101146076,0.1030474888057614,0.0001220395511147,0.2530918278660084,0.0005143606927407
0.21,0.24,0.1525864442769648,0.0002728510977041,0.1040563632891398,0.0001232746528833,0.2556974372054925,0.0005196779250175
0.24,0.27,0.1550274098013325,0.0002762371286488,0.1050348544472879,0.0001246494884519,0.2578543139465614,0.0005243950862654
0.27,0.3,0.1567977176640828,0.0002787264621681,0.1064224192021652,0.0001263428206282,0.2609631206999406,0.0005318625697595
0.3,0.33,0.1590725689422213,0.0002823458657438,0.1077270929169828,0.0001280318222739,0.264223201972832,0.0005380824058266
0.33,0.36,0.1610155887442607,0.0002852169153974,0.1091626499052485,0.0001299593285826,0.2684159345579782,0.0005482651717779
0.36,0.39,0.1640814350929113,0.0002897104448105,0.1107666450811988,0.0001320722971705,0.2730309614251302,0.0005572255769669
0.39,0.42,0.1673073378732896,0.000294350831462,0.1120329354523954,0.0001340149949387,0.2769490359251963,0.0005669091372823
0.42,0.45,0.1709737046500228,0.0002994260011427,0.1141421512835088,0.0001365818355588,0.2825419436368364,0.0005787204034518
0.45,0.48,0.1743530619975087,0.0003042131082299,0.1157309151484891,0.0001389759434942,0.2871076904698973,0.0005884722039642
0.48,0.51,0.1776812397367136,0.0003094903012499,0.1173958888758798,0.0001414398994801,0.2921502798980858,0.0006011270200808
0.51,0.54,0.1825449119129176,0.0003154714630031,0.1190037474818434,0.0001440496267105,0.298744653131991,0.000615269044528
0.54,0.5700000000000001,0.1860933689795093,0.0003209804454145,0.1208167322845385,0.0001468450517672,0.3043060378829013,0.0006279571070615
0.5700000000000001,0.6000000000000001,0.191022314259072,0.0003276419515891,0.122562166095813,0.0001495758763036,0.3107456294948208,0.0006426692280459
0.6000000000000001,0.63,0.1962088055379244,0.0003346206254509,0.1237172298511018,0.0001521407996955,0.3160052521240687,0.0006551692529825
0.63,0.66,0.2006430761038172,0.0003413462021041,0.1248252170395436,0.0001547110095911,0.3204830388313263,0.0006675927825831
0.66,0.6900000000000001,0.2048010627382707,0.0003472364405996,0.1258434062494122,0.0001573030342685,0.3265253148165832,0.0006838289966675
0.6900000000000001,0.72,0.2088923255035152,0.0003539105538705,0.1250798695511116,0.0001588733359394,0.3296698730045337,0.0006968190340783
0.72,0.75,0.2130109041341265,0.0003611339600373,0.124091376815353,0.000160530653311,0.3317815111033172,0.0007107349142784
0.75,0.78,0.2140772592163053,0.0003664973826673,0.1196951066098816,0.0001603244970882,0.3301239285127306,0.0007235517775231
0.78,0.81,0.2128962669948207,0.0003722405932186,0.1148530868683442,0.0001607031329514,0.322446147362127,0.0007319293343207
0.81,0.8400000000000001,0.2089331175081085,0.0003736574134879,0.1093692352498271,0.0001600620486292,0.3134128921326556,0.0007383218020515
0.8400000000000001,0.8700000000000001,0.2081830969297364,0.0003741704634984,0.1032831969741737,0.0001565313658131,0.3074221015332269,0.0007364628486842
0.8700000000000001,0.9,0.2097060820634096,0.0003716301151121,0.0951712046626141,0.000149883376155,0.3006564859444159,0.0007226953575071
0.9,0.93,0.2013036640715366,0.0003657669926929,0.0793148585716279,0.0001393320343516,0.2771028873335404,0.0007037438279519
