# xl,xh,ISR,dISR,FSR,dFSR,FULL,dFULL
0.0,0.02,0.1112579969944863,0.0002980530082312,0.1098798695655558,0.0001625994510917,0.2130673130093603,0.0006500035990372
0.02,0.04,0.1106592378639534,0.0002969058605743,0.1098488533889583,0.0001625707232731,0.2132567596452961,0.0006519220934992
0.04,0.06,0.1112638983385527,0.0002979154673212,0.1102054334920303,0.0001629016490592,0.2150309973277721,0.000655920733817
0.06,0.08,0.1113020074301571,0.0002974262749609,0.1101961004063524,0.0001629083942048,0.2132064166113553,0.0006515631529025
0.08,0.1,0.112226463699123,0.000299790161643,0.110404714372337,0.0001632236381595,0.2144783943875629,0.0006524980636799
0.1,0.12,0.1124838556118935,0.0002996606271967,0.1104214321032716,0.0001633347232453,0.2163643458947461,0.0006576672212665
0.12,0.14,0.1135969548907371,0.0003007064104769,0.1110458239054732,0.0001639382687491,0.2166353401727885,0.0006572213774171
0.14,0.16,0.113950591593458,0.0003011162096866,0.1111896503044855,0.0001643193114122,0.2184453032163982,0.000661221767205
0.16,0.18,0.1151914465728332,0.0003035241205029,0.1109377588158472,0.000164159333584,0.2198877275154097,0.0006614981348684
0.18,0.2,0.116294299016035,0.0003042061599101,0.1117522174291207,0.0001650271199078,0.2207786630164257,0.0006658476241875
0.2,0.22,0.1175126835689398,0.0003059048138777,0.1121240439810595,0.0001656810468816,0.2217719029660085,0.0006642830521164
0.22,0.24,0.1189231742824429,0.0003075186430293,0.1126504310625203,0.0001663972578977,0.224510933935826,0.0006723283097744
0.24,0.26,0.1206221645307256,0.0003103976795963,0.1129195817195597,0.0001667979277692,0.2269250943354349,0.0006739608813074
0.26,0.28,0.1216155990136867,0.0003112211521993,0.1134117981107193,0.0001674764731764,0.2279704394513756,0.0006757746853804
0.28,0.3,0.1241860917399457,0.0003147115116218,0.1141424112514118,0.0001683158505735,0.2315016465598484,0.0006792449322874
0.3,0.32,0.1261846472741972,0.0003174569908973,0.1146394260858983,0.000169182458463,0.2331074248734996,0.0006815345066104
0.32,0.34,0.1287341813951603,0.0003206513431422,0.115450325950742,0.0001701762373446,0.2371585629071816,0.0006908028668819
0.34,0.36,0.1302927254189135,0.0003219062481428,0.1158705073748321,0.0001709782392647,0.2386208108052828,0.0006898628683094
0.36,0.38,0.1331743120084483,0.000325768753029,0.1168204424851844,0.0001720684731659,0.2422343322478562,0.0006938431452019
0.38,0.4,0.1368330610919376,0.0003305923148332,0.117332812132824,0.0001729935993551,0.2454255841606325,0.0007001999590537
0.4,0.42,0.1389435098694611,0.0003329460203716,0.1180694227191441,0.000173997900685,0.2508392626169453,0.000708418306415
0.42,0.44,0.1433708867124588,0.0003391546366368,0.118715613538479,0.0001750116320419,0.2537943146179127,0.0007131915557378
0.44,0.46,0.1467540917564598,0.0003428657939822,0.1197246068671632,0.0001763702619212,0.2601802685690349,0.0007235631221695
0.46,0.48,0.1509748711515798,0.0003475540395373,0.1201380106326049,0.000177167068672,0.2625613315558145,0.0007235503474415
0.48,0.5,0.1552709410826575,0.0003526491550136,0.1212411876259869,0.0001787278948188,0.2694398256556867,0.0007367312304626
0.5,0.52,0.1596489550457607,0.0003572998181991,0.1218459672530188,0.0001797708768988,0.2723308856759119,0.000735015786841
0.52,0.54,0.1660848517546599,0.0003656062771743,0.1227941132008584,0.0001811690203279,0.2798815474581737,0.0007468296649591
0.54,0.56,0.171541812173489,0.0003717650276377,0.123814216263923,0.0001826032137395,0.287486373741869,0.0007607660016717
0.56,0.58,0.1782556595294393,0.0003793921391389,0.124267696045135,0.0001836007481079,0.293747101999383,0.0007643417586169
0.58,0.6,0.184734262899214,0.0003862062191918,0.1253223362001359,0.0001850745540378,0.303326717831118,0.0007810527013179
0.6,0.62,0.1934284948224696,0.0003965205925641,0.1260904222004729,0.0001864652206563,0.3090943808531539,0.0007834752295914
0.62,0.64,0.2010191800656945,0.0004044428526895,0.1267483954870228,0.000187732734952,0.3196834275896836,0.0007975366607235
0.64,0.66,0.2102539889963486,0.0004140561456554,0.1277084378368884,0.0001893310284323,0.3314780828372596,0.0008157293137234
0.66,0.68,0.2211737072471121,0.0004255336948863,0.1284850902739865,0.0001906652910041,0.341108313824802,0.0008224845844569
0.68,0.7,0.2336103090790314,0.0004389706442057,0.1292402186087345,0.0001921738143892,0.3532088175001915,0.0008352249666979
0.7,0.72,0.2451362827229534,0.0004497408463018,0.1301251014491549,0.0001936822291089,0.3679651266894135,0.0008522449326983
0.72,0.74,0.2622413573826762,0.0004675625029181,0.1306659667930823,0.0001949411859359,0.3847863592316407,0.0008733295739868
0.74,0.76,0.2793882296649963,0.0004842988234009,0.1312370722570303,0.0001962396258664,0.4015673997750356,0.0008880334786165
0.76,0.78,0.2986270936606182,0.0005017752443474,0.1313819767961786,0.0001973197372251,0.4203068730814936,0.0009080500194208
0.78,0.8,0.3216714830109732,0.0005238975288734,0.1314123929074487,0.0001981258215652,0.4443113264813956,0.0009320287995172
0.8,0.82,0.0030262599657673,4.440720114240438e-05,0.0008362975268153,1.073582681120288e-05,0.0067226855517158,0.0001005732945214
0.82,0.84,0.0033148796504537,4.685194992289201e-05,0.0007920282114295,1.0414899340344213e-05,0.0070407093354308,0.0001010232020302
0.84,0.86,0.0035946259908182,4.808974854107655e-05,0.0007683483869438,1.041988778515582e-05,0.0075666940160073,0.0001063650509073
0.86,0.88,0.4623872166643154,0.0006531885878364,0.1260779550109086,0.0001974838592837,0.5771535639643351,0.0010615370255373
0.88,0.9,0.5170408416350298,0.0007049160299935,0.121886432736472,0.0001951292040541,0.6305675947604814,0.0011192335665983
0.9,0.92,0.5868811908428069,0.0007722410537078,0.1168491066721095,0.0001925789345438,0.6945610814350783,0.0011916437233723
0.92,0.94,0.0064207964614602,6.51679105900238e-05,0.0005926240067836,9.42185295192346e-06,0.0119701706992749,0.0001223866164389
0.94,0.96,0.0087097996237973,7.602278324021642e-05,0.0005693094357018,9.300902759802628e-06,0.0157147848546,0.0001372992361568
0.96,0.98,0.0138713502178074,9.587502669527265e-05,0.0005080568244856,8.785959837971565e-06,0.0247093301555558,0.0001666582494829
0.98,1.0,0.2258122123079044,0.0003768863832087,0.0004993317496851,8.836625685151633e-06,0.4002393038169746,0.000636497067978
