# xl,xh,ISR,dISR,FSR,dFSR,FULL,dFULL
80.0,120.0,0.0,0.0,0.0,0.0,0.0,0.0
120.0,160.0,0.0,0.0,0.0,0.0,0.0,0.0
160.0,200.0,0.0,0.0,0.0,0.0,0.0,0.0
200.0,240.0,6.937961178130167e-05,5.6580930251976976e-08,7.538107748646802e-08,1.3722663205329264e-09,7.190898995739395e-05,6.491573549606371e-08
240.0,280.0,0.0001235146579367,7.854778877955492e-08,2.280320117191317e-07,3.012353967747037e-09,0.0001254738588966,8.95445878073842e-08
280.0,320.0,0.0001051842727726,7.607295773072509e-08,3.209180764649638e-07,4.197028898263914e-09,0.0001067817404401,8.705203944560999e-08
320.0,360.0,8.638397522441914e-05,7.224924806935818e-08,3.561712891938227e-07,4.755130151142978e-09,8.771093984896576e-05,8.311723706731482e-08
360.0,400.0,7.343655844283792e-05,6.958436579206384e-08,4.158669076198042e-07,5.4015698197850844e-09,7.442993621293121e-05,8.042882379421212e-08
400.0,440.0,6.407643917822473e-05,6.769914049781518e-08,4.609499409456153e-07,5.848057259912377e-09,6.494908925021814e-05,7.878954715439669e-08
440.0,480.0,5.7290522274342394e-05,6.651634247335448e-08,5.099664885802617e-07,6.246805400236729e-09,5.8022383168887096e-05,7.787475607206812e-08
480.0,520.0,5.1959650690348034e-05,6.57257768910736e-08,5.566402748985724e-07,6.603505297944307e-09,5.278049467011841e-05,7.740824396909412e-08
520.0,560.0,4.7602012070960194e-05,6.507675420712486e-08,6.102594312310471e-07,6.982022645454547e-09,4.8543909423094725e-05,7.723739196877692e-08
560.0,600.0,4.4382627350283006e-05,6.50536042096688e-08,6.760201333410127e-07,7.389705758616817e-09,4.530792559893463e-05,7.750667721745665e-08
600.0,640.0,4.1664717101963415e-05,6.494568645917958e-08,7.160468046345079e-07,7.652598527546132e-09,4.269899070616684e-05,7.806739499443663e-08
640.0,680.0,3.959075514251834e-05,6.528512109258829e-08,7.889471252863878e-07,8.0854709877556e-09,4.051199716269771e-05,7.889685753756654e-08
680.0,720.0,3.781181463570073e-05,6.571361953319399e-08,8.4125574978345e-07,8.361348268767169e-09,3.873999501581892e-05,7.977885254954716e-08
720.0,760.0,3.614470248841358e-05,6.600865594371306e-08,9.208763547649114e-07,8.79368972620099e-09,3.729211675241403e-05,8.05739727783274e-08
760.0,800.0,3.50116608083366e-05,6.658569541069265e-08,9.800712709758263e-07,9.084880963471742e-09,3.637712413528165e-05,8.244134462656179e-08
800.0,840.0,3.400537916204693e-05,6.75181621246661e-08,1.0664638476079095e-06,9.541754722421953e-09,3.5588894792993564e-05,8.406669653569917e-08
840.0,880.0,3.3186760574610925e-05,6.828506626248093e-08,1.1507464953135443e-06,9.914804174880484e-09,3.475044015493616e-05,8.564221648044669e-08
880.0,920.0,3.2673177455878704e-05,6.942710271151914e-08,1.234242520137776e-06,1.0348700657765842e-08,3.439196207714204e-05,8.751925199869434e-08
920.0,960.0,3.209681890665099e-05,7.04153360879883e-08,1.3204009547295331e-06,1.0737419904999073e-08,3.3918683341383224e-05,8.91453026365368e-08
960.0,1000.0,3.184987708852494e-05,7.175325128674616e-08,1.424065919137753e-06,1.1173964281157926e-08,3.388078510784219e-05,9.142396836719265e-08
1000.0,1040.0,3.1551527378152545e-05,7.291252600401765e-08,1.5380091032040257e-06,1.1654861361686493e-08,3.382835429159543e-05,9.389792087766875e-08
1040.0,1080.0,3.138268618105379e-05,7.434617017298655e-08,1.6619843876607545e-06,1.2205584819928869e-08,3.384373401611741e-05,9.614861819391337e-08
1080.0,1120.0,3.13267644238359e-05,7.570879589683552e-08,1.7894223829416553e-06,1.2672313795103892e-08,3.410049081612686e-05,9.902460084021537e-08
1120.0,1160.0,3.156888958073717e-05,7.762402575943365e-08,1.9159255733544893e-06,1.3191557789302849e-08,3.465396044814396e-05,1.0228099066365332e-07
1160.0,1200.0,3.168299938194023e-05,7.914815148406221e-08,2.0695044117310736e-06,1.3761876860651961e-08,3.519043880602195e-05,1.059169106482155e-07
1200.0,1240.0,3.192508675010153e-05,8.099077342949336e-08,2.2679878270062694e-06,1.4469404194779753e-08,3.5772167330598016e-05,1.091819764795726e-07
1240.0,1280.0,3.218959996709407e-05,8.280671205050963e-08,2.4883610423024184e-06,1.522547646708951e-08,3.616346676703878e-05,1.1208749247800422e-07
1280.0,1320.0,3.243026364618153e-05,8.45319144660099e-08,2.6809167910584076e-06,1.589834887255613e-08,3.692401225756838e-05,1.1605851501675372e-07
1320.0,1360.0,3.262268529752677e-05,8.613013740892809e-08,2.9498947056098464e-06,1.6730829785577356e-08,3.7388319981438395e-05,1.1919964081274325e-07
1360.0,1400.0,3.292782618420521e-05,8.805881861334919e-08,3.2606096361858873e-06,1.7660361200678222e-08,3.822753860910406e-05,1.2365435042671148e-07
1400.0,1440.0,3.3287524352409496e-05,8.983497655702001e-08,3.5909871822471277e-06,1.858587622313565e-08,3.912366265410209e-05,1.2793338621567646e-07
1440.0,1480.0,3.349311714347916e-05,9.149895170576073e-08,4.0317053587397605e-06,1.9747302084749685e-08,3.962588528532741e-05,1.315661980487326e-07
1480.0,1520.0,3.387962753156058e-05,9.325405901624409e-08,4.590665335666095e-06,2.1087113952743392e-08,4.0989098421802856e-05,1.3724784592898945e-07
1520.0,1560.0,3.427357077021443e-05,9.513512217477572e-08,5.321810525959441e-06,2.258805293625245e-08,4.2037706853354024e-05,1.420646423508388e-07
1560.0,1600.0,3.478200606740134e-05,9.710893913736757e-08,6.347079121830983e-06,2.4279535111828228e-08,4.372588890707364e-05,1.4844566701733793e-07
1600.0,1640.0,3.498484703215711e-05,9.885686927544844e-08,7.299165665379739e-06,2.5735889493655375e-08,4.464734568326807e-05,1.5260859500804316e-07
1640.0,1680.0,3.5044238907257847e-05,1.0002467302141896e-07,8.069709956452256e-06,2.691648148546683e-08,4.57821037947984e-05,1.5749088144628065e-07
1680.0,1720.0,3.5254982588758105e-05,1.018467116507317e-07,8.911021922510363e-06,2.826579646738699e-08,4.707631824364872e-05,1.6278712360666613e-07
1720.0,1760.0,3.537184264231533e-05,1.033348132470303e-07,9.68089375025418e-06,2.9472068561123735e-08,4.780825704112651e-05,1.6671227680524957e-07
1760.0,1800.0,3.5401017328174826e-05,1.0435922399978163e-07,1.042410435977775e-05,3.0607672350519075e-08,4.896625289930104e-05,1.7125453635332126e-07
1800.0,1840.0,3.573983177537888e-05,1.0645689205166864e-07,1.1235859685105931e-05,3.184149914153005e-08,4.9610404857018855e-05,1.754905733436629e-07
1840.0,1880.0,3.604748613775232e-05,1.0794229217780729e-07,1.1967569936658891e-05,3.2962096156968796e-08,5.103720666421266e-05,1.8060453718636917e-07
1880.0,1920.0,3.6190845209781617e-05,1.0964229433782393e-07,1.280935952001953e-05,3.4216154507832485e-08,5.174693943274343e-05,1.8496720292859257e-07
1920.0,1960.0,3.639504627619324e-05,1.1124130694828213e-07,1.3664499860964112e-05,3.545600348645012e-08,5.3104895058407984e-05,1.902902368931561e-07
1960.0,2000.0,3.6491382406832904e-05,1.1270119111795103e-07,1.449897846533078e-05,3.6680206730959146e-08,5.3764735444643765e-05,1.9256042586092122e-07
2000.0,2040.0,3.671981639003788e-05,1.1434696747498405e-07,1.5451413940410288e-05,3.8042058877179064e-08,5.5597324735823e-05,2.000744606394202e-07
2040.0,2080.0,3.695539279613257e-05,1.162655038396173e-07,1.626574982413065e-05,3.9197234216863945e-08,5.665609810506277e-05,2.0445162361057453e-07
2080.0,2120.0,3.718460579770329e-05,1.176535607743245e-07,1.7161350841020133e-05,4.0459954316027806e-08,5.807088780422885e-05,2.1029757892787046e-07
2120.0,2160.0,3.773550913094673e-05,1.2017753055503866e-07,1.8148991831963212e-05,4.1810356615795013e-08,5.929688414849466e-05,2.144182975935624e-07
2160.0,2200.0,3.811237348077644e-05,1.223076560096077e-07,1.9178805305647496e-05,4.3202417789133047e-08,6.046504914583687e-05,2.193121385050294e-07
2200.0,2240.0,3.84795428350782e-05,1.244454267314584e-07,2.023337622422993e-05,4.4617209541921395e-08,6.233173961604565e-05,2.260512042080742e-07
2240.0,2280.0,3.89649646515511e-05,1.2673947439506716e-07,2.1362635030935636e-05,4.6074474232005664e-08,6.349619423007194e-05,2.3086968665374937e-07
2280.0,2320.0,3.9223543141879265e-05,1.2824856753105066e-07,2.2547543987955104e-05,4.7591968624324484e-08,6.509300806056088e-05,2.3578514050120453e-07
2320.0,2360.0,3.978097603029499e-05,1.3117125998027466e-07,2.3702835847217545e-05,4.904834722941242e-08,6.687912759886418e-05,2.415925761703887e-07
2360.0,2400.0,4.039092844398576e-05,1.3345289851577964e-07,2.5048473120710965e-05,5.0722811179580474e-08,6.895300361890195e-05,2.4995005180732776e-07
2400.0,2440.0,4.096704185605942e-05,1.359088281652276e-07,2.6490939872998553e-05,5.247222559269236e-08,7.068253459194951e-05,2.5560320977831293e-07
2440.0,2480.0,4.184539562413347e-05,1.3902143155557832e-07,2.7774265800018008e-05,5.4024622572744595e-08,7.271720236574714e-05,2.6149051909479593e-07
2480.0,2520.0,4.247286286218695e-05,1.4160492649522766e-07,2.937001940968267e-05,5.585675164453846e-08,7.489340738989023e-05,2.687331072493899e-07
2520.0,2560.0,4.27061077779484e-05,1.4381325976882653e-07,3.0942992437532893e-05,5.7682051091401935e-08,7.775980829757197e-05,2.768109108763703e-07
2560.0,2600.0,4.4061723169588446e-05,1.4785868924465897e-07,3.2524821556845255e-05,5.949633968484619e-08,7.957642084361313e-05,2.829679924567166e-07
2600.0,2640.0,4.443252817225679e-05,1.500169282189417e-07,3.4406865374221035e-05,6.157363470596947e-08,8.284368973540203e-05,2.923259292623736e-07
2640.0,2680.0,4.579369725590579e-05,1.5451387088931628e-07,3.635846126576421e-05,6.371326904156108e-08,8.499988677983761e-05,2.996210553456089e-07
2680.0,2720.0,4.649372766312797e-05,1.5745465124311294e-07,3.836464987399314e-05,6.585684518398463e-08,8.865793183494056e-05,3.08923132365911e-07
2720.0,2760.0,4.7280487304596355e-05,1.604155913328449e-07,4.067107912342644e-05,6.827774783039553e-08,9.11726332399477e-05,3.170352461747217e-07
2760.0,2800.0,4.8854581492734034e-05,1.649831325099412e-07,4.311338150880768e-05,7.078030221692135e-08,9.5893032306682e-05,3.289660428598935e-07
2800.0,2840.0,5.021556535187286e-05,1.695351720879781e-07,4.5504529395817904e-05,7.318117264626962e-08,9.903620994755892e-05,3.374992625644955e-07
2840.0,2880.0,5.159619484641691e-05,1.734156033886672e-07,4.8687539753342346e-05,7.629734479229903e-08,0.000102619164371,3.473396750841483e-07
2880.0,2920.0,5.284991718958731e-05,1.7767406178361248e-07,5.1821432693724e-05,7.928165602562058e-08,0.0001067966734877,3.57656006965506e-07
2920.0,2960.0,5.474785658634713e-05,1.8339462951857177e-07,5.501520854153552e-05,8.22993324257965e-08,0.0001121183080275,3.7156865141646626e-07
2960.0,3000.0,5.653405369243594e-05,1.884830982354922e-07,5.891949820394054e-05,8.582816095246073e-08,0.000117091364883,3.8367755449150826e-07
3000.0,3040.0,5.847587892678896e-05,1.941734209304389e-07,6.301159570132842e-05,8.945678146562325e-08,0.0001228657102774,3.974594533683925e-07
3040.0,3080.0,6.05231879583804e-05,2.0041919926512557e-07,6.728844550957744e-05,9.319890168897244e-08,0.0001283480692296,4.124812824595748e-07
3080.0,3120.0,6.284906810451088e-05,2.063741239529008e-07,7.240671361266912e-05,9.745139345487047e-08,0.0001359264634581,4.2860749360727946e-07
3120.0,3160.0,6.523942248904226e-05,2.128961386172228e-07,7.773084102254645e-05,1.0181702375320055e-07,0.0001416991793185,4.418724159178356e-07
3160.0,3200.0,6.842962575382348e-05,2.2079940206462257e-07,8.367439667740799e-05,1.0659327708729985e-07,0.0001494896565722,4.600151096104716e-07
3200.0,3240.0,7.089844177690467e-05,2.2783301681980997e-07,8.992271630219217e-05,1.1148945196129569e-07,0.0001574063637364,4.76919060202496e-07
3240.0,3280.0,7.4132221545051e-05,2.3605938341077365e-07,9.713291851232996e-05,1.1696340343256025e-07,0.000164856616843,4.940291049183625e-07
3280.0,3320.0,7.681738270954013e-05,2.435742360455889e-07,0.0001051202650469,1.2282813193771933e-07,0.0001735325028165,5.137977088528018e-07
3320.0,3360.0,8.078287794163636e-05,2.52785489037723e-07,0.0001139463036241,1.2916271266644694e-07,0.0001830325844504,5.325456651507499e-07
3360.0,3400.0,8.460886755595248e-05,2.621974532920906e-07,0.000123830338059,1.360112321810017e-07,0.0001937757696541,5.545997511532598e-07
3400.0,3440.0,8.861776777750863e-05,2.7157059794323316e-07,0.0001350215143095,1.4348444958510474e-07,0.0002039193275696,5.752427350849179e-07
3440.0,3480.0,9.30019150173598e-05,2.8234960869372924e-07,0.0001476521910073,1.5164398881380457e-07,0.0002137249810166,5.955121062590081e-07
3480.0,3520.0,9.690514326936932e-05,2.91925339750399e-07,0.0001617935895586,1.606009425510101e-07,0.0002229908197386,6.163664576412049e-07
3520.0,3560.0,9.945719441034087e-05,2.993161442228143e-07,0.0001765362817797,1.6981988187302859e-07,0.0002241739006321,6.258489612532851e-07
3560.0,3600.0,4.111719233485059e-05,1.94158610158683e-07,8.097136405675904e-05,1.1659374616770877e-07,8.822185284897942e-05,3.967520753759806e-07
3600.0,3640.0,0.0,0.0,0.0,0.0,0.0,0.0
3640.0,3680.0,0.0,0.0,0.0,0.0,0.0,0.0
3680.0,3720.0,0.0,0.0,0.0,0.0,0.0,0.0
3720.0,3760.0,0.0,0.0,0.0,0.0,0.0,0.0
3760.0,3800.0,0.0,0.0,0.0,0.0,0.0,0.0
3800.0,3840.0,0.0,0.0,0.0,0.0,0.0,0.0
3840.0,3880.0,0.0,0.0,0.0,0.0,0.0,0.0
3880.0,3920.0,0.0,0.0,0.0,0.0,0.0,0.0
3920.0,3960.0,0.0,0.0,0.0,0.0,0.0,0.0
3960.0,4000.0,0.0,0.0,0.0,0.0,0.0,0.0
4000.0,4040.0,0.0,0.0,0.0,0.0,0.0,0.0
4040.0,4080.0,0.0,0.0,0.0,0.0,0.0,0.0
