xl,xh,LO,dLO,NLOnovp,dNLOnovp,NLO,dNLO
0.0,0.03,0.24791323958343195,2.304627689119947e-05,0.2454470510246384,0.0002502241697906622,0.2606894097514676,0.0001717815714904449
0.03,0.06000000000000001,0.2482849231974883,2.3078883551660595e-05,0.2453628808394337,0.00025000654961861656,0.2613442282050248,0.0001791603857139345
0.06000000000000001,0.09000000000000001,0.2490259423940561,2.314462085291476e-05,0.246218541533316,0.00025250240706401806,0.2620758092780143,0.00019184603501149475
0.09000000000000001,0.12,0.25007927330199364,2.323813743862229e-05,0.2476883129510276,0.0002637507843035375,0.26288726399718565,0.00017594922243659552
0.12,0.15000000000000002,0.25149281740676377,2.336499292268163e-05,0.2484421604692332,0.0002709230173743865,0.26446229873690524,0.00019763623994120238
0.15000000000000002,0.18000000000000002,0.25330334848060976,2.352488426250303e-05,0.2507264317172587,0.0002791993848817173,0.26599375721626073,0.00017834434615050088
0.18000000000000002,0.21,0.2553925073294824,2.371201648592874e-05,0.2524289709570697,0.0002922445658345449,0.26817276236279564,0.000181777922842251
0.21,0.24,0.2579585286281865,2.3937981002914652e-05,0.2542072168471021,0.00030569726177336065,0.2706695360616908,0.00018977310064510983
0.24,0.27,0.2607835105147654,2.4191534336358803e-05,0.2569579066099292,0.00032166403786347634,0.27388040453911816,0.00018579019971732172
0.27,0.30000000000000004,0.2640316268598938,2.4477612035122008e-05,0.2609047613223681,0.00033569845736801087,0.27688869399242505,0.00019209604678021872
0.30000000000000004,0.33,0.2676150120046015,2.479628561506564e-05,0.2634253051257453,0.00035700522773627046,0.2804891900250681,0.0001964285569375044
0.33,0.36000000000000004,0.2715419630972977,2.514412864233895e-05,0.2678641204111459,0.00037966493642907034,0.2844940455326008,0.00020781502315461245
0.36000000000000004,0.39,0.2758194793701565,2.552372581546485e-05,0.2717044795656397,0.00040637888642905363,0.2889165673680329,0.00020553004242272494
0.39,0.42,0.280435513489502,2.5935470486563196e-05,0.2755792561640245,0.00042518496254257847,0.2936636390988817,0.0002273377460789233
0.42,0.45,0.285366154063602,2.637531568439028e-05,0.2810455225928238,0.0004454355320944002,0.2989213661986855,0.0002173413173728911
0.45,0.48,0.2907412326175654,2.685368864192602e-05,0.28654091693984074,0.000470176182338077,0.3043207268387317,0.0002127270967335069
0.48,0.51,0.29626895271533704,2.735144444268048e-05,0.2910968151040397,0.0005099674099868746,0.30963410318212425,0.0002166996182450761
0.51,0.54,0.3020812065226189,2.7880083243490545e-05,0.29688636966462484,0.000554851326305684,0.3156522831533556,0.00022369041367965
0.54,0.5700000000000001,0.30809995419887953,2.8434727357205054e-05,0.3020914923956971,0.000592462496389823,0.3215256632290158,0.00024256934739156835
0.5700000000000001,0.6000000000000001,0.31423047065639226,2.901502602839917e-05,0.30681794393433337,0.0006528436331144158,0.3279378947057132,0.0002490116304644254
0.6000000000000001,0.63,0.32021871159919324,2.9609561038075054e-05,0.3134111712529222,0.0006783688273473363,0.33403737436783765,0.0002423742383643322
0.63,0.66,0.3259651735069514,3.021482820118664e-05,0.3196656821658251,0.0007177055135784457,0.3392367727617072,0.00024127065471051781
0.66,0.6900000000000001,0.330920397636439,3.081222936830885e-05,0.3244346068067138,0.0007676686186346257,0.3450527671503462,0.0002640051097939326
0.6900000000000001,0.7200000000000001,0.33462087088914977,3.139907614750238e-05,0.32738818430800115,0.0008478881657850727,0.3489272066492688,0.00029144831691485534
0.7200000000000001,0.7500000000000001,0.3359445413106976,3.1936443880447413e-05,0.3296263696831897,0.000884814239424159,0.3498901188417977,0.00029182652607415784
0.7500000000000001,0.78,0.3331558551850053,3.237804682738606e-05,0.3267355982447505,0.0009557613860990996,0.3475362662939712,0.0003133670381730614
0.78,0.81,0.32518172368996423,3.2673461723435714e-05,0.3211659862876596,0.0009842213178293292,0.34081833167445896,0.00028904335173695803
0.81,0.8400000000000001,0.3143170359640308,3.273394801140774e-05,0.3125055749087373,0.0010328103895613447,0.33175561811688314,0.0002917106847716709
0.8400000000000001,0.8700000000000001,0.3065299994438988,3.259719520286665e-05,0.30724336386886664,0.0010515699814351164,0.3248999453735736,0.00030125170091896116
0.8700000000000001,0.9,0.30094491913226384,3.252986932215285e-05,0.2966863032451041,0.0011687057259985446,0.3165863537407828,0.0004010407604252129
0.9,0.93,0.2756279729455509,3.227523559477016e-05,0.2719174210749688,0.0012333746074369442,0.2898627716930769,0.0003738243951407698
