xl,xh,LO,dLO,NLOnovp,dNLOnovp,NLO,dNLO
316.0,326.1,0.00033225838720209714,7.270636790428407e-08,0.00025773580556659453,2.9889807942124714e-07,0.0002622460932161304,3.0371296901342567e-07
326.1,336.2,0.00033079721060861835,7.314868187575872e-08,0.0002557145883692688,2.953419999684509e-07,0.00026031395572512743,3.002682727535357e-07
336.2,346.3,0.0003233204642703625,7.286415380508128e-08,0.00024939177313481074,2.897081150829636e-07,0.0002539455311538397,2.9463397353768704e-07
346.3,356.4,0.0003172089670129317,7.266888048911965e-08,0.00024409670302712782,2.843285658358225e-07,0.000248593550637163,2.892863222720832e-07
356.4,366.5,0.00031247954683541945,7.258540173680481e-08,0.0002398291112732769,2.7958894919399646e-07,0.0002443194818210357,2.846045318952116e-07
366.5,376.6,0.000308997587935716,7.258108610282202e-08,0.00023715331697503727,2.7639326458005746e-07,0.00024168374347072733,2.8146830947156765e-07
376.6,386.7,0.00030531270888506525,7.245464515937043e-08,0.0002333002000549775,2.7172083990049833e-07,0.00023776659369707418,2.767549341525637e-07
386.7,396.8,0.00030171490407671125,7.223603538133959e-08,0.00023028945970932603,2.6848803302889627e-07,0.0002348614261883977,2.737686737714105e-07
396.8,406.9,0.0002992559129907203,7.208490172508518e-08,0.00022813517502851078,2.656481589116978e-07,0.00023267197768826904,2.708620977055097e-07
406.9,417.0,0.0002985232856810462,7.211879516685238e-08,0.0002276554479901,2.641870892144249e-07,0.00023216180121338453,2.694383926276746e-07
417.0,427.1,0.00030018980292791336,7.247035103263402e-08,0.0002281498249490061,2.6258604225236464e-07,0.0002328556896149418,2.6810869830053404e-07
427.1,437.2,0.00030408678731680964,7.312038250259877e-08,0.00023080146140741056,2.6259473909830454e-07,0.0002356650646333149,2.6828996944790374e-07
437.2,447.3,0.000309679727203879,7.398809277298124e-08,0.00023483076608236684,2.6341649128093853e-07,0.00023981969448833774,2.692679490286118e-07
447.3,457.4,0.00031720391249976624,7.509369742909761e-08,0.00024040389202001743,2.652182997621192e-07,0.00024560576065603044,2.7121977502569606e-07
457.4,467.5,0.00032620411420511604,7.636954176490135e-08,0.000247052038455372,2.675333727532675e-07,0.0002522647089256564,2.7343140803714627e-07
467.5,477.6,0.00033699619005838824,7.785224584085537e-08,0.00025461657617465225,2.6983595259989273e-07,0.0002602783737460761,2.762944025679571e-07
477.6,487.7,0.00034971914382145254,7.954709920147886e-08,0.0002641663007229145,2.7364175985919685e-07,0.0002701234476994191,2.8034603709247325e-07
487.7,497.8,0.00036444955530220887,8.145674662523253e-08,0.0002744029869027583,2.769765930510687e-07,0.0002805809879252879,2.8381340887836213e-07
497.8,507.9,0.00038172444996871643,8.363157321047967e-08,0.00028756020403103563,2.8264929340737254e-07,0.0002942135329764944,2.899705274994824e-07
507.9,518.0,0.00040151185707400173,8.604597237058497e-08,0.00030246423838915576,2.887339698046766e-07,0.00030946793833666435,2.9621289398091396e-07
518.0,528.1,0.00042398522790226313,8.870448988543888e-08,0.00031816388777092264,2.9376788709498074e-07,0.00032565244944025585,3.0165997539340205e-07
528.1,538.2,0.00045010031368430183,9.168851847038333e-08,0.0003381312563432716,3.0204600330551556e-07,0.00034613660436396803,3.102754917887627e-07
538.2,548.3,0.0004799530944664915,9.4961575102423e-08,0.00036003044868993856,3.103364360126463e-07,0.0003686772956451959,3.190162326670821e-07
548.3,558.4,0.0005143930073683397,9.857906393245788e-08,0.0003853215973007871,3.193397326738275e-07,0.000394828233765764,3.2871149766786103e-07
558.4,568.5,0.0005549331736309245,1.0262265609771212e-07,0.00041564025275582636,3.3031411967259086e-07,0.00042598693145041744,3.402077302535248e-07
568.5,578.5999999999998,0.0006042835077308963,1.0724173361548778e-07,0.00045202348508916975,3.4251327754414105e-07,0.0004635554883198419,3.532271991045507e-07
578.5999999999998,588.7,0.0006655872970731105,1.1256525339834261e-07,0.0004971411079055685,3.5744915256908444e-07,0.0005099859120593094,3.689246718245077e-07
588.7,598.8,0.0007369431929879041,1.182466078457625e-07,0.0005502306629805356,3.7432114517825507e-07,0.0005646493259713788,3.866278494105126e-07
598.8,608.9,0.0008179381549647327,1.239536264608559e-07,0.0006101990300624097,3.9094282984211785e-07,0.0006269054162217398,4.04471211936795e-07
608.9,619.0,0.0008984216855034453,1.2915380454379086e-07,0.0006692987591291789,4.053294496521772e-07,0.000688148154247647,4.196701259177551e-07
619.0,629.0999999999998,0.000962185126841617,1.3359827235746374e-07,0.0007148382879972227,4.158466444123978e-07,0.0007354889180648122,4.310722897796341e-07
629.0999999999998,639.2,0.0010165116394765074,1.3762776521137912e-07,0.0007541400326903364,4.2533413466389646e-07,0.0007759145413463362,4.409099396522872e-07
639.2,649.3,0.0010626191936857778,1.4139422776463615e-07,0.0007858002314998058,4.32445177407671e-07,0.0008085800143136326,4.4839947199539564e-07
649.3,659.4,0.0011055878533893868,1.4520531493601223e-07,0.0008158241211350247,4.40553413383358e-07,0.0008397343457884751,4.570587460642865e-07
659.4,669.5,0.0011518955824720671,1.4926092126440346e-07,0.0008476084642273969,4.48856849976182e-07,0.0008726239191991159,4.6587461520211285e-07
669.5,679.5999999999998,0.0012014449100525633,1.535332127089161e-07,0.0008821826846844973,4.5717898081753426e-07,0.0009080456662070377,4.7440204725253755e-07
679.5999999999998,689.7,0.0012549770999856404,1.5807957926232407e-07,0.0009202143918618448,4.674285799725253e-07,0.0009477614234266523,4.855499646396953e-07
689.7,699.8,0.0013132805805311208,1.6293605992553395e-07,0.0009594284398921908,4.7673345637002364e-07,0.000988501238039552,4.953641482793289e-07
699.8,709.9,0.0013760601069067989,1.680779808438473e-07,0.00100338057606326,4.882133959033095e-07,0.0010345906410580287,5.077836719919026e-07
709.9,720.0,0.0014436294292305757,1.735038746623775e-07,0.0010512269615474106,4.998848514656143e-07,0.001084853365451961,5.204148521036158e-07
720.0,730.0999999999997,0.001517866388078298,1.793393231799962e-07,0.0011031943443237306,5.126185414047411e-07,0.00114042834144341,5.347090440822018e-07
730.0999999999997,740.2,0.0015982818582207165,1.8553465310326828e-07,0.0011596797388810265,5.263231257625657e-07,0.0012007099550520545,5.499946995719954e-07
740.2,750.3,0.001685882051854369,1.9212923909042803e-07,0.0012199604214485744,5.402380860545489e-07,0.0012661061541107824,5.659560503481333e-07
750.3,760.4,0.0017814422110645851,1.991701262449262e-07,0.001286390595362222,5.553706051630151e-07,0.0013378259297784243,5.830878150261924e-07
760.4,770.5,0.0018864922786103874,2.0670491674525732e-07,0.001360106386784338,5.723111065391699e-07,0.0014160446248843866,6.015520620490437e-07
770.5,780.5999999999997,0.002001679956180866,2.1476505909669575e-07,0.0014391977942665795,5.891681732568836e-07,0.0014976378433880608,6.189625840232874e-07
780.5999999999997,790.7,0.002128712578643543,2.2341846776049895e-07,0.001527391000550453,6.079054927598572e-07,0.0016321479986034632,6.562892212679851e-07
790.7,800.8,0.002268423872985402,2.3268042389748029e-07,0.0016246212891075846,6.280249955668717e-07,0.0017350148431142342,6.778219593010427e-07
800.8,810.9,0.0024237610180451977,2.426867151512161e-07,0.0017325923557305776,6.504068159075486e-07,0.0018452366786228238,6.999969505007965e-07
810.9,821.0,0.0025968190028964077,2.534688643565899e-07,0.001852400816843395,6.7398920984079e-07,0.0019709899495762976,7.247313667789337e-07
821.0,831.1,0.0027901466989130328,2.651574125805286e-07,0.001986962892569006,6.998964476108522e-07,0.0021133250740510037,7.522575927077218e-07
831.1,841.1999999999997,0.003007505051982051,2.7782545340266005e-07,0.0021370072924233358,7.27681539558105e-07,0.002272610742812619,7.82098180006133e-07
841.1999999999997,851.3,0.0032522233838092928,2.916053400610537e-07,0.0023081934028154906,7.586056151046731e-07,0.0024538782088269783,8.152878407855415e-07
851.3,861.4,0.0035306527976724186,3.06685820875185e-07,0.002501199882201697,7.924653739181915e-07,0.002658192493587118,8.514533664774509e-07
861.4,871.5,0.003849802398996822,3.232700139733486e-07,0.002722640234513751,8.292805490289168e-07,0.002892732246449894,8.907889642995104e-07
871.5,881.6,0.00421655454692275,3.415322247399817e-07,0.0029786335586220675,8.706403091063423e-07,0.0031634004359791875,9.348415051871151e-07
881.6,891.6999999999997,0.0046428431797843495,3.6179991689139845e-07,0.003273914167681581,9.158818359742857e-07,0.0034763837275151067,9.834084719430686e-07
891.6999999999997,901.8,0.005143941092346411,3.84483892220961e-07,0.003622974393463292,9.668145775933149e-07,0.0038456953828897283,1.0378673178886896e-06
901.8,911.9,0.005740446550890396,4.100906301784307e-07,0.004036885281972318,1.0240613125626295e-06,0.004283982415554774,1.0991928732093962e-06
911.9,922.0,0.00642769542176726,4.3813640540806015e-07,0.0045173878147412964,1.0877576733080249e-06,0.004792475464688631,1.1674025035675221e-06
