xl,xh,LO,dLO,NLOnovp,dNLOnovp,NLO,dNLO
316.0,326.1,0.00033225838720209714,7.270636790428407e-08,0.00032861187346308764,2.997030749689721e-07,0.0003342483771299123,3.045327268964755e-07
326.1,336.2,0.00033079721060861835,7.314868187575872e-08,0.00032762881077742637,2.9620661920754964e-07,0.0003333828016942061,3.011493832791184e-07
336.2,346.3,0.0003233204642703625,7.286415380508128e-08,0.00032107486055628977,2.906249797892611e-07,0.0003267952791222437,2.9556840675212146e-07
346.3,356.4,0.0003172089670129317,7.266888048911965e-08,0.00031585238608438385,2.8530224648422014e-07,0.0003215130806807493,2.902781332409585e-07
356.4,366.5,0.00031247954683541945,7.258540173680481e-08,0.00031194065115372715,2.8062000231217107e-07,0.00031762817260164237,2.8565550002000825e-07
366.5,376.6,0.000308997587935716,7.258108610282202e-08,0.0003099158794248342,2.7747945111340584e-07,0.00031565223921864856,2.825749706866982e-07
376.6,386.7,0.00030531270888506525,7.245464515937043e-08,0.0003069404707713656,2.7286969093815397e-07,0.0003126437878080288,2.779256550797144e-07
386.7,396.8,0.00030171490407671125,7.223603538133959e-08,0.00030529806977777434,2.6970362303350164e-07,0.0003111311415710488,2.7500649420115927e-07
396.8,406.9,0.0002992559129907203,7.208490172508518e-08,0.00030517075016799576,2.6694173817919425e-07,0.0003110081584727291,2.7217978202208675e-07
406.9,417.0,0.0002985232856810462,7.211879516685238e-08,0.00030753229586903523,2.6557156295984235e-07,0.00031340426822558414,2.708488850216958e-07
417.0,427.1,0.00030018980292791336,7.247035103263402e-08,0.00031168904893193075,2.640855422564867e-07,0.0003178167375599605,2.696351522654068e-07
427.1,437.2,0.00030408678731680964,7.312038250259877e-08,0.00031890831709276303,2.6422347164751837e-07,0.00032528155188316424,2.699475014183489e-07
437.2,447.3,0.000309679727203879,7.398809277298124e-08,0.00032847494536843825,2.651974676324229e-07,0.000335076890039999,2.710797147863281e-07
447.3,457.4,0.00031720391249976624,7.509369742909761e-08,0.0003405553529848676,2.6717182662051954e-07,0.0003474730136233378,2.7320650158571657e-07
457.4,467.5,0.00032620411420511604,7.636954176490135e-08,0.00035499129031712156,2.696881109027081e-07,0.000362057330096779,2.756249527242713e-07
467.5,477.6,0.00033699619005838824,7.785224584085537e-08,0.00037170829842487184,2.722333514642879e-07,0.00037939550799943,2.787311003339743e-07
477.6,487.7,0.00034971914382145254,7.954709920147886e-08,0.00039221057793523953,2.763166959198456e-07,0.00040034168291104176,2.830622251122692e-07
487.7,497.8,0.00036444955530220887,8.145674662523253e-08,0.00041558952282044103,2.8000287098929356e-07,0.00042414849542789695,2.8688636674707236e-07
497.8,507.9,0.00038172444996871643,8.363157321047967e-08,0.0004439914569774923,2.860573212726818e-07,0.0004532755324185964,2.934270086758918e-07
507.9,518.0,0.00040151185707400173,8.604597237058497e-08,0.0004757073079306653,2.925713911079619e-07,0.0004856225719020888,3.0010617161506507e-07
518.0,528.1,0.00042398522790226313,8.870448988543888e-08,0.0005093098694247688,2.980913538078765e-07,0.0005199787074120669,3.060410849726931e-07
528.1,538.2,0.00045010031368430183,9.168851847038333e-08,0.0005485514900243836,3.0686890637018426e-07,0.0005601103512449232,3.151655726169513e-07
538.2,548.3,0.0004799530944664915,9.4961575102423e-08,0.0005913395547290321,3.157110485151975e-07,0.0006038426037297199,3.2446107645418443e-07
548.3,558.4,0.0005143930073683397,9.857906393245788e-08,0.0006388229491913847,3.253157529368314e-07,0.000652593918968832,3.347608326302229e-07
558.4,568.5,0.0005549331736309245,1.0262265609771212e-07,0.0006931605672990713,3.3692663002048644e-07,0.0007081813840888532,3.4690170196912565e-07
568.5,578.5999999999998,0.0006042835077308963,1.0724173361548778e-07,0.0007555073364002334,3.4981568172330245e-07,0.0007721316092751762,3.606123744186039e-07
578.5999999999998,588.7,0.0006655872970731105,1.1256525339834261e-07,0.0008277816170041058,3.6543846637817296e-07,0.000846180294764881,3.770006346306391e-07
588.7,598.8,0.0007369431929879041,1.182466078457625e-07,0.0009092013895236043,3.830200543930428e-07,0.0009296060997021741,3.9541798233042714e-07
598.8,608.9,0.0008179381549647327,1.239536264608559e-07,0.0009971878188413646,4.003401954895269e-07,0.001020279931027315,4.1395271649525336e-07
608.9,619.0,0.0008984216855034453,1.2915380454379086e-07,0.001082069666780241,4.1543452799636784e-07,0.0011076834158180984,4.2986111771379873e-07
619.0,629.0999999999998,0.000962185126841617,1.3359827235746374e-07,0.0011508418151565027,4.266640010948349e-07,0.0011785502271624314,4.4196787389714383e-07
629.0999999999998,639.2,0.0010165116394765074,1.3762776521137912e-07,0.0012124642188293055,4.3687195587357405e-07,0.001241525825456332,4.525299216741991e-07
639.2,649.3,0.0010626191936857778,1.4139422776463615e-07,0.0012661699481114654,4.4477216602595584e-07,0.0012965836263648394,4.608122884818225e-07
649.3,659.4,0.0011055878533893868,1.4520531493601223e-07,0.0013189988860398346,4.536988326654364e-07,0.0013508235082039218,4.7029132827001326e-07
659.4,669.5,0.0011518955824720671,1.4926092126440346e-07,0.0013748627242378445,4.6285456020852936e-07,0.001408195997239088,4.799665049282003e-07
669.5,679.5999999999998,0.0012014449100525633,1.535332127089161e-07,0.0014347481197097287,4.72113306322923e-07,0.0014693850583514794,4.894494635578472e-07
679.5999999999998,689.7,0.0012549770999856404,1.5807957926232407e-07,0.0014995522201359088,4.833085400754286e-07,0.0015365244587896448,5.015533866588559e-07
689.7,699.8,0.0013132805805311208,1.6293605992553395e-07,0.001566941923215242,4.936406023156164e-07,0.0016060638222848013,5.12412716378073e-07
699.8,709.9,0.0013760601069067989,1.680779808438473e-07,0.0016407397030871438,5.061612260607822e-07,0.0016830901776982935,5.259027051708951e-07
709.9,720.0,0.0014436294292305757,1.735038746623775e-07,0.0017207783765941641,5.18982338507619e-07,0.0017668726179235871,5.39721172128334e-07
720.0,730.0999999999997,0.001517866388078298,1.793393231799962e-07,0.0018063462367856168,5.328993264404302e-07,0.0018577852446002266,5.552417207077582e-07
730.0999999999997,740.2,0.0015982818582207165,1.8553465310326828e-07,0.001898625490364059,5.478188908403432e-07,0.001956067155073524,5.718046848116757e-07
740.2,750.3,0.001685882051854369,1.9212923909042803e-07,0.0019968733916721697,5.630490356029589e-07,0.002062105305596806,5.891409888068036e-07
750.3,760.4,0.0017814422110645851,1.991701262449262e-07,0.0021043955816004425,5.795799343698317e-07,0.0021781014195172595,6.077677701867052e-07
760.4,770.5,0.0018864922786103874,2.0670491674525732e-07,0.0022218471985881484,5.979841556807031e-07,0.0023025532859225336,6.27780267315797e-07
770.5,780.5999999999997,0.002001679956180866,2.1476505909669575e-07,0.0023471897416606807,6.163722425629719e-07,0.002430880614305273,6.46777190943544e-07
780.5999999999997,790.7,0.002128712578643543,2.2341846776049895e-07,0.0024852369212122346,6.367091442076844e-07,0.0026379979421935857,6.859768593555286e-07
790.7,800.8,0.002268423872985402,2.3268042389748029e-07,0.0026364302834853714,6.58578404830045e-07,0.002796230085481316,7.092443404094028e-07
800.8,810.9,0.0024237610180451977,2.426867151512161e-07,0.0028023165684804155,6.827086892820324e-07,0.002963878954425504,7.33154785311523e-07
810.9,821.0,0.0025968190028964077,2.534688643565899e-07,0.0029849222773232703,7.081788560957689e-07,0.0031536356121759546,7.59774555062981e-07
821.0,831.1,0.0027901466989130328,2.651574125805286e-07,0.003187124406470982,7.360332793182771e-07,0.003365496804149018,7.8927301253133e-07
831.1,841.1999999999997,0.003007505051982051,2.7782545340266005e-07,0.003410788403689796,7.659035864072778e-07,0.0036001271577387173,8.21183215795708e-07
841.1999999999997,851.3,0.0032522233838092928,2.916053400610537e-07,0.003662063383868161,7.989660894672972e-07,0.003863482283914807,8.565044517383601e-07
851.3,861.4,0.0035306527976724186,3.06685820875185e-07,0.00394196502734617,8.350209086417308e-07,0.004156626653970072,8.948404282263023e-07
861.4,871.5,0.003849802398996822,3.232700139733486e-07,0.0042578068598587105,8.741380502515171e-07,0.004487526539563185,9.364623924693908e-07
871.5,881.6,0.00421655454692275,3.415322247399817e-07,0.00461828604006466,9.17910745691437e-07,0.0048647894679669295,9.829003373362744e-07
881.6,891.6999999999997,0.0046428431797843495,3.6179991689139845e-07,0.005028197079691832,9.656585636095758e-07,0.005294661415313986,1.0339297821071077e-06
891.6999999999997,901.8,0.005143941092346411,3.84483892220961e-07,0.0055036131814075965,1.0191303033414079e-06,0.005792406432005247,1.0908741902158149e-06
901.8,911.9,0.005740446550890396,4.100906301784307e-07,0.00605601953583547,1.0788940042033053e-06,0.006371505997275704,1.1546556051894763e-06
911.9,922.0,0.00642769542176726,4.3813640540806015e-07,0.0066780140022797176,1.1448844461264205e-06,0.007023131189801368,1.2250757906285349e-06
