xl,xh,LO,dLO,NLOnovp,dNLOnovp,NLO,dNLO
140.0,145.0,9.536789211547503e-06,1.854253937629714e-08,1.0063928860937896e-05,6.105880181663666e-08,1.028416154277542e-05,6.244295446550479e-08
145.0,150.0,2.8865664665189104e-05,3.2365903596028874e-08,3.065390979202425e-05,1.0653995211947356e-07,3.1378202899128444e-05,1.093855248135256e-07
150.0,155.0,4.8439430742546024e-05,4.20380528809932e-08,5.124994456995861e-05,1.3652395249815204e-07,5.2470226592523205e-05,1.4032713731368582e-07
155.0,160.0,6.821519809806632e-05,5.003480127254857e-08,7.223782620873085e-05,1.6156842148361026e-07,7.407859894327562e-05,1.6669365153816546e-07
160.0,165.0,0.0002465165873629787,8.910330710759063e-08,0.00026230253209791815,3.231336799865505e-07,0.0002690093767200223,3.33407415856394e-07
165.0,170.0,0.00040328264340638723,1.1362471743604329e-07,0.0004290980179281585,4.129366655146289e-07,0.00044014574600664775,4.264372836599953e-07
170.0,175.0,0.0005180878949140431,1.2945667560199704e-07,0.0005515474799363879,4.6640082657509156e-07,0.0005656471886053581,4.814201849937996e-07
175.0,180.0,0.0006196255194381517,1.4251873169888113e-07,0.0006613595710897791,5.099174253009446e-07,0.0006784636994808402,5.265570747928414e-07
180.0,185.0,0.000710562088382287,1.5366895984284493e-07,0.0007590357279144709,5.425641045554728e-07,0.0007782627520024582,5.599460099015815e-07
185.0,190.0,0.0007536188737282874,1.590276883385548e-07,0.0008071443024838387,5.591047834649517e-07,0.0008276584000054678,5.771914481659106e-07
190.0,195.0,0.0007804577631671697,1.6251536105670955e-07,0.0008374891376257442,5.677370555128068e-07,0.0008586223054978193,5.859170755664341e-07
195.0,200.0,0.0008081619645225272,1.6607607860074195e-07,0.0008679140324050736,5.761635998317428e-07,0.0008901273566460344,5.950399276933164e-07
200.0,205.0,0.000836617771514947,1.6967401755479766e-07,0.0009014300118503716,5.860325063566814e-07,0.000924421801701309,6.053326168641011e-07
205.0,210.0,0.0008658752609992826,1.733509651610742e-07,0.0009356419343584687,5.966188104048529e-07,0.0009594732933123224,6.163828609267477e-07
210.0,215.0,0.0008962363362679162,1.7713085099250406e-07,0.0009698440413870084,6.053854504674894e-07,0.0009945537278357626,6.254261351708776e-07
215.0,220.0,0.000927012734471022,1.8091021511065512e-07,0.0010051948010243656,6.146315759580709e-07,0.0010307389871992065,6.350109183494174e-07
220.0,225.0,0.0009593714974829936,1.8484473923451366e-07,0.001042159175840078,6.236393939220233e-07,0.0010687224976826813,6.445250853778747e-07
225.0,230.0,0.0009927960961099284,1.8887878767124894e-07,0.001081580019593791,6.347703710670354e-07,0.0011090587934512034,6.55837570130899e-07
230.0,235.0,0.001027332177113494,1.9299888028822068e-07,0.0011231027630442972,6.461812314339171e-07,0.0011518856592706214,6.681158077083607e-07
235.0,240.0,0.0010634418946045157,1.9725647444387134e-07,0.0011646972481824404,6.55826569355262e-07,0.0011942532801757408,6.77828084947904e-07
240.0,245.0,0.0011005615850770937,2.0160447705627705e-07,0.0012091780739044722,6.66535070090611e-07,0.0012399221751037124,6.889269502120586e-07
245.0,250.0,0.0011399384569545502,2.061468552235256e-07,0.0012558996992065787,6.781548982666307e-07,0.0012884913222414227,7.017951991001588e-07
250.0,255.0,0.0011800924188078332,2.107539624257933e-07,0.0013038870238177356,6.884483538446135e-07,0.0013376948708565554,7.125004560362591e-07
255.0,260.0,0.0012233639296792412,2.1563854251147208e-07,0.0013562978571865696,7.020371346554991e-07,0.0013919822499608597,7.270443543845445e-07
260.0,265.0,0.001267742683339444,2.2059325921265946e-07,0.0014100977232999554,7.122848916852548e-07,0.0014474462378682414,7.377715587969962e-07
265.0,270.0,0.001313891635566635,2.2569759239235558e-07,0.0014686016757378207,7.267167154006623e-07,0.0015077726653764945,7.530130628518421e-07
270.0,275.0,0.0013632727812394575,2.3107781882263213e-07,0.0015319785811125774,7.403265660740658e-07,0.0015737107795586755,7.680202442551959e-07
275.0,280.0,0.0014144898918502615,2.3659881774168964e-07,0.0015987959279360913,7.557874052042462e-07,0.0016423358311622768,7.839339475992477e-07
280.0,285.0,0.0014686423479972216,2.4238112794429397e-07,0.0016664230993228234,7.676516517352678e-07,0.0017122929728169867,7.965676878035529e-07
285.0,290.0,0.0015259310641412855,2.483623742526159e-07,0.001740655644056406,7.839854398352524e-07,0.0017904566210875082,8.148359990546496e-07
290.0,295.0,0.0015856752170232355,2.545610736746015e-07,0.0018173025179707668,7.979678648692343e-07,0.0018720298756663364,8.31235903484501e-07
295.0,300.0,0.0016495972249068356,2.610736034424139e-07,0.001900596629052212,8.155893020924909e-07,0.0019602070056107487,8.50964361989632e-07
300.0,305.0,0.0017162938957746255,2.6778785802792266e-07,0.001987227520760451,8.309759281140842e-07,0.0020519172971624217,8.687075709350792e-07
305.0,310.0,0.0017872609057492585,2.74803244230928e-07,0.00207877247303235,8.490527054850711e-07,0.0021484175609846274,8.886006904497379e-07
310.0,315.0,0.0018622557098686746,2.8210354505554706e-07,0.0021752302481740995,8.681136123878942e-07,0.0022506638967475174,9.101764755881708e-07
315.0,320.0,0.0019432282947265602,2.898489032790336e-07,0.0022746612207866328,8.865501642799807e-07,0.002355623472373923,9.304649210135891e-07
320.0,325.0,0.002028022686760744,2.978439876486109e-07,0.0023771271412641585,9.053349557192724e-07,0.002463984818072011,9.512952924148131e-07
325.0,330.0,0.0021190304555423717,3.0624439682939283e-07,0.0024902999279775963,9.278310688408359e-07,0.002583261956281508,9.756064929558122e-07
330.0,335.0,0.002215741295688815,3.150215595287403e-07,0.00260539205595781,9.487853923128227e-07,0.0027046502372643057,9.982423509094423e-07
335.0,340.0,0.002317265997015725,3.2415736113457487e-07,0.0027253127426776387,9.706033443240546e-07,0.0028316295322956017,1.0222708765943528e-06
340.0,345.0,0.002421820230568705,3.3350965721903377e-07,0.0028497621970492693,9.919195123230376e-07,0.0029631930813825017,1.045717568808103e-06
345.0,350.0,0.0025293217339972637,3.4312077379223237e-07,0.002980327331807647,1.015022884183098e-06,0.0031015111300028674,1.0708278972162584e-06
350.0,355.0,0.002640525518157673,3.5308773074513024e-07,0.003113568640200838,1.0358163531334164e-06,0.003242970488033782,1.0942161537317216e-06
355.0,360.0,0.0027570542382775987,3.6347961483491185e-07,0.003256905098009509,1.0592484683171147e-06,0.003394456065527161,1.119527730999968e-06
360.0,365.0,0.0028859540565905843,3.745930030860271e-07,0.0034125262625776514,1.0846361775380665e-06,0.003559376278609191,1.1477519913295914e-06
365.0,370.0,0.0030272380447735467,3.864349602684083e-07,0.00358025349635514,1.1097724369951984e-06,0.0037365038234408892,1.174892608231217e-06
370.0,375.0,0.0031845868055389924,3.9923304902235813e-07,0.003764359093255793,1.1384227960781937e-06,0.003931416283383614,1.206385154147293e-06
375.0,380.0,0.003358330947839993,4.129042772490383e-07,0.00396808332819394,1.171236273040193e-06,0.004146949456767332,1.2423589938405328e-06
380.0,385.0,0.0035510553365735117,4.2759958421405366e-07,0.004188426424329563,1.2043789129990705e-06,0.004379368645135251,1.2781517122203805e-06
385.0,390.0,0.0037654735983764062,4.4340734353938324e-07,0.004433759571485494,1.2410753918183105e-06,0.004638038317997087,1.3180518169574734e-06
390.0,395.0,0.004006019610922633,4.605814770197135e-07,0.004701429178656928,1.2811860623687149e-06,0.004920308479065587,1.361453842617716e-06
395.0,400.0,0.004274429015703388,4.79056055603257e-07,0.005002433745053198,1.326139005041109e-06,0.005237851658267189,1.4101516290480209e-06
400.0,405.0,0.0045697161659853285,4.990158014270683e-07,0.005329542486571029,1.3712702458248145e-06,0.0055813507890937536,1.4581126449919872e-06
405.0,410.0,0.0042811377717087,4.963728534068266e-07,0.0052700664138511395,1.338928191203741e-06,0.005510901160027261,1.4215225574672175e-06
410.0,415.0,0.003834490692205176,4.7504549383279974e-07,0.0049871892510995565,1.2585035583399712e-06,0.005209442268066479,1.3328407879981328e-06
415.0,420.0,0.0035896021255188404,4.593824980465166e-07,0.0048131346858016144,1.2113963842921196e-06,0.0050258758048490285,1.281382359449617e-06
420.0,425.0,0.003440369979326938,4.4801268742343405e-07,0.004689365316736334,1.1802954920367944e-06,0.004895303301790808,1.247208875195713e-06
425.0,430.0,0.003353767949635481,4.40136059462449e-07,0.004601470201990802,1.1643158391554985e-06,0.004803981577893865,1.2301613608958175e-06
430.0,435.0,0.0033235284665931453,4.36032762133177e-07,0.004549552148639524,1.1578847132395042e-06,0.004749015675201136,1.2227332172811786e-06
435.0,440.0,0.003347335783024633,4.36152741779941e-07,0.0045420370863650935,1.1621776332998979e-06,0.004741920459488647,1.2278525620835371e-06
440.0,445.0,0.0034232869523510394,4.405511885624913e-07,0.004569549507481721,1.1732409608524694e-06,0.0047708265616919114,1.239653598909613e-06
445.0,450.0,0.003546811875989939,4.486636072845033e-07,0.004630743213484517,1.1933446489166015e-06,0.004835762036369238,1.262058653209632e-06
450.0,455.0,0.0037211191781639343,4.6021971517402403e-07,0.0047260645855103905,1.2207838424353473e-06,0.004936323246524209,1.2917387041951484e-06
455.0,460.0,0.00395689616762609,4.7558037631971324e-07,0.004859169650760714,1.2574179211604375e-06,0.0050771992636559566,1.332142212012244e-06
460.0,465.0,0.0042659427791577635,4.947594762520787e-07,0.005046648810083848,1.3094126933175987e-06,0.005275191571884828,1.3884088809219066e-06
465.0,470.0,0.004654132374412344,5.164485877425258e-07,0.0052716101957950325,1.3677248042886246e-06,0.005514257041860585,1.4527585103686187e-06
470.0,475.0,0.005145600834558999,5.399789544193709e-07,0.005553850392528674,1.4455576177133763e-06,0.005814875610007571,1.5382575814002238e-06
475.0,480.0,0.0058087397368963255,5.662683238672e-07,0.005919740069943567,1.5376672676922596e-06,0.006204989048698139,1.6396885536792612e-06
480.0,485.0,0.006773288075762707,5.961652903658244e-07,0.00645744614655694,1.6568797091688113e-06,0.00678028241505441,1.7711450505178982e-06
485.0,490.0,0.008282167526822233,6.276744681907748e-07,0.007236289971237157,1.8074058727181145e-06,0.007620981282964798,1.9379848723284507e-06
490.0,495.0,0.009831697998236343,6.304145060091578e-07,0.0075030446973791826,1.9041971408885673e-06,0.007968679279280891,2.05237886039781e-06
495.0,500.0,0.003498230572311127,3.1899549723511904e-07,0.002141152236937661,1.0114454007372794e-06,0.002306231894027884,1.09442999700224e-06
500.0,505.0,0.0,0.0,0.0,0.0,0.0,0.0
505.0,510.0,0.0,0.0,0.0,0.0,0.0,0.0
510.0,515.0,0.0,0.0,0.0,0.0,0.0,0.0
