xl,xh,LO,dLO,NLOnovp,dNLOnovp,NLO,dNLO
106.0,111.5,6.301129589964957e-06,1.437450605167782e-08,6.674855935583972e-06,4.7641764409500753e-08,6.82103398254477e-06,4.8793002197753546e-08
111.5,117.0,2.7316760827183577e-05,3.006164590705995e-08,2.892673392120221e-05,9.791225153349924e-08,2.9617440436938752e-05,1.0055107304171436e-07
117.0,122.5,4.958234511221253e-05,4.068009849228914e-08,5.255347682238992e-05,1.3214385099036213e-07,5.379371028486605e-05,1.3576012194651467e-07
122.5,128.0,7.236492229280181e-05,4.933803558064809e-08,7.676079841535368e-05,1.5865764491633652e-07,7.874928767717764e-05,1.638980225471233e-07
128.0,133.5,9.607922416537017e-05,5.7090750609646224e-08,0.00010187424185057287,1.8206795198221114e-07,0.000104388071271402,1.8745454354660576e-07
133.5,139.0,0.00012018522662757793,6.410782924186252e-08,0.00012750182459122627,2.0224482464939988e-07,0.00013061134120606247,2.0825355836661547e-07
139.0,144.5,0.0001452635577922751,7.0775706729573e-08,0.00015459603378951102,2.2362396511573376e-07,0.000158420817183925,2.3036615376708856e-07
144.5,150.0,0.00017068636310681564,7.703856109957992e-08,0.0001822992944818044,2.426336214164488e-07,0.0001868143872468488,2.500581011407727e-07
150.0,155.5,0.0001969184487131541,8.308142309800514e-08,0.0002107978982015161,2.5988431194064225e-07,0.00021600621330482582,2.678460778017058e-07
155.5,161.0,0.0003180699069656313,1.0296218058912332e-07,0.000340382357913926,3.3671476173617864e-07,0.0003488913223741832,3.471514772853003e-07
161.0,166.5,0.000772819574709437,1.5454877054243802e-07,0.0008248238570135451,5.360876938808344e-07,0.0008460430556898226,5.536079764007321e-07
166.5,172.0,0.0008074057270225397,1.5886496959121873e-07,0.0008628679076240164,5.461767994134516e-07,0.0008848356892076478,5.638189841136563e-07
172.0,177.5,0.0008428581354435988,1.6323471685252105e-07,0.0009042757623717461,5.586181822071891e-07,0.0009269575129164801,5.76287682550135e-07
177.5,183.0,0.0008796074999472939,1.6771742057608257e-07,0.0009445512162732854,5.685970431238164e-07,0.000968528786932367,5.868828167183258e-07
183.0,188.5,0.000917237125623964,1.722536947983284e-07,0.0009877153236880576,5.794724734391076e-07,0.001012664435286432,5.980858484811096e-07
188.5,194.0,0.0009566273441851172,1.769619305818538e-07,0.0010335606210602377,5.920716727908839e-07,0.0010597473687879607,6.113780316891672e-07
194.0,199.5,0.000997428718760729,1.8177954343259112e-07,0.0010801922158870099,6.029946460590159e-07,0.0011076881425579463,6.229065467033788e-07
199.5,205.0,0.00104020393768557,1.867633296379211e-07,0.0011301263693324533,6.154583222322297e-07,0.0011589296505529027,6.358718944079678e-07
205.0,210.5,0.0010848154370377602,1.9193463981411234e-07,0.0011823327363110006,6.277439810512972e-07,0.0012125003117022654,6.485890976582186e-07
210.5,216.0,0.0011312557083926608,1.9724246129924268e-07,0.0012358462883646064,6.386914791575856e-07,0.0012677189770773087,6.6039515097302e-07
216.0,221.5,0.0011803513901881759,2.0278210739524586e-07,0.0012947096798263634,6.521933323730686e-07,0.0013280966512379815,6.743467743120267e-07
221.5,227.0,0.0012318854441331017,2.085593527611822e-07,0.0013565747812820641,6.655463041278051e-07,0.0013914618342559686,6.880722455027382e-07
227.0,232.5,0.0012860099016371491,2.145502594541932e-07,0.0014231538972499882,6.797039608881994e-07,0.0014602662209335492,7.03016239525855e-07
232.5,238.0,0.001344005165257985,2.208983054087428e-07,0.001491856843928373,6.934386535341977e-07,0.0015319372477179784,7.181903476206367e-07
238.0,243.5,0.0014047699526653801,2.274559206636249e-07,0.0015672977875246755,7.096535872978819e-07,0.0016095837543185967,7.348431500650594e-07
243.5,249.0,0.0014689618986104868,2.3429899380900434e-07,0.0016457894077728506,7.245989432359421e-07,0.001691727246394248,7.515466579374e-07
249.0,254.5,0.0015374077561908061,2.414998973339168e-07,0.0017298399173279915,7.401985007050218e-07,0.0017791444835857228,7.68215234428659e-07
254.5,260.0,0.0016112638950319018,2.4916101952082963e-07,0.001820483125007384,7.59292641336603e-07,0.0018743152325076144,7.89400335026653e-07
260.0,265.5,0.0016894643423076212,2.571561180670398e-07,0.0019152612848501985,7.769666689701391e-07,0.001973325403952666,8.083834400186132e-07
265.5,271.0,0.0017728368924353696,2.6557771448327014e-07,0.0020162636190507264,7.957825702461618e-07,0.002079235065769885,8.289894161549445e-07
271.0,276.5,0.0018605804995903454,2.7435970615557033e-07,0.0021204376277400654,8.135037719979504e-07,0.0021885679126007964,8.484355410336836e-07
276.5,282.0,0.0019526709764430914,2.835234347063618e-07,0.00223315832906123,8.334891613736468e-07,0.002307296500862936,8.705751250036033e-07
282.0,287.5,0.0020517924983690047,2.9324314905334586e-07,0.0023533595277936852,8.546066886625444e-07,0.002433982706804304,8.940194055953691e-07
287.5,293.0,0.0021575966948414803,3.0347811003618714e-07,0.0024806606325272823,8.754975577850485e-07,0.002569237662876373,9.176682968738066e-07
293.0,298.5,0.00227220567420579,3.144274958707747e-07,0.002617444734038376,8.969885325357778e-07,0.002713746216135687,9.416066634888449e-07
298.5,304.0,0.0023971173538242874,3.261775388579269e-07,0.002767105141263559,9.217298502400785e-07,0.002872560976772732,9.695257691386957e-07
304.0,309.5,0.002533818791194705,3.3880020872282965e-07,0.002929777715213686,9.475984338451844e-07,0.0030440594502837487,9.97801605327537e-07
309.5,315.0,0.002679128704288213,3.521040012249677e-07,0.003103225719922395,9.737450394825448e-07,0.0032276896535199016,1.0269789412120287e-06
315.0,320.5,0.002811868425512058,3.6434746185764903e-07,0.0032740747951058103,9.989837609913522e-07,0.003407768942066841,1.0544837552469294e-06
320.5,326.0,0.002933451465405246,3.750877509493752e-07,0.0034402822532186178,1.0221333359224515e-06,0.003583126971696978,1.0798349576101791e-06
326.0,331.5,0.0030454564163698906,3.843490754914518e-07,0.0035988725066428404,1.0437492292994878e-06,0.0037501991939525494,1.1033559067211558e-06
331.5,337.0,0.003147059393081984,3.920915884235333e-07,0.0037511238968391844,1.063931226539006e-06,0.003911051435187423,1.125081771211097e-06
337.0,342.5,0.0032371372606935784,3.98332589276924e-07,0.003895308471640594,1.0816709725143075e-06,0.004063847721382257,1.1446466712034506e-06
342.5,348.0,0.0033185886537600053,4.035067529741042e-07,0.004034399855864453,1.100557567808567e-06,0.004211362666542893,1.16514022434509e-06
348.0,353.5,0.0033943389948018947,4.079956062317835e-07,0.004165069236794611,1.117247007017063e-06,0.004349611895133722,1.18326584550457e-06
353.5,359.0,0.003465619527278657,4.119284663837088e-07,0.004288275447724328,1.1330811618308118e-06,0.0044807610280332135,1.2008854416259555e-06
359.0,364.5,0.003534815512253168,4.154501315547415e-07,0.004406301458974253,1.1497483214593759e-06,0.0046058087534431,1.2188907248654183e-06
364.5,370.0,0.003603346979870906,4.1861772266755923e-07,0.004514334096623769,1.1636635982143657e-06,0.004720153227179091,1.2339421057152936e-06
370.0,375.5,0.0036716570485089218,4.2146577149068935e-07,0.004613376841824983,1.1779211652710982e-06,0.004825287806459811,1.249436105700053e-06
375.5,381.0,0.0037425230359425256,4.239814272580183e-07,0.004701051767912086,1.1903067915997809e-06,0.0049178452300370976,1.2633058487354136e-06
381.0,386.5,0.00381235270431909,4.260061851817689e-07,0.004779192707545751,1.2036433226915486e-06,0.005000285887573071,1.2777925832464484e-06
386.5,392.0,0.0038713417255955202,4.276724673901054e-07,0.004833436556607244,1.2108825539823215e-06,0.0050572225058862245,1.28552219854999e-06
392.0,397.5,0.003908935967386736,4.287374809795336e-07,0.004867457555918824,1.21616285531879e-06,0.005093184355235374,1.2916172269225382e-06
397.5,403.0,0.003908790056417193,4.286559125930353e-07,0.004860404063330395,1.2117934199614656e-06,0.005084887835009147,1.2864874476618052e-06
403.0,408.5,0.003804886381565382,4.245141174995764e-07,0.004761938744186417,1.1913475295859836e-06,0.00497991995506455,1.2639362521520287e-06
408.5,414.0,0.0036833695317942594,4.191460959426236e-07,0.004615937888303368,1.1595206201023041e-06,0.004826654614644157,1.2297188284670308e-06
414.0,419.5,0.003665647685765005,4.1966937444638425e-07,0.004519330891309795,1.1463791649546582e-06,0.004725777955188703,1.2157582809442026e-06
419.5,425.0,0.003699780361155647,4.2222169778647697e-07,0.004453368547062589,1.1484056015347704e-06,0.004657923577493109,1.21801522480932e-06
425.0,430.5,0.003751099669130458,4.247249672475624e-07,0.004393011697022026,1.1555957417924208e-06,0.004595967914496839,1.2262937200187329e-06
430.5,436.0,0.003806018507037351,4.265741069371711e-07,0.004324231466778349,1.163815794366438e-06,0.004525375601875203,1.235842673769891e-06
436.0,441.5,0.0038538528919629493,4.27369388491807e-07,0.0042484345074150325,1.175054636081738e-06,0.00444733018912571,1.2486868989160648e-06
441.5,447.0,0.003892365094102754,4.272038892043885e-07,0.0041703824504216854,1.1857847951399901e-06,0.0043670725248655205,1.260723883387419e-06
447.0,452.5,0.003919652951318547,4.2598630344496224e-07,0.004083511962542105,1.1943310197303932e-06,0.00427826191339986,1.271055760244052e-06
452.5,458.0,0.003933961311333338,4.23826877075005e-07,0.003977404871547103,1.2033224660604895e-06,0.004169804400734627,1.2817513823811892e-06
458.0,463.5,0.003930840712450968,4.2047851741762275e-07,0.0038435791787174147,1.2084931516357463e-06,0.004033859394490104,1.289409149101176e-06
463.5,469.0,0.003897818569241744,4.1533477860447476e-07,0.0036905143646753695,1.2121362780507198e-06,0.0038776942732564046,1.2948297022452601e-06
469.0,474.5,0.0038266015200545405,4.079040355004868e-07,0.003497263955239868,1.2047358130256652e-06,0.0036805438959026772,1.2894837088106244e-06
474.5,480.0,0.0037140553479293203,3.973663984876247e-07,0.003258934899212368,1.1893166564047035e-06,0.003435208014478788,1.2749085550149786e-06
480.0,485.5,0.003472021167490124,3.770789740220058e-07,0.002892721465099428,1.1432577281098929e-06,0.0030563450496352497,1.2278735497172457e-06
485.5,491.0,0.002882495715958369,3.2967859234231693e-07,0.0022360430372229557,1.0142130309565196e-06,0.0023725830808902395,1.0920986936997114e-06
491.0,496.5,0.0016033513435916944,2.2545812160152807e-07,0.001097143392546463,7.06166573529023e-07,0.001175021446920982,7.633437098602191e-07
496.5,502.0,4.093478890407421e-05,2.765053824860525e-08,2.093978758916129e-05,8.657847183664589e-08,2.2726630241315288e-05,9.376965864407188e-08
502.0,507.5,0.0,0.0,0.0,0.0,0.0,0.0
507.5,513.0,0.0,0.0,0.0,0.0,0.0,0.0
513.0,518.5,0.0,0.0,0.0,0.0,0.0,0.0
