xl,xh,LO,dLO,NLOnovp,dNLOnovp,NLO,dNLO
0.0,5.0,0.003890263227488101,4.0029048237457363e-07,0.0043994634014694,1.3019211721035978e-06,0.0045786569947526504,1.3741098574250714e-06
5.0,10.0,0.0038897530991232688,4.003621415198947e-07,0.0043997785780835645,1.302751204015278e-06,0.004579549862333146,1.3752136768395808e-06
10.0,15.0,0.003887895843226812,4.004819542418186e-07,0.004398654312410065,1.3022891805820306e-06,0.004577690051201714,1.3744470137825787e-06
15.0,20.0,0.0038866481265264975,4.007270305314627e-07,0.0043962377059577045,1.3021369639332352e-06,0.004576061367298732,1.3747491936345829e-06
20.0,25.0,0.003884770715349465,4.0103384209970774e-07,0.00439396774362698,1.3007980959974623e-06,0.004573555322884366,1.3733672823908241e-06
25.0,30.0,0.0038821306302705243,4.013949709534271e-07,0.004389718203741507,1.299317000799342e-06,0.004569183240462314,1.371727969522877e-06
30.0,35.0,0.003878875590237406,4.0184083531323216e-07,0.004385750914937256,1.297836260320753e-06,0.004565099776421166,1.37023840174785e-06
35.0,40.0,0.003874307370544436,4.023136758760621e-07,0.0043781353655134815,1.2941879596088156e-06,0.0045574942673237894,1.36656265882878e-06
40.0,45.0,0.003870236216606422,4.029117677845618e-07,0.004373853176541482,1.2929867906495088e-06,0.0045533741393683465,1.3653628861769057e-06
45.0,50.0,0.003865670960146192,4.0358235302755226e-07,0.0043710293095164665,1.2917533386708387e-06,0.004550498565510399,1.3641229694287122e-06
50.0,55.0,0.003861197364721712,4.043693940120838e-07,0.004361127645950407,1.288507351949047e-06,0.004540620184133708,1.3607697261448912e-06
55.0,60.0,0.0038550672658897406,4.0516087575714577e-07,0.004355801595722179,1.2862288214938157e-06,0.00453455332326125,1.357927366229383e-06
60.0,65.0,0.0038480773089132627,4.0597864977295744e-07,0.004346279771691147,1.283540890433844e-06,0.004524477998891597,1.3549767306875263e-06
65.0,70.0,0.003840651542159671,4.068845751786871e-07,0.004333486223835471,1.2773446134897413e-06,0.004512317014808737,1.3492952439645204e-06
70.0,75.0,0.003832727709141297,4.078786269481809e-07,0.00432454789492632,1.275293267862325e-06,0.004503322286111389,1.347160117165062e-06
75.0,80.0,0.003822919374026147,4.088441503622664e-07,0.004314651761378967,1.2721596202315495e-06,0.0044922859353579815,1.343120262411352e-06
80.0,85.0,0.003812980108713189,4.099080832154196e-07,0.004304294714103749,1.2692090561063413e-06,0.004482485087905782,1.3407281793295718e-06
85.0,90.0,0.003802557011546025,4.1104927576126327e-07,0.004290709869598817,1.264081659509023e-06,0.004467997164799222,1.3348439019863462e-06
90.0,95.0,0.004040773556024635,4.2293309387504934e-07,0.004543115848244913,1.2984523556742736e-06,0.004725978809993006,1.3688850469305626e-06
95.0,100.0,0.003997017491709618,4.2295525199959385e-07,0.004494122729853862,1.2876863881430718e-06,0.00467611124950093,1.358142914733887e-06
100.0,105.0,0.003951939825768543,4.2297059749766376e-07,0.004444594150495515,1.2770941858459098e-06,0.004626107390509522,1.3477465165916737e-06
105.0,110.0,0.003906888002016364,4.229854560971474e-07,0.004393552965600187,1.266518209313515e-06,0.004573975222805604,1.3368847310341154e-06
110.0,115.0,0.0038593813951402008,4.228844739405122e-07,0.004342149225238023,1.255609839292461e-06,0.004521136085178544,1.3256208757791971e-06
115.0,120.0,0.0038118529872026344,4.2283018082729454e-07,0.00428924491278771,1.2453741039785273e-06,0.004466851487141104,1.3151639367570897e-06
120.0,125.0,0.0037628944700052345,4.2272467018148826e-07,0.004234379545156048,1.233806708535175e-06,0.0044100299720468495,1.302939536050742e-06
125.0,130.0,0.003711154956112251,4.224828416992547e-07,0.00417758817627725,1.2219626430554794e-06,0.0043515034572317035,1.2906137223785329e-06
130.0,135.0,0.0036585087429462882,4.2218888270806985e-07,0.0041198798877326364,1.2102222488141409e-06,0.004292907981846702,1.2789758731024715e-06
135.0,140.0,0.003604752351547335,4.218390332820565e-07,0.004060863602914792,1.199228507426891e-06,0.004231528374034232,1.2669960912120492e-06
140.0,145.0,0.0035479383961417327,4.2130868956160753e-07,0.003999692948820856,1.1867872334290448e-06,0.004168319408953829,1.2541213877612134e-06
145.0,150.0,0.0034903599912235713,4.20741304357473e-07,0.0039329079382264525,1.1721662423767172e-06,0.004099531387621249,1.2389532621764996e-06
150.0,155.0,0.0034302200139001114,4.1998675839653285e-07,0.003866542286681507,1.1590512661164243e-06,0.004031291121615312,1.2253259813861922e-06
155.0,160.0,0.003367975072124804,4.190649856680478e-07,0.003796448671834188,1.1448066482647683e-06,0.003959408153439325,1.2106798067179548e-06
160.0,165.0,0.003303574629608551,4.1798357169878733e-07,0.0037251901745571155,1.1305115747459907e-06,0.003885876113400525,1.1957714063651742e-06
165.0,170.0,0.003236477876518672,4.1667098577758346e-07,0.003650668743883206,1.1157980340442698e-06,0.003809650127949928,1.181102104615955e-06
170.0,175.0,0.00316731183631796,4.151722430489234e-07,0.0035702495457042172,1.0990424269208285e-06,0.003726671331225051,1.1635191667489269e-06
175.0,180.0,0.0030933888883267657,4.1326748937378615e-07,0.003488211586483407,1.0833221751077478e-06,0.003641312258549032,1.146677121471548e-06
180.0,185.0,0.0030158691075591266,4.1101691710742577e-07,0.0033999616043932914,1.065316641423718e-06,0.0035507089343451226,1.128366559796467e-06
185.0,190.0,0.0029354517826465105,4.083922667791837e-07,0.0033077857359416194,1.0463670891352004e-06,0.003455322423155807,1.1084689593461036e-06
190.0,195.0,0.002852521143735579,4.0554285760282017e-07,0.003212960902594516,1.0276680260909e-06,0.0033568604886185013,1.0888311913540524e-06
195.0,200.0,0.002763352989212007,4.0194854340746523e-07,0.00311471012600225,1.0093760208616613e-06,0.003255134235789973,1.0697298299361304e-06
200.0,205.0,0.002670281962246857,3.979159051262092e-07,0.0030074267112577325,9.88202806943017e-07,0.003143823055781942,1.047684059826295e-06
205.0,210.0,0.002571963639268144,3.9314691798430097e-07,0.0028935986532082625,9.643737086916644e-07,0.00302552841700539,1.0225904957835295e-06
210.0,215.0,0.0024669465412226203,3.8756501233714313e-07,0.002777533040652705,9.424885679260864e-07,0.0029046056760699515,9.99501569238988e-07
215.0,220.0,0.002356706047238066,3.811839253064151e-07,0.0026514180250901864,9.160825897559023e-07,0.002773068628218895,9.716976807694248e-07
220.0,225.0,0.002238398426997008,3.7365154633766154e-07,0.0025191469018365858,8.891981897310924e-07,0.0026354798788491137,9.433960656694313e-07
225.0,230.0,0.0021138802917831678,3.6501258574551146e-07,0.0023818681480972702,8.614595219058852e-07,0.002492645786981591,9.145328745452215e-07
230.0,235.0,0.001984406362070861,3.5531690904286547e-07,0.0022376894138329147,8.313711560678427e-07,0.002342162461511844,8.827305031629023e-07
235.0,240.0,0.0018496417535212024,3.44364476371384e-07,0.002089060984401532,7.98702321131564e-07,0.002186792919326679,8.481171264884503e-07
240.0,245.0,0.0017083447146585633,3.318953481719999e-07,0.0019364266235934497,7.660135669205455e-07,0.002027605282831729,8.136436921000328e-07
245.0,250.0,0.0015607832184288766,3.177928377323369e-07,0.0017762386113306106,7.296834076281542e-07,0.0018600082843141747,7.751981663332496e-07
250.0,255.0,0.0014067942802568954,3.0164788682093826e-07,0.0016108239104197506,6.908786823586813e-07,0.0016863653898589244,7.33662916544051e-07
255.0,260.0,0.0012461722034737288,2.8301243928928674e-07,0.0014379155477139815,6.479401371225671e-07,0.0015059785218151035,6.885064597851674e-07
260.0,265.0,0.001084172441869746,2.6168638876010136e-07,0.0012649308167765108,6.048399713105346e-07,0.001324795827994541,6.424931157356618e-07
265.0,270.0,0.0009405436872308024,2.399435956313315e-07,0.0011016159970443698,5.617517798101359e-07,0.0011537047517693215,5.964693731465544e-07
270.0,275.0,0.0008099016623109223,2.1831735815282289e-07,0.0009508987204371582,5.221217631282895e-07,0.000996420815105889,5.550389464691922e-07
275.0,280.0,0.0006896831799651855,1.9688867393443718e-07,0.0008080436933705503,4.812299549874699e-07,0.000846954866604439,5.119535125224262e-07
280.0,285.0,0.0005792866072046447,1.759947635758641e-07,0.0006731821748198287,4.3953396865799924e-07,0.00070604897127248,4.6822394704775494e-07
285.0,290.0,0.0004779395996075684,1.5557770985757485e-07,0.0005460832193010286,3.962860847531985e-07,0.0005729446187274378,4.2228120477416616e-07
290.0,295.0,0.0003829868699420906,1.3507350198186778e-07,0.00042772103667997996,3.541917596998815e-07,0.0004489591906903369,3.779396724421403e-07
295.0,300.0,0.0002931674585480326,1.1396008156473588e-07,0.0003162529394645902,3.0775459407938057e-07,0.0003321387759949233,3.2869100131470884e-07
300.0,305.0,0.00020832641939177738,9.188101811887668e-08,0.0002138560079277808,2.567437225310848e-07,0.00022479933099981734,2.7461399555059586e-07
305.0,310.0,0.0001292738152803091,6.845044902448764e-08,0.0001236467700948613,1.9924894513703857e-07,0.00013016367329500025,2.1370225345544946e-07
310.0,315.0,5.9656237255322985e-05,4.317186293580819e-08,5.148871135350949e-05,1.3287467995770074e-07,5.436695693168287e-05,1.431668547833645e-07
315.0,320.0,1.0432417329415543e-05,1.6157486368939464e-08,7.809468024426292e-06,5.298488328674042e-08,8.280750377455766e-06,5.721156112038089e-08
320.0,325.0,0.0,0.0,0.0,0.0,0.0,0.0
325.0,330.0,0.0,0.0,0.0,0.0,0.0,0.0
