xl,xh,LO,dLO,NLOnovp,dNLOnovp,NLO,dNLO
50.0,51.0,0.010473777870417277,1.9753596853841438e-06,0.012228212403799343,3.833375846243018e-06,0.01269645275182649,4.021989355032798e-06
51.0,52.0,0.01099458043513272,2.0015014931294174e-06,0.012728041159287995,3.9238533189717815e-06,0.01322180840784015,4.1187406119112974e-06
52.0,53.0,0.011480800750153359,2.025915834567401e-06,0.013200365841470874,4.019199961522005e-06,0.013719462655318487,4.222726462591624e-06
53.0,54.0,0.011934893660926016,2.0491376224367987e-06,0.013650720039341122,4.113241543382784e-06,0.014191103560423404,4.323397253194828e-06
54.0,55.0,0.012361894112769832,2.0716832485626444e-06,0.014066384723330149,4.201665543222473e-06,0.014628878133938409,4.417241159457588e-06
55.0,56.0,0.012753475916615934,2.092322380085107e-06,0.014452436862188403,4.283317871154753e-06,0.015037998778748882,4.507354543870458e-06
56.0,57.0,0.013112009046126014,2.111646987050069e-06,0.014811606725911588,4.369225726084506e-06,0.015410880451755638,4.595809957252054e-06
57.0,58.0,0.013431805071778592,2.1282398707382843e-06,0.01514343421137601,4.444681072046444e-06,0.015764150976068883,4.679987944498868e-06
58.0,59.0,0.013725046844087093,2.143453607398381e-06,0.015430974565889509,4.508691932080383e-06,0.01606770244067665,4.750364638445363e-06
59.0,60.0,0.01397819304964406,2.155649174511676e-06,0.01569373187274811,4.571785303198788e-06,0.016341809551031882,4.817804552010659e-06
60.0,61.0,0.014209286924398212,2.165984264034759e-06,0.015945591210568284,4.641063248389892e-06,0.016612159169649143,4.89346658032613e-06
61.0,62.0,0.014473351746770103,2.1765509834449432e-06,0.016202159401446953,4.710942956520129e-06,0.016880685346344543,4.968294473633256e-06
62.0,63.0,0.014702611278547887,2.18228056164706e-06,0.016431334774616998,4.774099843252817e-06,0.017123614469694473,5.0374586798168805e-06
63.0,64.0,0.0148805163620152,2.182661808529606e-06,0.016610377455100942,4.832456620513089e-06,0.017312974520627345,5.100669852216072e-06
64.0,65.0,0.015016233419145191,2.178575656780664e-06,0.016745066456575138,4.8838184489698685e-06,0.017453773718409806,5.1561699290653794e-06
65.0,66.0,0.015119100317833062,2.1714111802888975e-06,0.016851840008281122,4.93790825614307e-06,0.01756734184132733,5.214353820664705e-06
66.0,67.0,0.015182297107880185,2.1605425890199147e-06,0.016917655981909127,4.9819222385687234e-06,0.0176360450096827,5.260299592603067e-06
67.0,68.0,0.015214435127175244,2.1469324232355558e-06,0.016946775735390142,5.0174027337324125e-06,0.01766914542858311,5.2999007562911215e-06
68.0,69.0,0.01522362825843885,2.131478786626051e-06,0.016958980849176773,5.055660562924823e-06,0.017681924852547028,5.3414032471039435e-06
69.0,70.0,0.015218396720939269,2.115006402692415e-06,0.01694726009090729,5.086975695351542e-06,0.017670749804177256,5.374530649532525e-06
70.0,71.0,0.015182932280773788,2.0961042825962237e-06,0.016897930464758504,5.10565611938314e-06,0.0176209460649506,5.3968296429855104e-06
71.0,72.0,0.0151327267207387,2.076163167211164e-06,0.0168525210371379,5.134360532804322e-06,0.017573819285456718,5.427764883665211e-06
72.0,73.0,0.015067630200384591,2.0553193587630854e-06,0.01677615545810307,5.156013387168631e-06,0.017496823195805068,5.4525962835027414e-06
73.0,74.0,0.014989196704135675,2.0337696485235417e-06,0.0166951996104841,5.175899698022944e-06,0.017414005628015122,5.475846294796138e-06
74.0,75.0,0.0148909215863349,2.010852561787668e-06,0.016588624544689002,5.191107167530252e-06,0.0173003154687297,5.490531579738119e-06
75.0,76.0,0.014786566008322581,1.9878504727642846e-06,0.016489864407878516,5.212645468392318e-06,0.01719853764731497,5.513850494266491e-06
76.0,77.0,0.014673798288030232,1.9643602859143657e-06,0.016361634350806318,5.2164114759750035e-06,0.017063903795998082,5.5182543638113465e-06
77.0,78.0,0.014549547350625127,1.9404364811328183e-06,0.01623475773630706,5.232870091752758e-06,0.016931266387026155,5.535580582430833e-06
78.0,79.0,0.014418935211066632,1.9163673479830213e-06,0.016102600614533925,5.243665474731062e-06,0.01679146876224113,5.545850765723314e-06
79.0,80.0,0.014283086305598856,1.8922134030463711e-06,0.01594273660714617,5.246196878568637e-06,0.016627862778805427,5.551237994349905e-06
80.0,81.0,0.0141427490662318,1.8680067641501668e-06,0.01579037327535818,5.2469689636603664e-06,0.016467940695877512,5.55212113624978e-06
81.0,82.0,0.013994188004137074,1.8436164203690636e-06,0.01562642824510766,5.249243641071824e-06,0.016298500284292812,5.5562352539866775e-06
82.0,83.0,0.013841115806844674,1.819138311926989e-06,0.015467555730685638,5.249792998167797e-06,0.016131501574915705,5.5569669331553566e-06
83.0,84.0,0.013684412079633331,1.794727088710466e-06,0.015307581080815128,5.261118877852908e-06,0.015965384103787943,5.568806205319462e-06
84.0,85.0,0.01351993185444062,1.7701846081035388e-06,0.015130782260698744,5.254642440796135e-06,0.01577893305129487,5.559710508875483e-06
85.0,86.0,0.013356690332709248,1.7459958761005703e-06,0.014957417932450647,5.257303174769577e-06,0.015597549535743232,5.563642020505087e-06
86.0,87.0,0.013188887581921358,1.7217712979164917e-06,0.0147771254344891,5.250996769419546e-06,0.015410186079696178,5.556635385201298e-06
87.0,88.0,0.013016553695708795,1.6975259132753894e-06,0.014584031264128413,5.245813763694127e-06,0.01521147506513477,5.554332940062055e-06
88.0,89.0,0.012838688694043974,1.673299534135874e-06,0.014405352274842869,5.2420009407487e-06,0.015022870340747166,5.5489048740899626e-06
89.0,90.0,0.012667789443907214,1.6496987446133073e-06,0.014197714259278578,5.221731696006943e-06,0.014809194929830797,5.528868803419265e-06
90.0,91.0,0.012487278581609116,1.625723210157555e-06,0.014015169281518556,5.22618883629861e-06,0.014614408339859946,5.5298338174890575e-06
91.0,92.0,0.012306042506354892,1.6020067151661836e-06,0.013815677925231515,5.210280649018713e-06,0.014409278924128138,5.5156595306009105e-06
92.0,93.0,0.012121680079408722,1.5783676275941083e-06,0.013625645382626646,5.203029768112843e-06,0.014207611466639075,5.505264982155067e-06
93.0,94.0,0.01193374214753307,1.5547229947160513e-06,0.013420187433639371,5.190622250704142e-06,0.01399749185722544,5.4940944106706e-06
94.0,95.0,0.011747294355178512,1.5313594391256726e-06,0.013202352756874149,5.165025863821913e-06,0.013771398527451451,5.469216647093854e-06
95.0,96.0,0.011552896528544306,1.507630250387454e-06,0.013001474547319536,5.156341825121704e-06,0.013562864899632595,5.459479401377508e-06
96.0,97.0,0.011358492794377976,1.4841552652209862e-06,0.012796003948580685,5.143899315832225e-06,0.013349197669186616,5.446426114388617e-06
97.0,98.0,0.011160703981067808,1.4604817878910466e-06,0.012569336487493246,5.117056231632732e-06,0.013114435304341256,5.419967070502513e-06
98.0,99.0,0.010959556334778629,1.4368226589353603e-06,0.012353515215669278,5.0932674390012334e-06,0.01288911647969457,5.393859509485868e-06
99.0,100.0,0.010756331400991394,1.413142492418819e-06,0.01214600307711652,5.086831365177473e-06,0.012670639750634895,5.3856294899417705e-06
100.0,101.0,0.010548573005994336,1.3891987681584163e-06,0.011914007225069035,5.054848650196285e-06,0.012431695807350254,5.352922249291578e-06
101.0,102.0,0.010339059626838796,1.3652538972874822e-06,0.0116849703770609,5.025747023895585e-06,0.012195202377183854,5.32459095982137e-06
102.0,103.0,0.01012227556522031,1.3408307186361306e-06,0.011447929444495979,4.993553148902299e-06,0.011948542031799786,5.2900705345668866e-06
103.0,104.0,0.009903090321542437,1.3162316766284719e-06,0.011203298588947249,4.957352109163363e-06,0.011693772775810594,5.251711991613217e-06
104.0,105.0,0.009680196814296856,1.291416540912866e-06,0.010954609609256313,4.916217990781585e-06,0.011435172515942102,5.208802968599771e-06
105.0,106.0,0.00945016515856547,1.2660486138962344e-06,0.010714273959430668,4.885324693800243e-06,0.011183345784046363,5.174699625725638e-06
106.0,107.0,0.0092204246550598,1.240659195946636e-06,0.010455660724068628,4.833768718793412e-06,0.010914621489499985,5.120172350930259e-06
107.0,108.0,0.00897837708450345,1.214388261923274e-06,0.010201776465812044,4.797167360287084e-06,0.010651517182701836,5.082911915690815e-06
108.0,109.0,0.008736521135307694,1.188053727174078e-06,0.009935378802265929,4.7409963157000154e-06,0.01037153494336791,5.0207062996856615e-06
109.0,110.0,0.008485368465411591,1.1608592187098395e-06,0.00966303392703352,4.687578502309387e-06,0.010090427208953208,4.966043418740036e-06
110.0,111.0,0.008230170335244211,1.1334155270013914e-06,0.009393670595973036,4.6375315013911106e-06,0.0098091438088546,4.91282184392423e-06
111.0,112.0,0.00797419930350827,1.105842452911415e-06,0.009114487912045484,4.578807577945391e-06,0.009516224742954372,4.848507145374147e-06
112.0,113.0,0.00770938654715651,1.0775415315273435e-06,0.008820538359396519,4.505133709420327e-06,0.009208431861699921,4.769335701867839e-06
113.0,114.0,0.007441629017670959,1.0488814658716342e-06,0.008531234085126072,4.438163952839848e-06,0.008909930233727556,4.70141760832522e-06
114.0,115.0,0.00716671973512658,1.0196373123864092e-06,0.00823077278838357,4.355670097365668e-06,0.008594304944824792,4.612515874287875e-06
115.0,116.0,0.006889359120908291,9.901373494148205e-07,0.007929141161906548,4.277437329689974e-06,0.008282743561916262,4.531556993129728e-06
116.0,117.0,0.00660677578482876,9.601428488164948e-07,0.007612896955006489,4.187267690151537e-06,0.007949886539615932,4.433149428785268e-06
117.0,118.0,0.006316239803528832,9.29435679849602e-07,0.007302553597567842,4.103986526118163e-06,0.007627527019872396,4.346052772132331e-06
118.0,119.0,0.006020741695065264,8.983645614470943e-07,0.006992094603062903,4.017244253691625e-06,0.007301293154263473,4.2517299661061e-06
119.0,120.0,0.005728241946048422,8.67292573058993e-07,0.00667223165507399,3.92057231620606e-06,0.006965294116798796,4.147500868488519e-06
120.0,121.0,0.0054589889151809385,8.374585983344046e-07,0.006364670793080482,3.810146015274708e-06,0.006643867968215741,4.030742674823458e-06
121.0,122.0,0.0051827838314145655,8.071433220877196e-07,0.006070841909044915,3.722197400972632e-06,0.0063339726250422,3.9338854948772236e-06
122.0,123.0,0.004900425085831639,7.763570438110941e-07,0.005762744941598021,3.617836623345337e-06,0.006010223922285746,3.820584713471566e-06
123.0,124.0,0.004612829553857238,7.451735993074563e-07,0.005450256884051638,3.5075059557517714e-06,0.005682296944382525,3.7021821429401114e-06
124.0,125.0,0.004321294492019569,7.136244283311986e-07,0.005125746112612222,3.383029867963007e-06,0.005342276025457635,3.569501533472866e-06
125.0,126.0,0.00402667408850335,6.816849490467697e-07,0.004811928901487847,3.2676328919790607e-06,0.005011595037725043,3.44282767290939e-06
126.0,127.0,0.0037287603180444274,6.492104838489718e-07,0.0044934714246885705,3.1420124017967007e-06,0.00467450285230331,3.3036871967533544e-06
127.0,128.0,0.003422415204172549,6.155662249460478e-07,0.004165921306710648,3.001792949980914e-06,0.004332534875516835,3.1543725041269453e-06
128.0,129.0,0.003107859000911649,5.80442478363311e-07,0.00383404359298428,2.8555916743584536e-06,0.003980873811504388,2.991379715856675e-06
129.0,130.0,0.0027738784796118984,5.424238341141072e-07,0.003486038407464441,2.6833156108778843e-06,0.003615061223787179,2.80268193191046e-06
