xl,xh,LO,dLO,NLOnovp,dNLOnovp,NLO,dNLO
50.0,51.0,0.00047363918443409266,2.2650281857476405e-07,0.0004560017722223539,1.1447883099069826e-06,0.00048214983533401406,1.2309548288673497e-06
51.0,52.0,0.0012646601487147026,3.727253477996829e-07,0.0012496655078748807,1.86135948533648e-06,0.0013185895094147268,1.9945119967709864e-06
52.0,53.0,0.0019249908816435987,4.618436876636542e-07,0.001946240553830677,2.289581454996357e-06,0.0020535360400950435,2.451504219509836e-06
53.0,54.0,0.002501663419549844,5.287749278599469e-07,0.002584059860848119,2.606370186645404e-06,0.002723722827369916,2.784419083580389e-06
54.0,55.0,0.00301364753014323,5.831804237286443e-07,0.0031634227571844553,2.847054643150039e-06,0.0033331203882019647,3.038883861339816e-06
55.0,56.0,0.003469868188947787,6.291943609074855e-07,0.0036913453285535094,3.041879933715393e-06,0.003887185452858412,3.242678004613415e-06
56.0,57.0,0.003883395582754757,6.701846500882531e-07,0.004173368211672456,3.2111449718375125e-06,0.00438894181368344,3.4157906899888288e-06
57.0,58.0,0.004268741831963455,7.083282489858231e-07,0.004623124828309376,3.363366456541597e-06,0.004860664016041666,3.576563415331632e-06
58.0,59.0,0.004633646002286196,7.444630756720204e-07,0.005050374240147493,3.5017843632456605e-06,0.0053051206397094035,3.718311162401647e-06
59.0,60.0,0.004991783652940846,7.799194909392026e-07,0.0054686037556335495,3.636574896087075e-06,0.005741906646332658,3.861673164036722e-06
60.0,61.0,0.005341456761809979,8.145112657493012e-07,0.0058766333576696795,3.7599132412117682e-06,0.006164847273116486,3.9874868925161385e-06
61.0,62.0,0.005686977508655849,8.485018361212913e-07,0.006284514858848518,3.886782969359718e-06,0.006589352569472418,4.120541991550351e-06
62.0,63.0,0.00602437360504415,8.818911411367157e-07,0.006665301614553973,3.988198336117866e-06,0.006984096107287964,4.225940137809608e-06
63.0,64.0,0.006316571205014952,9.123390236605287e-07,0.0070309722053848115,4.096843610421713e-06,0.007361584545051106,4.338004129662303e-06
64.0,65.0,0.0066173553483571896,9.432142307365072e-07,0.007381397759385645,4.1810149933302284e-06,0.007722341615789999,4.4237394312899335e-06
65.0,66.0,0.006917827188610329,9.737910795108903e-07,0.007733207616858175,4.265950148045208e-06,0.00809024571550697,4.517350987768447e-06
66.0,67.0,0.007217138783633049,1.00410742096672e-06,0.008101350220022627,4.3638978888321885e-06,0.008472105317630933,4.621129004146311e-06
67.0,68.0,0.007515328601743216,1.034219556913262e-06,0.00844596035841475,4.438362306609347e-06,0.00882781623728731,4.697763189376713e-06
68.0,69.0,0.0078091189745023906,1.063887292507685e-06,0.008802938648803259,4.52552139787919e-06,0.00919777885597288,4.788835291483032e-06
69.0,70.0,0.008098077796966151,1.0931123293779265e-06,0.00915354987708331,4.604444344191874e-06,0.009560455408529327,4.8721104430304815e-06
70.0,71.0,0.008385633845906869,1.1221881234907138e-06,0.00949289540308037,4.671364381400589e-06,0.009910159968604731,4.941335855253182e-06
71.0,72.0,0.008669028370383816,1.150777956974099e-06,0.009833978329606651,4.743200523905861e-06,0.010264599709068454,5.017753932990644e-06
72.0,73.0,0.008944976464485587,1.1788921685540695e-06,0.010153403454062116,4.7955624919613255e-06,0.01059472397426951,5.0730505470491585e-06
73.0,74.0,0.00921933755579912,1.206862001079523e-06,0.010494981812745972,4.866282422493605e-06,0.010948014646917026,5.146707793521109e-06
74.0,75.0,0.00948822558740268,1.23438374648096e-06,0.010824621640503913,4.924870747363937e-06,0.011289210848117615,5.207940340471519e-06
75.0,76.0,0.0097544712719033,1.261821988363743e-06,0.01113989436929392,4.969771505483675e-06,0.011616688612425343,5.255769820310972e-06
76.0,77.0,0.01001578090482866,1.2889660516929486e-06,0.011461018195426132,5.0254748171105454e-06,0.011945972663423305,5.311142913032903e-06
77.0,78.0,0.010271132994000906,1.315682826394294e-06,0.011776250754677742,5.0766672843181095e-06,0.012271583069582856,5.364796348638482e-06
78.0,79.0,0.010519589570365868,1.3421589125408143e-06,0.01206847057635574,5.105911534992631e-06,0.01257653003677468,5.397503867793824e-06
79.0,80.0,0.010765603532395772,1.3686277705787586e-06,0.012381662519173078,5.153494577516086e-06,0.012900254977548958,5.445979259920912e-06
80.0,81.0,0.011005167288594351,1.3948108273787279e-06,0.012681542792876649,5.196451905673573e-06,0.013213848139844992,5.494010424471107e-06
81.0,82.0,0.011235809044587935,1.4207295054212763e-06,0.012979767589991486,5.23613307589016e-06,0.013521147733336332,5.534445460389621e-06
82.0,83.0,0.011459405476990706,1.4462162321757886e-06,0.013253741522009171,5.254596275348441e-06,0.0138030439682921,5.552044739744075e-06
83.0,84.0,0.011681897660047043,1.4718589953815736e-06,0.013537442403839688,5.283148919951604e-06,0.01409727139142316,5.5817223938179065e-06
84.0,85.0,0.01189811133830464,1.497249518858316e-06,0.01381580732370303,5.311129679288407e-06,0.014385386981017384,5.611688982743264e-06
85.0,86.0,0.01211082894695178,1.52261703786654e-06,0.014087367188263675,5.324908513749376e-06,0.01466614530739189,5.625682304536386e-06
86.0,87.0,0.012321751273530107,1.5479781132939354e-06,0.014369066227205868,5.352508609470874e-06,0.014958499697638737,5.6552808434805785e-06
87.0,88.0,0.012532975968541766,1.5736833152734388e-06,0.014642298050629426,5.362839183005682e-06,0.015239824488874603,5.6665321401349374e-06
88.0,89.0,0.01274745261104003,1.599713360096238e-06,0.014930145535009003,5.386263335506613e-06,0.015537440710625162,5.68952661244672e-06
89.0,90.0,0.012964857534850016,1.6261087928554454e-06,0.015216760814479403,5.402303407039999e-06,0.01583749991507226,5.709807192051824e-06
90.0,91.0,0.013180392414659431,1.6527099678558344e-06,0.01547965076036216,5.423410111289989e-06,0.016109249612006486,5.730286071710318e-06
91.0,92.0,0.013406611043431164,1.680240774051946e-06,0.015706469629655762,5.4358466586185545e-06,0.016344392711257472,5.7437975544522065e-06
92.0,93.0,0.013632647785962529,1.7081071350663137e-06,0.01594996845576143,5.454982080534082e-06,0.01659877266386239,5.763284430564683e-06
93.0,94.0,0.013863400228884337,1.736495009316859e-06,0.016170799454444894,5.45858336034115e-06,0.016829042465941173,5.76771025689309e-06
94.0,95.0,0.014094711852913288,1.7653328596421024e-06,0.016426263634906083,5.480872440278997e-06,0.017090512257139142,5.7871010138867675e-06
95.0,96.0,0.01433006753315554,1.7948204122632226e-06,0.016648271161615873,5.489488081485132e-06,0.01732192854412208,5.79686160423796e-06
96.0,97.0,0.014566175636971376,1.8248494127722179e-06,0.016891654993665656,5.5046955791968015e-06,0.017574311658261753,5.8117664721374035e-06
97.0,98.0,0.01480347321798012,1.855384281045253e-06,0.017116888230984697,5.508924925034622e-06,0.017811964220609097,5.818553403812165e-06
98.0,99.0,0.015037800829669415,1.886250199576296e-06,0.017353610023474613,5.524567668319528e-06,0.01805718290452453,5.834148837329812e-06
99.0,100.0,0.015263652562931104,1.9171882375181284e-06,0.017563717312392594,5.525035236436312e-06,0.018275722416427508,5.834451326882816e-06
100.0,101.0,0.015478549134730672,1.9478208533612112e-06,0.017780956995904536,5.5350321874404575e-06,0.018505001242227287,5.845473613585039e-06
101.0,102.0,0.015685295567154218,1.9785670590246474e-06,0.01796902964423442,5.5283255324595145e-06,0.018699633571877088,5.83761155765762e-06
102.0,103.0,0.015876753010278827,2.0089284480163903e-06,0.01815424800510524,5.524843059317845e-06,0.018896146291023624,5.836068578432899e-06
103.0,104.0,0.016054069491829925,2.038829120550313e-06,0.0183146837429654,5.5083083693333935e-06,0.019064098540356404,5.819151807136228e-06
104.0,105.0,0.016217513285863624,2.0684731958447756e-06,0.0184655034295713,5.496711186281301e-06,0.019218931631721274,5.804568906249845e-06
105.0,106.0,0.0163738795784947,2.0983234945432753e-06,0.018597337282764404,5.485884082018986e-06,0.019360019044241214,5.794211071009371e-06
106.0,107.0,0.016509497455949994,2.127287771978753e-06,0.018706907419275918,5.460497160389836e-06,0.019474674454635032,5.76648255551727e-06
107.0,108.0,0.016627892407592073,2.155777221937859e-06,0.018805454039690396,5.438232075887937e-06,0.019579866255696382,5.743516165107779e-06
108.0,109.0,0.016730211144805045,2.1838310971179563e-06,0.018880521255109143,5.412491817083728e-06,0.019659827928453825,5.715604149694709e-06
109.0,110.0,0.016812603723309488,2.211011875546304e-06,0.01892551612928345,5.373406576329255e-06,0.019709006696705583,5.674705314772495e-06
110.0,111.0,0.016872369157455755,2.23724096156193e-06,0.01893806684385908,5.3331858278633286e-06,0.01972658805694237,5.633653990784269e-06
111.0,112.0,0.016907463124762292,2.2622484335026763e-06,0.01894617033575244,5.302965507050116e-06,0.019737764696809688,5.600587955807799e-06
112.0,113.0,0.016917124834032637,2.2859972873956358e-06,0.01889577382569331,5.249694690691148e-06,0.019690683846779564,5.545914204022991e-06
113.0,114.0,0.016896806906121557,2.307952469037041e-06,0.0188149929112528,5.195980571300114e-06,0.019612750133712827,5.4904086875731455e-06
114.0,115.0,0.01683380900270748,2.327063139306391e-06,0.0186876276153896,5.133343206926045e-06,0.019482495091230283,5.423025019663632e-06
115.0,116.0,0.01673350002842553,2.3436664748805054e-06,0.018521578059772826,5.070599038709472e-06,0.019318683661027156,5.359388359961023e-06
116.0,117.0,0.01659862355090846,2.357235918674384e-06,0.01830062622215231,5.003593584470371e-06,0.01909187904446751,5.288422741934303e-06
117.0,118.0,0.016427642822481787,2.367251434377526e-06,0.01804084084553716,4.927254358864385e-06,0.01882285837496123,5.207014547223649e-06
118.0,119.0,0.016095257216588117,2.3669175081691175e-06,0.017628380506240438,4.823053181144561e-06,0.018395819852068684,5.095507299398828e-06
119.0,120.0,0.01567103653899259,2.358956616627844e-06,0.017115187891918796,4.707729880326486e-06,0.017867968659989,4.977185985815789e-06
120.0,121.0,0.01513537758087974,2.340151135137736e-06,0.016471751697762254,4.5751685864374815e-06,0.0171979046713521,4.836769731221971e-06
121.0,122.0,0.014465499596312803,2.3073675877768075e-06,0.01568686044359434,4.4224688492031824e-06,0.016381064135289263,4.6745160183059485e-06
122.0,123.0,0.013624303675642976,2.255149408831827e-06,0.014705493136936856,4.2401672999965755e-06,0.015356033169514857,4.480777471009364e-06
123.0,124.0,0.012554671774776965,2.174499955154141e-06,0.013505054551246364,4.028336166535298e-06,0.014106136417859625,4.257100208108073e-06
124.0,125.0,0.011175702758417982,2.0507752963869184e-06,0.01197954273142888,3.758918379423937e-06,0.01251182433058443,3.9710802321400606e-06
125.0,126.0,0.009534407954434516,1.8832473903965745e-06,0.010162134955140845,3.4267407474282436e-06,0.010614508821737091,3.6175380632031577e-06
126.0,127.0,0.007717697700409407,1.6786348323863796e-06,0.008153641356033105,3.0361470078735264e-06,0.008517626512406451,3.205008634506132e-06
127.0,128.0,0.005726120905644657,1.4282784849075812e-06,0.005992402557052134,2.563644591809376e-06,0.006259917793149029,2.7055429614127783e-06
128.0,129.0,0.003556503387281599,1.110442245131227e-06,0.003696751327943671,1.9720507896534968e-06,0.003861534969814978,2.079950426829187e-06
129.0,130.0,0.0012287081761319205,6.451786106456847e-07,0.0012614488736807602,1.1238334474082843e-06,0.00131767214481284,1.18399590552964e-06
