# xl,xh,LO,dLO,YFSLO,dYFSLO
2.700000000000000000e+02,2.800000000000000000e+02,0.000000000000000000e+00,0.000000000000000000e+00,1.680408000000000048e-07,2.039284923692616404e-08
2.800000000000000000e+02,2.900000000000000000e+02,0.000000000000000000e+00,0.000000000000000000e+00,2.949264000000000250e-07,2.944357824721716676e-08
2.900000000000000000e+02,3.000000000000000000e+02,0.000000000000000000e+00,0.000000000000000000e+00,4.242340000000000386e-07,3.652909799050614424e-08
3.000000000000000000e+02,3.100000000000000000e+02,0.000000000000000000e+00,0.000000000000000000e+00,6.996645999999999639e-07,4.882494239627938491e-08
3.100000000000000000e+02,3.200000000000000000e+02,0.000000000000000000e+00,0.000000000000000000e+00,8.182658000000000981e-07,5.325652072751279094e-08
3.200000000000000000e+02,3.300000000000000000e+02,0.000000000000000000e+00,0.000000000000000000e+00,1.277415000000000034e-06,6.962354486809760002e-08
3.300000000000000000e+02,3.400000000000000000e+02,0.000000000000000000e+00,0.000000000000000000e+00,1.695177000000000092e-06,8.243846189734497531e-08
3.400000000000000000e+02,3.500000000000000000e+02,0.000000000000000000e+00,0.000000000000000000e+00,2.219254000000000081e-06,9.576005952379102067e-08
3.500000000000000000e+02,3.600000000000000000e+02,0.000000000000000000e+00,0.000000000000000000e+00,2.496277999999999955e-06,1.039974038137491259e-07
3.600000000000000000e+02,3.700000000000000000e+02,0.000000000000000000e+00,0.000000000000000000e+00,3.077811999999999900e-06,1.159500754635373213e-07
3.700000000000000000e+02,3.800000000000000000e+02,0.000000000000000000e+00,0.000000000000000000e+00,4.010863999999999856e-06,1.393821365885887035e-07
3.800000000000000000e+02,3.900000000000000000e+02,0.000000000000000000e+00,0.000000000000000000e+00,4.622616000000000026e-06,1.493444675908685752e-07
3.900000000000000000e+02,4.000000000000000000e+02,0.000000000000000000e+00,0.000000000000000000e+00,5.670363999999999807e-06,1.677614377620792876e-07
4.000000000000000000e+02,4.100000000000000000e+02,0.000000000000000000e+00,0.000000000000000000e+00,6.532829000000000535e-06,1.841673423818674737e-07
4.100000000000000000e+02,4.200000000000000000e+02,0.000000000000000000e+00,0.000000000000000000e+00,7.438362000000000019e-06,2.007906621334767283e-07
4.200000000000000000e+02,4.300000000000000000e+02,0.000000000000000000e+00,0.000000000000000000e+00,8.488564999999999593e-06,2.145055244043845362e-07
4.300000000000000000e+02,4.400000000000000000e+02,0.000000000000000000e+00,0.000000000000000000e+00,1.052656000000000074e-05,2.470956292612234873e-07
4.400000000000000000e+02,4.500000000000000000e+02,0.000000000000000000e+00,0.000000000000000000e+00,1.107169000000000038e-05,2.531999407582868816e-07
4.500000000000000000e+02,4.600000000000000000e+02,0.000000000000000000e+00,0.000000000000000000e+00,1.276640999999999929e-05,2.765028028791028000e-07
4.600000000000000000e+02,4.700000000000000000e+02,0.000000000000000000e+00,0.000000000000000000e+00,1.407746999999999991e-05,2.928542470240102398e-07
4.700000000000000000e+02,4.800000000000000000e+02,0.000000000000000000e+00,0.000000000000000000e+00,1.535126000000000047e-05,3.048162561281796134e-07
4.800000000000000000e+02,4.900000000000000000e+02,0.000000000000000000e+00,0.000000000000000000e+00,1.722537000000000073e-05,3.273582135826134716e-07
4.900000000000000000e+02,5.000000000000000000e+02,0.000000000000000000e+00,0.000000000000000000e+00,1.918207999999999914e-05,3.484007749704354550e-07
5.000000000000000000e+02,5.100000000000000000e+02,0.000000000000000000e+00,0.000000000000000000e+00,2.133350999999999897e-05,3.717271849085025085e-07
5.100000000000000000e+02,5.200000000000000000e+02,0.000000000000000000e+00,0.000000000000000000e+00,2.295620999999999954e-05,3.868720718790644157e-07
5.200000000000000000e+02,5.300000000000000000e+02,0.000000000000000000e+00,0.000000000000000000e+00,2.487216000000000277e-05,4.078591668701342285e-07
5.300000000000000000e+02,5.400000000000000000e+02,0.000000000000000000e+00,0.000000000000000000e+00,2.702746999999999959e-05,4.253256399513201405e-07
5.400000000000000000e+02,5.500000000000000000e+02,0.000000000000000000e+00,0.000000000000000000e+00,3.059325000000000054e-05,4.586226117408517111e-07
5.500000000000000000e+02,5.600000000000000000e+02,0.000000000000000000e+00,0.000000000000000000e+00,3.234000999999999938e-05,4.735361654615199855e-07
5.600000000000000000e+02,5.700000000000000000e+02,0.000000000000000000e+00,0.000000000000000000e+00,3.528617999999999967e-05,4.951407880593154658e-07
5.700000000000000000e+02,5.800000000000000000e+02,0.000000000000000000e+00,0.000000000000000000e+00,3.784996000000000242e-05,5.170222432352403099e-07
5.800000000000000000e+02,5.900000000000000000e+02,0.000000000000000000e+00,0.000000000000000000e+00,4.151879999999999964e-05,5.451490621839130543e-07
5.900000000000000000e+02,6.000000000000000000e+02,0.000000000000000000e+00,0.000000000000000000e+00,4.441171000000000105e-05,5.660640423132350860e-07
6.000000000000000000e+02,6.100000000000000000e+02,0.000000000000000000e+00,0.000000000000000000e+00,5.010547000000000124e-05,6.279851909081933011e-07
6.100000000000000000e+02,6.200000000000000000e+02,0.000000000000000000e+00,0.000000000000000000e+00,5.920359999999999674e-05,8.891237259234509592e-07
6.200000000000000000e+02,6.300000000000000000e+02,0.000000000000000000e+00,0.000000000000000000e+00,6.998681000000000628e-05,8.332575832238192502e-07
6.300000000000000000e+02,6.400000000000000000e+02,0.000000000000000000e+00,0.000000000000000000e+00,7.807762999999999466e-05,8.743275701932313972e-07
6.400000000000000000e+02,6.500000000000000000e+02,0.000000000000000000e+00,0.000000000000000000e+00,9.050839999999999558e-05,9.113297427385983956e-07
6.500000000000000000e+02,6.600000000000000000e+02,0.000000000000000000e+00,0.000000000000000000e+00,1.030124000000000100e-04,1.111138605215388836e-06
6.600000000000000000e+02,6.700000000000000000e+02,0.000000000000000000e+00,0.000000000000000000e+00,1.159148000000000036e-04,1.054670564678847979e-06
6.700000000000000000e+02,6.800000000000000000e+02,0.000000000000000000e+00,0.000000000000000000e+00,1.277682000000000145e-04,1.120810421079318846e-06
6.800000000000000000e+02,6.900000000000000000e+02,0.000000000000000000e+00,0.000000000000000000e+00,1.422318000000000161e-04,1.193003771997389842e-06
6.900000000000000000e+02,7.000000000000000000e+02,0.000000000000000000e+00,0.000000000000000000e+00,1.587985000000000145e-04,1.270668328085657324e-06
7.000000000000000000e+02,7.100000000000000000e+02,0.000000000000000000e+00,0.000000000000000000e+00,1.773834000000000066e-04,1.350750902276211765e-06
7.100000000000000000e+02,7.200000000000000000e+02,0.000000000000000000e+00,0.000000000000000000e+00,1.967603000000000006e-04,1.403319635720957117e-06
7.200000000000000000e+02,7.300000000000000000e+02,0.000000000000000000e+00,0.000000000000000000e+00,2.191100999999999878e-04,1.479482341902058516e-06
7.300000000000000000e+02,7.400000000000000000e+02,0.000000000000000000e+00,0.000000000000000000e+00,2.488289999999999990e-04,1.589098801207779035e-06
7.400000000000000000e+02,7.500000000000000000e+02,0.000000000000000000e+00,0.000000000000000000e+00,2.751227999999999877e-04,1.659219394775748113e-06
7.500000000000000000e+02,7.600000000000000000e+02,0.000000000000000000e+00,0.000000000000000000e+00,3.144361999999999830e-04,1.775099433834623400e-06
7.600000000000000000e+02,7.700000000000000000e+02,0.000000000000000000e+00,0.000000000000000000e+00,3.631302999999999680e-04,1.920552524665753523e-06
7.700000000000000000e+02,7.800000000000000000e+02,0.000000000000000000e+00,0.000000000000000000e+00,4.145066999999999459e-04,2.060894223389448749e-06
7.800000000000000000e+02,7.900000000000000000e+02,0.000000000000000000e+00,0.000000000000000000e+00,5.171595000000000619e-04,2.302413516291111331e-06
7.900000000000000000e+02,8.000000000000000000e+02,0.000000000000000000e+00,0.000000000000000000e+00,6.202620000000000052e-04,2.521301053027979840e-06
8.000000000000000000e+02,8.100000000000000000e+02,0.000000000000000000e+00,0.000000000000000000e+00,7.275794000000000358e-04,2.731654809817667910e-06
8.100000000000000000e+02,8.200000000000000000e+02,0.000000000000000000e+00,0.000000000000000000e+00,8.346213000000000113e-04,2.937072692324791660e-06
8.200000000000000000e+02,8.300000000000000000e+02,0.000000000000000000e+00,0.000000000000000000e+00,9.507793000000000060e-04,3.139493111952947078e-06
8.300000000000000000e+02,8.400000000000000000e+02,0.000000000000000000e+00,0.000000000000000000e+00,1.091605000000000049e-03,3.368110746397748681e-06
8.400000000000000000e+02,8.500000000000000000e+02,0.000000000000000000e+00,0.000000000000000000e+00,1.254770000000000104e-03,3.627463300985965685e-06
8.500000000000000000e+02,8.600000000000000000e+02,0.000000000000000000e+00,0.000000000000000000e+00,1.440166000000000102e-03,3.888553715714879977e-06
8.600000000000000000e+02,8.700000000000000000e+02,0.000000000000000000e+00,0.000000000000000000e+00,1.651452999999999992e-03,4.175292804103683835e-06
8.700000000000000000e+02,8.800000000000000000e+02,0.000000000000000000e+00,0.000000000000000000e+00,1.883790000000000204e-03,4.460017937183661119e-06
8.800000000000000000e+02,8.900000000000000000e+02,0.000000000000000000e+00,0.000000000000000000e+00,2.174104999999999961e-03,4.801336272330859918e-06
8.900000000000000000e+02,9.000000000000000000e+02,0.000000000000000000e+00,0.000000000000000000e+00,2.494376999999999879e-03,5.153869420154143413e-06
9.000000000000000000e+02,9.100000000000000000e+02,0.000000000000000000e+00,0.000000000000000000e+00,2.893644999999999811e-03,5.553587129054517445e-06
9.100000000000000000e+02,9.200000000000000000e+02,0.000000000000000000e+00,0.000000000000000000e+00,3.360773000000000059e-03,5.991557393533004241e-06
9.200000000000000000e+02,9.300000000000000000e+02,0.000000000000000000e+00,0.000000000000000000e+00,3.940841999999999956e-03,6.498894521378232052e-06
9.300000000000000000e+02,9.400000000000000000e+02,0.000000000000000000e+00,0.000000000000000000e+00,4.675120999999999964e-03,7.083862646889760970e-06
9.400000000000000000e+02,9.500000000000000000e+02,0.000000000000000000e+00,0.000000000000000000e+00,5.604175000000000302e-03,7.759367886625817123e-06
9.500000000000000000e+02,9.600000000000000000e+02,0.000000000000000000e+00,0.000000000000000000e+00,6.866165999999999936e-03,8.590880630063487262e-06
9.600000000000000000e+02,9.700000000000000000e+02,0.000000000000000000e+00,0.000000000000000000e+00,8.606377000000000124e-03,9.646819683190933133e-06
9.700000000000000000e+02,9.800000000000000000e+02,0.000000000000000000e+00,0.000000000000000000e+00,1.103870000000000025e-02,1.086316712565907347e-05
9.800000000000000000e+02,9.900000000000000000e+02,0.000000000000000000e+00,0.000000000000000000e+00,1.492187000000000027e-02,1.274069071910938387e-05
9.900000000000000000e+02,1.000000000000000000e+03,0.000000000000000000e+00,0.000000000000000000e+00,2.123069999999999818e-02,1.549318559883666930e-05
1.000000000000000000e+03,1.010000000000000000e+03,0.000000000000000000e+00,0.000000000000000000e+00,1.895567999999999906e-02,1.439251541600703108e-05
1.010000000000000000e+03,1.020000000000000000e+03,7.361208999999999114e-02,2.659872177379958393e-05,1.663823999999999859e-01,4.279953270772941744e-05
