# xl,xh,LO,dLO,YFSLO,dYFSLO
2.000000000000000000e+02,2.050000000000000000e+02,0.000000000000000000e+00,0.000000000000000000e+00,2.133129999999999955e-04,1.927832357856875416e-06
2.050000000000000000e+02,2.100000000000000000e+02,0.000000000000000000e+00,0.000000000000000000e+00,2.528428000000000316e-04,2.168830099385380841e-06
2.100000000000000000e+02,2.150000000000000000e+02,0.000000000000000000e+00,0.000000000000000000e+00,3.164533999999999880e-04,2.410559271206580334e-06
2.150000000000000000e+02,2.200000000000000000e+02,0.000000000000000000e+00,0.000000000000000000e+00,4.193480000000000514e-04,2.858170043926708122e-06
2.200000000000000000e+02,2.250000000000000000e+02,0.000000000000000000e+00,0.000000000000000000e+00,5.382375999999999914e-04,3.216389901737660588e-06
2.250000000000000000e+02,2.300000000000000000e+02,8.839976000000000039e-08,4.015105478066547798e-08,6.764082000000000471e-04,3.596314224313553932e-06
2.300000000000000000e+02,2.350000000000000000e+02,1.645000599999999979e-06,1.756418515047025907e-07,8.282456000000000106e-04,4.066726939444054436e-06
2.350000000000000000e+02,2.400000000000000000e+02,1.024675200000000025e-05,4.253301306044517169e-07,9.901421999999999134e-04,4.414252371580039212e-06
2.400000000000000000e+02,2.450000000000000000e+02,2.895226000000000120e-05,7.120247186720415596e-07,1.187480600000000077e-03,4.860230858714429503e-06
2.450000000000000000e+02,2.500000000000000000e+02,6.327389999999999740e-05,1.052307179487054495e-06,1.401655400000000051e-03,5.265590944993733343e-06
2.500000000000000000e+02,2.550000000000000000e+02,1.111943999999999937e-04,1.393932423039223227e-06,1.657355400000000032e-03,5.764751859360470350e-06
2.550000000000000000e+02,2.600000000000000000e+02,1.843915800000000172e-04,1.797321896600606233e-06,1.933622399999999995e-03,6.255087529363597806e-06
2.600000000000000000e+02,2.650000000000000000e+02,2.969638000000000247e-04,2.282935829146321173e-06,2.287008000000000096e-03,6.835685773936657080e-06
2.650000000000000000e+02,2.700000000000000000e+02,4.938411999999999229e-04,2.952558212804617709e-06,2.757579999999999927e-03,7.569169042900282971e-06
2.700000000000000000e+02,2.750000000000000000e+02,1.178114599999999842e-03,4.604905210750814029e-06,3.692355999999999937e-03,8.909446671931988006e-06
2.750000000000000000e+02,2.800000000000000000e+02,2.944267999999999885e-03,7.373625973698421118e-06,5.504799999999999797e-03,1.103357421690722922e-05
2.800000000000000000e+02,2.850000000000000000e+02,3.782284000000000340e-03,8.380756529096881557e-06,6.438807999999999858e-03,1.193668630734677442e-05
2.850000000000000000e+02,2.900000000000000000e+02,4.335340000000000027e-03,8.982004230682591697e-06,7.078141999999999941e-03,1.251681109548274639e-05
2.900000000000000000e+02,2.950000000000000000e+02,4.854843999999999653e-03,9.507085778512782600e-06,7.701557999999999841e-03,1.306007810083844602e-05
2.950000000000000000e+02,3.000000000000000000e+02,5.395129999999999718e-03,9.996861507493240174e-06,8.272379999999999317e-03,1.352970214010640932e-05
3.000000000000000000e+02,3.050000000000000000e+02,5.934029999999999860e-03,1.049507122415088739e-05,8.912588000000000801e-03,1.402562226783539260e-05
3.050000000000000000e+02,3.100000000000000000e+02,6.516749999999999973e-03,1.099402746949451701e-05,9.520565999999999404e-03,1.452132500841434848e-05
3.100000000000000000e+02,3.150000000000000000e+02,7.129444000000000406e-03,1.150307784899328519e-05,1.019093999999999903e-02,1.503081235329614598e-05
3.150000000000000000e+02,3.200000000000000000e+02,7.769594000000000326e-03,1.199263940923765064e-05,1.085402799999999994e-02,1.550327965302825708e-05
3.200000000000000000e+02,3.250000000000000000e+02,8.481621999999999426e-03,1.255083582874064997e-05,1.164517999999999977e-02,1.609344835639646014e-05
3.250000000000000000e+02,3.300000000000000000e+02,9.238467999999999680e-03,1.310339650624982010e-05,1.242243200000000061e-02,1.656308666885493089e-05
3.300000000000000000e+02,3.350000000000000000e+02,1.011575999999999968e-02,1.371039897304232331e-05,1.329329200000000169e-02,1.714478929587645757e-05
3.350000000000000000e+02,3.400000000000000000e+02,1.103266400000000105e-02,1.431745368422751204e-05,1.424341200000000043e-02,1.775620004392831908e-05
3.400000000000000000e+02,3.450000000000000000e+02,1.211578999999999955e-02,1.501694509545799914e-05,1.530561199999999969e-02,1.841585512540756250e-05
3.450000000000000000e+02,3.500000000000000000e+02,1.337505400000000080e-02,1.578969917382848722e-05,1.650990199999999991e-02,1.912917039497531325e-05
3.500000000000000000e+02,3.550000000000000000e+02,1.481614800000000121e-02,1.662345571775014375e-05,1.792268999999999807e-02,1.994732563528254005e-05
3.550000000000000000e+02,3.600000000000000000e+02,1.655674600000000066e-02,1.758559296697157043e-05,1.945452400000000082e-02,2.080386502551869382e-05
3.600000000000000000e+02,3.650000000000000000e+02,1.876956399999999900e-02,1.874039594032100628e-05,2.141290000000000207e-02,2.186354042692994294e-05
3.650000000000000000e+02,3.700000000000000000e+02,2.169096000000000218e-02,2.015706327816629002e-05,2.369042000000000023e-02,2.304197908166744378e-05
3.700000000000000000e+02,3.750000000000000000e+02,2.589235999999999621e-02,2.202927143597808670e-05,2.646086000000000271e-02,2.441305388516561823e-05
3.750000000000000000e+02,3.800000000000000000e+02,2.905552000000000135e-02,2.344601458670535042e-05,2.856505999999999629e-02,2.540374775500654512e-05
3.800000000000000000e+02,3.850000000000000000e+02,2.922925999999999996e-02,2.355321634087370226e-05,2.890565999999999969e-02,2.552130090728135293e-05
3.850000000000000000e+02,3.900000000000000000e+02,2.912832000000000268e-02,2.352120745199956603e-05,2.978040000000000201e-02,2.584834230661610410e-05
3.900000000000000000e+02,3.950000000000000000e+02,2.908712000000000103e-02,2.351890303564347604e-05,2.992882000000000181e-02,2.588297509947417473e-05
3.950000000000000000e+02,4.000000000000000000e+02,2.907633999999999913e-02,2.353051635642532986e-05,2.969158000000000214e-02,2.576760757229898605e-05
4.000000000000000000e+02,4.050000000000000000e+02,2.893541999999999989e-02,2.348217196087278377e-05,2.948567999999999675e-02,2.566573591385994333e-05
4.050000000000000000e+02,4.100000000000000000e+02,2.885456000000000132e-02,2.346397238320911425e-05,2.922199999999999798e-02,2.553479978382442695e-05
4.100000000000000000e+02,4.150000000000000000e+02,2.872792000000000054e-02,2.342725762866836254e-05,2.887173999999999990e-02,2.536995861250073325e-05
4.150000000000000000e+02,4.200000000000000000e+02,2.857495999999999994e-02,2.338331884057522173e-05,2.851491999999999916e-02,2.521701013205173851e-05
4.200000000000000000e+02,4.250000000000000000e+02,2.841355999999999743e-02,2.332042023635080090e-05,2.813957999999999737e-02,2.504479985945185812e-05
4.250000000000000000e+02,4.300000000000000000e+02,2.822841999999999713e-02,2.324862146450838282e-05,2.767727999999999855e-02,2.484993360152094654e-05
4.300000000000000000e+02,4.350000000000000000e+02,2.793514000000000413e-02,2.315682188902440814e-05,2.718235999999999916e-02,2.461500355474279092e-05
4.350000000000000000e+02,4.400000000000000000e+02,2.758833999999999939e-02,2.303297635999307738e-05,2.656354000000000354e-02,2.433238171655212182e-05
4.400000000000000000e+02,4.450000000000000000e+02,2.714969999999999883e-02,2.284754691427506455e-05,2.589150000000000132e-02,2.403802820532499363e-05
4.450000000000000000e+02,4.500000000000000000e+02,2.652668000000000387e-02,2.261764797674594682e-05,2.496028000000000135e-02,2.359139673694628911e-05
4.500000000000000000e+02,4.550000000000000000e+02,2.567731999999999654e-02,2.228507123614371750e-05,2.384640000000000024e-02,2.307330925550125719e-05
4.550000000000000000e+02,4.600000000000000000e+02,2.447701999999999864e-02,2.180872302543181832e-05,2.232759999999999953e-02,2.234111008880265904e-05
4.600000000000000000e+02,4.650000000000000000e+02,2.258476000000000233e-02,2.101651731377013918e-05,2.031416000000000124e-02,2.134938875003216370e-05
4.650000000000000000e+02,4.700000000000000000e+02,1.948911799999999972e-02,1.967071833970483063e-05,1.710474000000000022e-02,1.963280825557057015e-05
4.700000000000000000e+02,4.750000000000000000e+02,1.309897800000000070e-02,1.666740771685867235e-05,1.112342600000000049e-02,1.590003018865058403e-05
4.750000000000000000e+02,4.800000000000000000e+02,1.390610600000000011e-03,6.270359160367131406e-06,1.277944800000000098e-03,5.420002214021687827e-06
4.800000000000000000e+02,4.850000000000000000e+02,8.257051999999999629e-06,5.930792189918644471e-07,4.929227999999999420e-05,1.037798631720046243e-06
4.850000000000000000e+02,4.900000000000000000e+02,0.000000000000000000e+00,0.000000000000000000e+00,2.554310000000000113e-06,2.376721270994981510e-07
4.900000000000000000e+02,4.950000000000000000e+02,0.000000000000000000e+00,0.000000000000000000e+00,0.000000000000000000e+00,0.000000000000000000e+00
4.950000000000000000e+02,5.000000000000000000e+02,0.000000000000000000e+00,0.000000000000000000e+00,0.000000000000000000e+00,0.000000000000000000e+00
