# xl,xh,LO,dLO,LOwvp,dLOwvp,PS+LOnovp,dPS+LOnovp,PS+LO,dPS+LO
0.52,0.5622,0.01071871789,7.1618206e-05,0.01127655634,7.534883895e-05,0.0007420781009,0.0004307887936,4.314036128e-05,0.0004458185688
0.5622,0.6044,0.03268341309,0.00012504466,0.03424252885,0.0001312870025,0.01066265576,0.0006921319436,0.01177277517,0.000723190178
0.6044,0.6466,0.07358457132,0.0001875868712,0.07696952474,0.0001967915223,0.0527114858,0.0009379609191,0.05436502768,0.0009840968868
0.6466,0.6888,0.5061774131,0.000490882994,0.533670861,0.00051701157,0.3932557666,0.001816431524,0.4097794107,0.001896435113
0.6888,0.731,0.5120421583,0.0004937034397,0.5403461067,0.0005202176686,0.4063485428,0.001862316006,0.4278855027,0.001942058901
0.731,0.7732,0.45913785,0.0004676330743,0.4847294452,0.0004928546042,0.3587482677,0.001783702517,0.3793014847,0.001869718283
0.7732,0.8154,0.4091305962,0.0004415483654,0.4331404945,0.000466009451,0.3167907452,0.001723315916,0.3322841854,0.001807233161
0.8154,0.8576,0.3658635599,0.0004176430704,0.3871516511,0.0004406766612,0.2759480069,0.001666775146,0.2913409225,0.001736521241
0.8576,0.8998,0.3292141668,0.0003962491205,0.3474467504,0.0004175506914,0.2482882535,0.001598684704,0.2625778228,0.001696111851
0.8998,0.942,0.2963541333,0.0003760185584,0.3128954099,0.0003963136127,0.219965517,0.001551727769,0.2328554929,0.001622418322
0.942,0.9842,0.2679083426,0.0003575702768,0.2829214366,0.0003769093298,0.198090365,0.001493108693,0.2085106274,0.001547000063
0.9842,1.0264,0.2434445038,0.0003408974779,0.2565252237,0.0003589430614,0.1823214896,0.00142282579,0.1894456844,0.001527318327
1.0264,1.0686,0.2215967329,0.0003252781225,0.2349920717,0.0003435845936,0.1667361442,0.001361365738,0.17431058,0.001420333878
1.0686,1.1108,0.2033594097,0.0003116355601,0.2151527078,0.000328793227,0.1529312446,0.00130391539,0.1635075266,0.00136390547
1.1108,1.153,0.1874980167,0.000299260426,0.1983825428,0.0003157458373,0.1446319676,0.001245780978,0.1483645073,0.001297361391
1.153,1.1952,0.1727820722,0.0002872986318,0.1837427916,0.00030389421,0.1335036121,0.001202497767,0.1409693823,0.001246005372
1.1952,1.2374,0.1601902042,0.0002766499873,0.1702183452,0.0002925158549,0.1261984643,0.001140973284,0.1334018298,0.001179335674
1.2374,1.2796,0.1491119446,0.0002669281461,0.1593048343,0.0002829985253,0.1192870246,0.001065507456,0.1275570338,0.001133510859
1.2796,1.3218,0.1404279665,0.0002590505377,0.1484983123,0.0002732460325,0.1126935505,0.001025712153,0.1190618488,0.001088693336
1.3218,1.364,0.1314475608,0.0002506423432,0.1392761405,0.0002646374122,0.1076874397,0.0009755921077,0.1138758599,0.001022705412
1.364,1.4062,0.1242740299,0.0002437162093,0.1318505707,0.0002574956422,0.1027801556,0.0009837880777,0.109219664,0.0009775767402
1.4062,1.4484,0.1185948057,0.0002380893734,0.1254727454,0.0002511989456,0.1012141882,0.0009073781003,0.1070817424,0.0009459834088
1.4484,1.4906,0.1158305389,0.0002353016475,0.1220826381,0.0002477860496,0.1006437247,0.0008794142498,0.1076577217,0.0009308227325
1.4906,1.5328,0.1112221207,0.0002305786713,0.1183965124,0.0002440211848,0.1011431164,0.001475279883,0.1031647927,0.0009031840049
1.5328,1.575,0.1010841378,0.0002198306974,0.1065996789,0.0002315587337,0.08888513193,0.0008133520651,0.09462261462,0.0008600181129
1.575,1.6172,0.09378917671,0.0002117579575,0.09936486854,0.0002235707611,0.08278904022,0.0007783408445,0.08997567553,0.0008299999393
1.6172,1.6594,0.09086927416,0.0002084386378,0.09598222239,0.0002197360882,0.08023701844,0.0007601862794,0.08639606234,0.0008089964052
1.6594,1.7016,0.07968936036,0.0001952070703,0.08495396599,0.000206738631,0.07113816748,0.0007127207727,0.07573713039,0.0007573461302
1.7016,1.7438,0.07100834398,0.0001842762837,0.07584981832,0.0001953613401,0.064578047,0.0006796289564,0.06863454363,0.0007180977203
1.7438,1.786,0.06501801558,0.0001763377466,0.06910527953,0.0001864743552,0.05818664321,0.0006443941615,0.06185150611,0.0006806845049
1.786,1.8282,0.05960858208,0.0001688475524,0.06306806512,0.0001781482438,0.0533050898,0.000616652902,0.05653132467,0.0006492942604
1.8282,1.8704,0.05477028869,0.0001618543323,0.0585207104,0.0001716095601,0.04894891561,0.0005911789102,0.0510558123,0.000617512585
1.8704,1.9126,0.05087365431,0.0001559936212,0.05387119182,0.0001646551699,0.04629428699,0.0005726280909,0.04887434119,0.0006015495322
1.9126,1.9548,0.04686852797,0.0001497305633,0.05031914148,0.0001591367589,0.04198534695,0.0005449744407,0.04493319615,0.0005779409663
1.9548,1.997,0.04341800063,0.0001441161346,0.04620328258,0.0001524927224,0.03916081681,0.0005251939383,0.0411481342,0.0005506772425
1.997,2.0392,0.04008466579,0.000138475883,0.04287592069,0.0001469015534,0.03721351204,0.0005100593927,0.0382576981,0.0005303559545
2.0392,2.0814,0.03705854807,0.0001331483169,0.03900980776,0.0001401247253,0.03317047543,0.0004827153508,0.03552887932,0.000509910554
2.0814,2.1236,0.03411545342,0.0001277540243,0.03604511719,0.0001346969741,0.03082851158,0.0004656100153,0.03327198292,0.0004961280083
2.1236,2.1658,0.03117741708,0.0001221308907,0.03315804328,0.0001291922026,0.02845319019,0.0004462552794,0.03011080719,0.0004705152677
2.1658,2.208,0.02865431084,0.0001170862063,0.03050433506,0.0001239161368,0.02639758349,0.0004285671851,0.02736952466,0.0004470960208
2.208,2.2502,0.02617729769,0.000111912767,0.0278736137,0.0001184545683,0.02408332626,0.0004081924276,0.02514907098,0.0004283212057
2.2502,2.2924,0.02395279053,0.0001070531941,0.02516846027,0.000112560735,0.0213262061,0.0003843946973,0.02225903304,0.0004036899802
2.2924,2.3346,0.02132584885,0.0001010137287,0.02265835678,0.0001068017028,0.01959073639,0.0003679567517,0.0209096926,0.0003887262383
2.3346,2.3768,0.01909192421,9.557799631e-05,0.02027726448,0.0001010357523,0.01703807664,0.0003421837923,0.01817171433,0.0003621144489
2.3768,2.419,0.01689571764,8.991378565e-05,0.01764508633,9.425082003e-05,0.01439676492,0.0003143750233,0.01627042766,0.0003422402388
2.419,2.4612,0.01443867067,8.31202176e-05,0.01512048825,8.724945415e-05,0.01307632187,0.0002989660197,0.013496546,0.0003117627556
2.4612,2.5034,0.009822814741,6.85601841e-05,0.01046178265,7.257576851e-05,0.008855953562,0.0002462783016,0.009629076172,0.0002635267818
2.5034,2.5456,0.003294057886,3.970404225e-05,0.003500037887,4.197990408e-05,0.003131262786,0.0001463126852,0.003252648327,0.0001538213018
2.5456,2.5878,0.001679323842,2.834907074e-05,0.001767394445,2.983156189e-05,0.001415788882,9.910639128e-05,0.001751519626,0.0001137113344
2.5878,2.63,0.0003780813433,1.345149865e-05,0.0003776404878,1.378944982e-05,0.0003607775388,4.955657941e-05,0.0003431327255,4.952691236e-05
