# xl,xh,LO,dLO,LOwvp,dLOwvp,PS+LOnovp,dPS+LOnovp,PS+LO,dPS+LO
0,0.005,54.08131812,0.01427755105,57.21448803,0.01506167568,28.36235788,0.05014335724,30.03591735,0.0524612889
0.005,0.01,0,0,0,0,1.563268073,0.01021906126,1.62960222,0.01096650666
0.01,0.015,0,0,0,0,1.15603331,0.008585938849,1.210256736,0.009153011467
0.015,0.02,0,0,0,0,1.055292441,0.00803278252,1.115817212,0.008547782307
0.02,0.025,0,0,0,0,0.9889391428,0.007613903805,1.016192907,0.007906878582
0.025,0.03,0,0,0,0,0.826541734,0.006933346441,0.8755090175,0.007292203441
0.03,0.035,0,0,0,0,0.6989179366,0.006356475748,0.7400627268,0.006713761409
0.035,0.04,0,0,0,0,0.6131448926,0.005970005579,0.6327733523,0.006199597739
0.04,0.045,0,0,0,0,0.5339069138,0.005561853089,0.5658860774,0.005872672829
0.045,0.05,0,0,0,0,0.4743875629,0.00522927418,0.4956352228,0.005494064666
0.05,0.055,0,0,0,0,0.4258608383,0.004967563357,0.4503238348,0.005231870892
0.055,0.06,0,0,0,0,0.381144032,0.004708910988,0.400086078,0.004933387791
0.06,0.065,0,0,0,0,0.3505264021,0.004503376262,0.359160769,0.004669849639
0.065,0.07,0,0,0,0,0.3228983847,0.004321066564,0.3429638628,0.004563677636
0.07,0.075,0,0,0,0,0.2947754294,0.004145077786,0.3120395495,0.004353126549
0.075,0.08,0,0,0,0,0.280192737,0.004023594592,0.2949936635,0.004232609461
0.08,0.085,0,0,0,0,0.2609218169,0.003891509906,0.2626883019,0.004003153559
0.085,0.09,0,0,0,0,0.2391392121,0.003721930683,0.254333131,0.003930599197
0.09,0.095,0,0,0,0,0.2223101933,0.003595413234,0.2352144566,0.003773854191
0.095,0.1,0,0,0,0,0.2061220736,0.003450704877,0.2200579736,0.003654305343
0.1,0.105,0,0,0,0,0.1946592311,0.003387311397,0.2087786232,0.003559544853
0.105,0.11,0,0,0,0,0.1863884977,0.003281735321,0.1976011772,0.003486713854
0.11,0.115,0,0,0,0,0.1780021562,0.003208662051,0.1864774595,0.003364353599
0.115,0.12,0,0,0,0,0.1680512678,0.003142656504,0.179620724,0.003301452225
0.12,0.125,0,0,0,0,0.1607630815,0.0030616915,0.1683335143,0.003208948098
0.125,0.13,0,0,0,0,0.1526034389,0.002974422845,0.1583274344,0.003096918577
0.13,0.135,0,0,0,0,0.1476153669,0.002921362442,0.1442885185,0.00295714358
0.135,0.14,0,0,0,0,0.1395005027,0.002862935741,0.1399724585,0.002909421631
0.14,0.145,0,0,0,0,0.1303845354,0.002857955893,0.1321266156,0.002825178144
0.145,0.15,0,0,0,0,0.1241042775,0.002674511542,0.1273411833,0.002787049392
0.15,0.155,0,0,0,0,0.1158109005,0.002586708027,0.1200995308,0.00270077461
0.155,0.16,0,0,0,0,0.1112915627,0.002534121288,0.1151571424,0.002640962499
0.16,0.165,0,0,0,0,0.1061363347,0.00248004344,0.1091233537,0.002572731146
0.165,0.17,0,0,0,0,0.105728282,0.002472473898,0.1062693506,0.002545151977
0.17,0.175,0,0,0,0,0.09775865473,0.002404846802,0.1048084,0.00252064271
0.175,0.18,0,0,0,0,0.09592419359,0.002358783086,0.09858140019,0.002462711358
0.18,0.185,0,0,0,0,0.08623854674,0.0022361719,0.09132713841,0.002352616592
0.185,0.19,0,0,0,0,0.08812578169,0.00225751138,0.08617277731,0.002290087434
0.19,0.195,0,0,0,0,0.08332218502,0.00219309614,0.08547156313,0.002286676547
0.195,0.2,0,0,0,0,0.07949812411,0.002145987449,0.08502612677,0.002274362447
0.2,0.205,0,0,0,0,0.0767933089,0.002102452927,0.07868294647,0.002185329585
0.205,0.21,0,0,0,0,0.07408500607,0.002069429952,0.07639945205,0.002154829334
0.21,0.215,0,0,0,0,0.07139612973,0.002047831686,0.07251335529,0.002102776065
0.215,0.22,0,0,0,0,0.07154815658,0.00204154325,0.07042990419,0.002062943962
0.22,0.225,0,0,0,0,0.0633052058,0.001911714473,0.07044364535,0.002070839346
0.225,0.23,0,0,0,0,0.06412595119,0.001920829073,0.06998964759,0.002062710019
0.23,0.235,0,0,0,0,0.06205095591,0.001890504336,0.06307891892,0.00195650335
0.235,0.24,0,0,0,0,0.05920263043,0.001914739048,0.0609967256,0.001919750194
0.24,0.245,0,0,0,0,0.057351589,0.001818305434,0.0633929676,0.001965976757
0.245,0.25,0,0,0,0,0.05533959704,0.001787868087,0.05613250458,0.00184481242
0.25,0.255,0,0,0,0,0.05929900033,0.001849899868,0.06021503504,0.001932077118
0.255,0.26,0,0,0,0,0.05497719732,0.001779542464,0.05374872326,0.001812160397
0.26,0.265,0,0,0,0,0.04978032786,0.001693383528,0.05239429855,0.001784213205
0.265,0.27,0,0,0,0,0.06008009341,0.01024052023,0.05220418951,0.001777954944
0.27,0.275,0,0,0,0,0.04676239586,0.001647564581,0.04953707939,0.001737279442
0.275,0.28,0,0,0,0,0.04103553561,0.001540595193,0.04964643442,0.00174450464
0.28,0.285,0,0,0,0,0.04605257164,0.001634615047,0.04508479153,0.00165385924
0.285,0.29,0,0,0,0,0.04374415708,0.001587733141,0.04595011582,0.001667545313
0.29,0.295,0,0,0,0,0.04144340707,0.001547352733,0.04326161172,0.001621312845
0.295,0.3,0,0,0,0,0.03720039466,0.001462620909,0.04251333169,0.001606523005
