# xl,xh,LO,dLO,LOwvp,dLOwvp,PS+LOnovp,dPS+LOnovp,PS+LO,dPS+LO
0,40,0,0,0,0,0,0,0,0
40,80,0,0,0,0,0,0,0,0
80,120,0,0,0,0,0,0,0,0
120,160,0,0,0,0,0,0,0,0
160,200,0,0,0,0,0,0,0,0
200,240,0,0,0,0,0,0,0,0
240,280,0,0,0,0,0,0,0,0
280,320,0,0,0,0,0,0,0,0
320,360,0,0,0,0,0,0,0,0
360,400,0,0,0,0,0,0,0,0
400,440,0,0,0,0,0,0,0,0
440,480,0,0,0,0,0,0,0,0
480,520,3.005959089e-06,6.492497012e-09,3.138599811e-06,6.862017628e-09,3.020604879e-06,1.819205618e-08,3.153202545e-06,1.906949562e-08
520,560,3.961587814e-06,7.452096072e-09,4.137469604e-06,7.880856025e-09,3.981681392e-06,2.088099133e-08,4.110468251e-06,2.177224514e-08
560,600,4.064858457e-06,7.548458482e-09,4.222304764e-06,7.957645342e-09,4.074058904e-06,2.112209273e-08,4.228337557e-06,2.2082589e-08
600,640,4.166869031e-06,7.646549596e-09,4.34785906e-06,8.07480585e-09,4.125163161e-06,2.125369877e-08,4.36285174e-06,2.243066312e-08
640,680,4.242404651e-06,7.714393651e-09,4.425870358e-06,8.148471751e-09,4.242206026e-06,2.155642282e-08,4.428957944e-06,2.260041688e-08
680,720,4.329425517e-06,7.790113515e-09,4.523585635e-06,8.237321369e-09,4.347635661e-06,2.182166646e-08,4.484725513e-06,2.27433147e-08
720,760,4.419884143e-06,7.871336336e-09,4.593540575e-06,8.301519125e-09,4.4048859e-06,2.196353306e-08,4.562988135e-06,2.361311278e-08
760,800,4.49676869e-06,7.93913079e-09,4.682380238e-06,8.382501601e-09,4.47722493e-06,2.215229904e-08,4.673303274e-06,2.321762148e-08
800,840,4.548186312e-06,7.985956833e-09,4.735053047e-06,8.426820629e-09,4.574948631e-06,2.240433755e-08,4.732878656e-06,2.336576172e-08
840,880,4.606350618e-06,8.360746477e-09,4.807948342e-06,8.492108873e-09,4.642132965e-06,2.255241233e-08,4.783927702e-06,2.349127066e-08
880,920,4.68775256e-06,8.1070339e-09,4.87137215e-06,8.550607107e-09,4.657382564e-06,2.258461469e-08,4.904076287e-06,2.378252936e-08
920,960,4.731996026e-06,8.144871709e-09,4.933032596e-06,8.603900592e-09,4.747504027e-06,2.280894582e-08,4.935820992e-06,2.386182625e-08
960,1000,4.769484328e-06,8.180010321e-09,4.976753948e-06,8.644363339e-09,4.780007386e-06,2.288136818e-08,4.990371697e-06,2.399605432e-08
1000,1040,4.827843132e-06,8.248586275e-09,5.019848312e-06,8.677909993e-09,4.838498112e-06,2.303392031e-08,5.069557267e-06,2.418655919e-08
1040,1080,4.878098315e-06,8.27020135e-09,5.070412241e-06,8.724703051e-09,4.890114571e-06,2.324464724e-08,5.090419098e-06,2.430635902e-08
1080,1120,4.943863818e-06,8.346598784e-09,5.125716353e-06,8.767825857e-09,4.917547523e-06,2.321275015e-08,5.112643772e-06,2.428523562e-08
1120,1160,4.985923586e-06,8.361132478e-09,5.184061533e-06,8.819630872e-09,4.950631005e-06,2.329255537e-08,5.210379046e-06,2.452345547e-08
1160,1200,5.030747419e-06,8.539319202e-09,5.221598444e-06,8.861955584e-09,5.047352328e-06,2.355025896e-08,5.244142942e-06,2.461026479e-08
1200,1240,5.06526401e-06,8.437547778e-09,5.272638056e-06,8.895393581e-09,5.06705593e-06,2.358424168e-08,5.272148769e-06,2.467600616e-08
1240,1280,5.1120051e-06,8.468685467e-09,5.330164599e-06,8.957322065e-09,5.132098384e-06,2.372299646e-08,5.30823983e-06,2.477463804e-08
1280,1320,5.156078709e-06,8.504103116e-09,5.355252826e-06,8.967063826e-09,5.128588665e-06,2.378771078e-08,5.351757196e-06,2.485454907e-08
1320,1360,5.206209082e-06,8.546919659e-09,5.411109334e-06,9.015978682e-09,5.226917984e-06,2.402558478e-08,5.393812841e-06,2.503594099e-08
1360,1400,5.22655702e-06,8.573567833e-09,5.449088945e-06,9.042723042e-09,5.268284505e-06,2.412989067e-08,5.488471208e-06,2.519701221e-08
1400,1440,5.266702873e-06,8.593859804e-09,5.492834343e-06,9.080346035e-09,5.235935012e-06,2.395293715e-08,5.499736231e-06,2.521337307e-08
1440,1480,5.324193289e-06,8.657444175e-09,5.521575972e-06,9.107107379e-09,5.328078055e-06,2.421927774e-08,5.508633671e-06,2.522115736e-08
1480,1520,5.357536955e-06,8.730271281e-09,5.565476223e-06,9.16255021e-09,5.321883189e-06,2.419919771e-08,5.601558104e-06,2.544245237e-08
1520,1560,5.423507267e-06,8.844438865e-09,5.601532692e-06,9.172733223e-09,5.363896675e-06,2.431347843e-08,5.565280868e-06,2.537837299e-08
1560,1600,5.442720974e-06,8.742041837e-09,5.672509964e-06,9.284995692e-09,5.453649936e-06,2.453886004e-08,5.722717875e-06,2.59404057e-08
1600,1640,5.501189624e-06,8.801885272e-09,5.709225054e-06,9.267891734e-09,5.489026755e-06,2.454715802e-08,5.731132247e-06,2.573996671e-08
1640,1680,5.545500073e-06,9.746348193e-09,5.777188548e-06,9.369675459e-09,5.560238297e-06,2.471390333e-08,5.787236553e-06,2.587159981e-08
1680,1720,5.59544327e-06,8.872051011e-09,5.821014183e-06,9.360590035e-09,5.596761356e-06,2.477085431e-08,5.797924791e-06,2.589087052e-08
1720,1760,5.637481903e-06,8.912619033e-09,5.860346383e-06,9.381238796e-09,5.671964821e-06,2.565623147e-08,5.879770342e-06,2.611199866e-08
1760,1800,5.684337655e-06,8.96504755e-09,5.928205516e-06,9.438447328e-09,5.719708063e-06,2.546338354e-08,5.933011371e-06,2.627410667e-08
1800,1840,5.737972477e-06,9.009593603e-09,5.979048448e-06,9.546933642e-09,5.73575394e-06,2.510687354e-08,5.953606515e-06,2.623869465e-08
1840,1880,5.812657389e-06,9.038047034e-09,6.030781926e-06,9.528692667e-09,5.852862302e-06,2.535004959e-08,5.980212133e-06,2.635617792e-08
1880,1920,5.885132776e-06,9.103194421e-09,6.092692709e-06,9.602910547e-09,5.851396878e-06,2.539194102e-08,6.032923942e-06,2.642473181e-08
1920,1960,5.909830699e-06,9.121186149e-09,6.162371024e-06,9.65171472e-09,5.88001676e-06,2.544219738e-08,6.167768814e-06,2.697014541e-08
1960,2000,5.977667303e-06,9.188744786e-09,6.234643109e-06,9.690330652e-09,5.969802983e-06,2.581914866e-08,6.214180405e-06,2.682881292e-08
2000,2040,5.312336322e-06,8.657147714e-09,5.536214801e-06,9.138379279e-09,5.323793258e-06,2.423221677e-08,5.518147033e-06,2.546651989e-08
2040,2080,4.983733462e-06,8.38655784e-09,5.196256359e-06,8.885084394e-09,4.984296492e-06,2.351787643e-08,5.198774882e-06,2.569880895e-08
2080,2120,4.852724955e-06,8.271244703e-09,5.04285717e-06,8.722839437e-09,4.833693637e-06,2.326035854e-08,5.019434641e-06,2.419236835e-08
2120,2160,4.743219079e-06,8.186916788e-09,4.937454874e-06,8.637334515e-09,4.728416555e-06,2.310261718e-08,4.92832774e-06,2.396556199e-08
2160,2200,4.666694386e-06,8.444438361e-09,4.858721888e-06,8.57147197e-09,4.64884709e-06,2.272652673e-08,4.856988891e-06,2.399069484e-08
2200,2240,4.612109896e-06,8.104074956e-09,4.797082772e-06,8.524022023e-09,4.575944245e-06,2.259367673e-08,4.776429499e-06,2.363946728e-08
2240,2280,4.551316567e-06,8.025650274e-09,4.733011267e-06,8.511085626e-09,4.567251189e-06,2.324277698e-08,4.736517047e-06,2.360264606e-08
2280,2320,4.506440556e-06,8.016903284e-09,4.687131424e-06,8.434792512e-09,4.55222319e-06,2.250364125e-08,4.658769153e-06,2.357561949e-08
2320,2360,4.464978461e-06,7.955835913e-09,4.65903988e-06,8.423757651e-09,4.470777196e-06,2.252610999e-08,4.647527418e-06,2.334585682e-08
2360,2400,4.418283882e-06,7.936566757e-09,4.606179648e-06,8.367952641e-09,4.462069016e-06,2.243970623e-08,4.632781504e-06,2.412684875e-08
2400,2440,4.401555173e-06,7.966875822e-09,4.607164379e-06,8.57783907e-09,4.361750382e-06,2.219433646e-08,4.590401207e-06,2.374813443e-08
2440,2480,4.378279751e-06,7.976614218e-09,4.549071504e-06,8.493411503e-09,4.426204882e-06,2.228324196e-08,4.569353333e-06,2.32241078e-08
2480,2520,4.354128408e-06,7.878844927e-09,4.53424372e-06,8.276379616e-09,4.327618337e-06,2.187874126e-08,4.561093098e-06,2.316663866e-08
2520,2560,4.344485569e-06,7.805478638e-09,4.512177666e-06,8.227907764e-09,4.319143314e-06,2.177755166e-08,4.516128849e-06,2.287543559e-08
2560,2600,4.327703088e-06,7.788373312e-09,4.499023315e-06,8.213792427e-09,4.32737746e-06,2.177818218e-08,4.465778348e-06,2.270263276e-08
2600,2640,4.284381793e-06,7.749257903e-09,4.472654892e-06,8.189601907e-09,4.315045936e-06,2.173862826e-08,4.489555728e-06,2.275695309e-08
2640,2680,4.286205314e-06,7.750902942e-09,4.452625619e-06,8.171261783e-09,4.260628265e-06,2.160046895e-08,4.444003727e-06,2.263921262e-08
2680,2720,4.26927499e-06,7.735602489e-09,4.450072961e-06,8.168922401e-09,4.262131513e-06,2.160343429e-08,4.416399456e-06,2.256834941e-08
2720,2760,4.276098435e-06,7.741773195e-09,4.431854837e-06,8.152209081e-09,4.284761445e-06,2.166057351e-08,4.481299958e-06,2.273337058e-08
2760,2800,4.262636143e-06,7.729595833e-09,4.440489813e-06,8.160133854e-09,4.26786711e-06,2.161775782e-08,4.417034022e-06,2.256934487e-08
2800,2840,4.249356953e-06,7.717564292e-09,4.433701852e-06,8.153904388e-09,4.268192708e-06,2.161857655e-08,4.436626204e-06,2.261928628e-08
2840,2880,4.255096973e-06,7.722766273e-09,4.429737478e-06,8.150263749e-09,4.272035158e-06,2.162832544e-08,4.427155355e-06,2.259510407e-08
2880,2920,4.248430049e-06,7.716724693e-09,4.424977444e-06,8.145891202e-09,4.220229475e-06,2.149680328e-08,4.41457909e-06,2.256298293e-08
2920,2960,4.253510885e-06,7.721329773e-09,4.429422917e-06,8.149975924e-09,4.278711743e-06,2.164520743e-08,4.442145305e-06,2.263330323e-08
2960,3000,4.241664211e-06,7.710586777e-09,4.41392353e-06,8.135724496e-09,4.285608166e-06,2.166263312e-08,4.400741173e-06,2.252760704e-08
3000,3040,4.254563692e-06,7.722284057e-09,4.435999158e-06,8.156012446e-09,4.277172952e-06,2.164130089e-08,4.41573731e-06,2.256595346e-08
3040,3080,4.255757509e-06,7.723365658e-09,4.425472736e-06,8.146345125e-09,4.226802051e-06,2.151353713e-08,4.414120159e-06,2.256181648e-08
3080,3120,4.254802899e-06,7.722501333e-09,4.457777827e-06,8.175981036e-09,4.2571376e-06,2.159058318e-08,4.418042848e-06,2.257184186e-08
3120,3160,4.268053571e-06,7.734497381e-09,4.439228664e-06,8.158976676e-09,4.290978358e-06,2.167620809e-08,4.448726418e-06,2.265007538e-08
3160,3200,4.280842177e-06,7.746059543e-09,4.464069201e-06,8.181738318e-09,4.245640647e-06,2.156142058e-08,4.452415665e-06,2.265946144e-08
3200,3240,4.292380822e-06,7.756473925e-09,4.45709887e-06,8.175356594e-09,4.287804678e-06,2.166819907e-08,4.455410511e-06,2.266706738e-08
3240,3280,4.303555268e-06,7.766549592e-09,4.470722744e-06,8.187825368e-09,4.336210282e-06,2.179013348e-08,4.46567608e-06,2.269316155e-08
3280,3320,4.3122307e-06,7.77436224e-09,4.505894909e-06,8.219920598e-09,4.308390529e-06,2.172012892e-08,4.504892836e-06,2.279257039e-08
3320,3360,4.326871995e-06,7.787527862e-09,4.529414336e-06,8.24131188e-09,4.321649132e-06,2.175353627e-08,4.459101043e-06,2.267645171e-08
3360,3400,4.358905367e-06,7.816256864e-09,4.538859855e-06,8.249886909e-09,4.337638918e-06,2.179373485e-08,4.558990604e-06,2.29289963e-08
3400,3440,4.378826783e-06,7.834071841e-09,4.541576818e-06,8.252351538e-09,4.379686914e-06,2.189907192e-08,4.569370931e-06,2.295508057e-08
3440,3480,4.402915116e-06,7.855556295e-09,4.580460282e-06,8.287549234e-09,4.405207355e-06,2.196277578e-08,4.598209857e-06,2.302739841e-08
3480,3520,4.433741113e-06,7.882963645e-09,4.594816233e-06,8.300505691e-09,4.452744098e-06,2.208094973e-08,4.677442766e-06,2.322489046e-08
3520,3560,4.439215457e-06,7.887820739e-09,4.634016205e-06,8.335784007e-09,4.443098722e-06,2.205700614e-08,4.61642417e-06,2.307292818e-08
3560,3600,4.465720184e-06,7.911296656e-09,4.677642496e-06,8.374867284e-09,4.461392165e-06,2.210236711e-08,4.586904611e-06,2.299907368e-08
3600,3640,4.500981255e-06,7.94241705e-09,4.704015572e-06,8.398405919e-09,4.510565006e-06,2.222381092e-08,4.728655194e-06,2.335166464e-08
3640,3680,4.532061958e-06,7.969749984e-09,4.737550912e-06,8.428240544e-09,4.548240221e-06,2.231641493e-08,4.734879811e-06,2.336701649e-08
3680,3720,4.569091882e-06,8.002188222e-09,4.755107347e-06,8.443819019e-09,4.565650212e-06,2.235907028e-08,4.724737466e-06,2.334199975e-08
3720,3760,4.604917205e-06,8.03344691e-09,4.799170929e-06,8.482788504e-09,4.608148858e-06,2.246288081e-08,4.795323143e-06,2.351566934e-08
3760,3800,4.622591025e-06,8.048825147e-09,4.832525371e-06,8.512165435e-09,4.628406672e-06,2.251218414e-08,4.812171518e-06,2.355695707e-08
3800,3840,4.672985654e-06,8.092505366e-09,4.854827866e-06,8.531753254e-09,4.665104115e-06,2.260125575e-08,4.856106641e-06,2.366420413e-08
3840,3880,4.701890285e-06,8.11745395e-09,4.904238093e-06,8.574988277e-09,4.740888805e-06,2.278405142e-08,4.914818485e-06,2.380680331e-08
3880,3920,4.742275724e-06,8.152180716e-09,4.948179702e-06,8.613253016e-09,4.73562968e-06,2.277140805e-08,4.927840997e-06,2.383829163e-08
3920,3960,4.794046561e-06,8.196482151e-09,4.995562684e-06,8.654325499e-09,4.835622646e-06,2.301051558e-08,5.002701291e-06,2.401864815e-08
3960,4000,4.790987641e-06,8.193872746e-09,4.991942971e-06,8.65119374e-09,4.785018658e-06,2.288980701e-08,5.014947373e-06,2.404806914e-08
4000,4040,3.517864816e-06,7.022875144e-09,3.725759775e-06,7.475529764e-09,3.506712967e-06,1.95957978e-08,3.733262751e-06,2.074926565e-08
4040,4080,2.989625515e-06,6.474775288e-09,3.1669329e-06,6.892791431e-09,3.001820662e-06,1.81304897e-08,3.141438091e-06,1.903389663e-08
4080,4120,2.773599127e-06,6.236700802e-09,2.928938259e-06,6.629003362e-09,2.74730426e-06,1.734496852e-08,2.916642547e-06,1.834034519e-08
4120,4160,2.621135647e-06,6.06302837e-09,2.79372997e-06,6.474337801e-09,2.641507283e-06,1.700775482e-08,2.778467221e-06,1.790070376e-08
4160,4200,2.539548971e-06,5.968009703e-09,2.69524052e-06,6.359296786e-09,2.543373709e-06,1.668886439e-08,2.694722441e-06,1.762887994e-08
4200,4240,2.459435666e-06,5.873205745e-09,2.618211793e-06,6.267847073e-09,2.443495776e-06,1.63579463e-08,2.637862501e-06,1.744193057e-08
4240,4280,2.391057335e-06,5.791055145e-09,2.558635846e-06,6.196190062e-09,2.409757775e-06,1.624461517e-08,2.563115194e-06,1.719304231e-08
4280,4320,2.345463359e-06,5.735623303e-09,2.504991015e-06,6.130945645e-09,2.367265657e-06,1.61007752e-08,2.507638065e-06,1.700598415e-08
4320,4360,2.305876774e-06,5.687054188e-09,2.461798686e-06,6.077904477e-09,2.329152008e-06,1.597064664e-08,2.463459486e-06,1.685552226e-08
4360,4400,2.269940291e-06,5.642600933e-09,2.423531692e-06,6.030519653e-09,2.247892655e-06,1.568962356e-08,2.438669101e-06,1.677053398e-08
4400,4440,2.251172231e-06,5.619245108e-09,2.403527053e-06,6.005599459e-09,2.242968542e-06,1.567244582e-08,2.403712696e-06,1.664988884e-08
4440,4480,2.213719161e-06,5.572341423e-09,2.359223207e-06,5.950036093e-09,2.22281042e-06,1.560184595e-08,2.361966291e-06,1.650471198e-08
4480,4520,2.192480592e-06,5.545568409e-09,2.310685323e-06,5.888560369e-09,2.202983646e-06,1.553210011e-08,2.312717456e-06,1.633176109e-08
4520,4560,2.181713145e-06,5.531944109e-09,2.292137279e-06,5.864897197e-09,2.149874041e-06,1.534377949e-08,2.270149137e-06,1.618074969e-08
4560,4600,2.165851146e-06,5.511813789e-09,2.281370359e-06,5.851118021e-09,2.147242113e-06,1.533437263e-08,2.269454195e-06,1.617826338e-08
4600,4640,2.176013564e-06,5.524718996e-09,2.270856137e-06,5.837627673e-09,2.163013561e-06,1.539058273e-08,2.284222793e-06,1.623083208e-08
4640,4680,2.18627572e-06,5.537721056e-09,2.294104349e-06,5.867410536e-09,2.19444343e-06,1.550197683e-08,2.28699464e-06,1.624068775e-08
4680,4720,2.226241273e-06,5.588067576e-09,2.316136771e-06,5.895497501e-09,2.227193679e-06,1.561722677e-08,2.311785631e-06,1.632843954e-08
4720,4760,2.284202283e-06,5.660285439e-09,2.39501162e-06,5.994959578e-09,2.285346431e-06,1.581977231e-08,2.340166218e-06,1.642837519e-08
4760,4800,2.393892768e-06,5.794484526e-09,2.501446594e-06,6.126611441e-09,2.413370083e-06,1.625677811e-08,2.528749597e-06,1.707742701e-08
4800,4840,2.56511157e-06,5.997943925e-09,2.699340902e-06,6.364128685e-09,2.591343894e-06,1.684549434e-08,2.693920031e-06,1.762626944e-08
4840,4880,2.893635839e-06,6.370092224e-09,3.014736843e-06,6.725297446e-09,2.896244186e-06,1.780884478e-08,2.975349566e-06,1.852397384e-08
4880,4920,3.505061995e-06,7.010099969e-09,3.640950947e-06,7.39006218e-09,3.512517369e-06,1.961200723e-08,3.630603302e-06,2.046202075e-08
4920,4960,5.071502037e-06,8.429913617e-09,5.25970246e-06,8.879778236e-09,5.035383444e-06,2.348088024e-08,5.282988499e-06,2.468219639e-08
4960,5000,1.73464579e-05,1.555628774e-08,1.789810216e-05,1.634526414e-08,1.735745344e-05,4.35837547e-08,1.788635568e-05,4.540343413e-08
