# xl,xh,LO,dLO,LOwvp,dLOwvp,PS+LOnovp,dPS+LOnovp,PS+LO,dPS+LO
0,0.05,0,0,0,0,0,0,0,0
0.05,0.1,0,0,0,0,0,0,0,0
0.1,0.15,0,0,0,0,0,0,0,0
0.15,0.2,0,0,0,0,0,0,0,0
0.2,0.25,0,0,0,0,0,0,0,0
0.25,0.3,0,0,0,0,0,0,0,0
0.3,0.35,0,0,0,0,0,0,0,0
0.35,0.4,0.0004873669387,2.339234635e-06,0.0005267421292,2.515383797e-06,0.0004817996859,6.497088054e-06,0.000532692547,7.010831309e-06
0.4,0.45,0.002746079928,5.549879522e-06,0.002943120556,5.942741675e-06,0.002779256687,1.560350489e-05,0.002943233282,1.647842275e-05
0.45,0.5,0.003406874157,6.18074742e-06,0.003606241332,6.577325104e-06,0.003423671904,1.731794625e-05,0.003590814237,1.820089968e-05
0.5,0.55,0.00411939458,6.795330124e-06,0.004366380597,7.23623751e-06,0.004138010903,1.903873674e-05,0.004371261537,2.008124917e-05
0.55,0.6,0.004946962921,7.445471976e-06,0.005202857942,7.897708258e-06,0.004937698632,2.079678719e-05,0.00520278979,2.19089882e-05
0.6,0.65,0.00592184813,8.176806207e-06,0.00618695803,8.614467669e-06,0.005903767019,2.274917744e-05,0.006186405188,2.389709917e-05
0.65,0.7,0.006923351259,8.844202217e-06,0.007244047903,9.329492875e-06,0.006891320831,2.477763949e-05,0.007259279875,2.597711628e-05
0.7,0.75,0.007673518972,9.292896986e-06,0.008006249603,9.825258069e-06,0.007662792725,2.59888556e-05,0.008012933248,2.729025873e-05
0.75,0.8,0.008105262723,9.552051232e-06,0.008462479037,1.015663109e-05,0.008115573622,2.714205897e-05,0.008490666236,2.805220504e-05
0.8,0.85,0.008324006013,9.670567078e-06,0.008663155268,1.019844951e-05,0.008316066879,2.706322191e-05,0.008668886519,2.887358418e-05
0.85,0.9,0.008403497488,9.738183493e-06,0.008765722999,1.025769534e-05,0.00839637273,2.71751534e-05,0.008775037645,2.852182182e-05
0.9,0.95,0.008420092956,9.725288124e-06,0.008774628402,1.026344887e-05,0.008357118181,2.71528281e-05,0.008766490973,2.849946349e-05
0.95,1,0.00839099232,9.70179668e-06,0.008756934351,1.024763821e-05,0.008398289165,2.715299552e-05,0.008750076587,2.844491243e-05
1,1.05,0.008324031135,9.665766011e-06,0.008694382937,1.025443506e-05,0.008355630461,2.708761979e-05,0.008659334909,2.831147701e-05
1.05,1.1,0.008272149783,9.628848847e-06,0.00861338258,1.019710766e-05,0.008288358262,2.727205663e-05,0.008602306502,2.819211109e-05
1.1,1.15,0.008187654354,9.58343722e-06,0.008550341444,1.012728713e-05,0.008194466339,2.684433143e-05,0.008556166966,2.81385939e-05
1.15,1.2,0.008121399185,9.643296907e-06,0.00847817735,1.008723454e-05,0.00812595317,2.669196417e-05,0.008445491811,2.797015945e-05
1.2,1.25,0.008060506248,9.51026612e-06,0.008405611077,1.003873232e-05,0.008085730829,2.663905292e-05,0.008426549001,2.791202653e-05
1.25,1.3,0.008014773904,9.484102466e-06,0.008369346767,1.001635391e-05,0.007972624307,2.644064398e-05,0.008336404063,2.7788363e-05
1.3,1.35,0.007969337813,9.489090935e-06,0.008317117612,1.003210249e-05,0.007943984672,2.641551511e-05,0.008290007646,2.767255279e-05
1.35,1.4,0.007931696413,9.433975122e-06,0.008301925777,9.985023274e-06,0.007934198835,2.638263033e-05,0.008254311855,2.76425445e-05
1.4,1.45,0.007940735948,9.435917852e-06,0.008290914075,9.972314295e-06,0.007935738396,2.655785301e-05,0.008274235822,2.785376956e-05
1.45,1.5,0.007932580232,9.50677623e-06,0.008289247858,9.971807981e-06,0.007908287703,2.634035349e-05,0.008284838739,2.766888312e-05
1.5,1.55,0.007953954144,9.451106931e-06,0.008305782891,9.987062789e-06,0.007935372328,2.643040966e-05,0.008287228232,2.767837699e-05
1.55,1.6,0.007993161246,9.463695799e-06,0.008357999958,1.005175948e-05,0.008026885404,2.656178363e-05,0.008345353343,2.778684534e-05
1.6,1.65,0.008051170086,9.502398106e-06,0.00839828375,1.004328817e-05,0.008056975083,2.659647903e-05,0.008374611287,2.781107502e-05
1.65,1.7,0.008108264456,9.533554969e-06,0.00846621962,1.007553599e-05,0.008125812026,2.669391915e-05,0.008465384119,2.796740634e-05
1.7,1.75,0.008214541774,9.604129111e-06,0.008592024477,1.015428825e-05,0.008262016585,2.693943632e-05,0.008552893398,2.813425459e-05
1.75,1.8,0.008346160515,9.67203054e-06,0.008708590762,1.021803871e-05,0.008398464771,2.714763955e-05,0.008711193211,2.851697458e-05
1.8,1.85,0.008497446428,9.778325753e-06,0.008861775706,1.031538523e-05,0.008519894491,2.73880093e-05,0.008841708411,2.859657051e-05
1.85,1.9,0.008683809467,9.865702508e-06,0.009061680592,1.042025744e-05,0.008677782545,2.766983496e-05,0.00906380293,2.894341277e-05
1.9,1.95,0.008876274362,9.974861016e-06,0.009248107289,1.052758245e-05,0.008849123843,2.78802198e-05,0.009291194877,2.929552423e-05
1.95,2,0.009101246669,1.009985135e-05,0.009498681288,1.06753074e-05,0.009090363641,2.825022318e-05,0.009520333162,2.966143909e-05
2,2.05,0.009317570268,1.021524777e-05,0.009722892977,1.079408011e-05,0.00933420031,2.868817064e-05,0.009705607764,2.99555392e-05
2.05,2.1,0.009574912115,1.035510727e-05,0.009966756051,1.093367782e-05,0.009555811527,2.898741344e-05,0.009944582698,3.05215316e-05
2.1,2.15,0.0098330351,1.050324939e-05,0.01023179491,1.107746518e-05,0.009811354604,2.953026746e-05,0.0102270165,3.0776237e-05
2.15,2.2,0.01005321745,1.109640762e-05,0.0104701656,1.122815996e-05,0.01005394257,2.975367114e-05,0.01044895026,3.111577466e-05
2.2,2.25,0.01029761293,1.07468352e-05,0.01070009474,1.133576066e-05,0.01028677956,3.004006299e-05,0.01075753047,3.155804248e-05
2.25,2.3,0.01047183964,1.083098362e-05,0.01087477998,1.14319652e-05,0.0104570114,3.032208977e-05,0.0108829123,3.17863675e-05
2.3,2.35,0.0105995251,1.090212902e-05,0.01099958531,1.148541708e-05,0.01062450221,3.056022158e-05,0.01097425585,3.185789795e-05
2.35,2.4,0.01063401109,1.09165552e-05,0.01102166711,1.15145693e-05,0.01065681726,3.081748861e-05,0.01098193079,3.210209973e-05
2.4,2.45,0.01047024453,1.099120448e-05,0.0108468106,1.143240235e-05,0.01050709658,3.040221096e-05,0.01082672872,3.166790537e-05
2.45,2.5,0.009931211952,1.058951587e-05,0.01030134264,1.112719024e-05,0.009962857144,2.96473349e-05,0.0102618754,3.121629336e-05
2.5,2.55,0.008473826032,9.759985357e-06,0.008802314885,1.028526158e-05,0.008497938149,2.738948065e-05,0.008832680812,2.86670766e-05
2.55,2.6,0.006388353087,8.459084325e-06,0.006680179119,8.947930998e-06,0.00641340535,2.370322004e-05,0.006710648109,2.488185355e-05
2.6,2.65,0.005131120944,7.582315687e-06,0.005382281742,8.032329886e-06,0.005115799193,2.116836281e-05,0.005370297103,2.225741678e-05
2.65,2.7,0.004328781066,6.965564969e-06,0.004537057936,7.376042296e-06,0.004333735716,1.948366859e-05,0.004541324985,2.046807081e-05
2.7,2.75,0.003678083271,6.421662217e-06,0.003872027407,6.815012212e-06,0.003689936283,1.797863238e-05,0.003891992344,1.894867321e-05
2.75,2.8,0.0001077984641,1.100243841e-06,0.0001138498436,1.169524316e-06,0.0001151277633,3.176002681e-06,0.0001187546091,3.310240945e-06
2.8,2.85,0,0,0,0,0,0,0,0
2.85,2.9,0,0,0,0,0,0,0,0
2.9,2.95,0,0,0,0,0,0,0,0
2.95,3,0,0,0,0,0,0,0,0
3,3.05,0,0,0,0,0,0,0,0
3.05,3.1,0,0,0,0,0,0,0,0
3.1,3.15,0,0,0,0,0,0,0,0
