# xl,xh,LO,dLO,LOwvp,dLOwvp,PS+LOnovp,dPS+LOnovp,PS+LO,dPS+LO
0,40,0,0,0,0,0,0,0,0
40,80,0,0,0,0,0,0,0,0
80,120,0,0,0,0,0,0,0,0
120,160,0,0,0,0,0,0,0,0
160,200,0,0,0,0,0,0,0,0
200,240,0,0,0,0,0,0,0,0
240,280,0,0,0,0,0,0,0,0
280,320,0,0,0,0,0,0,0,0
320,360,0,0,0,0,0,0,0,0
360,400,0,0,0,0,0,0,0,0
400,440,0,0,0,0,0,0,0,0
440,480,0,0,0,0,0,0,0,0
480,520,2.920124326e-06,6.399150819e-09,3.047072536e-06,6.761233448e-09,2.877624026e-06,1.775150775e-08,3.086187892e-06,1.886579075e-08
520,560,3.842136703e-06,7.338997079e-09,4.002184243e-06,7.747520092e-09,3.82332235e-06,2.046113e-08,4.044796715e-06,2.15975136e-08
560,600,3.955967358e-06,7.446766084e-09,4.110240671e-06,7.851267897e-09,3.962099611e-06,2.082914473e-08,4.122997699e-06,2.180525685e-08
600,640,4.055636126e-06,7.539859005e-09,4.244999217e-06,7.978755128e-09,4.050032818e-06,2.105894215e-08,4.24802603e-06,2.213334106e-08
640,680,4.154656926e-06,7.631212784e-09,4.320149701e-06,8.048966621e-09,4.178496348e-06,2.13902552e-08,4.346178985e-06,2.238752689e-08
680,720,4.230924266e-06,7.70083297e-09,4.41076901e-06,8.132820883e-09,4.256144566e-06,2.158804567e-08,4.423004394e-06,2.258451039e-08
720,760,4.325973728e-06,7.786721582e-09,4.496809011e-06,8.211642156e-09,4.28485063e-06,2.166074059e-08,4.509279125e-06,2.28036723e-08
760,800,4.38908728e-06,7.843229605e-09,4.581346712e-06,8.288350577e-09,4.42393766e-06,2.20094152e-08,4.611465229e-06,2.306053894e-08
800,840,4.471980526e-06,7.916831022e-09,4.662941359e-06,8.361718764e-09,4.474861649e-06,2.213569488e-08,4.651382811e-06,2.316013381e-08
840,880,4.552205839e-06,7.987412273e-09,4.733044166e-06,8.424236909e-09,4.55962796e-06,2.234432446e-08,4.769839396e-06,2.345313277e-08
880,920,4.618884301e-06,8.045602027e-09,4.794243147e-06,8.478437326e-09,4.576829109e-06,2.238643983e-08,4.774675842e-06,2.346499603e-08
920,960,4.682404316e-06,8.100642458e-09,4.843383232e-06,8.521707316e-09,4.670247495e-06,2.26137021e-08,4.896708458e-06,2.376291008e-08
960,1000,4.727704818e-06,8.139669261e-09,4.919541607e-06,8.58833415e-09,4.750746648e-06,2.280772303e-08,4.933044103e-06,2.385090059e-08
1000,1040,4.773890112e-06,8.179263762e-09,4.978291899e-06,8.63937708e-09,4.813610326e-06,2.295809777e-08,4.98022477e-06,2.396467712e-08
1040,1080,4.840540688e-06,8.236064534e-09,5.033663472e-06,8.687208914e-09,4.803423825e-06,2.293379405e-08,5.030502941e-06,2.408528932e-08
1080,1120,4.905226449e-06,8.29081776e-09,5.110736895e-06,8.75334931e-09,4.900245071e-06,2.316373887e-08,5.044571544e-06,2.411892974e-08
1120,1160,4.936713083e-06,8.317337493e-09,5.133159712e-06,8.772496835e-09,4.958721048e-06,2.330149364e-08,5.118281854e-06,2.429448245e-08
1160,1200,4.994337676e-06,8.365652473e-09,5.191264528e-06,8.82192038e-09,4.979645045e-06,2.335060372e-08,5.185519561e-06,2.445348819e-08
1200,1240,5.029305943e-06,8.394836006e-09,5.240390635e-06,8.863491549e-09,5.051262052e-06,2.351786189e-08,5.272031366e-06,2.465659203e-08
1240,1280,5.085330858e-06,8.441379821e-09,5.2842274e-06,8.900419193e-09,5.103070587e-06,2.363814669e-08,5.271222929e-06,2.465470327e-08
1280,1320,5.113909857e-06,8.465022208e-09,5.32949378e-06,8.938392417e-09,5.145676451e-06,2.373660491e-08,5.323809047e-06,2.477732643e-08
1320,1360,5.171507485e-06,8.512472233e-09,5.365401278e-06,8.96839769e-09,5.183350424e-06,2.382332016e-08,5.33811845e-06,2.481060903e-08
1360,1400,5.213255001e-06,8.546697974e-09,5.409735229e-06,9.005306946e-09,5.204147206e-06,2.387102411e-08,5.418741718e-06,2.499722599e-08
1400,1440,5.240811737e-06,8.56921588e-09,5.464943872e-06,9.051058368e-09,5.244678638e-06,2.396380199e-08,5.458199095e-06,2.508807302e-08
1440,1480,5.29954588e-06,8.617009188e-09,5.51246025e-06,9.090248195e-09,5.342922902e-06,2.418716686e-08,5.498445941e-06,2.518036071e-08
1480,1520,5.350838973e-06,8.658530299e-09,5.548231765e-06,9.119636567e-09,5.322546461e-06,2.414099981e-08,5.560385376e-06,2.532175844e-08
1520,1560,5.378774184e-06,8.681058377e-09,5.596530395e-06,9.159169327e-09,5.404909278e-06,2.432703008e-08,5.570885201e-06,2.534566134e-08
1560,1600,5.435402523e-06,8.726548644e-09,5.649800439e-06,9.20257489e-09,5.407644491e-06,2.433317895e-08,5.638233609e-06,2.549834383e-08
1600,1640,5.495805511e-06,8.774806897e-09,5.692452307e-06,9.237178495e-09,5.489233531e-06,2.451600646e-08,5.672729494e-06,2.557623127e-08
1640,1680,5.520330437e-06,8.794326212e-09,5.736290873e-06,9.272611149e-09,5.506759752e-06,2.455511051e-08,5.760855689e-06,2.577409066e-08
1680,1720,5.58289625e-06,8.84392332e-09,5.808934247e-06,9.331023692e-09,5.535338776e-06,2.461871727e-08,5.800993752e-06,2.586370057e-08
1720,1760,5.624447876e-06,8.876707777e-09,5.847380319e-06,9.361790706e-09,5.675861307e-06,2.492919252e-08,5.849078653e-06,2.597061763e-08
1760,1800,5.681104152e-06,8.921213644e-09,5.902015988e-06,9.405337858e-09,5.649337053e-06,2.487084444e-08,5.89971892e-06,2.6082784e-08
1800,1840,5.736439977e-06,8.964467231e-09,5.982153853e-06,9.468846434e-09,5.726021411e-06,2.503907719e-08,6.00213981e-06,2.630815146e-08
1840,1880,5.798837763e-06,9.01299017e-09,6.016650415e-06,9.496054289e-09,5.766096919e-06,2.512650754e-08,6.056811694e-06,2.642766644e-08
1880,1920,5.846145509e-06,9.049604684e-09,6.087055659e-06,9.551338287e-09,5.818017809e-06,2.52393655e-08,6.045858743e-06,2.640377233e-08
1920,1960,5.903700678e-06,9.093948689e-09,6.149455998e-06,9.600068782e-09,5.900484787e-06,2.541756869e-08,6.100871733e-06,2.652358828e-08
1960,2000,5.972794799e-06,9.146896407e-09,6.177389119e-06,9.621801106e-09,5.95874105e-06,2.554268243e-08,6.207340456e-06,2.675398166e-08
2000,2040,5.299180195e-06,8.616711474e-09,5.536366893e-06,9.109898117e-09,5.337661983e-06,2.417524867e-08,5.495787124e-06,2.5174261e-08
2040,2080,4.999698548e-06,8.370131533e-09,5.195216189e-06,8.825272253e-09,5.004499176e-06,2.340877703e-08,5.177218723e-06,2.443392018e-08
2080,2120,4.858718739e-06,8.251487029e-09,5.057137817e-06,8.707407709e-09,4.848319204e-06,2.304067956e-08,4.998786877e-06,2.400926878e-08
2120,2160,4.73974951e-06,8.150013281e-09,4.927064925e-06,8.594887141e-09,4.767163493e-06,2.284706297e-08,4.959689275e-06,2.39152189e-08
2160,2200,4.670922777e-06,8.090722028e-09,4.863719746e-06,8.539551739e-09,4.714926675e-06,2.272157822e-08,4.908714466e-06,2.379204359e-08
2200,2240,4.603640307e-06,8.032336337e-09,4.810463316e-06,8.492745098e-09,4.63881103e-06,2.253746673e-08,4.832029609e-06,2.360555649e-08
2240,2280,4.571662216e-06,8.004436204e-09,4.747658361e-06,8.437214007e-09,4.563050746e-06,2.23527822e-08,4.769190615e-06,2.345205085e-08
2280,2320,4.519005911e-06,7.958279204e-09,4.716809419e-06,8.409800304e-09,4.508429967e-06,2.221871827e-08,4.698532829e-06,2.327789451e-08
2320,2360,4.476963359e-06,7.921232698e-09,4.669638975e-06,8.367711919e-09,4.496431795e-06,2.219000479e-08,4.662612629e-06,2.318931697e-08
2360,2400,4.4547851e-06,7.901620657e-09,4.64332905e-06,8.344162375e-09,4.470570159e-06,2.212679453e-08,4.6668794e-06,2.320191898e-08
2400,2440,4.409377187e-06,7.861449168e-09,4.610522438e-06,8.314792228e-09,4.43420505e-06,2.204557985e-08,4.585947639e-06,2.300681743e-08
2440,2480,4.403141924e-06,7.858136736e-09,4.589372055e-06,8.298099495e-09,4.377147511e-06,2.192437186e-08,4.575957443e-06,2.302835312e-08
2480,2520,4.387913666e-06,7.941935597e-09,4.536916319e-06,8.281762834e-09,4.346033834e-06,2.194046381e-08,4.559304481e-06,2.316744692e-08
2520,2560,4.357788207e-06,7.928446887e-09,4.523353782e-06,8.47686723e-09,4.36875482e-06,2.213655834e-08,4.567039825e-06,2.321600369e-08
2560,2600,4.326583521e-06,7.8988047e-09,4.511169445e-06,8.487369458e-09,4.309991049e-06,2.205997074e-08,4.500335214e-06,2.352658823e-08
2600,2640,4.300058786e-06,7.832165724e-09,4.479849405e-06,8.255025138e-09,4.319427953e-06,2.209159188e-08,4.474210476e-06,2.374344607e-08
2640,2680,4.298416613e-06,7.816412363e-09,4.465614059e-06,8.246858424e-09,4.293141328e-06,2.209313511e-08,4.449335059e-06,2.285825015e-08
2680,2720,4.288030623e-06,7.817121561e-09,4.462360562e-06,8.235889449e-09,4.30114837e-06,2.188196584e-08,4.416431528e-06,2.298525147e-08
2720,2760,4.284263719e-06,7.791027007e-09,4.447720759e-06,8.259006195e-09,4.276508367e-06,2.2562306e-08,4.462915894e-06,2.290877783e-08
2760,2800,4.264582706e-06,7.798671869e-09,4.443824884e-06,8.207654122e-09,4.270789421e-06,2.182048186e-08,4.451813417e-06,2.28324463e-08
2800,2840,4.255594713e-06,8.09221396e-09,4.43134651e-06,8.184665083e-09,4.269689922e-06,2.179835771e-08,4.433536163e-06,2.29623887e-08
2840,2880,4.253942457e-06,7.757995333e-09,4.434106407e-06,8.189781835e-09,4.194705265e-06,2.179566228e-08,4.415150592e-06,2.268889844e-08
2880,2920,4.248558965e-06,7.744371257e-09,4.417989793e-06,8.172109075e-09,4.255875284e-06,2.185932135e-08,4.416743226e-06,2.271735259e-08
2920,2960,4.250317466e-06,7.74937319e-09,4.439439942e-06,8.219720637e-09,4.263154011e-06,2.177848397e-08,4.408754089e-06,2.385051658e-08
2960,3000,4.242995019e-06,7.744980681e-09,4.428340012e-06,8.180114578e-09,4.238226787e-06,2.16366072e-08,4.440055479e-06,2.289945261e-08
3000,3040,4.260280202e-06,7.772292152e-09,4.439588294e-06,8.187852996e-09,4.246196424e-06,2.186090406e-08,4.459339657e-06,2.27474297e-08
3040,3080,4.260497468e-06,7.754071872e-09,4.440118746e-06,8.209300913e-09,4.235717702e-06,2.162597792e-08,4.459156605e-06,2.302834394e-08
3080,3120,4.264895737e-06,7.759356869e-09,4.446149971e-06,8.22125899e-09,4.261092992e-06,2.168663219e-08,4.410733761e-06,2.261089529e-08
3120,3160,4.276507151e-06,7.758459634e-09,4.443631313e-06,8.25618643e-09,4.296938159e-06,2.173949034e-08,4.42955872e-06,2.271182392e-08
3160,3200,4.280683104e-06,7.798727689e-09,4.439669003e-06,8.183014429e-09,4.265720819e-06,2.166006563e-08,4.403821727e-06,2.258450085e-08
3200,3240,4.296137833e-06,7.807453447e-09,4.478995409e-06,8.210034993e-09,4.309154708e-06,2.222365486e-08,4.46890938e-06,2.283225239e-08
3240,3280,4.292508289e-06,7.784360345e-09,4.496412005e-06,8.223798206e-09,4.316165256e-06,2.257946165e-08,4.434075618e-06,2.26954688e-08
3280,3320,4.317833153e-06,8.79543665e-09,4.489386699e-06,8.224855408e-09,4.294703653e-06,2.170344353e-08,4.485416975e-06,2.278333469e-08
3320,3360,4.332409372e-06,7.841779273e-09,4.5202608e-06,8.305966828e-09,4.359475631e-06,2.189413894e-08,4.531226776e-06,2.290100903e-08
3360,3400,4.349992174e-06,7.833886115e-09,4.544315737e-06,8.278374159e-09,4.386086511e-06,2.195113518e-08,4.567049471e-06,2.298652467e-08
3400,3440,4.364090817e-06,7.965265062e-09,4.57135347e-06,8.345640723e-09,4.372247561e-06,2.200159687e-08,4.543243345e-06,2.317233414e-08
3440,3480,4.396558925e-06,7.860005123e-09,4.564096417e-06,8.283986111e-09,4.377652433e-06,2.197606972e-08,4.54882455e-06,2.295240344e-08
3480,3520,4.408160461e-06,7.931321309e-09,4.598140337e-06,8.334817843e-09,4.38887157e-06,2.198491066e-08,4.639752881e-06,2.316065351e-08
3520,3560,4.433335903e-06,7.904957125e-09,4.626206669e-06,8.338934877e-09,4.441774628e-06,2.212585578e-08,4.63547194e-06,2.313946648e-08
3560,3600,4.470897449e-06,7.919738183e-09,4.649088462e-06,8.355703672e-09,4.4656885e-06,2.223070677e-08,4.604903211e-06,2.307694926e-08
3600,3640,4.496402161e-06,7.95575926e-09,4.697855899e-06,8.39809677e-09,4.497853729e-06,2.22079561e-08,4.690304596e-06,2.330111701e-08
3640,3680,4.534896968e-06,7.97857321e-09,4.717490934e-06,8.421187078e-09,4.572464457e-06,2.248458198e-08,4.746789e-06,2.349750296e-08
3680,3720,4.571883264e-06,8.009150342e-09,4.749083203e-06,8.445828747e-09,4.586120527e-06,2.250387428e-08,4.777450077e-06,2.34847235e-08
3720,3760,4.591675428e-06,8.027428935e-09,4.77871303e-06,8.483728445e-09,4.570851663e-06,2.239611172e-08,4.774087476e-06,2.3499316e-08
3760,3800,4.620122119e-06,8.060671536e-09,4.819919271e-06,8.507306827e-09,4.63485215e-06,2.255338686e-08,4.827770784e-06,2.361476877e-08
3800,3840,4.66023273e-06,8.22984794e-09,4.863637135e-06,8.553145251e-09,4.649172382e-06,2.260597731e-08,4.845040158e-06,2.365689536e-08
3840,3880,4.688952066e-06,8.108676151e-09,4.893793803e-06,8.569743096e-09,4.689165255e-06,2.266965004e-08,4.889271988e-06,2.37566677e-08
3880,3920,4.722872069e-06,8.159712932e-09,4.921981159e-06,8.592100309e-09,4.728508181e-06,2.276260189e-08,4.922437612e-06,2.382998267e-08
3920,3960,4.74877161e-06,8.159666082e-09,4.961099961e-06,8.630420168e-09,4.748831634e-06,2.290953012e-08,4.953450896e-06,2.397951456e-08
3960,4000,4.760756547e-06,8.191498435e-09,4.986866074e-06,8.649417874e-09,4.773884747e-06,2.287986806e-08,4.995907927e-06,2.400964051e-08
4000,4040,3.498084875e-06,7.003128015e-09,3.696160154e-06,7.445814175e-09,3.484144988e-06,1.953263138e-08,3.706264925e-06,2.067409225e-08
4040,4080,2.957746563e-06,6.44019998e-09,3.141401747e-06,6.864980182e-09,2.973017471e-06,1.804330953e-08,3.103494734e-06,1.891862355e-08
4080,4120,2.730306953e-06,6.187884e-09,2.891528305e-06,6.586575437e-09,2.7418298e-06,1.732768488e-08,2.917102311e-06,1.834178502e-08
4120,4160,2.593256769e-06,6.030729413e-09,2.752820387e-06,6.426804713e-09,2.590467859e-06,1.684264955e-08,2.763006907e-06,1.785082262e-08
4160,4200,2.496466517e-06,5.917215829e-09,2.644855046e-06,6.29962991e-09,2.467251649e-06,1.643722689e-08,2.665772983e-06,1.753394562e-08
4200,4240,2.424299424e-06,5.831137756e-09,2.577859074e-06,6.219402784e-09,2.411074899e-06,1.624906277e-08,2.596571755e-06,1.730490347e-08
4240,4280,2.362027723e-06,5.755823563e-09,2.509405391e-06,6.136340867e-09,2.375695657e-06,1.61294022e-08,2.533476734e-06,1.709337254e-08
4280,4320,2.309807378e-06,5.691895354e-09,2.471319137e-06,6.089634713e-09,2.298924493e-06,1.586668382e-08,2.50244997e-06,1.698839286e-08
4320,4360,2.268564671e-06,5.640892284e-09,2.42440266e-06,6.031602488e-09,2.275930448e-06,1.57871607e-08,2.402097262e-06,1.664428959e-08
4360,4400,2.237921074e-06,5.602695514e-09,2.398030994e-06,5.998735394e-09,2.236723233e-06,1.56506049e-08,2.367380503e-06,1.652359125e-08
4400,4440,2.208918805e-06,5.566302075e-09,2.353742518e-06,5.943127318e-09,2.214929653e-06,1.55741825e-08,2.323783579e-06,1.637076137e-08
4440,4480,2.175845261e-06,5.524505082e-09,2.333106085e-06,5.917035611e-09,2.20113036e-06,1.552559819e-08,2.343854418e-06,1.644130475e-08
4480,4520,2.162523413e-06,5.507580257e-09,2.270645619e-06,5.837357154e-09,2.141107865e-06,1.531245032e-08,2.28838255e-06,1.624562666e-08
4520,4560,2.152430729e-06,5.49472371e-09,2.260479332e-06,5.82428584e-09,2.165752096e-06,1.540032213e-08,2.240738177e-06,1.607560767e-08
4560,4600,2.159659412e-06,5.50393394e-09,2.265721064e-06,5.831030345e-09,2.13508278e-06,1.52908875e-08,2.258961844e-06,1.614083807e-08
4600,4640,2.163043127e-06,5.508241353e-09,2.27016587e-06,5.836742275e-09,2.195430152e-06,1.550546474e-08,2.292414682e-06,1.625991597e-08
4640,4680,2.195245583e-06,5.549060518e-09,2.303310719e-06,5.879162115e-09,2.178452408e-06,1.544539264e-08,2.285144802e-06,1.623410334e-08
4680,4720,2.241275094e-06,5.606888187e-09,2.350858837e-06,5.939488047e-09,2.252823215e-06,1.570682558e-08,2.338546986e-06,1.642267636e-08
4720,4760,2.323451791e-06,5.708667458e-09,2.422269248e-06,6.028949627e-09,2.312074676e-06,1.591202162e-08,2.453660504e-06,1.682198841e-08
4760,4800,2.442884191e-06,5.853425584e-09,2.557808497e-06,6.195187645e-09,2.435718196e-06,1.633188724e-08,2.529206615e-06,1.707895475e-08
4800,4840,2.647582593e-06,6.093510607e-09,2.765315629e-06,6.441359799e-09,2.648078326e-06,1.702889219e-08,2.779032181e-06,1.790248271e-08
4840,4880,2.993654885e-06,6.479133299e-09,3.105373215e-06,6.825541823e-09,3.003576069e-06,1.813580103e-08,3.11664303e-06,1.895865147e-08
4880,4920,3.655138597e-06,7.158410979e-09,3.807728415e-06,7.557208923e-09,3.669783141e-06,2.00461596e-08,3.791852681e-06,2.091141549e-08
4920,4960,5.310438212e-06,8.625841701e-09,5.517009417e-06,9.093988754e-09,5.353647405e-06,2.42114017e-08,5.489112099e-06,2.515900504e-08
4960,5000,1.769648831e-05,1.571146956e-08,1.824910545e-05,1.650377325e-08,1.76657346e-05,4.396877919e-08,1.826582757e-05,4.588217305e-08
