# xl,xh,LOnovp,dLOnovp,LO,dLO,PS+LOnovp,dPS+LOnovp,PS+LO,dPS+LO
0,20,0,0,0,0,0,0,0,0
20,40,0,0,0,0,0,0,0,0
40,60,0,0,0,0,0,0,0,0
60,80,0,0,0,0,0,0,0,0
80,100,0,0,0,0,0,0,0,0
100,120,0,0,0,0,0,0,0,0
120,140,0,0,0,0,0,0,0,0
140,160,0,0,0,0,0,0,0,0
160,180,0,0,0,0,0,0,0,0
180,200,0,0,0,0,0,0,0,0
200,220,0,0,0,0,0,0,0,0
220,240,0,0,0,0,0,0,0,0
240,260,0,0,0,0,0,0,0,0
260,280,0,0,0,0,0,0,0,0
280,300,0,0,0,0,0,0,0,0
300,320,0,0,0,0,0,0,0,0
320,340,0,0,0,0,0,0,0,0
340,360,0,0,0,0,0,0,0,0
360,380,0,0,0,0,0,0,0,0
380,400,0,0,0,0,0,0,0,0
400,420,0,0,0,0,0,0,0,0
420,440,0,0,0,0,0,0,0,0
440,460,0,0,0,0,0,0,0,0
460,480,0,0,0,0,0,0,0,0
480,500,0,0,0,0,0,0,0,0
500,520,0,0,0,0,0,0,0,0
520,540,0,0,0,0,0,0,0,0
540,560,0,0,0,0,0,0,0,0
560,580,0,0,0,0,0,0,0,0
580,600,0,0,0,0,0,0,0,0
600,620,0,0,0,0,0,0,0,0
620,640,0,0,0,0,0,0,0,0
640,660,0,0,0,0,0,0,0,0
660,680,0,0,0,0,0,0,0,0
680,700,0,0,0,0,0,0,0,0
700,720,0,0,0,0,0,0,0,0
720,740,0,0,0,0,0,0,0,0
740,760,0,0,0,0,0,0,0,0
760,780,0,0,0,0,0,0,0,0
780,800,0,0,0,0,0,0,0,0
800,820,0,0,0,0,0,0,0,0
820,840,0,0,0,0,0,0,0,0
840,860,0,0,0,0,0,0,0,0
860,880,0,0,0,0,0,0,0,0
880,900,0,0,0,0,0,0,0,0
900,920,0,0,0,0,0,0,0,0
920,940,0,0,0,0,0,0,0,0
940,960,0,0,0,0,0,0,0,0
960,980,0,0,0,0,0,0,0,0
980,1000,0,0,0,0,0,0,0,0
1000,1020,0,0,0,0,0,0,0,0
1020,1040,0,0,0,0,0,0,0,0
1040,1060,0,0,0,0,0,0,0,0
1060,1080,0,0,0,0,0,0,0,0
1080,1100,0,0,0,0,0,0,0,0
1100,1120,0,0,0,0,0,0,0,0
1120,1140,0,0,0,0,0,0,0,0
1140,1160,0,0,0,0,0,0,0,0
1160,1180,0,0,0,0,0,0,0,0
1180,1200,0,0,0,0,0,0,0,0
1200,1220,0,0,0,0,0,0,0,0
1220,1240,0,0,0,0,0,0,0,0
1240,1260,0,0,0,0,0,0,0,0
1260,1280,0,0,0,0,0,0,0,0
1280,1300,0,0,0,0,0,0,0,0
1300,1320,0,0,0,0,0,0,0,0
1320,1340,0,0,0,0,0,0,0,0
1340,1360,0,0,0,0,0,0,0,0
1360,1380,0,0,0,0,0,0,0,0
1380,1400,0,0,0,0,0,0,0,0
1400,1420,0,0,0,0,0,0,0,0
1420,1440,0,0,0,0,0,0,0,0
1440,1460,0,0,0,0,0,0,0,0
1460,1480,0,0,0,0,0,0,0,0
1480,1500,0,0,0,0,0,0,0,0
1500,1520,0,0,0,0,0,0,0,0
1520,1540,0,0,0,0,0,0,0,0
1540,1560,0,0,0,0,0,0,0,0
1560,1580,0,0,0,0,0,0,0,0
1580,1600,0,0,0,0,0,0,0,0
1600,1620,0,0,0,0,0,0,0,0
1620,1640,0,0,0,0,0,0,0,0
1640,1660,0,0,0,0,0,0,0,0
1660,1680,0,0,0,0,0,0,0,0
1680,1700,0,0,0,0,0,0,0,0
1700,1720,0,0,0,0,0,0,0,0
1720,1740,0,0,0,0,0,0,0,0
1740,1760,0,0,0,0,0,0,0,0
1760,1780,0,0,0,0,0,0,0,0
1780,1800,0,0,0,0,0,0,0,0
1800,1820,0,0,0,0,0,0,0,0
1820,1840,0,0,0,0,0,0,0,0
1840,1860,0,0,0,0,0,0,0,0
1860,1880,0,0,0,0,0,0,0,0
1880,1900,0,0,0,0,0,0,0,0
1900,1920,0,0,0,0,0,0,0,0
1920,1940,0,0,0,0,0,0,0,0
1940,1960,0,0,0,0,0,0,0,0
1960,1980,0,0,0,0,0,0,0,0
1980,2000,0,0,0,0,0,0,0,0
2000,2020,0,0,0,0,0,0,0,0
2020,2040,0,0,0,0,0,0,0,0
2040,2060,0,0,0,0,0,0,0,0
2060,2080,0,0,0,0,0,0,0,0
2080,2100,0,0,0,0,0,0,0,0
2100,2120,0,0,0,0,0,0,0,0
2120,2140,0,0,0,0,0,0,0,0
2140,2160,0,0,0,0,0,0,0,0
2160,2180,0,0,0,0,0,0,0,0
2180,2200,0,0,0,0,0,0,0,0
2200,2220,0,0,0,0,0,0,0,0
2220,2240,0,0,0,0,0,0,0,0
2240,2260,0,0,0,0,0,0,0,0
2260,2280,0,0,0,0,0,0,0,0
2280,2300,0,0,0,0,0,0,0,0
2300,2320,0,0,0,0,0,0,0,0
2320,2340,0,0,0,0,0,0,0,0
2340,2360,0,0,0,0,0,0,0,0
2360,2380,0,0,0,0,0,0,0,0
2380,2400,0,0,0,0,0,0,0,0
2400,2420,0,0,0,0,0,0,0,0
2420,2440,0,0,0,0,0,0,0,0
2440,2460,0,0,0,0,0,0,0,0
2460,2480,0,0,0,0,0,0,0,0
2480,2500,0,0,0,0,0,0,0,0
2500,2520,0,0,0,0,0,0,0,0
2520,2540,0,0,0,0,0,0,0,0
2540,2560,0,0,0,0,0,0,0,0
2560,2580,0,0,0,0,0,0,0,0
2580,2600,0,0,0,0,0,0,0,0
2600,2620,0,0,0,0,0,0,0,0
2620,2640,0,0,0,0,0,0,0,0
2640,2660,0,0,0,0,0,0,0,0
2660,2680,0,0,0,0,0,0,0,0
2680,2700,0,0,0,0,0,0,0,0
2700,2720,0,0,0,0,0,0,0,0
2720,2740,0,0,0,0,0,0,0,0
2740,2760,0,0,0,0,0,0,0,0
2760,2780,0,0,0,0,0,0,0,0
2780,2800,0,0,0,0,0,0,0,0
2800,2820,0,0,0,0,0,0,0,0
2820,2840,0,0,0,0,0,0,0,0
2840,2860,0,0,0,0,0,0,0,0
2860,2880,0,0,0,0,0,0,0,0
2880,2900,0,0,0,0,0,0,0,0
2900,2920,0,0,0,0,0,0,0,0
2920,2940,0,0,0,0,0,0,0,0
2940,2960,0,0,0,0,0,0,0,0
2960,2980,0,0,0,0,0,0,0,0
2980,3000,0,0,0,0,0,0,0,0
3000,3020,1.833179402e-06,3.708522105e-09,2.816607416e-10,3.548589616e-11,1.841392725e-06,1.070353166e-08,2.811192248e-10,3.691274099e-11
3020,3040,1.817473804e-06,3.69262131e-09,2.68261346e-10,3.463236974e-11,1.822475053e-06,1.064841452e-08,2.617352616e-10,3.561763389e-11
3040,3060,1.796246845e-06,3.6710196e-09,2.369581289e-10,3.254868174e-11,1.805676437e-06,1.059923789e-08,2.811252786e-10,3.691353265e-11
3060,3080,1.785573484e-06,3.660110031e-09,3.263745934e-10,3.819923149e-11,1.783586549e-06,1.05342154e-08,3.05354912e-10,3.847107529e-11
3080,3100,1.769881409e-06,3.644009309e-09,3.308464151e-10,3.846008697e-11,1.759565404e-06,1.046304238e-08,2.37494938e-10,3.392783042e-11
3100,3120,1.757518453e-06,3.631275628e-09,3.040245866e-10,3.686837178e-11,1.768089252e-06,1.048834873e-08,3.053396684e-10,3.846915689e-11
3120,3140,1.737064567e-06,3.61010726e-09,3.621409707e-10,4.023785761e-11,1.753468501e-06,1.044490586e-08,2.811283451e-10,3.691393662e-11
3140,3160,1.723777005e-06,3.596288387e-09,2.771974197e-10,3.520408623e-11,1.729822242e-06,1.037424901e-08,2.908154682e-10,3.754409237e-11
3160,3180,1.704766036e-06,3.576425009e-09,2.77193084e-10,3.5203535e-11,1.711900714e-06,1.032037591e-08,2.277930808e-10,3.322701942e-11
3180,3200,1.690614272e-06,3.561566467e-09,3.263796533e-10,3.819982504e-11,1.679293044e-06,1.022162204e-08,3.344425843e-10,4.026213024e-11
3200,3220,1.679324142e-06,3.549666382e-09,3.308543058e-10,3.846100741e-11,1.680911376e-06,1.022654829e-08,2.617301152e-10,3.561693618e-11
3220,3240,1.659306399e-06,3.528469778e-09,2.995470799e-10,3.659547911e-11,1.667969181e-06,1.018710949e-08,2.714282102e-10,3.627110067e-11
3240,3260,1.649219758e-06,3.517741824e-09,2.369625939e-10,3.254929192e-11,1.639904463e-06,1.010105203e-08,3.295857834e-10,3.996812187e-11
3260,3280,1.644982738e-06,3.513224704e-09,3.308546881e-10,3.846105217e-11,1.621860939e-06,1.004534142e-08,2.665811399e-10,3.594577023e-11
3280,3300,1.621719376e-06,3.488319871e-09,3.21896286e-10,3.79358167e-11,1.628143938e-06,1.006477328e-08,2.762785617e-10,3.659396729e-11
3300,3320,1.615327966e-06,3.481447581e-09,3.353204292e-10,3.871944494e-11,1.617442736e-06,1.003165151e-08,3.635013822e-10,4.197349687e-11
3320,3340,1.600905844e-06,3.465887014e-09,3.219054697e-10,3.79369016e-11,1.608480347e-06,1.000381884e-08,3.005030205e-10,3.816390025e-11
3340,3360,1.594731436e-06,3.459203896e-09,4.202756868e-10,4.334809825e-11,1.601573828e-06,9.982321545e-09,2.908107959e-10,3.75434878e-11
3360,3380,1.582300467e-06,3.445709635e-09,3.129696697e-10,3.740700406e-11,1.584335733e-06,9.928458145e-09,3.005123837e-10,3.816508578e-11
3380,3400,1.570597828e-06,3.432956927e-09,4.202613197e-10,4.334661799e-11,1.580169275e-06,9.915405196e-09,4.119763759e-10,4.468508207e-11
3400,3420,1.551323441e-06,3.411848719e-09,3.979160482e-10,4.217898887e-11,1.559011008e-06,9.84880167e-09,2.85976089e-10,3.723089213e-11
3420,3440,1.546793722e-06,3.406868873e-09,3.979196941e-10,4.217937496e-11,1.521363924e-06,9.729173039e-09,3.538132462e-10,4.141068261e-11
3440,3460,1.538140896e-06,3.397336227e-09,3.934390331e-10,4.194070995e-11,1.533125898e-06,9.766709787e-09,3.489645163e-10,4.112583936e-11
3460,3480,1.530366315e-06,3.388747662e-09,3.263771091e-10,3.819952474e-11,1.511408755e-06,9.697297626e-09,3.538196627e-10,4.141143493e-11
3480,3500,1.51870966e-06,3.375831121e-09,3.531988052e-10,3.973794325e-11,1.49541638e-06,9.645861656e-09,3.974418732e-10,4.389008254e-11
3500,3520,1.506036806e-06,3.361729437e-09,4.023799331e-10,4.241454055e-11,1.502509162e-06,9.668703649e-09,3.247464202e-10,3.967406696e-11
3520,3540,1.496197124e-06,3.350740647e-09,3.666198168e-10,4.048635994e-11,1.481229292e-06,9.600004915e-09,3.974330398e-10,4.388910699e-11
3540,3560,1.487641107e-06,3.341154966e-09,3.397892577e-10,3.897647436e-11,1.479112208e-06,9.593137583e-09,4.653056856e-10,4.749003115e-11
3560,3580,1.482563715e-06,3.335454383e-09,4.783893459e-10,4.624760703e-11,1.470402339e-06,9.564859784e-09,4.265100714e-10,4.546609247e-11
3580,3600,1.467871267e-06,3.318901175e-09,4.783892332e-10,4.624760129e-11,1.459075503e-06,9.527946644e-09,4.70136737e-10,4.773511857e-11
3600,3620,1.460998963e-06,3.311131163e-09,4.336849992e-10,4.403400998e-11,1.446568916e-06,9.487032467e-09,3.683551534e-10,4.225320757e-11
3620,3640,1.454644578e-06,3.30392983e-09,4.739201208e-10,4.603115955e-11,1.479174772e-06,9.593340586e-09,4.653048086e-10,4.748993903e-11
3640,3660,1.447298261e-06,3.295584085e-09,4.962677519e-10,4.710361702e-11,1.451360691e-06,9.502731537e-09,4.507435842e-10,4.673989806e-11
3660,3680,1.440575775e-06,3.287929087e-09,4.604988518e-10,4.537426575e-11,1.439414252e-06,9.463548756e-09,5.137567492e-10,4.990042716e-11
3680,3700,1.434296503e-06,3.280762112e-09,4.336844917e-10,4.403395514e-11,1.439100679e-06,9.462509907e-09,5.137677708e-10,4.99014993e-11
3700,3720,1.425785326e-06,3.271021918e-09,4.873277338e-10,4.667749896e-11,1.443706915e-06,9.477644978e-09,5.525434302e-10,5.175039601e-11
3720,3740,1.420302402e-06,3.264732968e-09,6.259355616e-10,5.29011616e-11,1.40736566e-06,9.357607874e-09,5.573883644e-10,5.197669196e-11
3740,3760,1.419303835e-06,3.263586415e-09,5.901658474e-10,5.136730376e-11,1.422362915e-06,9.407330925e-09,5.040618425e-10,4.942729673e-11
3760,3780,1.404747286e-06,3.246823423e-09,6.169978123e-10,5.252230038e-11,1.40711777e-06,9.356787184e-09,5.816040686e-10,5.309290317e-11
3780,3800,1.404243479e-06,3.246240939e-09,5.678047682e-10,5.038447964e-11,1.404194066e-06,9.347065453e-09,4.847028865e-10,4.847025051e-11
3800,3820,1.401455973e-06,3.243019858e-09,5.275699793e-10,4.856671276e-11,1.405001443e-06,9.349746623e-09,5.961593981e-10,5.375384385e-11
3820,3840,1.391105787e-06,3.231033569e-09,6.080455274e-10,5.213942853e-11,1.383907455e-06,9.279304692e-09,6.155512466e-10,5.462129856e-11
3840,3860,1.39247265e-06,3.23261908e-09,5.901483625e-10,5.136578393e-11,1.396476667e-06,9.321343617e-09,6.44625586e-10,5.589608677e-11
3860,3880,1.392991115e-06,3.233220282e-09,6.259273097e-10,5.290046885e-11,1.385213153e-06,9.283677937e-09,7.318695011e-10,5.955864582e-11
3880,3900,1.386485613e-06,3.225667717e-09,6.885246736e-10,5.548285085e-11,1.391249995e-06,9.303884802e-09,6.737176018e-10,5.714393202e-11
3900,3920,1.389138038e-06,3.228749936e-09,6.259293653e-10,5.290064647e-11,1.375381809e-06,9.250678718e-09,6.543175306e-10,5.631464168e-11
3920,3940,1.387537897e-06,3.226891153e-09,6.97458255e-10,5.584130533e-11,1.380234109e-06,9.266976861e-09,7.657865666e-10,6.092265642e-11
3940,3960,1.379605553e-06,3.217662043e-09,7.466438961e-10,5.777699132e-11,1.378243735e-06,9.260294716e-09,7.949064293e-10,6.207170566e-11
3960,3980,1.383602003e-06,3.222315333e-09,7.600595616e-10,5.829385531e-11,1.384902839e-06,9.28264007e-09,8.142810642e-10,6.282309296e-11
3980,4000,1.377299426e-06,3.21497409e-09,7.153356236e-10,5.655219869e-11,1.37127516e-06,9.236861265e-09,7.270225809e-10,5.936109985e-11
4000,4020,1.341312302e-06,3.172731775e-09,8.002904059e-10,5.981646128e-11,1.33045516e-06,9.098356802e-09,7.997250773e-10,6.225846072e-11
4020,4040,1.301818125e-06,3.125714087e-09,8.405271626e-10,6.130168453e-11,1.319254974e-06,9.059984633e-09,9.257294255e-10,6.698336981e-11
4040,4060,1.289461896e-06,3.110857439e-09,8.271239504e-10,6.081130124e-11,1.28223021e-06,8.931958455e-09,9.451427616e-10,6.768301805e-11
4060,4080,1.268400009e-06,3.085368233e-09,1.04171991e-09,6.824526821e-11,1.277749575e-06,8.916339401e-09,9.499756994e-10,6.785534492e-11
4080,4100,1.26109846e-06,3.076481733e-09,8.271234328e-10,6.08112635e-11,1.268913588e-06,8.885459508e-09,9.935990075e-10,6.939589814e-11
4100,4120,1.257554178e-06,3.072160165e-09,1.108802311e-09,7.040894455e-11,1.250805996e-06,8.821840608e-09,1.15840076e-09,7.493063446e-11
4120,4140,1.250125012e-06,3.063079113e-09,1.041709514e-09,6.824459198e-11,1.247073969e-06,8.808677168e-09,1.066304898e-09,7.189018647e-11
4140,4160,1.243537587e-06,3.055004884e-09,1.175866207e-09,7.250693227e-11,1.245828353e-06,8.804273642e-09,1.114775408e-09,7.350603298e-11
4160,4180,1.245738571e-06,3.057705042e-09,1.220568619e-09,7.387208946e-11,1.230146302e-06,8.748686598e-09,1.323157334e-09,8.00810329e-11
4180,4200,1.241193791e-06,3.052126396e-09,1.309989137e-09,7.653028823e-11,1.254850144e-06,8.836087211e-09,1.182625531e-09,7.570975626e-11
4200,4220,1.24337271e-06,3.054802906e-09,1.412804703e-09,7.947637448e-11,1.237613053e-06,8.77519466e-09,1.366809073e-09,8.139219772e-11
4220,4240,1.243056704e-06,3.054414238e-09,1.430715915e-09,7.997935457e-11,1.244021693e-06,8.797880136e-09,1.347429872e-09,8.081338414e-11
4240,4260,1.247105648e-06,3.059381156e-09,1.551439573e-09,8.328553274e-11,1.265553508e-06,8.873689563e-09,1.570391445e-09,8.724385947e-11
4260,4280,1.244490988e-06,3.056173789e-09,1.703445025e-09,8.727000377e-11,1.252423663e-06,8.827543022e-09,1.575207735e-09,8.737668783e-11
4280,4300,1.256659063e-06,3.071066057e-09,1.743667549e-09,8.82939079e-11,1.271465825e-06,8.894394257e-09,1.769100401e-09,9.259881968e-11
4300,4320,1.259701826e-06,3.074779427e-09,1.622946137e-09,8.518246009e-11,1.260699398e-06,8.85665579e-09,1.788469731e-09,9.310388525e-11
4320,4340,1.265237771e-06,3.081522851e-09,1.985089661e-09,9.420803268e-11,1.256281688e-06,8.841126336e-09,1.773931903e-09,9.272478654e-11
4340,4360,1.277525918e-06,3.09643751e-09,2.195221064e-09,9.906877395e-11,1.280301049e-06,8.925236868e-09,2.11808274e-09,1.013214906e-10
4360,4380,1.289214e-06,3.110558608e-09,2.204181822e-09,9.927118103e-11,1.278682716e-06,8.919593673e-09,2.355558625e-09,1.068501336e-10
4380,4400,1.299789878e-06,3.12328033e-09,2.342766135e-09,1.023440396e-10,1.294925213e-06,8.976064608e-09,2.491257419e-09,1.098844626e-10
4400,4420,1.317044077e-06,3.143925082e-09,2.664670968e-09,1.091489697e-10,1.311289639e-06,9.032593658e-09,2.689973082e-09,1.141827931e-10
4420,4440,1.328942034e-06,3.158081461e-09,2.888194374e-09,1.136342574e-10,1.339041733e-06,9.127664487e-09,2.990468652e-09,1.203915014e-10
4440,4460,1.348689067e-06,3.181436723e-09,3.205674763e-09,1.19717847e-10,1.363993558e-06,9.212302207e-09,3.242589305e-09,1.253654816e-10
4460,4480,1.369329309e-06,3.205666019e-09,3.567796377e-09,1.262983151e-10,1.378243623e-06,9.260295003e-09,3.543047996e-09,1.310440729e-10
4480,4500,1.390489769e-06,3.23031866e-09,3.997009187e-09,1.336796223e-10,1.390191741e-06,9.300345421e-09,3.896853569e-09,1.374310999e-10
4500,4520,1.420970104e-06,3.265498179e-09,4.359174086e-09,1.396049014e-10,1.419251593e-06,9.397037385e-09,4.352507507e-09,1.452446771e-10
4520,4540,1.446922807e-06,3.295157114e-09,4.918030802e-09,1.482837379e-10,1.444080232e-06,9.47886942e-09,4.754725244e-09,1.518062742e-10
4540,4560,1.478845595e-06,3.331273142e-09,5.396424763e-09,1.553284513e-10,1.49006505e-06,9.628589563e-09,5.530215973e-09,1.637185452e-10
4560,4580,1.517994938e-06,3.375036221e-09,6.11622762e-09,1.653632172e-10,1.517008417e-06,9.715239449e-09,6.296021217e-09,1.746867852e-10
4580,4600,1.560065704e-06,3.421437705e-09,7.131151731e-09,1.785572273e-10,1.553535884e-06,9.831497049e-09,7.187873337e-09,1.866500339e-10
4600,4620,1.597795783e-06,3.462521836e-09,9.062573714e-09,2.01290052e-10,1.595662507e-06,9.963885458e-09,8.525612601e-09,2.032781148e-10
4620,4640,1.660756127e-06,3.530009663e-09,1.085545571e-08,2.203032359e-10,1.671827921e-06,1.019888763e-08,1.046912788e-08,2.252584707e-10
4640,4660,1.712149623e-06,3.584153285e-09,1.247394536e-08,2.361557672e-10,1.714452124e-06,1.032806102e-08,1.29264451e-08,2.503021629e-10
4660,4680,1.780698358e-06,3.655115429e-09,1.674817735e-08,2.736399299e-10,1.788562696e-06,1.054889274e-08,1.670229492e-08,2.845212393e-10
4680,4700,1.870188486e-06,3.745724551e-09,2.322653315e-08,3.222447955e-10,1.876488977e-06,1.080504017e-08,2.319698541e-08,3.353049255e-10
4700,4720,1.960144703e-06,3.834638453e-09,3.75200377e-08,4.09563667e-10,1.966964637e-06,1.106241418e-08,3.664211884e-08,4.214164917e-10
4720,4740,2.075789981e-06,3.945986134e-09,7.220577238e-08,5.681569362e-10,2.080094025e-06,1.137605065e-08,7.185915635e-08,5.901390145e-10
4740,4760,2.211700547e-06,4.072936883e-09,7.248732575e-08,5.69262965e-10,2.218421567e-06,1.174815128e-08,7.278496843e-08,5.939283455e-10
4760,4780,2.370895796e-06,4.216751749e-09,6.065727563e-08,5.207464982e-10,2.378526512e-06,1.216461688e-08,6.170044317e-08,5.468402556e-10
4780,4800,2.567701549e-06,4.38799408e-09,1.389075962e-07,7.880052745e-10,2.57211243e-06,1.26498734e-08,1.373209274e-07,8.157706683e-10
4800,4820,2.801515538e-06,4.58307453e-09,3.59624516e-07,1.267763999e-09,2.79301697e-06,1.318178676e-08,3.603236962e-07,1.321287418e-09
4820,4840,3.102744792e-06,4.822703337e-09,6.621374731e-07,1.719950825e-09,3.111551537e-06,1.391299036e-08,6.610853487e-07,1.789429441e-09
4840,4860,3.478943343e-06,5.10607938e-09,5.113588767e-07,1.51161221e-09,3.494428493e-06,1.474393346e-08,5.120208409e-07,1.574932809e-09
4860,4880,4.000224861e-06,5.474339528e-09,1.348836507e-07,7.765091942e-10,4.005055256e-06,1.578413209e-08,1.353866161e-07,8.100043521e-10
4880,4900,4.682415994e-06,5.921438796e-09,3.533427125e-07,1.256646799e-09,4.684003461e-06,1.706920438e-08,3.537126296e-07,1.309114499e-09
4900,4920,5.689788106e-06,6.525239681e-09,2.734185736e-06,3.491104301e-09,5.701023248e-06,1.883056305e-08,2.732004294e-06,3.633926116e-09
4920,4940,7.237018314e-06,7.355415486e-09,8.123307927e-06,5.999672285e-09,7.261284419e-06,2.125038166e-08,8.139752362e-06,6.255484406e-09
4940,4960,9.979913655e-06,8.629752087e-09,3.837845313e-05,1.282124287e-08,9.967179768e-06,2.489425297e-08,3.840885474e-05,1.337964147e-08
4960,4980,1.593880258e-05,1.0884483e-08,0.0003863843393,3.158128136e-08,1.596197801e-05,3.149577215e-08,0.0003864190109,3.390498844e-08
4980,5000,2.059452664e-05,1.236146895e-08,8.248723187e-05,1.832733958e-08,2.056788942e-05,3.574928444e-08,8.246520155e-05,1.915385426e-08
