# xl,xh,LOnovp,dLOnovp,LO,dLO,PS+LOnovp,dPS+LOnovp,PS+LO,dPS+LO
0,1,0.004279468967,7.43484933e-07,0.01041355337,6.331174777e-07,0.004281149415,2.288426405e-06,0.0104146859,6.957887019e-07
1,2,0.03004561361,2.669542853e-07,0.01788413536,1.87118777e-07,0.2489042096,1.37872749e-06,0.01938757859,2.418465564e-07
2,3,0.1424324055,2.471282647e-05,0.5822788293,3.487296998e-05,0.01719998842,9.193510845e-06,0.5371834407,3.525722611e-05
3,4,200000889.1,0,200004236.1,0,200000020.9,0,200002181.1,0
4,5,200000000,0,200000000,0,200000000,0,200000000,0
5,6,200,0,200,0,200,0,200,0
6,7,990578.02,0,4866264.47,0,945717.39,0,7070238.21,0
