# xl,xh,LOnovp,dLOnovp,LO,dLO,PS+LOnovp,dPS+LOnovp,PS+LO,dPS+LO
0,0.05,0,0,0,0,0,0,0,0
0.05,0.1,0,0,0,0,0,0,0,0
0.1,0.15,0,0,0,0,0,0,0,0
0.15,0.2,0,0,0,0,0,0,0,0
0.2,0.25,0,0,0,0,0,0,0,0
0.25,0.3,0,0,0,0,0,0,0,0
0.3,0.35,0,0,0,0,0,0,0,0
0.35,0.4,0.0001377043222,6.431525624e-07,0.0003621674612,8.04393842e-07,0.0001393864768,1.862603339e-06,0.0003625381589,8.379910931e-07
0.4,0.45,0.0007603878035,1.510554078e-06,0.002422042026,2.07432583e-06,0.0007581872282,4.343814959e-06,0.002420330664,2.159629856e-06
0.45,0.5,0.0008837366916,1.628306804e-06,0.003181037739,2.374741652e-06,0.0008843564956,4.691278626e-06,0.003183946366,2.474614951e-06
0.5,0.55,0.001009029463,1.739731298e-06,0.003734248661,2.570999492e-06,0.001007664002,5.007606108e-06,0.003738190321,2.679489382e-06
0.55,0.6,0.001142462389,1.850992568e-06,0.004144582813,2.7070497e-06,0.001138811726,5.323442431e-06,0.004149722039,2.821801696e-06
0.6,0.65,0.001266551857,1.9487439e-06,0.004458935134,2.806820614e-06,0.001269038431,5.6195085e-06,0.004458476095,2.923634168e-06
0.65,0.7,0.001398810177,2.047861434e-06,0.004708938811,2.883302339e-06,0.001394559644,5.890794075e-06,0.004702371654,3.001664454e-06
0.7,0.75,0.001527656816,2.142309649e-06,0.004931981737,2.950234607e-06,0.001519709506,6.1493657e-06,0.00492984943,3.07260867e-06
0.75,0.8,0.001649202465,2.223070587e-06,0.005153602497,3.015394622e-06,0.001646551239,6.40076931e-06,0.005146116529,3.138375401e-06
0.8,0.85,0.001756646517,2.294672082e-06,0.005381430667,3.079575785e-06,0.001760623787,6.618701728e-06,0.005379860521,3.207877056e-06
0.85,0.9,0.001847692402,2.352752793e-06,0.005651279088,3.15448352e-06,0.001843408781,6.772464663e-06,0.005654108505,3.287778923e-06
0.9,0.95,0.001919944573,2.398543121e-06,0.005979917806,3.243588133e-06,0.001912932192,6.898954352e-06,0.005977197121,3.378649462e-06
0.95,1,0.001978709569,2.434324241e-06,0.006073781407,3.268601009e-06,0.001993174291,7.04209714e-06,0.006079808775,3.407147745e-06
1,1.05,0.002028712246,2.464794215e-06,0.005839563836,3.205794872e-06,0.002022768817,7.094163838e-06,0.005841248296,3.340584807e-06
1.05,1.1,0.002069044788,2.489109533e-06,0.005521188345,3.118563502e-06,0.002061275901,7.16134617e-06,0.005522694121,3.249534048e-06
1.1,1.15,0.002104131144,2.510097258e-06,0.005215289977,3.032293703e-06,0.002103389695,7.234100268e-06,0.005212426057,3.158248378e-06
1.15,1.2,0.002127591349,2.523935071e-06,0.004953278717,2.956162596e-06,0.002135000828,7.288234759e-06,0.004950618542,3.078870687e-06
1.2,1.25,0.002154376501,2.539723349e-06,0.004704328342,2.882072087e-06,0.002147768615,7.309984451e-06,0.004708746444,3.003604435e-06
1.25,1.3,0.002168493422,2.548122395e-06,0.004505173893,2.820957213e-06,0.002165218077,7.339608058e-06,0.004505908185,2.938998843e-06
1.3,1.35,0.002182349376,2.556118552e-06,0.004334485477,2.767680432e-06,0.002197552164,7.394277003e-06,0.004329843339,2.881616796e-06
1.35,1.4,0.002194390521,2.563110972e-06,0.004196557128,2.723803136e-06,0.00219665366,7.392671262e-06,0.004205394412,2.840382397e-06
1.4,1.45,0.002210273348,2.572338633e-06,0.00409387948,2.690650036e-06,0.002223336203,7.437414982e-06,0.004095140132,2.803265273e-06
1.45,1.5,0.002214178796,2.574589902e-06,0.004018074621,2.665999734e-06,0.0022188569,7.429924099e-06,0.004018796787,2.77726621e-06
1.5,1.55,0.002215387779,2.575306327e-06,0.003977473574,2.652605067e-06,0.00221753553,7.42770833e-06,0.003980383548,2.764098621e-06
1.55,1.6,0.002222797825,2.579591059e-06,0.003967869848,2.649376064e-06,0.00221992776,7.431717086e-06,0.003968981847,2.760191459e-06
1.6,1.65,0.002233775172,2.585915292e-06,0.003990479115,2.656814734e-06,0.002215222022,7.423837022e-06,0.003984118019,2.765408827e-06
1.65,1.7,0.002236323443,2.587413813e-06,0.004032157368,2.670633965e-06,0.002239499721,7.464409777e-06,0.0040327033,2.78202109e-06
1.7,1.75,0.002249809019,2.595142042e-06,0.004115204693,2.697576376e-06,0.002241831006,7.468273335e-06,0.004112098656,2.809016554e-06
1.75,1.8,0.002261704851,2.602373475e-06,0.004224042605,2.732595968e-06,0.002262016468,7.5018035e-06,0.004223928063,2.84675907e-06
1.8,1.85,0.00228173703,2.613427646e-06,0.004362278493,2.77643261e-06,0.002283072906,7.53662196e-06,0.004367993208,2.894219122e-06
1.85,1.9,0.002302325321,2.625275753e-06,0.004539744287,2.831679946e-06,0.002299153151,7.56483448e-06,0.004544695539,2.951484689e-06
1.9,1.95,0.002321911893,2.636252039e-06,0.004756854511,2.89769205e-06,0.002321745364,7.600200113e-06,0.004757837983,3.019055637e-06
1.95,2,0.002345062913,2.649333505e-06,0.005002784327,2.970899444e-06,0.002336425231,7.624157193e-06,0.005006765853,3.096037274e-06
2,2.05,0.002360589314,2.658047219e-06,0.005296040444,3.05522908e-06,0.002371524669,7.681832463e-06,0.005296511678,3.183202906e-06
2.05,2.1,0.002372175634,2.664593412e-06,0.005623936965,3.147112857e-06,0.002382734114,7.699283531e-06,0.005624333344,3.278879959e-06
2.1,2.15,0.002388656347,2.673933793e-06,0.006007175843,3.250805681e-06,0.002405062013,7.735257938e-06,0.006006533123,3.386905185e-06
2.15,2.2,0.002394708891,2.677110277e-06,0.00643627542,3.365964012e-06,0.002391596242,7.713582668e-06,0.006441194431,3.505491809e-06
2.2,2.25,0.002382875721,2.67054739e-06,0.006920087862,3.484609871e-06,0.00238393113,7.701219808e-06,0.006915119782,3.629764011e-06
2.25,2.3,0.002369175703,2.662895309e-06,0.007417529911,3.605209521e-06,0.002372106569,7.682102725e-06,0.007415695031,3.756438788e-06
2.3,2.35,0.002327134245,2.639221004e-06,0.007830000791,3.701996452e-06,0.002344334377,7.637108525e-06,0.007839356832,3.86021851e-06
2.35,2.4,0.002266782184,2.60507719e-06,0.007959590569,3.731908233e-06,0.002265600621,7.507742332e-06,0.007956208156,3.888350442e-06
2.4,2.45,0.002159824754,2.543118168e-06,0.007480283721,3.620099551e-06,0.002168203832,7.344662255e-06,0.007489170351,3.774812064e-06
2.45,2.5,0.001992947993,2.443508208e-06,0.006305772746,3.329336934e-06,0.001989251736,7.035191399e-06,0.006308719039,3.469732996e-06
2.5,2.55,0.001751627864,2.290975374e-06,0.005026302994,2.977671491e-06,0.001747157534,6.593349144e-06,0.005020646544,3.100276041e-06
2.55,2.6,0.001495746138,2.11733297e-06,0.003816766606,2.598969995e-06,0.001498702487,6.106729729e-06,0.003816761896,2.707254851e-06
2.6,2.65,0.001239141546,1.927567735e-06,0.002367606646,2.05103745e-06,0.001232324918,5.537645394e-06,0.002370561503,2.137461698e-06
2.65,2.7,0.00102766027,1.755691578e-06,0.001116348889,1.410799138e-06,0.001028397555,5.058850375e-06,0.00111695855,1.469504215e-06
2.7,2.75,0.0008572934824,1.603795365e-06,0.0004357073245,8.822013066e-07,0.0008628510384,4.633896387e-06,0.0004363128346,9.192241272e-07
2.75,2.8,2.466737198e-05,2.722339807e-07,7.359183644e-06,1.14720256e-07,2.543801464e-05,7.957129943e-07,7.402088541e-06,1.197931754e-07
2.8,2.85,0,0,0,0,0,0,0,0
2.85,2.9,0,0,0,0,0,0,0,0
2.9,2.95,0,0,0,0,0,0,0,0
2.95,3,0,0,0,0,0,0,0,0
3,3.05,0,0,0,0,0,0,0,0
3.05,3.1,0,0,0,0,0,0,0,0
3.1,3.15,0,0,0,0,0,0,0,0
