# xl,xh,LOnovp,dLOnovp,LO,dLO,PS+LOnovp,dPS+LOnovp,PS+LO,dPS+LO
0,40,0,0,0,0,0,0,0,0
40,80,0,0,0,0,0,0,0,0
80,120,0,0,0,0,0,0,0,0
120,160,0,0,0,0,0,0,0,0
160,200,0,0,0,0,0,0,0,0
200,240,0,0,0,0,0,0,0,0
240,280,0,0,0,0,0,0,0,0
280,320,0,0,0,0,0,0,0,0
320,360,0,0,0,0,0,0,0,0
360,400,0,0,0,0,0,0,0,0
400,440,0,0,0,0,0,0,0,0
440,480,0,0,0,0,0,0,0,0
480,520,2.218971305e-07,9.127610154e-10,8.968847534e-07,1.414617852e-09,2.175421355e-07,2.601566421e-09,8.953447473e-07,1.472737446e-09
520,560,2.483745515e-07,9.65666325e-10,1.010055588e-06,1.501042292e-09,2.493398916e-07,2.785211921e-09,1.009877832e-06,1.562825826e-09
560,600,2.784735323e-07,1.02248704e-09,1.125215954e-06,1.584167203e-09,2.761280441e-07,2.93100473e-09,1.125851864e-06,1.649963203e-09
600,640,3.107224802e-07,1.080056238e-09,1.236493225e-06,1.660401131e-09,3.075832602e-07,3.093438683e-09,1.23449233e-06,1.729558164e-09
640,680,3.416646464e-07,1.133003899e-09,1.347526887e-06,1.733429263e-09,3.332821456e-07,3.220067638e-09,1.344750002e-06,1.802827092e-09
680,720,3.739723444e-07,1.184868107e-09,1.455516273e-06,1.800984642e-09,3.744457093e-07,3.413128391e-09,1.454748239e-06,1.874932846e-09
720,760,4.031445185e-07,1.230167926e-09,1.562133443e-06,1.865727883e-09,3.973439446e-07,3.51592967e-09,1.563483898e-06,1.943507151e-09
760,800,4.399130251e-07,1.2850242e-09,1.667378271e-06,1.927335996e-09,4.381028682e-07,3.691848964e-09,1.669503662e-06,2.008167791e-09
800,840,4.74825905e-07,1.335027367e-09,1.775193612e-06,1.98844021e-09,4.720467071e-07,3.832189748e-09,1.771458248e-06,2.06833222e-09
840,880,5.060040604e-07,1.378111667e-09,1.878304596e-06,2.044976418e-09,5.062093639e-07,3.968428837e-09,1.875154155e-06,2.127774192e-09
880,920,5.407720068e-07,1.424661371e-09,1.976243538e-06,2.097419107e-09,5.4046425e-07,4.100488612e-09,1.977074079e-06,2.184584283e-09
920,960,5.756887613e-07,1.469902819e-09,2.078628542e-06,2.150941425e-09,5.750001205e-07,4.229461298e-09,2.077987117e-06,2.239548926e-09
960,1000,6.114741097e-07,1.515295278e-09,2.174836043e-06,2.199991861e-09,6.051475894e-07,4.338906545e-09,2.1737845e-06,2.290310801e-09
1000,1040,6.433927512e-07,1.553922281e-09,2.266826048e-06,2.245700823e-09,6.449784129e-07,4.479435161e-09,2.273651447e-06,2.342063756e-09
1040,1080,6.796280926e-07,1.597337522e-09,2.362704313e-06,2.292345552e-09,6.860108884e-07,4.619686832e-09,2.35962226e-06,2.385714366e-09
1080,1120,7.150743986e-07,1.638230728e-09,2.454733413e-06,2.336335865e-09,7.127681031e-07,4.708908542e-09,2.45676e-06,2.434123806e-09
1120,1160,7.514056783e-07,1.679564597e-09,2.544204345e-06,2.378351373e-09,7.51659198e-07,4.835653382e-09,2.54108233e-06,2.475257112e-09
1160,1200,7.856120289e-07,1.71688941e-09,2.627344123e-06,2.416935981e-09,7.891510357e-07,4.954772197e-09,2.625429733e-06,2.515826262e-09
1200,1240,8.16512718e-07,1.750754687e-09,2.712617927e-06,2.455597578e-09,8.211967508e-07,5.054356641e-09,2.710975153e-06,2.556256586e-09
1240,1280,8.575754507e-07,1.79370083e-09,2.791240492e-06,2.490858428e-09,8.685200317e-07,5.197933112e-09,2.796553094e-06,2.596615475e-09
1280,1320,8.935976259e-07,1.830968899e-09,2.873373113e-06,2.52666477e-09,9.002868755e-07,5.292126938e-09,2.874342606e-06,2.631755462e-09
1320,1360,9.305728184e-07,1.86838372e-09,2.952466773e-06,2.561380953e-09,9.319909141e-07,5.384488548e-09,2.952283923e-06,2.667060099e-09
1360,1400,9.669284686e-07,1.904462277e-09,3.020149722e-06,2.590194645e-09,9.659038864e-07,5.481562746e-09,3.024052992e-06,2.698973505e-09
1400,1440,1.00132473e-06,1.93820495e-09,3.099597168e-06,2.62357821e-09,9.919766737e-07,5.555040343e-09,3.09376753e-06,2.729735785e-09
1440,1480,1.035124745e-06,1.970445338e-09,3.164671637e-06,2.650654607e-09,1.033232473e-06,5.66936084e-09,3.164614874e-06,2.760587483e-09
1480,1520,1.071655075e-06,2.004821735e-09,3.229885923e-06,2.677985007e-09,1.076478659e-06,5.786768508e-09,3.23511329e-06,2.791147093e-09
1520,1560,1.107872709e-06,2.040226147e-09,3.299999697e-06,2.706603413e-09,1.108775317e-06,5.872923061e-09,3.297070584e-06,2.817451265e-09
1560,1600,1.141107021e-06,2.06886011e-09,3.355326857e-06,2.729126233e-09,1.140603178e-06,5.956602317e-09,3.360789633e-06,2.844611055e-09
1600,1640,1.18178219e-06,2.109076963e-09,3.416016863e-06,2.753579142e-09,1.188082174e-06,6.079290979e-09,3.42294745e-06,2.87042481e-09
1640,1680,1.215808441e-06,2.135237253e-09,3.475528172e-06,2.777072206e-09,1.227521457e-06,6.180654603e-09,3.47410344e-06,2.891763315e-09
1680,1720,1.249802586e-06,2.164814791e-09,3.525618532e-06,2.796882813e-09,1.253856165e-06,6.245273681e-09,3.532486639e-06,2.915668065e-09
1720,1760,1.286258355e-06,2.196142538e-09,3.580096679e-06,2.818279587e-09,1.286196404e-06,6.325328899e-09,3.585486426e-06,2.937324126e-09
1760,1800,1.323614987e-06,2.227737983e-09,3.62285681e-06,2.835056178e-09,1.317200126e-06,6.401046078e-09,3.628241149e-06,2.954537762e-09
1800,1840,1.361621068e-06,2.259485073e-09,3.676527125e-06,2.855444131e-09,1.357876358e-06,6.502288087e-09,3.677836795e-06,2.974865614e-09
1840,1880,1.399671211e-06,2.290746253e-09,3.717747412e-06,2.871288866e-09,1.391934952e-06,6.580095278e-09,3.714295978e-06,2.989119974e-09
1880,1920,1.437782903e-06,2.322272245e-09,3.760698362e-06,2.888825216e-09,1.419157871e-06,6.644111793e-09,3.751476133e-06,3.004008809e-09
1920,1960,1.471055663e-06,2.348310612e-09,3.79929809e-06,2.907642349e-09,1.464082478e-06,6.748557345e-09,3.795117747e-06,3.021324802e-09
1960,2000,1.505000862e-06,2.375624907e-09,3.834231819e-06,2.91602307e-09,1.504999416e-06,6.842060087e-09,3.835509762e-06,3.037752052e-09
2000,2040,1.422700314e-06,2.309723318e-09,3.868517006e-06,2.928558641e-09,1.419406799e-06,6.644695334e-09,3.863903573e-06,3.048356916e-09
2040,2080,1.37763789e-06,2.272677465e-09,3.890916216e-06,2.93703976e-09,1.370994689e-06,6.530419837e-09,3.89317463e-06,3.059782325e-09
2080,2120,1.358789519e-06,2.257154023e-09,3.926461518e-06,2.949987399e-09,1.358238612e-06,6.499976124e-09,3.926774861e-06,3.072802842e-09
2120,2160,1.352063194e-06,2.251592211e-09,3.959247411e-06,2.962323129e-09,1.360532786e-06,6.505708555e-09,3.950095179e-06,3.081776627e-09
2160,2200,1.352257882e-06,2.251840026e-09,3.971180868e-06,2.966644148e-09,1.344261016e-06,6.466527739e-09,3.976921357e-06,3.092299511e-09
2200,2240,1.349193509e-06,2.249647051e-09,3.997019142e-06,2.976183039e-09,1.346541513e-06,6.471936163e-09,3.997775033e-06,3.100157137e-09
2240,2280,1.3505293e-06,2.250228476e-09,4.010270947e-06,2.981676628e-09,1.356870053e-06,6.496702343e-09,4.01584303e-06,3.107121666e-09
2280,2320,1.351011605e-06,2.250602827e-09,4.034143839e-06,2.989832081e-09,1.346977096e-06,6.472982106e-09,4.036053278e-06,3.114860581e-09
2320,2360,1.350694804e-06,2.250294037e-09,4.041938874e-06,2.992676719e-09,1.347784943e-06,6.47492015e-09,4.041865191e-06,3.117172899e-09
2360,2400,1.350739735e-06,2.250326661e-09,4.054109268e-06,2.997134415e-09,1.360945838e-06,6.50645016e-09,4.049815253e-06,3.120225184e-09
2400,2440,1.350476569e-06,2.250107531e-09,4.056892912e-06,2.998111051e-09,1.353976292e-06,6.489771268e-09,4.057982674e-06,3.123207004e-09
2440,2480,1.351648622e-06,2.251082239e-09,4.066863133e-06,3.001742303e-09,1.351673617e-06,6.484251096e-09,4.065832103e-06,3.126200999e-09
2480,2520,1.352557301e-06,2.251837136e-09,4.067700514e-06,3.002047955e-09,1.354100126e-06,6.490067056e-09,4.061461696e-06,3.12453386e-09
2520,2560,1.352244941e-06,2.251577353e-09,4.062752164e-06,3.000237923e-09,1.359017173e-06,6.501840139e-09,4.060422148e-06,3.124136994e-09
2560,2600,1.355648339e-06,2.254404626e-09,4.066592065e-06,3.001642487e-09,1.346977087e-06,6.472982928e-09,4.064200327e-06,3.125578566e-09
2600,2640,1.348921586e-06,2.24881398e-09,4.057830586e-06,2.99843627e-09,1.345979998e-06,6.470583499e-09,4.057390069e-06,3.12297993e-09
2640,2680,1.345477669e-06,2.245946249e-09,4.052521782e-06,2.996491826e-09,1.35067848e-06,6.481866184e-09,4.049046853e-06,3.119794011e-09
2680,2720,1.340580949e-06,2.241863369e-09,4.034427842e-06,2.989854837e-09,1.342029281e-06,6.461083617e-09,4.040329678e-06,3.116461123e-09
2720,2760,1.341410509e-06,2.242555622e-09,4.021149464e-06,2.984973964e-09,1.325041817e-06,6.420070122e-09,4.020074698e-06,3.108702666e-09
2760,2800,1.339333775e-06,2.240822338e-09,4.009835589e-06,2.980809038e-09,1.338451533e-06,6.452467568e-09,4.006299464e-06,3.103415082e-09
2800,2840,1.333809231e-06,2.236204019e-09,3.990172132e-06,2.973556345e-09,1.332352858e-06,6.43775283e-09,3.9884962e-06,3.096568219e-09
2840,2880,1.32825035e-06,2.231547209e-09,3.964498006e-06,2.964058507e-09,1.325072754e-06,6.420145158e-09,3.965561691e-06,3.087722942e-09
2880,2920,1.321422924e-06,2.225814766e-09,3.941600151e-06,2.955560718e-09,1.329738975e-06,6.431435267e-09,3.945650546e-06,3.08002314e-09
2920,2960,1.316679378e-06,2.22182295e-09,3.913225352e-06,2.944995701e-09,1.313996459e-06,6.393260541e-09,3.918223204e-06,3.069384456e-09
2960,3000,1.303387714e-06,2.210599e-09,3.886013086e-06,2.934825765e-09,1.311631856e-06,6.387507457e-09,3.889614173e-06,3.058246178e-09
3000,3040,1.298396465e-06,2.206369504e-09,3.856645317e-06,2.923810106e-09,1.2877064e-06,6.328994821e-09,3.856414275e-06,3.045268728e-09
3040,3080,1.292241129e-06,2.201142585e-09,3.825599455e-06,2.912117384e-09,1.28820467e-06,6.330220343e-09,3.823949521e-06,3.032522351e-09
3080,3120,1.284677228e-06,2.194702128e-09,3.783141033e-06,2.896048415e-09,1.285309331e-06,6.323099679e-09,3.786395936e-06,3.017709135e-09
3120,3160,1.276902799e-06,2.188062033e-09,3.751567479e-06,2.884038421e-09,1.276161983e-06,6.300562594e-09,3.743909106e-06,3.000859301e-09
3160,3200,1.269939861e-06,2.182098391e-09,3.703903006e-06,2.865809346e-09,1.260668015e-06,6.262206466e-09,3.710744411e-06,2.987638139e-09
3200,3240,1.256521039e-06,2.170558486e-09,3.656944782e-06,2.847732591e-09,1.255721888e-06,6.249915056e-09,3.658497258e-06,2.966686563e-09
3240,3280,1.251596845e-06,2.166307513e-09,3.610352865e-06,2.829678453e-09,1.259610332e-06,6.259580597e-09,3.616953481e-06,2.949918038e-09
3280,3320,1.237302754e-06,2.153921993e-09,3.563791178e-06,2.811515994e-09,1.234222367e-06,6.196190012e-09,3.561753802e-06,2.927483668e-09
3320,3360,1.225772615e-06,2.143878754e-09,3.506678627e-06,2.789073154e-09,1.229804657e-06,6.185094164e-09,3.513005276e-06,2.907523975e-09
3360,3400,1.223275099e-06,2.141697061e-09,3.45247011e-06,2.767596518e-09,1.220346317e-06,6.16126868e-09,3.457409858e-06,2.884587219e-09
3400,3440,1.205852842e-06,2.126415584e-09,3.398184349e-06,2.745916673e-09,1.192655822e-06,6.090979881e-09,3.397156053e-06,2.859514437e-09
3440,3480,1.196279496e-06,2.117971161e-09,3.334207115e-06,2.720136343e-09,1.193339893e-06,6.092724503e-09,3.338230026e-06,2.834773961e-09
3480,3520,1.187048186e-06,2.10979633e-09,3.278517372e-06,2.697489701e-09,1.186992658e-06,6.076502676e-09,3.270192531e-06,2.805928931e-09
3520,3560,1.174387743e-06,2.098532564e-09,3.210798116e-06,2.669684881e-09,1.172245298e-06,6.038644419e-09,3.209869747e-06,2.780098264e-09
3560,3600,1.16120188e-06,2.086736724e-09,3.138402496e-06,2.639626643e-09,1.166333696e-06,6.023401289e-09,3.144936024e-06,2.752014076e-09
3600,3640,1.154666399e-06,2.080864586e-09,3.069527382e-06,2.610698631e-09,1.154449369e-06,5.992643159e-09,3.072847321e-06,2.720487951e-09
3640,3680,1.135809801e-06,2.063829731e-09,2.99702285e-06,2.579887527e-09,1.143465875e-06,5.964071524e-09,2.99887448e-06,2.687743054e-09
3680,3720,1.121684093e-06,2.050974416e-09,2.923130878e-06,2.548092776e-09,1.129807193e-06,5.928349966e-09,2.921272316e-06,2.652947076e-09
3720,3760,1.109436726e-06,2.039763032e-09,2.841990657e-06,2.512703233e-09,1.12003773e-06,5.902668253e-09,2.838072443e-06,2.615112919e-09
3760,3800,1.096371065e-06,2.027734144e-09,2.763219315e-06,2.477851197e-09,1.10342314e-06,5.858731979e-09,2.765648521e-06,2.581718052e-09
3800,3840,1.083474307e-06,2.015789994e-09,2.682075838e-06,2.441416009e-09,1.079932546e-06,5.796043722e-09,2.68224265e-06,2.542704244e-09
3840,3880,1.067192677e-06,2.000607463e-09,2.600499348e-06,2.404216871e-09,1.072060434e-06,5.774882526e-09,2.600738054e-06,2.503979119e-09
3880,3920,1.053064144e-06,1.987339154e-09,2.505525478e-06,2.360152635e-09,1.046330674e-06,5.70517556e-09,2.506910694e-06,2.458627629e-09
3920,3960,1.042690557e-06,1.977539129e-09,2.426302422e-06,2.322741501e-09,1.036312611e-06,5.677803401e-09,2.415081859e-06,2.413399836e-09
3960,4000,1.017272454e-06,1.953320082e-09,2.327141923e-06,2.275030608e-09,1.026667152e-06,5.651322159e-09,2.327058525e-06,2.369220264e-09
4000,4040,9.011090977e-07,1.838554547e-09,9.527032778e-07,1.45784012e-09,9.007526679e-07,5.293492368e-09,9.528629114e-07,1.518153015e-09
4040,4080,8.015568577e-07,1.734136535e-09,3.984731823e-08,2.984456145e-10,7.95466049e-07,4.974551927e-09,4.054630883e-08,3.134530899e-10
4080,4120,7.424013917e-07,1.668985007e-09,1.050896033e-08,1.532707966e-10,7.553307342e-07,4.847449278e-09,1.076483627e-08,1.615151508e-10
4120,4160,7.054451697e-07,1.626953469e-09,7.801802004e-09,1.32062129e-10,7.119279481e-07,4.706132245e-09,7.902790448e-09,1.383889547e-10
4160,4200,6.719859022e-07,1.587936611e-09,3.049151346e-09,8.256008695e-11,6.807525495e-07,4.601948814e-09,2.942022429e-09,8.443746133e-11
4200,4240,6.491402002e-07,1.560733885e-09,1.638601637e-09,6.052299497e-11,6.50325167e-07,4.497942081e-09,1.691549763e-09,6.402596214e-11
4240,4280,6.265573745e-07,1.533368484e-09,1.193736405e-09,5.165793023e-11,6.303495802e-07,4.428326481e-09,9.911774163e-10,4.901049974e-11
4280,4320,6.061075573e-07,1.508157675e-09,7.354666959e-10,4.054754095e-11,6.030018894e-07,4.331212173e-09,7.730806053e-10,4.328415212e-11
4320,4360,5.874078391e-07,1.484728421e-09,6.236864313e-10,3.733908429e-11,5.907741441e-07,4.287075695e-09,5.11341677e-10,3.520217814e-11
4360,4400,5.734746265e-07,1.467027968e-09,4.560341777e-10,3.19287516e-11,5.680304229e-07,4.203750723e-09,4.968047237e-10,3.469831373e-11
4400,4440,5.56735118e-07,1.445473521e-09,4.426326938e-10,3.145650623e-11,5.581054288e-07,4.166867021e-09,3.853247456e-10,3.055821447e-11
4440,4480,5.422756398e-07,1.426592627e-09,3.375575942e-10,2.747002475e-11,5.444465465e-07,4.115565577e-09,3.320097953e-10,2.83654881e-11
4480,4520,5.305096622e-07,1.411042766e-09,2.481333519e-10,2.355175619e-11,5.304766928e-07,4.062426219e-09,3.392765014e-10,2.867407502e-11
4520,4560,5.163202669e-07,1.392056782e-09,2.369649387e-10,2.301605057e-11,5.230410545e-07,4.033858282e-09,2.544568845e-10,2.483243198e-11
4560,4600,5.10266075e-07,1.383876991e-09,2.190741185e-10,2.212981105e-11,5.054623204e-07,3.965498742e-09,2.423411136e-10,2.423409362e-11
4600,4640,5.03025326e-07,1.374029933e-09,1.944814684e-10,2.085058847e-11,5.06302492e-07,3.968792994e-09,2.714229496e-10,2.564703995e-11
4640,4680,4.964457567e-07,1.365020701e-09,2.101374794e-10,2.167401252e-11,5.000801272e-07,3.94433287e-09,2.05985819e-10,2.234228442e-11
4680,4720,4.972975666e-07,1.366189433e-09,1.698956091e-10,1.948834928e-11,4.894391936e-07,3.902145058e-09,1.769108522e-10,2.070583576e-11
4720,4760,4.998104156e-07,1.369634843e-09,1.631897884e-10,1.909990724e-11,5.007020011e-07,3.946782607e-09,1.357061143e-10,1.813448129e-11
4760,4800,5.165303144e-07,1.392339498e-09,1.363600166e-10,1.745909962e-11,5.15573637e-07,4.00496044e-09,1.429831077e-10,1.861480473e-11
4800,4840,5.386930913e-07,1.421876232e-09,1.251810377e-10,1.672800981e-11,5.389081393e-07,4.094579372e-09,1.381355418e-10,1.829648777e-11
4840,4880,5.908519983e-07,1.489071628e-09,1.31889514e-10,1.717054198e-11,5.834005762e-07,4.26024095e-09,1.138991212e-10,1.661388517e-11
4880,4920,6.915832333e-07,1.610904385e-09,9.835788976e-11,1.482800006e-11,7.005100405e-07,4.668247673e-09,7.996883495e-11,1.392078001e-11
4920,4960,9.691772048e-07,1.906645912e-09,1.274204701e-10,1.687724435e-11,9.748017747e-07,5.506747515e-09,1.260211605e-10,1.747597843e-11
4960,5000,2.211708108e-06,2.877915831e-09,1.542449339e-10,1.856889566e-11,2.221252689e-06,8.311758738e-09,1.381386675e-10,1.829690214e-11
