# xl,xh,FULL,dFULL,FSR,dFSR,ISR,dISR
0.0,0.01,0.0355045423428238,6.097470809510066e-05,0.0337337765324032,7.353940387527955e-06,0.0055922792572094,1.6478114558213844e-05
0.01,0.02,0.0319833976765988,5.6478028069174294e-05,0.029631208421424,7.43275839015738e-06,0.0056025426172192,1.6491725356582743e-05
0.02,0.03,0.0269978651454181,5.4416802129594485e-05,0.0239038500359774,7.12383409775434e-06,0.0056489657027116,1.6566068882841844e-05
0.03,0.04,0.0228766450022793,5.159293272859152e-05,0.0192056233721165,6.631899409513997e-06,0.0056715916043694,1.6592378813150566e-05
0.04,0.05,0.0198280350190609,4.866766746960815e-05,0.0157561771300849,6.139283726576804e-06,0.0057421351396197,1.6694112300199447e-05
0.05,0.06,0.0176789730444331,4.6212868538023726e-05,0.013194267459611,5.691096666613551e-06,0.0058030943231442,1.6745695972253722e-05
0.06,0.07,0.0160343739751856,4.390599795446652e-05,0.0113018778411453,5.3097488759142456e-06,0.0058986259641185,1.689232460416917e-05
0.07,0.08,0.0148612284644548,4.208066957697609e-05,0.0098410291088124,4.979047207794751e-06,0.0059981661794154,1.7005959741378954e-05
0.08,0.09,0.0138167184546375,4.0122222615101984e-05,0.0086952800655307,4.6935896981580995e-06,0.0060509004090776,1.7070023303008968e-05
0.09,0.1,0.0131816537821502,3.8812196863413504e-05,0.0077861194694042,4.449138869302248e-06,0.0062337498408968,1.729505647168558e-05
0.1,0.11,0.0126972086232141,3.760370691430423e-05,0.0070457551566359,4.235311205418592e-06,0.006366521644706,1.747443270290699e-05
0.11,0.12,0.0123243267657363,3.644325883977863e-05,0.0064472224734857,4.051918167454928e-06,0.006572232770711,1.773143915829199e-05
0.12,0.13,0.0121563410510963,3.574872714721232e-05,0.0059470043603504,3.889238065168975e-06,0.0067907785505517,1.8010816565134566e-05
0.13,0.14,0.0120062312775937,3.4931322588897355e-05,0.0055437351521872,3.751652164101989e-06,0.0071080606389064,1.839111659289341e-05
0.14,0.15,0.0119978937711857,3.433553127129772e-05,0.00519778686827,3.6281374401153815e-06,0.007381748633899,1.871252047400447e-05
0.15,0.16,0.01211096427105,3.393866295302764e-05,0.0049059391943643,3.5190995808664284e-06,0.0077271184776096,1.911264742238714e-05
0.16,0.17,0.0121145292973236,3.3387415232265595e-05,0.00466688284232,3.426778011554742e-06,0.0080479893435098,1.9464806185128663e-05
0.17,0.18,0.0122432518539968,3.3155326053333506e-05,0.0044567856124423,3.341141686134438e-06,0.0083245786774021,1.972621765205535e-05
0.18,0.19,0.0123808585841907,3.289521253072692e-05,0.0042868069962333,3.2699666550251335e-06,0.0086748647085786,2.008438599471148e-05
0.19,0.2,0.0125320849396754,3.2740033233269986e-05,0.0041331081627351,3.2024277536687188e-06,0.0089302594906747,2.030593303081699e-05
0.2,0.21,0.0126772766795822,3.2560930253836134e-05,0.0039912752630752,3.139119541036109e-06,0.0091520934579181,2.0463758962671285e-05
0.21,0.22,0.0127105366561843,3.2221827800979865e-05,0.003881095726676,3.0875202889016966e-06,0.0093764226598225,2.064579188987333e-05
0.22,0.23,0.0128521707184422,3.213909736872231e-05,0.0037720462903335,3.0359879974026356e-06,0.0095930516213627,2.0795218716628986e-05
0.23,0.24,0.0129501605650918,3.197294250498716e-05,0.0036827257731571,2.991617841302157e-06,0.009714965370394,2.084044653918847e-05
0.24,0.25,0.012998881741109,3.179479318994514e-05,0.0036012154895033,2.949806522283823e-06,0.0098607411085064,2.089541126136861e-05
0.25,0.26,0.0130438164874855,3.1570051605492826e-05,0.0035311308466742,2.912882762069793e-06,0.0099495904774977,2.0888248770793032e-05
0.26,0.27,0.013169254718881,3.1540434683792026e-05,0.0034688060134839,2.8776663049322717e-06,0.0101043265446883,2.0965099667268928e-05
0.27,0.28,0.0131717488181371,3.1290915871715755e-05,0.0034010211889179,2.8406240300132545e-06,0.0102330790830941,2.099482416797498e-05
0.28,0.29,0.0131588498744431,3.102132392782609e-05,0.0033424327842982,2.8074081588872723e-06,0.0103291955990778,2.097184636731134e-05
0.29,0.3,0.0130431043876102,3.075682648189416e-05,0.0032332078662783,2.756015000200699e-06,0.0102933587606007,2.0827948244589863e-05
0.3,0.31,0.0128380432595886,3.0299502820600816e-05,0.0031115552776879,2.700760379135598e-06,0.0101630748938982,2.0585660418652267e-05
0.31,0.32,0.012688990935333,3.000798011853061e-05,0.0029726231787036,2.6371830312821106e-06,0.0100460823075436,2.0346306413305588e-05
0.32,0.33,0.0123648774362409,2.9427375542796172e-05,0.0028337009135024,2.5719816641472237e-06,0.0099230590327322,2.009416037523812e-05
0.33,0.34,0.0120668139675174,2.9001632106585555e-05,0.0027051012485526,2.5108838375413448e-06,0.0097921979769792,1.984084959708499e-05
0.34,0.35,0.0118240497606556,2.849007864227787e-05,0.0025741342243295,2.4470163474748095e-06,0.0095815288470712,1.948717637097119e-05
0.35,0.36,0.0115892041701398,2.8161149076150266e-05,0.0024447111585908,2.382092582479741e-06,0.0093864319108253,1.9152210336625957e-05
0.36,0.37,0.0112372443629753,2.741156877424221e-05,0.0023239376277358,2.320463045316006e-06,0.0092101551273977,1.8838172676225215e-05
0.37,0.38,0.010992896977925,2.7049405617054214e-05,0.0022069402203337,2.2590086539331875e-06,0.0090466338414225,1.853277076134374e-05
0.38,0.39,0.010720450288749,2.6501923561148893e-05,0.0020998788098239,2.201326777865206e-06,0.008864245937317,1.8205848121650054e-05
0.39,0.4,0.0104032825242327,2.5849815242201704e-05,0.0019975589439082,2.1447186171764074e-06,0.0086881548334619,1.7892890868319287e-05
0.4,0.41,0.0101948203557007,2.5445887384614643e-05,0.0018992375239527,2.0882175616865493e-06,0.0085533480798334,1.761949504545041e-05
0.41,0.42,0.0100031587950659,2.503030498199845e-05,0.0018032650296963,2.0324155843883557e-06,0.0083820202359616,1.7296493955669622e-05
0.42,0.43,0.0097427780377045,2.4504249804623823e-05,0.0017115666643237,1.976736788742703e-06,0.0082202114278941,1.699020197914288e-05
0.43,0.44,0.0095722360226262,2.4113433963529897e-05,0.0016302993665804,1.927607965707037e-06,0.0080920494127916,1.670522599994807e-05
0.44,0.45,0.0092922546651401,2.3554187337624287e-05,0.0015494627805824,1.8762392806534992e-06,0.0079884606308173,1.6466500520094248e-05
0.45,0.46,0.0091611813357549,2.3123336371750832e-05,0.0014806741433625,1.83178307429063e-06,0.0078701046597668,1.618694529711738e-05
0.46,0.47,0.0089972079641231,2.2764744696933833e-05,0.0014107150965776,1.7847773294687384e-06,0.0077628000096528,1.5938666565252557e-05
0.47,0.48,0.0088220852326898,2.2305757698770507e-05,0.0013454657351412,1.7404546057399655e-06,0.0076479742408476,1.5669293014422593e-05
0.48,0.49,0.0086923220822746,2.1979828540642325e-05,0.0012803368974086,1.6950114362595231e-06,0.0075696895345125,1.5433186704990728e-05
0.49,0.5,0.0085624799016011,2.157866830395899e-05,0.0012294100856355,1.6591515236501498e-06,0.0075029214073546,1.5230491638703876e-05
0.5,0.51,0.0084380232630621,2.117578638442668e-05,0.0011735280684758,1.618847966845151e-06,0.0074165258073475,1.498624601039372e-05
0.51,0.52,0.0083646718727583,2.087850331711082e-05,0.0011207764476536,1.5789359810266314e-06,0.0073590175542163,1.47848203477399e-05
0.52,0.53,0.0082506389360053,2.047973035617543e-05,0.0010770235055363,1.5458849152892708e-06,0.0073170214954524,1.4605714053112994e-05
0.53,0.54,0.0081661084133449,2.018656969227706e-05,0.0010274539183657,1.5072909596922748e-06,0.0073015996338493,1.4442724037864564e-05
0.54,0.55,0.0080892545720592,1.987333291603068e-05,0.0009868635235686,1.4760743297995344e-06,0.007255421632301,1.4234090995047968e-05
0.55,0.56,0.0080355804764478,1.9481548693218108e-05,0.000946212173942,1.443138519795054e-06,0.0072482781015455,1.4077579309938967e-05
0.56,0.57,0.0079932390180125,1.9248614549751267e-05,0.0009124705670278,1.414528646020019e-06,0.0072068239698294,1.3882492711434056e-05
0.57,0.58,0.0079980410595901,1.906588665407876e-05,0.0008756948880023,1.3835427936084097e-06,0.0072057218660258,1.374347129878473e-05
0.58,0.59,0.0079366396345934,1.8766613547358182e-05,0.0008409325754659,1.3540940565519429e-06,0.0072328131482513,1.3617268502696392e-05
0.59,0.6,0.0079579841915367,1.8538197908831184e-05,0.0008117601076461,1.3291325316752164e-06,0.0072600652853905,1.3496486217358633e-05
0.6,0.61,0.0079427551290719,1.827494605909842e-05,0.0007824889048958,1.3038261660142837e-06,0.0072826723582172,1.336213954590196e-05
0.61,0.62,0.0079881548023577,1.8133102136018624e-05,0.0007567770806952,1.2810773935583488e-06,0.0073203721069259,1.3241259257299317e-05
0.62,0.63,0.0080775678139002,1.8054625403310635e-05,0.0007292337487099,1.2556311837672154e-06,0.007390631802322,1.3142903509225958e-05
0.63,0.64,0.0080993575041701,1.782794453245782e-05,0.0007058220312925,1.2343435556865311e-06,0.0074607273569375,1.3056288720152302e-05
0.64,0.65,0.0081336717885494,1.7598552771685524e-05,0.0006856623484508,1.215228421239804e-06,0.0075536708405194,1.2974516787487974e-05
0.65,0.66,0.008217997966772,1.7443038979382817e-05,0.0006610904915079,1.1921083453001689e-06,0.007638385764196,1.2886359007726005e-05
0.66,0.67,0.0082968381950713,1.7246707186820212e-05,0.0006416761055953,1.174057646148546e-06,0.0077411576913445,1.2805674265746188e-05
0.67,0.68,0.0083948143563728,1.710289314084066e-05,0.0006230841312659,1.1559220199539649e-06,0.0078597848658402,1.2747130149366695e-05
0.68,0.69,0.0085370389790844,1.7064195352932752e-05,0.0006056675227266,1.1387421794267428e-06,0.0080496507095515,1.2736750445080269e-05
0.69,0.7,0.008700892838334,1.6953240716803392e-05,0.0005888369533167,1.1221392397561962e-06,0.0081680788122279,1.2647554796060353e-05
0.7,0.71,0.0088667181840387,1.6878884856527317e-05,0.0005744971830809,1.108086434349599e-06,0.0083654757606795,1.2631247757120046e-05
0.71,0.72,0.0090856944318142,1.679584052329276e-05,0.0005591012596613,1.092624107652228e-06,0.0085858002042478,1.2631216807411162e-05
0.72,0.73,0.0092502926343506,1.6657637488348866e-05,0.0005457118483099,1.0790495488655448e-06,0.0088287226737593,1.262415646303665e-05
0.73,0.74,0.0095308647448602,1.663518409419468e-05,0.0005316462943177,1.0646567893182836e-06,0.0090654874515749,1.2602150871643248e-05
0.74,0.75,0.0098042030706483,1.6604623782764956e-05,0.000520889682849,1.0537879784751558e-06,0.0093374663378754,1.2587785040290077e-05
0.75,0.76,0.0101312214411289,1.6531560967645418e-05,0.0005092679917572,1.0425069122662778e-06,0.0096577093812613,1.262552987794815e-05
0.76,0.77,0.0104652694178815,1.647993664934592e-05,0.0004972775878529,1.0294644700287751e-06,0.0100251574945154,1.2654838467073356e-05
0.77,0.78,0.0108393884114811,1.6503117407719375e-05,0.0004880896715779,1.0201864854488976e-06,0.0103985456990733,1.266463432724266e-05
0.78,0.79,0.0112622406374196,1.6437415191876372e-05,0.0004815352728422,1.013359461817203e-06,0.0108677941677871,1.2743332494490116e-05
0.79,0.8,0.0117559468685864,1.6488647069705104e-05,0.0004719746682046,1.0039997224011744e-06,0.0113481551945205,1.2786482628869325e-05
0.8,0.81,0.0122942778932968,1.6497571833535504e-05,0.000462774393943,9.936091681674994e-07,0.0118925245164309,1.2845449146596991e-05
0.81,0.82,0.0129429748388117,1.6578682157915742e-05,0.0004548150558632,9.856964308211524e-07,0.0125210667530568,1.2929349649076706e-05
0.82,0.83,0.0136512873719233,1.6603912989459306e-05,0.000447602718029,9.780917617482597e-07,0.0132400902262755,1.3049725261101472e-05
0.83,0.84,0.0144311582605342,1.6690331441550862e-05,0.0004405283980539,9.706948224700363e-07,0.0140354323112064,1.3129920161407845e-05
0.84,0.85,0.0153159816843099,1.6705340040738277e-05,0.0004349357921615,9.65158681174757e-07,0.014984308183054,1.3283604210741887e-05
0.85,0.86,0.016405205999606,1.6913372119840417e-05,0.0004279535444227,9.576429052712962e-07,0.0160102494263019,1.3398143863807846e-05
0.86,0.87,0.017613979881445,1.6999948054840095e-05,0.0004236325253001,9.537010784794844e-07,0.017243009681406,1.3553604711639827e-05
0.87,0.88,0.0190887078048824,1.71932090765419e-05,0.0004184037294564,9.477115686782124e-07,0.0186833308485737,1.3749864627624871e-05
0.88,0.89,0.0207809317667425,1.7297020367831872e-05,0.0004160574677044,9.461699883419268e-07,0.0203652264731403,1.3957861543014244e-05
0.89,0.9,0.0227951770520844,1.7545194755901587e-05,0.0004112530391718,9.415976010379772e-07,0.0223740502005675,1.4197294566606384e-05
0.9,0.91,0.0252432452148968,1.8198742410824943e-05,0.0004080351339116,9.3881936596264e-07,0.0247924316899104,1.4454769213720185e-05
0.91,0.92,0.0282830981732363,1.8091429852838295e-05,0.0004050249815394,9.350607196048144e-07,0.0277851029017026,1.4784243815434436e-05
0.92,0.93,0.0320016735204155,1.8436035008226167e-05,0.0004017536578731,9.318031078542592e-07,0.0314348875658634,1.5142873891685376e-05
0.93,0.94,0.0367161310370768,1.8831126188180964e-05,0.0003996928129682,9.305461231560198e-07,0.0361029359324557,1.555905224240128e-05
0.94,0.95,0.0428027563362373,1.932711664856515e-05,0.0003967052260499,9.254785610834668e-07,0.0420523232227074,1.6036909679674667e-05
0.95,0.96,0.0507426397621868,1.9880210032043413e-05,0.0003955718426763,9.251825195416844e-07,0.0497983582372041,1.6616357412835288e-05
0.96,0.97,0.0610797108934672,2.055572560102298e-05,0.0003945118239172,9.205551326259176e-07,0.0598658987600627,1.7296709296468028e-05
0.97,0.98,0.0740303997120497,2.1328421319391735e-05,0.0003926748289938,9.155391457274824e-07,0.0725035548841808,1.8058076390798484e-05
0.98,0.99,0.0883525414485248,2.2093179638428143e-05,0.0003928641144936,9.129574905395914e-07,0.0863799507091198,1.8801722825130657e-05
0.99,1.0,0.0987486898434941,2.2667072364023738e-05,0.0003911987214512,9.075009327832668e-07,0.0962415743340762,1.9284799679133036e-05
