# xl,xh,FULL,dFULL,FSR,dFSR,ISR,dISR
8000.0,8040.0,1.719519453042002e-07,1.0195330395695143e-09,1.2769880754422374e-08,5.44452397441244e-11,1.0996486102479529e-07,5.70170733615253e-10
8040.0,8080.0,1.8581037832225569e-07,1.0437366109408135e-09,1.3402633800349345e-08,5.611053695275034e-11,1.1966656645917918e-07,5.823534688879038e-10
8080.0,8120.0,2.0261938071290946e-07,1.0986828684035414e-09,1.4112274782487413e-08,5.890053165266127e-11,1.318455124518159e-07,6.150730061414878e-10
8120.0,8160.0,2.1886560397799238e-07,1.1194366906380683e-09,1.4685348596428078e-08,5.874382890177118e-11,1.462113889626716e-07,6.51772527219778e-10
8160.0,8200.0,2.380711175657059e-07,1.175720447556151e-09,1.5593664176383473e-08,6.125337053617769e-11,1.6041526829223618e-07,6.70311221310625e-10
8200.0,8240.0,2.607665966088324e-07,1.5445967470708323e-09,1.633717381271032e-08,6.283126623027765e-11,1.7686059930817598e-07,7.085302109616362e-10
8240.0,8280.0,2.846017530966853e-07,1.2566636561564743e-09,1.7252069478661614e-08,6.525217446865233e-11,1.9673992440503378e-07,7.508037593017595e-10
8280.0,8320.0,3.105422061981736e-07,1.3290913243809074e-09,1.8073746594302203e-08,6.712080126560622e-11,2.1756721032311554e-07,7.80532705287049e-10
8320.0,8360.0,3.399323627992101e-07,1.3842268722004187e-09,1.9145448017334848e-08,6.941973764528088e-11,2.4070122409636506e-07,8.194263441159111e-10
8360.0,8400.0,3.7461910215448e-07,1.466588530442492e-09,2.0051462749868683e-08,7.130167944769316e-11,2.668624641052112e-07,8.723795862237954e-10
8400.0,8440.0,4.102456742550599e-07,1.512120141904377e-09,2.12269214879482e-08,7.347556699558885e-11,2.9710584216472413e-07,9.239061728572581e-10
8440.0,8480.0,4.516045924009202e-07,1.598396051265803e-09,2.244376720545566e-08,7.641574938664491e-11,3.285959388465674e-07,9.734303846006494e-10
8480.0,8520.0,4.96176052101144e-07,1.6738756948421873e-09,2.370224295769041e-08,7.884327276287043e-11,3.659884065687392e-07,1.0278108549714732e-09
8520.0,8560.0,5.475814981112533e-07,1.7508617161226762e-09,2.506392049921315e-08,8.186186915110209e-11,4.100979270884666e-07,1.0946296310173174e-09
8560.0,8600.0,6.11350321511388e-07,1.840524835128937e-09,2.663092706294856e-08,8.537517671445939e-11,4.662841746950489e-07,1.1680547566275741e-09
8600.0,8640.0,6.882594247282101e-07,1.971248877522301e-09,2.8309981605481723e-08,8.766944086109875e-11,5.271437730231692e-07,1.2381962789377527e-09
8640.0,8680.0,7.445813586898211e-07,2.076796956957149e-09,2.9997915638661794e-08,9.091105883778348e-11,5.703151649061613e-07,1.2989961784856512e-09
8680.0,8720.0,8.001558316746659e-07,2.2056707474469187e-09,3.1654731487052665e-08,9.355577429988548e-11,6.117824336546016e-07,1.3777872143856794e-09
8720.0,8760.0,8.521167256053538e-07,2.291013485092783e-09,3.39041146855995e-08,9.760801854109219e-11,6.473937522034794e-07,1.4396874639874914e-09
8760.0,8800.0,9.1167389026606e-07,2.441838788560568e-09,3.6301187814066185e-08,1.0169061165958176e-10,6.899367068852345e-07,1.516537429903766e-09
8800.0,8840.0,9.701370587092126e-07,2.553678626509412e-09,3.86446648223275e-08,1.0545913976074906e-10,7.346937930758417e-07,1.5961906940041204e-09
8840.0,8880.0,1.0353586524561258e-06,2.665641900567788e-09,4.1384238181525485e-08,1.1046998533666532e-10,7.750485511890314e-07,1.660881899153773e-09
8880.0,8920.0,1.10526213215871e-06,2.8099672098853e-09,4.45407937271536e-08,1.1514946590308363e-10,8.205107915271021e-07,1.7336330439400975e-09
8920.0,8960.0,1.1739450733104198e-06,2.9444961926570142e-09,4.7532886416614786e-08,1.195565211935445e-10,8.673587404453207e-07,1.8136172884362667e-09
8960.0,9000.0,1.2552927155101923e-06,3.126232973226521e-09,5.1533893746442596e-08,1.2500566832650618e-10,9.125975124705068e-07,1.877187383960323e-09
9000.0,9040.0,1.329436920732911e-06,3.262438864682396e-09,5.4980665624531716e-08,1.2967366809449724e-10,9.667548672921036e-07,1.954841086651882e-09
9040.0,9080.0,1.4090829758807952e-06,3.381857148440349e-09,5.9338233922580626e-08,1.355230818171435e-10,1.0117902225950177e-06,2.0179238537159894e-09
9080.0,9120.0,1.4765619601562e-06,3.4801491465104773e-09,6.372468413510504e-08,1.4115313442444538e-10,1.0655822148930127e-06,2.0817853882373224e-09
9120.0,9160.0,1.5674980280800985e-06,3.62708072095066e-09,6.845619608501467e-08,1.4714552291385398e-10,1.122264053397011e-06,2.1470267534462536e-09
9160.0,9200.0,1.652793193496396e-06,3.801653713341872e-09,7.357856228451496e-08,1.5372737932886782e-10,1.1777943082518634e-06,2.212826250311604e-09
9200.0,9240.0,1.7477966457819446e-06,3.871663165662176e-09,7.931499671728328e-08,1.60331008115929e-10,1.2443816128722547e-06,2.284538458251889e-09
9240.0,9280.0,1.86447491887488e-06,4.0555521453696725e-09,8.574365366914536e-08,1.674199299025578e-10,1.316984485282258e-06,2.3571179197557283e-09
9280.0,9320.0,1.978112867334398e-06,4.185355964094582e-09,9.302170301822605e-08,1.7525514911970995e-10,1.396579696353843e-06,2.4418431855324524e-09
9320.0,9360.0,2.1183709756620013e-06,4.369350064413295e-09,1.0120507586478645e-07,1.8387597787055108e-10,1.4806722680487595e-06,2.5188976774289163e-09
9360.0,9400.0,2.2546753834189695e-06,4.559342791560496e-09,1.1061337118240344e-07,1.9319818147103549e-10,1.5839346250738284e-06,2.618433954323821e-09
9400.0,9440.0,2.4377118283105135e-06,4.755125635209814e-09,1.2094910945361317e-07,2.033043505272563e-10,1.6960785654617516e-06,2.725749822365598e-09
9440.0,9480.0,2.6275155040706486e-06,4.9816532122077604e-09,1.3339639766707886e-07,2.146469607949541e-10,1.8279946473543184e-06,2.84353444887999e-09
9480.0,9520.0,2.8624897415876694e-06,5.268269699625477e-09,1.4758027669395482e-07,2.2716165070108058e-10,1.9804831684615693e-06,2.974729335120593e-09
9520.0,9560.0,3.1129636648503105e-06,5.507117660600115e-09,1.645494577554233e-07,2.4118265605360107e-10,2.1424487328168995e-06,3.103667002992137e-09
9560.0,9600.0,3.424685886955346e-06,5.808778295264904e-09,1.8433728885664318e-07,2.5676238095812176e-10,2.355865936751012e-06,3.278264478483658e-09
9600.0,9640.0,3.807416628254406e-06,6.185893278793035e-09,2.0885898419362562e-07,2.7510890945358056e-10,2.5991968205504663e-06,3.456187224867326e-09
9640.0,9680.0,4.239533302790459e-06,6.524925339994606e-09,2.3848726998316624e-07,2.9567616864505076e-10,2.903848657805115e-06,3.6706852662785782e-09
9680.0,9720.0,4.839984941303012e-06,7.046397202180531e-09,2.766491184248006e-07,3.205787628064886e-10,3.284906343456674e-06,3.917667856379969e-09
9720.0,9760.0,5.811847327008103e-06,7.751880115036303e-09,3.330890652661822e-07,3.5711270021598865e-10,3.912805689730341e-06,4.2619612179098206e-09
9760.0,9800.0,7.061900335634145e-06,8.488700134873534e-09,4.1126049530298547e-07,4.0407905996990656e-10,4.744034009987058e-06,4.680115172516883e-09
9800.0,9840.0,8.345584409198986e-06,9.477815336520077e-09,5.09687602655262e-07,4.5131612932900316e-10,5.589192251844144e-06,5.129273874003346e-09
9840.0,9880.0,1.0323532102789111e-05,1.0533655978436855e-08,6.647894909352758e-07,5.173880596343132e-10,6.965882391518725e-06,5.7926349065728636e-09
9880.0,9920.0,1.3923951433660378e-05,1.251834192393901e-08,9.45133953109776e-07,6.195024495623007e-10,9.433386524547482e-06,6.804912395290896e-09
9920.0,9960.0,2.2346561283250583e-05,1.5956400243325645e-08,1.61789963797086e-06,8.147623580133171e-10,1.5348606283180635e-05,8.762576517097973e-09
9960.0,10000.0,0.0002658923999522,5.7626342741545984e-08,7.004917204103865e-05,6.361950841928764e-09,0.0002251385645624,3.4611943935078896e-08
