# xl,xh,FULL,dFULL,FSR,dFSR,ISR,dISR
0.52,0.5622,2.5756694858582754e-05,4.190019682803243e-07,4.825743355073307e-05,1.953729404692802e-07,7.93733100421346e-05,1.1042175634872811e-06
0.5622,0.6044,0.000100464945801,9.051180017293584e-07,0.0001655303646562,3.569833800574668e-07,0.0002681969904779,1.987980944828357e-06
0.6044,0.6466000000000001,0.000250186009549,1.731970108762932e-06,0.0003426944901262,4.992386154841106e-07,0.0004846346116918,2.6121428129013216e-06
0.6466000000000001,0.6888,0.0006201477433315,3.382983656396043e-06,0.0006986160238588,6.731046339537083e-07,0.0007328821252842,3.150294642631854e-06
0.6888,0.731,0.0009929325504512,4.634248404240367e-06,0.0010073855126933,8.022664606706088e-07,0.0009892548291198,3.581051317636753e-06
0.731,0.7732,0.001305530835047,5.424350352214458e-06,0.0012231160432677,8.819058670726635e-07,0.0012470162095188,3.929335289385796e-06
0.7732,0.8154,0.001619072916336,6.238805917601464e-06,0.0013847134283789,9.316661308949504e-07,0.0015424304269421,4.2695387274930925e-06
0.8154,0.8575999999999999,0.0019266362575081,6.649813111674028e-06,0.0015178639021635,9.661231495601954e-07,0.0018235118570711,4.539470166077844e-06
0.8575999999999999,0.8997999999999999,0.0022265836784574,7.1468063119260955e-06,0.0016269224644555,9.890230276691583e-07,0.0021343814064226,4.797751428225548e-06
0.8997999999999999,0.942,0.0025599757104696,7.380470611556306e-06,0.0017109807519954,1.001946564791777e-06,0.0024508452062757,5.017979601487993e-06
0.942,0.9842,0.0028747584097453,7.622405945626986e-06,0.0017836289751163,1.0103758906596524e-06,0.0027831979794662,5.211674174686789e-06
0.9842,1.0264,0.0032367874472341,8.017882246988565e-06,0.0018421691498584,1.013918066537641e-06,0.0031236112816159,5.37466891142444e-06
1.0264,1.0686,0.0036332297216866,8.14627495189936e-06,0.0018890115485495,1.0139126091458996e-06,0.0034977262730698,5.542131029863719e-06
1.0686,1.1108,0.0040492574151827,8.357218364207787e-06,0.0019296599154767,1.012541250913582e-06,0.0039113933433174,5.698275139379395e-06
1.1108,1.153,0.0045157283380041,8.50745156006133e-06,0.0019624269908701,1.00952839805351e-06,0.0043608752128177,5.846078932682843e-06
1.153,1.1951999999999998,0.0050384768306592,8.783862834774773e-06,0.001982666775887,1.0036478820106288e-06,0.004877194381414,5.994631719776496e-06
1.1951999999999998,1.2374,0.0056597511845789,8.987621309476316e-06,0.0020014717579898,9.984147114362206e-07,0.0054626310767079,6.134531095464666e-06
1.2374,1.2795999999999998,0.0063897982029315,9.06174170288087e-06,0.0020131264661684,9.921895958285846e-07,0.0061603735752392,6.2697865961012e-06
1.2795999999999998,1.3218,0.0073019872043487,9.27158970378539e-06,0.0020201646919504,9.859716649992565e-07,0.0070406723835867,6.430309895873502e-06
1.3218,1.364,0.0084708626347373,9.481785054046355e-06,0.0020250982877409,9.805076268985968e-07,0.0081664519709901,6.593934303879735e-06
1.364,1.4062,0.0101403015410302,9.736289395578717e-06,0.0020317210106228,9.76677423102127e-07,0.0097287492653156,6.775839368031438e-06
1.4062,1.4484,0.0125934880280784,9.988644382477309e-06,0.0020339990051707,9.728691576918257e-07,0.0120709664146054,6.998943423487547e-06
1.4484,1.4906,0.0167763221390379,1.03730863276664e-05,0.0020370107652152,9.705533979629355e-07,0.0160881360414933,7.285221376602331e-06
1.4906,1.5328,0.0255047945332919,1.0828024908450794e-05,0.0020401071569244,9.693653122062417e-07,0.0244241451149955,7.705166527943875e-06
1.5328,1.575,0.0419549652453204,1.1535097128401864e-05,0.0020442385469334,9.691373257829296e-07,0.0398268163114208,8.284289442036245e-06
1.575,1.6172,0.0397182364998794,1.1597460034319963e-05,0.0020442543960931,9.69619263769565e-07,0.0368509918726687,8.184035659035142e-06
1.6172,1.6594,0.0252076353693275,1.1320943626066674e-05,0.0020427261107042,9.714870114905226e-07,0.0221756974877267,7.6089461475509135e-06
1.6594,1.7016,0.0181759003254095,1.1116815196133904e-05,0.0020444697315734,9.746926588715287e-07,0.0150696969920329,7.219122891131955e-06
1.7016,1.7438,0.0147145707237875,1.1074980120825367e-05,0.0020439489503737,9.78417254260771e-07,0.0115145412643278,6.954631971077353e-06
1.7438,1.786,0.0126182935274389,1.1063421531698784e-05,0.0020429134476614,9.832819621376657e-07,0.0093653682503167,6.742103550937185e-06
1.786,1.8282,0.0112297353562197,1.1102494444825449e-05,0.0020407016008635,9.891694865070738e-07,0.0079150521258339,6.563035264944127e-06
1.8282,1.8704,0.0101948018967481,1.1150813003584258e-05,0.0020366040860487,9.957432428877098e-07,0.0068435917334899,6.398579531629524e-06
1.8704,1.9126,0.0094010581880829,1.1210366594858402e-05,0.0020295652077171,1.0027541267404895e-06,0.0060123639100651,6.249920429696799e-06
1.9126,1.9548,0.0086872982855423,1.120768655014846e-05,0.0020181030624291,1.0097314582130904e-06,0.0053580459715605,6.125195211404286e-06
1.9548,1.997,0.0081597547940341,1.131960780366996e-05,0.0020029697163785,1.0168149289439525e-06,0.0047782245357702,5.980630349354863e-06
1.997,2.0392,0.0076347634376771,1.1355554387866794e-05,0.0019796246209259,1.0225308672376298e-06,0.0042838204069363,5.8418707900686e-06
2.0392,2.0814,0.0071037795256497,1.1373265802815004e-05,0.0019489579026578,1.026924565999818e-06,0.0038319306393393,5.6828804983096655e-06
2.0814,2.1236,0.0066560935769308,1.1394849710668206e-05,0.0019055155529664,1.0280599920605786e-06,0.0034314532350096,5.530277071490024e-06
2.1236,2.1658,0.0061991821991527,1.1367853570294717e-05,0.0018580340890125,1.0282530202104987e-06,0.0030663769794351,5.370378638616791e-06
2.1658,2.208,0.0057578706268087,1.1346930934711549e-05,0.0017969374974783,1.0241946288261105e-06,0.002717121446093,5.188308968363496e-06
2.208,2.2501999999999995,0.0053046134880306,1.1256987472254645e-05,0.0017223406997333,1.0155298617407418e-06,0.0023948656771138,4.996739197600815e-06
2.2501999999999995,2.2924,0.0048331612548461,1.1092928793229308e-05,0.0016306484939963,1.0003000594160711e-06,0.0020872680068726,4.776641125299349e-06
2.2924,2.3346,0.0043546591112018,1.086248570721884e-05,0.0015197278698203,9.766899077066978e-07,0.0017836365435037,4.518817490027e-06
2.3346,2.3768,0.0038052799398526,1.0435748226628756e-05,0.0013774629572654,9.384876956122892e-07,0.001483740785086,4.218102505182157e-06
2.3768,2.419,0.0032655901085074,1.0014957515627368e-05,0.0012040397860637,8.830294527733579e-07,0.0012095323542769,3.897943312762624e-06
2.419,2.4612,0.0026307447578257,9.210974530440176e-06,0.0009703689300567,7.938426262407363e-07,0.0009451353648087,3.5244597214904933e-06
2.4612,2.5034,0.0019367024923968,8.222830199074006e-06,0.0006348351956238,6.520975727404028e-07,0.0006843044588112,3.0642574863943004e-06
2.5034,2.5456,0.001184326100884,6.738367274964794e-06,0.0003006010861765,4.762089222346551e-07,0.0004420759184837,2.514084544430196e-06
2.5456,2.5878,0.0006129481661646,5.015030979056084e-06,0.0001419869379292,3.344811456257897e-07,0.0002289651633599,1.8468227676015056e-06
2.5878,2.63,0.0001345360710686,2.4079867127681307e-06,3.1077005838187925e-05,1.5849085966399517e-07,5.1493133685436686e-05,8.91745303462644e-07
