# xl,xh,FULL,dFULL,FSR,dFSR,ISR,dISR
0.6,0.65,0.0127454875178584,1.009968403036486e-05,0.0010667785578247,7.758025047846109e-07,0.0117755093058729,7.070988365458376e-06
0.65,0.7,0.0122347500683819,9.982731459314171e-06,0.0012297580557593,8.141086897423203e-07,0.0110969393929174,6.82084280121146e-06
0.7,0.75,0.0116837021962747,9.86235260907913e-06,0.0013790240070849,8.476349122605172e-07,0.0104431296236491,6.57622975942765e-06
0.75,0.8,0.0111582647852631,9.743070489246564e-06,0.001500356787267,8.738691626347623e-07,0.0097829641959325,6.324173299434458e-06
0.8,0.85,0.0106264156989042,9.56532885546966e-06,0.0015939906235319,8.916003780672239e-07,0.0091973147693202,6.0994934328073856e-06
0.85,0.9,0.0101646258886961,9.426217708284296e-06,0.001668149670005,9.024412892785472e-07,0.0086535420623652,5.88090824761242e-06
0.9,0.95,0.009708640239645,9.253001496295496e-06,0.0017236917679291,9.07067041527872e-07,0.0081426632105821,5.667840517098732e-06
0.95,1.0,0.0092791571810756,9.097244531675624e-06,0.0017665767752592,9.079637880542028e-07,0.0076835235095928,5.472567793519813e-06
1.0,1.05,0.0089024944135504,8.92615160316757e-06,0.001800031821046,9.057630928014304e-07,0.0072759657099215,5.2954054782987145e-06
1.05,1.1,0.0085452841813203,8.799893752202672e-06,0.001824350997134,9.01399016659394e-07,0.0069066630337516,5.133150223112395e-06
1.1,1.15,0.0082515414337533,8.661844302385119e-06,0.0018392788675616,8.949808033328304e-07,0.0065816855376862,4.983335117385772e-06
1.15,1.2000000000000002,0.0079699458090596,8.56659842124642e-06,0.0018486510085337,8.877184011034977e-07,0.0062832909016168,4.841102768816357e-06
1.2000000000000002,1.25,0.0077137273488928,8.372179368917428e-06,0.0018556279447223,8.808447825146961e-07,0.006045288744328,4.729326018701912e-06
1.25,1.3,0.0074901531687058,8.22430036466385e-06,0.0018568782266095,8.731131082870638e-07,0.0058188808878078,4.612824372286765e-06
1.3,1.35,0.0073345769241655,8.151849097133535e-06,0.0018582807906338,8.666529411573346e-07,0.0056467943588341,4.531565976783954e-06
1.35,1.4,0.0071775830349108,8.065431841563871e-06,0.0018558551181314,8.603370001827533e-07,0.0054898011475399,4.4492790686312545e-06
1.4,1.4500000000000002,0.0070523098336816,7.987011146274453e-06,0.0018542420456467,8.556763887004283e-07,0.0053754126085494,4.390924138747911e-06
1.4500000000000002,1.5,0.0069767769850378,7.969569724756866e-06,0.0018533495945156,8.52451709543009e-07,0.0052925367880793,4.349324460552002e-06
1.5,1.5499999999999998,0.0069139961399443,7.942917207674758e-06,0.0018517165098396,8.505399258463548e-07,0.0052310480729335,4.316079393814037e-06
1.5499999999999998,1.6,0.0068754807186425,7.905466534794686e-06,0.001851861534151,8.503309385158254e-07,0.0052042348161265,4.302608092333104e-06
1.6,1.65,0.0068856333750456,7.909465151977386e-06,0.0018529413906126,8.518799471284532e-07,0.0052091998940907,4.3027571308405555e-06
1.65,1.7000000000000002,0.0069085758011695,7.949981100428753e-06,0.0018523162175993,8.544083949312528e-07,0.0052246481969139,4.305319735592969e-06
1.7000000000000002,1.75,0.0069593440199329,7.952899222022196e-06,0.0018565086924335,8.594266100485221e-07,0.0052748116016998,4.3218301082055175e-06
1.75,1.8000000000000005,0.0070445481260004,8.044450383907453e-06,0.0018566480029301,8.649461901801969e-07,0.005357191817111,4.361215467398737e-06
1.8000000000000005,1.85,0.0071566089284821,8.104864792074037e-06,0.001856744823564,8.713875706633639e-07,0.0054684859411919,4.415707533609206e-06
1.85,1.9,0.0072880800122663,8.17125916662509e-06,0.0018572285830671,8.794787646906755e-07,0.0056016140645901,4.476547631497409e-06
1.9,1.95,0.0074439238423199,8.336656209667211e-06,0.001853414626389,8.872583422485703e-07,0.0057594629511286,4.548424189371324e-06
1.95,2.0,0.0076214530265236,8.353988004193581e-06,0.0018461974961155,8.952408668526007e-07,0.0059371958316592,4.628610348058832e-06
2.0,2.0500000000000003,0.0078029203980601,8.484818118758857e-06,0.0018331720429803,9.024660505764352e-07,0.0061472496358686,4.720683244885953e-06
2.0500000000000003,2.1,0.0079905003526986,8.529220498847946e-06,0.0018146915336963,9.089288848714488e-07,0.0063403392140743,4.801752716204051e-06
2.1,2.1500000000000004,0.0081905825693902,8.752694521347168e-06,0.0017886944896954,9.1343136227468e-07,0.0065604656374932,4.894910403931713e-06
2.1500000000000004,2.2,0.00834282774099,8.685292509190869e-06,0.0017527844142469,9.154772884516704e-07,0.0067714513275132,4.987930254660055e-06
2.2,2.25,0.0084841390371157,8.752111727720707e-06,0.0017035736363958,9.135005735270138e-07,0.0069374740056123,5.060418267763819e-06
2.25,2.3000000000000003,0.0085449200804793,8.868401965274555e-06,0.0016406762669738,9.068678553494512e-07,0.0070404453552976,5.115281793439484e-06
2.3000000000000003,2.35,0.0084609306796466,8.706486423811231e-06,0.0015607244609664,8.934522681235195e-07,0.0070475371891096,5.148754041465305e-06
2.35,2.4000000000000004,0.0082056510361851,8.733526729358017e-06,0.0014553082262289,8.696469195150805e-07,0.0068569143525759,5.157119135771989e-06
2.4000000000000004,2.45,0.0074132999394918,8.434559980154448e-06,0.0012956880614081,8.22494190175724e-07,0.0062323835504766,5.1217184487306375e-06
2.45,2.5,0.0054213904389173,8.022639279113075e-06,0.001009177271023,7.2835960306504e-07,0.0044894915944198,4.996308732679667e-06
2.5,2.5500000000000003,0.0037551287277159,7.539824792569539e-06,0.0006502419687782,6.04135424933529e-07,0.0031575186643761,4.904031333831132e-06
2.5500000000000003,2.6,0.0034084875773083,7.201161420619998e-06,0.0004470906460295,4.987868035867081e-07,0.0029868571520516,4.931112048559624e-06
2.6,2.6500000000000004,0.0032451072318092,6.944125232887843e-06,0.0003324054031208,4.2496865759509954e-07,0.0029358653868574,4.983034888976562e-06
2.6500000000000004,2.7,0.0031812297334133,6.752425148731941e-06,0.0002542819999452,3.674124132769286e-07,0.0029600509645313,5.070982113529712e-06
