# xl,xh,LO,dLO,LOwvp,dLOwvp,PS+LOnovp,dPS+LOnovp,PS+LO,dPS+LO
50,51,0.8747245366,0.0002745857108,0.8909417865,0.0002806226249,0.709888247,0.0002222924374,0.724871328,0.0002274819594
51,52,1.214737096,0.0003232622613,1.23723337,0.0003303682667,1.06825352,0.0002730877083,1.091037769,0.0002794976846
52,53,1.275484551,0.0003311881836,1.299491976,0.0003385187474,1.171144983,0.0002866991534,1.195143951,0.0002932984497
53,54,1.275710495,0.0003312173019,1.299911979,0.0003385730463,1.20890557,0.000292508322,1.235023483,0.0002994059416
54,55,1.251635813,0.0003281000597,1.275050695,0.0003353433665,1.215816299,0.000294903935,1.241566778,0.0003017857469
55,56,1.21304179,0.0003230382003,1.237011023,0.0003303387889,1.200564117,0.0002947911871,1.226658632,0.0003017726192
56,57,1.167601811,0.0003169718426,1.190826822,0.0003241558681,1.171708058,0.0002927775,1.197547151,0.0002997372763
57,58,1.119831981,0.0003104630793,1.141356193,0.0003173956755,1.136309309,0.0002893880858,1.161434205,0.0002962706188
58,59,1.070769539,0.0003036290845,1.092853062,0.0003106210683,1.098208168,0.0002852892782,1.122441085,0.0002920687579
59,60,1.022875066,0.0002968021252,1.043802082,0.0003036123092,1.058808248,0.000280709948,1.082451282,0.0002874319523
60,61,0.9769870185,0.0002901068055,0.9974684551,0.0002968361559,1.020628185,0.0002760099897,1.042944625,0.000282560591
61,62,0.9376481983,0.0002842385784,0.9572313809,0.0002908205491,0.9845992868,0.0002713917469,1.007196627,0.0002779442053
62,63,0.9013514044,0.000278712104,0.9199255739,0.000285127286,0.9514558914,0.0002669306168,0.9730644242,0.0002733689579
63,64,0.8666237812,0.0002733177129,0.8842731221,0.0002795756968,0.9188081287,0.0002624032621,0.9398457801,0.0002687562448
64,65,0.8327363348,0.0002679469932,0.8496317896,0.0002740716411,0.8873033875,0.0002578946712,0.9072363111,0.0002640765905
65,66,0.8000100878,0.00026265401,0.8172580329,0.0002688240073,0.8557252683,0.0002532228321,0.876022746,0.0002594652049
66,67,0.7694334927,0.0002576085772,0.7863475134,0.0002637142675,0.8260350992,0.0002487100985,0.8451651724,0.000254791467
67,68,0.7399084079,0.0002526392953,0.7564000688,0.0002586657284,0.7969767737,0.0002442121071,0.8156907715,0.0002501613156
68,69,0.7117448396,0.0002478046769,0.7277429318,0.0002537390167,0.7691402513,0.0002397436475,0.787902163,0.0002457440541
69,70,0.6853354243,0.0002431823974,0.700298373,0.0002489278416,0.7430560928,0.0002354623897,0.7604901687,0.0002412375245
70,71,0.659684743,0.0002386058115,0.6740334286,0.0002442332763,0.7168538135,0.0002311038507,0.7339940182,0.0002368342146
71,72,0.6343884683,0.0002340034359,0.6494993359,0.0002397637666,0.6925151953,0.0002269439886,0.7093485287,0.0002325561644
72,73,0.6113922876,0.0002297383407,0.6254008765,0.0002352897348,0.6680385525,0.0002226912037,0.685114218,0.0002283236572
73,74,0.5893849362,0.000225580044,0.6027477358,0.00023100389,0.6460110838,0.0002187354888,0.6618020354,0.0002241981864
74,75,0.5679073385,0.0002214455163,0.5812686274,0.0002268643539,0.6240845578,0.0002147442194,0.6395606257,0.0002201535023
75,76,0.54795611,0.0002175334787,0.5613646363,0.0002229588625,0.6032330538,0.0002109052286,0.6188185993,0.0002162786849
76,77,0.5288067606,0.0002137104585,0.5412978911,0.0002189500059,0.583393713,0.0002071176366,0.5980382812,0.0002123629023
77,78,0.5104741853,0.0002099844793,0.5225840979,0.0002151432976,0.5644114636,0.0002034645218,0.5791545868,0.0002086997282
78,79,0.4928250529,0.0002063330823,0.5051934673,0.0002115435994,0.5465373989,0.0001999160262,0.5602904261,0.0002049850969
79,80,0.4761752105,0.0002028274692,0.4877566343,0.000207871031,0.5292072865,0.000196442616,0.5427240108,0.0002014675408
80,81,0.4597139085,0.0001993002647,0.4721292007,0.0002045229057,0.5121008294,0.0001930113523,0.5259256131,0.0001980478332
81,82,0.4442673141,0.0001959321167,0.4563798506,0.0002010916492,0.4964546532,0.0001897576822,0.5097021756,0.0001947010323
82,83,0.4300596493,0.0001927816225,0.4414487712,0.0001977831298,0.481009502,0.00018651964,0.4943106167,0.0001914746728
83,84,0.4163815895,0.0001896986418,0.4274960996,0.0001946400695,0.4664478803,0.0001834427773,0.4792595257,0.0001883051324
84,85,0.4033523997,0.0001867141098,0.4140213637,0.0001915552469,0.4524001888,0.0001804737117,0.4652494617,0.0001853340805
85,86,0.3905676864,0.0001837380155,0.4010523322,0.0001885380746,0.4389581213,0.000177610974,0.4513019825,0.0001823502972
86,87,0.3786487765,0.0001809189715,0.388822687,0.0001856475888,0.4262244957,0.0001748614714,0.4382677166,0.0001795555914
87,88,0.3670355112,0.0001781289253,0.3778873441,0.0001830240124,0.4141606882,0.0001722121495,0.4259095324,0.0001768577883
88,89,0.3560897454,0.0001754582826,0.3667298215,0.0001803074488,0.4025009841,0.0001696409647,0.4142211201,0.0001742744443
89,90,0.3457311757,0.0001728926036,0.3562139577,0.0001777087828,0.3910679309,0.0001671003365,0.4025377495,0.0001716713029
90,91,0.3359641283,0.0001704377726,0.3463430193,0.0001752341422,0.3798397374,0.0001645567523,0.390974587,0.0001690849708
91,92,0.3267881849,0.0001680985963,0.3368929663,0.0001728315566,0.3681556128,0.0001619058442,0.3795510175,0.0001664765664
92,93,0.3177726729,0.0001657679227,0.3276173053,0.0001704401235,0.3575378352,0.0001594458028,0.3681157558,0.0001638444582
93,94,0.3092950766,0.0001635457885,0.3191673556,0.0001682317626,0.3470545625,0.0001570142909,0.3571915311,0.000161307324
94,95,0.3011602824,0.0001613845366,0.3108550104,0.0001660304998,0.3369335897,0.0001546270543,0.3474499019,0.0001590091303
95,96,0.2933063443,0.0001592698792,0.3028543701,0.0001638836568,0.3276513113,0.0001523733837,0.3375741033,0.0001566484314
96,97,0.2860817896,0.0001572994091,0.2957601131,0.0001619560613,0.3184084954,0.0001501386281,0.3286487247,0.0001544768897
97,98,0.2793349388,0.0001554365276,0.2886981003,0.0001600140093,0.3100277033,0.0001480568532,0.3199002786,0.0001523188169
98,99,0.2725679763,0.0001535452387,0.2819508096,0.0001581360784,0.3017828964,0.0001460082674,0.3115270163,0.000150224186
99,100,0.2660980868,0.000151714792,0.2757584846,0.0001563926407,0.2938617265,0.0001440119364,0.3034278966,0.0001481806752
100,101,0.2597242664,0.0001498895337,0.2690136896,0.0001544711245,0.2865743812,0.0001421361766,0.2960736134,0.0001463001537
101,102,0.2540351969,0.000148241271,0.2630017795,0.0001527379015,0.2786808393,0.0001400924756,0.2881818741,0.000144275785
102,103,0.2478006829,0.0001464135445,0.2568260536,0.0001509365995,0.2719203602,0.0001383239059,0.2809936113,0.0001423782697
103,104,0.2421204448,0.0001447280993,0.2509897652,0.0001492142054,0.2646969224,0.0001364171562,0.2737298256,0.0001404638318
104,105,0.2366672709,0.0001430912475,0.2453114272,0.0001475190137,0.2580187733,0.0001346237738,0.2669752713,0.0001386669832
105,106,0.2308508353,0.0001413243437,0.2397402247,0.0001458365495,0.2514700505,0.0001328333396,0.2601987568,0.0001368376334
106,107,0.2257719242,0.0001397631232,0.2342204493,0.0001441501448,0.2446486412,0.0001309648233,0.253485531,0.0001350022229
107,108,0.2200589449,0.0001379857734,0.2290335346,0.0001425471564,0.2387022211,0.000129316569,0.2469774898,0.000133200448
108,109,0.2148466921,0.0001363438856,0.223754061,0.0001408967397,0.2323494471,0.0001275213459,0.2407972129,0.0001314726374
109,110,0.210034345,0.0001348101307,0.2185106511,0.0001392381343,0.2264090186,0.0001258296426,0.2344576253,0.0001296752919
110,111,0.2050037537,0.0001331878397,0.2131921751,0.0001375352514,0.220196601,0.0001240446288,0.228668377,0.0001280096655
111,112,0.19981742,0.0001314942788,0.2080750766,0.0001358766019,0.2143454354,0.0001223447035,0.2221941144,0.0001261425547
112,113,0.1950514927,0.0001299184375,0.2035294644,0.0001343859465,0.2086224043,0.0001206494518,0.2164478018,0.0001244617625
113,114,0.190301345,0.0001283284751,0.1982188894,0.0001326231147,0.2026544841,0.0001188715845,0.2105510189,0.0001226941021
114,115,0.1853010874,0.0001266331361,0.1934890271,0.0001310329931,0.1966603431,0.0001170662251,0.204244668,0.000120813594
115,116,0.1804014921,0.0001249495155,0.1878602585,0.0001291150398,0.1906833083,0.0001152306089,0.1982771051,0.0001189931064
116,117,0.1753444912,0.0001231875797,0.1826815169,0.0001273248027,0.1848083805,0.0001134180589,0.1921175382,0.0001171051949
117,118,0.1701849147,0.000121363433,0.1775415067,0.000125522604,0.178830238,0.0001115367398,0.1859236697,0.0001151747542
118,119,0.1644717576,0.0001193109094,0.1723267879,0.0001236672657,0.1725663776,0.0001095547633,0.1794795293,0.0001131424841
119,120,0.1593129621,0.0001174266066,0.1668712396,0.0001216958521,0.166125409,0.0001074741043,0.1728295747,0.0001110167934
120,121,0.1542763261,0.0001155571773,0.1618620874,0.0001198570894,0.1600787946,0.0001054899026,0.1664582523,0.0001089440106
121,122,0.1487564338,0.0001134728768,0.1559978141,0.0001176677862,0.1531326301,0.0001031747972,0.1594144958,0.0001066053033
122,123,0.1424667394,0.0001110500642,0.1494646251,0.0001151795867,0.145738308,0.0001006415324,0.1518381673,0.0001040328536
123,124,0.1357510699,0.000108403205,0.1422709549,0.00011237591,0.1374250267,9.7725339e-05,0.1432160335,0.0001010313961
124,125,0.1271668164,0.0001049223807,0.1335225262,0.0001088687092,0.1276870135,9.419299392e-05,0.1332823359,9.745915382e-05
125,126,0.1175479189,0.0001008790015,0.1233491996,0.0001046420903,0.1163961485,8.992435831e-05,0.1213641343,9.299383175e-05
126,127,0.1066908678,9.611043414e-05,0.1120832106,9.975215327e-05,0.1035134074,8.479824236e-05,0.1082885502,8.783642219e-05
127,128,0.09404320459,9.023737796e-05,0.09898707036,9.374696586e-05,0.08891990499,7.858315417e-05,0.09299036867,8.138719968e-05
128,129,0.07799902991,8.218403766e-05,0.08206807178,8.536420447e-05,0.07077749156,7.010175501e-05,0.07403239614,7.260983215e-05
129,130,0.04808116304,6.45309162e-05,0.0505794429,6.702150585e-05,0.03992027448,5.2640459e-05,0.04180251896,5.455447442e-05
