# xl,xh,LO,dLO,LOwvp,dLOwvp,PS+LOnovp,dPS+LOnovp,PS+LO,dPS+LO
0,10,3.762728489,0.0001597598365,3.858865451,0.0001638270808,1.812893953,0.0001161402993,1.86070261,0.0001190770993
10,20,0,0,0,0,0.1687046564,3.439470721e-05,0.1732902312,3.529911933e-05
20,30,0,0,0,0,0.1132589568,2.817865524e-05,0.1163954768,2.892902478e-05
30,40,0,0,0,0,0.09138284096,2.528934747e-05,0.09392914822,2.596500884e-05
40,50,0,0,0,0,0.08316380498,2.408771858e-05,0.08548975364,2.473227136e-05
50,60,0,0,0,0,0.08035875298,2.36392889e-05,0.08259301248,2.42698576e-05
60,70,0,0,0,0,0.08351406318,2.406849859e-05,0.08574237878,2.469779985e-05
70,80,0,0,0,0,0.09149911761,2.518219901e-05,0.093846245,2.582728541e-05
80,90,0,0,0,0,0.09660788175,2.587378874e-05,0.09916384227,2.654690394e-05
90,100,0,0,0,0,0.09696803531,2.592182314e-05,0.09945148972,2.658524829e-05
100,110,0,0,0,0,0.09700930897,2.592741581e-05,0.0995499918,2.659846743e-05
110,120,0,0,0,0,0.09664837011,2.587915964e-05,0.0991778553,2.654877102e-05
120,130,0,0,0,0,0.09296963848,2.538244769e-05,0.09544565091,2.604506634e-05
130,140,0,0,0,0,0.08713450978,2.457392898e-05,0.08937791234,2.520464708e-05
140,150,0,0,0,0,0.08078894544,2.366322842e-05,0.08286073194,2.426937744e-05
150,160,0,0,0,0,0.07418720757,2.267675097e-05,0.07612741616,2.326343349e-05
160,170,0,0,0,0,0.0670085614,2.155273669e-05,0.06871876959,2.210358219e-05
170,180,0,0,0,0,0.05941307477,2.029555142e-05,0.06092111458,2.081288782e-05
180,190,0,0,0,0,0.05245091316,1.907021423e-05,0.05375343295,1.955112246e-05
190,200,0,0,0,0,0.04620167111,1.78988685e-05,0.04734416345,1.834938551e-05
200,210,0,0,0,0,0.04046182134,1.675084434e-05,0.04153332173,1.718711786e-05
210,220,0,0,0,0,0.03517858974,1.561953852e-05,0.03608528734,1.602087763e-05
220,230,0,0,0,0,0.03008126597,1.444412912e-05,0.0308284901,1.480854312e-05
230,240,0,0,0,0,0.02545560697,1.328767729e-05,0.02609218511,1.362405157e-05
240,250,0,0,0,0,0.02144213606,1.219559034e-05,0.02201483537,1.251470727e-05
250,260,0,0,0,0,0.01803860589,1.118616966e-05,0.01848252873,1.146719638e-05
260,270,0,0,0,0,0.01504084425,1.021466987e-05,0.01541156253,1.047145789e-05
270,280,0,0,0,0,0.01248576365,9.306897729e-06,0.01278828405,9.538901515e-06
280,290,0,0,0,0,0.010308663,8.456780641e-06,0.01055891176,8.667827595e-06
290,300,0,0,0,0,0.008454495096,7.658649295e-06,0.008678618801,7.858327263e-06
300,310,0,0,0,0,0.006995285802,6.966598988e-06,0.007157116549,7.136451536e-06
310,320,0,0,0,0,0.005870699485,6.382038193e-06,0.006022538052,6.546472532e-06
320,330,0,0,0,0,0.005005147561,5.893026893e-06,0.00512947838,6.041643449e-06
330,340,0,0,0,0,0.004258946138,5.435902758e-06,0.004362153096,5.571567709e-06
340,350,0,0,0,0,0.003619274408,5.011150527e-06,0.003701918333,5.132623138e-06
350,360,0,0,0,0,0.003067078586,4.613158431e-06,0.003163966828,4.745067375e-06
360,370,0,0,0,0,0.002577401666,4.228814311e-06,0.00264432506,4.337925145e-06
370,380,0,0,0,0,0.00215533659,3.867110833e-06,0.00220580374,3.961950686e-06
380,390,0,0,0,0,0.001786430776,3.52080624e-06,0.001829226999,3.608049311e-06
390,400,0,0,0,0,0.001449600201,3.171387964e-06,0.001490188365,3.256473981e-06
400,410,0,0,0,0,0.001163846891,2.841679357e-06,0.00119910847,2.921185573e-06
410,420,0,0,0,0,0.000914236342,2.518624006e-06,0.000936614168,2.581751587e-06
420,430,0,0,0,0,0.0006935251234,2.193624203e-06,0.0007100081859,2.247947546e-06
430,440,0,0,0,0,0.0004975843605,1.858209388e-06,0.0005080305388,1.901417575e-06
440,450,0,0,0,0,0.0003306340469,1.514614083e-06,0.0003378138042,1.550466121e-06
450,460,0,0,0,0,0.0001921151666,1.154565247e-06,0.0001985135547,1.188553137e-06
460,470,0,0,0,0,8.532737552e-05,7.694331113e-07,8.893880423e-05,7.957578955e-07
470,480,0,0,0,0,2.247323393e-05,3.948753492e-07,2.272192768e-05,4.021106991e-07
480,490,0,0,0,0,7.632132054e-07,7.27695201e-08,6.618104948e-07,6.862654825e-08
490,500,0,0,0,0,0,0,0,0
