# xl,xh,LO,dLO,LOwvp,dLOwvp,PS+LOnovp,dPS+LOnovp,PS+LO,dPS+LO
0,1,0,0,0,0,0,0,0,0
1,2,0,0,0,0,0,0,0,0
2,3,0,0,0,0,0,0,0,0
3,4,0,0,0,0,0,0,0,0
4,5,0,0,0,0,0,0,0,0
5,6,0,0,0,0,0,0,0,0
6,7,0,0,0,0,0,0,0,0
7,8,0,0,0,0,0,0,0,0
8,9,0,0,0,0,0,0,0,0
9,10,0,0,0,0,0,0,0,0
10,11,0,0,0,0,0,0,0,0
11,12,0,0,0,0,0,0,0,0
12,13,0,0,0,0,0,0,0,0
13,14,0,0,0,0,0,0,0,0
14,15,0,0,0,0,0,0,0,0
15,16,0,0,0,0,0,0,0,0
16,17,0,0,0,0,0,0,0,0
17,18,0,0,0,0,0,0,0,0
18,19,0,0,0,0,0,0,0,0
19,20,0,0,0,0,0,0,0,0
20,21,0,0,0,0,0,0,0,0
21,22,0,0,0,0,0,0,0,0
22,23,0,0,0,0,0,0,0,0
23,24,0,0,0,0,0,0,0,0
24,25,0,0,0,0,0,0,0,0
25,26,0,0,0,0,0,0,0,0
26,27,0,0,0,0,0,0,0,0
27,28,0,0,0,0,0,0,0,0
28,29,0,0,0,0,0,0,0,0
29,30,0,0,0,0,0,0,0,0
30,31,0,0,0,0,0,0,0,0
31,32,0,0,0,0,0,0,0,0
32,33,0,0,0,0,0,0,0,0
33,34,0,0,0,0,0,0,0,0
34,35,0,0,0,0,0,0,0,0
35,36,0,0,0,0,0,0,0,0
36,37,0,0,0,0,0,0,0,0
37,38,0,0,0,0,0,0,0,0
38,39,0,0,0,0,0,0,0,0
39,40,0,0,0,0,0,0,0,0
40,41,0,0,0,0,0,0,0,0
41,42,0,0,0,0,0,0,0,0
42,43,0,0,0,0,0,0,0,0
43,44,0,0,0,0,0,0,0,0
44,45,0,0,0,0,0,0,0,0
45,46,0,0,0,0,0,0,0,0
46,47,0,0,0,0,0,0,0,0
47,48,0,0,0,0,0,0,0,0
48,49,0,0,0,0,0,0,0,0
49,50,0,0,0,0,0,0,0,0
50,51,0.6907609773,0.0002441392593,0.7052487165,0.0002498026245,0.660201008,0.0002176720541,0.6753284595,0.0002229449034
51,52,0.7553389699,0.0002552486523,0.7717039147,0.0002612580563,0.7387465709,0.0002298356398,0.7560666815,0.0002354554685
52,53,0.7526537921,0.0002547965317,0.7692768956,0.0002608486908,0.7466008065,0.000231012307,0.7640740557,0.0002366562392
53,54,0.7356596074,0.0002519159818,0.7517950352,0.0002578804904,0.736473254,0.0002294777488,0.7537786158,0.000235115264
54,55,0.7124777749,0.0002479317107,0.7282637687,0.0002538294295,0.7188142064,0.0002267807972,0.736179885,0.0002324322007
55,56,0.6877394024,0.0002436068396,0.703007895,0.0002494070343,0.6985181214,0.0002236521795,0.7147824458,0.0002291294103
56,57,0.6609501964,0.0002388336841,0.6764742399,0.0002446733989,0.676138905,0.0002201688011,0.6926972379,0.0002256643758
57,58,0.6357093517,0.0002342460276,0.650660394,0.0002399771888,0.6542207706,0.0002166640016,0.669622437,0.0002219977638
58,59,0.6108524937,0.0002296372605,0.6244271776,0.0002351071458,0.6314573136,0.0002129906466,0.6469055082,0.0002183126728
59,60,0.5862095937,0.0002249736308,0.6003167187,0.0002305391582,0.6091864444,0.0002093232611,0.6247893522,0.0002146691161
60,61,0.5637651713,0.0002206391,0.5774447844,0.0002261193565,0.5886055191,0.0002058682641,0.6030346613,0.0002110402942
61,62,0.5442754417,0.0002168039594,0.5570641983,0.0002221059088,0.5698053938,0.0002026754651,0.5843906403,0.0002078408848
62,63,0.5253296695,0.0002130088307,0.5380017973,0.0002182843982,0.5525077665,0.0001996708614,0.5668749409,0.0002048002843
63,64,0.5086812297,0.0002096164751,0.5215818537,0.0002149374956,0.5365303841,0.000196837013,0.550391709,0.0002018766457
64,65,0.4927346791,0.0002063142129,0.5049919777,0.0002115015296,0.521038605,0.0001940614568,0.5349258155,0.0001991088921
65,66,0.4777371993,0.0002031589443,0.4900375334,0.0002083551598,0.5066989265,0.0001914540389,0.5199142373,0.0001963637594
66,67,0.4635132651,0.0002001199434,0.4756717001,0.0002052867129,0.4930920999,0.0001889558081,0.5058611936,0.0001938021222
67,68,0.4504194442,0.0001972805599,0.462074005,0.0002023390017,0.479871063,0.000186460227,0.4927179015,0.0001913414606
68,69,0.4379709477,0.0001945422833,0.4494485175,0.0001995626557,0.467724292,0.0001841941452,0.4798223497,0.0001889137279
69,70,0.4265578941,0.000191997105,0.437879607,0.0001969839385,0.456042363,0.0001819554554,0.4681493237,0.0001867025843
70,71,0.4159478106,0.0001896000388,0.4265578338,0.0001944268694,0.4455809285,0.0001799521393,0.4577255654,0.0001847032086
71,72,0.405870638,0.0001872946951,0.4165007906,0.0001921266232,0.4352335446,0.0001779913455,0.4474502606,0.0001827216882
72,73,0.3962800692,0.0001850737472,0.4072484986,0.0001899856116,0.425798596,0.0001761441292,0.4378369321,0.0001808854128
73,74,0.3876135227,0.0001830433845,0.3983353564,0.0001878997923,0.4173319634,0.000174525399,0.4288226121,0.0001791342787
74,75,0.3795949056,0.0001811443672,0.3900650255,0.0001859432856,0.4091904896,0.0001729426065,0.4206851115,0.0001775500184
75,76,0.3723306549,0.0001794064895,0.3825303277,0.0001841425513,0.401577531,0.0001714504505,0.4130996845,0.0001760841059
76,77,0.3656143944,0.0001777844764,0.3759111545,0.000182545838,0.394765489,0.0001701136649,0.4059801154,0.000174666331
77,78,0.3592666493,0.0001762376156,0.3696497975,0.0001810223607,0.3884471387,0.0001688547237,0.3996419257,0.0001734123116
78,79,0.3535067869,0.0001748220699,0.3638803982,0.000179607051,0.3824717079,0.0001676800604,0.3934724567,0.0001722062436
79,80,0.3483332714,0.0001735407026,0.3586934855,0.0001783249628,0.377253373,0.0001666468502,0.3879654079,0.0001711109635
80,81,0.3437584579,0.0001723996231,0.3538921125,0.0001771298331,0.3727785544,0.0001657324505,0.3832536067,0.0001701966907
81,82,0.3397977073,0.0001714055216,0.3497096451,0.0001760820966,0.368176578,0.0001648131772,0.3791218834,0.0001693482485
82,83,0.3361931887,0.0001704957536,0.3460994362,0.0001751726332,0.364484475,0.0001640692915,0.3751751658,0.0001685426765
83,84,0.3328862469,0.0001696567654,0.3429676833,0.000174379825,0.3612897222,0.000163436259,0.3722445505,0.000167948166
84,85,0.3302147579,0.0001689759311,0.3400490551,0.0001736376892,0.3585242924,0.0001628765635,0.369635531,0.0001674405438
85,86,0.328379189,0.0001685065272,0.3380312804,0.0001731227413,0.3565210233,0.0001624917314,0.3668297702,0.0001668705703
86,87,0.3263087547,0.0001679754726,0.3362707808,0.0001726721921,0.3544949532,0.0001620589486,0.364901451,0.0001664689328
87,88,0.3249684645,0.0001676307963,0.3346082696,0.0001722456297,0.3528730299,0.0001617437154,0.3632678014,0.0001661179376
88,89,0.323935371,0.0001673646286,0.3340171491,0.0001720936997,0.3518700428,0.0001615370001,0.3625789266,0.0001659932114
89,90,0.3235639733,0.0001672688363,0.3335339932,0.0001719694239,0.3513684356,0.0001614376825,0.3622837262,0.0001659286635
90,91,0.3236100732,0.0001672807316,0.3334622193,0.0001719509564,0.3517919217,0.0001615117246,0.3621198509,0.0001659359532
91,92,0.3240991096,0.0001674068423,0.3339710514,0.0001720818475,0.3520878227,0.0001615936083,0.362540337,0.0001659780855
92,93,0.3251322821,0.0001676729614,0.3346340226,0.0001722522445,0.3530042952,0.0001617572851,0.363724774,0.0001662386347
93,94,0.3261812486,0.0001679427186,0.3358037811,0.0001725524781,0.3544869608,0.0001620520021,0.3653213114,0.0001665828257
94,95,0.3282917906,0.0001684841471,0.3378175531,0.0001730681099,0.3563291561,0.000162430215,0.3667247411,0.0001668553027
95,96,0.3301367076,0.0001689560016,0.340091516,0.0001736485085,0.3583553699,0.0001628326138,0.3691673125,0.000167319283
96,97,0.3329581561,0.0001696750541,0.3428386979,0.0001743470945,0.3612136128,0.0001634160677,0.3719499136,0.000167885417
97,98,0.3360506734,0.0001704596816,0.3462973568,0.0001752226132,0.3644951721,0.0001640684913,0.3749415332,0.0001685139019
98,99,0.3400761529,0.0001714755982,0.3499585445,0.000176144621,0.3684356787,0.0001648764036,0.3790043573,0.0001693020759
99,100,0.3441789736,0.0001725048253,0.3538753159,0.0001771256375,0.3726258425,0.0001657063744,0.3836536062,0.0001702566483
100,101,0.3485105217,0.0001735847636,0.35867385,0.0001783200912,0.3772699346,0.0001666439017,0.3883336168,0.0001711689053
101,102,0.3536813616,0.0001748651454,0.3638296776,0.0001795945576,0.3827479408,0.0001677346162,0.3933945778,0.0001721955633
102,103,0.359415574,0.0001762740642,0.3695644189,0.0001810014957,0.3881780659,0.0001688161174,0.3994049941,0.0001733777938
103,104,0.3655655281,0.0001777726177,0.3759293546,0.0001825502435,0.3946839749,0.0001700744201,0.4059559453,0.0001746640534
104,105,0.3721769823,0.0001793695456,0.3828920581,0.0001842294083,0.4019447105,0.0001714982633,0.4128637127,0.000176017811
105,106,0.3799362212,0.0001812256041,0.390627446,0.0001860769987,0.4088320769,0.0001728475857,0.4203781286,0.0001775114318
106,107,0.3875732366,0.0001830338937,0.3983645761,0.0001879066665,0.4172953717,0.0001745114184,0.4289875168,0.0001791652738
107,108,0.3964774225,0.0001851197201,0.4069738239,0.0001899216784,0.4259127441,0.0001761850403,0.4377040446,0.0001808644889
108,109,0.4054442319,0.0001871965144,0.4165136795,0.0001921295906,0.4354744514,0.0001780199835,0.4470561425,0.0001826651131
109,110,0.4155833563,0.0001895171583,0.4268048828,0.0001944830294,0.4456834668,0.000179984095,0.4574609874,0.0001846583605
110,111,0.426355512,0.0001919516627,0.437623494,0.0001969264654,0.4564626002,0.0001820364786,0.4686959359,0.0001868116713
111,112,0.4379175822,0.0001945304603,0.4498680748,0.0001996555399,0.4671355087,0.0001840823037,0.479971735,0.000188938675
112,113,0.4502242703,0.0001972379262,0.4623572125,0.0002024008375,0.4795836704,0.0001864329912,0.4924099085,0.0001912878603
113,114,0.463613412,0.0002001415026,0.475780957,0.0002053102223,0.4928145793,0.0001888948099,0.506096493,0.0001938359785
114,115,0.4776321207,0.0002031366634,0.4897211972,0.0002082880858,0.5066701238,0.0001914533662,0.5195868247,0.0001963368173
115,116,0.4930889271,0.0002063881528,0.5052170896,0.0002115485293,0.52102931,0.0001940657789,0.5348954,0.0001991317613
116,117,0.5088212348,0.0002096452353,0.5213818901,0.0002148964109,0.5366482176,0.0001968534391,0.5500735466,0.0002018359254
117,118,0.5254072978,0.0002130245234,0.5386167029,0.0002184087284,0.552581372,0.0001996782493,0.5663620921,0.0002047035654
118,119,0.5438809033,0.0002167256129,0.55695892,0.0002220849826,0.5700024962,0.000202688617,0.5837785006,0.0002077398078
119,120,0.5637638603,0.0002206388423,0.5773454649,0.0002260999713,0.5882545257,0.0002058176285,0.6028581969,0.0002110085285
120,121,0.5862454437,0.0002249804826,0.6001889579,0.0002305147042,0.6094263768,0.0002093798544,0.6243336799,0.0002146018008
121,122,0.6105770666,0.0002295856661,0.6249986221,0.0002352143188,0.6311503747,0.0002129494337,0.6463801981,0.0002182364947
122,123,0.6356895123,0.0002342423875,0.6503337537,0.0002399171663,0.6534195814,0.0002165633032,0.6698174017,0.0002220302786
123,124,0.6614990925,0.0002389324531,0.6768180217,0.000244735327,0.6761196932,0.0002201580214,0.692522424,0.0002256596297
124,125,0.6870899306,0.000243492244,0.702610456,0.0002493368009,0.6985068194,0.0002236725829,0.7150576821,0.0002291863507
125,126,0.7129627373,0.0002480157267,0.7285059253,0.0002538714508,0.7187765298,0.0002268004252,0.7358978534,0.0002323859904
126,127,0.7354602509,0.0002518819871,0.7516177143,0.0002578502029,0.7360314909,0.0002294129729,0.7534690272,0.0002350631981
127,128,0.7524120853,0.0002547557947,0.7690563056,0.0002608114485,0.7470524824,0.0002310922972,0.7636089803,0.0002365897829
128,129,0.7550795906,0.0002552050139,0.7713544324,0.0002611991466,0.7382949801,0.000229784562,0.755602436,0.0002354009864
129,130,0.6907825395,0.0002441430539,0.7054526844,0.0002498386013,0.6596373965,0.0002175779957,0.6745318943,0.0002228196813
130,131,0,0,0,0,0,0,0,0
131,132,0,0,0,0,0,0,0,0
132,133,0,0,0,0,0,0,0,0
133,134,0,0,0,0,0,0,0,0
134,135,0,0,0,0,0,0,0,0
135,136,0,0,0,0,0,0,0,0
136,137,0,0,0,0,0,0,0,0
137,138,0,0,0,0,0,0,0,0
138,139,0,0,0,0,0,0,0,0
139,140,0,0,0,0,0,0,0,0
140,141,0,0,0,0,0,0,0,0
141,142,0,0,0,0,0,0,0,0
142,143,0,0,0,0,0,0,0,0
143,144,0,0,0,0,0,0,0,0
144,145,0,0,0,0,0,0,0,0
145,146,0,0,0,0,0,0,0,0
146,147,0,0,0,0,0,0,0,0
147,148,0,0,0,0,0,0,0,0
148,149,0,0,0,0,0,0,0,0
149,150,0,0,0,0,0,0,0,0
150,151,0,0,0,0,0,0,0,0
151,152,0,0,0,0,0,0,0,0
152,153,0,0,0,0,0,0,0,0
153,154,0,0,0,0,0,0,0,0
154,155,0,0,0,0,0,0,0,0
155,156,0,0,0,0,0,0,0,0
156,157,0,0,0,0,0,0,0,0
157,158,0,0,0,0,0,0,0,0
158,159,0,0,0,0,0,0,0,0
159,160,0,0,0,0,0,0,0,0
160,161,0,0,0,0,0,0,0,0
161,162,0,0,0,0,0,0,0,0
162,163,0,0,0,0,0,0,0,0
163,164,0,0,0,0,0,0,0,0
164,165,0,0,0,0,0,0,0,0
165,166,0,0,0,0,0,0,0,0
166,167,0,0,0,0,0,0,0,0
167,168,0,0,0,0,0,0,0,0
168,169,0,0,0,0,0,0,0,0
169,170,0,0,0,0,0,0,0,0
170,171,0,0,0,0,0,0,0,0
171,172,0,0,0,0,0,0,0,0
172,173,0,0,0,0,0,0,0,0
173,174,0,0,0,0,0,0,0,0
174,175,0,0,0,0,0,0,0,0
175,176,0,0,0,0,0,0,0,0
176,177,0,0,0,0,0,0,0,0
177,178,0,0,0,0,0,0,0,0
178,179,0,0,0,0,0,0,0,0
179,180,0,0,0,0,0,0,0,0
