# xl,xh,LO,dLO,LOwvp,dLOwvp,PS+LOnovp,dPS+LOnovp,PS+LO,dPS+LO
0,5,0.1017841341,4.193313085e-05,0.1048644775,4.309995275e-05,0.1124542892,4.023156231e-05,0.1156361526,4.131741851e-05
5,10,0.1018640624,4.19495441e-05,0.1049324512,4.311387728e-05,0.1124897334,4.024203758e-05,0.1158756407,4.136069129e-05
10,15,0.1020674766,4.199128435e-05,0.1051264993,4.315360517e-05,0.1127334456,4.028484588e-05,0.1160296659,4.138598586e-05
15,20,0.102378524,4.205503066e-05,0.105415015,4.321260569e-05,0.1130616758,4.034651656e-05,0.1163574394,4.144593967e-05
20,25,0.1026709093,4.211486274e-05,0.1057961137,4.329041484e-05,0.113411059,4.040937688e-05,0.116698912,4.150655517e-05
25,30,0.1032735937,4.223792161e-05,0.1063354907,4.340029646e-05,0.1138979088,4.049554331e-05,0.1172188219,4.160193715e-05
30,35,0.1038673564,4.23588059e-05,0.1068857631,4.351210973e-05,0.1144630477,4.060111537e-05,0.1177678355,4.170098193e-05
35,40,0.104537439,4.249480911e-05,0.1074745893,4.363143555e-05,0.1151095573,4.07224224e-05,0.1184447077,4.182699776e-05
40,45,0.1052835563,4.26457295e-05,0.1083594805,4.381014022e-05,0.1158759055,4.086190572e-05,0.1192543609,4.197668553e-05
45,50,0.1061889878,4.282815177e-05,0.1092735812,4.399397185e-05,0.1167431007,4.1017631e-05,0.1201314948,4.213242055e-05
50,55,0.107188364,4.302859173e-05,0.1102991291,4.419929521e-05,0.1177131743,4.119339686e-05,0.1211526339,4.231947734e-05
55,60,0.1081940117,4.322934004e-05,0.111412129,4.442104015e-05,0.118767655,4.138602011e-05,0.1220729958,4.248289686e-05
60,65,0.1093655256,4.346201487e-05,0.1125582269,4.464821353e-05,0.1198740386,4.158155535e-05,0.1233719927,4.271933939e-05
65,70,0.1108072822,4.374664271e-05,0.1139076423,4.491419508e-05,0.121145825,4.181147761e-05,0.1245877862,4.293556632e-05
70,75,0.1120841408,4.399715901e-05,0.1153799751,4.520259802e-05,0.1224939027,4.205356919e-05,0.1259563801,4.317974067e-05
75,80,0.1136379179,4.430007161e-05,0.1168677271,4.549213843e-05,0.1240050553,4.232297573e-05,0.1274671801,4.344683376e-05
80,85,0.1153092983,4.462358442e-05,0.1185704562,4.582124356e-05,0.1254784377,4.257934322e-05,0.1290536209,4.373018309e-05
85,90,0.1169402112,4.493699006e-05,0.1202112686,4.613612965e-05,0.1271032587,4.287162761e-05,0.1307314768,4.4023035e-05
90,95,0.1356222986,4.838048093e-05,0.1393212896,4.965467952e-05,0.1450526646,4.585426147e-05,0.1490103168,4.706480273e-05
95,100,0.1357686721,4.840647871e-05,0.1392750758,4.964647544e-05,0.1451338199,4.588546537e-05,0.1490093611,4.70790226e-05
100,105,0.1358467972,4.842034955e-05,0.1393951255,4.966778344e-05,0.1451676282,4.589869482e-05,0.1489628488,4.708401077e-05
105,110,0.1360495859,4.845633353e-05,0.1396258093,4.970870172e-05,0.1451702518,4.591406535e-05,0.1490139607,4.710575778e-05
110,115,0.136196083,4.848231253e-05,0.1397859632,4.973709074e-05,0.145173198,4.593212967e-05,0.1491693395,4.714597449e-05
115,120,0.136266898,4.849486601e-05,0.1400567412,4.978504846e-05,0.1452751754,4.596213743e-05,0.149213406,4.716466284e-05
120,125,0.1365707212,4.854868521e-05,0.1401731866,4.980565956e-05,0.1453221898,4.598584561e-05,0.1492675771,4.719187042e-05
125,130,0.1367647725,4.858302627e-05,0.1404048828,4.984664165e-05,0.1454047344,4.601192617e-05,0.1492541617,4.720335479e-05
130,135,0.1370077112,4.862598664e-05,0.1406289015,4.98862335e-05,0.1455596769,4.605183884e-05,0.1494303835,4.724841702e-05
135,140,0.1372788364,4.867388467e-05,0.1408733732,4.992940345e-05,0.1455271908,4.60611135e-05,0.1493948965,4.726208547e-05
140,145,0.1373717201,4.86902823e-05,0.1409119802,4.993621761e-05,0.145543674,4.607947154e-05,0.1493552409,4.726634025e-05
145,150,0.1375894812,4.872870572e-05,0.1411352002,4.997559651e-05,0.1456537756,4.611169894e-05,0.149452823,4.729624586e-05
150,155,0.1376579049,4.874077244e-05,0.1412164136,4.99899163e-05,0.1455088436,4.610205704e-05,0.1493555688,4.730130133e-05
155,160,0.1378088191,4.876737637e-05,0.1412995986,5.000457909e-05,0.1454786425,4.611462024e-05,0.1492794616,4.730612609e-05
160,165,0.1377720504,4.876089508e-05,0.1412570445,4.999707832e-05,0.1453573028,4.610977137e-05,0.148994499,4.727254968e-05
165,170,0.1376985006,4.874793038e-05,0.1412636574,4.999824481e-05,0.1451181592,4.6084995e-05,0.1488858327,4.727226906e-05
170,175,0.1376348423,4.873670562e-05,0.1409766522,4.994763032e-05,0.1448428079,4.606087029e-05,0.1485107805,4.722801429e-05
175,180,0.1373239003,4.868184113e-05,0.1407589219,4.990919833e-05,0.1443857834,4.600587452e-05,0.1481165546,4.718376869e-05
180,185,0.136935561,4.861323148e-05,0.1402780278,4.982420724e-05,0.1437574075,4.592390279e-05,0.1474435303,4.709250242e-05
185,190,0.1364673976,4.853038874e-05,0.1396987247,4.972162831e-05,0.1429895547,4.581232822e-05,0.1466490265,4.698231216e-05
190,195,0.1357084273,4.839577976e-05,0.139029292,4.960282227e-05,0.1421528141,4.569790214e-05,0.1458236661,4.686703466e-05
195,200,0.1347755189,4.822979979e-05,0.1381727933,4.9450393e-05,0.1411235709,4.554664272e-05,0.144607566,4.668818816e-05
200,205,0.1337172811,4.80408154e-05,0.1369620045,4.923409373e-05,0.1397893299,4.534748123e-05,0.1434010322,4.650656417e-05
205,210,0.1323417654,4.779403688e-05,0.1356398235,4.899678916e-05,0.1382200567,4.510697756e-05,0.1417575398,4.626025085e-05
210,215,0.1307856877,4.75132943e-05,0.1337858836,4.866206417e-05,0.1363988688,4.481637285e-05,0.1397537378,4.594223792e-05
215,220,0.1287320124,4.714017842e-05,0.1317713629,4.829567575e-05,0.13418853,4.446795178e-05,0.1376334707,4.560607399e-05
220,225,0.126444076,4.672093801e-05,0.1293239037,4.784671526e-05,0.1317441355,4.407220887e-05,0.1349621874,4.517093225e-05
225,230,0.1237223269,4.621718223e-05,0.1265776104,4.733779262e-05,0.1288462195,4.359117412e-05,0.1320239211,4.468430472e-05
230,235,0.1205164722,4.56165859e-05,0.1233101624,4.672496838e-05,0.1254822396,4.302111018e-05,0.1285824086,4.409482631e-05
235,240,0.1167598391,4.490243757e-05,0.1193088083,4.596321027e-05,0.1216990613,4.236382642e-05,0.1247959793,4.343427932e-05
240,245,0.1123747459,4.405397428e-05,0.1150417671,4.513651433e-05,0.1174945837,4.161404076e-05,0.1204304163,4.266075214e-05
245,250,0.107564678,4.310382314e-05,0.110070224,4.415355092e-05,0.1127831301,4.075943306e-05,0.1155294219,4.177044676e-05
250,255,0.1020205222,4.198165334e-05,0.1044522733,4.301541029e-05,0.107602404,3.978584119e-05,0.1102149707,4.077662632e-05
255,260,0.09606185028,4.074071734e-05,0.09826176768,4.172490134e-05,0.1019959615,3.869730887e-05,0.1045233723,3.966567366e-05
260,265,0.08954144767,3.933744845e-05,0.09158306755,4.028575582e-05,0.09605300193,3.74948342e-05,0.09836504315,3.841971385e-05
265,270,0.08373680647,3.804422745e-05,0.08573900021,3.89824303e-05,0.0905055854,3.629884929e-05,0.09263322584,3.71891077e-05
270,275,0.08361357934,3.801629168e-05,0.08552773705,3.893448987e-05,0.08855645288,3.574086597e-05,0.09084068275,3.665404865e-05
275,280,0.08501957486,3.833380987e-05,0.0868993834,3.924469454e-05,0.08796156346,3.544437233e-05,0.09001723931,3.631202951e-05
280,285,0.08651778145,3.866925464e-05,0.08845013417,3.959244796e-05,0.08726639763,3.514937338e-05,0.0893305587,3.601829551e-05
285,290,0.08805916652,3.901132738e-05,0.0899653014,3.992926806e-05,0.08661009803,3.489031831e-05,0.08862611353,3.574096738e-05
290,295,0.08956809566,3.934328613e-05,0.09151042186,4.02698165e-05,0.08573583482,3.46217902e-05,0.08769100095,3.546116354e-05
295,300,0.0908985469,3.963365078e-05,0.09281336515,4.055474345e-05,0.08450647313,3.431342257e-05,0.08641706808,3.514060631e-05
300,305,0.09182586081,3.983476767e-05,0.09385988,4.078213761e-05,0.08283054844,3.393343473e-05,0.08479363217,3.477078251e-05
305,310,0.09215974511,3.990693056e-05,0.09407449894,4.082861246e-05,0.0803954683,3.341165581e-05,0.08213396281,3.420136507e-05
310,315,0.0910256379,3.966127554e-05,0.09297679851,4.059033907e-05,0.07621388147,3.252321672e-05,0.07794500715,3.330933335e-05
315,320,0.0871905512,3.881893354e-05,0.08893257357,3.97000071e-05,0.0691290883,3.097165849e-05,0.07073497245,3.17276102e-05
320,325,0.07566672231,3.616876539e-05,0.07717874857,3.698971342e-05,0.05545719009,2.773884718e-05,0.05674989739,2.84174664e-05
325,330,0.02403291323,2.039896927e-05,0.02450572817,2.085873872e-05,0.01556443575,1.469613567e-05,0.01588674806,1.503659288e-05
330,335,0,0,0,0,0,0,0,0
335,340,0,0,0,0,0,0,0,0
340,345,0,0,0,0,0,0,0,0
345,350,0,0,0,0,0,0,0,0
350,355,0,0,0,0,0,0,0,0
355,360,0,0,0,0,0,0,0,0
360,365,0,0,0,0,0,0,0,0
365,370,0,0,0,0,0,0,0,0
370,375,0,0,0,0,0,0,0,0
