# xl,xh,LO,dLO,LOwvp,dLOwvp,PS+LOnovp,dPS+LOnovp,PS+LO,dPS+LO
0,10,0,0,0,0,0,0,0,0
10,20,0,0,0,0,0,0,0,0
20,30,0,0,0,0,0,0,0,0
30,40,0,0,0,0,0,0,0,0
40,50,0,0,0,0,0,0,0,0
50,60,0,0,0,0,0,0,0,0
60,70,0,0,0,0,0,0,0,0
70,80,0,0,0,0,0,0,0,0
80,90,0,0,0,0,0,0,0,0
90,100,0,0,0,0,0,0,0,0
100,110,0,0,0,0,0,0,0,0
110,120,0,0,0,0,0,0,0,0
120,130,0,0,0,0,0,0,0,0
130,140,0,0,0,0,0,0,0,0
140,150,0,0,0,0,0,0,0,0
150,160,0,0,0,0,0,0,0,0
160,170,0,0,0,0,0,0,0,0
170,180,0,0,0,0,0,0,0,0
180,190,0,0,0,0,0,0,0,0
190,200,0,0,0,0,0,0,0,0
200,210,0,0,0,0,0,0,0,0
210,220,0,0,0,0,0,0,0,0
220,230,0,0,0,0,0,0,0,0
230,240,0,0,0,0,0,0,0,0
240,250,0,0,0,0,0,0,0,0
250,260,0,0,0,0,0,0,0,0
260,270,0,0,0,0,0,0,0,0
270,280,0,0,0,0,0,0,0,0
280,290,0,0,0,0,0,0,0,0
290,300,0,0,0,0,0,0,0,0
300,310,0,0,0,0,0,0,0,0
310,320,0,0,0,0,0,0,0,0
320,330,0,0,0,0,0,0,0,0
330,340,0,0,0,0,0,0,0,0
340,350,0,0,0,0,0,0,0,0
350,360,0,0,0,0,0,0,0,0
360,370,0,0,0,0,0,0,0,0
370,380,0,0,0,0,0,0,0,0
380,390,0,0,0,0,0,0,0,0
390,400,0,0,0,0,0,0,0,0
400,410,0,0,0,0,0,0,0,0
410,420,0,0,0,0,0,0,0,0
420,430,0,0,0,0,0,0,0,0
430,440,0,0,0,0,0,0,0,0
440,450,0,0,0,0,0,0,0,0
450,460,0,0,0,0,0,0,0,0
460,470,0,0,0,0,0,0,7.116022143e-09,7.116021798e-09
470,480,0,0,0,0,0,0,1.423257161e-08,1.006394741e-08
480,490,0,0,0,0,2.081456939e-08,1.201729666e-08,7.116608805e-09,7.11660846e-09
490,500,0,0,0,0,7.632155578e-08,2.301181382e-08,9.250913507e-08,2.565741633e-08
500,510,0,0,0,0,2.08152035e-07,3.800318644e-08,1.352018904e-07,3.101743953e-08
510,520,0,0,0,0,4.926173318e-07,5.846292055e-08,5.408343216e-07,6.203794807e-08
520,530,0,0,0,0,1.054634452e-06,8.554214638e-08,1.038970289e-06,8.598578842e-08
530,540,0,0,0,0,1.769271702e-06,1.107960896e-07,1.828856349e-06,1.140809183e-07
540,550,0,0,0,0,2.927987823e-06,1.425322079e-07,3.145362548e-06,1.496096297e-07
550,560,0,0,0,0,4.787452601e-06,1.822551927e-07,4.789518965e-06,1.846226346e-07
560,570,0,0,0,0,8.027650095e-06,2.360052763e-07,8.333051982e-06,2.435149332e-07
570,580,0,0,0,0,1.306028615e-05,3.010597337e-07,1.382734591e-05,3.14202947e-07
580,590,0,0,0,0,2.149493873e-05,3.861850214e-07,2.279311167e-05,4.027402747e-07
590,600,0,0,0,0,3.508755169e-05,4.934085629e-07,3.605421105e-05,5.065579764e-07
600,610,0,0,0,0,5.371917708e-05,6.110501231e-07,5.380014746e-05,6.187614786e-07
610,620,0,0,0,0,7.657986403e-05,7.289357437e-07,7.933987141e-05,7.514050213e-07
620,630,0,0,0,0,0.0001065533574,8.601845983e-07,0.0001082312097,8.776109651e-07
630,640,0,0,0,0,0.0001397715815,9.848514841e-07,0.0001424859145,1.007062054e-06
640,650,0,0,0,0,0.0001796791244,1.11669938e-06,0.0001859206995,1.150448779e-06
650,660,0,0,0,0,0.0002276155801,1.256703546e-06,0.0002321410832,1.285325038e-06
660,670,0,0,0,0,0.0002809525708,1.396577099e-06,0.0002889418647,1.434189048e-06
670,680,0,0,0,0,0.0003494024882,1.557203942e-06,0.0003523810369,1.583712424e-06
680,690,0,0,0,0,0.0004192332871,1.705595817e-06,0.000431278365,1.752067491e-06
690,700,0,0,0,0,0.0005089054509,1.879242744e-06,0.0005226696473,1.928727898e-06
700,710,0,0,0,0,0.0006148884385,2.065979389e-06,0.0006333960691,2.123771178e-06
710,720,0,0,0,0,0.0007544838015,2.28808673e-06,0.0007692216017,2.339996073e-06
720,730,0,0,0,0,0.0009116422341,2.515175446e-06,0.0009388991814,2.585091692e-06
730,740,0,0,0,0,0.001110029437,2.775380645e-06,0.001132065021,2.838541876e-06
740,750,0,0,0,0,0.001356582677,3.068355251e-06,0.001384928175,3.139458171e-06
750,760,0,0,0,0,0.001666060743,3.400084762e-06,0.00170242527,3.480980903e-06
760,770,0,0,0,0,0.002052717206,3.774116612e-06,0.002108628766,3.87382131e-06
770,780,0,0,0,0,0.00254316234,4.200701388e-06,0.00260219113,4.303465604e-06
780,790,0,0,0,0,0.00314078836,4.668187524e-06,0.003228741935,4.793491855e-06
790,800,0,0,0,0,0.003869363393,5.181442063e-06,0.003968921596,5.314490503e-06
800,810,0,0,0,0,0.004758407269,5.745790507e-06,0.004878694865,5.892110205e-06
810,820,0,0,0,0,0.005801063981,6.344096953e-06,0.005934099156,6.498155447e-06
820,830,0,0,0,0,0.00701118044,6.97448878e-06,0.007185928901,7.150715582e-06
830,840,0,0,0,0,0.008438007708,7.651136754e-06,0.008646761233,7.843933497e-06
840,850,0,0,0,0,0.01014455773,8.38925805e-06,0.01038775622,8.597273751e-06
850,860,0,0,0,0,0.0121432005,9.17830344e-06,0.01243951615,9.407979682e-06
860,870,0,0,0,0,0.01453776641,1.004242922e-05,0.01490534147,1.029806658e-05
870,880,0,0,0,0,0.01743661174,1.099799272e-05,0.01787163596,1.12760729e-05
880,890,0,0,0,0,0.02096029983,1.205784542e-05,0.02148163571,1.236225624e-05
890,900,0,0,0,0,0.0252793258,1.324160633e-05,0.02594241774,1.358490562e-05
900,910,0,0,0,0,0.03070416262,1.459283447e-05,0.03149499334,1.496770451e-05
910,920,0,0,0,0,0.03757981084,1.614353573e-05,0.03851497585,1.655115573e-05
920,930,0,0,0,0,0.04642520881,1.794209569e-05,0.04761966059,1.840262053e-05
930,940,0,0,0,0,0.05811757669,2.007321343e-05,0.05959708179,2.05856302e-05
940,950,0,0,0,0,0.07387281026,2.262869772e-05,0.07575304748,2.320622739e-05
950,960,0,0,0,0,0.09576665671,2.576089213e-05,0.09823325243,2.64220978e-05
960,970,0,0,0,0,0.1261617907,2.95618153e-05,0.1293520278,3.031334881e-05
970,980,0,0,0,0,0.1542500271,3.2681224e-05,0.158240593,3.352135463e-05
980,990,0,0,0,0,0.176705507,3.497415358e-05,0.1813165035,3.587680795e-05
990,1000,0,0,0,0,0.2145892712,3.85315995e-05,0.2201164281,3.951922114e-05
1000,1010,0,0,0,0,0.2134796392,3.843504484e-05,0.2192308904,3.944279017e-05
1010,1020,3.762728489,0.0001597598365,3.858865451,0.0001638270808,2.567661217,0.0001359285943,2.635789297,0.0001393489226
