# xl,xh,LO,dLO,LOwvp,dLOwvp,PS+LOnovp,dPS+LOnovp,PS+LO,dPS+LO
215,225.1,0.000586444032,7.281369869e-07,0.0005933456897,7.457300032e-07,0.0003860771142,4.357487669e-07,0.000593776901,5.660623306e-07
225.1,235.2,0.0005794041201,7.225412629e-07,0.0005875171655,7.369605862e-07,0.0004548983039,4.644109592e-07,0.0005861479541,5.482481029e-07
235.2,245.3,0.0005254839424,6.795400316e-07,0.0005353199674,2.012164402e-06,0.0004788457177,4.769791237e-07,0.0005322638352,5.204656537e-07
245.3,255.4,0.0004844151787,6.474085515e-07,0.0004922844391,6.670589305e-07,0.0004779422432,4.723223374e-07,0.0004917992534,4.970050907e-07
255.4,265.5,0.0004507003738,6.23667354e-07,0.0004567567765,6.409753438e-07,0.0004499397045,4.577147233e-07,0.0004570597091,4.779209069e-07
265.5,275.6,0.000422475939,6.038108681e-07,0.0004305323766,6.222916469e-07,0.0004227324417,4.436540191e-07,0.0004310496417,4.64021823e-07
275.6,285.7,0.0004007460071,5.880811559e-07,0.0004069276122,6.049959985e-07,0.0004001087767,4.316201534e-07,0.0004074685057,4.511518883e-07
285.7,295.8,0.0003807666372,5.732375378e-07,0.0003882917294,5.909833267e-07,0.0003807055064,4.210252324e-07,0.0003881690874,4.403388952e-07
295.8,305.9,0.0003644834212,5.608492007e-07,0.000371700808,5.782223758e-07,0.0003644142407,4.11919143e-07,0.0003720957987,4.311264144e-07
305.9,316,0.0003506862054,5.50133756e-07,0.0003582119933,5.676358745e-07,0.0003509857441,4.042589461e-07,0.0003578938904,4.228194978e-07
316,326.1,0.0003399308602,5.416335991e-07,0.0003466214798,5.583787762e-07,0.0003407805009,3.983389015e-07,0.0003466413386,4.161199237e-07
326.1,336.2,0.0003306921577,5.342240278e-07,0.0003382904858,5.516289693e-07,0.000330319166,3.921775409e-07,0.000337775169,4.107641762e-07
336.2,346.3,0.0003239670442,5.28765029e-07,0.0003297525621,5.446246384e-07,0.0003227690815,3.876699456e-07,0.0003297922302,4.058814908e-07
346.3,356.4,0.0003178548071,5.23754146e-07,0.0003241718831,5.399972505e-07,0.0003172399428,3.843353787e-07,0.0003243290543,4.02505844e-07
356.4,366.5,0.0003121948739,5.19070891e-07,0.0003191417916,5.357921003e-07,0.0003123277728,3.813484208e-07,0.0003195197874,3.995106204e-07
366.5,376.6,0.0003097787966,5.170588e-07,0.0003154810125,5.327108242e-07,0.0003088521473,3.792207721e-07,0.0003157646502,3.971562395e-07
376.6,386.7,0.0003053946745,5.13387607e-07,0.0003121234225,5.298689825e-07,0.0003052130502,3.76980167e-07,0.0003125404762,3.951235255e-07
386.7,396.8,0.0003010018972,5.096826097e-07,0.0003084320635,5.267269265e-07,0.0003016317249,3.747620695e-07,0.0003084026807,3.924994294e-07
396.8,406.9,0.000298742054,5.077660437e-07,0.0003065697237,5.251345691e-07,0.0002994943871,3.734320286e-07,0.0003067781398,3.914643779e-07
406.9,417,0.0002988240646,5.078357361e-07,0.0003060362306,5.246775491e-07,0.0002989961741,3.731213352e-07,0.0003064219294,3.912370351e-07
417,427.1,0.0002995370645,5.084411183e-07,0.0003074640117,5.258998267e-07,0.0002999167938,3.736953003e-07,0.0003081917927,3.92365171e-07
427.1,437.2,0.0003044840018,5.126217162e-07,0.0003119381006,5.297116857e-07,0.0003034785436,3.759075599e-07,0.0003122872264,3.949634365e-07
437.2,447.3,0.0003095077606,5.168325993e-07,0.0003175376722,5.344440995e-07,0.000309866391,3.798429193e-07,0.000318119549,3.986343353e-07
447.3,457.4,0.0003168189719,5.229001801e-07,0.0003256176655,5.411998684e-07,0.0003172669664,3.843517543e-07,0.0003256838587,4.033455984e-07
457.4,467.5,0.000325553588,5.300579474e-07,0.0003355392672,5.493816876e-07,0.0003264682446,3.898849684e-07,0.0003355146715,4.093874776e-07
467.5,477.6,0.0003366809608,5.390387579e-07,0.0003466538654,5.584048597e-07,0.0003373915132,3.963534127e-07,0.0003465149098,4.160440129e-07
477.6,487.7,0.0003487354087,5.486017981e-07,0.0003600950139,5.691255726e-07,0.0003499883279,4.036841827e-07,0.0003597482461,4.239133797e-07
487.7,497.8,0.0003642805859,5.606931643e-07,0.0003746814552,5.805356663e-07,0.0003642983283,4.118536496e-07,0.0003753179596,4.329889267e-07
497.8,507.9,0.0003801339174,5.727611705e-07,0.0003937896591,5.95151667e-07,0.0003819785895,4.217285405e-07,0.0003928854206,4.430057223e-07
507.9,518,0.0004018793809,5.889119747e-07,0.0004135456162,6.098946517e-07,0.0004018698767,4.325689334e-07,0.0004133702636,4.54407103e-07
518,528.1,0.0004248807983,6.055265514e-07,0.0004366573738,6.267015058e-07,0.0004244130475,4.445349936e-07,0.0004373855371,4.674193656e-07
528.1,538.2,0.0004508222243,6.237334457e-07,0.0004636314306,6.457635412e-07,0.000449605278,4.575369186e-07,0.0004647613167,4.81823884e-07
538.2,548.3,0.0004799634896,6.435715142e-07,0.0004951947462,6.673771166e-07,0.00047976553,4.726325039e-07,0.000496460262,4.979826841e-07
548.3,558.4,0.000514146649,6.660884767e-07,0.0005318178338,6.916085362e-07,0.0005151141177,4.897328026e-07,0.0005302079165,5.146283167e-07
558.4,568.5,0.0005550851307,6.920907832e-07,0.0005726297926,7.176471386e-07,0.0005551658492,5.084134779e-07,0.0005737369033,5.353343735e-07
568.5,578.6,0.0006043861989,7.221615283e-07,0.0006248361379,7.496365619e-07,0.0006038995984,5.302563137e-07,0.000624729844,5.586151776e-07
578.6,588.7,0.0006641482372,7.570108023e-07,0.0006904665461,7.880088981e-07,0.0006652482834,5.565351075e-07,0.0006900723996,5.870987194e-07
588.7,598.8,0.0007370385377,7.974537458e-07,0.0007645781975,8.292048581e-07,0.0007362859161,5.854916984e-07,0.0007644846734,6.179382609e-07
598.8,608.9,0.0008178201132,8.399997193e-07,0.0008491989371,8.738671567e-07,0.0008172893166,6.168530728e-07,0.0008496113122,6.514292149e-07
608.9,619,0.0008990824748,8.807239363e-07,0.0009340383151,9.164585939e-07,0.0008980018305,6.465897334e-07,0.0009363990449,6.838863122e-07
619,629.1,0.0009624328121,9.112074927e-07,0.001002810401,9.49580198e-07,0.0009626015881,6.694382518e-07,0.001001916091,7.074020974e-07
629.1,639.2,0.001016432214,9.364066693e-07,0.001061158835,9.767994018e-07,0.001016549787,6.879377489e-07,0.001060059148,7.276344633e-07
639.2,649.3,0.001062650825,9.574470502e-07,0.001107304982,9.977994507e-07,0.001063060047,7.0349596e-07,0.001108151114,7.43953304e-07
649.3,659.4,0.001105376961,9.764933899e-07,0.001155564454,1.019297411e-06,0.001106674409,7.177788645e-07,0.001154159873,7.592367491e-07
659.4,669.5,0.001152236084,9.969628059e-07,0.001201958912,1.039544487e-06,0.001152662256,7.325372274e-07,0.001201401636,7.746158186e-07
669.5,679.6,0.001202438296,1.018434971e-06,0.001254877802,1.062166495e-06,0.001203293071,7.484487729e-07,0.001255607619,7.918937667e-07
679.6,689.7,0.001255444174,1.040624252e-06,0.001311849737,1.085993175e-06,0.00125441837,7.64179275e-07,0.00131090622,8.091395592e-07
689.7,699.8,0.001312959343,1.064176461e-06,0.001372883735,1.110950133e-06,0.001312870733,7.817760998e-07,0.001372806438,8.280177784e-07
699.8,709.9,0.00137663422,1.089655678e-06,0.001440678741,1.138028392e-06,0.001375260715,8.001310271e-07,0.001440571451,8.482024909e-07
709.9,720,0.001446013061,1.116753663e-06,0.001514702216,1.166874769e-06,0.001444569806,8.20039422e-07,0.001512143172,8.690116191e-07
720,730.1,0.001518204182,1.144266791e-06,0.001595439067,1.197542687e-06,0.001518706752,8.408123322e-07,0.001592869765,8.91899368e-07
730.1,740.2,0.001597474307,1.173732614e-06,0.001681354432,1.229334867e-06,0.001598506861,8.626124916e-07,0.001680811981,9.161816276e-07
740.2,750.3,0.001685120838,1.205470917e-06,0.001776939552,1.263762278e-06,0.001686715381,8.860850474e-07,0.001776768035,9.419618616e-07
750.3,760.4,0.001783294793,1.240053529e-06,0.001883462893,1.301052248e-06,0.001782112129,9.107888475e-07,0.001883176409,9.697481654e-07
760.4,770.5,0.001885227956,1.274964183e-06,0.001996060822,1.339335998e-06,0.001888186262,9.374925122e-07,0.001995993554,9.983625103e-07
770.5,780.6,0.002000216876,1.313227997e-06,0.002116951099,1.37925174e-06,0.002001844437,9.652846675e-07,0.002114528816,1.027567848e-06
780.6,790.7,0.00212795249,1.354460925e-06,0.002311856756,1.44126918e-06,0.002129806621,9.956450744e-07,0.002312002623,1.074458211e-06
790.7,800.8,0.002268773198,1.39850283e-06,0.002464779953,1.488110894e-06,0.002267059994,1.027211257e-06,0.002462598242,1.108883139e-06
800.8,810.9,0.002421740734,1.444815497e-06,0.002625512338,1.535797328e-06,0.002423473973,1.062038772e-06,0.002625080725,1.144862915e-06
810.9,821,0.00259548431,1.495670437e-06,0.002810179659,1.588808876e-06,0.002598726646,1.099748939e-06,0.002809467762,1.184367197e-06
821,831.1,0.00278967949,1.550527327e-06,0.003019502607,1.646823746e-06,0.002790065272,1.13949327e-06,0.00301925986,1.227766409e-06
831.1,841.2,0.003008859699,1.610184563e-06,0.003257126635,1.710283554e-06,0.003006201561,1.182779709e-06,0.003254664424,1.274701967e-06
841.2,851.3,0.003254580306,1.674523534e-06,0.003520938372,1.778067353e-06,0.003254188863,1.230566203e-06,0.0035197926,1.325570728e-06
851.3,861.4,0.003531364567,1.744135411e-06,0.003820364697,1.851975776e-06,0.003530152143,1.281645278e-06,0.003818324451,1.38060096e-06
861.4,871.5,0.00384852711,1.820607259e-06,0.004164990665,1.933518761e-06,0.003849713733,1.33835364e-06,0.004167600946,1.442314834e-06
871.5,881.6,0.00422039425,1.906332633e-06,0.004561141096,2.023160585e-06,0.00421652661,1.400610879e-06,0.004560441915,1.508703433e-06
881.6,891.7,0.004644568916,1.999592266e-06,0.005020937254,2.122416142e-06,0.004639947244,1.469188191e-06,0.005023979735,1.583451513e-06
891.7,901.8,0.005145161805,2.104288079e-06,0.005560684743,2.233249247e-06,0.005145980363,1.547148758e-06,0.005560508925,1.665771506e-06
901.8,911.9,0.005738083102,2.221848125e-06,0.006207714957,2.359178899e-06,0.005740490048,1.633975676e-06,0.006206567626,1.759772866e-06
911.9,922,0.006461421097,2.357239906e-06,0.006977352989,2.500618319e-06,0.006459644066,1.733176705e-06,0.006983192064,1.866487344e-06
922,932.1,0.007341144845,2.511948321e-06,0.007936180963,2.666195882e-06,0.007338449298,1.847144669e-06,0.007937960721,1.989812578e-06
932.1,942.2,0.008444288799,2.693215589e-06,0.009128888363,2.858584926e-06,0.008444522556,1.981236076e-06,0.009127635319,2.133470062e-06
942.2,952.3,0.009866465701,2.909985125e-06,0.01065888243,3.087543016e-06,0.009869321904,2.141547914e-06,0.01066341877,2.305635767e-06
952.3,962.4,0.01175941925,3.175145244e-06,0.01271110014,3.36977036e-06,0.01176010995,2.337244576e-06,0.0127076732,2.51645413e-06
962.4,972.5,0.0143944842,3.510226562e-06,0.01555004783,3.724178292e-06,0.01439747515,2.585366302e-06,0.01554966278,2.782891198e-06
972.5,982.6,0.01831973773,3.955477286e-06,0.01977201132,4.194471524e-06,0.01832580266,2.915628732e-06,0.0197762188,3.137100139e-06
982.6,992.7,0.02476645182,4.590405545e-06,0.02670954828,4.865637857e-06,0.02477167507,3.387549792e-06,0.02670600144,3.643069095e-06
992.7,1002.8,0.02423897399,4.541961989e-06,0.02606956607,4.80785691e-06,0.02423870118,3.351096151e-06,0.02606982215,3.599639379e-06
1002.8,1012.9,0,0,0,0,0,0,0,0
1012.9,1023,0,0,0,0,0,0,0,0
