# xl,xh,LO,dLO,LOwvp,dLOwvp,PS+LOnovp,dPS+LOnovp,PS+LO,dPS+LO
0,2,0.06527596308,1.680526611e-05,0.07032960308,1.780640219e-05,0.06526783705,1.23720311e-05,0.07032750365,1.330187107e-05
2,4,0.06274343099,1.647844947e-05,0.0676219466,1.746288467e-05,0.06274898978,1.213158004e-05,0.06760934258,1.304296316e-05
4,6,0.05702812416,1.571520011e-05,0.06131698985,1.663465368e-05,0.05703044672,1.156694601e-05,0.06134810635,1.242584531e-05
6,8,0.05004366408,1.472735467e-05,0.05367900658,1.557071552e-05,0.05002838868,1.083518675e-05,0.0536890008,1.162604969e-05
8,10,0.04122119901,1.337307057e-05,0.04413537044,1.412629474e-05,0.04124340153,9.839752464e-06,0.04411584526,1.054063966e-05
10,12,0.03205457854,1.179899073e-05,0.03416786569,1.243604319e-05,0.0320541908,8.676243383e-06,0.03417714704,9.279418124e-06
12,14,0.02437731177,1.029400397e-05,0.02590199937,1.083271854e-05,0.02437558391,7.567207624e-06,0.02590473861,8.080005563e-06
14,16,0.01895776151,9.080716401e-06,0.02010633943,9.547192718e-06,0.01897216686,6.67674874e-06,0.02008327437,7.115214557e-06
16,18,0.0151029604,8.106879307e-06,0.01592164148,8.49773124e-06,0.01510466737,5.957949025e-06,0.01591885841,6.335217561e-06
18,20,0.01221683109,7.292456735e-06,0.01283190663,7.630066775e-06,0.01222750749,5.360878215e-06,0.01282158302,5.685940346e-06
20,22,0.0100168511,6.604120399e-06,0.01045473905,6.888045356e-06,0.0100016329,4.848667041e-06,0.01045890465,5.135637097e-06
22,24,0.008280501426,6.005109516e-06,0.008625523416,6.257138478e-06,0.008279694136,4.411735523e-06,0.008606289675,4.658806702e-06
24,26,0.0069000074,5.482160697e-06,0.007143597527,5.694778531e-06,0.006891448832,4.02503836e-06,0.007151754783,4.247028503e-06
26,28,0.005777960406,5.016978088e-06,0.005982619081,5.211847452e-06,0.00578335019,3.687350572e-06,0.005981785517,3.884222094e-06
28,30,0.004865677944,4.604148325e-06,0.005026350922,4.777439839e-06,0.004865540539,3.382193529e-06,0.005024178401,3.559829339e-06
30,32,0.004105733108,4.229527932e-06,0.004241094815,4.388605161e-06,0.004108785559,3.108110228e-06,0.00424154002,3.27088277e-06
32,34,0.003480798682,3.894498595e-06,0.003587332492,4.036350886e-06,0.003480907044,2.860826406e-06,0.003588190832,3.008474995e-06
34,36,0.002952784455,3.587080391e-06,0.003036100193,3.713421762e-06,0.00294914324,2.633285763e-06,0.003036300126,2.767487123e-06
36,38,0.002499515882,3.300383978e-06,0.002574276822,3.419438972e-06,0.002496525304,2.422825303e-06,0.002572708839,2.547489865e-06
38,40,0.00211713511,3.037528237e-06,0.002172580227,3.141410653e-06,0.002115528202,2.230318718e-06,0.002174250084,2.341937007e-06
40,42,0.001786736571,2.790515973e-06,0.001835331114,2.887367407e-06,0.001784910778,2.048654644e-06,0.001836996603,2.152670134e-06
42,44,0.001503839343,2.560129959e-06,0.001543820077,2.648195965e-06,0.00150311592,1.880006089e-06,0.001545566336,1.974556467e-06
44,46,0.001264772837,2.347867027e-06,0.001300118831,2.430239686e-06,0.001265294758,1.724888285e-06,0.001297896186,1.809455031e-06
46,48,0.001060099749,2.149540803e-06,0.001086803502,2.221969939e-06,0.001060322807,1.579014307e-06,0.001085600201,1.654872544e-06
48,50,0.0008796371106,1.958071702e-06,0.0009075270709,2.030470719e-06,0.0008873290252,1.444477826e-06,0.0009039986298,1.510132226e-06
50,52,0.0007344963343,1.789267417e-06,0.0007492273468,1.844919971e-06,0.0007331710178,1.313023471e-06,0.0007497666694,1.375293658e-06
52,54,0.0005995078735,1.616520578e-06,0.0006143213256,1.670597051e-06,0.0006021972199,1.189982067e-06,0.0006148010251,1.245376794e-06
54,56,0.0004888127235,1.459680437e-06,0.0004983747839,1.504716607e-06,0.0004859322857,1.068956383e-06,0.0004969550815,1.119677823e-06
56,58,0.0003871191472,1.299006729e-06,0.0003931687229,1.336499072e-06,0.0003877977795,9.549391452e-07,0.0003974368819,1.001311967e-06
58,60,0.0002986772187,1.141017493e-06,0.0003062724385,1.179601227e-06,0.0003010352146,8.413611639e-07,0.0003087364294,8.825311656e-07
60,62,0.0002265122351,9.936625063e-07,0.0002308617449,1.024139319e-06,0.0002268462578,7.303653858e-07,0.0002314286509,7.640913261e-07
62,64,0.0001645606229,8.469496163e-07,0.0001673773688,8.720329985e-07,0.0001638931814,6.208053784e-07,0.0001667499101,6.485896813e-07
64,66,0.000110206923,6.931071782e-07,0.0001135521918,7.182631805e-07,0.0001100780714,5.087750966e-07,0.0001122203182,5.320757975e-07
66,68,6.438834877e-05,5.297862916e-07,6.61013399e-05,5.480145561e-07,6.434291945e-05,3.889790819e-07,6.586442058e-05,4.07627524e-07
68,70,2.613719754e-05,3.375417823e-07,2.667861016e-05,3.481524976e-07,2.613269464e-05,2.478952933e-07,2.66706934e-05,2.593913476e-07
70,72,5.37478e-06,1.53066094e-07,5.429314481e-06,1.570583011e-07,5.208662343e-06,1.106723858e-07,5.307892032e-06,1.157175281e-07
72,74,2.920595912e-07,3.568075529e-08,3.362086346e-07,3.908345652e-08,3.292145195e-07,2.782370365e-08,3.330042499e-07,2.898429804e-08
74,76,0,0,0,0,0,0,0,0
76,78,0,0,0,0,0,0,0,0
78,80,0,0,0,0,0,0,0,0
