# xl,xh,LO,dLO,LOwvp,dLOwvp,PS+LOnovp,dPS+LOnovp,PS+LO,dPS+LO
50,51,0.01047048601,9.551395919e-06,0.01112586148,1.005166113e-05,0.01046709499,7.015484743e-06,0.01113172445,7.493562827e-06
51,52,0.01098466848,9.782965065e-06,0.01168390426,1.030050122e-05,0.0109935728,7.189715006e-06,0.01169919566,7.682149473e-06
52,53,0.01148648016,1.0003783e-05,0.01223031588,1.053844892e-05,0.01147942544,7.34683274e-06,0.01221247392,7.848821404e-06
53,54,0.01193657543,1.019776626e-05,0.01271402025,1.07446816e-05,0.01192544659,7.488164805e-06,0.01270407497,8.005197999e-06
54,55,0.01236150084,1.037756571e-05,0.01315706153,1.093015394e-05,0.01236742415,7.625629887e-06,0.01316848604,8.150167506e-06
55,56,0.01273827588,1.053441732e-05,0.01359197912,1.110920503e-05,0.01275343956,7.743691318e-06,0.01359055973,8.279717304e-06
56,57,0.01309925366,1.068252661e-05,0.01396372588,1.125998625e-05,0.01310571507,7.849882525e-06,0.0139626128,8.392254275e-06
57,58,0.0134342856,1.081817068e-05,0.01431400988,1.140023261e-05,0.01343089998,7.946646372e-06,0.01432401605,8.500142345e-06
58,59,0.01374139362,1.094102735e-05,0.01463865991,1.152868638e-05,0.01372037032,8.031801212e-06,0.01462530458,8.589047218e-06
59,60,0.01398539024,1.103765907e-05,0.01491435126,1.163665247e-05,0.01397753575,8.106701843e-06,0.01490773722,8.671559223e-06
60,61,0.0142168149,1.112853384e-05,0.01516532627,1.173407269e-05,0.01420864468,8.173426703e-06,0.01516721064,8.746677858e-06
61,62,0.01446789065,1.122629051e-05,0.01543970908,1.183965864e-05,0.01447807965,8.250535156e-06,0.01546226285,8.83131866e-06
62,63,0.01469665668,1.131462321e-05,0.01570003447,1.193896858e-05,0.01470482969,8.314873109e-06,0.01571600317,8.903464364e-06
63,64,0.01485926892,1.137699374e-05,0.01587688937,1.200596626e-05,0.01488880567,8.366710507e-06,0.01589785718,8.9548121e-06
64,65,0.01501265719,1.143551353e-05,0.01605178136,1.207185297e-05,0.015016677,8.402550767e-06,0.0160327269,8.992705041e-06
65,66,0.01511757189,1.147536738e-05,0.01616492031,1.211428431e-05,0.01511908279,8.431143931e-06,0.01614967637,9.0254333e-06
66,67,0.01519662897,1.150530752e-05,0.01620113981,1.212783658e-05,0.01518810034,8.450359717e-06,0.01620777681,9.041649034e-06
67,68,0.01521774441,1.151329091e-05,0.01625606897,1.214835943e-05,0.01522544695,8.46073935e-06,0.0162503098,9.053501012e-06
68,69,0.01521722996,1.151309644e-05,0.0162700261,1.215356955e-05,0.01520916553,8.456215972e-06,0.01624252397,9.051332427e-06
69,70,0.01523576504,1.152009992e-05,0.01624490152,1.214419041e-05,0.01521108866,8.45675032e-06,0.01625202582,9.053979032e-06
70,71,0.01518859922,1.150226992e-05,0.01622647371,1.213730655e-05,0.01518446456,8.44934844e-06,0.01620734669,9.041528761e-06
71,72,0.01512754556,1.147914886e-05,0.01612885498,1.210077456e-05,0.01513379881,8.435244857e-06,0.01615249722,9.026221404e-06
72,73,0.01505862827,1.145299373e-05,0.01608320332,1.208365209e-05,0.01506918271,8.417223263e-06,0.0160960175,9.010431686e-06
73,74,0.01499760093,1.142978268e-05,0.01597487176,1.204292387e-05,0.01497628411,8.391246337e-06,0.0159970184,8.982687839e-06
74,75,0.01487988731,1.138487752e-05,0.01588836589,1.20103005e-05,0.01488172191,8.364720289e-06,0.01588777822,8.951974463e-06
75,76,0.01478374295,1.134806824e-05,0.01580106056,1.197728658e-05,0.014784843,8.337457294e-06,0.0157661501,8.917653258e-06
76,77,0.01465611696,1.129902024e-05,0.01561834498,1.190789466e-05,0.01467916118,8.307615222e-06,0.01565898263,8.88730261e-06
77,78,0.01455577033,1.126030545e-05,0.01553193005,1.187493465e-05,0.01456243012,8.274527408e-06,0.01551747143,8.847066247e-06
78,79,0.01444237269,1.121639399e-05,0.01537646534,1.181540517e-05,0.01441699134,8.233115973e-06,0.0153760191,8.806662216e-06
79,80,0.01429374454,1.115857768e-05,0.01524004671,1.17629204e-05,0.0142774466,8.193186115e-06,0.0152259088,8.763581179e-06
80,81,0.01415814159,1.110556492e-05,0.0150867264,1.170365022e-05,0.01413381397,8.15188173e-06,0.01507058202,8.718778903e-06
81,82,0.01398031599,1.103565794e-05,0.01494546432,1.164877391e-05,0.01398955644,8.110185811e-06,0.01492170422,8.675619634e-06
82,83,0.01383116481,1.097667909e-05,0.01476556538,1.157851043e-05,0.01383663516,8.065750003e-06,0.01477061054,8.631596722e-06
83,84,0.01367072375,1.091287923e-05,0.01461129101,1.151791245e-05,0.013685624,8.021627553e-06,0.01460311462,8.582530905e-06
84,85,0.01350263657,1.084563475e-05,0.01442024275,1.144242422e-05,0.01352325047,7.973912629e-06,0.01444315003,8.535407191e-06
85,86,0.01336895146,1.079185303e-05,0.01422700463,1.136555925e-05,0.01336478447,7.927068563e-06,0.01423643937,8.474124451e-06
86,87,0.01320048061,1.072369172e-05,0.01408178063,1.130744781e-05,0.01318428398,7.873370816e-06,0.01406563251,8.423149103e-06
87,88,0.0130253754,1.065238246e-05,0.01385684782,1.121684432e-05,0.01302777507,7.826512119e-06,0.01388299462,8.368299259e-06
88,89,0.01284187448,1.057713682e-05,0.01369774843,1.115231359e-05,0.01285024774,7.77301818e-06,0.0136821866,8.307573776e-06
89,90,0.01269020402,1.05145358e-05,0.0135080997,1.107489882e-05,0.01266653076,7.717268166e-06,0.01349762145,8.251366062e-06
90,91,0.01249457583,1.043323498e-05,0.01332605628,1.100007488e-05,0.01250395857,7.667596151e-06,0.01331354507,8.194922623e-06
91,92,0.01232505028,1.036226512e-05,0.01313067341,1.091919501e-05,0.01229828914,7.604291574e-06,0.01311907009,8.134864852e-06
92,93,0.01211908263,1.027537734e-05,0.01293186527,1.083627664e-05,0.01211781731,7.548304529e-06,0.01292757709,8.075291153e-06
93,94,0.0119463922,1.020195583e-05,0.01272722322,1.075025533e-05,0.01193457047,7.49102803e-06,0.01271469594,8.008542805e-06
94,95,0.01174446959,1.011542825e-05,0.0125214271,1.06630464e-05,0.0117596823,7.43595268e-06,0.01250975125,7.943752511e-06
95,96,0.01154973939,1.003127377e-05,0.01229234219,1.056512015e-05,0.01155473049,7.370885055e-06,0.01232427748,7.884658349e-06
96,97,0.01135793025,9.947684053e-06,0.01211191606,1.048734853e-05,0.01136379053,7.309744632e-06,0.0121056787,7.814435576e-06
97,98,0.01114416838,9.853689601e-06,0.01189007267,1.039092403e-05,0.01117370604,7.248365246e-06,0.01189464969,7.746040506e-06
98,99,0.01095301289,9.768867494e-06,0.01167976985,1.029867999e-05,0.0109666804,7.180917851e-06,0.01168548684,7.677648261e-06
99,100,0.01074519646,9.675806637e-06,0.01146686806,1.020444473e-05,0.01075109137,7.110000255e-06,0.01146797843,7.605874268e-06
100,101,0.01054553223,9.585543462e-06,0.01124227153,1.010407792e-05,0.01055471396,7.04478027e-06,0.01124166637,7.53046871e-06
101,102,0.01034810821,9.495447311e-06,0.0110178476,1.000277943e-05,0.01033851812,6.97227229e-06,0.01102310419,7.456920936e-06
102,103,0.01012681396,9.393428177e-06,0.01079359648,9.900521285e-06,0.01011395465,6.896149847e-06,0.01078091789,7.374565772e-06
103,104,0.009913069692,9.293824093e-06,0.01055450673,9.790318084e-06,0.00990268284,6.823757356e-06,0.01057262364,7.302992441e-06
104,105,0.009684312474,9.186024785e-06,0.01031720683,9.679696107e-06,0.00967300197,6.744174287e-06,0.01032413027,7.216676332e-06
105,106,0.009450925979,9.074721361e-06,0.01006953028,9.562869256e-06,0.009456477127,6.668279843e-06,0.01007430033,7.128841778e-06
106,107,0.009229805882,8.96799079e-06,0.009836810478,9.451778226e-06,0.009224610366,6.58603729e-06,0.009836408946,7.04418614e-06
107,108,0.008985757,8.848695333e-06,0.009592295984,9.333630051e-06,0.008995973602,6.503921018e-06,0.009567083418,6.947098321e-06
108,109,0.008733373482,8.72360649e-06,0.009309617156,9.195145073e-06,0.008742802915,6.411766197e-06,0.009311541821,6.853706862e-06
109,110,0.00848468631,8.59856606e-06,0.009037578891,9.059869801e-06,0.008484913305,6.316509853e-06,0.00903463834,6.751049364e-06
110,111,0.008238109315,8.47276166e-06,0.008778234784,8.928995238e-06,0.008233547194,6.222258955e-06,0.008772053204,6.652235512e-06
111,112,0.007973389341,8.335583187e-06,0.008495119882,8.783894601e-06,0.007987397479,6.128558765e-06,0.008500315441,6.548406561e-06
112,113,0.007711285049,8.197494684e-06,0.008207788694,8.634135985e-06,0.007708758694,6.020730462e-06,0.008217406774,6.438529333e-06
113,114,0.007447009957,8.055862086e-06,0.007934078497,8.489014806e-06,0.007444327565,5.916581863e-06,0.007933560761,6.326369703e-06
114,115,0.007174879585,7.907364344e-06,0.00762855573,8.32403422e-06,0.007171115842,5.807012098e-06,0.007637352165,6.207162684e-06
115,116,0.006885138357,7.746122774e-06,0.007344032277,8.167391437e-06,0.006890068854,5.692098468e-06,0.0073433388,6.086529547e-06
116,117,0.006593165637,7.58016525e-06,0.007032385108,7.992287648e-06,0.006603264585,5.572386558e-06,0.007033033646,5.956561193e-06
117,118,0.006317443375,7.420032123e-06,0.006722809604,7.814458339e-06,0.006319409939,5.451316844e-06,0.006733071252,5.828168677e-06
118,119,0.006022419043,7.244764355e-06,0.00642690054,7.640605833e-06,0.006029389591,5.324773463e-06,0.006425898619,5.693688615e-06
119,120,0.005728336412,7.065724475e-06,0.006109174407,7.449412767e-06,0.005727451418,5.189751009e-06,0.006106148269,5.550240462e-06
120,121,0.005457975821,6.897021919e-06,0.005828422014,7.27628374e-06,0.005461449712,5.067817668e-06,0.005807528388,5.412838278e-06
121,122,0.00518425874,6.721907535e-06,0.005520218695,7.081348163e-06,0.005186563453,4.93864808e-06,0.005516783822,5.275620632e-06
122,123,0.004907534035,6.540098808e-06,0.005207290069,6.877766182e-06,0.004900230521,4.800403952e-06,0.005206957881,5.125354514e-06
123,124,0.004613564715,6.34124622e-06,0.004920776761,6.685929234e-06,0.004607566189,4.654859759e-06,0.004895754498,4.969846828e-06
124,125,0.004318514178,6.135177855e-06,0.004589147986,6.45676432e-06,0.004315787392,4.505076496e-06,0.004583904554,4.808972048e-06
125,126,0.004019828272,5.919260434e-06,0.004265224554,6.224775656e-06,0.004029769038,4.353248899e-06,0.004272751639,4.642902963e-06
126,127,0.003731089739,5.702760487e-06,0.00394808892,5.98894039e-06,0.003727953373,4.187068055e-06,0.00395274906,4.465671424e-06
127,128,0.003419710092,5.459662545e-06,0.003618749729,5.733762755e-06,0.003424824918,4.013241557e-06,0.00362414832,4.276037361e-06
128,129,0.003108016542,5.204951636e-06,0.003280223996,5.459039376e-06,0.003105551521,3.821615014e-06,0.003278397534,4.066967868e-06
129,130,0.002775835211,4.918990796e-06,0.002922598012,5.152918648e-06,0.002781283125,3.616609483e-06,0.002921198529,3.83903385e-06
