# xl,xh,LO,dLO,LOwvp,dLOwvp,PS+LOnovp,dPS+LOnovp,PS+LO,dPS+LO
140,145,9.488902016e-06,1.286281679e-07,1.002810182e-05,1.349979791e-07,9.595233198e-06,9.500225795e-08,9.910447785e-06,1.000034989e-07
145,150,2.89671303e-05,2.247396047e-07,3.003160767e-05,2.336178577e-07,2.921274685e-05,1.657646678e-07,2.955875891e-05,1.727074392e-07
150,155,4.89405505e-05,2.921191659e-07,5.004238616e-05,3.015675305e-07,4.839758161e-05,2.133620651e-07,4.999621565e-05,2.246136537e-07
155,160,6.829847301e-05,3.450880628e-07,7.100727335e-05,3.592243461e-07,6.808753224e-05,2.530688903e-07,7.105527777e-05,2.677721024e-07
160,165,0.0002467533089,6.559108942e-07,0.0002569324543,6.833020576e-07,0.0002473098993,4.823048801e-07,0.0002558894211,5.081471191e-07
165,170,0.0004029365952,8.381504769e-07,0.0004184525377,8.720004865e-07,0.0004026810285,6.154290639e-07,0.0004187603238,6.500438464e-07
170,175,0.0005173090789,9.496674974e-07,0.0005371760008,9.879725272e-07,0.0005174693668,6.976493955e-07,0.0005393607423,7.377293033e-07
175,180,0.0006183897898,1.038296514e-06,0.0006435560231,1.081367739e-06,0.0006196608548,7.634307363e-07,0.0006429900369,8.054847754e-07
180,185,0.0007101228327,1.11263131e-06,0.0007385431391,1.158410555e-06,0.0007115713919,8.18087561e-07,0.000738835941,8.634301009e-07
185,190,0.0007524671633,1.145316901e-06,0.0007817141508,1.191779679e-06,0.0007525117339,8.412910382e-07,0.000781965244,8.88272101e-07
190,195,0.0007812843581,1.167037132e-06,0.0008131451192,1.215497729e-06,0.000780903266,8.570133607e-07,0.0008126976614,9.055577948e-07
195,200,0.0008067833701,1.185924336e-06,0.0008394747982,1.235015445e-06,0.0008083439249,8.719397087e-07,0.0008401917249,9.207469192e-07
200,205,0.0008361811909,1.207332479e-06,0.0008699643673,1.257237928e-06,0.0008357864699,8.866157273e-07,0.0008706002703,9.37259535e-07
205,210,0.0008659730685,1.228646729e-06,0.0009022803894,1.280370275e-06,0.0008674842577,9.032705168e-07,0.0009001558879,9.530346317e-07
210,215,0.0008943822299,1.248632544e-06,0.0009315577876,1.30097209e-06,0.0008962700109,9.181334949e-07,0.0009336098719,9.705811513e-07
215,220,0.0009269308137,1.27114387e-06,0.0009639555856,1.323395512e-06,0.0009288096615,9.346500176e-07,0.0009630202378,9.857487016e-07
220,225,0.0009587958694,1.292802355e-06,0.0009993774302,1.347484566e-06,0.0009589584249,9.496966208e-07,0.0009997800793,1.004384482e-06
225,230,0.0009941342723,1.316404581e-06,0.001032971051,1.369938639e-06,0.0009922364851,9.660327428e-07,0.001033080546,1.020972716e-06
230,235,0.001030316613,1.340139362e-06,0.001069472392,1.393925802e-06,0.001027604498,9.83097127e-07,0.00107141961,1.03974311e-06
235,240,0.001064190341,1.361984483e-06,0.001106484436,1.417833772e-06,0.001061416966,9.99138531e-07,0.001108738405,1.057693948e-06
240,245,0.001100627251,1.385097595e-06,0.00114904663,1.444837361e-06,0.001102733581,1.018396905e-06,0.001147279222,1.075918137e-06
245,250,0.001142038773,1.410906038e-06,0.001187841471,1.469017779e-06,0.001141202066,1.036005815e-06,0.001187224773,1.094486258e-06
250,255,0.001178076359,1.432986641e-06,0.001233723947,1.497111236e-06,0.001181335353,1.054063113e-06,0.001233441816,1.115583786e-06
255,260,0.001220968208,1.458830825e-06,0.001278347017,1.523936265e-06,0.001223985726,1.072919729e-06,0.001276850586,1.135042164e-06
260,265,0.001269669866,1.487630657e-06,0.001326332144,1.552264449e-06,0.001268223878,1.092134249e-06,0.001323646996,1.155652004e-06
265,270,0.00131428795,1.513534102e-06,0.001371133303,1.578253389e-06,0.001314545576,1.111897772e-06,0.001376704899,1.17858339e-06
270,275,0.001364918111,1.542400283e-06,0.001423941693,1.608347358e-06,0.001363330591,1.132339138e-06,0.001427062205,1.199942018e-06
275,280,0.001413136809,1.569397312e-06,0.001480395662,1.639907229e-06,0.001415978928,1.153992963e-06,0.001479754939,1.221891472e-06
280,285,0.001466417274,1.59869736e-06,0.001537778308,1.671374734e-06,0.001468187922,1.175071858e-06,0.001539043937,1.246126105e-06
285,290,0.001525608716,1.630629838e-06,0.001597739721,1.703634452e-06,0.00152564352,1.197840057e-06,0.001599923401,1.270529669e-06
290,295,0.001587049425,1.663126176e-06,0.00166686603,1.740081602e-06,0.00158369657,1.220413462e-06,0.001667062278,1.296909635e-06
295,300,0.00165222504,1.696916684e-06,0.001736646611,1.776113999e-06,0.001647840138,1.244878922e-06,0.001735596858,1.323295414e-06
300,305,0.001716609046,1.72964754e-06,0.00181072519,1.813581102e-06,0.001715633276,1.270223934e-06,0.001806559251,1.350072207e-06
305,310,0.001787306806,1.764887693e-06,0.001885983235,1.85086673e-06,0.001787047729,1.296386599e-06,0.001885639896,1.379299602e-06
310,315,0.001861885828,1.801313882e-06,0.001971191206,1.892193406e-06,0.00186300827,1.323646929e-06,0.001968665162,1.409332352e-06
315,320,0.001944271211,1.84071337e-06,0.00205876357,1.933744825e-06,0.00194421918,1.35218323e-06,0.002056330332,1.44036347e-06
320,325,0.002027915486,1.879868482e-06,0.002149705269,1.975968353e-06,0.002030938468,1.382004246e-06,0.002147948228,1.472094384e-06
325,330,0.002118802828,1.921507817e-06,0.00224446888,2.01902485e-06,0.002121985545,1.412635676e-06,0.00224494965,1.50496023e-06
330,335,0.002215262886,1.964732921e-06,0.002355737583,2.068434097e-06,0.002216796739,1.443842273e-06,0.002349771677,1.539686722e-06
335,340,0.002314899861,2.008402655e-06,0.002463602438,2.115227802e-06,0.002318695843,1.476646171e-06,0.002461537384,1.575870099e-06
340,345,0.002422601185,2.054560542e-06,0.002579040084,2.164183063e-06,0.002422535373,1.509340758e-06,0.002575547473,1.611942732e-06
345,350,0.002529559629,2.099393145e-06,0.002691480956,2.210822648e-06,0.002528666198,1.542039909e-06,0.002696907689,1.649473446e-06
350,355,0.002638995915,2.144291738e-06,0.002811463809,2.259526028e-06,0.002642005823,1.576210461e-06,0.002813128522,1.684630427e-06
355,360,0.002753361413,2.19022638e-06,0.002939744692,2.310458887e-06,0.002757206965,1.610198516e-06,0.002942093671,1.722802222e-06
360,365,0.002882207884,2.240846075e-06,0.00308263335,2.365897235e-06,0.002885637038,1.647262157e-06,0.003079526841,1.762569658e-06
365,370,0.003028248386,2.296867976e-06,0.003236516929,2.424179056e-06,0.003025767514,1.686772527e-06,0.003235571258,1.806660392e-06
370,375,0.003184806579,2.355440125e-06,0.003408839349,2.487818919e-06,0.003185988365,1.730841258e-06,0.003405812491,1.853565054e-06
375,380,0.003355680018,2.417743206e-06,0.003591996695,2.553715654e-06,0.00336014748,1.777503318e-06,0.003594570182,1.904219527e-06
380,385,0.003553668906,2.487975262e-06,0.003806285183,2.628708758e-06,0.003555613161,1.828454304e-06,0.003804202191,1.95893916e-06
385,390,0.003767000062,2.561486722e-06,0.00403353496,2.705958731e-06,0.003762513406,1.880880761e-06,0.004033238163,2.017025071e-06
390,395,0.004010051655,2.642738232e-06,0.004297894922,2.793125136e-06,0.004005795474,1.940712354e-06,0.004295414269,2.081523933e-06
395,400,0.004276058213,2.728879768e-06,0.004581155193,2.883587361e-06,0.004278168349,2.005578353e-06,0.004586692027,2.150911692e-06
400,405,0.004571394677,2.821425371e-06,0.00490333762,2.983130956e-06,0.00456811822,2.07239658e-06,0.004905347016,2.224339139e-06
405,410,0.004280563833,2.730315345e-06,0.004582683597,2.884067948e-06,0.004278994197,2.005771821e-06,0.004579469923,2.149218399e-06
410,415,0.003838543489,2.585669858e-06,0.004089987083,2.724807788e-06,0.003834085774,1.898678967e-06,0.004093472754,2.032025028e-06
415,420,0.003593031633,2.501702414e-06,0.003825470913,2.635318528e-06,0.003591067049,1.837544355e-06,0.00382296661,1.963762747e-06
420,425,0.003438686146,2.447434088e-06,0.003656721386,2.576597982e-06,0.003439673683,1.798407406e-06,0.003659221709,1.921261781e-06
425,430,0.003352363626,2.416549349e-06,0.003565434396,2.544265165e-06,0.00335593806,1.776389931e-06,0.003564937734,1.896357102e-06
430,435,0.003321815025,2.405524202e-06,0.003530677665,2.531845996e-06,0.003325708794,1.768374079e-06,0.003530313188,1.887128559e-06
435,440,0.003344161539,2.413594141e-06,0.003551986045,2.539466977e-06,0.003345091022,1.77351783e-06,0.003553260341,1.89324975e-06
440,445,0.003424117999,2.442249337e-06,0.003638322662,2.570114084e-06,0.003423254392,1.794111466e-06,0.003636096993,1.915183521e-06
445,450,0.003546495552,2.48546547e-06,0.003773711137,2.617448101e-06,0.003544641017,1.825632024e-06,0.003774695658,1.951330028e-06
450,455,0.003719182446,2.545194734e-06,0.003964792114,2.682826406e-06,0.003719950475,1.870216013e-06,0.003964333435,1.999727869e-06
455,460,0.003962987216,2.627201763e-06,0.004216952189,2.766729199e-06,0.003957747807,1.929043048e-06,0.004217722164,2.062621262e-06
460,465,0.004269812551,2.726888596e-06,0.004552106757,2.874442e-06,0.004266299654,2.002795655e-06,0.004552801012,2.142953886e-06
465,470,0.004654742467,2.846995883e-06,0.00497512082,3.004857875e-06,0.004652165218,2.091365231e-06,0.004978648662,2.240889009e-06
470,475,0.005146111406,2.993284569e-06,0.005522579361,3.165632245e-06,0.005142583116,2.198781055e-06,0.005517366666,2.358952902e-06
475,480,0.005813820084,3.181248655e-06,0.006250769051,3.367540253e-06,0.005809898428,2.337010461e-06,0.006246217387,2.509843561e-06
480,485,0.006769278682,3.432246697e-06,0.00730356916,3.63957638e-06,0.006775076161,2.523549704e-06,0.007308988096,2.714841749e-06
485,490,0.008277850263,3.79465287e-06,0.008983102159,4.035489468e-06,0.00828037924,2.789627274e-06,0.008973559376,3.007900343e-06
490,495,0.009836474829,4.135574277e-06,0.01071745163,4.406819455e-06,0.009833025106,3.039693941e-06,0.01072063732,3.287417413e-06
495,500,0.003499687502,2.469025472e-06,0.003819375476,2.633220377e-06,0.003500386783,1.814203988e-06,0.003821681768,1.963432778e-06
500,505,0,0,0,0,0,0,0,0
505,510,0,0,0,0,0,0,0,0
510,515,0,0,0,0,0,0,0,0
