# xl,xh,LOnovp,dLOnovp,LO,dLO,PS+LOnovp,dPS+LOnovp,PS+LO,dPS+LO
50,51,0.001949891315,2.30445248e-06,0.01545944009,1.376178356e-05,0.001951677871,1.750382448e-06,0.01547461786,9.723313455e-06
51,52,0.002072489751,2.375612122e-06,0.01661622812,1.426704454e-05,0.002069815929,1.802574414e-06,0.01665036799,1.008584292e-05
52,53,0.00219859785,2.446792156e-06,0.01781941327,1.477420266e-05,0.002200735184,1.858702055e-06,0.01783388003,1.043804464e-05
53,54,0.002321601592,2.514277216e-06,0.0190251848,1.526551012e-05,0.002327973975,1.911672134e-06,0.01902557357,1.078104887e-05
54,55,0.002457454995,2.586766311e-06,0.02024918218,1.57485279e-05,0.002454470837,1.962917033e-06,0.02022683872,1.111608949e-05
55,56,0.002578689041,2.649776773e-06,0.02146963956,1.621578603e-05,0.002575510607,2.010724548e-06,0.0214455513,1.144596664e-05
56,57,0.002701666208,2.712191425e-06,0.0226902428,1.666996124e-05,0.002701711061,2.05938833e-06,0.02268774646,1.177267834e-05
57,58,0.002825512995,2.773626979e-06,0.02392453817,1.711693784e-05,0.002826799214,2.106516034e-06,0.02393650551,1.209221026e-05
58,59,0.002942889261,2.830662725e-06,0.02517847077,1.755933528e-05,0.002944297662,2.149841139e-06,0.02513833101,1.2391943e-05
59,60,0.003064772802,2.888611067e-06,0.02640849849,1.798269087e-05,0.0030624024,2.192527523e-06,0.02638437267,1.269522252e-05
60,61,0.003175331548,2.940222715e-06,0.02766070637,1.840362829e-05,0.003175445162,2.232619456e-06,0.02765531886,1.299726255e-05
61,62,0.003302769658,2.998611066e-06,0.02894013619,1.882395962e-05,0.00330430165,2.277458748e-06,0.02891445357,1.3289719e-05
62,63,0.003421160687,3.051845681e-06,0.03014106031,1.921012067e-05,0.003428064469,2.319708842e-06,0.03018990704,1.357953061e-05
63,64,0.003538785529,3.10383938e-06,0.03141938108,1.961272616e-05,0.003540091938,2.357301111e-06,0.03140816053,1.385067536e-05
64,65,0.003640107059,3.147924114e-06,0.03261649923,1.998238958e-05,0.003646861904,2.392576512e-06,0.03259783864,1.411042274e-05
65,66,0.003743628155,3.192342176e-06,0.03377372529,2.033331341e-05,0.003736634863,2.42183982e-06,0.03375614227,1.435879925e-05
66,67,0.003824248352,3.226509757e-06,0.03491383073,2.067319108e-05,0.003832159306,2.452591944e-06,0.0348984873,1.459960349e-05
67,68,0.003908375948,3.261780543e-06,0.03599534704,2.099049097e-05,0.003909262468,2.477137251e-06,0.03598671492,1.48253558e-05
68,69,0.003983620486,3.293008205e-06,0.03705288581,2.129615435e-05,0.003983040728,2.500396585e-06,0.03706002044,1.504468763e-05
69,70,0.004042482078,3.317243572e-06,0.03804612205,2.157927307e-05,0.004053366488,2.522371571e-06,0.03805933517,1.524605686e-05
70,71,0.004110036168,3.346527749e-06,0.03895994535,2.183648589e-05,0.004106389415,2.538809299e-06,0.03899436266,1.543208522e-05
71,72,0.004168442681,3.368474042e-06,0.03992321439,2.210436099e-05,0.004162137579,2.555979005e-06,0.03995800542,1.562148436e-05
72,73,0.004203226999,3.382488694e-06,0.04080852141,2.234770536e-05,0.004207785263,2.569953455e-06,0.04079649007,1.578443105e-05
73,74,0.00424696558,3.400031889e-06,0.0416853835,2.258613566e-05,0.00425005149,2.582862369e-06,0.04164141012,1.594694036e-05
74,75,0.004281146628,3.413672717e-06,0.04247100543,2.279761023e-05,0.004283953672,2.593103995e-06,0.04242833567,1.609681395e-05
75,76,0.004302792149,3.422284764e-06,0.04315357826,2.297976267e-05,0.004310359126,2.601080642e-06,0.04315929803,1.623479182e-05
76,77,0.004330449408,3.433263029e-06,0.04380220186,2.31515165e-05,0.004330499246,2.607148596e-06,0.04376865302,1.634891553e-05
77,78,0.004341839346,3.437765902e-06,0.04440326519,2.330954522e-05,0.004339542654,2.609869613e-06,0.04439122298,1.646469707e-05
78,79,0.004353988957,3.442568649e-06,0.04490176862,2.343978546e-05,0.004352797956,2.613851019e-06,0.04491281093,1.656107698e-05
79,80,0.004354092222,3.442609356e-06,0.0453475198,2.355564884e-05,0.004350996645,2.613309981e-06,0.04538100862,1.664711212e-05
80,81,0.004352848755,3.442118804e-06,0.04574810472,2.365925645e-05,0.004347641472,2.612302458e-06,0.04577493519,1.671915522e-05
81,82,0.00434538603,3.439168532e-06,0.04610974665,2.37524147e-05,0.004344016369,2.611214881e-06,0.04610427809,1.677914969e-05
82,83,0.00431873228,3.428613835e-06,0.04636568453,2.381812198e-05,0.004325268178,2.60557399e-06,0.04635985672,1.682555841e-05
83,84,0.00430476967,3.423070444e-06,0.04656741476,2.386978345e-05,0.004304882763,2.599428209e-06,0.04654103269,1.685838011e-05
84,85,0.004273170363,3.410493595e-06,0.04669315565,2.390194296e-05,0.004277616426,2.59118542e-06,0.0466617207,1.688021534e-05
85,86,0.004245093193,3.399279418e-06,0.04675941175,2.391885209e-05,0.004241295826,2.580163827e-06,0.04670204315,1.688749396e-05
86,87,0.00420588202,3.383561239e-06,0.04671154943,2.39066278e-05,0.004204137984,2.568842862e-06,0.04671230266,1.688935824e-05
87,88,0.00416228869,3.365988408e-06,0.04668769203,2.390053261e-05,0.004161481823,2.555779085e-06,0.04666850386,1.688143431e-05
88,89,0.004110916434,3.345168284e-06,0.04653010085,2.38602364e-05,0.004113790332,2.541094573e-06,0.04655857066,1.686155645e-05
89,90,0.004060634428,3.324662321e-06,0.04637455932,2.382039699e-05,0.004059774956,2.524361104e-06,0.04638324163,1.682980636e-05
90,91,0.003998579006,3.299181063e-06,0.04616805704,2.376740064e-05,0.003999382675,2.505531797e-06,0.04614272552,1.678614079e-05
91,92,0.003943207208,3.276274957e-06,0.04582774866,2.36798051e-05,0.003937005581,2.485908614e-06,0.04583039644,1.672927284e-05
92,93,0.003871089821,3.246206612e-06,0.04547977725,2.35898972e-05,0.003867869737,2.464000113e-06,0.04547639829,1.666458543e-05
93,94,0.003797635486,3.215333863e-06,0.04509656286,2.349048227e-05,0.00379611892,2.441049297e-06,0.04505130034,1.658657025e-05
94,95,0.003726806819,3.185173577e-06,0.04459341631,2.335930825e-05,0.003721990955,2.417093672e-06,0.04461893978,1.650686501e-05
95,96,0.003645854783,3.15040829e-06,0.04412604985,2.323679317e-05,0.00364522285,2.392042257e-06,0.04406404124,1.640395194e-05
96,97,0.003556976001,3.111796359e-06,0.04353673005,2.3081376e-05,0.003559545178,2.363767196e-06,0.04349469228,1.629770499e-05
97,98,0.003472291614,3.074554341e-06,0.04282611113,2.289255574e-05,0.003469432821,2.333662425e-06,0.0428555522,1.617759695e-05
98,99,0.003383128475,3.034846515e-06,0.04219431536,2.272335359e-05,0.003384401687,2.304891714e-06,0.04218339979,1.605031487e-05
99,100,0.003292223198,2.993820855e-06,0.04146414762,2.252621303e-05,0.003290142548,2.272582351e-06,0.04144136624,1.590861375e-05
100,101,0.003195636805,2.949617274e-06,0.04065631101,2.23060574e-05,0.003197563557,2.240388684e-06,0.04063414638,1.575304458e-05
101,102,0.003094803771,2.902949732e-06,0.03982386278,2.207688369e-05,0.003098420568,2.205382072e-06,0.03981040199,1.559262393e-05
102,103,0.002999895571,2.857942603e-06,0.03890186735,2.182022973e-05,0.003001384737,2.170625797e-06,0.03892361583,1.541808855e-05
103,104,0.002896763694,2.808386147e-06,0.03798352385,2.156153609e-05,0.002894879575,2.131729735e-06,0.03805033631,1.524425439e-05
104,105,0.002793123845,2.757692312e-06,0.03705270339,2.129610229e-05,0.002789432266,2.092548456e-06,0.03706990076,1.504669137e-05
105,106,0.002689573633,2.706188649e-06,0.03608574511,2.101679167e-05,0.002685241652,2.05310552e-06,0.03606024304,1.484048497e-05
106,107,0.002578053616,2.649451535e-06,0.03505497087,2.071487635e-05,0.002576455525,2.011092934e-06,0.03506882781,1.463517181e-05
107,108,0.002474145067,2.595535984e-06,0.03402390255,2.040838137e-05,0.00247157421,1.969744115e-06,0.03403315031,1.441756056e-05
108,109,0.002361283227,2.535668812e-06,0.0329542838,2.008545861e-05,0.002363279816,1.926112567e-06,0.03298925956,1.419484285e-05
109,110,0.002259373178,2.480366495e-06,0.03189715221,1.976109206e-05,0.002253381479,1.880799094e-06,0.0318942152,1.395738322e-05
110,111,0.002143117503,2.41579004e-06,0.03083611332,1.943005523e-05,0.002146620575,1.835713504e-06,0.03083265486,1.372325517e-05
111,112,0.002039339613,2.356542694e-06,0.02975709203,1.908749093e-05,0.002041591268,1.790257357e-06,0.02974199436,1.347846585e-05
112,113,0.001933865117,2.294815441e-06,0.02862042056,1.871981236e-05,0.001931775748,1.741438895e-06,0.02864836362,1.322845358e-05
113,114,0.00182698939,2.230531072e-06,0.02754856873,1.836632703e-05,0.001826667083,1.693403008e-06,0.02753035542,1.296789494e-05
114,115,0.001723636013,2.166535443e-06,0.02644019974,1.799346411e-05,0.00172632683,1.646243786e-06,0.0264449009,1.270976981e-05
115,116,0.001621918153,2.101655294e-06,0.0253136174,1.760634943e-05,0.001619885093,1.594688613e-06,0.02532160299,1.243701552e-05
116,117,0.001520794084,2.035102054e-06,0.02421685744,1.722109e-05,0.001524822012,1.547192051e-06,0.02424476412,1.216979429e-05
117,118,0.001425697248,1.970480017e-06,0.02315226312,1.683866748e-05,0.001419173242,1.49263601e-06,0.02317117177,1.189739654e-05
118,119,0.001326508963,1.900700845e-06,0.02207634312,1.644310859e-05,0.001324513876,1.442001547e-06,0.02207517033,1.161271404e-05
119,120,0.001233034208,1.832524965e-06,0.02100992227,1.604138425e-05,0.001231268943,1.390322811e-06,0.0210292823,1.133440102e-05
120,121,0.00114697767,1.767434355e-06,0.02005706187,1.56737113e-05,0.001143946248,1.340116653e-06,0.02004824897,1.106692776e-05
121,122,0.001061241921,1.700107314e-06,0.01908163199,1.52881216e-05,0.001060742001,1.290610399e-06,0.0190612926,1.079116137e-05
122,123,0.0009790272036,1.632939547e-06,0.01810300314,1.489121654e-05,0.0009793513522,1.239970395e-06,0.01810761851,1.051783883e-05
123,124,0.0009005102085,1.566107273e-06,0.01716383696,1.450007502e-05,0.0008987155353,1.187829825e-06,0.01716005288,1.023901625e-05
124,125,0.0008198082222,1.494289811e-06,0.0161960681,1.408562877e-05,0.0008214639671,1.135637703e-06,0.01622958274,9.957622722e-06
125,126,0.0007513761517,1.43057321e-06,0.01532096041,1.370004678e-05,0.0007453019507,1.081714328e-06,0.01529843768,9.667818336e-06
126,127,0.0006771145793,1.358048852e-06,0.01439282251,1.327883816e-05,0.0006771509988,1.031076627e-06,0.01440179484,9.38029077e-06
127,128,0.0006085097784,1.287441577e-06,0.01350842365,1.286462483e-05,0.0006082379109,9.772007072e-07,0.01350451099,9.083442763e-06
128,129,0.0005414411339,1.214409997e-06,0.01261304135,1.243118393e-05,0.0005401986335,9.209258472e-07,0.01262355856,8.782238711e-06
129,130,0.0004741123899,1.136404677e-06,0.0117582939,1.200278851e-05,0.0004741989331,8.628377042e-07,0.0117419493,8.470081842e-06
