# xl,xh,LOnovp,dLOnovp,LO,dLO,PS+LOnovp,dPS+LOnovp,PS+LO,dPS+LO
140,145,1.354964618e-06,2.717000836e-08,5.003766247e-06,1.107580432e-07,1.320088712e-06,2.035971315e-08,4.968270725e-06,7.792465226e-08
145,150,4.069798101e-06,4.708816187e-08,1.58178876e-05,1.969248848e-07,4.125746612e-06,3.599325273e-08,1.542668855e-05,1.373119517e-07
150,155,7.133857645e-06,6.234287675e-08,2.840209427e-05,2.638767285e-07,7.183555353e-06,4.749407153e-08,2.824030306e-05,1.857832116e-07
155,160,1.044526986e-05,7.543690631e-08,4.274409292e-05,3.237153176e-07,1.048064269e-05,5.736718476e-08,4.259267632e-05,2.281597437e-07
160,165,4.313167875e-05,1.532906696e-07,0.000197726095,6.962264297e-07,4.329445503e-05,1.165959385e-07,0.000199409131,4.936753153e-07
165,170,7.331029524e-05,1.998453646e-07,0.0003555937044,9.336599304e-07,7.343355429e-05,1.518492082e-07,0.0003544778623,6.582044522e-07
170,175,9.634742238e-05,2.291010625e-07,0.0004871356544,1.092775395e-06,9.668804318e-05,1.74240898e-07,0.0004891319805,7.731734763e-07
175,180,0.0001180867751,2.536316001e-07,0.0006253069507,1.238074025e-06,0.000117657804,1.922085371e-07,0.000624777494,8.73824725e-07
180,185,0.0001380642024,2.742453929e-07,0.0007685946158,1.372594977e-06,0.0001382827731,2.083746768e-07,0.0007697043536,9.698869888e-07
185,190,0.000149697731,2.855644361e-07,0.0008815705126,1.470000129e-06,0.0001498181564,2.168914003e-07,0.0008814421566,1.037896749e-06
190,195,0.0001589340412,2.942409675e-07,0.0009870958342,1.555478164e-06,0.0001589064876,2.233728131e-07,0.0009898053985,1.099841953e-06
195,200,0.0001680483194,3.025589219e-07,0.001112533191,1.651335324e-06,0.0001685609595,2.300579954e-07,0.001110233216,1.164824342e-06
200,205,0.0001779171716,3.11314868e-07,0.001250098967,1.750431167e-06,0.0001783297785,2.366301909e-07,0.001251926064,1.236916082e-06
205,210,0.0001879663536,3.199845407e-07,0.001407611024,1.857408058e-06,0.0001883192994,2.431671728e-07,0.001408659281,1.312052363e-06
210,215,0.0001988044391,3.290787462e-07,0.001586918021,1.972129576e-06,0.0001986542297,2.497501347e-07,0.001588032947,1.393076256e-06
215,220,0.000209485073,3.378012351e-07,0.001795804008,2.097870177e-06,0.0002098583408,2.566960474e-07,0.001790114981,1.479047513e-06
220,225,0.0002208984888,3.4687964e-07,0.002021723965,2.225872451e-06,0.0002208662121,2.633419076e-07,0.002019034357,1.570759157e-06
225,230,0.0002331890414,3.563970144e-07,0.002276563013,2.361935851e-06,0.0002328022596,2.703635286e-07,0.002279542801,1.669003131e-06
230,235,0.0002447626526,3.651323369e-07,0.002569066441,2.509014737e-06,0.0002452975901,2.775238585e-07,0.002563639919,1.769933393e-06
235,240,0.0002582496347,3.750549501e-07,0.002879587063,2.656239153e-06,0.0002578657405,2.845441414e-07,0.002882747149,1.876835551e-06
240,245,0.0002705385978,3.838727223e-07,0.003228252408,2.812358393e-06,0.0002710452701,2.917244626e-07,0.003227859193,1.985977485e-06
245,250,0.0002844701207,3.93629992e-07,0.003601414649,2.970347653e-06,0.0002845074408,2.988806911e-07,0.003597643973,2.096620303e-06
250,255,0.0002992559887,4.037275359e-07,0.004008798601,3.133719525e-06,0.0002989191194,3.063563579e-07,0.004005897998,2.212349083e-06
255,260,0.0003148328906,4.140987345e-07,0.004426653853,3.292855182e-06,0.0003140521332,3.140146644e-07,0.004431706051,2.326922273e-06
260,265,0.0003305122268,4.242819108e-07,0.004871437992,3.454173331e-06,0.0003298969359,3.218378401e-07,0.004863861445,2.43769632e-06
265,270,0.0003466312593,4.345016583e-07,0.005325135744,3.61127995e-06,0.0003463563037,3.297679281e-07,0.005327991747,2.55130753e-06
270,275,0.0003631910466,4.447560648e-07,0.005795634616,3.767262304e-06,0.0003635061404,3.378326178e-07,0.005789940761,2.659562399e-06
275,280,0.0003815405314,4.55849013e-07,0.006142706483,3.878288926e-06,0.0003817842452,3.462210611e-07,0.0061426478,2.739333402e-06
280,285,0.0003996655733,4.665470668e-07,0.006461459627,3.97751428e-06,0.0003999618557,3.543664092e-07,0.006455020981,2.808087077e-06
285,290,0.0004196075464,4.780405937e-07,0.006768271191,4.070726989e-06,0.0004207525973,3.634588473e-07,0.006770243524,2.875798601e-06
290,295,0.0004419467808,4.905956771e-07,0.007090463496,4.166356114e-06,0.000440411664,3.718518183e-07,0.00708724632,2.942318352e-06
295,300,0.0004626749727,5.019640788e-07,0.007381415155,4.250854575e-06,0.0004628955798,3.812242435e-07,0.007384721521,3.003397783e-06
300,305,0.0004861523132,5.145364851e-07,0.007666662018,4.332087242e-06,0.0004857223599,3.905094025e-07,0.007670846239,3.060994363e-06
305,310,0.000510014296,5.270070875e-07,0.007933143897,4.406615003e-06,0.0005102652227,4.002522495e-07,0.007937638198,3.113737302e-06
310,315,0.0005359086792,5.406777233e-07,0.008191095886,4.477570415e-06,0.0005354272789,4.100389732e-07,0.008189212736,3.162685339e-06
315,320,0.0005613521991,5.529217647e-07,0.008431764803,4.542771905e-06,0.0005608874377,4.196404175e-07,0.008434876264,3.209728473e-06
320,325,0.0005890608098,5.664437529e-07,0.008668147082,4.605893245e-06,0.0005879741005,4.296490969e-07,0.008667101914,3.253577015e-06
325,330,0.0006166075248,5.794413401e-07,0.008886888725,4.663545275e-06,0.000616778871,4.400462636e-07,0.008888518649,3.294843806e-06
330,335,0.0006480141956,5.940056807e-07,0.0091163821,4.723264251e-06,0.0006475390563,4.508903231e-07,0.00911039395,3.335683951e-06
335,340,0.0006813414082,6.090792793e-07,0.009333321275,4.779028865e-06,0.0006812243958,4.624561741e-07,0.009332186358,3.376013228e-06
340,345,0.0007161209369,6.244213071e-07,0.009553156683,4.834877213e-06,0.0007163155746,4.742136931e-07,0.009548201084,3.414833124e-06
345,350,0.0007550237439,6.411463007e-07,0.009781363735,4.89217255e-06,0.0007544766339,4.866785649e-07,0.00977287109,3.454744605e-06
350,355,0.0007969372235,6.586892986e-07,0.01000649413,4.948040398e-06,0.0007977111449,5.004252826e-07,0.010007158,3.495877581e-06
355,360,0.0008430686477,6.77471281e-07,0.01023660125,5.004493856e-06,0.0008432648722,5.145118007e-07,0.010247559,3.537585411e-06
360,365,0.0008921378372,6.968923744e-07,0.01049731929,5.067690965e-06,0.000893481053,5.296056794e-07,0.01048707915,3.578655566e-06
365,370,0.0009479675511,7.183488698e-07,0.01075701071,5.129859061e-06,0.0009484936647,5.456616936e-07,0.01075505625,3.624051569e-06
370,375,0.001008446272,7.408889217e-07,0.01104804555,5.19863939e-06,0.001008427713,5.626322111e-07,0.01104512099,3.672554798e-06
375,380,0.001074532804,7.647570371e-07,0.01134123739,5.267013302e-06,0.001074085784,5.806537791e-07,0.01134574239,3.722154143e-06
380,385,0.001148860815,7.907380665e-07,0.01168561043,5.346196551e-06,0.00114808767,6.003165289e-07,0.01168356165,3.777110841e-06
385,390,0.001229855222,8.181066322e-07,0.01203730866,5.425860473e-06,0.001228798413,6.210515642e-07,0.01203723248,3.833799142e-06
390,395,0.001319494817,8.473620749e-07,0.01243646299,5.51486636e-06,0.001319015996,6.434373686e-07,0.01244124882,3.897544593e-06
395,400,0.001310834946,8.445802026e-07,0.01243691134,5.514965397e-06,0.001310772327,6.414243386e-07,0.01242756431,3.895402679e-06
400,405,0.001196649052,8.069987891e-07,0.01204403052,5.42737137e-06,0.001195197006,6.125045863e-07,0.01205274284,3.836266067e-06
405,410,0.00112009496,7.807860726e-07,0.0118175424,5.376220421e-06,0.001119747562,5.928635579e-07,0.01181993537,3.799070133e-06
410,415,0.001068650376,7.626629133e-07,0.01168996196,5.347189535e-06,0.00106959732,5.794396631e-07,0.01170283946,3.780222784e-06
415,420,0.001038853181,7.519652795e-07,0.01169386266,5.348079457e-06,0.001039289295,5.711738824e-07,0.0116976243,3.779381168e-06
420,425,0.001027688732,7.479175163e-07,0.0118360251,5.380412941e-06,0.001027585951,5.679498521e-07,0.01182958764,3.800619653e-06
425,430,0.001031377689,7.492574033e-07,0.01207570614,5.434486575e-06,0.001031235004,5.689570499e-07,0.01207855107,3.840367237e-06
430,435,0.001049798618,7.559125324e-07,0.01242563627,5.512471199e-06,0.001049619851,5.740046862e-07,0.01243190328,3.896081972e-06
435,440,0.001082068722,7.674314061e-07,0.01286773296,5.609430813e-06,0.001081628587,5.826883653e-07,0.01286704163,3.96361224e-06
440,445,0.001126795126,7.831154438e-07,0.01337365046,5.718350067e-06,0.001128351961,5.951362437e-07,0.01337119961,4.040437094e-06
445,450,0.001192436014,8.055784976e-07,0.0139601605,5.842052193e-06,0.001191445902,6.115430284e-07,0.01396889631,4.129656771e-06
450,455,0.001274884547,8.329317908e-07,0.01464476278,5.983173461e-06,0.001273721859,6.322976879e-07,0.01464612161,4.22846384e-06
455,460,0.001376597348,8.654806342e-07,0.01540535561,6.136110561e-06,0.001378362555,6.577471622e-07,0.01539629337,4.335273688e-06
460,465,0.001503065057,9.043108684e-07,0.01623632409,6.298903665e-06,0.001502756085,6.86772814e-07,0.01623732367,4.451959815e-06
465,470,0.001658327041,9.49802336e-07,0.01719510884,6.481594025e-06,0.00166017444,7.218302553e-07,0.01718364977,4.579683646e-06
470,475,0.001852684735,1.003830624e-06,0.01829300067,6.684577984e-06,0.001852334372,7.624387252e-07,0.0182919592,4.724859218e-06
475,480,0.00204250009,1.053909051e-06,0.01900778965,6.813435955e-06,0.002040299805,8.001650311e-07,0.01900320515,4.81570626e-06
480,485,0.002059441298,1.058262613e-06,0.01554098642,6.162978987e-06,0.002059795275,8.039763705e-07,0.01552751296,4.353686267e-06
485,490,0.0007220387609,6.269943306e-07,0.003914521629,3.096680971e-06,0.0007230168852,4.764262518e-07,0.003913447654,2.186679095e-06
490,495,0,0,0,0,0,0,0,0
495,500,0,0,0,0,0,0,0,0
500,505,0,0,0,0,0,0,0,0
505,510,0,0,0,0,0,0,0,0
510,515,0,0,0,0,0,0,0,0
