# xl,xh,LOnovp,dLOnovp,LO,dLO,PS+LOnovp,dPS+LOnovp,PS+LO,dPS+LO
0,1,0,0,0,0,0,0,0,0
1,2,0,0,0,0,0,0,0,0
2,3,0,0,0,0,0,0,0,0
3,4,0,0,0,0,0,0,0,0
4,5,0,0,0,0,0,0,0,0
5,6,0,0,0,0,0,0,0,0
6,7,0,0,0,0,0,0,0,0
7,8,0,0,0,0,0,0,0,0
8,9,0,0,0,0,0,0,0,0
9,10,0,0,0,0,0,0,0,0
10,11,0,0,0,0,0,0,0,0
11,12,0,0,0,0,0,0,0,0
12,13,0,0,0,0,0,0,0,0
13,14,0,0,0,0,0,0,0,0
14,15,0,0,0,0,0,0,0,0
15,16,0,0,0,0,0,0,0,0
16,17,0,0,0,0,0,0,0,0
17,18,0,0,0,0,0,0,0,0
18,19,0,0,0,0,0,0,0,0
19,20,0,0,0,0,0,0,0,0
20,21,0,0,0,0,0,0,0,0
21,22,0,0,0,0,0,0,0,0
22,23,0,0,0,0,0,0,0,0
23,24,0,0,0,0,0,0,0,0
24,25,0,0,0,0,0,0,0,0
25,26,0,0,0,0,0,0,0,0
26,27,0,0,0,0,0,0,0,0
27,28,0,0,0,0,0,0,0,0
28,29,0,0,0,0,0,0,0,0
29,30,0,0,0,0,0,0,0,0
30,31,0,0,0,0,0,0,0,0
31,32,0,0,0,0,0,0,0,0
32,33,0,0,0,0,0,0,0,0
33,34,0,0,0,0,0,0,0,0
34,35,0,0,0,0,0,0,0,0
35,36,0,0,0,0,0,0,0,0
36,37,0,0,0,0,0,0,0,0
37,38,0,0,0,0,0,0,0,0
38,39,0,0,0,0,0,0,0,0
39,40,0,0,0,0,0,0,0,0
40,41,0,0,0,0,0,0,0,0
41,42,0,0,0,0,0,0,0,0
42,43,0,0,0,0,0,0,0,0
43,44,0,0,0,0,0,0,0,0
44,45,0,0,0,0,0,0,0,0
45,46,0,0,0,0,0,0,0,0
46,47,0,0,0,0,0,0,0,0
47,48,0,0,0,0,0,0,0,0
48,49,0,0,0,0,0,0,0,0
49,50,0,0,0,0,0,0,0,0
50,51,0.002899563317,2.809719134e-06,0.03721408097,2.134235854e-05,0.00290078174,2.133900211e-06,0.03719739852,1.507253364e-05
51,52,0.002906255076,2.812964911e-06,0.03685855908,2.124031911e-05,0.002900308433,2.133724799e-06,0.03686361168,1.500479129e-05
52,53,0.002901444693,2.810632292e-06,0.0365316106,2.114604311e-05,0.002901028171,2.133988943e-06,0.03651928296,1.493458991e-05
53,54,0.002903112164,2.811436579e-06,0.03619449741,2.104839096e-05,0.002900418786,2.133766286e-06,0.03619387169,1.486794705e-05
54,55,0.002903768805,2.811754575e-06,0.03587123938,2.095432274e-05,0.002898017691,2.132881147e-06,0.03585286938,1.47977753e-05
55,56,0.002900360086,2.810103978e-06,0.03552999694,2.085455784e-05,0.002899596882,2.133550428e-06,0.03557265497,1.473986742e-05
56,57,0.002901008717,2.810418198e-06,0.03528196602,2.078174218e-05,0.002899694597,2.133499456e-06,0.03529215758,1.468167136e-05
57,58,0.002903141473,2.811450398e-06,0.0350113693,2.070200798e-05,0.002898329584,2.132996372e-06,0.03499838763,1.462047276e-05
58,59,0.0029038129,2.811786901e-06,0.03475523365,2.062624839e-05,0.00290547951,2.135625531e-06,0.03474464989,1.456740793e-05
59,60,0.002905114082,2.812405083e-06,0.03453260292,2.05601717e-05,0.00290675355,2.136094367e-06,0.03451076388,1.451831967e-05
60,61,0.002906624993,2.813141697e-06,0.03430053089,2.049106395e-05,0.002909665199,2.13716279e-06,0.03425859529,1.446521036e-05
61,62,0.002908747634,2.814162199e-06,0.03407565716,2.042387669e-05,0.002907331979,2.136307592e-06,0.03405291204,1.442174325e-05
62,63,0.002910255768,2.814938426e-06,0.03379576614,2.033993864e-05,0.002913745462,2.138671813e-06,0.03383958283,1.43765232e-05
63,64,0.002916513764,2.817916368e-06,0.03360733545,2.028323264e-05,0.002920685851,2.141208523e-06,0.03362240041,1.433034387e-05
64,65,0.002919241675,2.819233862e-06,0.03341312964,2.022462147e-05,0.002919377288,2.140730698e-06,0.03339627511,1.428209434e-05
65,66,0.002923365866,2.821228486e-06,0.03326239122,2.017901029e-05,0.002924293885,2.14253076e-06,0.03326768636,1.425458844e-05
66,67,0.002927959258,2.82350462e-06,0.03309896438,2.012944247e-05,0.00293071331,2.14487852e-06,0.03307182775,1.421260837e-05
67,68,0.002928488881,2.823717188e-06,0.03293068913,2.00782773e-05,0.002929753521,2.144528802e-06,0.03293090825,1.418228923e-05
68,69,0.002934460115,2.826619178e-06,0.03271976103,2.001396239e-05,0.002934546464,2.146325179e-06,0.03277552881,1.414880836e-05
69,70,0.002940176352,2.829319547e-06,0.0326463207,1.999151026e-05,0.002937962181,2.147527865e-06,0.03264040299,1.411963955e-05
70,71,0.002944003646,2.831403626e-06,0.03251960889,1.99527261e-05,0.002944880259,2.150064042e-06,0.0324832013,1.408560239e-05
71,72,0.002949541227,2.833821191e-06,0.03236635798,1.990571718e-05,0.002952870485,2.152971935e-06,0.03238277229,1.406382227e-05
72,73,0.002958742732,2.838232619e-06,0.03222986661,1.986375624e-05,0.002954422951,2.153537298e-06,0.03225729555,1.403656272e-05
73,74,0.002956030242,2.836930605e-06,0.03215745429,1.984145665e-05,0.002956259009,2.15420331e-06,0.03215250445,1.401377239e-05
74,75,0.002959557186,2.838622931e-06,0.0320629085,1.981230525e-05,0.002959256529,2.155304208e-06,0.03204410586,1.39901252e-05
75,76,0.002966145936,2.841847623e-06,0.03197923303,1.978646876e-05,0.002963247739,2.156761599e-06,0.03197655484,1.3975379e-05
76,77,0.002970693141,2.843967548e-06,0.03186618806,1.975151033e-05,0.002970139897,2.159265423e-06,0.03188607596,1.395560322e-05
77,78,0.002976509496,2.846740122e-06,0.03178668289,1.972688705e-05,0.002973856302,2.160618949e-06,0.03178298176,1.393303541e-05
78,79,0.002975877497,2.846433048e-06,0.03172849341,1.970884554e-05,0.002977600653,2.161963668e-06,0.03174042747,1.392371039e-05
79,80,0.00298464627,2.850621333e-06,0.03165803313,1.968697676e-05,0.002980048977,2.162851611e-06,0.03164801761,1.390343546e-05
80,81,0.002980118741,2.848459545e-06,0.03159864396,1.966852595e-05,0.002981641567,2.163431321e-06,0.03159528082,1.389185273e-05
81,82,0.002981279162,2.849013727e-06,0.03151318015,1.964194325e-05,0.002984202726,2.164360684e-06,0.03153571294,1.387875823e-05
82,83,0.002984643604,2.85062007e-06,0.03148487606,1.963313131e-05,0.00298479446,2.164574547e-06,0.03149095427,1.386891023e-05
83,84,0.002992472582,2.854354259e-06,0.03144177706,1.96197063e-05,0.002988555577,2.165935828e-06,0.03144839981,1.385954231e-05
84,85,0.002989680404,2.853023048e-06,0.03141046931,1.960994781e-05,0.002990436688,2.166617359e-06,0.03139684391,1.384818134e-05
85,86,0.002994725421,2.855427921e-06,0.03137608514,1.959922502e-05,0.002994862264,2.168219517e-06,0.03135060693,1.383798556e-05
86,87,0.002991538524,2.853917534e-06,0.03140196188,1.960729549e-05,0.002992808701,2.167476174e-06,0.03135241495,1.383838423e-05
87,88,0.00299492839,2.855525586e-06,0.03133495803,1.958639186e-05,0.002989892731,2.166420797e-06,0.03131410889,1.382996725e-05
88,89,0.00299588879,2.85598227e-06,0.03133597616,1.958670966e-05,0.002994229589,2.167990543e-06,0.03129842473,1.38264723e-05
89,90,0.002991306982,2.853798799e-06,0.03134803847,1.95904743e-05,0.00299666407,2.168871982e-06,0.03131042752,1.382911974e-05
90,91,0.002990989832,2.853648623e-06,0.03133559772,1.958659203e-05,0.002992845098,2.167490543e-06,0.03133065357,1.383358322e-05
91,92,0.002994850685,2.855487582e-06,0.03134203177,1.958859963e-05,0.002994337035,2.168029806e-06,0.03131399471,1.382993222e-05
92,93,0.002993508636,2.854848611e-06,0.03134236242,1.958870295e-05,0.002992751972,2.167458184e-06,0.03131724218,1.38306241e-05
93,94,0.002991004329,2.853654325e-06,0.03133025305,1.958492361e-05,0.002989849627,2.166406204e-06,0.03134029252,1.383571039e-05
94,95,0.002993398517,2.854802573e-06,0.03137928461,1.960022333e-05,0.002986404515,2.165156316e-06,0.03138079763,1.384464428e-05
95,96,0.002990448997,2.853389744e-06,0.03142538682,1.961459819e-05,0.0029894635,2.166264952e-06,0.03140462793,1.384989878e-05
96,97,0.002990405159,2.853368719e-06,0.03145065087,1.962247085e-05,0.002986272375,2.165108338e-06,0.03145141483,1.38602048e-05
97,98,0.002985923853,2.85123102e-06,0.03146870784,1.962809615e-05,0.002987922919,2.165706642e-06,0.03149464515,1.386972249e-05
98,99,0.002984725297,2.850659063e-06,0.03153617684,1.964909976e-05,0.002985195051,2.164718497e-06,0.03154802993,1.388146624e-05
99,100,0.002979151886,2.848000094e-06,0.03157739976,1.966192109e-05,0.002978928153,2.16248915e-06,0.03159751126,1.389234275e-05
100,101,0.002977989601,2.849460387e-06,0.03166296084,1.968850699e-05,0.00297771452,2.16200453e-06,0.03163179849,1.389987581e-05
101,102,0.002973321154,2.845229079e-06,0.03173883964,1.971205456e-05,0.002977314038,2.161859935e-06,0.03170605455,1.391618204e-05
102,103,0.002970480992,2.843852359e-06,0.03178191408,1.972540905e-05,0.002971936431,2.159906155e-06,0.0318044168,1.393773209e-05
103,104,0.002967143976,2.842255385e-06,0.03184411205,1.974467662e-05,0.002971834749,2.159869372e-06,0.03183790363,1.394506629e-05
104,105,0.002971232418,2.844218339e-06,0.03193259449,1.977205532e-05,0.002968035255,2.158488469e-06,0.03196011412,1.397180045e-05
105,106,0.002964709701,2.841094062e-06,0.03205748861,1.981063763e-05,0.002963504279,2.156841741e-06,0.03203077571,1.398721795e-05
106,107,0.002959437949,2.838567424e-06,0.03215579714,1.984096475e-05,0.002960333199,2.155686778e-06,0.03214843573,1.401287629e-05
107,108,0.002955510861,2.836682141e-06,0.03227270557,1.987693524e-05,0.002954225109,2.15346709e-06,0.0322627771,1.403775462e-05
108,109,0.002950483409,2.834268801e-06,0.03239206382,1.991361006e-05,0.002952012854,2.152655484e-06,0.03237257419,1.406160902e-05
109,110,0.00294231352,2.830391592e-06,0.03247104221,1.99378404e-05,0.002945349147,2.150225467e-06,0.03251563247,1.409263023e-05
110,111,0.002941626571,2.830015163e-06,0.03264979884,1.999259072e-05,0.002940473335,2.148445968e-06,0.03264668323,1.412098942e-05
111,112,0.002934735691,2.826699143e-06,0.03278457793,2.003374801e-05,0.002935218393,2.146524577e-06,0.03278115843,1.415002312e-05
112,113,0.002935014784,2.826834551e-06,0.03290450342,2.007030254e-05,0.002936668727,2.147054576e-06,0.03294450254,1.418521964e-05
113,114,0.002928203374,2.823553199e-06,0.03309856352,2.012932969e-05,0.002927748532,2.143796952e-06,0.03308768808,1.421599179e-05
114,115,0.002923899014,2.821478123e-06,0.03324951909,2.017511039e-05,0.002928074289,2.143911944e-06,0.03324805054,1.425038098e-05
115,116,0.002915359096,2.817356975e-06,0.03342838955,2.022923247e-05,0.002917679195,2.140104971e-06,0.03341385955,1.428585258e-05
116,117,0.002919011884,2.819120353e-06,0.03362041373,2.02871732e-05,0.002918981448,2.140583636e-06,0.03362851068,1.433164145e-05
117,118,0.002906001443,2.812836515e-06,0.0338654512,2.036087379e-05,0.00291158777,2.137868169e-06,0.03382461063,1.43733457e-05
118,119,0.002910048639,2.81479541e-06,0.03403744085,2.041243799e-05,0.002911274716,2.137753952e-06,0.03402605954,1.44160605e-05
119,120,0.002909281478,2.814420243e-06,0.0342345116,2.047136283e-05,0.002908007697,2.136553498e-06,0.0342613969,1.446580213e-05
120,121,0.002907796874,2.813702478e-06,0.03450641902,2.055238622e-05,0.002906283076,2.135921637e-06,0.03452947497,1.452225264e-05
121,122,0.002904876145,2.812291504e-06,0.03473648767,2.06206972e-05,0.002904886583,2.135406868e-06,0.03475474117,1.456952068e-05
122,123,0.00289988618,2.809874562e-06,0.03498491446,2.06942151e-05,0.00290235384,2.134475822e-06,0.03497106584,1.461476811e-05
123,124,0.00290394224,2.811837859e-06,0.03527797214,2.078056806e-05,0.002900705552,2.133869829e-06,0.03529218697,1.468167917e-05
124,125,0.002901953608,2.810875396e-06,0.03558732657,2.087135708e-05,0.002898334731,2.132997761e-06,0.03559129244,1.474372574e-05
125,126,0.002900703289,2.810270115e-06,0.03586935133,2.095377216e-05,0.002902777915,2.134631781e-06,0.03587076731,1.480146614e-05
126,127,0.002903244881,2.811500402e-06,0.03621189203,2.105344054e-05,0.002900846795,2.13392175e-06,0.03618648395,1.486642439e-05
127,128,0.002898643937,2.809272932e-06,0.03653000426,2.114557869e-05,0.002896875476,2.132462497e-06,0.03650841334,1.493236888e-05
128,129,0.002899959707,2.809910153e-06,0.03686364524,2.124178194e-05,0.002899301885,2.133353553e-06,0.03687837426,1.500779322e-05
129,130,0.002899276489,2.80970348e-06,0.03714708886,2.132316833e-05,0.002900256386,2.133704594e-06,0.03719457105,1.507195697e-05
130,131,0,0,0,0,0,0,0,0
131,132,0,0,0,0,0,0,0,0
132,133,0,0,0,0,0,0,0,0
133,134,0,0,0,0,0,0,0,0
134,135,0,0,0,0,0,0,0,0
135,136,0,0,0,0,0,0,0,0
136,137,0,0,0,0,0,0,0,0
137,138,0,0,0,0,0,0,0,0
138,139,0,0,0,0,0,0,0,0
139,140,0,0,0,0,0,0,0,0
140,141,0,0,0,0,0,0,0,0
141,142,0,0,0,0,0,0,0,0
142,143,0,0,0,0,0,0,0,0
143,144,0,0,0,0,0,0,0,0
144,145,0,0,0,0,0,0,0,0
145,146,0,0,0,0,0,0,0,0
146,147,0,0,0,0,0,0,0,0
147,148,0,0,0,0,0,0,0,0
148,149,0,0,0,0,0,0,0,0
149,150,0,0,0,0,0,0,0,0
150,151,0,0,0,0,0,0,0,0
151,152,0,0,0,0,0,0,0,0
152,153,0,0,0,0,0,0,0,0
153,154,0,0,0,0,0,0,0,0
154,155,0,0,0,0,0,0,0,0
155,156,0,0,0,0,0,0,0,0
156,157,0,0,0,0,0,0,0,0
157,158,0,0,0,0,0,0,0,0
158,159,0,0,0,0,0,0,0,0
159,160,0,0,0,0,0,0,0,0
160,161,0,0,0,0,0,0,0,0
161,162,0,0,0,0,0,0,0,0
162,163,0,0,0,0,0,0,0,0
163,164,0,0,0,0,0,0,0,0
164,165,0,0,0,0,0,0,0,0
165,166,0,0,0,0,0,0,0,0
166,167,0,0,0,0,0,0,0,0
167,168,0,0,0,0,0,0,0,0
168,169,0,0,0,0,0,0,0,0
169,170,0,0,0,0,0,0,0,0
170,171,0,0,0,0,0,0,0,0
171,172,0,0,0,0,0,0,0,0
172,173,0,0,0,0,0,0,0,0
173,174,0,0,0,0,0,0,0,0
174,175,0,0,0,0,0,0,0,0
175,176,0,0,0,0,0,0,0,0
176,177,0,0,0,0,0,0,0,0
177,178,0,0,0,0,0,0,0,0
178,179,0,0,0,0,0,0,0,0
179,180,0,0,0,0,0,0,0,0
