# xl,xh,LOnovp,dLOnovp,LO,dLO,PS+LOnovp,dPS+LOnovp,PS+LO,dPS+LO
0,5,0,0,0,0,0,0,0,0
5,10,0,0,0,0,0,0,0,0
10,15,0,0,0,0,0,0,0,0
15,20,0,0,0,0,0,0,0,0
20,25,0,0,0,0,0,0,0,0
25,30,0,0,0,0,0,0,0,0
30,35,0,0,0,0,0,0,0,0
35,40,0,0,0,0,0,0,0,0
40,45,0,0,0,0,0,0,0,0
45,50,0,0,0,0,0,0,0,0
50,55,0,0,0,0,0,0,0,0
55,60,0,0,0,0,0,0,0,0
60,65,0,0,0,0,0,0,0,0
65,70,0,0,0,0,0,0,0,0
70,75,0,0,0,0,0,0,0,0
75,80,0,0,0,0,0,0,0,0
80,85,0,0,0,0,0,0,0,0
85,90,0,0,0,0,0,0,0,0
90,95,0.0007427119034,6.359009181e-07,0.003312146992,2.848643307e-06,0.0007415982563,4.825080309e-07,0.003310860457,2.011342559e-06
95,100,0.002135543777,1.077600829e-06,0.009815951512,4.90079769e-06,0.002137349323,8.189620633e-07,0.009815732965,3.462306432e-06
100,105,0.00201026211,1.045574113e-06,0.009677204068,4.866105843e-06,0.00201022946,7.942503525e-07,0.009679417282,3.43819944e-06
105,110,0.001895688871,1.015394229e-06,0.009582428772,4.842264512e-06,0.001895806898,7.713284902e-07,0.009590302671,3.422347829e-06
110,115,0.001789958544,9.867191827e-07,0.009539184708,4.831346942e-06,0.001791156258,7.497493928e-07,0.009539484368,3.413275223e-06
115,120,0.001696273705,9.605911753e-07,0.009547978373,4.833569076e-06,0.001694595364,7.292709372e-07,0.009545174093,3.414292279e-06
120,125,0.001607600576,9.351844021e-07,0.00958467477,4.842830924e-06,0.0016088405,7.105885176e-07,0.009584600225,3.421331052e-06
125,130,0.001527079602,9.114963935e-07,0.009671217034,4.864603158e-06,0.00152621841,6.921107679e-07,0.009671491243,3.43679253e-06
130,135,0.001451517052,8.88689682e-07,0.009798843804,4.896533456e-06,0.001450763333,6.747931215e-07,0.009797809107,3.459146241e-06
135,140,0.001384295064,8.67894025e-07,0.009980271616,4.941565971e-06,0.001384592747,6.59231344e-07,0.009977441197,3.490687207e-06
140,145,0.001317983014,8.468771143e-07,0.01020027325,4.995624052e-06,0.001319187713,6.434792259e-07,0.01019134984,3.527877878e-06
145,150,0.001260722521,8.282979194e-07,0.0104626461,5.059332202e-06,0.001261146826,6.291699527e-07,0.01046340186,3.574616631e-06
150,155,0.001204311412,8.095755278e-07,0.01078502995,5.136521149e-06,0.001205027341,6.150173742e-07,0.0107857064,3.629207434e-06
155,160,0.001153018902,7.921662434e-07,0.0111547331,5.22362412e-06,0.001152252043,6.01403894e-07,0.01115565764,3.690869967e-06
160,165,0.001104494064,7.75335051e-07,0.0115680722,5.319304244e-06,0.001104024547,5.886879106e-07,0.01157471092,3.759491008e-06
165,170,0.001059069203,7.592396355e-07,0.01205085167,5.428904403e-06,0.001058705692,5.76482909e-07,0.01204494713,3.835026322e-06
170,175,0.001015315898,7.434058081e-07,0.01257907358,5.546316659e-06,0.0010154112,5.645763737e-07,0.01256592984,3.917006418e-06
175,180,0.000976463182,7.290561301e-07,0.01312040491,5.664093193e-06,0.0009754113334,5.53347979e-07,0.0131199481,4.002335877e-06
180,185,0.0009378377631,7.145038052e-07,0.0136923987,5.785909671e-06,0.0009373291159,5.424416864e-07,0.01369771402,4.089418949e-06
185,190,0.0009023466266,7.008650528e-07,0.01427422657,5.907215969e-06,0.0009023649241,5.322313521e-07,0.01427909767,4.175206695e-06
190,195,0.0008687852198,6.877182553e-07,0.01480581994,6.015886627e-06,0.0008677590629,5.21928802e-07,0.01479608435,4.250031209e-06
195,200,0.000836051948,6.746483221e-07,0.01519136747,6.093475321e-06,0.0008352953697,5.120753995e-07,0.01518175936,4.305000054e-06
200,205,0.0008049079044,6.619726851e-07,0.01521249309,6.097697817e-06,0.0008046896558,5.026088748e-07,0.015219521,4.310344282e-06
205,210,0.0007763234292,6.501206637e-07,0.01576129699,6.20637165e-06,0.0007762286057,4.936426575e-07,0.01576562047,4.386899035e-06
210,215,0.0007488449404,6.385192658e-07,0.02004090266,6.99542312e-06,0.0007476042955,4.844575068e-07,0.02003846995,4.944940654e-06
215,220,0.0007225846578,6.272311425e-07,0.01997241172,6.983507202e-06,0.000722927377,4.763967638e-07,0.01997378903,4.936966008e-06
220,225,0.0006977812334,6.163789462e-07,0.01927660971,6.861261552e-06,0.0006975843918,4.679737993e-07,0.01927252979,4.849660134e-06
225,230,0.0006734000319,6.05521453e-07,0.01857852463,6.736350823e-06,0.0006735942131,4.598582261e-07,0.01858017198,4.76188266e-06
230,235,0.0006504631529,5.951259048e-07,0.01775757819,6.586378946e-06,0.0006509772137,4.520736773e-07,0.01774590039,4.653901074e-06
235,240,0.0006290915827,5.852732622e-07,0.01673214095,6.394038917e-06,0.0006286797769,4.442654669e-07,0.01672950587,4.518841617e-06
240,245,0.0006085959949,5.756656671e-07,0.01556014569,6.166764709e-06,0.0006082570721,4.369912995e-07,0.01555946045,4.358157284e-06
245,250,0.0005896722676,5.666499813e-07,0.01430021841,5.912576308e-06,0.0005892733821,4.301192584e-07,0.01429916772,4.178136613e-06
250,255,0.0005700168033,5.571308823e-07,0.01299552439,5.637143914e-06,0.0005703013776,4.231399001e-07,0.01300066235,3.984118677e-06
255,260,0.0005523575946,5.484374009e-07,0.01173026453,5.356377605e-06,0.0005518769174,4.16249868e-07,0.01172022025,3.783026257e-06
260,265,0.0005344962734,5.395016472e-07,0.01050464726,5.069455814e-06,0.0005342190534,4.095377051e-07,0.01050106297,3.581038643e-06
265,270,0.0005173786256,5.307965244e-07,0.009362902695,4.786582082e-06,0.0005183767075,4.034205364e-07,0.009364385126,3.381827852e-06
270,275,0.0005019950975,5.228493836e-07,0.008328941915,4.515025005e-06,0.0005021836146,3.970704914e-07,0.008329917848,3.189700881e-06
275,280,0.0004857997892,5.143499663e-07,0.00740138865,4.256593404e-06,0.0004869604985,3.910067321e-07,0.00739872437,3.006242279e-06
280,285,0.0004719804837,5.069846626e-07,0.006575300754,4.012354381e-06,0.0004710217778,3.845554181e-07,0.006574615995,2.833967572e-06
285,290,0.0004578462305,4.993389131e-07,0.005840636659,3.781843072e-06,0.0004578196237,3.791285839e-07,0.005839897414,2.671006133e-06
290,295,0.0004440988182,4.917882122e-07,0.005204898288,3.570320211e-06,0.0004432251855,3.730375394e-07,0.005200230885,2.520545521e-06
295,300,0.0004295581352,4.836733448e-07,0.004622489894,3.36483935e-06,0.000429982852,3.674233774e-07,0.00462509545,2.377132666e-06
300,305,0.0004140847518,4.748854487e-07,0.004102764785,3.170204275e-06,0.0004142890648,3.606567089e-07,0.004104104255,2.239294403e-06
305,310,0.0003976361004,4.653614322e-07,0.003630598545,2.982349596e-06,0.0003974152302,3.532365833e-07,0.003633845651,2.107139589e-06
310,315,0.0003786181222,4.541004726e-07,0.003194625834,2.797682172e-06,0.0003778741777,3.44443766e-07,0.00319554641,1.976014573e-06
315,320,0.0003532257375,4.386139535e-07,0.002765358288,2.60305126e-06,0.0003541757054,3.334691872e-07,0.002770452072,1.839925327e-06
320,325,0.0003291256958,4.233913141e-07,0.002400639883,2.425416811e-06,0.0003290676511,3.214331192e-07,0.002398580878,1.712018378e-06
325,330,0.0003049466109,4.075470181e-07,0.002073825724,2.254359589e-06,0.0003053126441,3.096150221e-07,0.002072197884,1.591301399e-06
330,335,0.0002840549852,3.933427524e-07,0.001801660953,2.101287225e-06,0.0002843554448,2.988008405e-07,0.001797281862,1.482004826e-06
335,340,0.0002642742474,3.794034528e-07,0.001574230998,1.964233008e-06,0.0002652559249,2.885923944e-07,0.001573995874,1.386906445e-06
340,345,0.0002485851054,3.679717885e-07,0.001380770596,1.839619149e-06,0.0002490000637,2.796103028e-07,0.001383739743,1.300396605e-06
345,350,0.0002341495485,3.571300994e-07,0.001222366077,1.730910746e-06,0.0002340997431,2.711158421e-07,0.001222919467,1.222504113e-06
350,355,0.000220404883,3.464919461e-07,0.001081368271,1.628047175e-06,0.00022075598,2.632761784e-07,0.001083936029,1.150947651e-06
355,360,0.0002082575937,3.368102901e-07,0.0009616994715,1.535341746e-06,0.0002083589392,2.557774303e-07,0.0009639252457,1.085369239e-06
360,365,0.0001975349982,3.280265964e-07,0.0008610037066,1.452754463e-06,0.0001976701452,2.491308143e-07,0.000859795671,1.025074063e-06
365,370,0.0001874574951,3.195511923e-07,0.0007702788452,1.374097774e-06,0.0001876727546,2.427494117e-07,0.0007708458949,9.7060589e-07
370,375,0.0001780473992,3.114287751e-07,0.0006942269623,1.304510846e-06,0.0001781988293,2.365432934e-07,0.000691036926,9.189906877e-07
375,380,0.0001699769773,3.042899056e-07,0.0006247234099,1.237496221e-06,0.0001694803805,2.306845427e-07,0.0006249363364,8.739357607e-07
380,385,0.0001620574767,2.971177378e-07,0.0005655877564,1.177477368e-06,0.0001625179083,2.25896702e-07,0.0005682821987,8.333829918e-07
385,390,0.0001550135397,2.905897499e-07,0.0005143560819,1.122888696e-06,0.0001551327472,2.207046613e-07,0.0005129650811,7.917853126e-07
390,395,0.000148840725,2.847459512e-07,0.0004680007362,1.071100095e-06,0.0001482402668,2.157462759e-07,0.0004678082934,7.561332087e-07
395,400,0.0001427790619,2.788881874e-07,0.0004263426718,1.02232265e-06,0.0001421975097,2.113034719e-07,0.0004269547023,7.223636833e-07
400,405,0.000137303655,2.734891016e-07,0.0003905661085,9.78492329e-07,0.0001370371115,2.074340724e-07,0.0003917503099,6.919429806e-07
405,410,0.0001326165663,2.687811288e-07,0.0003584669965,9.37424169e-07,0.0001324365675,2.039225436e-07,0.0003595805974,6.629248638e-07
410,415,0.000127865195,2.63922848e-07,0.000331023504,9.008286104e-07,0.0001279321235,2.00424767e-07,0.0003317888114,6.367918713e-07
415,420,0.0001238923738,2.597908714e-07,0.0003092383317,8.70683571e-07,0.0001241153482,1.974124625e-07,0.0003083028734,6.138409018e-07
420,425,0.0001209710578,2.567100793e-07,0.0002866981108,8.383533547e-07,0.0001212983846,1.951594217e-07,0.000286798142,5.920461598e-07
425,430,0.0001174482464,2.529450114e-07,0.0002675827632,8.099245745e-07,0.0001176653401,1.922146928e-07,0.0002662455242,5.704386193e-07
430,435,0.0001141989579,2.494219055e-07,0.0002489234394,7.811765934e-07,0.0001140972536,1.892779881e-07,0.0002484257663,5.510187792e-07
435,440,0.0001104685826,2.453147401e-07,0.0002301292369,7.511090623e-07,0.0001101954005,1.86013527e-07,0.0002315201988,5.319402017e-07
440,445,0.0001059078944,2.401979532e-07,0.0002136861696,7.237790606e-07,0.0001061164295,1.825384533e-07,0.0002129621935,5.101758851e-07
445,450,0.0001012720481,2.348826226e-07,0.0001963850868,6.938616073e-07,0.0001011391093,1.782062734e-07,0.0001965773245,4.901575548e-07
450,455,9.437080914e-05,2.267390162e-07,0.00017683088,6.584130956e-07,9.442969536e-05,1.721940556e-07,0.0001783212007,4.668429149e-07
455,460,8.511657531e-05,2.156590568e-07,0.0001570352692,6.20538973e-07,8.507911719e-05,1.635157291e-07,0.0001570335162,4.381532311e-07
460,465,1.542131617e-05,9.438479687e-08,2.851563831e-05,2.645465495e-07,1.528198315e-05,6.952152436e-08,2.766577473e-05,1.843289765e-07
465,470,0,0,0,0,0,0,0,0
470,475,0,0,0,0,0,0,0,0
475,480,0,0,0,0,0,0,0,0
480,485,0,0,0,0,0,0,0,0
485,490,0,0,0,0,0,0,0,0
490,495,0,0,0,0,0,0,0,0
495,500,0,0,0,0,0,0,0,0
500,505,0,0,0,0,0,0,0,0
505,510,0,0,0,0,0,0,0,0
