# xl,xh,LO,dLO,LOISC,dLOISC,NLO,dNLO,NLOISC,dNLOISC,NLOL,dNLOL,NLOnovp,dNLOnovp
3.000000000000000000e+02,3.200000000000000000e+02,2.201122902605826416e-04,4.162718881844930147e-07,2.201122902605826416e-04,4.162718881844930147e-07,2.637963518131850905e-04,7.888112753813403104e-06,2.637963518131850905e-04,7.888112753813403104e-06,2.615084801626040988e-04,7.888112573380297988e-06,2.555305899612729916e-04,7.888107570740641430e-06
3.200000000000000000e+02,3.400000000000000000e+02,4.191791352537600074e-04,8.435969509672848490e-07,4.191791352537600074e-04,8.435969509672848490e-07,4.696392229539840448e-04,1.468482478461893090e-05,4.696392229539840448e-04,1.468482478461893090e-05,4.652670390013012146e-04,1.468482452351386240e-05,4.538583159057642388e-04,1.468482066623997354e-05
3.400000000000000000e+02,3.600000000000000000e+02,5.686665633294825687e-04,7.710455957239823743e-07,5.686665633294825687e-04,7.710455957239823743e-07,6.833102868617121342e-04,1.521240314530982528e-05,6.833102868617121342e-04,1.521240314530982528e-05,6.773695280825108109e-04,1.521240278158757242e-05,6.618914800833787136e-04,1.521238484138696086e-05
3.600000000000000000e+02,3.800000000000000000e+02,7.066396711397302790e-04,9.504785319336580439e-07,7.066396711397302790e-04,9.504785319336580439e-07,7.968735660176349146e-04,2.651164639935621193e-05,7.968735660176349146e-04,2.651164639935621193e-05,7.895056080885451454e-04,2.651164607178786635e-05,7.702496950835191480e-04,2.651164134169387110e-05
3.800000000000000000e+02,4.000000000000000000e+02,8.434503197431767428e-04,1.374200823446158542e-06,8.434503197431767428e-04,1.374200823446158542e-06,9.669554515657878286e-04,2.454390339528494559e-05,9.669554515657878286e-04,2.454390339528494559e-05,9.582188083293468640e-04,2.454390299202475329e-05,9.353278976315638170e-04,2.454389683376209208e-05
4.000000000000000000e+02,4.200000000000000000e+02,9.772371338644212247e-04,1.012202095731449055e-06,9.772371338644212247e-04,1.012202095731449055e-06,1.164550322846719934e-03,5.227070099360008694e-05,1.164550322846719934e-03,5.227070099360008694e-05,1.154457035980821847e-03,5.227070080517949162e-05,1.127875300699717701e-03,5.227069795847173847e-05
4.199999999999999432e+02,4.399999999999999432e+02,1.115857339052965004e-03,1.063570737776136621e-06,1.115857339052965004e-03,1.063570737776136621e-06,1.257813119490205911e-03,2.669280863699423291e-05,1.257813119490205911e-03,2.669280863699423291e-05,1.246362859945934114e-03,2.669280823698286936e-05,1.216086380002186738e-03,2.669280345782762127e-05
4.399999999999999432e+02,4.599999999999999432e+02,1.256513744034437911e-03,9.806467417892634142e-07,1.256513744034437911e-03,9.806467417892634142e-07,1.414467954674334792e-03,1.809706144141448638e-05,1.414467954674334792e-03,1.809706144141448638e-05,1.401653808079419018e-03,1.809706077384151180e-05,1.367554709790346715e-03,1.809704923041580485e-05
4.599999999999999432e+02,4.799999999999999432e+02,1.402676403659005797e-03,1.310025121045196747e-06,1.402676403659005797e-03,1.310025121045196747e-06,1.599588606787790681e-03,2.581923896350872465e-05,1.599588606787790681e-03,2.581923896350872465e-05,1.585413386628565461e-03,2.581923840267190659e-05,1.547426528059875741e-03,2.581923072104075416e-05
4.799999999999999432e+02,4.999999999999999432e+02,1.548480980003199116e-03,1.160738481193430454e-06,1.548480980003199116e-03,1.160738481193430454e-06,1.726024980166014806e-03,3.066972927325088547e-05,1.726024980166014806e-03,3.066972927325088547e-05,1.710498235913276077e-03,3.066972875636069814e-05,1.668619271554523968e-03,3.066972244916182824e-05
4.999999999999999432e+02,5.200000000000000000e+02,1.660028581673201383e-03,1.154806332093411043e-06,1.660028581673201383e-03,1.154806332093411043e-06,1.858390151860092989e-03,3.469542084520400112e-05,1.858390151860092989e-03,3.469542084520400112e-05,1.841816507477734340e-03,3.469542036154211670e-05,1.796964648213460192e-03,3.469541451236561331e-05
5.200000000000000000e+02,5.400000000000000000e+02,1.740899431607951815e-03,1.062777805085654165e-06,1.740899431607951815e-03,1.062777805085654165e-06,1.919467247495921331e-03,2.470527239813021062e-05,1.919467247495921331e-03,2.470527239813021062e-05,1.902128864147025747e-03,2.470527173846477311e-05,1.855129212289756370e-03,2.470526265063827348e-05
5.400000000000000000e+02,5.600000000000000000e+02,1.819027890808093710e-03,1.033516154776337332e-06,1.819027890808093710e-03,1.033516154776337332e-06,2.008985565898400646e-03,5.753891146301010550e-05,2.008985565898400646e-03,5.753891146301010550e-05,1.990919258484372210e-03,5.753891116016592998e-05,1.941747839969029622e-03,5.753890716137693881e-05
5.600000000000000000e+02,5.800000000000000000e+02,1.905374275041740945e-03,1.620594063340713236e-06,1.905374275041740945e-03,1.620594063340713236e-06,2.285285104139117215e-03,8.343168133842211818e-05,2.285285104139117215e-03,8.343168133842211818e-05,2.266438962766916063e-03,8.343168108087840309e-05,2.215009951484615477e-03,8.343167876258037016e-05
5.800000000000000000e+02,6.000000000000000000e+02,2.015264233317735475e-03,1.023678194562632456e-06,2.015264233317735475e-03,1.023678194562632456e-06,2.395843697988928305e-03,1.400346301643478762e-04,2.395843697988928305e-03,1.400346301643478762e-04,2.376021310862409461e-03,1.400346300265268879e-04,2.321602228394331526e-03,1.400346284510521654e-04
6.000000000000000000e+02,6.200000000000000000e+02,2.194173379896724972e-03,1.067686424665873615e-06,2.194173379896724972e-03,1.067686424665873615e-06,2.461933119526523578e-03,3.495948653504733940e-05,2.461933119526523578e-03,3.495948653504733940e-05,2.440674893435695967e-03,3.495948602311512728e-05,2.381694379252634677e-03,3.495947784580792758e-05
6.200000000000000000e+02,6.400000000000000000e+02,2.397636092283750818e-03,9.949434927243158748e-07,2.397636092283750818e-03,9.949434927243158748e-07,2.659480728535983801e-03,4.438741780878530438e-05,2.659480728535983801e-03,4.438741780878530438e-05,2.636615318071100847e-03,4.438741731837162548e-05,2.572367775259522260e-03,4.438741055163258735e-05
6.400000000000000000e+02,6.600000000000000000e+02,2.616118771289343767e-03,1.335181752333333747e-06,2.616118771289343767e-03,1.335181752333333747e-06,2.847481656875857324e-03,4.312558101089304760e-05,2.847481656875857324e-03,4.312558101089304760e-05,2.822932868329985391e-03,4.312558054408827758e-05,2.753076015320179721e-03,4.312557465908368321e-05
6.600000000000000000e+02,6.800000000000000000e+02,2.848703288550082004e-03,1.344347369270692436e-06,2.848703288550082004e-03,1.344347369270692436e-06,3.271193225259144601e-03,1.874412134194528966e-04,3.271193225259144601e-03,1.874412134194528966e-04,3.244894742549194345e-03,1.874412132794537732e-04,3.169174161782861709e-03,1.874412118096893860e-04
6.800000000000000000e+02,7.000000000000000000e+02,3.091716835982426942e-03,1.197980464328876291e-06,3.091716835982426942e-03,1.197980464328876291e-06,3.373943843396120211e-03,4.914232374295500206e-05,3.373943843396120211e-03,4.914232374295500206e-05,3.345842215396232014e-03,4.914232327373255606e-05,3.263982146139201776e-03,4.914231722104585678e-05
7.000000000000000000e+02,7.200000000000000000e+02,3.345239941682597203e-03,1.172080368827235573e-06,3.345239941682597203e-03,1.172080368827235573e-06,3.627792226110426732e-03,5.306441000169298208e-05,3.627792226110426732e-03,5.306441000169298208e-05,3.597848617486174884e-03,5.306440949128729952e-05,3.509573016215581168e-03,5.306440080335511703e-05
7.200000000000000000e+02,7.400000000000000000e+02,3.610936793485822541e-03,1.262145578543215473e-06,3.610936793485822541e-03,1.262145578543215473e-06,3.910802122289193210e-03,3.542675862466908830e-05,3.910802122289193210e-03,3.542675862466908830e-05,3.878968532891023842e-03,3.542675783308430691e-05,3.784062190683594711e-03,3.542674854163357364e-05
7.400000000000000000e+02,7.600000000000000000e+02,3.875826815102773656e-03,1.193765655045221120e-06,3.875826815102773656e-03,1.193765655045221120e-06,4.223277306955488912e-03,1.099713665066916353e-04,4.223277306955488912e-03,1.099713665066916353e-04,4.189543188824582272e-03,1.099713662296894322e-04,4.087955918954037753e-03,1.099713632607207333e-04
7.600000000000000000e+02,7.800000000000000000e+02,4.107863886966751574e-03,1.288842598962163353e-06,4.107863886966751574e-03,1.288842598962163353e-06,4.350605614825712487e-03,6.111812638402319448e-05,4.350605614825712487e-03,6.111812638402319448e-05,4.315182591835750418e-03,6.111812573591148966e-05,4.207655912795686508e-03,6.111811850596790357e-05
7.800000000000000000e+02,8.000000000000000000e+02,4.271502021031538428e-03,1.316110922806511533e-06,4.271502021031538428e-03,1.316110922806511533e-06,4.694472165100710762e-03,1.194948063502487975e-04,4.694472165100710762e-03,1.194948063502487975e-04,4.657774499587062633e-03,1.194948060815275679e-04,4.546153103232045134e-03,1.194948026930248326e-04
8.000000000000000000e+02,8.200000000000000000e+02,4.417344961981024484e-03,1.284406776876179513e-06,4.417344961981024484e-03,1.284406776876179513e-06,4.806202717854213442e-03,5.756402023461120723e-05,4.806202717854213442e-03,5.756402023461120723e-05,4.768318439088631462e-03,5.756401964684563968e-05,4.652861709446900855e-03,5.756401241367248636e-05
8.200000000000001137e+02,8.400000000000001137e+02,4.537656578244182726e-03,1.224776920092165904e-06,4.537656578244182726e-03,1.224776920092165904e-06,4.833835312416653179e-03,1.440406552786341798e-04,4.833835312416653179e-03,1.440406552786341798e-04,4.794861723670121312e-03,1.440406549970744379e-04,4.676126442642613602e-03,1.440406516104776353e-04
8.400000000000001137e+02,8.600000000000001137e+02,4.652662328523927797e-03,1.314105971470493982e-06,4.652662328523927797e-03,1.314105971470493982e-06,5.058861735925799900e-03,1.706710036238727197e-04,5.058861735925799900e-03,1.706710036238727197e-04,5.018862389701565958e-03,1.706710033888168214e-04,4.897102758398973361e-03,1.706710008741065931e-04
8.600000000000001137e+02,8.800000000000001137e+02,4.775511639279026062e-03,1.470220666048986165e-06,4.775511639279026062e-03,1.470220666048986165e-06,5.263173007782988994e-03,1.450792929854624678e-04,5.263173007782988994e-03,1.450792929854624678e-04,5.222084147567643102e-03,1.450792927167518227e-04,5.097071456921629766e-03,1.450792894312847637e-04
8.800000000000001137e+02,9.000000000000001137e+02,4.898327377171603041e-03,1.310490683713824913e-06,4.898327377171603041e-03,1.310490683713824913e-06,5.196721790232252530e-03,5.206820274805449390e-05,5.196721790232252530e-03,5.206820274805449390e-05,5.154504718720034732e-03,5.206820193534279989e-05,5.026119890121035806e-03,5.206819301729296857e-05
9.000000000000001137e+02,9.200000000000001137e+02,5.028086698667356795e-03,1.382729247237516736e-06,5.028086698667356795e-03,1.382729247237516736e-06,5.421137240617704932e-03,2.050278902042188120e-04,5.421137240617704932e-03,2.050278902042188120e-04,5.377720957625223806e-03,2.050278900408682506e-04,5.245883579725325700e-03,2.050278875136177334e-04
9.200000000000001137e+02,9.400000000000001137e+02,5.166211195625407780e-03,1.469297223559364934e-06,5.166211195625407780e-03,1.469297223559364934e-06,5.515356034872275111e-03,8.852600839011546510e-05,5.515356034872275111e-03,8.852600839011546510e-05,5.470717208814219329e-03,8.852600795434658536e-05,5.335145551212776283e-03,8.852600196069652396e-05
9.400000000000001137e+02,9.600000000000001137e+02,5.308524556087131432e-03,1.669321926043717243e-06,5.308524556087131432e-03,1.669321926043717243e-06,5.742051311481898186e-03,1.233593961989449584e-04,5.742051311481898186e-03,1.233593961989449584e-04,5.696110668276481784e-03,1.233593958356390562e-04,5.556736996431468206e-03,1.233593921875494675e-04
9.600000000000001137e+02,9.800000000000001137e+02,5.459196520251578290e-03,1.477434919964863666e-06,5.459196520251578290e-03,1.477434919964863666e-06,5.835672860431353852e-03,6.911294996965838236e-05,5.835672860431353852e-03,6.911294996965838236e-05,5.788400745424871104e-03,6.911294936974096844e-05,5.645039695344727243e-03,6.911294253927232332e-05
9.800000000000001137e+02,1.000000000000000114e+03,5.615906303919470689e-03,1.525570031829131834e-06,5.615906303919470689e-03,1.525570031829131834e-06,5.892554608670726168e-03,1.027266817283430941e-04,5.892554608670726168e-03,1.027266817283430941e-04,5.843860958745706290e-03,1.027266812716302744e-04,5.696293112742147925e-03,1.027266759203874559e-04
1.000000000000000114e+03,1.020000000000000114e+03,5.778054123027894645e-03,1.435963840730559784e-06,5.778054123027894645e-03,1.435963840730559784e-06,6.137140347536785938e-03,7.360936107295383676e-05,6.137140347536785938e-03,7.360936107295383676e-05,6.086963995844477116e-03,7.360936038868314923e-05,5.934955162756601170e-03,7.360935203891693117e-05
1.020000000000000000e+03,1.040000000000000000e+03,5.951864082362471296e-03,1.605863566647642582e-06,5.951864082362471296e-03,1.605863566647642582e-06,6.428988636325566088e-03,1.831294101388164378e-04,6.428988636325566088e-03,1.831294101388164378e-04,6.377280298684675879e-03,1.831294098460954037e-04,6.220745728748156185e-03,1.831294060022682104e-04
1.040000000000000000e+03,1.060000000000000000e+03,6.131431688518306292e-03,1.596964769382074026e-06,6.131431688518306292e-03,1.596964769382074026e-06,6.516171635094133822e-03,5.660743548890305178e-05,6.516171635094133822e-03,5.660743548890305178e-05,6.462821403391795332e-03,5.660743466218875797e-05,6.301401101443011854e-03,5.660742340336419684e-05
1.060000000000000000e+03,1.080000000000000000e+03,6.321117113979397330e-03,1.598264168939492150e-06,6.321117113979397330e-03,1.598264168939492150e-06,6.581435413624395214e-03,5.372230278945385427e-05,6.581435413624395214e-03,5.372230278945385427e-05,6.526385718951797400e-03,5.372230182481787684e-05,6.359880291021869844e-03,5.372229277231189217e-05
1.080000000000000000e+03,1.100000000000000000e+03,6.521957528429989971e-03,1.544548873107557658e-06,6.521957528429989971e-03,1.544548873107557658e-06,6.864087220718956620e-03,9.746186982449593953e-05,6.864087220718956620e-03,9.746186982449593953e-05,6.807249492256091383e-03,9.746186930101114669e-05,6.635413192602319238e-03,9.746186182322550339e-05
1.100000000000000000e+03,1.120000000000000000e+03,6.733372345303103440e-03,1.658151709033907695e-06,6.733372345303103440e-03,1.658151709033907695e-06,7.147960871179562595e-03,1.035053249702704123e-04,7.147960871179562595e-03,1.035053249702704123e-04,7.089220980425181388e-03,1.035053244436813589e-04,6.911730038043294687e-03,1.035053184350732378e-04
1.120000000000000000e+03,1.140000000000000000e+03,6.956519949994828013e-03,1.611533403747192844e-06,6.956519949994828013e-03,1.611533403747192844e-06,7.393082351766703045e-03,1.051661612102478715e-04,7.393082351766703045e-03,1.051661612102478715e-04,7.332351249562142625e-03,1.051661605988886552e-04,7.148913576696111667e-03,1.051661545751004839e-04
1.140000000000000000e+03,1.160000000000000000e+03,7.188691811453439690e-03,1.746768780252360958e-06,7.188691811453439690e-03,1.746768780252360958e-06,7.364027902922351022e-03,1.161501717940274401e-04,7.364027902922351022e-03,1.161501717940274401e-04,7.301198863050674392e-03,1.161501713233275722e-04,7.111519456985065414e-03,1.161501652575455538e-04
1.160000000000000000e+03,1.180000000000000000e+03,7.440420541258052807e-03,1.641293413112427313e-06,7.440420541258052807e-03,1.641293413112427313e-06,7.826791432824027964e-03,8.423816061725585295e-05,7.826791432824027964e-03,8.423816061725585295e-05,7.761733989845536960e-03,8.423815997559704841e-05,7.565481878269239222e-03,8.423815071164956981e-05
1.180000000000000000e+03,1.200000000000000000e+03,7.695589427653125661e-03,1.835851794348391336e-06,7.695589427653125661e-03,1.835851794348391336e-06,7.871620044850148948e-03,1.968024517104623465e-04,7.871620044850148948e-03,1.968024517104623465e-04,7.804133809152728751e-03,1.968024515856517300e-04,7.600812649251840851e-03,1.968024480053519093e-04
1.200000000000000000e+03,1.220000000000000000e+03,7.971151701663249309e-03,2.069953576228654246e-06,7.971151701663249309e-03,2.069953576228654246e-06,8.209642986062751918e-03,1.130124330075197680e-04,8.209642986062751918e-03,1.130124330075197680e-04,8.139907612968670658e-03,1.130124326913536887e-04,7.929384767404163911e-03,1.130124263547866619e-04
1.220000000000000000e+03,1.240000000000000000e+03,8.257653646097290467e-03,1.824058157934370277e-06,8.257653646097290467e-03,1.824058157934370277e-06,8.725095900922278172e-03,1.972490340602004962e-04,8.725095900922278172e-03,1.972490340602004962e-04,8.652787507993198179e-03,1.972490337566174369e-04,8.434429744198876366e-03,1.972490293309268829e-04
1.240000000000000000e+03,1.260000000000000000e+03,8.563075196303105568e-03,1.763106566103726385e-06,8.563075196303105568e-03,1.763106566103726385e-06,8.785383365786039386e-03,1.463742214930252605e-04,8.785383365786039386e-03,1.463742214930252605e-04,8.710315973090439548e-03,1.463742210011269632e-04,8.483827290450671535e-03,1.463742155723898051e-04
1.260000000000000000e+03,1.280000000000000000e+03,8.882867894991668470e-03,1.977251010946855421e-06,8.882867894991668470e-03,1.977251010946855421e-06,9.031291086544723096e-03,8.200599019771407803e-05,9.031291086544723096e-03,8.200599019771407803e-05,8.953289487853089215e-03,8.200598927962727733e-05,8.718187449099744010e-03,8.200597774206765979e-05
1.280000000000000000e+03,1.300000000000000000e+03,9.221363436426382662e-03,1.781940045453719271e-06,9.221363436426382662e-03,1.781940045453719271e-06,9.297526138256765812e-03,2.368546799351223036e-04,9.297526138256765812e-03,2.368546799351223036e-04,9.216418937517694213e-03,2.368546796180218453e-04,8.972135988905692583e-03,2.368546762573258194e-04
1.300000000000000000e+03,1.320000000000000000e+03,9.587045896158405064e-03,2.080220475826762024e-06,9.587045896158405064e-03,2.080220475826762024e-06,9.809896945214500660e-03,6.490211888262547408e-05,9.809896945214500660e-03,6.490211888262547408e-05,9.725504943603137734e-03,6.490211770947013764e-05,9.471491366070533546e-03,6.490210382629587791e-05
1.320000000000000000e+03,1.340000000000000000e+03,9.972945499856391074e-03,2.061085308157879862e-06,9.972945499856391074e-03,2.061085308157879862e-06,9.785686071101961162e-03,1.453729471425311290e-04,9.785686071101961162e-03,1.453729471425311290e-04,9.697788160988297934e-03,1.453729465600074350e-04,9.433391628277970620e-03,1.453729384332858900e-04
1.340000000000000000e+03,1.360000000000000000e+03,1.038064887049666880e-02,2.278837331652157449e-06,1.038064887049666880e-02,2.278837331652157449e-06,1.048991238243546925e-02,1.146903141388957108e-04,1.048991238243546925e-02,1.146903141388957108e-04,1.039824792306859313e-02,1.146903134271078773e-04,1.012271497675563091e-02,1.146903039214941061e-04
1.360000000000000000e+03,1.380000000000000000e+03,1.082164991594455027e-02,2.164759491328082247e-06,1.082164991594455027e-02,2.164759491328082247e-06,1.066062825520495451e-02,1.049556411704512731e-04,1.066062825520495451e-02,1.049556411704512731e-04,1.056497006478170075e-02,1.049556402502869920e-04,1.027762455768433704e-02,1.049556304013819617e-04
1.380000000000000000e+03,1.400000000000000000e+03,1.128818509108578567e-02,2.274993060297254408e-06,1.128818509108578567e-02,2.274993060297254408e-06,1.104922232309598490e-02,1.760729615006049553e-04,1.104922232309598490e-02,1.760729615006049553e-04,1.094929122654821063e-02,1.760729610341620446e-04,1.064926217718376728e-02,1.760729546957722435e-04
1.400000000000000000e+03,1.420000000000000000e+03,1.179502045343564648e-02,2.210662887024096408e-06,1.179502045343564648e-02,2.210662887024096408e-06,1.157339015154980680e-02,8.910362297106126986e-05,1.157339015154980680e-02,8.910362297106126986e-05,1.146884777356629165e-02,8.910362189878130972e-05,1.115535422569051936e-02,8.910361043986691240e-05
1.420000000000000000e+03,1.440000000000000000e+03,1.233816788278136248e-02,2.243150420999908531e-06,1.233816788278136248e-02,2.243150420999908531e-06,1.192888904738748784e-02,1.540925791838772512e-04,1.192888904738748784e-02,1.540925791838772512e-04,1.181946805283808424e-02,1.540925785896010496e-04,1.149126835995277311e-02,1.540925702997812370e-04
1.440000000000000000e+03,1.460000000000000000e+03,1.292465306683357809e-02,2.422725102442519138e-06,1.292465306683357809e-02,2.422725102442519138e-06,1.209378411791954544e-02,1.306950596079708570e-04,1.209378411791954544e-02,1.306950596079708570e-04,1.197903639373518528e-02,1.306950588186712417e-04,1.163511133092501142e-02,1.306950497826047232e-04
1.460000000000000000e+03,1.480000000000000000e+03,1.355982575501942997e-02,2.428061000323229546e-06,1.355982575501942997e-02,2.428061000323229546e-06,1.278833468898850703e-02,1.128349359920680696e-04,1.278833468898850703e-02,1.128349359920680696e-04,1.266784169907058007e-02,1.128349349856527410e-04,1.230696794814018294e-02,1.128349218782526202e-04
1.480000000000000000e+03,1.500000000000000000e+03,1.424087655018649659e-02,2.437767446756014648e-06,1.424087655018649659e-02,2.437767446756014648e-06,1.303238738179233677e-02,1.216745226070682580e-04,1.303238738179233677e-02,1.216745226070682580e-04,1.290567915049356008e-02,1.216745217241580173e-04,1.252642486587488523e-02,1.216745106764479344e-04
1.500000000000000000e+03,1.520000000000000000e+03,1.498484995112484182e-02,2.291720859496655203e-06,1.498484995112484182e-02,2.291720859496655203e-06,1.365104902279419899e-02,2.330661380224381045e-04,1.365104902279419899e-02,2.330661380224381045e-04,1.351760324079121986e-02,2.330661374518240190e-04,1.311839116100108407e-02,2.330661310346560067e-04
1.520000000000000000e+03,1.540000000000000000e+03,1.578950874191747955e-02,2.421265721332484643e-06,1.578950874191747955e-02,2.421265721332484643e-06,1.391962897258903174e-02,1.184370193712563668e-04,1.391962897258903174e-02,1.184370193712563668e-04,1.377882121162259284e-02,1.184370183424767798e-04,1.335800096393306366e-02,1.184370060097879681e-04
1.540000000000000000e+03,1.560000000000000000e+03,1.666647652273090668e-02,2.555938693490040773e-06,1.666647652273090668e-02,2.555938693490040773e-06,1.407446014635592435e-02,9.939230586858848642e-05,1.407446014635592435e-02,9.939230586858848642e-05,1.392561909099973572e-02,9.939230447720566854e-05,1.348095387600273774e-02,9.939228688344508655e-05
1.560000000000000000e+03,1.580000000000000000e+03,1.763508065006280656e-02,2.636316879665997859e-06,1.763508065006280656e-02,2.636316879665997859e-06,1.438825112567713831e-02,1.333899389091943225e-04,1.438825112567713831e-02,1.333899389091943225e-04,1.423058778884393749e-02,1.333899378969432214e-04,1.375998720317820993e-02,1.333899261105019323e-04
1.580000000000000000e+03,1.600000000000000000e+03,1.869719451262213603e-02,3.101433753413341074e-06,1.869719451262213603e-02,3.101433753413341074e-06,1.321139101092031268e-02,1.214175487244579274e-04,1.321139101092031268e-02,1.214175487244579274e-04,1.304400236800131764e-02,1.214175464779735026e-04,1.254460524567189636e-02,1.214175262246332379e-04
1.600000000000000000e+03,1.620000000000000000e+03,4.288082157908091469e-03,1.435715445798131500e-06,4.288082157908091469e-03,1.435715445798131500e-06,4.438656944571244163e-03,2.776395799552749553e-05,4.438656944571244163e-03,2.776395799552749553e-05,4.396239394872109539e-03,2.776395611458386267e-05,4.278835700660233755e-03,2.776392904336311609e-05
1.620000000000000000e+03,1.640000000000000000e+03,3.245042655769723311e-03,1.052112062551758511e-06,3.245042655769723311e-03,1.052112062551758511e-06,3.944731474876407226e-03,1.649234617884361100e-05,3.944731474876407226e-03,1.649234617884361100e-05,3.912314117615119102e-03,1.649234466823368568e-05,3.823239772331285709e-03,1.649231793841103555e-05
1.640000000000000000e+03,1.660000000000000000e+03,2.969825509431270327e-03,1.258990785558786856e-06,2.969825509431270327e-03,1.258990785558786856e-06,3.870192865641587654e-03,2.204387949120009481e-05,3.870192865641587654e-03,2.204387949120009481e-05,3.840428400211144070e-03,2.204387845573071273e-05,3.758849466273758190e-03,2.204386710891917780e-05
1.660000000000000000e+03,1.680000000000000000e+03,2.820675007688076222e-03,9.719889612598216921e-07,2.820675007688076222e-03,9.719889612598216921e-07,3.799973024015551593e-03,2.624678494012291888e-05,3.799973024015551593e-03,2.624678494012291888e-05,3.771529221434661433e-03,2.624678421796605699e-05,3.693761471601304282e-03,2.624677505686655551e-05
1.680000000000000000e+03,1.700000000000000000e+03,2.721305681294203596e-03,8.541849674731002022e-07,2.721305681294203596e-03,8.541849674731002022e-07,3.865448675016334990e-03,2.063416737071182929e-05,3.865448675016334990e-03,2.063416737071182929e-05,3.837736000686459582e-03,2.063416635007777865e-05,3.762354987355990676e-03,2.063415084932823676e-05
1.700000000000000000e+03,1.720000000000000000e+03,2.663833073037276747e-03,8.274199914293291320e-07,2.663833073037276747e-03,8.274199914293291320e-07,3.948149327266548686e-03,3.533570184226198055e-05,3.948149327266548686e-03,3.533570184226198055e-05,3.920727565791926050e-03,3.533570131486481029e-05,3.846516499661280578e-03,3.533569589003815253e-05
1.720000000000000000e+03,1.740000000000000000e+03,2.661011715246768081e-03,8.233615310660755883e-07,2.661011715246768081e-03,8.233615310660755883e-07,4.084982655458660461e-03,2.443827198608574186e-05,4.084982655458660461e-03,2.443827198608574186e-05,4.057493559817658066e-03,2.443827117357917891e-05,3.983323986427004734e-03,2.443826205167300660e-05
1.740000000000000000e+03,1.760000000000000000e+03,2.692129010985297877e-03,8.108006463873293684e-07,2.692129010985297877e-03,8.108006463873293684e-07,4.278585904653190580e-03,2.890744617811489409e-05,4.278585904653190580e-03,2.890744617811489409e-05,4.250739672102151617e-03,2.890744549404251052e-05,4.175655041148765290e-03,2.890743903389302432e-05
1.760000000000000000e+03,1.780000000000000000e+03,2.756271249684138624e-03,8.860226234166128122e-07,2.756271249684138624e-03,8.860226234166128122e-07,4.559333755739936392e-03,4.215506985625640506e-05,4.559333755739936392e-03,4.215506985625640506e-05,4.530851037307703603e-03,4.215506937341607484e-05,4.454036938614664050e-03,4.215506462828111226e-05
1.780000000000000000e+03,1.800000000000000000e+03,2.853485481287723440e-03,7.690253564431772069e-07,2.853485481287723440e-03,7.690253564431772069e-07,4.803455871712307250e-03,2.931319533964031553e-05,4.803455871712307250e-03,2.931319533964031553e-05,4.774076743453085914e-03,2.931319465742375404e-05,4.694554775033917340e-03,2.931318731927377231e-05
1.800000000000000000e+03,1.820000000000000000e+03,2.988390511675969446e-03,9.765955886274466236e-07,2.988390511675969446e-03,9.765955886274466236e-07,5.181216886002109126e-03,3.829621158012294288e-05,5.181216886002109126e-03,3.829621158012294288e-05,5.150555181192190829e-03,3.829621099226650563e-05,5.067411276979619759e-03,3.829620442236012320e-05
1.820000000000000000e+03,1.840000000000000000e+03,3.164342099460162438e-03,1.016102946280185574e-06,3.164342099460162438e-03,1.016102946280185574e-06,5.776055449340390842e-03,6.170721460617004442e-05,5.776055449340390842e-03,6.170721460617004442e-05,5.743673409422807644e-03,6.170721420694876610e-05,5.655635164840008833e-03,6.170721017318022122e-05
1.840000000000000000e+03,1.860000000000000000e+03,3.401583249546146024e-03,1.034617445911077617e-06,3.401583249546146024e-03,1.034617445911077617e-06,6.280117609680103269e-03,3.594480478894804178e-05,6.280117609680103269e-03,3.594480478894804178e-05,6.245389537890879902e-03,3.594480412133479249e-05,6.150949573301745660e-03,3.594479657203661046e-05
1.860000000000000000e+03,1.880000000000000000e+03,3.725506462988599672e-03,1.043259336578367556e-06,3.725506462988599672e-03,1.043259336578367556e-06,7.318256008427889876e-03,6.831428426824121306e-05,7.318256008427889876e-03,6.831428426824121306e-05,7.280283109080222526e-03,6.831428383375535106e-05,7.176841906008397422e-03,6.831427881390700384e-05
1.880000000000000000e+03,1.900000000000000000e+03,4.186460439198834774e-03,1.134675308588422267e-06,4.186460439198834774e-03,1.134675308588422267e-06,8.465850364867577582e-03,5.641322787526247955e-05,8.465850364867577582e-03,5.641322787526247955e-05,8.423243368919121343e-03,5.641322732925695767e-05,8.306952507153828741e-03,5.641322059838257524e-05
1.900000000000000000e+03,1.920000000000000000e+03,4.861743307943580325e-03,1.231409422721941912e-06,4.861743307943580325e-03,1.231409422721941912e-06,1.023430960172792142e-02,9.564214569408489245e-05,1.023430960172792142e-02,9.564214569408489245e-05,1.018490270465772715e-02,9.564214528804268142e-05,1.005006157813210198e-02,9.564213977068295965e-05
1.920000000000000000e+03,1.940000000000000000e+03,5.932143885707918431e-03,1.427408259099386061e-06,5.932143885707918431e-03,1.427408259099386061e-06,1.337021859971325444e-02,2.493729116920979927e-04,1.337021859971325444e-02,2.493729116920979927e-04,1.330984301367475926e-02,2.493729115099254648e-04,1.314525612117740938e-02,2.493729094032124402e-04
1.940000000000000000e+03,1.960000000000000000e+03,8.012697558974808329e-03,1.911496566667415238e-06,8.012697558974808329e-03,1.911496566667415238e-06,1.812003550620776282e-02,1.016888681459753615e-04,1.812003550620776282e-02,1.016888681459753615e-04,1.803861645012978798e-02,1.016888675216988386e-04,1.781631782312380341e-02,1.016888590118292718e-04
1.960000000000000000e+03,1.980000000000000000e+03,1.352721952190696734e-02,2.523043776509561262e-06,1.352721952190696734e-02,2.523043776509561262e-06,3.049944324164347367e-02,2.607362678657645818e-04,3.049944324164347367e-02,2.607362678657645818e-04,3.036360813462682384e-02,2.607362675109085176e-04,2.998954064775907757e-02,2.607362626973389985e-04
1.980000000000000000e+03,2.000000000000000000e+03,3.252729781773149309e-01,5.731114561162271025e-06,3.252729781773149309e-01,5.731114561162271025e-06,2.171862068650582955e-01,1.017505550651857590e-03,2.171862068650582955e-01,1.017505550651857590e-03,2.142925650970639029e-01,1.017505549896454906e-03,2.056090954473525079e-01,1.017505543633484512e-03
