# xl,xh,LO,dLO,LOISC,dLOISC,NLO,dNLO,NLOISC,dNLOISC,NLOL,dNLOL,NLOnovp,dNLOnovp
0.000000000000000000e+00,2.999999999999999889e-02,2.479277734256497001e-01,3.319837086693110822e-05,1.455369632943502856e-01,1.786498966260231669e-05,2.549535620199256947e-01,5.856545102044914350e-05,1.521577457902712205e-01,2.695687364290253572e-05,2.522814018755935028e-01,5.856265623975174113e-05,2.451201531529979272e-01,5.855477008698133405e-05
2.999999999999999889e-02,5.999999999999999778e-02,2.483039803254595557e-01,3.187448300230553695e-05,1.457419279148484403e-01,1.815495416546337562e-05,2.552809629201489017e-01,5.857739365396701331e-05,1.523860081535198530e-01,2.621230936790616638e-05,2.526058093083797806e-01,5.857439724016817376e-05,2.454350960998473996e-01,5.856632389656376626e-05
6.000000000000001166e-02,9.000000000000001055e-02,2.489915050653414563e-01,3.209089370609221004e-05,1.461852561059554523e-01,1.713059640386298567e-05,2.560326198305775125e-01,6.574901928305111837e-05,1.528113842828172086e-01,2.885877883950001090e-05,2.533511815327245675e-01,6.574624211247854762e-05,2.461589863546220502e-01,6.573912739871115715e-05
9.000000000000001055e-02,1.200000000000000094e-01,2.501271450938345464e-01,3.236753107353529017e-05,1.468559477485182063e-01,1.825089818527732676e-05,2.571293658184628517e-01,5.983960502796208477e-05,1.535020244812150825e-01,2.649662576470068894e-05,2.544396947844937418e-01,5.983659217568947374e-05,2.472195570104830653e-01,5.982876812667787484e-05
1.200000000000000094e-01,1.500000000000000222e-01,2.515279433075470195e-01,3.307170553267151992e-05,1.476872148548154517e-01,1.849675088977663744e-05,2.585399181668425750e-01,6.171806592813597803e-05,1.543511949864509736e-01,2.728069145450398469e-05,2.558390110366456360e-01,6.171508916954891602e-05,2.485772365321992639e-01,6.170758295855619446e-05
1.499999999999999667e-01,1.799999999999999933e-01,2.533175363674998182e-01,3.251275748889063288e-05,1.488117357805708862e-01,1.770190738048609184e-05,2.603313000493424068e-01,6.130201092935165204e-05,1.554903952780122001e-01,2.863758991374489114e-05,2.576146237626275592e-01,6.129914634064023216e-05,2.503057017352357527e-01,6.129140797546315221e-05
1.799999999999999933e-01,2.100000000000000200e-01,2.554347527279196561e-01,3.476495412102321119e-05,1.500842903119895266e-01,1.896135512719810556e-05,2.623411535557798047e-01,6.189357802230075758e-05,1.567923776765147714e-01,2.720050119184508271e-05,2.596068394965571624e-01,6.189057753648213097e-05,2.522386119919560743e-01,6.188271624015555174e-05
2.100000000000000200e-01,2.399999999999999911e-01,2.579748768477767573e-01,3.354155996394128035e-05,1.516327802443899753e-01,1.848620925055910233e-05,2.649192057840236147e-01,5.784727500766704666e-05,1.583909387487477671e-01,2.749781558988333347e-05,2.621638398601326969e-01,5.784401137049643331e-05,2.547264995095485096e-01,5.783495221205121509e-05
2.399999999999999911e-01,2.700000000000000178e-01,2.607719112138834894e-01,3.391719459860176647e-05,1.533729210444161883e-01,1.803280451009643641e-05,2.677041465844773316e-01,7.313113978635047883e-05,1.601651176873915561e-01,2.740476754678859570e-05,2.649248140340473845e-01,7.312833447657399622e-05,2.574090428444053558e-01,7.312130817282048046e-05
2.700000000000000178e-01,3.000000000000000444e-01,2.640469583489058469e-01,3.397587815114801592e-05,1.554266355554867196e-01,1.906956852465073061e-05,2.709345165475860462e-01,6.353090652396007482e-05,1.622595598656358107e-01,2.956815229422397672e-05,2.681277367352788432e-01,6.352779064227264370e-05,2.605245242446156406e-01,6.351982654879528151e-05
3.000000000000000444e-01,3.300000000000000711e-01,2.675444834507293979e-01,3.417321187888330050e-05,1.576330053292595013e-01,1.901823895744175823e-05,2.743574055288712232e-01,6.310665192406086585e-05,1.644850764843478752e-01,2.782344729993423162e-05,2.715194673821809124e-01,6.310348396128930622e-05,2.638177320843657081e-01,6.309528589219646393e-05
3.299999999999999600e-01,3.599999999999999867e-01,2.715575566712071232e-01,3.412434773938769378e-05,1.601201904891818573e-01,1.813629103809554044e-05,2.783342821254984334e-01,6.881578006839887067e-05,1.670665285649413079e-01,2.674757025987677835e-05,2.754637765254892567e-01,6.881283347847425805e-05,2.676529161291219538e-01,6.880536295346970435e-05
3.599999999999999867e-01,3.900000000000000133e-01,2.758179488982273053e-01,3.483247700145058735e-05,1.628702158811334566e-01,1.825684779128524987e-05,2.825735787096387841e-01,6.089136116896887445e-05,1.698812164319970508e-01,2.737099996262111639e-05,2.796680263008892720e-01,6.088793315440169270e-05,2.717453979922282992e-01,6.087940675166819959e-05
3.899999999999999578e-01,4.199999999999999845e-01,2.804728162566674787e-01,3.461514066511117097e-05,1.658743430798877705e-01,2.017514548254114372e-05,2.871905378839789691e-01,6.187098205214110712e-05,1.729566886889872535e-01,2.803221833657543470e-05,2.842463213860092486e-01,6.186749966390001348e-05,2.761948121374296350e-01,6.185835960355932190e-05
4.199999999999999289e-01,4.499999999999999556e-01,2.853872420647550201e-01,3.537554658180865541e-05,1.691480442637490755e-01,1.786233214473733857e-05,2.920479140860776646e-01,6.112419139513467848e-05,1.763163227347580297e-01,2.727198393404413836e-05,2.890638908080763181e-01,6.112046899371509064e-05,2.808792481599488577e-01,6.111153480749319071e-05
4.500000000000001221e-01,4.800000000000001488e-01,2.907181891437276566e-01,3.525336816975259505e-05,1.726683519041803672e-01,1.915285965443380836e-05,2.973790043146737894e-01,6.563341858308240713e-05,1.799583897957427459e-01,2.895948065769827609e-05,2.943495556266141899e-01,6.563006434378726320e-05,2.860239431363527096e-01,6.562151973489032558e-05
4.799999999999999267e-01,5.099999999999998979e-01,2.962356929501978042e-01,3.646884604953964151e-05,1.764151143650603271e-01,2.029566910331556781e-05,3.027798251023674503e-01,6.654969215141898653e-05,1.837916229840249049e-01,3.010491615765892770e-05,2.997024793066778159e-01,6.654631597801669702e-05,2.912296958566714111e-01,6.653755005063737916e-05
5.100000000000000089e-01,5.400000000000000355e-01,3.020861432893127141e-01,3.641969420878859678e-05,1.804720952036127923e-01,1.971397310028140032e-05,3.086133277590086266e-01,6.115560123853745159e-05,1.880026862188489967e-01,2.856509609673348450e-05,3.054847102034064510e-01,6.115183776066435942e-05,2.968579293673100916e-01,6.114306532169624735e-05
5.399999999999999245e-01,5.699999999999999512e-01,3.081061571623218143e-01,3.769385278787348663e-05,1.847305304019777050e-01,2.087067130440078212e-05,3.146317344544208860e-01,6.404863825924231356e-05,1.924346856431558006e-01,3.119032647826763604e-05,3.114512864198706876e-01,6.404498948431989092e-05,3.026653428948166691e-01,6.403507786991981471e-05
5.700000000000001732e-01,6.000000000000001998e-01,3.142121022775851147e-01,3.736521129453656046e-05,1.892359362003540879e-01,2.118816665543749476e-05,3.207031887727473940e-01,6.310597022134549765e-05,1.970829834709497130e-01,3.066156220057160892e-05,3.174675193431393261e-01,6.310222514150441828e-05,3.085273761869254949e-01,6.309225713827474192e-05
5.999999999999999778e-01,6.300000000000000044e-01,3.202344577559917971e-01,3.723347838901240527e-05,1.938333530230433033e-01,2.042631691881743609e-05,3.266814304390651125e-01,6.944219965004807084e-05,2.019208192592375495e-01,3.154748892029324319e-05,3.233903382545225691e-01,6.943850022093487251e-05,3.142950719988758523e-01,6.942984951170699413e-05
6.300000000000000044e-01,6.600000000000000311e-01,3.259361449418033962e-01,3.943072615785924633e-05,1.984591241274709650e-01,2.280111795666953849e-05,3.324008697608649698e-01,6.399190062779034054e-05,2.067928251849353305e-01,3.188760937803321744e-05,3.290485055880866816e-01,6.398796398502619844e-05,3.198097827878546573e-01,6.397762029007882339e-05
6.600000000000000311e-01,6.900000000000000577e-01,3.309950304832826040e-01,3.908048631945105063e-05,2.029330577186252427e-01,2.160812376942653528e-05,3.375114404395370693e-01,6.799963422818552428e-05,2.115843791637189719e-01,3.529245805991722664e-05,3.341140144245158816e-01,6.799603659478397006e-05,3.247517482106080933e-01,6.798667637486895078e-05
6.899999999999999467e-01,7.199999999999999734e-01,3.346313284776537000e-01,3.929474467226632865e-05,2.069528624756620805e-01,2.133363747029952943e-05,3.412241538827185949e-01,6.640519212705226263e-05,2.160082603338905616e-01,3.135286365649942629e-05,3.378014225033367235e-01,6.640148912305847905e-05,3.283530332809481145e-01,6.639217189676183660e-05
7.199999999999999734e-01,7.500000000000000000e-01,3.359962477836710981e-01,3.870847281598513808e-05,2.100101511502901752e-01,2.265006942234366544e-05,3.427428693722575082e-01,6.369073014529617470e-05,2.195165569404381456e-01,3.540611078342499493e-05,3.393181592776101652e-01,6.368679926907567439e-05,3.298506257696789956e-01,6.367637289775960490e-05
7.499999999999998890e-01,7.799999999999999156e-01,3.331396846218497299e-01,3.930574419207793363e-05,2.108580163834908039e-01,2.349698983226230752e-05,3.405017485457415560e-01,6.473760507081788567e-05,2.211167101768146681e-01,3.364389913978983390e-05,3.371107353388497208e-01,6.473368646849853264e-05,3.277143027712240975e-01,6.472393323414493379e-05
7.800000000000001377e-01,8.100000000000001643e-01,3.252466168227612919e-01,3.583119470517917441e-05,2.082336290870859252e-01,2.165055708716552606e-05,3.338027846391148357e-01,5.910240774675707814e-05,2.197245171981569989e-01,3.167003004612461205e-05,3.304793925359128526e-01,5.909831510235452352e-05,3.212681567945459005e-01,5.908888242740348762e-05
8.099999999999999423e-01,8.399999999999999689e-01,3.143232616521966505e-01,3.534000509493456923e-05,2.030274552368522001e-01,2.115005664750864680e-05,3.244181786049184502e-01,5.807613593511752999e-05,2.160276076637204501e-01,2.973874039933698622e-05,3.211871927965647688e-01,5.807207805868697153e-05,3.122301944713666289e-01,5.806287347002073271e-05
8.400000000000000799e-01,8.700000000000001066e-01,3.065057500390157563e-01,3.456136869094949822e-05,2.013176553861274198e-01,2.202179499932747561e-05,3.170934744227159596e-01,5.828710583239135937e-05,2.148494134888792595e-01,3.367506226978032733e-05,3.139819162482405113e-01,5.828295307601223077e-05,3.052990996476354080e-01,5.827425404112212778e-05
8.699999999999999956e-01,9.000000000000000222e-01,3.009307811160445989e-01,3.599513127714456075e-05,2.038903072923798909e-01,2.203689984681700092e-05,3.100327649451563028e-01,5.881879051135491444e-05,2.165946427354691062e-01,3.373939936061020451e-05,3.071040556867369320e-01,5.881474115104749252e-05,2.987332736348333184e-01,5.880580366109592727e-05
9.000000000000000222e-01,9.300000000000000488e-01,2.755935305597150276e-01,3.399439495866688669e-05,1.950428527774858978e-01,2.151886646561813979e-05,2.835895215143626191e-01,5.232202014615280374e-05,2.073517904206329254e-01,2.983485066814657629e-05,2.810186316072334489e-01,5.231746711388176186e-05,2.733965461436775324e-01,5.230766444869360183e-05
