# xl,xh,LO,dLO,LOISC,dLOISC,NLO,dNLO,NLOISC,dNLOISC,NLOL,dNLOL,NLOnovp,dNLOnovp
1.734723475976807094e-18,1.999999999999999695e-02,2.251023391005058105e-01,3.858533272458860767e-05,1.127809112627917859e-01,2.043045838801503793e-05,2.286695123937426966e-01,4.395323022052994059e-05,1.182529344885544786e-01,2.173396902767432565e-05,2.261940136911014809e-01,4.394693865812815566e-05,2.196630128535583815e-01,4.393137434164591434e-05
2.000000000000000042e-02,3.999999999999999389e-02,2.253066961236309396e-01,3.953738833215362879e-05,1.128927746235083712e-01,2.086590113907473498e-05,2.288780133391946081e-01,4.868868724175905079e-05,1.183692718241912134e-01,2.195370820825612974e-05,2.264017384374717445e-01,4.868320967076282237e-05,2.198686354405354204e-01,4.866906014943417108e-05
4.000000000000000777e-02,6.000000000000001166e-02,2.256429845596017447e-01,4.051720454596749677e-05,1.131674916506673068e-01,2.137619864428521140e-05,2.292107439839267680e-01,4.849144120319515394e-05,1.186459406498198837e-01,2.265486827721226195e-05,2.267313697951875151e-01,4.848593345244146937e-05,2.201876901311454471e-01,4.847164853899046602e-05
5.999999999999999778e-02,7.999999999999998779e-02,2.260564256928171700e-01,3.958240313392716829e-05,1.135156223619819549e-01,2.021281559109907084e-05,2.296593022943838602e-01,4.627279977280555862e-05,1.189977031731069140e-01,2.142327303490994606e-05,2.271758871400135493e-01,4.626708173163916629e-05,2.206202693095497269e-01,4.625075245848220691e-05
7.999999999999998779e-02,9.999999999999997780e-02,2.267360811618029381e-01,4.161501282438091455e-05,1.139883475216925401e-01,2.086361684578092926e-05,2.302903624004650485e-01,5.103534154163263763e-05,1.194941617384559090e-01,2.207862079487351933e-05,2.278013329896564632e-01,5.103027062114159597e-05,2.212309538604761427e-01,5.101598379604546115e-05
9.999999999999999167e-02,1.199999999999999817e-01,2.275975977893421320e-01,4.046028098806425297e-05,1.145812487154659470e-01,2.143860357317572648e-05,2.312616247424187366e-01,4.611101252636931169e-05,1.201165524492274345e-01,2.251609844862902929e-05,2.287650603636408042e-01,4.610538815910348524e-05,2.221705818216813122e-01,4.609051253312343292e-05
1.199999999999999817e-01,1.399999999999999856e-01,2.286116107875128811e-01,3.872872354814254904e-05,1.153514376641375655e-01,1.964629107025182232e-05,2.322560574517611443e-01,4.621411087978356011e-05,1.209075814593345566e-01,2.093656704953213724e-05,2.297519614155379419e-01,4.620825307864295778e-05,2.231303823015845789e-01,4.619300644542207325e-05
1.399999999999999856e-01,1.600000000000000033e-01,2.296622636201854917e-01,3.948445211328731585e-05,1.161825034056546274e-01,2.030473135569419696e-05,2.333420372416868394e-01,4.866436125855258668e-05,1.217719572696135816e-01,2.154373558063132159e-05,2.308289956150254285e-01,4.865909956717998384e-05,2.241737101441022284e-01,4.864357715265234553e-05
1.600000000000000033e-01,1.800000000000000211e-01,2.309933337413170862e-01,4.011919848807697409e-05,1.171836197267090568e-01,2.148994249064369638e-05,2.347149331431530039e-01,4.921925504566269417e-05,1.228133623362134136e-01,2.268870682103382139e-05,2.321904339790781813e-01,4.921379322654649069e-05,2.255034505158214353e-01,4.919889205085107306e-05
1.799999999999999656e-01,1.999999999999999833e-01,2.324466423059891040e-01,4.150836495099024826e-05,1.183077040611241887e-01,2.152902351164464405e-05,2.362045005458646707e-01,4.798010734663482759e-05,1.239736080071228569e-01,2.278978112157642235e-05,2.336657057431847928e-01,4.797460920202491788e-05,2.269375677590452223e-01,4.795890895119796346e-05
1.999999999999999833e-01,2.200000000000000011e-01,2.341035481768460047e-01,4.061317391372512196e-05,1.195617900970464415e-01,2.225159785960711815e-05,2.379101991478839995e-01,4.703749047949168794e-05,1.252589470078941947e-01,2.354513712108258780e-05,2.353584649632842474e-01,4.703178784380933331e-05,2.285838438681041807e-01,4.701515473865586523e-05
2.200000000000000011e-01,2.400000000000000189e-01,2.359362543635348808e-01,4.025112694853263701e-05,1.210134499391390950e-01,2.082732441933144167e-05,2.398570746309411361e-01,4.717903233654447667e-05,1.267781024856281802e-01,2.218958360633329746e-05,2.372899556747783967e-01,4.717310225147318869e-05,2.304672001600184261e-01,4.715840986288019875e-05
2.399999999999999911e-01,2.600000000000000089e-01,2.380276750118313633e-01,4.177258796912220097e-05,1.226091350189765783e-01,2.057945976356904087e-05,2.420065969919431570e-01,5.102116356732340735e-05,1.284383965527770011e-01,2.195113653584545224e-05,2.394201379917043071e-01,5.101555559631607733e-05,2.325385884366279465e-01,5.100108611325835121e-05
2.600000000000000644e-01,2.800000000000000822e-01,2.402701882511449893e-01,4.148848609578050293e-05,1.243660517517304748e-01,2.171042072099579935e-05,2.442660808618087875e-01,4.887316160034224318e-05,1.302481855616101913e-01,2.301922221726782186e-05,2.416614460032195377e-01,4.886722877574326820e-05,2.347202139046866420e-01,4.885112530508515936e-05
2.800000000000000266e-01,3.000000000000000444e-01,2.428453759911740617e-01,4.119764582938640815e-05,1.262726064806322102e-01,2.194839892812566171e-05,2.469317570834304032e-01,4.918548906119285362e-05,1.322322524772411578e-01,2.326016016870523118e-05,2.443053598313152386e-01,4.917982295098465896e-05,2.372950803969894329e-01,4.916302844988673025e-05
2.999999999999999889e-01,3.200000000000000067e-01,2.455181447045002296e-01,4.337115707334878904e-05,1.284225332754708460e-01,2.244045174652591068e-05,2.497319834846309372e-01,5.147404066841008188e-05,1.344482919015284883e-01,2.371266488814727837e-05,2.470844540133278477e-01,5.146868648677014880e-05,2.400012835765718278e-01,5.145378078396051300e-05
3.200000000000000067e-01,3.400000000000000244e-01,2.483941619275221724e-01,4.144601218144282134e-05,1.307049496126290733e-01,2.139223632006649671e-05,2.527243812662083311e-01,4.841566088846495591e-05,1.368132228879414269e-01,2.270348685897023553e-05,2.500527773453251612e-01,4.840964066321838249e-05,2.428927889976831289e-01,4.839296756496834533e-05
3.400000000000000244e-01,3.600000000000000422e-01,2.515356042316406748e-01,4.252664164948667566e-05,1.332165673980703624e-01,2.229583652527800499e-05,2.559114546369609666e-01,5.097422172582823953e-05,1.394193786937657775e-01,2.367782338346369921e-05,2.532133153092075983e-01,5.096834915923534185e-05,2.459652597679085895e-01,5.095200733842053021e-05
3.599999999999999312e-01,3.799999999999999489e-01,2.549853634639231426e-01,4.438795765761911256e-05,1.359949093297974920e-01,2.299419665160144319e-05,2.594849856988689085e-01,5.325706733861293874e-05,1.422943026184828319e-01,2.436757701154815652e-05,2.567568756746577696e-01,5.325149144134841319e-05,2.494177917872036354e-01,5.323702658908823643e-05
3.799999999999999489e-01,3.999999999999999667e-01,2.586757240893674537e-01,4.213684209383087540e-05,1.389442988242272636e-01,2.270807106596789255e-05,2.632937539874644628e-01,5.121601064312542473e-05,1.453460161313309684e-01,2.407544076766703685e-05,2.605343371809601960e-01,5.121041609298980848e-05,2.530959203100597854e-01,5.119566312795018872e-05
3.999999999999999112e-01,4.199999999999999289e-01,2.626616821493333309e-01,4.338884901471765933e-05,1.422012956694787278e-01,2.298567242287635989e-05,2.674014533617863343e-01,5.423055975924685577e-05,1.487301023840197078e-01,2.444402473082212828e-05,2.646088936829978921e-01,5.422497416866503474e-05,2.570631394189484831e-01,5.420987377232658978e-05
4.199999999999999845e-01,4.400000000000000022e-01,2.670249163614841215e-01,4.308642311656425363e-05,1.457687036261901548e-01,2.216923479254486015e-05,2.719547117800369951e-01,5.210253346797202368e-05,1.524244474215230294e-01,2.372012284738414775e-05,2.691272123925628201e-01,5.209706195855630660e-05,2.614629292307046327e-01,5.208089380302812084e-05
4.400000000000000022e-01,4.600000000000000200e-01,2.715369706801095129e-01,4.398817391843303344e-05,1.495954023428742452e-01,2.454472254166960342e-05,2.766220569534366125e-01,5.296918827684817346e-05,1.563899275316331106e-01,2.592944687963810019e-05,2.737568207130657294e-01,5.296334434731269573e-05,2.659686270187130996e-01,5.294707974283480558e-05
4.600000000000000200e-01,4.800000000000000377e-01,2.766554786926980203e-01,4.360501882360948031e-05,1.538401397779296520e-01,2.468179162415409632e-05,2.819862812194676160e-01,5.032444846425115556e-05,1.608014078307281047e-01,2.622474340518243612e-05,2.790793076446839160e-01,5.031823100563539855e-05,2.711568372316479070e-01,5.030100005469161469e-05
4.799999999999999822e-01,5.000000000000000000e-01,2.820471272898943949e-01,4.486795824000425447e-05,1.583761300035065045e-01,2.444838451290317019e-05,2.875588690792688085e-01,5.193519703595858371e-05,1.655295535562500420e-01,2.594536388867081970e-05,2.846071159037945053e-01,5.192947987962783960e-05,2.765398849509268508e-01,5.191332695730652098e-05
5.000000000000001110e-01,5.200000000000001288e-01,2.878052208236331899e-01,4.505777850074721723e-05,1.633363470512728677e-01,2.293815920053371996e-05,2.935828287405929382e-01,5.270086473220292377e-05,1.706735510272920087e-01,2.459379679423202088e-05,2.905826869926119160e-01,5.269479178561653075e-05,2.823573155652429612e-01,5.267794791280011688e-05
5.200000000000000178e-01,5.400000000000000355e-01,2.942314685549588527e-01,4.629390814839292440e-05,1.688358364875149065e-01,2.482722206940063343e-05,3.003321443460495455e-01,5.298161285673744496e-05,1.763778287221899888e-01,2.649612630498359754e-05,2.972801969931677668e-01,5.297539217255796450e-05,2.888833753331265242e-01,5.295859656492586675e-05
5.400000000000000355e-01,5.600000000000000533e-01,3.009972181598801200e-01,4.676224898599054092e-05,1.747419079406898890e-01,2.586369899427499070e-05,3.073356356981647441e-01,5.739283904990551816e-05,1.824930835174432275e-01,2.747490926695061712e-05,3.042294639211133300e-01,5.738698545556655058e-05,2.956520112104377151e-01,5.737069186582840320e-05
5.599999999999999423e-01,5.799999999999999600e-01,3.084519944574769523e-01,4.777293241814957003e-05,1.813030412062236474e-01,2.597121392659168762e-05,3.151034116727600698e-01,5.573612171735113982e-05,1.893358290089953988e-01,2.762746370926368701e-05,3.119358000942719089e-01,5.572967747798759019e-05,3.031590478900452190e-01,5.571288442695032086e-05
5.799999999999999600e-01,5.999999999999999778e-01,3.164823431660507280e-01,4.668064797778047543e-05,1.884637869349240491e-01,2.659898686580214601e-05,3.235365615024735075e-01,5.871706427728243775e-05,1.967738272692382828e-01,2.840718754308756025e-05,3.203048852782907630e-01,5.871086727379729850e-05,3.113126773520447643e-01,5.869531135766821060e-05
5.999999999999999778e-01,6.199999999999999956e-01,3.252986712483952325e-01,4.737350381281692723e-05,1.963868086153311432e-01,2.723764198628283653e-05,3.327726105048972594e-01,5.705615675435631181e-05,2.049946713423728972e-01,2.900757140438433774e-05,3.294703203131310043e-01,5.704949403299690720e-05,3.202415033890666507e-01,5.703249198191458414e-05
6.199999999999999956e-01,6.400000000000000133e-01,3.349043461109072473e-01,4.762106253422298852e-05,2.051769268351210374e-01,2.757778660933139959e-05,3.427655713111230074e-01,5.732506566942034530e-05,2.141306281507258658e-01,2.933212129775906814e-05,3.393862340329167337e-01,5.731879537213717331e-05,3.299010025109578859e-01,5.730090009585752487e-05
6.400000000000000133e-01,6.600000000000000311e-01,3.454199545725393783e-01,4.951892332944723822e-05,2.148707030590735478e-01,2.771908639037602020e-05,3.537995656122467358e-01,5.702701304207999058e-05,2.242263300059815223e-01,2.966597143303690464e-05,3.503360161370086545e-01,5.701997163749841611e-05,3.405673431540465201e-01,5.700236272378932578e-05
6.600000000000000311e-01,6.800000000000000488e-01,3.570824127734119613e-01,4.984632871361440321e-05,2.256773517533524898e-01,2.827966232551541116e-05,3.660901429255389861e-01,6.041502663399245287e-05,2.354512803465987902e-01,3.017135505342721376e-05,3.625308375682209094e-01,6.040855978058936281e-05,3.524517778015409109e-01,6.039204801939985828e-05
6.799999999999999378e-01,6.999999999999999556e-01,3.698276316184644363e-01,4.944592070356044843e-05,2.378125520810273619e-01,2.865578059592514056e-05,3.795342374011752562e-01,5.872186747509298814e-05,2.481062447684207750e-01,3.049667350731045991e-05,3.758721355354140981e-01,5.871459159652828326e-05,3.654476868949443902e-01,5.869596740684644324e-05
7.000000000000000666e-01,7.200000000000000844e-01,3.841715362702399772e-01,4.955938238660292277e-05,2.514795219681227323e-01,2.915162989787819026e-05,3.946633276462156448e-01,5.998656889520436662e-05,2.623736971719473621e-01,3.129032973246090614e-05,3.908868437578008059e-01,5.997946428005875762e-05,3.800776969127768745e-01,5.996112193930371736e-05
7.199999999999999734e-01,7.399999999999999911e-01,4.002497855836874008e-01,5.006953790867995111e-05,2.669402060419077682e-01,3.088665295247094338e-05,4.115670563869461285e-01,5.870388004491966570e-05,2.784949694190648750e-01,3.284192095834474132e-05,4.076606670856012804e-01,5.869668068079732584e-05,3.964240108857961520e-01,5.867857804447769741e-05
7.400000000000001021e-01,7.600000000000001199e-01,4.183066003682194833e-01,4.838303145430113280e-05,2.845679928388270552e-01,2.884245845384746868e-05,4.306593567182056548e-01,5.946656500335750485e-05,2.968919139152789155e-01,3.107708562143152896e-05,4.266033452833283834e-01,5.945941332934941278e-05,4.148808457616952605e-01,5.944220935161886302e-05
7.600000000000000089e-01,7.800000000000000266e-01,4.386469955146804489e-01,4.835569835950398107e-05,3.047895157217033191e-01,2.928261054815943908e-05,4.522201928732514364e-01,5.787019399922825532e-05,3.180129059643186928e-01,3.208035401963268502e-05,4.479944824352558030e-01,5.786213059869208073e-05,4.357184764347147299e-01,5.784396900386768695e-05
7.800000000000000266e-01,8.000000000000000444e-01,4.621281784088729361e-01,5.081176615345080004e-05,3.282048731755382587e-01,2.953619628001718234e-05,4.770313078451888233e-01,6.083659365711485911e-05,3.425310194285453025e-01,3.276058022439259178e-05,4.726055593585827830e-01,6.082855095010214453e-05,4.596951690962909898e-01,6.081174274828058188e-05
8.000000000000000444e-01,8.200000000000000622e-01,0.000000000000000000e+00,0.000000000000000000e+00,0.000000000000000000e+00,0.000000000000000000e+00,0.000000000000000000e+00,0.000000000000000000e+00,0.000000000000000000e+00,0.000000000000000000e+00,0.000000000000000000e+00,0.000000000000000000e+00,0.000000000000000000e+00,0.000000000000000000e+00
8.200000000000000622e-01,8.400000000000000799e-01,0.000000000000000000e+00,0.000000000000000000e+00,0.000000000000000000e+00,0.000000000000000000e+00,0.000000000000000000e+00,0.000000000000000000e+00,0.000000000000000000e+00,0.000000000000000000e+00,0.000000000000000000e+00,0.000000000000000000e+00,0.000000000000000000e+00,0.000000000000000000e+00
8.400000000000000799e-01,8.600000000000000977e-01,0.000000000000000000e+00,0.000000000000000000e+00,0.000000000000000000e+00,0.000000000000000000e+00,0.000000000000000000e+00,0.000000000000000000e+00,0.000000000000000000e+00,0.000000000000000000e+00,0.000000000000000000e+00,0.000000000000000000e+00,0.000000000000000000e+00,0.000000000000000000e+00
8.599999999999999867e-01,8.800000000000000044e-01,6.006983380479453682e-01,5.314184504125670796e-05,4.719418972810436319e-01,3.639843065375827284e-05,6.255071837094368092e-01,6.674098296579063336e-05,4.948459937333125613e-01,4.021778847162884652e-05,6.196405714987581748e-01,6.673054000651677700e-05,6.028246064203702792e-01,6.671217525758944096e-05
8.800000000000001155e-01,9.000000000000001332e-01,6.520647110696548010e-01,5.444596210581595299e-05,5.272247522421373844e-01,3.894976952485586767e-05,6.821002068525146012e-01,7.188619964302872133e-05,5.551399207187279750e-01,4.220112042866035521e-05,6.754869635001298223e-01,7.187764546680362569e-05,6.570872128950462354e-01,7.185906906002663614e-05
9.000000000000001332e-01,9.200000000000001510e-01,7.160046295061112120e-01,6.154166585727022633e-05,5.969892139822784438e-01,4.265465177036311902e-05,7.544014573447672678e-01,8.171016555821121246e-05,6.333029585837182118e-01,4.647791434094173470e-05,7.466862168631335228e-01,8.169751036777591442e-05,7.261462519036940844e-01,8.167683055569627585e-05
9.200000000000000400e-01,9.400000000000000577e-01,0.000000000000000000e+00,0.000000000000000000e+00,0.000000000000000000e+00,0.000000000000000000e+00,0.000000000000000000e+00,0.000000000000000000e+00,0.000000000000000000e+00,0.000000000000000000e+00,0.000000000000000000e+00,0.000000000000000000e+00,0.000000000000000000e+00,0.000000000000000000e+00
9.399999999999998357e-01,9.599999999999998535e-01,0.000000000000000000e+00,0.000000000000000000e+00,0.000000000000000000e+00,0.000000000000000000e+00,0.000000000000000000e+00,0.000000000000000000e+00,0.000000000000000000e+00,0.000000000000000000e+00,0.000000000000000000e+00,0.000000000000000000e+00,0.000000000000000000e+00,0.000000000000000000e+00
9.600000000000000755e-01,9.800000000000000933e-01,0.000000000000000000e+00,0.000000000000000000e+00,0.000000000000000000e+00,0.000000000000000000e+00,0.000000000000000000e+00,0.000000000000000000e+00,0.000000000000000000e+00,0.000000000000000000e+00,0.000000000000000000e+00,0.000000000000000000e+00,0.000000000000000000e+00,0.000000000000000000e+00
9.800000000000000933e-01,1.000000000000000000e+00,0.000000000000000000e+00,0.000000000000000000e+00,0.000000000000000000e+00,0.000000000000000000e+00,0.000000000000000000e+00,0.000000000000000000e+00,0.000000000000000000e+00,0.000000000000000000e+00,0.000000000000000000e+00,0.000000000000000000e+00,0.000000000000000000e+00,0.000000000000000000e+00
