# xl,xh,LO,dLO,LOISC,dLOISC,NLO,dNLO,NLOISC,dNLOISC,NLOL,dNLOL,NLOnovp,dNLOnovp
2.500000000000000000e+01,5.000000000000000000e+01,0.000000000000000000e+00,0.000000000000000000e+00,0.000000000000000000e+00,0.000000000000000000e+00,0.000000000000000000e+00,0.000000000000000000e+00,0.000000000000000000e+00,0.000000000000000000e+00,0.000000000000000000e+00,0.000000000000000000e+00,0.000000000000000000e+00,0.000000000000000000e+00
5.000000000000000000e+01,7.500000000000000000e+01,0.000000000000000000e+00,0.000000000000000000e+00,0.000000000000000000e+00,0.000000000000000000e+00,0.000000000000000000e+00,0.000000000000000000e+00,0.000000000000000000e+00,0.000000000000000000e+00,0.000000000000000000e+00,0.000000000000000000e+00,0.000000000000000000e+00,0.000000000000000000e+00
7.500000000000000000e+01,1.000000000000000000e+02,0.000000000000000000e+00,0.000000000000000000e+00,0.000000000000000000e+00,0.000000000000000000e+00,0.000000000000000000e+00,0.000000000000000000e+00,0.000000000000000000e+00,0.000000000000000000e+00,0.000000000000000000e+00,0.000000000000000000e+00,0.000000000000000000e+00,0.000000000000000000e+00
1.000000000000000000e+02,1.250000000000000000e+02,0.000000000000000000e+00,0.000000000000000000e+00,0.000000000000000000e+00,0.000000000000000000e+00,0.000000000000000000e+00,0.000000000000000000e+00,0.000000000000000000e+00,0.000000000000000000e+00,0.000000000000000000e+00,0.000000000000000000e+00,0.000000000000000000e+00,0.000000000000000000e+00
1.250000000000000000e+02,1.500000000000000000e+02,0.000000000000000000e+00,0.000000000000000000e+00,0.000000000000000000e+00,0.000000000000000000e+00,0.000000000000000000e+00,0.000000000000000000e+00,0.000000000000000000e+00,0.000000000000000000e+00,0.000000000000000000e+00,0.000000000000000000e+00,0.000000000000000000e+00,0.000000000000000000e+00
1.500000000000000000e+02,1.750000000000000000e+02,0.000000000000000000e+00,0.000000000000000000e+00,0.000000000000000000e+00,0.000000000000000000e+00,0.000000000000000000e+00,0.000000000000000000e+00,0.000000000000000000e+00,0.000000000000000000e+00,0.000000000000000000e+00,0.000000000000000000e+00,0.000000000000000000e+00,0.000000000000000000e+00
1.750000000000000000e+02,2.000000000000000000e+02,0.000000000000000000e+00,0.000000000000000000e+00,0.000000000000000000e+00,0.000000000000000000e+00,0.000000000000000000e+00,0.000000000000000000e+00,0.000000000000000000e+00,0.000000000000000000e+00,0.000000000000000000e+00,0.000000000000000000e+00,0.000000000000000000e+00,0.000000000000000000e+00
2.000000000000000000e+02,2.250000000000000000e+02,0.000000000000000000e+00,0.000000000000000000e+00,0.000000000000000000e+00,0.000000000000000000e+00,0.000000000000000000e+00,0.000000000000000000e+00,0.000000000000000000e+00,0.000000000000000000e+00,0.000000000000000000e+00,0.000000000000000000e+00,0.000000000000000000e+00,0.000000000000000000e+00
2.250000000000000000e+02,2.500000000000000000e+02,0.000000000000000000e+00,0.000000000000000000e+00,0.000000000000000000e+00,0.000000000000000000e+00,0.000000000000000000e+00,0.000000000000000000e+00,0.000000000000000000e+00,0.000000000000000000e+00,0.000000000000000000e+00,0.000000000000000000e+00,0.000000000000000000e+00,0.000000000000000000e+00
2.500000000000000000e+02,2.750000000000000000e+02,0.000000000000000000e+00,0.000000000000000000e+00,0.000000000000000000e+00,0.000000000000000000e+00,0.000000000000000000e+00,0.000000000000000000e+00,0.000000000000000000e+00,0.000000000000000000e+00,0.000000000000000000e+00,0.000000000000000000e+00,0.000000000000000000e+00,0.000000000000000000e+00
2.750000000000000000e+02,3.000000000000000000e+02,0.000000000000000000e+00,0.000000000000000000e+00,0.000000000000000000e+00,0.000000000000000000e+00,0.000000000000000000e+00,0.000000000000000000e+00,0.000000000000000000e+00,0.000000000000000000e+00,0.000000000000000000e+00,0.000000000000000000e+00,0.000000000000000000e+00,0.000000000000000000e+00
3.000000000000000000e+02,3.250000000000000000e+02,0.000000000000000000e+00,0.000000000000000000e+00,0.000000000000000000e+00,0.000000000000000000e+00,0.000000000000000000e+00,0.000000000000000000e+00,0.000000000000000000e+00,0.000000000000000000e+00,0.000000000000000000e+00,0.000000000000000000e+00,0.000000000000000000e+00,0.000000000000000000e+00
3.250000000000000000e+02,3.500000000000000000e+02,0.000000000000000000e+00,0.000000000000000000e+00,0.000000000000000000e+00,0.000000000000000000e+00,0.000000000000000000e+00,0.000000000000000000e+00,0.000000000000000000e+00,0.000000000000000000e+00,0.000000000000000000e+00,0.000000000000000000e+00,0.000000000000000000e+00,0.000000000000000000e+00
3.500000000000000000e+02,3.750000000000000000e+02,0.000000000000000000e+00,0.000000000000000000e+00,0.000000000000000000e+00,0.000000000000000000e+00,0.000000000000000000e+00,0.000000000000000000e+00,0.000000000000000000e+00,0.000000000000000000e+00,0.000000000000000000e+00,0.000000000000000000e+00,0.000000000000000000e+00,0.000000000000000000e+00
3.750000000000000000e+02,4.000000000000000000e+02,0.000000000000000000e+00,0.000000000000000000e+00,0.000000000000000000e+00,0.000000000000000000e+00,0.000000000000000000e+00,0.000000000000000000e+00,0.000000000000000000e+00,0.000000000000000000e+00,0.000000000000000000e+00,0.000000000000000000e+00,0.000000000000000000e+00,0.000000000000000000e+00
4.000000000000000568e+02,4.250000000000000568e+02,3.821095013947238051e-04,5.116850114546346567e-08,1.513135077442905746e-04,2.311904319017238357e-08,4.014294234957928179e-04,7.299761157546663518e-08,1.663189948208244483e-04,2.387479514660329573e-08,3.967127347681505311e-04,7.299229144321228543e-08,3.851492510054628829e-04,7.297658227102423020e-08
4.250000000000000568e+02,4.500000000000000568e+02,3.568955485937507529e-04,4.242874466772666031e-08,1.427587966884499837e-04,1.744843865289729622e-08,3.750917469451435179e-04,5.243208580273025865e-08,1.571994357108895792e-04,1.819254341704535310e-08,3.704102509276277965e-04,5.242790871027535043e-08,3.595368893054447495e-04,5.241281473646088366e-08
4.500000000000000568e+02,4.750000000000000568e+02,3.345186627103238579e-04,4.170484405846918066e-08,1.351328223483239512e-04,1.895985060039068838e-08,3.516671027133775771e-04,4.987734962307848747e-08,1.489845712830710153e-04,1.961341311385484115e-08,3.470824771398640452e-04,4.987344472619577151e-08,3.368498866011912941e-04,4.985722293416978649e-08
4.750000000000000568e+02,5.000000000000000568e+02,3.144147254595419422e-04,4.264811450596737117e-08,1.283181881044416777e-04,2.041672130803609500e-08,3.305536018774271612e-04,4.874281134376293281e-08,1.415879241214948881e-04,2.104669588532551862e-08,3.260851936647701939e-04,4.873847140847440329e-08,3.164421970689009151e-04,4.872302998982386717e-08
5.000000000000000000e+02,5.250000000000000000e+02,2.964402281950944133e-04,3.885498805488694320e-08,1.221971176898798642e-04,1.815467620803926791e-08,3.116211877798408204e-04,4.759942637732691178e-08,1.349313944976080013e-04,1.880027021143377651e-08,3.072705207779881202e-04,4.759512825267225565e-08,2.981659656771387602e-04,4.757970373654898834e-08
5.250000000000000000e+02,5.500000000000000000e+02,2.801570588867192935e-04,3.928261104205730360e-08,1.166646609423941918e-04,1.794251621451275669e-08,2.945641289265572903e-04,4.725871955339579376e-08,1.289059609923405136e-04,1.858837954316738736e-08,2.903260668991469056e-04,4.725411304436782444e-08,2.817100034393425182e-04,4.723893269943573087e-08
5.500000000000000000e+02,5.750000000000000000e+02,2.653811476137108317e-04,3.696818926638114290e-08,1.116823077462153577e-04,1.719473175735966659e-08,2.790267184974140526e-04,4.263934253754499397e-08,1.234811480888343732e-04,1.780134327440564248e-08,2.748884994244606508e-04,4.263451049857936238e-08,2.667171120747316307e-04,4.262119751391068648e-08
5.750000000000000000e+02,6.000000000000000000e+02,2.519820302738813166e-04,3.737631668177141093e-08,1.071598091750666142e-04,1.765695760849449334e-08,2.649844362132296096e-04,4.561887924857299280e-08,1.185726751925933936e-04,1.824553559243741283e-08,2.609179147570855591e-04,4.561420898492451204e-08,2.531533915380591838e-04,4.560059871432109239e-08
6.000000000000000000e+02,6.250000000000000000e+02,2.396998201226082899e-04,3.752961208446392317e-08,1.030078004747590531e-04,1.776956717209403036e-08,2.520898436081117980e-04,4.437493200059833296e-08,1.140792303153145934e-04,1.833477267230987132e-08,2.480810243148046036e-04,4.437016567986965434e-08,2.406921563971884997e-04,4.435608869436200023e-08
6.250000000000000000e+02,6.500000000000000000e+02,2.284265994529918276e-04,3.629713451193272444e-08,9.916494333152937402e-05,1.767747584363997078e-08,2.402964113462708793e-04,4.153288752495887890e-08,1.099545416636447622e-04,1.821073796823108561e-08,2.363156496122626534e-04,4.152776221453183620e-08,2.292690870530464018e-04,4.151440606889007708e-08
6.500000000000000000e+02,6.750000000000000000e+02,2.181043789404746725e-04,3.483201992436591706e-08,9.572886525100540863e-05,1.663707681136460467e-08,2.295683459579504467e-04,4.049254686879889306e-08,1.063253368453856732e-04,1.716165534809810356e-08,2.255598260145109544e-04,4.048753656424537560e-08,2.188290358717909180e-04,4.047390086160627174e-08
6.750000000000000000e+02,7.000000000000000000e+02,2.085916973980633934e-04,3.428062908991470984e-08,9.254124633932779554e-05,1.597159699692176937e-08,2.197816957591067156e-04,4.063232076645765990e-08,1.030263996694593922e-04,1.654624487653755964e-08,2.156787421207172998e-04,4.062718573590531477e-08,2.092413363095550045e-04,4.061418089012750874e-08
7.000000000000000000e+02,7.250000000000000000e+02,1.997863156109721996e-04,3.251907444572560999e-08,8.959206088446341066e-05,1.553884872297160380e-08,2.108963769671522853e-04,4.085112615085789151e-08,1.001498640443584340e-04,1.612183565143152382e-08,2.065663054474797962e-04,4.084578054183201758e-08,2.003982849927011926e-04,4.083190041564699409e-08
7.250000000000000000e+02,7.500000000000000000e+02,1.915774139013863488e-04,3.206779548244921827e-08,8.685160698145823145e-05,1.601029282455508789e-08,2.028611343307472716e-04,3.885207621511586929e-08,9.775831470739246483e-05,1.660951128851129102e-08,1.980327585349486426e-04,3.884625646661923220e-08,1.921142686909993653e-04,3.883353145819530769e-08
7.500000000000000000e+02,7.750000000000000000e+02,1.840561231972175516e-04,3.152236791689491828e-08,8.435856311539805549e-05,1.470074127121152958e-08,1.964063626083881024e-04,3.582165161979096736e-08,9.647608265529045157e-05,1.532125331321987650e-08,1.902382135005545739e-04,3.581334796542709582e-08,1.845530316077892007e-04,3.579949417877640881e-08
7.750000000000000000e+02,8.000000000000000000e+02,1.770822208449098064e-04,3.298131948472146149e-08,8.205964553150564523e-05,1.616536289806502705e-08,1.997314008839456707e-04,3.722427878455991207e-08,1.046037801584838640e-04,1.671443873065470721e-08,1.830271646695998632e-04,3.721075297724706598e-08,1.775603024028163575e-04,3.719788728872059042e-08
8.000000000000000000e+02,8.250000000000000000e+02,1.706094004267506826e-04,3.186396659629155005e-08,7.995176632749609650e-05,1.521471130906461891e-08,1.655956501424835125e-04,3.949488673967530704e-08,7.495571013902575244e-05,1.579687217061844015e-08,1.763409246854882905e-04,3.947466857536362124e-08,1.710731191550846910e-04,3.946217476130835791e-08
8.249999999999998863e+02,8.499999999999998863e+02,1.644886691497986556e-04,3.102845344116338644e-08,7.797845048946980176e-05,1.569364159226465658e-08,1.683329930613798326e-04,3.538774899084282775e-08,8.194537734125519545e-05,1.627418148764046313e-08,1.700291970923396628e-04,3.538399488245091441e-08,1.649486132150401003e-04,3.537158385293340865e-08
8.499999999999998863e+02,8.749999999999998863e+02,1.588432041990399304e-04,2.881536564020890648e-08,7.614835804363727671e-05,1.349298331467735061e-08,1.641506494282764608e-04,3.665108730445586129e-08,8.170706568255681462e-05,1.408063130539704455e-08,1.641877574298884681e-04,3.664917929356900035e-08,1.592847641934202563e-04,3.663781152483964290e-08
8.749999999999998863e+02,8.999999999999998863e+02,1.535431933012604321e-04,2.886679251134999470e-08,7.449191221683711779e-05,1.460792020561625052e-08,1.593480913084763977e-04,3.362017335239080422e-08,8.061271673358637411e-05,1.524235260844518815e-08,1.587739996137946176e-04,3.361855696407438716e-08,1.540360960653424217e-04,3.360716209020084606e-08
8.999999999999998863e+02,9.249999999999998863e+02,1.487330387633313176e-04,2.960670663462489780e-08,7.297748916546513550e-05,1.537903527356529743e-08,1.546980778996737875e-04,3.480410777208842122e-08,7.934680407165594642e-05,1.591634874635246392e-08,1.538246172607343840e-04,3.480270739425049923e-08,1.492386959391708444e-04,3.479133844913166865e-08
9.249999999999998863e+02,9.499999999999998863e+02,1.440682396553670476e-04,2.820592127448036072e-08,7.153100257318297601e-05,1.369852789362131996e-08,1.500945911878969526e-04,3.169153956293691101e-08,7.802590204369093516e-05,1.430883379981516243e-08,1.490522533819139972e-04,3.168984326725687524e-08,1.446106177489361649e-04,3.167854116932010399e-08
9.499999999999998863e+02,9.749999999999998863e+02,1.397940769833605468e-04,2.829868694398378913e-08,7.023807000883150996e-05,1.314950948012305943e-08,1.457629912783191316e-04,3.411670631976722548e-08,7.680055317682601122e-05,1.381208621853881247e-08,1.446222323485726858e-04,3.411516558573540064e-08,1.403143180436281889e-04,3.410551688628805297e-08
9.749999999999998863e+02,9.999999999999998863e+02,1.358009023470131574e-04,2.899184024264717698e-08,6.907353073218941897e-05,1.537708062475557868e-08,1.417466765125413477e-04,3.416564222930769544e-08,7.566978181192032110e-05,1.588544860586809904e-08,1.405491822137222590e-04,3.416382520075997178e-08,1.363675460943823919e-04,3.415207547005736837e-08
9.999999999999998863e+02,1.025000000000000000e+03,1.320707236538722052e-04,2.840060063095977130e-08,6.801700781932820238e-05,1.486038285088250328e-08,1.379827275084981135e-04,3.181884083042409083e-08,7.465623040711969177e-05,1.547241540389981702e-08,1.367383202390398667e-04,3.181693502925023349e-08,1.326731283040061813e-04,3.180481469610207158e-08
1.025000000000000000e+03,1.050000000000000000e+03,1.286227504169558183e-04,2.636350052140995711e-08,6.704987759376825995e-05,1.408009999631683750e-08,1.343914288024162715e-04,3.239881873615063620e-08,7.368635275042034402e-05,1.469466348472605589e-08,1.331205481662106919e-04,3.239653092912815268e-08,1.291645333076337301e-04,3.238606207572104918e-08
1.050000000000000000e+03,1.075000000000000000e+03,1.253848897000001735e-04,2.739553145916187857e-08,6.621007358402448495e-05,1.373552421867339578e-08,1.311475826932434246e-04,3.301676974753015351e-08,7.285337494141946673e-05,1.437265827871079731e-08,1.298660260425660187e-04,3.301472311892152911e-08,1.260116598816194908e-04,3.300531197440671779e-08
1.075000000000000000e+03,1.100000000000000000e+03,1.224209849836392855e-04,2.632106481930118299e-08,6.547168028824679317e-05,1.377189094726850236e-08,1.280649515285921648e-04,2.977966054278416881e-08,7.210359228111096696e-05,1.443539600655861951e-08,1.267859637443252295e-04,2.977740603416847821e-08,1.230277366240828027e-04,2.976673042262233548e-08
1.100000000000000000e+03,1.125000000000000000e+03,1.196653169960538369e-04,2.689318193599122212e-08,6.484064225789413474e-05,1.401261152821004325e-08,1.252460637514279105e-04,3.184282194118268611e-08,7.146591558003329242e-05,1.464672004212897082e-08,1.239709530680194096e-04,3.184073681791153325e-08,1.203005385432898887e-04,3.183123185306796416e-08
1.125000000000000000e+03,1.150000000000000000e+03,1.171483169654113124e-04,2.521720529955553370e-08,6.430337052517694403e-05,1.342834910139849604e-08,1.226202018710363412e-04,2.914562547155238172e-08,7.090821191842432971e-05,1.405816236198498567e-08,1.213547038570588496e-04,2.914318232480790279e-08,1.177665569302771748e-04,2.913245971464213416e-08
1.150000000000000000e+03,1.175000000000000000e+03,1.147660117173542515e-04,2.500060777063556873e-08,6.384863421744467753e-05,1.257825376098984968e-08,1.201499549894729764e-04,2.938187277476261079e-08,7.045268284476370667e-05,1.329592666194744044e-08,1.188939313548104820e-04,2.937950802026417572e-08,1.153804708272839630e-04,2.936982994652230656e-08
1.175000000000000000e+03,1.200000000000000000e+03,1.126553349264344713e-04,2.540971289357520880e-08,6.355086479968516399e-05,1.331369379870661474e-08,1.178960177873285465e-04,3.124153442532321454e-08,7.014132151555970481e-05,1.406841389037460898e-08,1.166539730222209380e-04,3.123933581239558323e-08,1.132119225292862634e-04,3.122992521557116387e-08
1.200000000000000000e+03,1.225000000000000000e+03,1.105979892201237549e-04,2.530409603278739830e-08,6.325832589098513334e-05,1.342798452704435536e-08,1.157341053569735660e-04,3.039563403662479686e-08,6.983464957009673593e-05,1.423296698247778861e-08,1.145062826893038547e-04,3.039347528738394772e-08,1.111307562774827788e-04,3.038447771039634777e-08
1.225000000000000000e+03,1.250000000000000000e+03,1.086462864435478934e-04,2.496961740560615214e-08,6.310956734316831677e-05,1.283030278496493720e-08,1.136986180121601323e-04,2.784970521835834384e-08,6.968335945325291930e-05,1.358287772822798408e-08,1.124853820778599830e-04,2.784743722921130915e-08,1.091719387331630231e-04,2.783801801418006936e-08
1.250000000000000000e+03,1.275000000000000000e+03,1.069484877662075714e-04,2.468659602986512596e-08,6.301099142355364043e-05,1.414137853055892769e-08,1.118835634043079477e-04,2.955316199838249334e-08,6.957977687604369882e-05,1.487693615360293253e-08,1.106812274144673502e-04,2.955087684963245288e-08,1.074274722092171628e-04,2.954182169356851044e-08
1.275000000000000000e+03,1.300000000000000000e+03,1.053126779484209234e-04,2.442474354763798789e-08,6.300048954364777948e-05,1.370540662622672735e-08,1.101740107287918030e-04,2.874362751989246740e-08,6.958085507473785734e-05,1.447993520382461232e-08,1.089818904142073514e-04,2.874124948515858734e-08,1.057823987728462035e-04,2.873276345037029382e-08
1.300000000000000000e+03,1.325000000000000000e+03,1.038456902920905300e-04,2.282141050807546306e-08,6.312189689502097404e-05,1.241413048615877334e-08,1.086364938057714685e-04,2.637302266460342911e-08,6.970796634486364134e-05,1.336748429195188374e-08,1.074555171270626141e-04,2.637054443370401211e-08,1.043061982701315010e-04,2.636071469492780159e-08
1.325000000000000000e+03,1.350000000000000000e+03,1.024559393003084259e-04,2.359471004756132753e-08,6.328572474017610402e-05,1.297607088121304014e-08,1.071653532253902567e-04,2.998514129604194131e-08,6.987118702270615528e-05,1.387003189349322660e-08,1.059973133300918071e-04,2.998303975165302100e-08,1.028978270585172270e-04,2.997424617891070272e-08
1.350000000000000000e+03,1.375000000000000000e+03,1.012447890617404212e-04,2.341756792919008007e-08,6.355435849351370530e-05,1.326810301008455739e-08,1.058534559618059140e-04,2.604528603831735960e-08,7.016817121459058369e-05,1.410382118587999652e-08,1.046965257716696930e-04,2.604283708091700913e-08,1.016405719600841354e-04,2.603262231646253461e-08
1.375000000000000000e+03,1.400000000000000000e+03,1.001477848200216627e-04,2.304066349415657902e-08,6.393814724968799833e-05,1.310222381705808120e-08,1.046976351608529807e-04,2.669949548080254801e-08,7.055779127442110337e-05,1.392367935468134000e-08,1.035610637182754815e-04,2.669722134854261796e-08,1.005461438072022127e-04,2.668840110039006625e-08
1.400000000000000000e+03,1.425000000000000000e+03,9.918369280404663695e-05,2.234419716829059843e-08,6.439359057228057764e-05,1.269795074452570279e-08,1.036467334176326865e-04,2.662220627718786055e-08,7.101557851183915168e-05,1.356887516029107445e-08,1.025377824604871072e-04,2.661988841722118266e-08,9.955910951178280723e-05,2.661030073062341373e-08
1.425000000000000000e+03,1.450000000000000000e+03,9.833320841029903701e-05,2.193591882704431207e-08,6.499185570037969615e-05,1.273584013126136988e-08,1.027321421881287621e-04,2.538943632490893116e-08,7.164181659969743557e-05,1.366424647439273482e-08,1.016440116301128523e-04,2.538702088682870980e-08,9.870029102945327662e-05,2.537899498424996187e-08
1.450000000000000000e+03,1.475000000000000000e+03,9.759350856555476636e-05,2.197735732673128640e-08,6.568858997625365412e-05,1.270207775795472727e-08,1.018925084824566540e-04,2.544081400691415085e-08,7.234596439112767833e-05,1.363047061736855427e-08,1.008196488385404297e-04,2.543856456118614508e-08,9.790680913796388665e-05,2.543081028085298430e-08
1.475000000000000000e+03,1.500000000000000000e+03,9.705843472329137305e-05,2.068466476445678555e-08,6.657448381672960273e-05,1.279666607681726557e-08,1.013391241226478423e-04,2.395140950985766393e-08,7.328387957823511269e-05,1.378317031178720438e-08,1.002746031732448535e-04,2.394910506045531097e-08,9.738827111041236891e-05,2.394022663919158654e-08
1.500000000000000000e+03,1.525000000000000000e+03,9.655845786443666514e-05,2.196209218021284845e-08,6.753406218373852630e-05,1.405668782592842246e-08,1.008117773947477311e-04,2.461898714192387370e-08,7.430071518737033478e-05,1.501551539050243592e-08,9.974318220694916473e-05,2.461685699173377445e-08,9.688227640179865058e-05,2.460931637624194391e-08
1.525000000000000000e+03,1.550000000000000000e+03,9.629952564030053999e-05,2.182299103463520373e-08,6.873444758890645892e-05,1.407170413553517306e-08,1.004781635301557619e-04,2.594293791140375461e-08,7.553822802988420786e-05,1.507228411258837252e-08,9.942030568496547935e-05,2.594070463527859696e-08,9.657992775503105481e-05,2.593302386970520558e-08
1.550000000000000000e+03,1.575000000000000000e+03,9.610233841132154414e-05,2.192266002351798689e-08,7.003465999076158722e-05,1.394477840775800517e-08,1.002718416063573341e-04,2.543035810176701999e-08,7.693298600884170110e-05,1.507225797876191651e-08,9.917737984923743458e-05,2.542816411471275267e-08,9.635691165384929161e-05,2.542074779843779543e-08
1.575000000000000000e+03,1.600000000000000000e+03,9.600990158642789228e-05,2.048775028392477318e-08,7.156049507122187769e-05,1.406583083828569137e-08,1.002031446787728439e-04,2.470265334298127730e-08,7.855743279532544348e-05,1.509872529234713858e-08,9.909450237403837568e-05,2.470029485283090489e-08,9.629117843200990718e-05,2.469271656005674571e-08
1.600000000000000000e+03,1.625000000000000000e+03,9.606043250116313710e-05,2.015214695840283195e-08,7.328130887339164468e-05,1.293846106706459907e-08,1.002754574365789699e-04,2.354544233285169023e-08,8.039073210236654407e-05,1.424674641380635284e-08,9.916694790474743048e-05,2.354320574617101703e-08,9.637963665671493013e-05,2.353561670643120190e-08
1.625000000000000000e+03,1.650000000000000000e+03,9.608286099791874641e-05,1.911723194882779446e-08,7.518389298723396439e-05,1.305697688955692911e-08,1.002999925260321834e-04,2.132217029788743065e-08,8.233415194350789373e-05,1.440018392915812383e-08,9.925583744113820178e-05,2.131987929947711720e-08,9.648579889742001493e-05,2.131238952595983196e-08
1.650000000000000000e+03,1.675000000000000000e+03,9.602424567191145805e-05,1.858505398186603177e-08,7.725211815325013507e-05,1.294113542147769831e-08,1.001968944202961693e-04,2.151268687105081923e-08,8.437784832495360068e-05,1.420603658974502674e-08,9.929873648811181298e-05,2.151079830527401433e-08,9.655165806645895482e-05,2.150292110876094156e-08
1.675000000000000000e+03,1.700000000000000000e+03,9.521109232570158863e-05,1.818942340132475714e-08,7.931336025723625146e-05,1.446671421481748119e-08,9.961536203104534766e-05,2.147630434370683979e-08,8.649461677772201046e-05,1.581791507948330112e-08,9.883987287538054350e-05,2.147502606041085674e-08,9.614109192257361096e-05,2.146842979667675103e-08
1.700000000000000000e+03,1.725000000000000000e+03,9.393277706581915597e-05,1.723890188219418942e-08,8.123503330098409887e-05,1.345324808640914073e-08,9.919743105658953067e-05,2.077153880766803794e-08,8.872622589697445644e-05,1.497174164441081789e-08,9.849728278831404883e-05,2.077048526326485694e-08,9.586549135979190238e-05,2.076462309330876227e-08
1.725000000000000000e+03,1.750000000000000000e+03,9.409133321355081785e-05,1.641257105975472511e-08,8.340742788125115139e-05,1.365026538704728305e-08,1.000171968576103195e-04,2.000248175618331396e-08,9.129047696677129720e-05,1.520154609204352039e-08,9.938227265734462374e-05,2.000163979432446272e-08,9.677344974980859281e-05,1.999609264576839191e-08
1.750000000000000000e+03,1.775000000000000000e+03,9.539647723783906998e-05,1.678018554223748646e-08,8.609861706391630910e-05,1.414799301197584625e-08,1.020613732668015119e-04,2.027047073361637361e-08,9.455744129904669897e-05,1.574851732154707649e-08,1.014011477066554601e-04,2.026970049380483842e-08,9.878888973286724655e-05,2.026474766234044909e-08
1.775000000000000000e+03,1.800000000000000000e+03,9.787450629734736798e-05,1.776056856753467054e-08,8.966407689221354436e-05,1.579394082509271579e-08,1.054337124489255031e-04,2.217481715689385771e-08,9.894983601463343368e-05,1.745268011998736344e-08,1.046480825414423683e-04,2.217386061367323180e-08,1.020015968829008810e-04,2.216971353257599941e-08
1.800000000000000000e+03,1.825000000000000000e+03,1.018639373473723928e-04,1.724671115530848974e-08,9.447191337813252434e-05,1.496177622896015576e-08,1.105015208341878082e-04,2.100796374973004740e-08,1.047672184643866854e-04,1.685948348850456769e-08,1.094867838719299462e-04,2.100673399914291385e-08,1.067737183239981049e-04,2.100158812691095914e-08
1.825000000000000000e+03,1.850000000000000000e+03,1.070684548329363546e-04,1.745986762380910319e-08,1.003927938367722879e-04,1.539171494971873617e-08,1.173515596319000610e-04,2.045445808145648787e-08,1.123138558636380786e-04,1.739164092058550542e-08,1.158909558987372164e-04,2.045250004840105477e-08,1.130866813192266845e-04,2.044717764944630741e-08
1.850000000000000000e+03,1.875000000000000000e+03,1.163286401524875254e-04,1.819468464088775988e-08,1.102194350709805271e-04,1.647963300307213702e-08,1.285987702962967775e-04,2.214713677472053362e-08,1.240699873339778209e-04,1.870640681258819952e-08,1.264727022200808353e-04,2.214116900549747260e-08,1.234890658813649620e-04,2.213595529882710534e-08
1.875000000000000000e+03,1.900000000000000000e+03,1.319651979104736008e-04,1.885478666534130994e-08,1.263320903919455522e-04,1.697633028765795937e-08,1.444074232767130926e-04,2.226514393228002434e-08,1.403669695491470805e-04,1.920397486016700317e-08,1.432071653687400363e-04,2.226442416265387029e-08,1.399098194167431902e-04,2.225856971072034129e-08
1.900000000000000000e+03,1.925000000000000000e+03,1.589124639151714275e-04,2.089993129826023550e-08,1.536944960364596110e-04,1.921775722654380809e-08,1.746158356204957662e-04,2.494294835519897870e-08,1.710196501912532514e-04,2.168382644228019060e-08,1.708437178204130584e-04,2.493836752711595760e-08,1.670080928492656135e-04,2.493283885207866657e-08
1.925000000000000000e+03,1.950000000000000000e+03,2.117748267709217667e-04,2.408261844854761605e-08,2.069538851293747787e-04,2.231571562246665370e-08,2.186749801538183792e-04,2.849705876254141305e-08,2.154569646076365697e-04,2.513702456473060349e-08,2.220761532524914326e-04,2.849382087965022971e-08,2.172111974422008312e-04,2.848716512670987401e-08
1.950000000000000000e+03,1.975000000000000000e+03,3.552350465336505457e-04,2.851265211504732712e-08,3.507481845368432276e-04,2.689690571742649582e-08,3.452431872379170259e-04,3.338227118895009902e-08,3.419964769013702924e-04,3.057462641806023220e-08,3.484466751617763987e-04,3.337968293604580963e-08,3.409805618237158643e-04,3.337208501208805346e-08
1.975000000000000000e+03,2.000000000000000000e+03,8.388815163233572045e-04,3.479023262551926359e-08,8.358060794587694525e-04,3.365500732573568984e-08,6.245928151041734875e-04,5.181807164599683795e-08,6.147302246244291555e-04,3.977110318564087816e-08,6.267312173667767593e-04,5.181695510124418945e-08,6.129751961944031498e-04,5.181129448729168951e-08
