# xl,xh,LO,dLO,LOISC,dLOISC,NLO,dNLO,NLOISC,dNLOISC,NLOL,dNLOL,NLOnovp,dNLOnovp
3.000000000000000000e+02,3.200000000000000000e+02,2.046175603603826167e-04,3.594174368627277679e-08,1.311378557574704757e-04,2.052525582379752860e-08,2.167811127868642768e-04,7.449188034501404677e-08,1.401208593441451665e-04,3.738600541263150436e-08,2.148903540550020565e-04,7.448917389565358313e-08,2.091840301380722762e-04,7.448180145201047430e-08
3.200000000000000000e+02,3.400000000000000000e+02,2.037613122405024181e-04,3.637555505020196994e-08,1.304025465905858921e-04,2.116151378058633410e-08,2.157209140993401680e-04,7.066752763460712870e-08,1.392975076099582492e-04,3.549545782561598848e-08,2.138360734974308964e-04,7.066472024447215261e-08,2.081536059796238044e-04,7.065730669113340353e-08
3.400000000000000000e+02,3.600000000000000000e+02,2.028400018339953606e-04,3.626264866974912228e-08,1.295728678139519642e-04,2.148624373879255841e-08,2.145387492135806455e-04,7.704599036871038861e-08,1.383068120643341122e-04,3.658862080264231514e-08,2.126600127445454772e-04,7.704330974129082946e-08,2.070003578346092101e-04,7.703604953580708367e-08
3.600000000000000000e+02,3.800000000000000000e+02,2.019840699776402962e-04,3.550234080904648920e-08,1.287616520348875044e-04,2.149076632637141488e-08,2.134521604234647840e-04,7.339900600028783529e-08,1.372970781304308735e-04,3.335341546251151890e-08,2.115791310870295113e-04,7.339630193536946829e-08,2.059442564871489622e-04,7.338862517943197793e-08
3.800000000000000000e+02,4.000000000000000000e+02,2.009864462908361315e-04,3.413564283254078968e-08,1.279124118829321843e-04,1.999935923923580818e-08,2.122933588173695700e-04,6.774983313029755383e-08,1.363581651513151203e-04,3.465166140614874398e-08,2.104245338409600611e-04,6.774683754889444474e-08,2.048150169827723762e-04,6.773868633990076369e-08
4.000000000000000000e+02,4.200000000000000000e+02,2.000138223472907380e-04,3.399298936678180831e-08,1.270428369081727082e-04,1.996306554245604502e-08,2.110176726091113136e-04,6.793976099817249148e-08,1.353035319848292103e-04,3.185853786641308317e-08,2.091565327829685960e-04,6.793691998132589717e-08,2.035718776242112526e-04,6.792885833830842673e-08
4.199999999999999432e+02,4.399999999999999432e+02,1.989961103447102065e-04,3.606647024595529724e-08,1.261388332292056886e-04,2.121677442744046766e-08,2.098134624121666004e-04,7.337190374543749516e-08,1.342977058473899957e-04,3.512047777619856900e-08,2.079568961570090867e-04,7.336929197717254198e-08,2.023994501087179008e-04,7.336202976807780808e-08
4.399999999999999432e+02,4.599999999999999432e+02,1.980383340323812536e-04,3.529135354890306342e-08,1.252710353295186216e-04,1.987664142457605026e-08,2.085682096328028018e-04,7.063074702888529362e-08,1.332691834170948676e-04,3.316408500245267225e-08,2.067147632458870242e-04,7.062774921658617069e-08,2.011823602867053899e-04,7.062082026722456452e-08
4.599999999999999432e+02,4.799999999999999432e+02,1.969423861694147770e-04,3.358040323924873712e-08,1.243728634442971075e-04,2.068419168771952610e-08,2.072137315059856234e-04,7.202692565732543274e-08,1.322023852802533042e-04,3.498930897459594574e-08,2.053661358949809357e-04,7.202400123279692115e-08,1.998594246111580410e-04,7.201624180327718581e-08
4.799999999999999432e+02,4.999999999999999432e+02,1.959834728065051803e-04,3.537665722389887875e-08,1.234649625634586228e-04,2.048026597544127315e-08,2.060153199634142014e-04,6.933927483641430172e-08,1.311749172048220363e-04,3.214474556634900157e-08,2.041722171617895505e-04,6.933623586101771111e-08,1.986915937943756747e-04,6.932910899669429176e-08
4.999999999999999432e+02,5.200000000000000000e+02,1.949164122910526729e-04,3.647717619467925956e-08,1.225193673268407894e-04,2.112232891795340869e-08,2.047482360633398407e-04,7.417419517651137504e-08,1.300656646542587775e-04,3.674569974340583497e-08,2.029101980368860914e-04,7.417159781988021222e-08,1.974558260406173360e-04,7.416470967758407822e-08
5.200000000000000000e+02,5.400000000000000000e+02,1.938928094775776664e-04,3.580160859656914223e-08,1.216781859848300041e-04,2.133979791870490411e-08,2.034037219191070988e-04,7.395161653032615971e-08,1.290606377562262077e-04,4.151616601107457789e-08,2.015683619111558345e-04,7.394893066989914769e-08,1.961404620685609876e-04,7.394172240162344997e-08
5.400000000000000000e+02,5.600000000000000000e+02,1.929019149612420676e-04,3.526205724028022836e-08,1.207698707412120252e-04,2.073484594164498587e-08,2.022559322900208795e-04,7.772619333331931257e-08,1.280594828421938820e-04,3.579006463230066403e-08,2.004241732254564035e-04,7.772371948878710021e-08,1.950205457222238255e-04,7.771725859058311128e-08
5.600000000000000000e+02,5.800000000000000000e+02,1.918762271765529640e-04,3.474302912211077253e-08,1.198775048014760286e-04,1.995281624894399333e-08,2.009384036435686626e-04,7.982122327821449515e-08,1.269659448607728623e-04,3.319468645837852294e-08,1.991106460746262623e-04,7.981874820886569274e-08,1.937319794345577822e-04,7.981192592977856968e-08
5.800000000000000000e+02,6.000000000000000000e+02,1.908474085005538697e-04,3.611186427579082639e-08,1.190117870519048803e-04,2.099214931330438943e-08,1.996297993115551451e-04,7.405851679463022780e-08,1.259462226701046482e-04,3.553692370196955642e-08,1.978055635810585381e-04,7.405577111713556555e-08,1.924519028113877189e-04,7.404909540566368333e-08
6.000000000000000000e+02,6.200000000000000000e+02,1.897696218681002329e-04,3.438572019021536770e-08,1.180752489830950704e-04,1.953626189199944573e-08,1.982413709131063150e-04,7.208144427203675877e-08,1.248510559998015446e-04,3.548429388034000268e-08,1.964199506529978954e-04,7.207873817843468578e-08,1.910931833590229602e-04,7.207143246923044742e-08
6.200000000000000000e+02,6.400000000000000000e+02,1.886714679506557740e-04,3.426894029561346105e-08,1.171917333427060289e-04,2.014148022077878265e-08,1.969677196760701075e-04,8.520382563901317006e-08,1.238474676044911066e-04,3.310500959839251747e-08,1.951495626363319315e-04,8.520137216426510860e-08,1.898474797508542913e-04,8.519486474929288824e-08
6.400000000000000000e+02,6.600000000000000000e+02,1.876739344516624149e-04,3.398966612415267769e-08,1.163215882831760789e-04,2.004580110803308587e-08,1.956805992465311911e-04,7.668915846940703466e-08,1.227960791660692025e-04,3.971278014668212716e-08,1.938651678196643216e-04,7.668632085209112231e-08,1.885907841697973561e-04,7.667916955792821337e-08
6.600000000000000000e+02,6.800000000000000000e+02,1.865873300556078929e-04,3.389416375480571162e-08,1.153995019125249533e-04,1.958418929825571199e-08,1.942373459242798526e-04,7.667699039706009676e-08,1.217429954065496679e-04,3.703906646820966369e-08,1.924236978839681956e-04,7.667430966907472453e-08,1.871740187419968534e-04,7.666759185249325980e-08
6.800000000000000000e+02,7.000000000000000000e+02,1.855543340149977275e-04,3.463672737572646783e-08,1.145522544720461067e-04,2.047953200259884775e-08,1.928579883911008441e-04,6.882871064680978443e-08,1.206857833287988398e-04,3.407233959450041825e-08,1.910480465417022187e-04,6.882575249750912677e-08,1.858268534017928019e-04,6.881799588974058298e-08
7.000000000000000000e+02,7.200000000000000000e+02,1.843455154083998898e-04,3.437629817399618316e-08,1.135662557860032484e-04,1.915603526186520288e-08,1.914575047324521429e-04,7.146242198401331567e-08,1.195733135782671549e-04,3.276566133069973967e-08,1.896503035089687191e-04,7.145951933629624185e-08,1.844544297468508095e-04,7.145255500842048530e-08
7.200000000000000000e+02,7.400000000000000000e+02,1.832438585546940343e-04,3.481373442347820941e-08,1.126565763497533641e-04,2.039261227722866058e-08,1.900698477773364906e-04,8.158442723857094396e-08,1.185208373220899972e-04,3.904873599250495255e-08,1.882646677822636479e-04,8.158202059820700215e-08,1.830968439914450066e-04,8.157592295496476761e-08
7.400000000000000000e+02,7.600000000000000000e+02,1.820500599210435843e-04,3.458427423112581242e-08,1.116989485720192726e-04,2.113368848503538370e-08,1.885936008767677505e-04,7.444078562479229287e-08,1.174058329297591595e-04,3.692066574669386698e-08,1.867904798539297224e-04,7.443786387587268591e-08,1.816502401740539819e-04,7.443100782840367403e-08
7.600000000000000000e+02,7.800000000000000000e+02,1.806281189517661948e-04,3.311864119589016809e-08,1.105213576799421639e-04,1.750080789057066279e-08,1.868181115530097216e-04,6.977563763135674202e-08,1.160248453117759116e-04,3.160778467738226492e-08,1.850201014432707356e-04,6.977267080302220671e-08,1.799137684956169931e-04,6.976506532882598603e-08
7.800000000000000000e+02,8.000000000000000000e+02,1.789708216731614252e-04,3.387027920619379066e-08,1.092332576621138563e-04,1.908067484199472174e-08,1.848307273182365118e-04,6.808103147177409056e-08,1.145437569702169816e-04,3.216157202250701830e-08,1.830364733844921151e-04,6.807794716724649878e-08,1.779704424472330719e-04,6.807023845714799935e-08
8.000000000000000000e+02,8.200000000000000000e+02,1.772962313180060279e-04,3.376187200827451305e-08,1.078650010920968565e-04,1.939075244249329895e-08,1.827848345261789726e-04,7.522792446633132158e-08,1.129735950402454067e-04,3.033290512668723436e-08,1.809957773848308625e-04,7.522538718576607913e-08,1.759716046933328950e-04,7.521881665873727261e-08
8.200000000000001137e+02,8.400000000000001137e+02,1.755670779857398359e-04,3.389876645439058255e-08,1.065247783326028351e-04,1.950798921481710590e-08,1.806911311730245045e-04,7.286141725444672238e-08,1.114502510265130919e-04,3.458098158947800901e-08,1.789060280851690352e-04,7.285846524506422973e-08,1.739204507339363283e-04,7.285164983981175985e-08
8.400000000000001137e+02,8.600000000000001137e+02,1.738069540407598951e-04,3.444606118504676741e-08,1.051776412586100004e-04,2.140911362673826901e-08,1.784826857989263178e-04,7.878063516322558682e-08,1.098684001969505017e-04,3.377173270471077911e-08,1.767020911138511812e-04,7.877783289635058541e-08,1.717611100236652655e-04,7.877155634879645773e-08
8.600000000000001137e+02,8.800000000000001137e+02,1.720782945390232047e-04,3.392485336788637101e-08,1.038295852303699140e-04,1.995074719977579428e-08,1.764870984111735984e-04,7.144760802086246091e-08,1.083395808127179965e-04,3.288896588565271600e-08,1.747122324989670362e-04,7.144479628782457811e-08,1.698120581548038686e-04,7.143757641785809966e-08
8.800000000000001137e+02,9.000000000000001137e+02,1.703522988471140997e-04,3.330782517196633295e-08,1.025090265802415925e-04,1.882020735655435239e-08,1.743130596088900857e-04,7.616029385151914391e-08,1.068113026455999647e-04,4.076209392893506218e-08,1.725400716608458209e-04,7.615782942450640485e-08,1.676839010053275713e-04,7.615174867836611368e-08
9.000000000000001137e+02,9.200000000000001137e+02,1.683943303912879645e-04,3.292787068453895434e-08,1.010770036344814230e-04,1.875826319291259026e-08,1.720057580041298455e-04,6.685400700215294256e-08,1.051953298718029400e-04,3.086904069135853818e-08,1.702376143701359046e-04,6.685100755230208248e-08,1.654256974567724534e-04,6.684324019878011261e-08
9.200000000000001137e+02,9.400000000000001137e+02,1.665800616183858707e-04,3.292879720063359202e-08,9.969879167335991756e-05,1.928868532841177682e-08,1.698490676204707120e-04,7.472428030752458705e-08,1.036008059620011827e-04,3.135741649537981534e-08,1.680842156688315471e-04,7.472167268394081671e-08,1.633185639926694314e-04,7.471535719337262138e-08
9.400000000000001137e+02,9.600000000000001137e+02,1.646386114934177689e-04,3.271760286723038939e-08,9.827236849219251279e-05,1.886321313818028638e-08,1.674702046899835713e-04,7.770633629639446608e-08,1.019719246376587601e-04,3.008012573450344776e-08,1.657058403714031488e-04,7.770356467390180718e-08,1.609881489547248948e-04,7.769724981367401127e-08
9.600000000000001137e+02,9.800000000000001137e+02,1.626115402917045565e-04,3.390145071932020944e-08,9.682456526575636919e-05,1.880847121723247509e-08,1.650823290855002673e-04,7.121633443355233291e-08,1.003423623199635781e-04,3.175227292529501241e-08,1.633179237329803607e-04,7.121319870391798990e-08,1.586510645086017983e-04,7.120709511077206789e-08
9.800000000000001137e+02,1.000000000000000114e+03,1.605536491407455707e-04,3.204696240187775653e-08,9.530773487899350132e-05,1.839325204792780977e-08,1.626012047575806931e-04,6.760473526704718129e-08,9.858321824685841231e-05,3.619000170297179923e-08,1.608421333122842694e-04,6.760189088832475468e-08,1.562247664470531772e-04,6.759522509728775557e-08
1.000000000000000114e+03,1.020000000000000114e+03,1.583375521226064626e-04,3.266895533293741900e-08,9.369673445925764542e-05,1.917435406312686137e-08,1.600640618111086311e-04,6.653362193736876659e-08,9.682238047592175339e-05,3.445775049489360046e-08,1.583111620196640248e-04,6.653020845201607601e-08,1.537487921441515353e-04,6.652300676622210122e-08
1.020000000000000000e+03,1.040000000000000000e+03,1.561319330766988049e-04,3.278554218179737070e-08,9.209641419200353756e-05,1.823316246772760041e-08,1.573751083514446955e-04,7.180791655687702333e-08,9.497636146080966823e-05,3.871151626274387702e-08,1.556310609264884243e-04,7.180485548225687530e-08,1.511257817567493152e-04,7.179869093775830909e-08
1.040000000000000000e+03,1.060000000000000000e+03,1.537168974683150269e-04,3.151746959730687965e-08,9.041628184743343629e-05,1.790115814165113628e-08,1.546238830305318604e-04,7.038233972364094626e-08,9.314291686916379993e-05,2.910864085962734831e-08,1.528865673143330430e-04,7.037916853132371535e-08,1.484392554358988795e-04,7.037262816525908413e-08
1.060000000000000000e+03,1.080000000000000000e+03,1.513077184466773333e-04,3.209324639771616827e-08,8.870040726158060754e-05,1.784934613494711301e-08,1.518062936929434083e-04,7.531805894575175054e-08,9.123462995714733364e-05,3.641062826707876738e-08,1.500771470397825103e-04,7.531548951046960379e-08,1.456927019755739692e-04,7.530987245785581426e-08
1.080000000000000000e+03,1.100000000000000000e+03,1.486340262644254492e-04,3.161940394379193571e-08,8.682604447435315377e-05,1.772606410161468795e-08,1.488262213107871752e-04,7.121693420285215573e-08,8.921284881346069342e-05,3.173696878997964478e-08,1.471051613171749182e-04,7.121411624141949317e-08,1.427848840027432604e-04,7.120745150904283801e-08
1.100000000000000000e+03,1.120000000000000000e+03,1.459386115920975201e-04,3.075889284149997220e-08,8.492132732945169293e-05,1.775191404572394836e-08,1.456708547268758982e-04,6.663765375598690052e-08,8.712973068708630199e-05,2.923593686470740870e-08,1.439537603179772199e-04,6.663472545223299072e-08,1.396991101073386844e-04,6.662826467277328012e-08
1.120000000000000000e+03,1.140000000000000000e+03,1.431991452679103266e-04,3.163090004257770758e-08,8.303335621576649484e-05,1.779847818144700245e-08,1.426716884406505190e-04,6.576226575417509292e-08,8.510161739275699225e-05,3.114685802045639689e-08,1.409689374179700944e-04,6.575925779109772959e-08,1.367847262678153206e-04,6.575323074920344145e-08
1.140000000000000000e+03,1.160000000000000000e+03,1.403502383972122592e-04,3.006191635569058945e-08,8.107048115257308742e-05,1.696473906823486283e-08,1.393725134604827294e-04,6.462976471467702937e-08,8.293370214549650339e-05,2.930951879917618887e-08,1.376899834809481584e-04,6.462692152088701860e-08,1.335780489199045050e-04,6.462049313242024128e-08
1.160000000000000000e+03,1.180000000000000000e+03,1.374230844370928314e-04,3.213155217029765050e-08,7.907758313471022606e-05,1.798670646118285729e-08,1.361072874538415218e-04,6.388099462134635822e-08,8.077895128538715129e-05,2.723513698346506258e-08,1.344473306291696542e-04,6.387816453343628064e-08,1.304098331129562580e-04,6.387212607968511247e-08
1.180000000000000000e+03,1.200000000000000000e+03,1.343460487255618925e-04,2.991739108998519173e-08,7.701422647584991955e-05,1.669678677753540453e-08,1.326601407861368654e-04,6.676691089744899282e-08,7.856532426147440579e-05,2.487820148583572898e-08,1.310249472600999877e-04,6.676433239313156358e-08,1.270656397494549807e-04,6.675820286855802595e-08
1.200000000000000000e+03,1.220000000000000000e+03,1.313343210344727549e-04,3.059761800345784434e-08,7.497932839257040829e-05,1.697819974451201551e-08,1.292827875257039779e-04,6.431334100567117121e-08,7.637907095288037971e-05,2.552233314028122138e-08,1.276739692306668307e-04,6.431066569091451973e-08,1.237958543204916318e-04,6.430410976072153695e-08
1.220000000000000000e+03,1.240000000000000000e+03,1.282392989865025379e-04,2.936030609528086462e-08,7.294684004790024886e-05,1.549208152772213621e-08,1.258824190947799152e-04,6.181872584577178226e-08,7.416142511413888856e-05,2.456334148024416517e-08,1.243029000712282596e-04,6.181601130246142587e-08,1.205075166794189522e-04,6.180952533683066492e-08
1.240000000000000000e+03,1.260000000000000000e+03,1.250800153602355056e-04,2.949584212297543701e-08,7.085862132351690597e-05,1.712595952579846227e-08,1.223238993995133896e-04,5.569841730374262421e-08,7.193490454570676215e-05,2.466206945757168960e-08,1.207763655417393173e-04,5.569560186956166099e-08,1.170651334345291372e-04,5.568869882037695235e-08
1.260000000000000000e+03,1.280000000000000000e+03,1.217820141366454477e-04,2.871517331507113153e-08,6.876207992788722879e-05,1.613650918006571806e-08,1.186073750714972417e-04,5.816955758638295476e-08,6.968930401914829242e-05,2.364095578857889779e-08,1.170918592775684183e-04,5.816678200754561830e-08,1.134700957101963562e-04,5.816081144040585046e-08
1.280000000000000000e+03,1.300000000000000000e+03,1.184347089563009985e-04,2.964140212612385729e-08,6.659742076871851891e-05,1.738091494360609945e-08,1.149949024983547123e-04,6.420512691754174855e-08,6.735191739824339017e-05,2.443697698155200787e-08,1.135129269434544547e-04,6.420246452319937111e-08,1.099847653002019497e-04,6.419690204759449436e-08
1.300000000000000000e+03,1.320000000000000000e+03,1.149770332207496448e-04,2.884266184279588337e-08,6.446129310329371616e-05,1.549625616394555377e-08,1.111061352469457802e-04,6.072481322267604756e-08,6.504506130527988822e-05,2.242251671394290493e-08,1.096610377430183114e-04,6.072210814499212278e-08,1.062279063210998730e-04,6.071643594445624383e-08
1.320000000000000000e+03,1.340000000000000000e+03,1.114127578160304375e-04,2.783104044131550025e-08,6.227608078770967704e-05,1.597533164345555523e-08,1.072891074254916341e-04,6.148907462981906982e-08,6.271312848693946578e-05,2.676365912526454717e-08,1.058835323348849021e-04,6.148665793851715080e-08,1.025534268612551564e-04,6.148066529088163137e-08
1.340000000000000000e+03,1.360000000000000000e+03,1.077060815701823461e-04,2.754387949418241028e-08,6.000423726551438840e-05,1.458734259606048472e-08,1.032669055302697970e-04,6.146912561124329669e-08,6.027327869611982217e-05,2.133845360936215051e-08,1.019009180884740157e-04,6.146703016491452895e-08,9.867700924949645007e-05,6.146141989850938423e-08
1.360000000000000000e+03,1.380000000000000000e+03,1.038230245794367782e-04,2.719165179087653310e-08,5.767487322897085956e-05,1.435335435033433731e-08,9.902146594813116584e-05,5.685886740316864492e-08,5.780139391580582848e-05,2.025861815353674587e-08,9.770034430375314086e-05,5.685659832159458900e-08,9.458659322026885205e-05,5.685037915298978852e-08
1.380000000000000000e+03,1.400000000000000000e+03,9.979664247118763781e-05,2.756313596317650032e-08,5.531663481764361237e-05,1.477375772282769112e-08,9.479827002817430937e-05,5.781457066036437605e-08,5.529536371352660037e-05,2.047446314099733990e-08,9.352255969032417370e-05,5.781237424594229808e-08,9.052684203939957177e-05,5.780685010366668944e-08
1.400000000000000000e+03,1.420000000000000000e+03,9.553625676750984350e-05,2.666425789386645665e-08,5.279948734926454159e-05,1.320669953076522817e-08,9.033344020601331468e-05,5.543782464862792015e-08,5.265411443874251380e-05,2.021057368050703182e-08,8.910821276278625875e-05,5.543547130139665089e-08,8.623638805682799649e-05,5.542995986953395154e-08
1.420000000000000000e+03,1.440000000000000000e+03,9.107412705053787169e-05,2.559273187442391147e-08,5.026226980823870620e-05,1.409646275382005613e-08,8.575151873281912265e-05,5.186438704875712361e-08,4.998199926814770781e-05,2.427641443610854954e-08,8.457746771918189343e-05,5.186194687910293228e-08,8.183685320050680732e-05,5.185623653555856444e-08
1.440000000000000000e+03,1.460000000000000000e+03,8.643832197131717636e-05,2.450037011256754517e-08,4.767996070996072396e-05,1.353727934190743689e-08,8.102612057938354774e-05,6.330339952359683022e-08,4.728986212535212674e-05,1.919098883116068048e-08,7.990802471893289555e-05,6.330141065334012046e-08,7.730506473858311204e-05,6.329695930417699363e-08
1.460000000000000000e+03,1.480000000000000000e+03,8.173650557681482018e-05,2.436527612293309325e-08,4.506911320901881783e-05,1.313005470420066635e-08,7.633521912387274014e-05,6.163601465549365952e-08,4.458348865320857122e-05,1.894978489853287627e-08,7.527372542372748549e-05,6.163403468050048498e-08,7.280889857298077821e-05,6.162966185522272794e-08
1.480000000000000000e+03,1.500000000000000000e+03,7.695308715165941754e-05,2.421335055079205677e-08,4.249349486714993832e-05,1.353494540948315512e-08,7.174227186283921212e-05,5.245139667769375463e-08,4.192214739324018037e-05,2.020565581650894863e-08,7.073843795958060165e-05,5.244935571758775696e-08,6.841337920845403633e-05,5.244428683320798798e-08
1.500000000000000000e+03,1.520000000000000000e+03,7.265325984728344434e-05,2.214822175614407052e-08,4.000153341003927487e-05,1.101323537643796673e-08,6.746129701616228563e-05,4.739919024606325727e-08,3.933276778560258779e-05,1.571200621777817667e-08,6.651101475255613809e-05,4.739695333979851553e-08,6.431596371363178797e-05,4.739207999455470062e-08
1.520000000000000000e+03,1.540000000000000000e+03,6.852418755479525875e-05,2.259161240569139000e-08,3.757286852791454459e-05,1.214150633417060471e-08,6.334613413703879699e-05,4.788189891479157166e-08,3.682290061331714592e-05,1.741248056398437582e-08,6.244596669358450439e-05,4.787986176400723565e-08,6.037325363445237517e-05,4.787533460256717257e-08
1.540000000000000000e+03,1.560000000000000000e+03,6.438181120258938727e-05,2.167028378774564940e-08,3.519074329732753057e-05,1.209861973531328421e-08,5.921564100751077142e-05,4.626663101205473945e-08,3.434232339342123148e-05,1.606135718445101493e-08,5.836614974717214445e-05,4.626472965277854769e-08,5.641552619006577721e-05,4.626063892353739670e-08
1.560000000000000000e+03,1.580000000000000000e+03,6.034319752518952490e-05,2.086847358180471064e-08,3.285744256171541799e-05,1.103550660976622725e-08,5.523551699257322507e-05,4.575814889017382357e-08,3.194291660154643361e-05,1.643686894499847290e-08,5.443507601603417544e-05,4.575628006982494212e-08,5.260481605861589153e-05,4.575181737500366368e-08
1.580000000000000000e+03,1.600000000000000000e+03,5.633776228527490694e-05,1.973249037194469558e-08,3.051200273089614540e-05,1.032030863491487828e-08,5.121568162901552282e-05,4.273317438427764466e-08,2.952836924891767242e-05,1.512544314476424410e-08,5.046541360631854548e-05,4.273119560068537217e-08,4.875681453398539805e-05,4.272699391640027749e-08
1.600000000000000000e+03,1.620000000000000000e+03,5.234723448379802516e-05,1.940278348046256360e-08,2.811907603607387372e-05,1.013806491313922838e-08,4.727198905150659016e-05,4.084788025184641794e-08,2.706968178710752860e-05,1.438704535076257825e-08,4.657257145834378090e-05,4.084588852233409472e-08,4.498369031859308649e-05,4.084186026901648391e-08
1.620000000000000000e+03,1.640000000000000000e+03,4.834129642723769251e-05,1.830805287374087969e-08,2.571321309459491698e-05,9.667171006129838197e-09,4.334044513108259634e-05,4.124730575091053003e-08,2.461653701875889488e-05,1.369589456732163946e-08,4.269357406625826074e-05,4.124557457866321121e-08,4.122346915985068000e-05,4.124174556068757761e-08
1.640000000000000000e+03,1.660000000000000000e+03,4.431835272046725930e-05,1.803017599852292327e-08,2.327784582754540159e-05,9.282221799621488335e-09,3.944234681537067878e-05,4.025502337422555801e-08,2.216126524727676943e-05,1.283784617984355184e-08,3.884610191133517227e-05,4.025332090750676456e-08,3.749743702854488737e-05,4.024972469346699008e-08
1.660000000000000000e+03,1.680000000000000000e+03,4.033077890834920490e-05,1.738517150383385962e-08,2.077764382989438080e-05,8.989643133212367152e-09,3.557269037649937396e-05,4.355660187092996294e-08,1.965257160061157726e-05,1.339169736545490894e-08,3.502584472745754970e-05,4.355509466003984825e-08,3.379827252126159023e-05,4.355234465530889480e-08
1.680000000000000000e+03,1.700000000000000000e+03,3.638079203585606390e-05,1.583864474406750912e-08,1.824596400295771978e-05,7.809893560199103967e-09,3.179070555500240845e-05,3.959108285881731294e-08,1.711973279900375219e-05,1.235461605928970777e-08,3.129509315683778479e-05,3.958966818161861337e-08,3.018538534921200216e-05,3.958639961837965831e-08
1.700000000000000000e+03,1.720000000000000000e+03,3.237848421702614274e-05,1.625383604452930471e-08,1.565921843728272753e-05,6.896801305403831983e-09,2.801111537332923404e-05,3.869264646490322549e-08,1.458995214007786996e-05,1.064186338446981774e-08,2.756924867780335877e-05,3.869136514806830689e-08,2.658005144772210279e-05,3.868782748078870878e-08
1.720000000000000000e+03,1.740000000000000000e+03,2.831528755129880784e-05,1.562814186387859755e-08,1.308574933479020757e-05,6.632661910165478469e-09,2.419048669387231413e-05,3.771612052700078860e-08,1.208522631917825745e-05,9.744206635191056597e-09,2.380256532134852405e-05,3.771489338315393710e-08,2.293685616976189287e-05,3.771206995644087701e-08
1.740000000000000000e+03,1.760000000000000000e+03,2.430983467852257821e-05,1.609158388469564738e-08,1.055667704943440354e-05,6.195635464317860423e-09,2.040318773354554769e-05,3.944159073565357912e-08,9.640888776071423764e-06,1.083763780255892411e-08,2.006953089824926902e-05,3.944046370064999029e-08,1.932527864588639267e-05,3.943721502226772533e-08
1.760000000000000000e+03,1.780000000000000000e+03,2.031402851763421658e-05,1.465401188120259244e-08,8.108200340142410485e-06,5.039612914369654035e-09,1.671861784723933800e-05,3.507128054239924194e-08,7.309257599079483538e-06,8.033376718793458325e-09,1.644101994368535536e-05,3.507016557694240880e-08,1.581773397425160010e-05,3.506672456724655991e-08
1.780000000000000000e+03,1.800000000000000000e+03,1.621256837807134036e-05,1.620381255088825931e-08,5.792022852918985090e-06,4.127465217371187156e-09,1.296755587845333752e-05,3.115203431870813478e-08,5.139314025933569667e-06,6.352212597869761282e-09,1.274681472109154141e-05,3.115088076749023412e-08,1.224866869256435568e-05,3.114737921791292971e-08
1.800000000000000000e+03,1.820000000000000000e+03,1.211413861936327824e-05,1.602958144121946955e-08,3.792411926071581651e-06,3.752050471171938231e-09,9.222502834126861091e-06,2.892066377745369031e-08,3.283528809876539117e-06,5.743788145376051591e-09,9.056366908777634735e-06,2.891950925115310644e-08,8.683365339403780923e-06,2.891603853958136955e-08
1.820000000000000000e+03,1.840000000000000000e+03,7.321983063987167372e-06,1.342995856137155563e-08,1.977500715541086624e-06,2.596632836183136563e-09,5.132270608516995109e-06,2.499606669499300367e-08,1.641030878692084820e-06,3.958236253428189475e-09,5.030017350199440427e-06,2.499508092314424963e-08,4.804057745663711954e-06,2.499171152470935603e-08
1.840000000000000000e+03,1.860000000000000000e+03,1.180014818724686764e-06,6.053335497009861942e-09,2.700697157671580124e-07,9.791630334443015009e-10,7.318149616565775721e-07,1.065216544319888857e-08,2.123273990514184841e-07,1.548178887449649910e-09,7.150681485240572879e-07,1.065159003821947656e-08,6.782979135528471604e-07,1.064948763264522040e-08
1.860000000000000000e+03,1.880000000000000000e+03,0.000000000000000000e+00,0.000000000000000000e+00,0.000000000000000000e+00,0.000000000000000000e+00,0.000000000000000000e+00,0.000000000000000000e+00,0.000000000000000000e+00,0.000000000000000000e+00,0.000000000000000000e+00,0.000000000000000000e+00,0.000000000000000000e+00,0.000000000000000000e+00
1.880000000000000000e+03,1.900000000000000000e+03,0.000000000000000000e+00,0.000000000000000000e+00,0.000000000000000000e+00,0.000000000000000000e+00,0.000000000000000000e+00,0.000000000000000000e+00,0.000000000000000000e+00,0.000000000000000000e+00,0.000000000000000000e+00,0.000000000000000000e+00,0.000000000000000000e+00,0.000000000000000000e+00
1.900000000000000000e+03,1.920000000000000000e+03,0.000000000000000000e+00,0.000000000000000000e+00,0.000000000000000000e+00,0.000000000000000000e+00,0.000000000000000000e+00,0.000000000000000000e+00,0.000000000000000000e+00,0.000000000000000000e+00,0.000000000000000000e+00,0.000000000000000000e+00,0.000000000000000000e+00,0.000000000000000000e+00
1.920000000000000000e+03,1.940000000000000000e+03,0.000000000000000000e+00,0.000000000000000000e+00,0.000000000000000000e+00,0.000000000000000000e+00,0.000000000000000000e+00,0.000000000000000000e+00,0.000000000000000000e+00,0.000000000000000000e+00,0.000000000000000000e+00,0.000000000000000000e+00,0.000000000000000000e+00,0.000000000000000000e+00
1.940000000000000000e+03,1.960000000000000000e+03,0.000000000000000000e+00,0.000000000000000000e+00,0.000000000000000000e+00,0.000000000000000000e+00,0.000000000000000000e+00,0.000000000000000000e+00,0.000000000000000000e+00,0.000000000000000000e+00,0.000000000000000000e+00,0.000000000000000000e+00,0.000000000000000000e+00,0.000000000000000000e+00
1.960000000000000000e+03,1.980000000000000000e+03,0.000000000000000000e+00,0.000000000000000000e+00,0.000000000000000000e+00,0.000000000000000000e+00,0.000000000000000000e+00,0.000000000000000000e+00,0.000000000000000000e+00,0.000000000000000000e+00,0.000000000000000000e+00,0.000000000000000000e+00,0.000000000000000000e+00,0.000000000000000000e+00
1.980000000000000000e+03,2.000000000000000000e+03,0.000000000000000000e+00,0.000000000000000000e+00,0.000000000000000000e+00,0.000000000000000000e+00,0.000000000000000000e+00,0.000000000000000000e+00,0.000000000000000000e+00,0.000000000000000000e+00,0.000000000000000000e+00,0.000000000000000000e+00,0.000000000000000000e+00,0.000000000000000000e+00
