# xl,xh,LO,dLO,LOISC,dLOISC,NLO,dNLO,NLOISC,dNLOISC,NLOL,dNLOL,NLOnovp,dNLOnovp
3.000000000000000000e+02,3.200000000000000000e+02,2.045800508289859546e-04,3.516161149005614525e-08,1.311380961302255419e-04,2.043425104081257541e-08,2.166735392775139381e-04,7.754309066607641885e-08,1.401324366949995850e-04,3.182809062201613789e-08,2.147818572521681120e-04,7.754059489718894667e-08,2.090749939026906019e-04,7.753327222178781251e-08
3.200000000000000000e+02,3.400000000000000000e+02,2.037978604352409611e-04,3.588591850294665229e-08,1.303867633464716124e-04,2.083703257215108239e-08,2.157510139353366915e-04,6.919963378714168582e-08,1.392493493280625783e-04,3.328847347601889957e-08,2.138670169118217057e-04,6.919676012691437144e-08,2.081827055868264403e-04,6.918852401902489485e-08
3.400000000000000000e+02,3.600000000000000000e+02,2.028122946676892517e-04,3.544282143731838017e-08,1.295915661837617936e-04,2.124929681895912774e-08,2.145463870109141219e-04,6.789211168253031035e-08,1.382928406679458566e-04,3.253666690075957363e-08,2.126668980242040169e-04,6.788911432086487822e-08,2.070097032514306911e-04,6.788092008545631873e-08
3.600000000000000000e+02,3.800000000000000000e+02,2.018625827464258754e-04,3.479352978634313501e-08,1.287225285771137517e-04,2.120009103870440006e-08,2.133447044603785359e-04,6.982537762858977683e-08,1.372900418379325140e-04,3.220416142442301403e-08,2.114718742076130873e-04,6.982261573263739792e-08,2.058376006572498783e-04,6.981513120532382271e-08
3.800000000000000000e+02,4.000000000000000000e+02,2.009836275928278686e-04,3.465979725847081227e-08,1.279028654041606552e-04,2.084899668548577038e-08,2.122842517711979950e-04,6.858313085318077311e-08,1.363492268863275613e-04,3.357615139426867827e-08,2.104162812266092194e-04,6.858029648027552712e-08,2.048068642338311232e-04,6.857260140596244027e-08
4.000000000000000000e+02,4.200000000000000000e+02,2.000741124495375651e-04,3.636759442864622569e-08,1.271114921582056111e-04,2.218490309891411403e-08,2.110153809690133871e-04,6.727148076772795378e-08,1.353774712751868998e-04,3.404334278835529471e-08,2.091535672663374001e-04,6.726855907986380515e-08,2.035695217254549546e-04,6.726041022186745569e-08
4.199999999999999432e+02,4.399999999999999432e+02,1.990197431504300417e-04,3.767324175791139300e-08,1.261265956830943545e-04,2.168294494215264787e-08,2.098695326967463931e-04,7.198987110189682609e-08,1.343036797598467775e-04,3.265578156346025060e-08,2.080122795054828997e-04,7.198706604264586809e-08,2.024579793952281019e-04,7.198012246633502724e-08
4.399999999999999432e+02,4.599999999999999432e+02,1.980402366564808377e-04,3.460577411409568184e-08,1.252451077004398592e-04,1.953276143418191233e-08,2.086477425997161042e-04,7.248658417007765684e-08,1.332271181339640675e-04,3.343180709806435195e-08,2.067958331425418417e-04,7.248368755997110434e-08,2.012627216625950102e-04,7.247583724431376047e-08
4.599999999999999432e+02,4.799999999999999432e+02,1.969904134979386578e-04,3.401658104171259566e-08,1.243685876457164023e-04,2.085654601598500093e-08,2.072018281062637480e-04,7.290471162274469817e-08,1.322210018546978393e-04,3.669794365845061762e-08,2.053539562150741597e-04,7.290214084710962182e-08,1.998468475046486512e-04,7.289485911687908198e-08
4.799999999999999432e+02,4.999999999999999432e+02,1.959659346621463562e-04,3.475690252536288141e-08,1.234644269179764164e-04,2.037181017232609466e-08,2.060053987430312324e-04,7.330161930232201801e-08,1.311230660757355386e-04,3.692569435704726805e-08,2.041614328366702996e-04,7.329889479789377282e-08,1.986807101956524651e-04,7.329171228341443783e-08
4.999999999999999432e+02,5.200000000000000000e+02,1.949336776404421575e-04,3.546042648681188877e-08,1.225564119741032524e-04,1.999536143547695006e-08,2.047068563387247856e-04,7.906307030267439954e-08,1.301260399268643802e-04,5.000217802131322550e-08,2.028690622776245977e-04,7.906038857372692660e-08,1.974125967911338449e-04,7.905346259090439322e-08
5.200000000000000000e+02,5.400000000000000000e+02,1.938806520036682936e-04,3.528717905098320864e-08,1.216542714885449810e-04,2.097372068288387128e-08,2.035042796090389338e-04,9.182905549622105259e-08,1.290330970884526706e-04,3.263052588705903286e-08,2.016693016981904881e-04,9.182682423657682077e-08,1.962401042371623907e-04,9.182056373131975163e-08
5.400000000000000000e+02,5.600000000000000000e+02,1.928463684145414851e-04,3.543590012902109252e-08,1.207177700669425074e-04,2.088645030940979372e-08,2.020987570949453862e-04,7.410889357965942814e-08,1.279779703927232462e-04,3.327131061795617570e-08,2.002672272702446282e-04,7.410600297523569438e-08,1.948641836427301966e-04,7.409943800017349086e-08
5.600000000000000000e+02,5.800000000000000000e+02,1.918647889826122937e-04,3.706213199856036857e-08,1.198791434343019743e-04,2.074584114356330806e-08,2.009625813287269959e-04,7.401964952721271635e-08,1.269821723732973153e-04,3.204922381639945107e-08,1.991355536392633101e-04,7.401672261043535449e-08,1.937575684297915127e-04,7.400904254462845190e-08
5.800000000000000000e+02,6.000000000000000000e+02,1.907956670323094110e-04,3.467824035225967306e-08,1.189803500226705319e-04,2.033003799397478624e-08,1.995567614747903527e-04,7.091353233387436003e-08,1.259261095720270974e-04,3.499889109475014070e-08,1.977321355029928020e-04,7.091048370709334641e-08,1.923796064396254683e-04,7.090352387451703655e-08
6.000000000000000000e+02,6.200000000000000000e+02,1.897907847317845012e-04,3.498056774439860525e-08,1.181148878979010374e-04,2.063572749948442605e-08,1.982489126018090804e-04,8.635960254739481642e-08,1.248744886574585159e-04,4.382109463331939044e-08,1.964271958073581697e-04,8.635733993768185327e-08,1.911002017346776925e-04,8.635164363912879632e-08
6.200000000000000000e+02,6.400000000000000000e+02,1.887426598563271204e-04,3.436326764177934492e-08,1.172136539916987719e-04,2.047877451161023117e-08,1.970093027173796976e-04,7.086629665724531157e-08,1.238755204799914516e-04,3.674858908360847658e-08,1.951908636905133750e-04,7.086345398211530609e-08,1.898875605132985559e-04,7.085641299678910849e-08
6.400000000000000000e+02,6.600000000000000000e+02,1.877062565332012520e-04,3.357609503689437575e-08,1.163376078203871015e-04,1.952317407392953333e-08,1.956761741503539563e-04,7.014698423860509920e-08,1.228184526388148459e-04,3.649870775434478282e-08,1.938610209312119023e-04,7.014399993801698366e-08,1.885844948025103751e-04,7.013724103472930577e-08
6.600000000000000000e+02,6.800000000000000000e+02,1.866383585856903405e-04,3.318782902917777789e-08,1.154211594017479775e-04,1.984119605310168170e-08,1.943012069111343530e-04,6.942993297672577344e-08,1.217134563430708534e-04,3.602213720226206827e-08,1.924880080634805651e-04,6.942683686152499698e-08,1.872391388776005960e-04,6.941948078326363697e-08
6.800000000000000000e+02,7.000000000000000000e+02,1.855568449664695384e-04,3.291380434896375358e-08,1.145222579998286398e-04,1.937934473500735560e-08,1.929654299058674086e-04,7.296078574791315336e-08,1.206982014388684361e-04,3.271417028730164999e-08,1.911550264037612662e-04,7.295790806617004941e-08,1.859325762988060207e-04,7.295090928034411252e-08
7.000000000000000000e+02,7.200000000000000000e+02,1.844016189079531246e-04,3.457401432759679534e-08,1.136142370195649450e-04,1.954431565733353024e-08,1.914954997670424697e-04,7.135742244653524629e-08,1.196326626809705726e-04,3.283710149514594113e-08,1.896874263372373389e-04,7.135437307107099560e-08,1.844911868662892399e-04,7.134761595466900165e-08
7.200000000000000000e+02,7.400000000000000000e+02,1.831853984424774593e-04,3.331242203213684986e-08,1.126107406948008031e-04,1.906019222848619613e-08,1.899132847220246260e-04,7.070278548257960012e-08,1.184385494355998070e-04,3.380365249456046646e-08,1.881082563970208653e-04,7.070001863113775213e-08,1.829391060618190679e-04,7.069234166466074655e-08
7.400000000000000000e+02,7.600000000000000000e+02,1.821018026260918068e-04,3.509495398495112577e-08,1.117196053313339191e-04,2.018191939597313170e-08,1.887125731257765517e-04,6.998319892638107699e-08,1.174467053990693293e-04,3.392038712701240807e-08,1.869107217130911293e-04,6.998024501129118474e-08,1.817726692004703680e-04,6.997303881904444370e-08
7.600000000000000000e+02,7.800000000000000000e+02,1.806201260333243632e-04,3.420175022719259045e-08,1.105341389312821239e-04,1.912446922562218126e-08,1.867958896819366999e-04,7.530460523264724205e-08,1.160322232319263011e-04,3.518782445126823824e-08,1.849969495844728910e-04,7.530179009619688410e-08,1.798899474065609430e-04,7.529544943015616747e-08
7.800000000000000000e+02,8.000000000000000000e+02,1.789735010218711220e-04,3.350774161540592957e-08,1.092462510526869170e-04,1.958636799009989777e-08,1.847679668846727102e-04,6.877973734167826455e-08,1.145441502952937273e-04,3.529985055821083592e-08,1.829730574193210997e-04,6.877683920643204666e-08,1.779071480985922439e-04,6.876876633987196687e-08
8.000000000000000000e+02,8.200000000000000000e+02,1.772649263456324196e-04,3.186041980864228400e-08,1.078516980076802551e-04,1.826247989520351790e-08,1.826940500600816863e-04,6.962364309805252468e-08,1.129715024003090308e-04,3.231620412889391862e-08,1.809049941464788852e-04,6.962058308676054711e-08,1.758806675053326408e-04,6.961356418284538639e-08
8.200000000000001137e+02,8.400000000000001137e+02,1.754919971269766404e-04,3.322879803506240716e-08,1.065040172873322599e-04,1.890002735378966026e-08,1.806762617926323071e-04,6.836607561624296434e-08,1.114384895204223116e-04,3.643516523736188354e-08,1.788914342936719938e-04,6.836310217202306185e-08,1.739089755098578315e-04,6.835552616763113682e-08
8.400000000000001137e+02,8.600000000000001137e+02,1.738267960917733938e-04,3.332738794294844244e-08,1.051936194629995530e-04,1.717984087997206434e-08,1.786011863108906178e-04,6.505723907146705983e-08,1.098890969405940385e-04,3.094536981706522465e-08,1.768214261904892516e-04,6.505407005761099607e-08,1.718776473179841756e-04,6.504705934626344480e-08
8.600000000000001137e+02,8.800000000000001137e+02,1.720801965739399792e-04,3.297908410793795178e-08,1.038347291008284809e-04,2.004717627083968549e-08,1.764415836713494523e-04,6.710506541803948107e-08,1.083591255194192913e-04,3.088675883515546698e-08,1.746656637006433897e-04,6.710202647234977852e-08,1.697655782511283480e-04,6.709445250858344024e-08
8.800000000000001137e+02,9.000000000000001137e+02,1.702794000696061468e-04,3.427993566046897327e-08,1.024773088999221088e-04,1.925221288824368824e-08,1.742779618336174978e-04,7.126237487816930920e-08,1.067832500178459825e-04,3.276706916556912358e-08,1.725060830999074397e-04,7.125951329200203322e-08,1.676486344116340981e-04,7.125233187749924469e-08
9.000000000000001137e+02,9.200000000000001137e+02,1.684748129976768028e-04,3.496497247944547690e-08,1.010892996330955371e-04,2.031844232545864136e-08,1.721124123670280108e-04,6.970609305852928396e-08,1.051720430126056862e-04,3.257201309099981632e-08,1.703439651119253463e-04,6.970317517450720851e-08,1.655323692240701007e-04,6.969630419801726649e-08
9.200000000000001137e+02,9.400000000000001137e+02,1.665905735644315614e-04,3.224029015239868003e-08,9.970579822224108057e-05,1.840821288477400887e-08,1.698377436111186110e-04,7.122157927487764533e-08,1.036150633169385281e-04,3.330907324723560048e-08,1.680723490721718701e-04,7.121876803998825620e-08,1.633064139001111229e-04,7.121158031854054493e-08
9.400000000000001137e+02,9.600000000000001137e+02,1.646099536197502186e-04,3.243204062978633566e-08,9.825411174968567507e-05,1.928357479613295970e-08,1.675009429356811208e-04,6.812390004075970483e-08,1.019772008843637933e-04,3.118693209682848346e-08,1.657362879333955374e-04,6.812069585989529844e-08,1.610196846522481281e-04,6.811409578155576271e-08
9.600000000000001137e+02,9.800000000000001137e+02,1.626005648603320874e-04,3.123625682911302372e-08,9.680055717469247334e-05,1.662380971789129235e-08,1.649983581483974084e-04,6.560472389554589759e-08,1.003167820119122366e-04,3.240856825244850564e-08,1.632337842832973641e-04,6.560172173484136987e-08,1.585671353022905861e-04,6.559481299975427708e-08
9.800000000000001137e+02,1.000000000000000114e+03,1.605004777054922947e-04,3.147816797195415643e-08,9.529672955535821357e-05,1.794880024653686689e-08,1.625892507566752555e-04,6.863443260404583297e-08,9.860199967007854155e-05,3.770529106252645273e-08,1.608307029574912244e-04,6.863150163210678586e-08,1.562154488323594837e-04,6.862447001652447844e-08
1.000000000000000114e+03,1.020000000000000114e+03,1.583663785361482897e-04,3.218442993633160083e-08,9.371836312117802340e-05,1.776522229546366904e-08,1.600196852829861871e-04,6.892403194442104568e-08,9.681399900425172829e-05,3.208373111881723722e-08,1.582668535632485976e-04,6.892098379502230865e-08,1.537031553632047659e-04,6.891384311742539885e-08
1.020000000000000000e+03,1.040000000000000000e+03,1.561335178926490173e-04,3.349487186753600681e-08,9.209940273772538504e-05,1.874468624231903592e-08,1.574073095138899740e-04,6.651596442926846257e-08,9.499033156337281000e-05,3.307155709767390463e-08,1.556622838277541476e-04,6.651297406899765588e-08,1.511558323987324739e-04,6.650588810703601068e-08
1.040000000000000000e+03,1.060000000000000000e+03,1.537004010313375009e-04,3.230354950234385558e-08,9.044474731363540251e-05,1.737934355626327509e-08,1.545755945210098182e-04,7.158560707497704737e-08,9.316444521729376829e-05,3.110644634339610093e-08,1.528379250177056762e-04,7.158261756298181174e-08,1.483916865000098838e-04,7.157643829281879272e-08
1.060000000000000000e+03,1.080000000000000000e+03,1.512552330302403283e-04,3.109924452942109345e-08,8.865384984697288469e-05,1.850671292698169953e-08,1.518292400910852772e-04,7.239568475552383585e-08,9.118398388862317290e-05,3.902120916799495570e-08,1.500997377528583707e-04,7.239273849014729570e-08,1.457127488805655684e-04,7.238666251374384234e-08
1.080000000000000000e+03,1.100000000000000000e+03,1.485764365850800000e-04,3.217012038998862796e-08,8.680625470770152651e-05,1.854505188564756269e-08,1.487282183655532495e-04,6.749733279824143953e-08,8.917110904355366374e-05,3.084309813779930202e-08,1.470073465627851940e-04,6.749440802953897016e-08,1.426876646352911776e-04,6.748737293621220250e-08
1.100000000000000000e+03,1.120000000000000000e+03,1.459844757783214885e-04,3.073432791621408277e-08,8.493986638505116591e-05,1.731139853776865808e-08,1.457728459467113485e-04,6.838920465880437581e-08,8.716776005357469812e-05,2.734229445288932168e-08,1.440564773313732303e-04,6.838622874087112591e-08,1.398039594631441101e-04,6.837961882526900297e-08
1.120000000000000000e+03,1.140000000000000000e+03,1.432091903494704427e-04,3.097632996987704493e-08,8.303324696940287113e-05,1.745754392367546928e-08,1.426510431463939149e-04,7.124287000203525110e-08,8.509128435053612085e-05,3.101181107845897048e-08,1.409484785282690727e-04,7.124030571947811273e-08,1.367643838682266414e-04,7.123445061343947722e-08
1.140000000000000000e+03,1.160000000000000000e+03,1.403422428834496865e-04,3.021841319234245062e-08,8.106876442220870926e-05,1.679651233924593142e-08,1.393782281026791396e-04,6.362422095088197102e-08,8.292793880993919924e-05,2.873936892536306514e-08,1.376956949416959202e-04,6.362132930871710572e-08,1.335849867942789264e-04,6.361440158644470547e-08
1.160000000000000000e+03,1.180000000000000000e+03,1.373866414682068694e-04,3.082697060468183160e-08,7.904658231437690905e-05,1.687600376856437354e-08,1.360805158697380249e-04,6.468974522465940260e-08,8.076801281635703517e-05,2.953040735431425019e-08,1.344201889967785448e-04,6.468691764022697343e-08,1.303827592290357192e-04,6.468118218074988965e-08
1.180000000000000000e+03,1.200000000000000000e+03,1.343992932593746819e-04,2.921900498414219002e-08,7.704814590729408465e-05,1.598978667462502975e-08,1.326925573912176638e-04,6.739022884598113398e-08,7.858456903350723589e-05,2.682085268866582909e-08,1.310559152250944260e-04,6.738766362950770259e-08,1.270969785071477765e-04,6.738160814581978731e-08
1.200000000000000000e+03,1.220000000000000000e+03,1.314044830627553282e-04,2.959950614323429548e-08,7.500020080206584575e-05,1.665885089793915322e-08,1.294003810375830789e-04,5.919429536911350480e-08,7.639783038220690481e-05,2.575864441582546897e-08,1.277924671452927436e-04,5.919140332805559232e-08,1.239145998350731114e-04,5.918460752669014965e-08
1.220000000000000000e+03,1.240000000000000000e+03,1.281997575139070264e-04,2.907047566705395142e-08,7.290005216809532034e-05,1.610227953580532572e-08,1.257665634271418577e-04,6.594051234576549094e-08,7.413207382863034407e-05,2.552324054031558716e-08,1.241874696825240700e-04,6.593797479352808906e-08,1.203912321362443291e-04,6.593239180071293724e-08
1.240000000000000000e+03,1.260000000000000000e+03,1.250961960017009497e-04,3.000134592539173284e-08,7.089283023030568543e-05,1.695081850617816643e-08,1.223030173232535472e-04,6.375267332550194381e-08,7.196476550671353722e-05,2.690209179946179106e-08,1.207548685071365324e-04,6.375024497118080290e-08,1.170438226464563916e-04,6.374493236968558186e-08
1.260000000000000000e+03,1.280000000000000000e+03,1.217727722867846518e-04,2.762055653096248094e-08,6.871669960153579861e-05,1.554872126098079992e-08,1.186157556103987695e-04,5.748655790731828547e-08,6.963638802916290063e-05,2.653959998772324306e-08,1.170996537500476251e-04,5.748400157720077244e-08,1.134782578725631604e-04,5.747739834243985660e-08
1.280000000000000000e+03,1.300000000000000000e+03,1.184116297104106214e-04,2.826779466219621594e-08,6.663845727418700254e-05,1.586759408674654978e-08,1.149769310651233201e-04,6.293963795648762984e-08,6.737907866047825696e-05,2.449787225834287603e-08,1.134950781151225621e-04,6.293708955338799377e-08,1.099680468095563411e-04,6.293146647475351562e-08
1.300000000000000000e+03,1.320000000000000000e+03,1.149386061123464461e-04,2.723133050553277149e-08,6.444351877857263733e-05,1.519850633422579471e-08,1.110677276934241535e-04,6.698594137295064432e-08,6.502331131766009103e-05,2.280260623673636748e-08,1.096232748156797247e-04,6.698387159264708390e-08,1.061901438336990453e-04,6.697855892150243472e-08
1.320000000000000000e+03,1.340000000000000000e+03,1.114341428984964659e-04,2.828600425536212040e-08,6.227043358454180378e-05,1.484938254237621859e-08,1.072491187484526562e-04,6.004017581125416951e-08,6.271275107762166524e-05,2.224593266962539805e-08,1.058429240591186730e-04,6.003774343861158556e-08,1.025126608916761397e-04,6.003219935379200207e-08
1.340000000000000000e+03,1.360000000000000000e+03,1.077359836383269971e-04,2.808055024449185544e-08,6.000196937431966944e-05,1.580391424473056873e-08,1.032889497065438259e-04,6.005577757670667384e-08,6.028630933146263756e-05,2.191572589924425419e-08,1.019234079856250403e-04,6.005345194770456995e-08,9.869847766286562367e-05,6.004780429495906697e-08
1.360000000000000000e+03,1.380000000000000000e+03,1.037827434958248194e-04,2.609815582925992916e-08,5.768028444177790789e-05,1.411779342367722587e-08,9.904843687544751148e-05,5.639264091406271939e-08,5.780347199618745711e-05,2.095442997005849869e-08,9.772745109173863688e-05,5.639037717202295025e-08,9.461410038931576943e-05,5.638424287750826780e-08
1.380000000000000000e+03,1.400000000000000000e+03,9.980586679333851871e-05,2.780416996723099183e-08,5.528655889420145276e-05,1.472442106240509306e-08,9.474975479143850853e-05,5.895450381368255150e-08,5.526232878526616399e-05,2.149940397191526859e-08,9.347453734163399053e-05,5.895236150331506048e-08,9.047789288992908905e-05,5.894663277828523219e-08
1.400000000000000000e+03,1.420000000000000000e+03,9.552913399950436330e-05,2.564935091015953281e-08,5.282747722474181437e-05,1.408223149967530280e-08,9.032011926527811667e-05,5.648992072838310573e-08,5.267385806111743435e-05,2.017877539450429417e-08,8.909460220859863235e-05,5.648767813160593686e-08,8.622114501366242797e-05,5.648213873632809035e-08
1.420000000000000000e+03,1.440000000000000000e+03,9.108203889902620498e-05,2.598450516508202811e-08,5.027094070089316991e-05,1.323195387911102187e-08,8.572997575316257314e-05,5.482397160945827361e-08,4.998418882479258149e-05,2.129789874787171046e-08,8.455614437313277410e-05,5.482162703915976553e-08,8.181526075248316530e-05,5.481631497356389372e-08
1.440000000000000000e+03,1.460000000000000000e+03,8.642930962202209459e-05,2.417151952777191774e-08,4.766746724959897326e-05,1.352202450089908059e-08,8.102868433806685664e-05,5.273285120759038664e-08,4.729056601188314499e-05,1.844231739730993840e-08,7.991057527794481383e-05,5.273053929674730534e-08,7.730661650002637109e-05,5.272484299137934556e-08
1.460000000000000000e+03,1.480000000000000000e+03,8.169383329259672754e-05,2.450514896380117473e-08,4.507437653256735532e-05,1.287888049157681056e-08,7.629837231783394606e-05,4.934709190653273460e-08,4.458274376577626367e-05,1.874739070599952727e-08,7.523695614336779150e-05,4.934470063499605626e-08,7.277264738830969526e-05,4.933945276575533281e-08
1.480000000000000000e+03,1.500000000000000000e+03,7.700192561649328680e-05,2.462639127232614879e-08,4.249488265414903322e-05,1.293227658947828751e-08,7.178403566881934111e-05,5.096772443500486244e-08,4.189879999084616176e-05,2.075247854609037615e-08,7.078032232649869961e-05,5.096553684667256672e-08,6.845735605037345510e-05,5.096086759402958207e-08
1.500000000000000000e+03,1.520000000000000000e+03,7.263464581017577278e-05,2.262997775336100043e-08,3.997720205537473777e-05,1.237333194851949075e-08,6.752598440359465156e-05,4.980875742009412782e-08,3.931554462837990997e-05,1.943004413960980347e-08,6.657537450588075308e-05,4.980652334550479285e-08,6.437970342390968441e-05,4.980179231653740161e-08
1.520000000000000000e+03,1.540000000000000000e+03,6.852340989217469390e-05,2.213125221181354447e-08,3.758501880904496566e-05,1.209848174978720853e-08,6.333672156962911191e-05,4.910131612639854339e-08,3.682119287181563090e-05,1.720179215627265273e-08,6.243735719707217149e-05,4.909942276696196717e-08,6.036573678570517559e-05,4.909495322079365518e-08
1.540000000000000000e+03,1.560000000000000000e+03,6.438307666413072884e-05,2.216104168884419635e-08,3.520277259423947210e-05,1.236882202454780489e-08,5.921057834475158295e-05,4.618072160057268592e-08,3.436302188286134344e-05,1.761381196746919117e-08,5.836048788641659367e-05,4.617878886842110294e-08,5.640887228727852685e-05,4.617410727462067261e-08
1.560000000000000000e+03,1.580000000000000000e+03,6.041157567687333979e-05,2.056811163095756707e-08,3.287177199542437817e-05,1.068590739872451641e-08,5.531484414085107056e-05,4.642865976135439884e-08,3.195761738675697195e-05,1.545409795500751112e-08,5.451437578503487820e-05,4.642664541255270291e-08,5.268535516428132082e-05,4.642247018661412464e-08
1.580000000000000000e+03,1.600000000000000000e+03,5.636025698878191476e-05,2.021605634516921337e-08,3.050606412828353700e-05,1.097661445433954332e-08,5.120682836223882609e-05,4.203622533060565689e-08,2.951858092290775398e-05,1.653858414496881192e-08,5.045639540039172869e-05,4.203412819917374804e-08,4.874722374302966395e-05,4.202988341211131950e-08
1.600000000000000000e+03,1.620000000000000000e+03,5.234445238676068714e-05,1.984035697363185670e-08,2.812689523486996073e-05,1.035581118328915955e-08,4.726987720993314841e-05,4.166672351716287409e-08,2.708582710557327984e-05,1.458601095200746484e-08,4.657059336174820038e-05,4.166486797819883486e-08,4.498037219428078657e-05,4.166069626245996210e-08
1.620000000000000000e+03,1.640000000000000000e+03,4.832273111603757317e-05,1.855632979930209459e-08,2.571644404562165227e-05,9.797972883435748685e-09,4.329132359973353284e-05,4.144564711745374686e-08,2.462395032546310951e-05,1.428980902960094235e-08,4.264408441145575116e-05,4.144386798484931491e-08,4.117421243512126114e-05,4.144017580445566358e-08
1.640000000000000000e+03,1.660000000000000000e+03,4.432736264582272487e-05,1.827442292432493951e-08,2.328146064179747521e-05,9.681069181718651373e-09,3.946848817953355662e-05,4.157689260820758168e-08,2.216534841573726612e-05,1.408504934209142716e-08,3.887218871440337382e-05,4.157526987713270949e-08,3.752352010819490869e-05,4.157199225542555205e-08
1.660000000000000000e+03,1.680000000000000000e+03,4.032902041696035831e-05,1.740280938054537624e-08,2.077774695702528998e-05,8.404337068326295084e-09,3.558237310087044946e-05,3.758015334086652125e-08,1.964354287574074454e-05,1.223626328499577987e-08,3.503532149578509149e-05,3.757860469504668360e-08,3.380706553053750886e-05,3.757507570452453562e-08
1.680000000000000000e+03,1.700000000000000000e+03,3.637814887044128672e-05,1.665910400865045356e-08,1.824507577558300169e-05,7.600845207428278760e-09,3.179860035544216778e-05,4.034471652357256188e-08,1.713022201032498359e-05,1.173490166233264894e-08,3.130299797916273488e-05,4.034314439603034606e-08,3.019331044274134506e-05,4.034008492236349441e-08
1.700000000000000000e+03,1.720000000000000000e+03,3.236498066628190791e-05,1.592260378841610560e-08,1.565743704446092687e-05,7.094558933761098784e-09,2.798531910049432652e-05,3.361720149494699078e-08,1.458773175398213681e-05,1.062166921141089983e-08,2.754306190477523469e-05,3.361574249468175841e-08,2.655391030891907957e-05,3.361254957402875883e-08
1.720000000000000000e+03,1.740000000000000000e+03,2.834767132832643701e-05,1.545014332294487224e-08,1.309956967869230060e-05,6.479358491836857889e-09,2.422111030161407523e-05,3.398390986550808170e-08,1.210211618036539092e-05,1.025860195998658206e-08,2.383366700934734221e-05,3.398255809037549587e-08,2.296825357885421147e-05,3.397926643075095042e-08
1.740000000000000000e+03,1.760000000000000000e+03,2.430263275066742940e-05,1.549395328709472477e-08,1.055155917038930717e-05,5.763868127905291672e-09,2.044850629065308328e-05,3.520555610877271710e-08,9.632907786861306934e-06,9.267537143131015629e-09,2.011515448014223310e-05,3.520430876463902270e-08,1.937080605202731219e-05,3.520110562349349700e-08
1.760000000000000000e+03,1.780000000000000000e+03,2.028105580734511847e-05,1.578198727807792993e-08,8.100734237837734010e-06,5.697184589976890168e-09,1.667098522166742363e-05,3.394674802768251099e-08,7.298781812829988092e-06,8.295213488656137122e-09,1.639305487250316848e-05,3.394556769750896994e-08,1.577104139368677599e-05,3.394200054940727527e-08
1.780000000000000000e+03,1.800000000000000000e+03,1.621542871588385165e-05,1.597498394240193228e-08,5.794457744409962453e-06,4.527598560296359949e-09,1.295330489815081412e-05,3.277161418024176868e-08,5.144834586405570551e-06,7.090880336116569507e-09,1.273271505254375285e-05,3.277049266548166521e-08,1.223481041066961556e-05,3.276712167335373871e-08
1.800000000000000000e+03,1.820000000000000000e+03,1.210134640790987429e-05,1.475783389378496079e-08,3.790713543997268722e-06,3.668454657123513913e-09,9.213732462598326917e-06,2.906024799865717464e-08,3.276897559982856435e-06,5.556276079825068753e-09,9.047951784986663819e-06,2.905921010078413230e-08,8.674708394857444561e-06,2.905550390669889367e-08
1.820000000000000000e+03,1.840000000000000000e+03,7.295781511797992329e-06,1.293257050004641093e-08,1.971842484289049429e-06,2.715291313107291855e-09,5.092767260327207982e-06,2.720532671804023444e-08,1.638263066834743887e-06,4.198653605861052422e-09,4.990909812025239419e-06,2.720442083528632229e-08,4.765472687413537653e-06,2.720070217155245228e-08
1.840000000000000000e+03,1.860000000000000000e+03,1.191982944591405970e-06,6.409178063503611197e-09,2.699144846375614078e-07,1.068788926951045740e-09,7.631381153560118993e-07,1.027144192075136426e-08,2.137496901025857273e-07,1.538616393435805573e-09,7.461303543842159831e-07,1.027088526919634617e-08,7.092843181210233288e-07,1.026905573990904792e-08
1.860000000000000000e+03,1.880000000000000000e+03,0.000000000000000000e+00,0.000000000000000000e+00,0.000000000000000000e+00,0.000000000000000000e+00,0.000000000000000000e+00,0.000000000000000000e+00,0.000000000000000000e+00,0.000000000000000000e+00,0.000000000000000000e+00,0.000000000000000000e+00,0.000000000000000000e+00,0.000000000000000000e+00
1.880000000000000000e+03,1.900000000000000000e+03,0.000000000000000000e+00,0.000000000000000000e+00,0.000000000000000000e+00,0.000000000000000000e+00,0.000000000000000000e+00,0.000000000000000000e+00,0.000000000000000000e+00,0.000000000000000000e+00,0.000000000000000000e+00,0.000000000000000000e+00,0.000000000000000000e+00,0.000000000000000000e+00
1.900000000000000000e+03,1.920000000000000000e+03,0.000000000000000000e+00,0.000000000000000000e+00,0.000000000000000000e+00,0.000000000000000000e+00,0.000000000000000000e+00,0.000000000000000000e+00,0.000000000000000000e+00,0.000000000000000000e+00,0.000000000000000000e+00,0.000000000000000000e+00,0.000000000000000000e+00,0.000000000000000000e+00
1.920000000000000000e+03,1.940000000000000000e+03,0.000000000000000000e+00,0.000000000000000000e+00,0.000000000000000000e+00,0.000000000000000000e+00,0.000000000000000000e+00,0.000000000000000000e+00,0.000000000000000000e+00,0.000000000000000000e+00,0.000000000000000000e+00,0.000000000000000000e+00,0.000000000000000000e+00,0.000000000000000000e+00
1.940000000000000000e+03,1.960000000000000000e+03,0.000000000000000000e+00,0.000000000000000000e+00,0.000000000000000000e+00,0.000000000000000000e+00,0.000000000000000000e+00,0.000000000000000000e+00,0.000000000000000000e+00,0.000000000000000000e+00,0.000000000000000000e+00,0.000000000000000000e+00,0.000000000000000000e+00,0.000000000000000000e+00
1.960000000000000000e+03,1.980000000000000000e+03,0.000000000000000000e+00,0.000000000000000000e+00,0.000000000000000000e+00,0.000000000000000000e+00,0.000000000000000000e+00,0.000000000000000000e+00,0.000000000000000000e+00,0.000000000000000000e+00,0.000000000000000000e+00,0.000000000000000000e+00,0.000000000000000000e+00,0.000000000000000000e+00
1.980000000000000000e+03,2.000000000000000000e+03,0.000000000000000000e+00,0.000000000000000000e+00,0.000000000000000000e+00,0.000000000000000000e+00,0.000000000000000000e+00,0.000000000000000000e+00,0.000000000000000000e+00,0.000000000000000000e+00,0.000000000000000000e+00,0.000000000000000000e+00,0.000000000000000000e+00,0.000000000000000000e+00
