# xl,xh,LO,dLO,LOISC,dLOISC,NLO,dNLO,NLOISC,dNLOISC,NLOL,dNLOL,NLOnovp,dNLOnovp
2.500000000000000000e+01,5.000000000000000000e+01,0.000000000000000000e+00,0.000000000000000000e+00,0.000000000000000000e+00,0.000000000000000000e+00,0.000000000000000000e+00,0.000000000000000000e+00,0.000000000000000000e+00,0.000000000000000000e+00,0.000000000000000000e+00,0.000000000000000000e+00,0.000000000000000000e+00,0.000000000000000000e+00
5.000000000000000000e+01,7.500000000000000000e+01,0.000000000000000000e+00,0.000000000000000000e+00,0.000000000000000000e+00,0.000000000000000000e+00,0.000000000000000000e+00,0.000000000000000000e+00,0.000000000000000000e+00,0.000000000000000000e+00,0.000000000000000000e+00,0.000000000000000000e+00,0.000000000000000000e+00,0.000000000000000000e+00
7.500000000000000000e+01,1.000000000000000000e+02,0.000000000000000000e+00,0.000000000000000000e+00,0.000000000000000000e+00,0.000000000000000000e+00,0.000000000000000000e+00,0.000000000000000000e+00,0.000000000000000000e+00,0.000000000000000000e+00,0.000000000000000000e+00,0.000000000000000000e+00,0.000000000000000000e+00,0.000000000000000000e+00
1.000000000000000000e+02,1.250000000000000000e+02,0.000000000000000000e+00,0.000000000000000000e+00,0.000000000000000000e+00,0.000000000000000000e+00,0.000000000000000000e+00,0.000000000000000000e+00,0.000000000000000000e+00,0.000000000000000000e+00,0.000000000000000000e+00,0.000000000000000000e+00,0.000000000000000000e+00,0.000000000000000000e+00
1.250000000000000000e+02,1.500000000000000000e+02,0.000000000000000000e+00,0.000000000000000000e+00,0.000000000000000000e+00,0.000000000000000000e+00,0.000000000000000000e+00,0.000000000000000000e+00,0.000000000000000000e+00,0.000000000000000000e+00,0.000000000000000000e+00,0.000000000000000000e+00,0.000000000000000000e+00,0.000000000000000000e+00
1.500000000000000000e+02,1.750000000000000000e+02,0.000000000000000000e+00,0.000000000000000000e+00,0.000000000000000000e+00,0.000000000000000000e+00,0.000000000000000000e+00,0.000000000000000000e+00,0.000000000000000000e+00,0.000000000000000000e+00,0.000000000000000000e+00,0.000000000000000000e+00,0.000000000000000000e+00,0.000000000000000000e+00
1.750000000000000000e+02,2.000000000000000000e+02,0.000000000000000000e+00,0.000000000000000000e+00,0.000000000000000000e+00,0.000000000000000000e+00,0.000000000000000000e+00,0.000000000000000000e+00,0.000000000000000000e+00,0.000000000000000000e+00,0.000000000000000000e+00,0.000000000000000000e+00,0.000000000000000000e+00,0.000000000000000000e+00
2.000000000000000000e+02,2.250000000000000000e+02,0.000000000000000000e+00,0.000000000000000000e+00,0.000000000000000000e+00,0.000000000000000000e+00,0.000000000000000000e+00,0.000000000000000000e+00,0.000000000000000000e+00,0.000000000000000000e+00,0.000000000000000000e+00,0.000000000000000000e+00,0.000000000000000000e+00,0.000000000000000000e+00
2.250000000000000000e+02,2.500000000000000000e+02,0.000000000000000000e+00,0.000000000000000000e+00,0.000000000000000000e+00,0.000000000000000000e+00,0.000000000000000000e+00,0.000000000000000000e+00,0.000000000000000000e+00,0.000000000000000000e+00,0.000000000000000000e+00,0.000000000000000000e+00,0.000000000000000000e+00,0.000000000000000000e+00
2.500000000000000000e+02,2.750000000000000000e+02,0.000000000000000000e+00,0.000000000000000000e+00,0.000000000000000000e+00,0.000000000000000000e+00,0.000000000000000000e+00,0.000000000000000000e+00,0.000000000000000000e+00,0.000000000000000000e+00,0.000000000000000000e+00,0.000000000000000000e+00,0.000000000000000000e+00,0.000000000000000000e+00
2.750000000000000000e+02,3.000000000000000000e+02,0.000000000000000000e+00,0.000000000000000000e+00,0.000000000000000000e+00,0.000000000000000000e+00,0.000000000000000000e+00,0.000000000000000000e+00,0.000000000000000000e+00,0.000000000000000000e+00,0.000000000000000000e+00,0.000000000000000000e+00,0.000000000000000000e+00,0.000000000000000000e+00
3.000000000000000000e+02,3.250000000000000000e+02,0.000000000000000000e+00,0.000000000000000000e+00,0.000000000000000000e+00,0.000000000000000000e+00,0.000000000000000000e+00,0.000000000000000000e+00,0.000000000000000000e+00,0.000000000000000000e+00,0.000000000000000000e+00,0.000000000000000000e+00,0.000000000000000000e+00,0.000000000000000000e+00
3.250000000000000000e+02,3.500000000000000000e+02,0.000000000000000000e+00,0.000000000000000000e+00,0.000000000000000000e+00,0.000000000000000000e+00,0.000000000000000000e+00,0.000000000000000000e+00,0.000000000000000000e+00,0.000000000000000000e+00,0.000000000000000000e+00,0.000000000000000000e+00,0.000000000000000000e+00,0.000000000000000000e+00
3.500000000000000000e+02,3.750000000000000000e+02,0.000000000000000000e+00,0.000000000000000000e+00,0.000000000000000000e+00,0.000000000000000000e+00,0.000000000000000000e+00,0.000000000000000000e+00,0.000000000000000000e+00,0.000000000000000000e+00,0.000000000000000000e+00,0.000000000000000000e+00,0.000000000000000000e+00,0.000000000000000000e+00
3.750000000000000000e+02,4.000000000000000000e+02,0.000000000000000000e+00,0.000000000000000000e+00,0.000000000000000000e+00,0.000000000000000000e+00,0.000000000000000000e+00,0.000000000000000000e+00,0.000000000000000000e+00,0.000000000000000000e+00,0.000000000000000000e+00,0.000000000000000000e+00,0.000000000000000000e+00,0.000000000000000000e+00
4.000000000000000568e+02,4.250000000000000568e+02,1.914768098307025325e-07,7.363854620356735666e-11,8.188310851674842474e-08,6.430412606776919252e-11,3.395077397632063151e-06,3.856910131560196672e-09,3.285483696318109016e-06,3.856743204839292217e-09,3.395077397632063151e-06,3.856910131560196672e-09,3.395077397632063151e-06,3.856910131560196672e-09
4.250000000000000568e+02,4.500000000000000568e+02,1.813478142015607317e-07,6.793698235018743206e-11,7.985139420516862952e-08,6.261417683609185291e-11,3.293719656625482221e-06,3.491754039035060593e-09,3.192223236629090224e-06,3.491654531978739844e-09,3.293719656625482221e-06,3.491754039035060593e-09,3.293719656625482221e-06,3.491754039035060593e-09
4.500000000000000568e+02,4.750000000000000568e+02,1.724710692488727276e-07,6.461375749755375359e-11,7.822211313313592086e-08,6.075178237909159318e-11,3.221704693174105909e-06,3.326863872153316054e-09,3.127455737058369009e-06,3.326791106343053567e-09,3.221704693174105909e-06,3.326863872153316054e-09,3.221704693174105909e-06,3.326863872153316054e-09
4.750000000000000568e+02,5.000000000000000568e+02,1.645150245097090595e-07,6.273519059811727607e-11,7.672208607843683712e-08,5.867620888073597511e-11,3.150597482658476987e-06,3.522312373831937783e-09,3.062804544227204831e-06,3.522242418147679622e-09,3.150597482658476987e-06,3.522312373831937783e-09,3.150597482658476987e-06,3.522312373831937783e-09
5.000000000000000000e+02,5.250000000000000000e+02,1.575593226031590774e-07,6.096314252958728450e-11,7.563320107160337523e-08,5.582172126677961487e-11,3.099288580455216885e-06,3.814512482907372947e-09,3.017362458923661143e-06,3.814433777387447555e-09,3.099288580455216885e-06,3.814512482907372947e-09,3.099288580455216885e-06,3.814512482907372947e-09
5.250000000000000000e+02,5.500000000000000000e+02,1.515762613376949637e-07,6.312739559653591145e-11,7.489216681591987847e-08,5.827323080065311093e-11,3.053132967221854750e-06,3.658196165192284565e-09,2.976448872700079757e-06,3.658115619329257965e-09,3.053132967221854750e-06,3.658196165192284565e-09,3.053132967221854750e-06,3.658196165192284565e-09
5.500000000000000000e+02,5.750000000000000000e+02,1.461918058581309289e-07,6.285799513261613156e-11,7.429876028939534319e-08,5.816109809019122762e-11,3.038910653906764684e-06,3.378504152903056892e-09,2.967017608338028886e-06,3.378420029682834481e-09,3.038910653906764684e-06,3.378504152903056892e-09,3.038910653906764684e-06,3.378504152903056892e-09
5.750000000000000000e+02,6.000000000000000000e+02,1.414960692687606929e-07,6.091508631090766095e-11,7.400406213957916335e-08,5.590661391543315221e-11,3.014682475477008905e-06,3.776883390049379266e-09,2.947190468347827375e-06,3.776805931441291260e-09,3.014682475477008905e-06,3.776883390049379266e-09,3.014682475477008905e-06,3.776883390049379266e-09
6.000000000000000000e+02,6.250000000000000000e+02,1.373898273461481625e-07,6.565744009651780372e-11,7.392397482966033366e-08,6.146227744323903427e-11,3.008900153220923692e-06,3.859642498521841989e-09,2.945434300704435916e-06,3.859573412762660650e-09,3.008900153220923692e-06,3.859642498521841989e-09,3.008900153220923692e-06,3.859642498521841989e-09
6.250000000000000000e+02,6.500000000000000000e+02,1.335874123713033272e-07,6.257555145894340681e-11,7.385114815393001194e-08,5.825793479987537793e-11,3.022979841791010334e-06,4.069477268000619602e-09,2.963243577573637244e-06,4.069413166796969487e-09,3.022979841791010334e-06,4.069477268000619602e-09,3.022979841791010334e-06,4.069477268000619602e-09
6.500000000000000000e+02,6.750000000000000000e+02,1.306813341943350847e-07,6.535837209179303215e-11,7.436085314223922138e-08,6.128970978036504220e-11,3.028619422276364873e-06,3.934920141511571341e-09,2.972298941224269102e-06,3.934854664634504365e-09,3.028619422276364873e-06,3.934920141511571341e-09,3.028619422276364873e-06,3.934920141511571341e-09
6.750000000000000000e+02,7.000000000000000000e+02,1.280211530807551727e-07,6.332680443290581955e-11,7.477120695832707563e-08,5.969112398014459457e-11,3.056795776791001326e-06,3.765535766219716960e-09,3.003545830668573415e-06,3.765476377937091905e-09,3.056795776791001326e-06,3.765535766219716960e-09,3.056795776791001326e-06,3.765535766219716960e-09
7.000000000000000000e+02,7.250000000000000000e+02,1.256342341084659045e-07,6.036364503230335729e-11,7.539577460820111186e-08,5.633339570145683288e-11,3.084480975619422898e-06,4.062385028525206510e-09,3.034242516119158225e-06,4.062327141161259475e-09,3.084480975619422898e-06,4.062385028525206510e-09,3.084480975619422898e-06,4.062385028525206510e-09
7.250000000000000000e+02,7.500000000000000000e+02,1.239773573977444874e-07,6.457276750084782245e-11,7.644762840918787693e-08,6.071673419923478677e-11,3.129457114907029064e-06,4.222879209334161170e-09,3.081927385918472348e-06,4.222822006210516210e-09,3.129457114907029064e-06,4.222879209334161170e-09,3.129457114907029064e-06,4.222879209334161170e-09
7.500000000000000000e+02,7.750000000000000000e+02,1.226020006605378138e-07,6.451524249040407551e-11,7.760038503013326361e-08,6.071037715816045585e-11,3.183630656783234139e-06,4.503865731265635847e-09,3.138629041152829417e-06,4.503812835659363342e-09,3.183630656783234139e-06,4.503865731265635847e-09,3.183630656783234139e-06,4.503865731265635847e-09
7.750000000000000000e+02,8.000000000000000000e+02,1.216019294781451884e-07,6.106107695832018006e-11,7.892537413146298800e-08,5.709514900179764416e-11,3.246346623326750564e-06,4.228589159828784114e-09,3.203670067980068231e-06,4.228533751023127739e-09,3.246346623326750564e-06,4.228589159828784114e-09,3.246346623326750564e-06,4.228589159828784114e-09
8.000000000000000000e+02,8.250000000000000000e+02,1.211430956066476326e-07,6.546612905144731497e-11,8.072409539342527341e-08,6.215597630942251993e-11,3.305904174202745042e-06,4.517272679189038332e-09,3.265485173989522749e-06,4.517225919686296452e-09,3.305904174202745042e-06,4.517272679189038332e-09,3.305904174202745042e-06,4.517272679189038332e-09
8.249999999999998863e+02,8.499999999999998863e+02,1.207943789686228436e-07,6.936047095881027056e-11,8.245152740386236532e-08,6.582628342720933121e-11,3.387091753011871786e-06,4.567003623827178210e-09,3.348748901447111479e-06,4.566951316218379551e-09,3.387091753011871786e-06,4.567003623827178210e-09,3.387091753011871786e-06,4.567003623827178210e-09
8.499999999999998863e+02,8.749999999999998863e+02,1.211616183928650783e-07,7.064027997707277120e-11,8.476917131923945963e-08,6.774788720232247155e-11,3.469837116466178738e-06,4.670715901555793259e-09,3.433444669392553358e-06,4.670673052153327430e-09,3.469837116466178738e-06,4.670715901555793259e-09,3.469837116466178738e-06,4.670715901555793259e-09
8.749999999999998863e+02,8.999999999999998863e+02,1.219194492145815653e-07,6.874567330747700362e-11,8.733784665406405336e-08,6.575315412631900082e-11,3.564685952466944501e-06,4.954334100241421613e-09,3.530104349906426777e-06,4.954293480052836631e-09,3.564685952466944501e-06,4.954334100241421613e-09,3.564685952466944501e-06,4.954334100241421613e-09
8.999999999999998863e+02,9.249999999999998863e+02,1.231501748388014647e-07,7.122026569128915056e-11,9.035684105541515724e-08,6.793451128887407970e-11,3.677178788145155031e-06,5.040484919876076295e-09,3.644385454361768789e-06,5.040439564073460979e-09,3.677178788145155031e-06,5.040484919876076295e-09,3.677178788145155031e-06,5.040484919876076295e-09
9.249999999999998863e+02,9.499999999999998863e+02,1.248216477873334506e-07,7.525459405490247275e-11,9.362772012687432532e-08,7.256652629989664368e-11,3.796306653910896128e-06,4.905674141000888452e-09,3.765112726250436685e-06,4.905633641487883917e-09,3.796306653910896128e-06,4.905674141000888452e-09,3.796306653910896128e-06,4.905674141000888452e-09
9.499999999999998863e+02,9.749999999999998863e+02,1.273838355964050911e-07,7.494852210782585905e-11,9.770603709623180035e-08,7.234240710890889278e-11,3.901415570119518865e-06,5.264451711903985226e-09,3.871737771619345866e-06,5.264415254315426939e-09,3.901415570119518865e-06,5.264451711903985226e-09,3.901415570119518865e-06,5.264451711903985226e-09
9.749999999999998863e+02,9.999999999999998863e+02,1.303757073718183453e-07,8.195756112810864232e-11,1.021699028314050136e-07,7.948995665252975174e-11,4.030617806079644396e-06,5.219163787443848669e-09,4.002412001539231143e-06,5.219125621361089589e-09,4.030617806079644396e-06,5.219163787443848669e-09,4.030617806079644396e-06,5.219163787443848669e-09
9.999999999999998863e+02,1.025000000000000000e+03,1.339718713056027760e-07,8.510769410476728822e-11,1.071631382758094016e-07,8.240608841365382466e-11,4.162859735561513109e-06,5.154089307883415585e-09,4.136051002531719867e-06,5.154045405062896854e-09,4.162859735561513109e-06,5.154089307883415585e-09,4.162859735561513109e-06,5.154089307883415585e-09
1.025000000000000000e+03,1.050000000000000000e+03,1.390924664819250155e-07,8.655195851550223450e-11,1.135246753837583003e-07,8.417038861066029335e-11,4.306193365189615021e-06,5.701412858385418701e-09,4.280625574091448174e-06,5.701377201567932793e-09,4.306193365189615021e-06,5.701412858385418701e-09,4.306193365189615021e-06,5.701412858385418701e-09
1.050000000000000000e+03,1.075000000000000000e+03,1.450496244462635478e-07,1.018470247521249356e-10,1.207423091580758225e-07,9.992520019006241941e-11,4.459933146755186648e-06,5.709996717649707529e-09,4.435625831466998631e-06,5.709962762116106563e-09,4.459933146755186648e-06,5.709996717649707529e-09,4.459933146755186648e-06,5.709996717649707529e-09
1.075000000000000000e+03,1.100000000000000000e+03,1.524599213016126645e-07,9.997898020021452359e-11,1.293404633689346275e-07,9.804245713116736879e-11,4.615045073033798511e-06,5.785796712342541624e-09,4.591925615101120792e-06,5.785763573070731902e-09,4.615045073033798511e-06,5.785796712342541624e-09,4.615045073033798511e-06,5.785796712342541624e-09
1.100000000000000000e+03,1.125000000000000000e+03,1.618044338493454993e-07,1.000242234300316412e-10,1.398122193329787715e-07,9.789338129780103827e-11,4.779985725318706066e-06,5.784460041732125582e-09,4.757993510802339656e-06,5.784423587811041286e-09,4.779985725318706066e-06,5.784460041732125582e-09,4.779985725318706066e-06,5.784460041732125582e-09
1.125000000000000000e+03,1.150000000000000000e+03,1.734229542457079484e-07,1.157588256742906451e-10,1.524904457832603765e-07,1.139242555125825643e-10,4.957616130502567984e-06,5.992168001703849561e-09,4.936683622040120332e-06,5.992132841561183778e-09,4.957616130502567984e-06,5.992168001703849561e-09,4.957616130502567984e-06,5.992168001703849561e-09
1.150000000000000000e+03,1.175000000000000000e+03,1.880886122181473068e-07,1.259404464450300640e-10,1.681919436683579975e-07,1.243122981861120999e-10,5.149866748159877150e-06,6.256976459389570472e-09,5.129970079610087761e-06,6.256943899763268878e-09,5.149866748159877150e-06,6.256976459389570472e-09,5.149866748159877150e-06,6.256976459389570472e-09
1.175000000000000000e+03,1.200000000000000000e+03,2.072123233284442746e-07,1.488589547336244373e-10,1.882241728621143891e-07,1.474325925605215441e-10,5.365797288542136504e-06,6.751427747272880054e-09,5.346809138075807015e-06,6.751396448705326040e-09,5.365797288542136504e-06,6.751427747272880054e-09,5.365797288542136504e-06,6.751427747272880054e-09
1.200000000000000000e+03,1.225000000000000000e+03,2.323698001604551697e-07,1.575740010618765294e-10,2.143436950484221295e-07,1.563323807774657091e-10,5.592271690226099587e-06,6.391705310205247126e-09,5.574245585114066123e-06,6.391674821201001399e-09,5.592271690226099587e-06,6.391705310205247126e-09,5.592271690226099587e-06,6.391705310205247126e-09
1.225000000000000000e+03,1.250000000000000000e+03,2.681334448483051962e-07,1.898425467127947397e-10,2.509481532182569687e-07,1.887805583098943166e-10,5.852153357966857355e-06,5.945631942262563379e-09,5.834968066336809128e-06,5.945598127985636089e-09,5.852153357966857355e-06,5.945631942262563379e-09,5.852153357966857355e-06,5.945631942262563379e-09
1.250000000000000000e+03,1.275000000000000000e+03,3.196971843204323387e-07,2.336414684104085832e-10,3.033959375523449527e-07,2.327933319890565450e-10,6.143478677841174202e-06,6.631729517251555664e-09,6.127177431073086605e-06,6.631699690851746870e-09,6.143478677841174202e-06,6.631729517251555664e-09,6.143478677841174202e-06,6.631729517251555664e-09
1.275000000000000000e+03,1.300000000000000000e+03,4.010145796576870990e-07,2.828855415590551574e-10,3.854842561698518789e-07,2.821855760196227555e-10,6.488686719179243203e-06,7.167167897427302370e-09,6.473156395691408036e-06,7.167140304166151215e-09,6.488686719179243203e-06,7.167167897427302370e-09,6.488686719179243203e-06,7.167167897427302370e-09
1.300000000000000000e+03,1.325000000000000000e+03,5.396759950509020774e-07,3.662890810887594931e-10,5.249270424487039441e-07,3.657862883096237979e-10,6.872085460556728509e-06,6.783673582591440463e-09,6.857336507954530694e-06,6.783646452531225143e-09,6.872085460556728509e-06,6.783673582591440463e-09,6.872085460556728509e-06,6.783673582591440463e-09
1.325000000000000000e+03,1.350000000000000000e+03,7.517748465539289127e-07,5.056346742256193409e-10,7.377741312881036703e-07,5.052303064204866971e-10,7.339612773000579857e-06,7.329043527405549625e-09,7.325612057734754297e-06,7.329015640954224806e-09,7.339612773000579857e-06,7.329043527405549625e-09,7.339612773000579857e-06,7.329043527405549625e-09
1.350000000000000000e+03,1.375000000000000000e+03,7.565189333761610267e-07,4.896602254336324914e-10,7.432102297560577767e-07,4.892104145745030462e-10,7.648739686285530040e-06,7.382475878541351546e-09,7.635430982665426260e-06,7.382446057412227600e-09,7.648739686285530040e-06,7.382475878541351546e-09,7.648739686285530040e-06,7.382475878541351546e-09
1.375000000000000000e+03,1.400000000000000000e+03,4.737229411379668016e-07,3.011819055242424589e-10,4.610741902286713582e-07,3.004998841058892582e-10,7.846548402959014297e-06,7.658860111049087563e-09,7.833899652049718801e-06,7.658833321123478790e-09,7.846548402959014297e-06,7.658860111049087563e-09,7.846548402959014297e-06,7.658860111049087563e-09
1.400000000000000000e+03,1.425000000000000000e+03,4.217568164046837319e-07,2.659105667823067296e-10,4.097787045520284889e-07,2.650525360992668906e-10,8.271934350570769591e-06,7.841300867733775913e-09,8.259956238718113236e-06,7.841271817485262571e-09,8.271934350570769591e-06,7.841300867733775913e-09,8.271934350570769591e-06,7.841300867733775913e-09
1.425000000000000000e+03,1.450000000000000000e+03,5.449868539622550817e-07,3.869171921076886030e-10,5.336414679559028667e-07,3.863426817727067080e-10,8.879304162043378580e-06,8.233027549400909165e-09,8.867958776037026365e-06,8.233000569865471336e-09,8.879304162043378580e-06,8.233027549400909165e-09,8.879304162043378580e-06,8.233027549400909165e-09
1.450000000000000000e+03,1.475000000000000000e+03,7.945522704610201875e-07,4.960256684091636997e-10,7.838359209133468187e-07,4.956495332479436122e-10,9.637301495744551340e-06,8.303872266058458499e-09,9.626585146196877971e-06,8.303849806391189042e-09,9.637301495744551340e-06,8.303872266058458499e-09,9.637301495744551340e-06,8.303872266058458499e-09
1.475000000000000000e+03,1.500000000000000000e+03,1.214147777619211722e-06,7.672746044329690531e-10,1.203986768378465013e-06,7.669859782965480210e-10,1.060838961221216646e-05,8.872372670733894639e-09,1.059822860297141954e-05,8.872347715271390234e-09,1.060838961221216646e-05,8.872372670733894639e-09,1.060838961221216646e-05,8.872372670733894639e-09
1.500000000000000000e+03,1.525000000000000000e+03,1.906476004936605483e-06,1.250436891841040253e-09,1.896923460417634650e-06,1.250190180235737352e-09,1.188071948388586864e-05,9.076602190850313444e-09,1.187116693936689865e-05,9.076568205948186780e-09,1.188071948388586864e-05,9.076602190850313444e-09,1.188071948388586864e-05,9.076602190850313444e-09
1.525000000000000000e+03,1.550000000000000000e+03,2.933297297224507542e-06,1.808290811807194070e-09,2.924236515480882941e-06,1.808138221858371731e-09,1.346948172075649458e-05,8.797176699934744751e-09,1.346042093901287040e-05,8.797145335798061752e-09,1.346948172075649458e-05,8.797176699934744751e-09,1.346948172075649458e-05,8.797176699934744751e-09
1.550000000000000000e+03,1.575000000000000000e+03,4.008163292945138258e-06,2.238561742460217606e-09,3.999677665136519462e-06,2.238425554077478387e-09,1.519195380774649969e-05,9.474553004318414103e-09,1.518346817993787920e-05,9.474520827882517978e-09,1.519195380774649969e-05,9.474553004318414103e-09,1.519195380774649969e-05,9.474553004318414103e-09
1.575000000000000000e+03,1.600000000000000000e+03,4.326204387099623892e-06,2.169853148281646924e-09,4.318237926055756944e-06,2.169680272393419041e-09,1.644430428720837967e-05,9.858358502024206706e-09,1.643633782616451357e-05,9.858320452984796941e-09,1.644430428720837967e-05,9.858358502024206706e-09,1.644430428720837967e-05,9.858358502024206706e-09
1.600000000000000000e+03,1.625000000000000000e+03,3.587006083266535291e-06,1.626760573344789728e-09,3.579545512430710450e-06,1.626527504713583458e-09,1.714557203703031266e-05,1.031261892524004365e-08,1.713811146619448740e-05,1.031258216247608005e-08,1.714557203703031266e-05,1.031261892524004365e-08,1.714557203703031266e-05,1.031261892524004365e-08
1.625000000000000000e+03,1.650000000000000000e+03,2.372161711802772981e-06,1.106080423893130908e-09,2.365240250251926156e-06,1.105908299292362325e-09,1.781825527081988458e-05,1.048281996083246446e-08,1.781133380926903733e-05,1.048280180073780042e-08,1.781825527081988458e-05,1.048281996083246446e-08,1.781825527081988458e-05,1.048281996083246446e-08
1.650000000000000000e+03,1.675000000000000000e+03,1.183350571457141060e-06,5.068185265572948461e-10,1.177008987007793346e-06,5.067416791735899967e-10,1.896307760164861223e-05,1.121728607833841186e-08,1.895673601719926430e-05,1.121728260648873514e-08,1.896307760164861223e-05,1.121728607833841186e-08,1.896307760164861223e-05,1.121728607833841186e-08
1.675000000000000000e+03,1.700000000000000000e+03,2.861737980482039442e-07,1.585537274445209649e-10,2.804624564922972167e-07,1.583220632106796556e-10,2.088830692025304441e-05,1.082322746732056240e-08,2.088259557869713651e-05,1.082322407605862268e-08,2.088830692025304441e-05,1.082322746732056240e-08,2.088830692025304441e-05,1.082322746732056240e-08
1.700000000000000000e+03,1.725000000000000000e+03,3.806696037318435827e-07,1.753820917585492478e-10,3.756184889949017576e-07,1.749184949823539812e-10,2.437647021509211520e-05,1.261086132860627630e-08,2.437141910035517316e-05,1.261085488978104674e-08,2.437647021509211520e-05,1.261086132860627630e-08,2.437647021509211520e-05,1.261086132860627630e-08
1.725000000000000000e+03,1.750000000000000000e+03,2.885151357706588078e-06,1.251200683853475592e-09,2.880650103649308094e-06,1.251039561662897686e-09,3.059179940803657857e-05,1.154239604414765390e-08,3.058729815397929943e-05,1.154237857954441403e-08,3.059179940803657857e-05,1.154239604414765390e-08,3.059179940803657857e-05,1.154239604414765390e-08
1.750000000000000000e+03,1.775000000000000000e+03,8.132656063811485137e-06,2.782802598076852171e-09,8.128514463724826239e-06,2.782668500670864368e-09,3.988699463471393706e-05,1.317133272561156429e-08,3.988285303462727816e-05,1.317130439453620276e-08,3.988699463471393706e-05,1.317133272561156429e-08,3.988699463471393706e-05,1.317133272561156429e-08
1.775000000000000000e+03,1.800000000000000000e+03,1.472038674358477842e-05,4.436844951740001385e-09,1.471654951183910913e-05,4.436723394516493788e-09,5.188525836514061075e-05,1.519661797631569256e-08,5.188142113339494146e-05,1.519658248659054658e-08,5.188525836514061075e-05,1.519661797631569256e-08,5.188525836514061075e-05,1.519661797631569256e-08
1.800000000000000000e+03,1.825000000000000000e+03,2.302294779140334828e-05,5.056981041496090271e-09,2.301942954022976467e-05,5.056851239482745050e-09,6.806189106920403011e-05,1.575488749221964504e-08,6.805837281803045328e-05,1.575484582903642007e-08,6.806189106920403011e-05,1.575488749221964504e-08,6.806189106920403011e-05,1.575488749221964504e-08
1.825000000000000000e+03,1.850000000000000000e+03,3.700937814643695826e-05,6.678880322186767110e-09,3.700602523840154244e-05,6.678768311340573780e-09,9.398356022756545363e-05,1.808123783466379893e-08,9.398020731953003780e-05,1.808119646019452674e-08,9.398356022756545363e-05,1.808123783466379893e-08,9.398356022756545363e-05,1.808123783466379893e-08
1.850000000000000000e+03,1.875000000000000000e+03,6.969818417694697752e-05,8.954934662910917530e-09,6.969499354420692215e-05,8.954804588364431189e-09,1.445070000535132824e-04,1.930553884686662697e-08,1.445038094207732270e-04,1.930547851172473774e-08,1.445070000535132824e-04,1.930553884686662697e-08,1.445070000535132824e-04,1.930553884686662697e-08
1.875000000000000000e+03,1.900000000000000000e+03,1.823084195412080115e-04,1.404543665938161327e-08,1.823054113750351482e-04,1.404532923686818114e-08,2.792583144238200985e-04,2.613204384884527928e-08,2.792553062576472352e-04,2.613198611160842363e-08,2.792583144238200985e-04,2.613204384884527928e-08,2.792583144238200985e-04,2.613204384884527928e-08
1.900000000000000000e+03,1.925000000000000000e+03,8.795288220383331006e-04,2.348759852993967755e-08,8.795258815199876812e-04,2.348752646058137418e-08,8.512163579713167769e-04,3.369612828704814392e-08,8.512134174529713574e-04,3.369607805175688067e-08,8.512163579713167769e-04,3.369612828704814392e-08,8.512163579713167769e-04,3.369612828704814392e-08
1.925000000000000000e+03,1.950000000000000000e+03,1.472412369373485123e-03,2.362877878493077266e-08,1.472409534188270268e-03,2.362866426095022592e-08,1.068157424001877362e-03,3.496333282450345252e-08,1.068154588816662507e-03,3.496325542747002508e-08,1.068157424001877362e-03,3.496333282450345252e-08,1.068157424001877362e-03,3.496333282450345252e-08
1.950000000000000000e+03,1.975000000000000000e+03,3.933854378229570902e-04,2.228779870303107546e-08,3.933826494874285290e-04,2.228767162302796577e-08,2.857617579145058312e-04,2.657331874924928461e-08,2.857589695789772700e-04,2.657321216372412387e-08,2.857617579145058312e-04,2.657331874924928461e-08,2.857617579145058312e-04,2.657331874924928461e-08
1.975000000000000000e+03,2.000000000000000000e+03,8.879538917176942872e-05,8.518939912638536337e-09,8.879393585974287937e-05,8.518857405120938776e-09,5.775687432804433891e-05,1.186068425789498621e-08,5.775542101601778956e-05,1.186062499698544187e-08,5.775687432804433891e-05,1.186068425789498621e-08,5.775687432804433891e-05,1.186068425789498621e-08
