# xl,xh,LO,dLO,LOISC,dLOISC,NLO,dNLO,NLOISC,dNLOISC,NLOL,dNLOL,NLOnovp,dNLOnovp
3.000000000000000000e+02,3.200000000000000000e+02,6.614777103274227998e-06,2.706241227172410310e-09,6.614408472981169048e-06,2.706227877945390620e-09,8.045897097772427417e-06,6.113806119663010845e-09,8.045528467479368467e-06,6.113800210715923193e-09,8.045897097772427417e-06,6.113806119663010845e-09,8.045897097772427417e-06,6.113806119663010845e-09
3.200000000000000000e+02,3.400000000000000000e+02,1.245735574819101983e-05,3.902803351696062335e-09,1.245665085025290784e-05,3.902784604499455826e-09,1.505010915563961192e-05,8.879550093228449325e-09,1.504940425770149993e-05,8.879541853342508949e-09,1.505010915563961192e-05,8.879550093228449325e-09,1.505010915563961192e-05,8.879550093228449325e-09
3.400000000000000000e+02,3.600000000000000000e+02,1.673097208347965701e-05,4.819303077195934821e-09,1.673000093758215582e-05,4.819281204758472588e-09,2.007364972656585923e-05,1.122604394025386919e-08,2.007267858066835804e-05,1.122603455050707925e-08,2.007364972656585923e-05,1.122604394025386919e-08,2.007364972656585923e-05,1.122604394025386919e-08
3.600000000000000000e+02,3.800000000000000000e+02,2.054155921731620391e-05,5.883178340772058531e-09,2.054033640704621509e-05,5.883152573180296838e-09,2.447960864427635701e-05,1.377650358237094031e-08,2.447838583400636819e-05,1.377649257848556524e-08,2.447960864427635701e-05,1.377650358237094031e-08,2.447960864427635701e-05,1.377650358237094031e-08
3.800000000000000000e+02,4.000000000000000000e+02,2.410263794840012086e-05,6.547533887207806131e-09,2.410119107795299199e-05,6.547504011690643703e-09,2.852654132620180449e-05,1.428639348384927807e-08,2.852509445575467561e-05,1.428637979175765803e-08,2.852654132620180449e-05,1.428639348384927807e-08,2.852654132620180449e-05,1.428639348384927807e-08
4.000000000000000000e+02,4.200000000000000000e+02,2.747868511052086639e-05,6.569374194458043881e-09,2.747700579049866326e-05,6.569331381933011122e-09,3.237485148515924211e-05,1.808018253297658484e-08,3.237317216513703558e-05,1.808016697723199002e-08,3.237485148515924211e-05,1.808018253297658484e-08,3.237485148515924211e-05,1.808018253297658484e-08
4.199999999999999432e+02,4.399999999999999432e+02,3.071399116923004041e-05,7.330501207445127030e-09,3.071202036211231233e-05,7.330471910768894000e-09,3.600188496606709167e-05,1.677573321050652235e-08,3.599991415894936359e-05,1.677572040874277399e-08,3.600188496606709167e-05,1.677573321050652235e-08,3.600188496606709167e-05,1.677573321050652235e-08
4.399999999999999432e+02,4.599999999999999432e+02,3.381154614774138970e-05,7.560934794865620193e-09,3.380937449873489410e-05,7.560898834916132260e-09,3.941738507941971195e-05,1.856337655814910773e-08,3.941521343041321635e-05,1.856336191155218283e-08,3.941738507941971195e-05,1.856337655814910773e-08,3.941738507941971195e-05,1.856337655814910773e-08
4.599999999999999432e+02,4.799999999999999432e+02,3.682229314670192109e-05,8.706867830989288360e-09,3.681992240963332898e-05,8.706832051236615207e-09,4.277703440669146541e-05,1.969900809939802842e-08,4.277466366962287330e-05,1.969899228494377009e-08,4.277703440669146541e-05,1.969900809939802842e-08,4.277703440669146541e-05,1.969900809939802842e-08
4.799999999999999432e+02,4.999999999999999432e+02,3.969445303579752557e-05,8.048639053776294293e-09,3.969188090263247844e-05,8.048597284536365166e-09,4.593353187853902353e-05,2.030176832854290863e-08,4.593095974537397640e-05,2.030175176915777912e-08,4.593353187853902353e-05,2.030176832854290863e-08,4.593353187853902353e-05,2.030176832854290863e-08
4.999999999999999432e+02,5.200000000000000000e+02,4.250592626520440323e-05,8.979770953391098672e-09,4.250300828029953781e-05,8.979730617573253749e-09,4.895626671593062882e-05,2.120134046519851985e-08,4.895334873102576340e-05,2.120132338110242321e-08,4.895626671593062882e-05,2.120134046519851985e-08,4.895626671593062882e-05,2.120134046519851985e-08
5.200000000000000000e+02,5.400000000000000000e+02,4.521501086324402008e-05,9.772420521447284302e-09,4.521184496936796432e-05,9.772381772809109850e-09,5.188165875878398626e-05,2.473212339767280908e-08,5.187849286490793727e-05,2.473210808692301146e-08,5.188165875878398626e-05,2.473212339767280908e-08,5.188165875878398626e-05,2.473212339767280908e-08
5.400000000000000000e+02,5.600000000000000000e+02,4.781015492936617527e-05,8.924470193621271522e-09,4.780674283582815056e-05,8.924412064721438444e-09,5.467055261499317739e-05,2.501595164094536911e-08,5.466714052145515268e-05,2.501593090345087173e-08,5.467055261499317739e-05,2.501595164094536911e-08,5.467055261499317739e-05,2.501595164094536911e-08
5.600000000000000000e+02,5.800000000000000000e+02,5.031995665849644292e-05,1.000405159944323600e-08,5.031630510656062591e-05,1.000400699335372491e-08,5.731971427766456708e-05,2.651011333832247231e-08,5.731606272572875008e-05,2.651009650547222308e-08,5.731971427766456708e-05,2.651011333832247231e-08,5.731971427766456708e-05,2.651011333832247231e-08
5.800000000000000000e+02,6.000000000000000000e+02,5.275882581252310601e-05,1.049154903455840567e-08,5.275486263712526880e-05,1.049150616547592671e-08,5.986443633203607586e-05,2.450023222462726680e-08,5.986047315663823866e-05,2.450021386715512424e-08,5.986443633203607586e-05,2.450023222462726680e-08,5.986443633203607586e-05,2.450023222462726680e-08
6.000000000000000000e+02,6.200000000000000000e+02,5.511233822371535519e-05,1.089596727783546215e-08,5.510807079860569491e-05,1.089592040367652487e-08,6.230273394909976612e-05,2.809567489995510678e-08,6.229846652399009907e-05,2.809565672141444577e-08,6.230273394909976612e-05,2.809567489995510678e-08,6.230273394909976612e-05,2.809567489995510678e-08
6.200000000000000000e+02,6.400000000000000000e+02,5.731762877030116581e-05,1.148096843297053601e-08,5.731306734669474077e-05,1.148091484294673897e-08,6.452852002974629139e-05,3.213212010976092945e-08,6.452395860613986634e-05,3.213210096181436696e-08,6.452852002974629139e-05,3.213212010976092945e-08,6.452852002974629139e-05,3.213212010976092945e-08
6.400000000000000000e+02,6.600000000000000000e+02,5.947621549468050834e-05,1.155338801038838485e-08,5.947129590028958201e-05,1.155333876899651767e-08,6.676595655501904722e-05,3.353107274749428809e-08,6.676103696062811411e-05,3.353105578102732775e-08,6.676595655501904722e-05,3.353107274749428809e-08,6.676595655501904722e-05,3.353107274749428809e-08
6.600000000000000000e+02,6.800000000000000000e+02,6.155254461270314348e-05,1.163382604453904305e-08,6.154729111852617559e-05,1.163377706237601267e-08,6.884080382951075089e-05,2.940980141677053390e-08,6.883555033533378300e-05,2.940978204061276810e-08,6.884080382951075089e-05,2.940980141677053390e-08,6.884080382951075089e-05,2.940980141677053390e-08
6.800000000000000000e+02,7.000000000000000000e+02,6.354176101975465352e-05,1.201097536957639592e-08,6.353627128717142072e-05,1.201092586767053947e-08,7.080133248875195961e-05,3.055597112002933299e-08,7.079584275616872680e-05,3.055595166179860755e-08,7.080133248875195961e-05,3.055597112002933299e-08,7.080133248875195961e-05,3.055597112002933299e-08
7.000000000000000000e+02,7.200000000000000000e+02,6.540883040851226584e-05,1.182166096735435202e-08,6.540298129041121429e-05,1.182159221597281523e-08,7.268039732532277793e-05,3.043810538879072481e-08,7.267454820722172638e-05,3.043807868694754779e-08,7.268039732532277793e-05,3.043810538879072481e-08,7.268039732532277793e-05,3.043810538879072481e-08
7.200000000000000000e+02,7.400000000000000000e+02,6.715097763967279524e-05,1.278769739190938572e-08,6.714474552475341524e-05,1.278764872705539430e-08,7.436294457868842319e-05,3.294003744707045914e-08,7.435671246376904318e-05,3.294001855485086598e-08,7.436294457868842319e-05,3.294003744707045914e-08,7.436294457868842319e-05,3.294003744707045914e-08
7.400000000000000000e+02,7.600000000000000000e+02,6.883063973338535558e-05,1.229980018212028605e-08,6.882404639658606688e-05,1.229973903660825491e-08,7.597688658551799204e-05,3.409250306011260148e-08,7.597029324871870334e-05,3.409248100024939457e-08,7.597688658551799204e-05,3.409250306011260148e-08,7.597688658551799204e-05,3.409250306011260148e-08
7.600000000000000000e+02,7.800000000000000000e+02,7.041619485124578630e-05,1.295197947431435373e-08,7.040917549661814272e-05,1.295192675274699708e-08,7.749305196262118868e-05,4.164451668357138221e-08,7.748603260799354509e-05,4.164450028651704655e-08,7.749305196262118868e-05,4.164451668357138221e-08,7.749305196262118868e-05,4.164451668357138221e-08
7.800000000000000000e+02,8.000000000000000000e+02,7.193032681756568328e-05,1.346134226973621308e-08,7.192297936638475007e-05,1.346128915294459681e-08,7.893136619210853089e-05,3.635931112757976311e-08,7.892401874092759768e-05,3.635929146213306798e-08,7.893136619210853089e-05,3.635931112757976311e-08,7.893136619210853089e-05,3.635931112757976311e-08
8.000000000000000000e+02,8.200000000000000000e+02,7.326915979710028144e-05,1.383491288419606903e-08,7.326137124088657191e-05,1.383486279858766231e-08,8.016061460969827737e-05,3.490773140912402819e-08,8.015282605348456784e-05,3.490771155882313905e-08,8.016061460969827737e-05,3.490773140912402819e-08,8.016061460969827737e-05,3.490773140912402819e-08
8.200000000000001137e+02,8.400000000000001137e+02,7.424456985927923355e-05,1.439034655762812786e-08,7.423628787965916949e-05,1.439029025299206367e-08,8.090448156451958081e-05,3.411984737886727388e-08,8.089619958489951675e-05,3.411982363192861626e-08,8.090448156451958081e-05,3.411984737886727388e-08,8.090448156451958081e-05,3.411984737886727388e-08
8.400000000000001137e+02,8.600000000000001137e+02,7.501137743553225453e-05,1.412410763014673060e-08,7.500272361639599499e-05,1.412405712601078828e-08,8.145467821921091828e-05,4.254970511907781983e-08,8.144602440007465873e-05,4.254968835457345804e-08,8.145467821921091828e-05,4.254970511907781983e-08,8.145467821921091828e-05,4.254970511907781983e-08
8.600000000000001137e+02,8.800000000000001137e+02,7.568614849926935239e-05,1.356130617931141528e-08,7.567705405518262616e-05,1.356125346804689757e-08,8.187293705479328873e-05,3.885773630537173398e-08,8.186384261070656250e-05,3.885771790923122051e-08,8.187293705479328873e-05,3.885773630537173398e-08,8.187293705479328873e-05,3.885773630537173398e-08
8.800000000000001137e+02,9.000000000000001137e+02,7.631948879382147069e-05,1.524185792458292550e-08,7.631001170897895331e-05,1.524180198352122698e-08,8.221522067225639919e-05,4.188778021983942773e-08,8.220574358741388182e-05,4.188775986439560418e-08,8.221522067225639919e-05,4.188778021983942773e-08,8.221522067225639919e-05,4.188778021983942773e-08
9.000000000000001137e+02,9.200000000000001137e+02,7.686317374862942898e-05,1.470826032940496582e-08,7.685310114558180968e-05,1.470821293087297793e-08,8.252290592627599245e-05,3.821202651541915135e-08,8.251283332322837316e-05,3.821200827118940446e-08,8.252290592627599245e-05,3.821202651541915135e-08,8.252290592627599245e-05,3.821202651541915135e-08
9.200000000000001137e+02,9.400000000000001137e+02,7.728943062285943114e-05,1.449880145413503790e-08,7.727882612483665827e-05,1.449874252763110343e-08,8.265095906292056836e-05,4.612447467554702643e-08,8.264035456489779549e-05,4.612445615258015726e-08,8.265095906292056836e-05,4.612447467554702643e-08,8.265095906292056836e-05,4.612447467554702643e-08
9.400000000000001137e+02,9.600000000000001137e+02,7.765494169231445761e-05,1.489394416130607712e-08,7.764393422867142149e-05,1.489389291609219150e-08,8.269823502980381939e-05,3.795789091687257350e-08,8.268722756616078326e-05,3.795787080926847273e-08,8.269823502980381939e-05,3.795789091687257350e-08,8.269823502980381939e-05,3.795789091687257350e-08
9.600000000000001137e+02,9.800000000000001137e+02,7.791730702949524511e-05,1.406484286555209161e-08,7.790564746551470856e-05,1.406478612813262292e-08,8.260200429779605282e-05,3.777653134124259589e-08,8.259034473381551627e-05,3.777651021697642699e-08,8.260200429779605282e-05,3.777653134124259589e-08,8.260200429779605282e-05,3.777653134124259589e-08
9.800000000000001137e+02,1.000000000000000114e+03,7.817698978957093381e-05,1.425887567827397275e-08,7.816474982942776177e-05,1.425882044253086877e-08,8.259023306262787910e-05,3.952427075426420857e-08,8.257799310248470706e-05,3.952425082731168167e-08,8.259023306262787910e-05,3.952427075426420857e-08,8.259023306262787910e-05,3.952427075426420857e-08
1.000000000000000114e+03,1.020000000000000114e+03,7.828066884187063037e-05,1.367718393865912771e-08,7.826784354140311139e-05,1.367712760620374867e-08,8.237133168591265079e-05,3.995509255836915370e-08,8.235850638544513181e-05,3.995507327502117836e-08,8.237133168591265079e-05,3.995509255836915370e-08,8.237133168591265079e-05,3.995509255836915370e-08
1.020000000000000000e+03,1.040000000000000000e+03,7.833676099601333286e-05,1.416739920456901013e-08,7.832327991219928333e-05,1.416734412460714843e-08,8.208684298016127455e-05,4.290924599008070449e-08,8.207336189634722502e-05,4.290922780429257813e-08,8.208684298016127455e-05,4.290924599008070449e-08,8.208684298016127455e-05,4.290924599008070449e-08
1.040000000000000000e+03,1.060000000000000000e+03,7.828349117425240284e-05,1.477575381655859451e-08,7.826938528108381651e-05,1.477569935533428135e-08,8.173008057239976375e-05,4.216195564579644733e-08,8.171597467923117741e-05,4.216193655976663671e-08,8.173008057239976375e-05,4.216195564579644733e-08,8.173008057239976375e-05,4.216195564579644733e-08
1.060000000000000000e+03,1.080000000000000000e+03,7.820106387291150926e-05,1.398251822001279995e-08,7.818618916181830269e-05,1.398245995488762589e-08,8.129759489435299438e-05,3.967341427982915313e-08,8.128272018325978781e-05,3.967339374487639654e-08,8.129759489435299438e-05,3.967341427982915313e-08,8.129759489435299438e-05,3.967341427982915313e-08
1.080000000000000000e+03,1.100000000000000000e+03,7.801982805871352997e-05,1.377347312115743107e-08,7.800427590924423023e-05,1.377341560578594354e-08,8.078371314622703747e-05,4.304316823472982095e-08,8.076816099675773774e-05,4.304314983030070627e-08,8.078371314622703747e-05,4.304316823472982095e-08,8.078371314622703747e-05,4.304316823472982095e-08
1.100000000000000000e+03,1.120000000000000000e+03,7.773873802286406084e-05,1.488697189238735644e-08,7.772239480340397083e-05,1.488691818114946039e-08,8.014952663182810634e-05,4.028520932446527808e-08,8.013318341236801633e-05,4.028518947607782313e-08,8.014952663182810634e-05,4.028520932446527808e-08,8.014952663182810634e-05,4.028520932446527808e-08
1.120000000000000000e+03,1.140000000000000000e+03,7.740053415348518051e-05,1.454464978634110213e-08,7.738335941455984184e-05,1.454459678237049091e-08,7.945964172218829985e-05,4.233319102772303495e-08,7.944246698326296117e-05,4.233317281688345257e-08,7.945964172218829985e-05,4.233319102772303495e-08,7.945964172218829985e-05,4.233319102772303495e-08
1.140000000000000000e+03,1.160000000000000000e+03,7.694915180224624050e-05,1.411520896989340812e-08,7.693111690336811568e-05,1.411514913139070077e-08,7.867693760681264165e-05,3.998607145851133311e-08,7.865890270793451683e-05,3.998605033537089746e-08,7.867693760681264165e-05,3.998607145851133311e-08,7.867693760681264165e-05,3.998607145851133311e-08
1.160000000000000000e+03,1.180000000000000000e+03,7.647313063708754402e-05,1.427455521290878800e-08,7.645421005779395038e-05,1.427449947338761914e-08,7.780227322477967255e-05,4.630093780188090499e-08,7.778335264548607892e-05,4.630092061744567917e-08,7.780227322477967255e-05,4.630093780188090499e-08,7.780227322477967255e-05,4.630093780188090499e-08
1.180000000000000000e+03,1.200000000000000000e+03,7.589416915613242214e-05,1.508058736862309914e-08,7.587429560565080980e-05,1.508054397711018008e-08,7.683849613744799098e-05,4.091567010444289589e-08,7.681862258696637864e-05,4.091565411133593903e-08,7.683849613744799098e-05,4.091567010444289589e-08,7.683849613744799098e-05,4.091567010444289589e-08
1.200000000000000000e+03,1.220000000000000000e+03,7.515271271521657118e-05,1.464296371528321151e-08,7.513179626277874488e-05,1.464290373635368454e-08,7.572757505066462667e-05,4.371187690596495497e-08,7.570665859822680037e-05,4.371185681376681518e-08,7.572757505066462667e-05,4.371187690596495497e-08,7.572757505066462667e-05,4.371187690596495497e-08
1.220000000000000000e+03,1.240000000000000000e+03,7.432818440407348338e-05,1.363916266781061999e-08,7.430622410543972090e-05,1.363910088682870845e-08,7.449470199980164076e-05,3.952920185032379997e-08,7.447274170116787828e-05,3.952918053344561449e-08,7.449470199980164076e-05,3.952920185032379997e-08,7.449470199980164076e-05,3.952920185032379997e-08
1.240000000000000000e+03,1.260000000000000000e+03,7.320185871730615801e-05,1.307167309441543688e-08,7.317873816029187982e-05,1.307161444112622133e-08,7.297415541222725946e-05,4.734720149659145680e-08,7.295103485521298127e-05,4.734718530355344373e-08,7.297415541222725946e-05,4.734720149659145680e-08,7.297415541222725946e-05,4.734720149659145680e-08
1.260000000000000000e+03,1.280000000000000000e+03,7.187696017766024149e-05,1.346249664561552622e-08,7.185271493062358864e-05,1.346243509516942547e-08,7.132812536474486293e-05,4.569272448813802235e-08,7.130388011770821008e-05,4.569270635350162672e-08,7.132812536474486293e-05,4.569272448813802235e-08,7.132812536474486293e-05,4.569272448813802235e-08
1.280000000000000000e+03,1.300000000000000000e+03,7.042767784868445859e-05,1.330480003793080850e-08,7.040215316986215058e-05,1.330474506489935055e-08,6.956110513147940259e-05,4.614209292231026088e-08,6.953558045265709458e-05,4.614207707119126492e-08,6.956110513147940259e-05,4.614209292231026088e-08,6.956110513147940259e-05,4.614209292231026088e-08
1.300000000000000000e+03,1.320000000000000000e+03,6.886281835089444708e-05,1.305605924944535665e-08,6.883589258764946390e-05,1.305600211836641913e-08,6.766332476755099277e-05,4.122822756280094347e-08,6.763639900430600958e-05,4.122820947069930652e-08,6.766332476755099277e-05,4.122822756280094347e-08,6.766332476755099277e-05,4.122822756280094347e-08
1.320000000000000000e+03,1.340000000000000000e+03,6.721783072681430048e-05,1.168579476512666954e-08,6.718950097229924479e-05,1.168572430612543557e-08,6.572464049592247656e-05,4.651003956713392087e-08,6.569631074140742087e-05,4.651002186413667425e-08,6.572464049592247656e-05,4.651003956713392087e-08,6.572464049592247656e-05,4.651003956713392087e-08
1.340000000000000000e+03,1.360000000000000000e+03,6.542956977615765142e-05,1.252433640880326128e-08,6.539967952045544985e-05,1.252428136501881368e-08,6.364444112371716016e-05,4.065972035207055962e-08,6.361455086801495859e-05,4.065970339707194231e-08,6.364444112371716016e-05,4.065972035207055962e-08,6.364444112371716016e-05,4.065972035207055962e-08
1.360000000000000000e+03,1.380000000000000000e+03,6.355301563288901900e-05,1.241815162201811964e-08,6.352145388536876026e-05,1.241808770799884703e-08,6.150438622385202608e-05,5.839473153356315103e-08,6.147282447633176734e-05,5.839471794171999457e-08,6.150438622385202608e-05,5.839473153356315103e-08,6.150438622385202608e-05,5.839473153356315103e-08
1.380000000000000000e+03,1.400000000000000000e+03,6.156722141563578728e-05,1.264403514166047199e-08,6.153390602822306351e-05,1.264397803132515959e-08,5.926482901904882381e-05,3.868749249032300668e-08,5.923151363163610004e-05,3.868747382528209689e-08,5.926482901904882381e-05,3.868749249032300668e-08,5.926482901904882381e-05,3.868749249032300668e-08
1.400000000000000000e+03,1.420000000000000000e+03,5.948513731199216382e-05,1.144743546634043407e-08,5.944991341049002544e-05,1.144737994792088588e-08,5.690596979051171483e-05,4.843050256888593441e-08,5.687074588900957646e-05,4.843048944612163688e-08,5.690596979051171483e-05,4.843050256888593441e-08,5.690596979051171483e-05,4.843050256888593441e-08
1.420000000000000000e+03,1.440000000000000000e+03,5.730765859076531642e-05,1.067365094510649104e-08,5.727035414835301692e-05,1.067357998020481548e-08,5.449921259270040292e-05,4.940528055903644588e-08,5.446190815028810342e-05,4.940526522763500893e-08,5.449921259270040292e-05,4.940528055903644588e-08,5.449921259270040292e-05,4.940528055903644588e-08
1.440000000000000000e+03,1.460000000000000000e+03,5.506012207157786031e-05,1.095508761824615770e-08,5.502062154843091990e-05,1.095502622308736155e-08,5.206488175337714943e-05,3.425388623187229834e-08,5.202538123023020902e-05,3.425386659650458358e-08,5.206488175337714943e-05,3.425388623187229834e-08,5.206488175337714943e-05,3.425388623187229834e-08
1.460000000000000000e+03,1.480000000000000000e+03,5.268370910100986113e-05,1.018236480095688115e-08,5.264183162218313134e-05,1.018229812838354518e-08,4.949295293108478284e-05,3.780929903656883164e-08,4.945107545225805305e-05,3.780928108113406152e-08,4.949295293108478284e-05,3.780929903656883164e-08,4.949295293108478284e-05,3.780929903656883164e-08
1.480000000000000000e+03,1.500000000000000000e+03,5.018599675081998520e-05,9.890456496157482502e-09,5.014147903905041115e-05,9.890386685434170377e-09,4.677678460757009777e-05,3.439922468140716988e-08,4.673226689580052372e-05,3.439920460951040476e-08,4.677678460757009777e-05,3.439922468140716988e-08,4.677678460757009777e-05,3.439922468140716988e-08
1.500000000000000000e+03,1.520000000000000000e+03,4.763387176570540283e-05,9.308213611904129868e-09,4.758651772704470178e-05,9.308152943645662711e-09,4.410168274807676705e-05,2.995965657254692565e-08,4.405432870941606601e-05,2.995963772348417731e-08,4.410168274807676705e-05,2.995965657254692565e-08,4.410168274807676705e-05,2.995965657254692565e-08
1.520000000000000000e+03,1.540000000000000000e+03,4.494824523654412929e-05,9.505305390370060409e-09,4.489783355996031439e-05,9.505238760454274776e-09,4.124647862962294617e-05,2.961132690403080107e-08,4.119606695303913127e-05,2.961130551573879135e-08,4.124647862962294617e-05,2.961132690403080107e-08,4.124647862962294617e-05,2.961132690403080107e-08
1.540000000000000000e+03,1.560000000000000000e+03,4.216183818110953279e-05,9.587965358602338498e-09,4.210802172091173513e-05,9.587898864244023259e-09,3.836845148423913699e-05,3.478116724070277126e-08,3.831463502404133933e-05,3.478114891056575172e-08,3.836845148423913699e-05,3.478116724070277126e-08,3.836845148423913699e-05,3.478116724070277126e-08
1.560000000000000000e+03,1.580000000000000000e+03,3.927836520385421745e-05,8.274466311369041577e-09,3.922077234474967948e-05,8.274390801905525363e-09,3.540001096315474778e-05,3.184266254244391037e-08,3.534241810405020981e-05,3.184264292103652942e-08,3.540001096315474778e-05,3.184266254244391037e-08,3.540001096315474778e-05,3.184266254244391037e-08
1.580000000000000000e+03,1.600000000000000000e+03,3.624632343484741816e-05,8.022881537073611745e-09,3.618703766284644486e-05,8.022802628554198694e-09,3.231363672309224739e-05,3.675025702167901491e-08,3.225435095109127409e-05,3.675023979538483696e-08,3.231363672309224739e-05,3.675025702167901491e-08,3.231363672309224739e-05,3.675025702167901491e-08
1.600000000000000000e+03,1.620000000000000000e+03,3.306287352781667280e-05,7.043900890896798697e-09,3.302259437800813250e-05,7.043832506584298569e-09,2.911783639018156934e-05,2.812361669930561114e-08,2.907755724037302904e-05,2.812359957170309323e-08,2.911783639018156934e-05,2.812361669930561114e-08,2.911783639018156934e-05,2.812361669930561114e-08
1.620000000000000000e+03,1.640000000000000000e+03,2.974278151859047783e-05,7.115796312009220961e-09,2.970971298067049814e-05,7.115738496191389987e-09,2.579309874512396032e-05,2.634897525642043640e-08,2.576003020720398062e-05,2.634895964275690987e-08,2.579309874512396032e-05,2.634897525642043640e-08,2.579309874512396032e-05,2.634897525642043640e-08
1.640000000000000000e+03,1.660000000000000000e+03,2.624401808866302200e-05,6.253360698453043854e-09,2.621403193854197371e-05,6.253291026186730732e-09,2.239996385869827937e-05,2.114658107664932775e-08,2.236997770857723108e-05,2.114656047362155890e-08,2.239996385869827937e-05,2.114658107664932775e-08,2.239996385869827937e-05,2.114658107664932775e-08
1.660000000000000000e+03,1.680000000000000000e+03,2.245469277891222503e-05,5.557090849039706743e-09,2.242629047088469569e-05,5.557029096644681548e-09,1.874820121098064421e-05,1.761039959574799240e-08,1.871979890295311487e-05,1.761038010942397997e-08,1.874820121098064421e-05,1.761039959574799240e-08,1.874820121098064421e-05,1.761039959574799240e-08
1.680000000000000000e+03,1.700000000000000000e+03,1.821462227527329738e-05,4.822922265261694496e-09,1.818714120580784685e-05,4.822857480465510752e-09,1.482333578106822693e-05,1.520086097670026796e-08,1.479585471160277640e-05,1.520084042193371999e-08,1.482333578106822693e-05,1.520086097670026796e-08,1.482333578106822693e-05,1.520086097670026796e-08
1.700000000000000000e+03,1.720000000000000000e+03,1.324776115266480242e-05,4.113227413619321029e-09,1.322065538051374140e-05,4.113161046996690225e-09,1.042574484352487171e-05,1.243720443679453694e-08,1.039863907137381069e-05,1.243718248820861919e-08,1.042574484352487171e-05,1.243720443679453694e-08,1.042574484352487171e-05,1.243720443679453694e-08
1.720000000000000000e+03,1.740000000000000000e+03,7.371671870767707359e-06,2.848422810234507233e-09,7.344528596633825138e-06,2.848327051791339147e-09,5.681045795272587596e-06,7.335438008466717006e-09,5.653902521138705375e-06,7.335400825051091613e-09,5.681045795272587596e-06,7.335438008466717006e-09,5.681045795272587596e-06,7.335438008466717006e-09
1.740000000000000000e+03,1.760000000000000000e+03,3.201704872388505294e-06,1.687425062677751096e-09,3.174116216221284586e-06,1.687304706921427369e-09,2.600352327298305614e-06,2.843027580364406383e-09,2.572763671131084482e-06,2.842956147139607670e-09,2.600352327298305614e-06,2.843027580364406383e-09,2.600352327298305614e-06,2.843027580364406383e-09
1.760000000000000000e+03,1.780000000000000000e+03,1.825618463447424715e-06,1.303942736925442819e-09,1.797253372657273406e-06,1.303773922922807979e-09,1.559078554711557178e-06,1.814322416031620680e-09,1.530713463921405658e-06,1.814201094208613373e-09,1.559078554711557178e-06,1.814322416031620680e-09,1.559078554711557178e-06,1.814322416031620680e-09
1.780000000000000000e+03,1.800000000000000000e+03,1.271732904413623730e-06,9.073846065460070409e-10,1.242179683733147288e-06,9.071201596433916388e-10,1.114222887149653329e-06,1.121178982117522661e-09,1.084669666469176887e-06,1.120964972591420619e-09,1.114222887149653329e-06,1.121178982117522661e-09,1.114222887149653329e-06,1.121178982117522661e-09
1.800000000000000000e+03,1.820000000000000000e+03,9.694003088459191425e-07,7.972188609261638902e-10,9.381776452978674816e-07,7.969228291497318118e-10,8.622142882562303582e-07,9.474611693324151955e-10,8.309916247081786972e-07,9.472120938820143293e-10,8.622142882562303582e-07,9.474611693324151955e-10,8.622142882562303582e-07,9.474611693324151955e-10
1.820000000000000000e+03,1.840000000000000000e+03,7.767809407668167235e-07,6.811945164751052451e-10,7.432637113492489571e-07,6.808632959464551558e-10,6.965197683942347017e-07,8.021928040933885240e-10,6.630025389766669353e-07,8.019115621005419261e-10,6.965197683942347017e-07,8.021928040933885240e-10,6.965197683942347017e-07,8.021928040933885240e-10
1.840000000000000000e+03,1.860000000000000000e+03,6.443222027861443898e-07,6.045370367208100798e-10,6.077554136630948401e-07,6.041692658807238343e-10,5.801664541339284434e-07,6.962476217187328298e-10,5.435996650108788937e-07,6.959283180160629874e-10,5.801664541339284434e-07,6.962476217187328298e-10,5.801664541339284434e-07,6.962476217187328298e-10
1.860000000000000000e+03,1.880000000000000000e+03,5.520718144813230929e-07,5.414631829217101912e-10,5.112087626615890516e-07,5.408379417490382404e-10,4.974207710400700128e-07,5.969513190376841091e-10,4.565577192203359715e-07,5.963842537127030607e-10,4.974207710400700128e-07,5.969513190376841091e-10,4.974207710400700128e-07,5.969513190376841091e-10
1.880000000000000000e+03,1.900000000000000000e+03,4.899283794718713510e-07,4.918835897303958112e-10,4.430451485754457180e-07,4.911128698189896564e-10,4.405620729620867239e-07,5.286712890559486445e-10,3.936788420656610910e-07,5.279542754139433467e-10,4.405620729620867239e-07,5.286712890559486445e-10,4.405620729620867239e-07,5.286712890559486445e-10
1.900000000000000000e+03,1.920000000000000000e+03,4.513782383440373308e-07,4.521825332029120228e-10,3.953804785316770994e-07,4.512847679762683731e-10,4.024417746258187775e-07,4.890441871484033545e-10,3.464440148134585461e-07,4.882142106260675186e-10,4.024417746258187775e-07,4.890441871484033545e-10,4.024417746258187775e-07,4.890441871484033545e-10
1.920000000000000000e+03,1.940000000000000000e+03,4.357234272744016475e-07,3.936869891784439511e-10,3.649812938608026938e-07,3.924308593778129552e-10,3.832039969089478596e-07,4.245890511375935130e-10,3.124618634953489059e-07,4.234246052009052773e-10,3.832039969089478596e-07,4.245890511375935130e-10,3.832039969089478596e-07,4.245890511375935130e-10
1.940000000000000000e+03,1.960000000000000000e+03,4.393088178750306993e-07,4.016246935736084408e-10,3.403888077520468905e-07,3.995794588962245660e-10,3.788263968296506805e-07,4.300760392847925696e-10,2.799063867066668716e-07,4.281667304340672067e-10,3.788263968296506805e-07,4.300760392847925696e-10,3.788263968296506805e-07,4.300760392847925696e-10
1.960000000000000000e+03,1.980000000000000000e+03,4.858306096678295108e-07,3.901092306935682920e-10,3.134142587524771632e-07,3.871586902029396551e-10,4.108993712282363642e-07,4.114025597674262545e-10,2.384830203128840166e-07,4.086058072403264843e-10,4.108993712282363642e-07,4.114025597674262545e-10,4.108993712282363642e-07,4.114025597674262545e-10
1.980000000000000000e+03,2.000000000000000000e+03,4.526593019768925051e-07,2.302704319147910530e-10,1.332957086402248810e-07,2.216474773589405407e-10,4.043809558363226874e-07,2.397503135696348195e-10,8.501736249965508980e-08,2.314807665057636117e-10,4.043809558363226874e-07,2.397503135696348195e-10,4.043809558363226874e-07,2.397503135696348195e-10
