# xl,xh,LO,dLO,LOISC,dLOISC,NLO,dNLO,NLOISC,dNLOISC,NLOL,dNLOL,NLOnovp,dNLOnovp
3.000000000000000000e+02,3.200000000000000000e+02,8.221641064717739541e-05,1.445408685251985219e-08,8.217240053639936139e-05,1.445401778014367231e-08,8.673352548464594762e-05,4.578641814270797670e-08,8.668951537386791360e-05,4.578639633763963230e-08,8.673352548464594762e-05,4.578641814270797670e-08,8.673352548464594762e-05,4.578641814270797670e-08
3.200000000000000000e+02,3.400000000000000000e+02,8.212495044984334232e-05,1.409694244114631644e-08,8.208130654712510231e-05,1.409686980901983411e-08,8.640666293493527196e-05,4.602863994779081397e-08,8.636301903221703196e-05,4.602861770319446597e-08,8.640666293493527196e-05,4.602863994779081397e-08,8.640666293493527196e-05,4.602863994779081397e-08
3.400000000000000000e+02,3.600000000000000000e+02,8.195812769448824716e-05,1.334123789000782352e-08,8.191487908593444685e-05,1.334116702121653134e-08,8.612439067866193784e-05,4.457106243273942740e-08,8.608114207010813753e-05,4.457104121998241624e-08,8.612439067866193784e-05,4.457106243273942740e-08,8.612439067866193784e-05,4.457106243273942740e-08
3.600000000000000000e+02,3.800000000000000000e+02,8.171166985289766873e-05,1.399494568745879691e-08,8.166899232372485057e-05,1.399486653972338623e-08,8.574018538518184455e-05,4.617543462960763742e-08,8.569750785600902638e-05,4.617541064141082214e-08,8.574018538518184455e-05,4.617543462960763742e-08,8.574018538518184455e-05,4.617543462960763742e-08
3.800000000000000000e+02,4.000000000000000000e+02,8.135452778451243130e-05,1.378347265426405752e-08,8.131221284163770314e-05,1.378340478620823077e-08,8.522109835459056092e-05,4.782300709716315904e-08,8.517878341171583275e-05,4.782298753638192307e-08,8.522109835459056092e-05,4.782300709716315904e-08,8.522109835459056092e-05,4.782300709716315904e-08
4.000000000000000000e+02,4.200000000000000000e+02,8.089384711546406513e-05,1.350998205951599324e-08,8.085200219313272419e-05,1.350990402326745810e-08,8.461586420319842569e-05,4.822006428911508729e-08,8.457401928086708475e-05,4.822004242548782815e-08,8.461586420319842569e-05,4.822006428911508729e-08,8.461586420319842569e-05,4.822006428911508729e-08
4.199999999999999432e+02,4.399999999999999432e+02,8.035154261396251405e-05,1.348277070113955418e-08,8.031029353056138383e-05,1.348270367710879452e-08,8.394499994889172275e-05,4.615004207751846329e-08,8.390375086549059253e-05,4.615002249644024003e-08,8.394499994889172275e-05,4.615004207751846329e-08,8.394499994889172275e-05,4.615004207751846329e-08
4.399999999999999432e+02,4.599999999999999432e+02,7.972762567097603839e-05,1.385140506003769479e-08,7.968684888662793818e-05,1.385133482811258373e-08,8.322313760773236420e-05,4.552619329214088147e-08,8.318236082338426398e-05,4.552617192403310440e-08,8.322313760773236420e-05,4.552619329214088147e-08,8.322313760773236420e-05,4.552619329214088147e-08
4.599999999999999432e+02,4.799999999999999432e+02,7.900755039277135500e-05,1.375804484864982460e-08,7.896732404529747647e-05,1.375797723841622395e-08,8.232732451721866602e-05,4.429958694087132028e-08,8.228709816974480104e-05,4.429956594332652792e-08,8.232732451721866602e-05,4.429958694087132028e-08,8.232732451721866602e-05,4.429958694087132028e-08
4.799999999999999432e+02,4.999999999999999432e+02,7.818255751385859702e-05,1.385403199746306001e-08,7.814283860831022018e-05,1.385396393887046396e-08,8.143717349851909944e-05,4.398249123132567468e-08,8.139745459297072260e-05,4.398246979361700843e-08,8.143717349851909944e-05,4.398249123132567468e-08,8.143717349851909944e-05,4.398249123132567468e-08
4.999999999999999432e+02,5.200000000000000000e+02,7.723680603670460265e-05,1.200699358343232426e-08,7.719763741241228048e-05,1.200691755695385820e-08,8.035506133900687073e-05,4.147459121705625366e-08,8.031589271471454856e-05,4.147456920727232790e-08,8.035506133900687073e-05,4.147459121705625366e-08,8.035506133900687073e-05,4.147459121705625366e-08
5.200000000000000000e+02,5.400000000000000000e+02,7.627164659363930993e-05,1.276742181306284771e-08,7.623308384100938473e-05,1.276734758368148285e-08,7.935712003716529944e-05,4.628829634389457491e-08,7.931855728453537425e-05,4.628827586970666494e-08,7.935712003716529944e-05,4.628829634389457491e-08,7.935712003716529944e-05,4.628829634389457491e-08
5.400000000000000000e+02,5.600000000000000000e+02,7.518135492927214083e-05,1.283133541193489301e-08,7.514342585983061688e-05,1.283126610971349227e-08,7.815540080207308946e-05,4.310913115604110222e-08,7.811747173263156551e-05,4.310911052844237664e-08,7.815540080207308946e-05,4.310913115604110222e-08,7.815540080207308946e-05,4.310913115604110222e-08
5.600000000000000000e+02,5.800000000000000000e+02,7.404117882487174472e-05,1.439948485035345788e-08,7.400382394305446638e-05,1.439943065638524329e-08,7.693193720070122695e-05,5.854860144430442792e-08,7.689458231888394860e-05,5.854858811582474574e-08,7.693193720070122695e-05,5.854860144430442792e-08,7.693193720070122695e-05,5.854860144430442792e-08
5.800000000000000000e+02,6.000000000000000000e+02,7.284181096252447180e-05,1.342453578573821050e-08,7.280500212974783992e-05,1.342447081697705108e-08,7.569281125881922965e-05,4.247116100597900570e-08,7.565600242604259777e-05,4.247114047031341795e-08,7.569281125881922965e-05,4.247116100597900570e-08,7.569281125881922965e-05,4.247116100597900570e-08
6.000000000000000000e+02,6.200000000000000000e+02,7.161251204167055700e-05,1.215853506947485553e-08,7.157639022561810204e-05,1.215846646258190453e-08,7.433042902633770518e-05,4.738832290469260811e-08,7.429430721028525023e-05,4.738830530210479111e-08,7.433042902633770518e-05,4.738832290469260811e-08,7.433042902633770518e-05,4.738832290469260811e-08
6.200000000000000000e+02,6.400000000000000000e+02,7.033196105956046693e-05,1.260774126316018931e-08,7.029641045151135373e-05,1.260767459786907353e-08,7.302715877416080155e-05,4.452720618020502051e-08,7.299160816611168835e-05,4.452718730417910912e-08,7.302715877416080155e-05,4.452720618020502051e-08,7.302715877416080155e-05,4.452720618020502051e-08
6.400000000000000000e+02,6.600000000000000000e+02,6.907981564823255599e-05,1.302549434243203235e-08,6.904496544976479618e-05,1.302543372188117890e-08,7.170795118200902127e-05,4.699609364502186196e-08,7.167310098354126146e-05,4.699607684339252256e-08,7.170795118200902127e-05,4.699609364502186196e-08,7.170795118200902127e-05,4.699609364502186196e-08
6.600000000000000000e+02,6.800000000000000000e+02,6.776782519839616361e-05,1.185579573124796175e-08,6.773354466031973142e-05,1.185573367391383027e-08,7.034555538359774519e-05,3.877276339335017580e-08,7.031127484552131301e-05,3.877274441772741732e-08,7.034555538359774519e-05,3.877276339335017580e-08,7.034555538359774519e-05,3.877276339335017580e-08
6.800000000000000000e+02,7.000000000000000000e+02,6.644368185913595388e-05,1.311812509951290700e-08,6.641000385208112571e-05,1.311806770791663510e-08,6.897082978544369738e-05,4.178840971348525085e-08,6.893715177838886921e-05,4.178839169727787847e-08,6.897082978544369738e-05,4.178840971348525085e-08,6.897082978544369738e-05,4.178840971348525085e-08
7.000000000000000000e+02,7.200000000000000000e+02,6.507073015332000634e-05,1.218631889402224677e-08,6.503781506296463829e-05,1.218625629432682118e-08,6.749607845628485011e-05,5.321391885124119512e-08,6.746316336592948206e-05,5.321390451555588605e-08,6.749607845628485011e-05,5.321391885124119512e-08,6.749607845628485011e-05,5.321391885124119512e-08
7.200000000000000000e+02,7.400000000000000000e+02,6.372303984324453440e-05,1.219252820795637788e-08,6.369074804562261879e-05,1.219247204380724287e-08,6.609656807513743910e-05,4.312182983690690232e-08,6.606427627751552348e-05,4.312181395674773249e-08,6.609656807513743910e-05,4.312182983690690232e-08,6.609656807513743910e-05,4.312182983690690232e-08
7.400000000000000000e+02,7.600000000000000000e+02,6.230487152503221470e-05,1.157356185508771835e-08,6.227319833603377230e-05,1.157350385138438414e-08,6.460080549314061024e-05,3.844368701230038696e-08,6.456913230414216783e-05,3.844366955018967554e-08,6.460080549314061024e-05,3.844368701230038696e-08,6.460080549314061024e-05,3.844368701230038696e-08
7.600000000000000000e+02,7.800000000000000000e+02,6.064216988639611541e-05,1.140618697709391110e-08,6.061132616389067499e-05,1.140612875890365817e-08,6.284230922171258596e-05,4.672314275600002661e-08,6.281146549920713876e-05,4.672312854364334993e-08,6.284230922171258596e-05,4.672314275600002661e-08,6.284230922171258596e-05,4.672314275600002661e-08
7.800000000000000000e+02,8.000000000000000000e+02,5.879239225375951867e-05,1.179263268132593825e-08,5.876214683086607344e-05,1.179257732841706637e-08,6.080203357240171995e-05,4.474346971679673435e-08,6.077178814950827472e-05,4.474345512796173898e-08,6.080203357240171995e-05,4.474346971679673435e-08,6.080203357240171995e-05,4.474346971679673435e-08
8.000000000000000000e+02,8.200000000000000000e+02,5.692225557278888566e-05,1.160449336912637302e-08,5.689274363744052209e-05,1.160443051495414745e-08,5.876612893353890725e-05,4.026650992968935196e-08,5.873661699819054369e-05,4.026649181565327406e-08,5.876612893353890725e-05,4.026650992968935196e-08,5.876612893353890725e-05,4.026650992968935196e-08
8.200000000000001137e+02,8.400000000000001137e+02,5.510659891987609995e-05,1.127323148987756463e-08,5.507776585473324993e-05,1.127317265374674506e-08,5.678642797953726174e-05,3.937558812421633189e-08,5.675759491439441172e-05,3.937557127947151993e-08,5.678642797953726174e-05,3.937558812421633189e-08,5.678642797953726174e-05,3.937558812421633189e-08
8.400000000000001137e+02,8.600000000000001137e+02,5.326550532832243244e-05,1.131073910943287063e-08,5.323740527104036508e-05,1.131068778145973678e-08,5.481243171137369069e-05,3.568954219171757977e-08,5.478433165409162333e-05,3.568952592487602429e-08,5.481243171137369069e-05,3.568954219171757977e-08,5.481243171137369069e-05,3.568954219171757977e-08
8.600000000000001137e+02,8.800000000000001137e+02,5.141902830150147253e-05,1.053041056653528255e-08,5.139164974902624632e-05,1.053035655515830260e-08,5.279552401037584047e-05,3.670806157071581446e-08,5.276814545790061426e-05,3.670804607655426369e-08,5.279552401037584047e-05,3.670806157071581446e-08,5.279552401037584047e-05,3.670806157071581446e-08
8.800000000000001137e+02,9.000000000000001137e+02,4.962768888343996126e-05,1.032853763128045778e-08,4.960110894023804420e-05,1.032848166296154176e-08,5.084599314379450346e-05,3.648378474810844080e-08,5.081941320059258640e-05,3.648376890355033705e-08,5.084599314379450346e-05,3.648378474810844080e-08,5.084599314379450346e-05,3.648378474810844080e-08
9.000000000000001137e+02,9.200000000000001137e+02,4.782120858060675411e-05,1.024538081587804855e-08,4.779529631443165603e-05,1.024533330878462216e-08,4.890321071836002009e-05,3.704583223342763491e-08,4.887729845218492201e-05,3.704581909491266046e-08,4.890321071836002009e-05,3.704583223342763491e-08,4.890321071836002009e-05,3.704583223342763491e-08
9.200000000000001137e+02,9.400000000000001137e+02,4.600386290701340803e-05,1.029973805806617693e-08,4.597865434225741299e-05,1.029968507574537050e-08,4.689075530264104883e-05,3.270874626972258442e-08,4.686554673788505379e-05,3.270872958602712457e-08,4.689075530264104883e-05,3.270874626972258442e-08,4.689075530264104883e-05,3.270874626972258442e-08
9.400000000000001137e+02,9.600000000000001137e+02,4.418462027155010805e-05,9.739973146272147194e-09,4.416014305237194739e-05,9.739915185040451161e-09,4.494150967340255131e-05,3.947635791771949468e-08,4.491703245422439065e-05,3.947634361702681734e-08,4.494150967340255131e-05,3.947635791771949468e-08,4.494150967340255131e-05,3.947635791771949468e-08
9.600000000000001137e+02,9.800000000000001137e+02,4.235247498347460040e-05,9.202010423888440361e-09,4.232879020010075241e-05,9.201954379457148788e-09,4.299465831863881444e-05,3.613394924776706138e-08,4.297097353526496645e-05,3.613393497531738742e-08,4.299465831863881444e-05,3.613394924776706138e-08,4.299465831863881444e-05,3.613394924776706138e-08
9.800000000000001137e+02,1.000000000000000114e+03,4.050331134586573689e-05,9.953054047409450360e-09,4.048034654376217733e-05,9.953001738269266591e-09,4.099905013698308480e-05,4.127876869744372005e-08,4.097608533487952524e-05,4.127875608479980045e-08,4.099905013698308480e-05,4.127876869744372005e-08,4.099905013698308480e-05,4.127876869744372005e-08
1.000000000000000114e+03,1.020000000000000114e+03,3.862524048422190891e-05,9.977995558521154245e-09,3.860299516482036263e-05,9.977954356219453155e-09,3.903419045016776805e-05,4.115149370229523023e-08,3.901194513076622176e-05,4.115148371199967690e-08,3.903419045016776805e-05,4.115149370229523023e-08,3.903419045016776805e-05,4.115149370229523023e-08
1.020000000000000000e+03,1.040000000000000000e+03,3.673783243021233689e-05,8.821294248261877180e-09,3.671630823729719634e-05,8.821248413756049797e-09,3.702163719402500503e-05,4.105781317910561241e-08,3.700011300110986448e-05,4.105780333156066727e-08,3.702163719402500503e-05,4.105781317910561241e-08,3.702163719402500503e-05,4.105781317910561241e-08
1.040000000000000000e+03,1.060000000000000000e+03,3.483163290910891679e-05,8.567506105266797014e-09,3.481088937637655473e-05,8.567460768769565553e-09,3.502164650199461431e-05,3.209690984387759096e-08,3.500090296926225224e-05,3.209689774240849945e-08,3.502164650199461431e-05,3.209690984387759096e-08,3.502164650199461431e-05,3.209690984387759096e-08
1.060000000000000000e+03,1.080000000000000000e+03,3.297011314740028068e-05,8.675171658676154391e-09,3.295006169046009432e-05,8.675125597073683405e-09,3.304406927883496512e-05,3.251768626773985487e-08,3.302401782189477876e-05,3.251767397930949548e-08,3.304406927883496512e-05,3.251768626773985487e-08,3.304406927883496512e-05,3.251768626773985487e-08
1.080000000000000000e+03,1.100000000000000000e+03,3.113654132378087294e-05,8.394016032458872362e-09,3.111725329338867809e-05,8.393974353006013904e-09,3.114247112588933267e-05,2.889794363268289893e-08,3.112318309549713782e-05,2.889793152603598103e-08,3.114247112588933267e-05,2.889794363268289893e-08,3.114247112588933267e-05,2.889794363268289893e-08
1.100000000000000000e+03,1.120000000000000000e+03,2.929610071953831605e-05,7.986111672002426457e-09,2.927742592182320565e-05,7.986064235512908613e-09,2.919467603117404595e-05,2.652924975093156243e-08,2.917600123345893555e-05,2.652923547114291046e-08,2.919467603117404595e-05,2.652924975093156243e-08,2.919467603117404595e-05,2.652924975093156243e-08
1.120000000000000000e+03,1.140000000000000000e+03,2.750505403442525819e-05,7.865443826922674692e-09,2.748716317516508074e-05,7.865398543643780499e-09,2.735815349865625460e-05,2.819975956200288006e-08,2.734026263939607715e-05,2.819974693167742893e-08,2.735815349865625460e-05,2.819975956200288006e-08,2.735815349865625460e-05,2.819975956200288006e-08
1.140000000000000000e+03,1.160000000000000000e+03,2.572177117419812841e-05,7.463260933135335818e-09,2.570466797485757238e-05,7.463222485293572610e-09,2.546798277473571876e-05,2.655013928306896207e-08,2.545087957539516273e-05,2.655012847538197912e-08,2.546798277473571876e-05,2.655013928306896207e-08,2.546798277473571876e-05,2.655013928306896207e-08
1.160000000000000000e+03,1.180000000000000000e+03,2.397870859736332824e-05,7.451062181556398541e-09,2.396225655358519171e-05,7.451024652890169489e-09,2.366830229145388683e-05,2.940011587312814191e-08,2.365185024767575030e-05,2.940010636201709982e-08,2.366830229145388683e-05,2.940011587312814191e-08,2.366830229145388683e-05,2.940011587312814191e-08
1.180000000000000000e+03,1.200000000000000000e+03,2.226463868569375119e-05,6.582724616277974788e-09,2.224888149581429769e-05,6.582682784134890838e-09,2.189128039860429299e-05,2.694736007681148409e-08,2.187552320872483948e-05,2.694734985804962827e-08,2.189128039860429299e-05,2.694736007681148409e-08,2.189128039860429299e-05,2.694736007681148409e-08
1.200000000000000000e+03,1.220000000000000000e+03,2.058191266689222070e-05,6.767934708142247788e-09,2.056679635816189837e-05,6.767899419522574168e-09,2.017818505091346147e-05,2.507064930805633121e-08,2.016306874218313914e-05,2.507063978175752185e-08,2.017818505091346147e-05,2.507064930805633121e-08,2.017818505091346147e-05,2.507064930805633121e-08
1.220000000000000000e+03,1.240000000000000000e+03,1.892861066305435638e-05,6.251244466260207131e-09,1.891430876371328224e-05,6.251204336109433724e-09,1.849020231656411711e-05,2.342127915442253494e-08,1.847590041722304297e-05,2.342126844353721352e-08,1.849020231656411711e-05,2.342127915442253494e-08,1.849020231656411711e-05,2.342127915442253494e-08
1.240000000000000000e+03,1.260000000000000000e+03,1.731905754366864670e-05,5.874574547853948261e-09,1.730538321091062672e-05,5.874541223361387715e-09,1.683804389841583407e-05,2.292075472922290482e-08,1.682436956565781409e-05,2.292074618819974155e-08,1.683804389841583407e-05,2.292075472922290482e-08,1.683804389841583407e-05,2.292075472922290482e-08
1.260000000000000000e+03,1.280000000000000000e+03,1.576375485676284580e-05,5.710018805714639017e-09,1.575074035388147244e-05,5.709985784025094223e-09,1.527842220347684936e-05,3.064863725082510905e-08,1.526540770059547599e-05,3.064863109871007988e-08,1.527842220347684936e-05,3.064863725082510905e-08,1.527842220347684936e-05,3.064863725082510905e-08
1.280000000000000000e+03,1.300000000000000000e+03,1.424443466456112026e-05,5.465749762839844464e-09,1.423210836474956225e-05,5.465715339329305773e-09,1.372342260571105655e-05,1.909472243990205201e-08,1.371109630589949853e-05,1.909471258640712724e-08,1.372342260571105655e-05,1.909472243990205201e-08,1.372342260571105655e-05,1.909472243990205201e-08
1.300000000000000000e+03,1.320000000000000000e+03,1.280101420439339195e-05,4.959536633762680927e-09,1.278933702730005915e-05,4.959502169639120161e-09,1.229947775844853755e-05,1.776321423333887974e-08,1.228780058135520475e-05,1.776320461089479321e-08,1.229947775844853755e-05,1.776321423333887974e-08,1.229947775844853755e-05,1.776321423333887974e-08
1.320000000000000000e+03,1.340000000000000000e+03,1.138719797895584034e-05,4.259497548830263288e-09,1.137620508852471939e-05,4.259463746609169171e-09,1.088134890381241339e-05,1.838641752153804184e-08,1.087035601338129244e-05,1.838640969076094171e-08,1.088134890381241339e-05,1.838641752153804184e-08,1.088134890381241339e-05,1.838641752153804184e-08
1.340000000000000000e+03,1.360000000000000000e+03,1.005079163110122574e-05,4.364137266469772463e-09,1.004041347755996767e-05,4.364104904420035225e-09,9.573806274053570838e-06,1.716341738173157748e-08,9.563428120512312773e-06,1.716340915307091146e-08,9.573806274053570838e-06,1.716341738173157748e-08,9.573806274053570838e-06,1.716341738173157748e-08
1.360000000000000000e+03,1.380000000000000000e+03,8.779374539389962355e-06,3.670494740436286312e-09,8.769670704606770891e-06,3.670461450420293164e-09,8.288753706046006323e-06,1.619367624312020929e-08,8.279049871262814860e-06,1.619366869756346793e-08,8.288753706046006323e-06,1.619367624312020929e-08,8.288753706046006323e-06,1.619367624312020929e-08
1.380000000000000000e+03,1.400000000000000000e+03,7.583149947603820457e-06,3.662189255375129134e-09,7.574105625678341687e-06,3.662161421329104932e-09,7.137279900094400741e-06,1.334461038634298299e-08,7.128235578168921970e-06,1.334460274781453388e-08,7.137279900094400741e-06,1.334461038634298299e-08,7.137279900094400741e-06,1.334461038634298299e-08
1.400000000000000000e+03,1.420000000000000000e+03,6.463024356116456487e-06,3.438777027813527749e-09,6.454567616492410164e-06,3.438746618092358737e-09,6.048813745282171024e-06,1.192751601626970354e-08,6.040357005658124701e-06,1.192750724899355803e-08,6.048813745282171024e-06,1.192751601626970354e-08,6.048813745282171024e-06,1.192751601626970354e-08
1.420000000000000000e+03,1.440000000000000000e+03,5.429368493074128946e-06,3.106180912558823503e-09,5.421533563650795302e-06,3.106149063050618547e-09,5.036778123587411574e-06,1.351757488230124077e-08,5.028943194164077929e-06,1.351756756369158545e-08,5.036778123587411574e-06,1.351757488230124077e-08,5.036778123587411574e-06,1.351757488230124077e-08
1.440000000000000000e+03,1.460000000000000000e+03,4.485608880193268259e-06,2.768885371456037014e-09,4.478362560729857695e-06,2.768857252090872544e-09,4.121432949217734932e-06,9.875990598332789887e-09,4.114186629754324368e-06,9.875982714674557625e-09,4.121432949217734932e-06,9.875990598332789887e-09,4.121432949217734932e-06,9.875990598332789887e-09
1.460000000000000000e+03,1.480000000000000000e+03,3.636579906473202367e-06,2.505101924612686489e-09,3.629930432386322865e-06,2.505075050464940719e-09,3.310260564683959178e-06,8.859367351867867052e-09,3.303611090597079676e-06,8.859359752888805683e-09,3.310260564683959178e-06,8.859367351867867052e-09,3.310260564683959178e-06,8.859367351867867052e-09
1.480000000000000000e+03,1.500000000000000000e+03,2.906261403219347109e-06,2.084821849018833113e-09,2.900197531089846300e-06,2.084788467628025475e-09,2.609837495777567929e-06,7.874539145051624135e-09,2.603773623648066696e-06,7.874530307234766682e-09,2.609837495777567929e-06,7.874539145051624135e-09,2.609837495777567929e-06,7.874539145051624135e-09
1.500000000000000000e+03,1.520000000000000000e+03,2.290367711455116728e-06,1.915410632617858949e-09,2.284798790992241264e-06,1.915380893665689029e-09,2.020126589970115449e-06,6.810235631626675924e-09,2.014557669507239986e-06,6.810227267467041859e-09,2.020126589970115449e-06,6.810235631626675924e-09,2.020126589970115449e-06,6.810235631626675924e-09
1.520000000000000000e+03,1.540000000000000000e+03,1.767411241605400941e-06,1.580784115084464470e-09,1.762340811406035799e-06,1.580755027169254371e-09,1.528180804276945755e-06,5.527566784389674938e-09,1.523110374077580613e-06,5.527558465842356455e-09,1.528180804276945755e-06,5.527566784389674938e-09,1.528180804276945755e-06,5.527566784389674938e-09
1.540000000000000000e+03,1.560000000000000000e+03,1.296019899813193172e-06,1.421096193588941225e-09,1.291424644733170825e-06,1.421068568187641254e-09,1.095728298869365076e-06,5.343096844834795274e-09,1.091133043789342729e-06,5.343089497410785559e-09,1.095728298869365076e-06,5.343096844834795274e-09,1.095728298869365076e-06,5.343096844834795274e-09
1.560000000000000000e+03,1.580000000000000000e+03,8.694803028265656778e-07,1.078525034855657093e-09,8.653343959319041017e-07,1.078493600941603240e-09,7.219210215037647387e-07,3.167549330443024287e-09,7.177751146091031626e-07,3.167538627586353872e-09,7.219210215037647387e-07,3.167549330443024287e-09,7.219210215037647387e-07,3.167549330443024287e-09
1.580000000000000000e+03,1.600000000000000000e+03,5.051635446634253706e-07,7.420624996942628688e-10,5.014321886413042683e-07,7.420267744793416857e-10,4.234424907735994440e-07,2.408467659562895819e-09,4.197111347514783416e-07,2.408456652662051198e-09,4.234424907735994440e-07,2.408467659562895819e-09,4.234424907735994440e-07,2.408467659562895819e-09
1.600000000000000000e+03,1.620000000000000000e+03,2.598863897082656142e-07,4.777813804468327551e-10,2.565237923032801082e-07,4.777297363214378015e-10,2.230486421317707180e-07,9.948774200636325912e-10,2.196860447267852120e-07,9.948526194449804414e-10,2.230486421317707180e-07,9.948774200636325912e-10,2.230486421317707180e-07,9.948774200636325912e-10
1.620000000000000000e+03,1.640000000000000000e+03,1.401664128487215057e-07,3.152385996954332953e-10,1.371596857297129689e-07,3.151787085752930474e-10,1.250927023228600527e-07,5.128867730933757574e-10,1.220859752038515159e-07,5.128499640395694741e-10,1.250927023228600527e-07,5.128867730933757574e-10,1.250927023228600527e-07,5.128867730933757574e-10
1.640000000000000000e+03,1.660000000000000000e+03,8.191152580152623120e-08,2.340406168701902762e-10,7.925248411147460082e-08,2.339591341143975956e-10,7.471342864626177945e-08,3.244360758135006049e-10,7.205438695621014908e-08,3.243773009626952737e-10,7.471342864626177945e-08,3.244360758135006049e-10,7.471342864626177945e-08,3.244360758135006049e-10
1.660000000000000000e+03,1.680000000000000000e+03,5.030264651904063097e-08,1.656580224590895909e-10,4.798391895838869125e-08,1.655719079746718002e-10,4.671150384908987285e-08,1.994656786859264011e-10,4.439277628843793314e-08,1.993941656091125284e-10,4.671150384908987285e-08,1.994656786859264011e-10,4.671150384908987285e-08,1.994656786859264011e-10
1.680000000000000000e+03,1.700000000000000000e+03,3.101574688518932284e-08,1.194683914483646276e-10,2.902628608410708262e-08,1.193918649568088659e-10,2.925854446373268248e-08,1.396592015187542074e-10,2.726908366265044225e-08,1.395937442418577326e-10,2.925854446373268248e-08,1.396592015187542074e-10,2.925854446373268248e-08,1.396592015187542074e-10
1.700000000000000000e+03,1.720000000000000000e+03,1.911354213857624574e-08,7.996708761685841438e-11,1.743408005027443770e-08,7.985254615801678778e-11,1.831698806714390533e-08,8.834177241219759651e-11,1.663752597884209729e-08,8.823810276136046843e-11,1.831698806714390533e-08,8.834177241219759651e-11,1.831698806714390533e-08,8.834177241219759651e-11
1.720000000000000000e+03,1.740000000000000000e+03,1.199969272892640137e-08,6.160835895036390013e-11,1.062042969323505867e-08,6.150763749302740947e-11,1.158689338990071588e-08,6.649547388124196489e-11,1.020763035420937319e-08,6.640216580886287956e-11,1.158689338990071588e-08,6.649547388124196489e-11,1.158689338990071588e-08,6.649547388124196489e-11
1.740000000000000000e+03,1.760000000000000000e+03,7.647673074366644005e-09,4.246333582835119654e-11,6.543265606126632870e-09,4.234550493080071721e-11,7.348866203731331203e-09,4.790412721691469501e-11,6.244458735491320068e-09,4.779971027723369851e-11,7.348866203731331203e-09,4.790412721691469501e-11,7.348866203731331203e-09,4.790412721691469501e-11
1.760000000000000000e+03,1.780000000000000000e+03,4.438459510301718764e-09,2.684813711912117195e-11,3.586795272585318142e-09,2.672176454707403764e-11,4.250132482359892075e-09,2.913434924585942034e-11,3.398468244643491039e-09,2.901793479422407937e-11,4.250132482359892075e-09,2.913434924585942034e-11,4.250132482359892075e-09,2.913434924585942034e-11
1.780000000000000000e+03,1.800000000000000000e+03,2.257686505325474818e-09,1.527357252937832450e-11,1.620216201880911978e-09,1.512096445423693337e-11,2.158598629135962565e-09,1.608609625906509146e-11,1.521128325691399931e-09,1.594126849005512812e-11,2.158598629135962565e-09,1.608609625906509146e-11,2.158598629135962565e-09,1.608609625906509146e-11
1.800000000000000000e+03,1.820000000000000000e+03,1.091345913110226131e-09,5.551442094091347932e-12,6.528199199888571338e-10,5.284475516423603554e-12,1.019371942694679941e-09,5.901013954445565045e-12,5.808459495733108405e-10,5.650587389837668719e-12,1.019371942694679941e-09,5.901013954445565045e-12,1.019371942694679941e-09,5.901013954445565045e-12
1.820000000000000000e+03,1.840000000000000000e+03,4.500778826818662952e-10,2.379104488125506463e-12,2.126238977270508185e-10,2.000286060035737171e-12,4.120893992122744404e-10,2.500001655250997048e-12,1.746354142574589895e-10,2.142665263827294383e-12,4.120893992122744404e-10,2.500001655250997048e-12,4.120893992122744404e-10,2.500001655250997048e-12
1.840000000000000000e+03,1.860000000000000000e+03,4.230627985852772488e-11,7.168786720568317182e-13,1.629892573669406947e-11,5.736033948716657354e-13,3.887499066946858843e-11,7.312857189655068629e-13,1.286763654763493464e-11,5.915104622246607711e-13,3.887499066946858843e-11,7.312857189655068629e-13,3.887499066946858843e-11,7.312857189655068629e-13
1.860000000000000000e+03,1.880000000000000000e+03,0.000000000000000000e+00,0.000000000000000000e+00,0.000000000000000000e+00,0.000000000000000000e+00,0.000000000000000000e+00,0.000000000000000000e+00,0.000000000000000000e+00,0.000000000000000000e+00,0.000000000000000000e+00,0.000000000000000000e+00,0.000000000000000000e+00,0.000000000000000000e+00
1.880000000000000000e+03,1.900000000000000000e+03,0.000000000000000000e+00,0.000000000000000000e+00,0.000000000000000000e+00,0.000000000000000000e+00,0.000000000000000000e+00,0.000000000000000000e+00,0.000000000000000000e+00,0.000000000000000000e+00,0.000000000000000000e+00,0.000000000000000000e+00,0.000000000000000000e+00,0.000000000000000000e+00
1.900000000000000000e+03,1.920000000000000000e+03,0.000000000000000000e+00,0.000000000000000000e+00,0.000000000000000000e+00,0.000000000000000000e+00,0.000000000000000000e+00,0.000000000000000000e+00,0.000000000000000000e+00,0.000000000000000000e+00,0.000000000000000000e+00,0.000000000000000000e+00,0.000000000000000000e+00,0.000000000000000000e+00
1.920000000000000000e+03,1.940000000000000000e+03,0.000000000000000000e+00,0.000000000000000000e+00,0.000000000000000000e+00,0.000000000000000000e+00,0.000000000000000000e+00,0.000000000000000000e+00,0.000000000000000000e+00,0.000000000000000000e+00,0.000000000000000000e+00,0.000000000000000000e+00,0.000000000000000000e+00,0.000000000000000000e+00
1.940000000000000000e+03,1.960000000000000000e+03,0.000000000000000000e+00,0.000000000000000000e+00,0.000000000000000000e+00,0.000000000000000000e+00,0.000000000000000000e+00,0.000000000000000000e+00,0.000000000000000000e+00,0.000000000000000000e+00,0.000000000000000000e+00,0.000000000000000000e+00,0.000000000000000000e+00,0.000000000000000000e+00
1.960000000000000000e+03,1.980000000000000000e+03,0.000000000000000000e+00,0.000000000000000000e+00,0.000000000000000000e+00,0.000000000000000000e+00,0.000000000000000000e+00,0.000000000000000000e+00,0.000000000000000000e+00,0.000000000000000000e+00,0.000000000000000000e+00,0.000000000000000000e+00,0.000000000000000000e+00,0.000000000000000000e+00
1.980000000000000000e+03,2.000000000000000000e+03,0.000000000000000000e+00,0.000000000000000000e+00,0.000000000000000000e+00,0.000000000000000000e+00,0.000000000000000000e+00,0.000000000000000000e+00,0.000000000000000000e+00,0.000000000000000000e+00,0.000000000000000000e+00,0.000000000000000000e+00,0.000000000000000000e+00,0.000000000000000000e+00
