# xl,xh,LO,dLO,CS+LOnovp,dCS+LOnovp,CS+LO,dCS+LO
0,5,0.01386344214,5.973788744e-06,0.01535958886,4.069798499e-06,0.01590625711,4.204072044e-06
5,10,0.01386164902,5.973403646e-06,0.01535317335,4.068950824e-06,0.01590493551,4.203897861e-06
10,15,0.01386734449,5.974627285e-06,0.01536348448,4.070313208e-06,0.01590742598,4.204226091e-06
15,20,0.01386154323,5.973380889e-06,0.01536013749,4.069871035e-06,0.01590755967,4.204243688e-06
20,25,0.01386937031,5.975062507e-06,0.01536476236,4.070482005e-06,0.01590884123,4.204412601e-06
25,30,0.0138657082,5.974275795e-06,0.01536510641,4.070527457e-06,0.01591473528,4.205189158e-06
30,35,0.01387031712,5.975265866e-06,0.01536633624,4.070689963e-06,0.01591023364,4.204596019e-06
35,40,0.01387882951,5.977094482e-06,0.01536797351,4.070906071e-06,0.01591652159,4.205424535e-06
40,45,0.01389863486,5.981346438e-06,0.01536713623,4.070795597e-06,0.01591707549,4.20549753e-06
45,50,0.01389388099,5.980326188e-06,0.01536788013,4.070893829e-06,0.01591290692,4.204948297e-06
50,55,0.01390456798,5.982619641e-06,0.01536378381,4.070352756e-06,0.01592098605,4.206012583e-06
55,60,0.01391071336,5.983938121e-06,0.01536522303,4.070542836e-06,0.01592085222,4.205994938e-06
60,65,0.01390306367,5.982296923e-06,0.0153697418,4.071139663e-06,0.01591733351,4.205531446e-06
65,70,0.01392235554,5.986435035e-06,0.01535989606,4.069839101e-06,0.01592035758,4.205929794e-06
70,75,0.01392417778,5.986825776e-06,0.01537268655,4.071528614e-06,0.01591303629,4.204965357e-06
75,80,0.01393868768,5.989936167e-06,0.01537427511,4.071738408e-06,0.01590709274,4.20418214e-06
80,85,0.01394923514,5.992195974e-06,0.01535926902,4.069756301e-06,0.01590125891,4.203413359e-06
85,90,0.01394864483,5.992069672e-06,0.0153568741,4.069439899e-06,0.01588938643,4.201848183e-06
90,95,0.013965481,5.995675022e-06,0.01534944509,4.068458189e-06,0.01589080688,4.202035422e-06
95,100,0.01395364606,5.993140848e-06,0.01534376877,4.067707857e-06,0.01587427817,4.199855566e-06
100,105,0.01396312029,5.99516974e-06,0.01533877528,4.067047766e-06,0.01586049611,4.198037098e-06
105,110,0.01396862518,5.99634822e-06,0.01531417611,4.063794336e-06,0.01583341877,4.194461982e-06
110,115,0.01392473772,5.98694582e-06,0.01527340868,4.058396525e-06,0.01578589441,4.18817981e-06
115,120,0.01388086836,5.977532331e-06,0.01519785436,4.048373645e-06,0.01571645163,4.178983111e-06
120,125,0.01382037606,5.964527417e-06,0.015117835,4.037730967e-06,0.01563486248,4.168151499e-06
125,130,0.01373585981,5.946309165e-06,0.01503485879,4.026665088e-06,0.01554356149,4.155996795e-06
130,135,0.01367440763,5.933027335e-06,0.01495928313,4.016559316e-06,0.01546548643,4.145574189e-06
135,140,0.01361318161,5.919764327e-06,0.01487353065,4.005061452e-06,0.01537201804,4.133061718e-06
140,145,0.01354734327,5.905468464e-06,0.01479099226,3.993963014e-06,0.01529215611,4.122340382e-06
145,150,0.01347191797,5.889048099e-06,0.01470610576,3.982516167e-06,0.0151970185,4.109531305e-06
150,155,0.01338005263,5.868985956e-06,0.01462026666,3.970906939e-06,0.01510668058,4.097331078e-06
155,160,0.01331168836,5.85401102e-06,0.01453563722,3.95942773e-06,0.01501864518,4.085406249e-06
160,165,0.01324581706,5.83954545e-06,0.01443720746,3.946034038e-06,0.01491298857,4.071048144e-06
165,170,0.01314903202,5.818225109e-06,0.01435063455,3.934215751e-06,0.01482896866,4.059593515e-06
170,175,0.01308734167,5.804594388e-06,0.01425790344,3.921516896e-06,0.01473516547,4.046766588e-06
175,180,0.01299476094,5.784077488e-06,0.01417054206,3.909515209e-06,0.01463040476,4.032392535e-06
180,185,0.01290091298,5.763204421e-06,0.0140685649,3.895458347e-06,0.01453131714,4.018748997e-06
185,190,0.01281810391,5.744723047e-06,0.01396485903,3.881110505e-06,0.01441328172,4.002435168e-06
190,195,0.01272299668,5.723422566e-06,0.01385669965,3.866089133e-06,0.01431023797,3.988138323e-06
195,200,0.01262215473,5.700749933e-06,0.01374303319,3.850239171e-06,0.01419445155,3.972011483e-06
200,205,0.01250451893,5.674185846e-06,0.01362319122,3.833456412e-06,0.0140544729,3.952426356e-06
205,210,0.01239419718,5.649158745e-06,0.01348419847,3.813898316e-06,0.01392055644,3.933597224e-06
210,215,0.01227887951,5.62287826e-06,0.01333486545,3.792771733e-06,0.01376191215,3.911172894e-06
215,220,0.01212961087,5.588675257e-06,0.01316878941,3.769136095e-06,0.01359070976,3.88682682e-06
220,225,0.01199079887,5.55667742e-06,0.01298125789,3.742265715e-06,0.01339728071,3.859133463e-06
225,230,0.01179568902,5.511385474e-06,0.0127332828,3.706432772e-06,0.01314092274,3.822118401e-06
230,235,0.01148566301,5.438634557e-06,0.01236543675,3.652624778e-06,0.01276898543,3.767762582e-06
235,240,0.01111347933,5.34997946e-06,0.01194544893,3.59019474e-06,0.01233360645,3.703112518e-06
240,245,0.01070192059,5.25018779e-06,0.0114864956,3.520695844e-06,0.01186272137,3.631883567e-06
245,250,0.01028051979,5.145988019e-06,0.01098082783,3.442485011e-06,0.01135076126,3.552807496e-06
250,255,0.009799439241,5.024369299e-06,0.01044772848,3.358043504e-06,0.01081194936,3.467621087e-06
255,260,0.009290037659,4.892271724e-06,0.009864212231,3.263092758e-06,0.01021555359,3.370801887e-06
260,265,0.008709424061,4.73718494e-06,0.009235531585,3.157575561e-06,0.00957775823,3.26406219e-06
265,270,0.008082094411,4.563660068e-06,0.008555407997,3.039273389e-06,0.008875853978,3.14237642e-06
270,275,0.007538554982,4.407757042e-06,0.007927078979,2.925705221e-06,0.008240969364,3.0280733e-06
275,280,0.007211446005,4.311199853e-06,0.007461226747,2.838555021e-06,0.007771670474,2.940710193e-06
280,285,0.006830006018,4.195784456e-06,0.006966338893,2.742924444e-06,0.007262421539,2.842857423e-06
285,290,0.006398235742,4.061163066e-06,0.006404058063,2.6300328e-06,0.00666701987,2.723973164e-06
290,295,0.005858941597,3.88644001e-06,0.00576088552,2.494613697e-06,0.005986191454,2.581297639e-06
295,300,0.005207186841,3.664128192e-06,0.004994660995,2.322959444e-06,0.005182486393,2.401941053e-06
300,305,0.004351035372,3.349657702e-06,0.00405397451,2.092983895e-06,0.00420426552,2.163592296e-06
305,310,0.003161269391,2.855509336e-06,0.002837849345,1.75132839e-06,0.002938310548,1.808952667e-06
310,315,0.001316958697,1.843378025e-06,0.001120822617,1.100800043e-06,0.001159394399,1.136478949e-06
315,320,1.368113236e-05,1.879068282e-07,1.098763834e-05,1.090023048e-07,1.135859336e-05,1.124998096e-07
320,325,0,0,0,0,0,0
325,330,0,0,0,0,0,0
330,335,0,0,0,0,0,0
335,340,0,0,0,0,0,0
340,345,0,0,0,0,0,0
345,350,0,0,0,0,0,0
350,355,0,0,0,0,0,0
355,360,0,0,0,0,0,0
360,365,0,0,0,0,0,0
365,370,0,0,0,0,0,0
370,375,0,0,0,0,0,0
