# xl,xh,LO,dLO,CS+LOnovp,dCS+LOnovp,CS+LO,dCS+LO
0,5,0,0,0,0,0,0
5,10,0,0,0,0,0,0
10,15,0,0,0,0,0,0
15,20,0,0,0,0,0,0
20,25,0,0,0.00195904546,1.45522286e-06,0.002036116624,1.505961541e-06
25,30,0,0,0.001602558995,1.316219105e-06,0.001657808237,1.358920523e-06
30,35,0,0,0.001108081055,1.09452645e-06,0.001148258643,1.131009047e-06
35,40,0,0,0.0007820314474,9.195288231e-07,0.0008060950273,9.476594839e-07
40,45,0,0,0.0005584528852,7.77061144e-07,0.000573264146,7.991814825e-07
45,50,0,0,0.0003992432091,6.570326664e-07,0.0004054771096,6.721365957e-07
50,55,0,0,0.0002812826903,5.514984463e-07,0.000286068263,5.645647258e-07
55,60,0,0,0.000193890972,4.578835111e-07,0.0001965154877,4.679297434e-07
60,65,0,0,0.0001293406452,3.739781314e-07,0.0001307629894,3.81704443e-07
65,70,0,0,8.065703498e-05,2.953260046e-07,8.131629156e-05,3.010062471e-07
70,75,0,0,4.415707863e-05,2.185155317e-07,4.442817187e-05,2.224934769e-07
75,80,0,0,2.030457842e-05,1.481767477e-07,2.053324848e-05,1.512577943e-07
80,85,0,0,9.767871337e-06,1.027740625e-07,9.805330514e-06,1.045250802e-07
85,90,0,0,5.125608824e-06,7.444852016e-08,4.811294571e-06,7.321843216e-08
90,95,0,0,2.364917277e-06,5.056982475e-08,2.368879524e-06,5.137611186e-08
95,100,0,0,9.407749973e-07,3.189525538e-08,9.537937176e-07,3.259999401e-08
100,105,0,0,2.378982772e-07,1.603909748e-08,2.362199632e-07,1.622365255e-08
105,110,0,0,1.18949098e-08,3.586450078e-09,1.22566235e-08,3.695510856e-09
110,115,0,0,0,0,0,0
115,120,0,0,0,0,0,0
120,125,0,0,0,0,0,0
125,130,0,0,0,0,0,0
130,135,0,0,0,0,0,0
135,140,0,0,0,0,0,0
140,145,0,0,0,0,0,0
145,150,0,0,0,0,0,0
150,155,0,0,0,0,0,0
155,160,0,0,0,0,0,0
160,165,0,0,0,0,0,0
165,170,0,0,0,0,0,0
170,175,0,0,0,0,0,0
175,180,0,0,0,0,0,0
180,185,0,0,0,0,0,0
185,190,0,0,0,0,0,0
190,195,0,0,0,0,0,0
195,200,0,0,0,0,0,0
200,205,0,0,0,0,0,0
205,210,0,0,0,0,0,0
210,215,0,0,0,0,0,0
215,220,0,0,0,0,0,0
220,225,0,0,0,0,0,0
225,230,0,0,0,0,0,0
230,235,0,0,0,0,0,0
235,240,0,0,0,0,0,0
240,245,0,0,0,0,0,0
245,250,0,0,0,0,0,0
250,255,0,0,0,0,0,0
255,260,0,0,0,0,0,0
260,265,0,0,0,0,0,0
265,270,0,0,0,0,0,0
270,275,0,0,0,0,0,0
275,280,0,0,0,0,0,0
280,285,0,0,0,0,0,0
285,290,0,0,0,0,0,0
290,295,0,0,0,0,0,0
295,300,0,0,0,0,0,0
300,305,0,0,0,0,0,0
305,310,0,0,0,0,0,0
310,315,0,0,0,0,0,0
315,320,0,0,0,0,0,0
320,325,0,0,0,0,0,0
325,330,0,0,0,0,0,0
330,335,0,0,0,0,0,0
335,340,0,0,0,0,0,0
340,345,0,0,0,0,0,0
345,350,0,0,0,0,0,0
350,355,0,0,0,0,0,0
355,360,0,0,0,0,0,0
360,365,0,0,0,0,0,0
365,370,0,0,0,0,0,0
370,375,0,0,0,0,0,0
375,380,0,0,0,0,0,0
380,385,0,0,0,0,0,0
385,390,0,0,0,0,0,0
390,395,0,0,0,0,0,0
395,400,0,0,0,0,0,0
400,405,0,0,0,0,0,0
405,410,0,0,0,0,0,0
410,415,0,0,0,0,0,0
415,420,0,0,0,0,0,0
420,425,0,0,0,0,0,0
425,430,0,0,0,0,0,0
430,435,0,0,0,0,0,0
435,440,0,0,0,0,0,0
440,445,0,0,0,0,0,0
445,450,0,0,0,0,0,0
450,455,0,0,0,0,0,0
455,460,0,0,0,0,0,0
460,465,0,0,0,0,0,0
465,470,0,0,0,0,0,0
470,475,0,0,0,0,0,0
475,480,0,0,0,0,0,0
480,485,0,0,0,0,0,0
485,490,0,0,0,0,0,0
490,495,0,0,0,0,0,0
495,500,0,0,0,0,0,0
500,505,0,0,0,0,0,0
505,510,0,0,0,0,0,0
