# xl,xh,LO,dLO,CS+LOnovp,dCS+LOnovp,CS+LO,dCS+LO
214.68,222.36,0,0,0,0,0,0
222.36,230.04,0,0,0,0,0,0
230.04,237.72,0,0,0,0,0,0
237.72,245.4,0,0,0,0,0,0
245.4,253.08,0,0,0,0,0,0
253.08,260.76,0,0,0,0,0,0
260.76,268.44,0,0,0,0,0,0
268.44,276.12,0,0,0,0,0,0
276.12,283.8,0,0,0,0,0,0
283.8,291.48,0,0,0,0,0,0
291.48,299.16,0,0,0,0,0,0
299.16,306.84,0,0,0,0,0,0
306.84,314.52,0,0,0,0,0,0
314.52,322.2,0,0,0,0,0,0
322.2,329.88,0,0,0,0,0,0
329.88,337.56,0,0,0,0,0,0
337.56,345.24,0,0,0,0,0,0
345.24,352.92,0,0,0,0,0,0
352.92,360.6,0,0,0,0,0,0
360.6,368.28,0,0,0,0,0,0
368.28,375.96,0,0,0,0,0,0
375.96,383.64,0,0,0,0,0,0
383.64,391.32,0,0,0,0,0,0
391.32,399,0,0,0,0,0,0
399,406.68,0,0,0,0,0,0
406.68,414.36,0,0,0,0,0,0
414.36,422.04,0,0,0,0,0,0
422.04,429.72,0,0,0,0,0,0
429.72,437.4,0,0,0,0,0,0
437.4,445.08,0,0,0,0,0,0
445.08,452.76,0,0,0,0,0,0
452.76,460.44,0,0,0,0,0,0
460.44,468.12,0,0,0,0,0,0
468.12,475.8,0,0,0,0,0,0
475.8,483.48,0,0,0,0,0,0
483.48,491.16,1.512211375e-08,5.040704341e-09,2.534425136e-08,4.224041671e-09,3.119277126e-08,4.756852752e-09
491.16,498.84,2.879942523e-06,6.956298522e-08,2.672406197e-06,4.337496981e-08,2.678967815e-06,4.408366222e-08
498.84,506.52,2.257412e-05,1.947558687e-07,2.107229958e-05,1.217987356e-07,2.153983743e-05,1.250011791e-07
506.52,514.2,0.0001500578641,5.021188905e-07,0.0001409969009,3.150536166e-07,0.0001425373447,3.215511891e-07
514.2,521.88,0.0003171163639,7.299211273e-07,0.000295740226,4.562738727e-07,0.000299893575,4.664018316e-07
521.88,529.56,0.0004770339455,8.952230143e-07,0.0004470156743,5.60948167e-07,0.0004522806652,5.727588482e-07
529.56,537.24,0.0006339018002,1.03194778e-06,0.0005936418108,6.464200153e-07,0.0006009623088,6.602109941e-07
537.24,544.92,0.0007871841861,1.149940371e-06,0.0007363705233,7.199331499e-07,0.0007447329449,7.349386165e-07
544.92,552.6,0.0009371310941,1.254665269e-06,0.0008772224099,7.857608442e-07,0.0008848770851,8.010951053e-07
552.6,560.28,0.001079330363,1.346467734e-06,0.001011788951,8.438639278e-07,0.00102530205,8.623038921e-07
560.28,567.96,0.001224051562,1.433869016e-06,0.001148386557,8.990075023e-07,0.001161072063,9.176057551e-07
567.96,575.64,0.001367630566,1.515601518e-06,0.001280875494,9.494339583e-07,0.00129333809,9.684447426e-07
575.64,583.32,0.001509554276,1.592267632e-06,0.001411632004,9.966994504e-07,0.001425748648,1.01679311e-06
583.32,591,0.001648341121,1.663820756e-06,0.00153996381,1.041000696e-06,0.001555926347,1.062179819e-06
591,598.68,0.001785657639,1.731703194e-06,0.001674574631,1.085525258e-06,0.00168832972,1.106431336e-06
598.68,606.36,0.001925806909,1.798340405e-06,0.001800781045,1.125668615e-06,0.001817562919,1.147976592e-06
606.36,614.04,0.002061999553,1.860806749e-06,0.001932685753,1.166145693e-06,0.001948756148,1.188664828e-06
614.04,621.72,0.00220143804,1.922655322e-06,0.002060445141,1.204051435e-06,0.002075325561,1.226637958e-06
621.72,629.4,0.002338235653,1.981452961e-06,0.002190932777,1.24157003e-06,0.002206049604,1.264658652e-06
629.4,637.08,0.002479670699,2.040458461e-06,0.002320897145,1.277841049e-06,0.002336700134,1.301546093e-06
637.08,644.76,0.002622170506,2.098225834e-06,0.002454321784,1.314034084e-06,0.002468425207,1.33770509e-06
644.76,652.44,0.002767152082,2.155406257e-06,0.002590322945,1.349925073e-06,0.002603708498,1.373848062e-06
652.44,660.12,0.002916909542,2.212914952e-06,0.002724603102,1.38444684e-06,0.002739425324,1.40917308e-06
660.12,667.8,0.003066945277,2.269064282e-06,0.002865103047,1.419666572e-06,0.00288087528,1.445069038e-06
667.8,675.48,0.003218186147,2.3242876e-06,0.003010773801,1.455279958e-06,0.003021145177,1.479803355e-06
675.48,683.16,0.003374418671,2.379983388e-06,0.003159476082,1.490754381e-06,0.003168368571,1.51540065e-06
683.16,690.84,0.003540437215,2.437768434e-06,0.003309009031,1.525592539e-06,0.003317547194,1.550634679e-06
690.84,698.52,0.003707517788,2.494566712e-06,0.0034641564,1.560914105e-06,0.003470884634,1.586032543e-06
698.52,706.2,0.003878724993,2.551450992e-06,0.003619791024,1.595558258e-06,0.003630140753,1.621976141e-06
706.2,713.88,0.004060401356,2.610452345e-06,0.003788118918,1.632197147e-06,0.003800399181,1.659538822e-06
713.88,721.56,0.004249738478,2.670548608e-06,0.003959894858,1.668754001e-06,0.00397723879,1.697670271e-06
721.56,729.24,0.004446315685,2.7315375e-06,0.004139145511,1.706063087e-06,0.004155609463,1.73527965e-06
729.24,736.92,0.004645136244,2.791860736e-06,0.004322542353,1.743405211e-06,0.004349790879,1.775313222e-06
736.92,744.6,0.004860185735,2.855666007e-06,0.004519800901,1.78269289e-06,0.004556159016,1.816888178e-06
744.6,752.28,0.005083236797,2.920364822e-06,0.004718480471,1.821402904e-06,0.004774177772,1.85979622e-06
752.28,759.96,0.005317707298,2.98685688e-06,0.004932521976,1.862201147e-06,0.005000331936,1.903278354e-06
759.96,767.64,0.005569275492,3.056579624e-06,0.005158547584,1.904330109e-06,0.005231313092,1.946680979e-06
767.64,775.32,0.005829659881,3.127098602e-06,0.005397121019,1.947804002e-06,0.005459202272,1.988569319e-06
775.32,783,0.006105966711,3.20021972e-06,0.005648971282,1.992662399e-06,0.005754715693,2.041600911e-06
783,790.68,0.006397388974,3.275560506e-06,0.005915829637,2.039110852e-06,0.006327156767,2.140571989e-06
790.68,798.36,0.00671888372,3.35670021e-06,0.006197691413,2.087041372e-06,0.006578659931,2.182627374e-06
798.36,806.04,0.007046888076,3.437494626e-06,0.006500073067,2.137258374e-06,0.006864523973,2.229458662e-06
806.04,813.72,0.007417787805,3.526608087e-06,0.00681658162,2.188578922e-06,0.007181869601,2.280312994e-06
813.72,821.4,0.007796325756,3.615273456e-06,0.007161740127,2.243197037e-06,0.007532033786,2.335131842e-06
821.4,829.08,0.008215977677,3.711071809e-06,0.007528954402,2.299870592e-06,0.007923180599,2.394871642e-06
829.08,836.76,0.008669684483,3.811911361e-06,0.007927087842,2.359766244e-06,0.008334980236,2.456183091e-06
836.76,844.44,0.009168232751,3.919697606e-06,0.008354097584,2.422346387e-06,0.008777175614,2.520345341e-06
844.44,852.12,0.00970175976,4.03182231e-06,0.008827585956,2.489883236e-06,0.00925705751,2.588160098e-06
852.12,859.8,0.01028435865,4.150763841e-06,0.009335796385,2.560372319e-06,0.009787065866,2.661031263e-06
859.8,867.48,0.01092946625,4.278565991e-06,0.009892757961,2.635436961e-06,0.0103672552,2.738556834e-06
867.48,875.16,0.01163927617,4.414860594e-06,0.01050570178,2.715623835e-06,0.01099647566,2.820199951e-06
875.16,882.84,0.01242702501,4.561292484e-06,0.01118718212,2.802053518e-06,0.01169836063,2.908537455e-06
882.84,890.52,0.01330987887,4.719931593e-06,0.01193411943,2.893785397e-06,0.01246831882,3.002417971e-06
890.52,898.2,0.01430504432,4.892496036e-06,0.01277474189,2.993619512e-06,0.0133389745,3.105114104e-06
898.2,905.88,0.0154240791,5.079428889e-06,0.01371862472,3.101837195e-06,0.01431472055,3.216257251e-06
905.88,913.56,0.01669909899,5.284224884e-06,0.01479643292,3.220900549e-06,0.01541833377,3.33744083e-06
913.56,921.24,0.0181769898,5.511913927e-06,0.01601758204,3.350608749e-06,0.01667751181,3.47045865e-06
921.24,928.92,0.01989077265,5.764464732e-06,0.01743835521,3.495363752e-06,0.01812896707,3.617619595e-06
928.92,936.6,0.0219117727,6.048450894e-06,0.01908646383,3.655973175e-06,0.0198262883,3.782315716e-06
936.6,944.28,0.0243260494,6.370719399e-06,0.02104336384,3.837777671e-06,0.02183174989,3.967929672e-06
944.28,951.96,0.02726520905,6.741725013e-06,0.0233935457,4.045092018e-06,0.02423643654,4.179393314e-06
951.96,959.64,0.03091393449,7.17484534e-06,0.02625617736,4.283741351e-06,0.0271782867,4.424024055e-06
959.64,967.32,0.03555459268,7.689335897e-06,0.02985540888,4.565637489e-06,0.030857984,4.711664592e-06
967.32,975,0.04167194095,8.317142135e-06,0.03452477889,4.906510904e-06,0.03560505659,5.057869836e-06
975,982.68,0.05010418481,9.10861396e-06,0.04079137202,5.328581779e-06,0.04197350196,5.486872243e-06
982.68,990.36,0.06245533001,1.015105378e-05,0.04966896239,5.872604842e-06,0.05093048022,6.036680978e-06
990.36,998.04,0.08232405339,1.162022688e-05,0.06273738252,6.588024241e-06,0.06401237842,6.755663119e-06
998.04,1005.72,0.02309741897,6.208863895e-06,0.01571907008,3.319377532e-06,0.01596928699,3.39629504e-06
1005.72,1013.4,0,0,0,0,0,0
1013.4,1021.08,0,0,0,0,0,0
