# xl,xh,LO,dLO,CS+LOnovp,dCS+LOnovp,CS+LO,dCS+LO
200,205,0,0,0,0,0,0
205,210,0,0,0,0,0,0
210,215,0,0,6.48814955e-08,8.376164633e-09,6.01692131e-08,8.187992379e-09
215,220,0,0,1.333308202e-06,3.797072932e-08,1.230124306e-06,3.702238521e-08
220,225,0,0,5.650068995e-06,7.816464549e-08,5.660347411e-06,7.941654663e-08
225,230,4.387458785e-08,1.064114996e-08,1.451175708e-05,1.252688682e-07,1.498879118e-05,1.29232752e-07
230,235,1.375603433e-06,5.958398846e-08,3.076339691e-05,1.823893863e-07,3.081770898e-05,1.85305699e-07
235,240,9.85371292e-06,1.594709269e-07,6.158633103e-05,2.580617293e-07,6.216690918e-05,2.631885814e-07
240,245,3.01134618e-05,2.787797484e-07,0.0001164249686,3.54815246e-07,0.0001169775508,3.610243655e-07
245,250,6.293943356e-05,4.03033406e-07,0.0001995820785,4.645545317e-07,0.000201038244,4.732836287e-07
250,255,0.0001111215462,5.355214545e-07,0.0003205390285,5.887239393e-07,0.0003230354599,5.999327831e-07
255,260,0.0001846398434,6.902991059e-07,0.000494110284,7.309310569e-07,0.0004982411205,7.450589733e-07
260,265,0.0002965536756,8.748260269e-07,0.0007528942749,9.022384745e-07,0.0007610706845,9.208171064e-07
265,270,0.0004935688655,1.128589242e-06,0.001173489851,1.126360971e-06,0.001181849647,1.147429601e-06
270,275,0.001172923456,1.739678743e-06,0.00222378762,1.550399256e-06,0.002239531645,1.579368445e-06
275,280,0.002955848347,2.76122826e-06,0.004515782783,2.20888885e-06,0.004550495021,2.250849994e-06
280,285,0.003778151852,3.12152843e-06,0.005530951693,2.444373642e-06,0.005577673222,2.491751904e-06
285,290,0.004330122701,3.341604753e-06,0.006209624889,2.589845161e-06,0.006248596357,2.637206006e-06
290,295,0.004861935044,3.540689133e-06,0.006853971999,2.720740322e-06,0.006893849408,2.769869054e-06
295,300,0.005387126855,3.726836178e-06,0.0074883447,2.843701745e-06,0.007534875911,2.895623324e-06
300,305,0.005943787368,3.914448126e-06,0.008142067949,2.965056129e-06,0.00818819605,3.018376004e-06
305,310,0.006520782766,4.099823482e-06,0.008829129783,3.087433753e-06,0.008873326957,3.141929766e-06
310,315,0.007131395955,4.287237534e-06,0.009541247378,3.209322941e-06,0.0095889385,3.265963517e-06
315,320,0.00778397157,4.478825675e-06,0.01030564424,3.335174146e-06,0.01036064078,3.394611574e-06
320,325,0.008476593493,4.673538429e-06,0.01111138505,3.46284864e-06,0.01117872016,3.525833164e-06
325,330,0.009241579007,4.879517722e-06,0.01198217969,3.595698385e-06,0.01206939039,3.663317491e-06
330,335,0.01008067871,5.095822729e-06,0.01294707952,3.737347473e-06,0.01307202194,3.812108012e-06
335,340,0.01103010246,5.329915067e-06,0.01400614885,3.886829349e-06,0.01420601974,3.973625685e-06
340,345,0.01210734221,5.583554355e-06,0.01519431949,4.047904114e-06,0.01549766488,4.149873041e-06
345,350,0.01334341642,5.860965489e-06,0.01655222025,4.224395157e-06,0.01696270974,4.341038278e-06
350,355,0.01480321884,6.1723972e-06,0.01810747991,4.417784164e-06,0.01865904217,4.552250972e-06
355,360,0.01656218017,6.527732745e-06,0.01993803114,4.634948256e-06,0.02062674111,4.785441561e-06
360,365,0.01876843633,6.947476849e-06,0.02216097719,4.885523046e-06,0.02300424653,5.052662295e-06
365,370,0.02168150204,7.465142948e-06,0.02494898602,5.18243333e-06,0.02596359521,5.366437317e-06
370,375,0.02582003683,8.143325788e-06,0.02866152386,5.552789828e-06,0.02988733076,5.755695452e-06
375,380,0.02905117571,8.635199444e-06,0.03127305222,5.79888098e-06,0.03271572162,6.020391371e-06
380,385,0.0292301172,8.661606321e-06,0.03127904892,5.799433749e-06,0.03269421511,6.01842355e-06
385,390,0.02919409895,8.656297731e-06,0.03108578287,5.781590331e-06,0.03247317024,5.99816016e-06
390,395,0.02912801034,8.646548238e-06,0.03086877312,5.761487449e-06,0.03224686693,5.977341953e-06
395,400,0.02903147424,8.63228718e-06,0.03064518781,5.740700055e-06,0.03198861881,5.953494034e-06
400,405,0.02896537196,8.622507926e-06,0.03040507481,5.718290068e-06,0.03172903404,5.92942383e-06
405,410,0.02885378428,8.605973982e-06,0.03013310117,5.692797513e-06,0.03142279378,5.900898405e-06
410,415,0.02874392845,8.589664698e-06,0.02984416204,5.665586384e-06,0.03110419515,5.871071418e-06
415,420,0.02860171214,8.568504517e-06,0.029524046,5.635282148e-06,0.03074041296,5.836823901e-06
420,425,0.02843033627,8.542933958e-06,0.02915905569,5.600525621e-06,0.0303447882,5.799343955e-06
425,430,0.02821364011,8.510489306e-06,0.02873491848,5.559857997e-06,0.02989123635,5.756069423e-06
430,435,0.02795090705,8.470981473e-06,0.02823856256,5.511876607e-06,0.02936191401,5.70514162e-06
435,440,0.02761320274,8.419921527e-06,0.02765728071,5.455138138e-06,0.0287294067,5.643670699e-06
440,445,0.02712196451,8.345078485e-06,0.02695809556,5.38608314e-06,0.02798150886,5.57009227e-06
445,450,0.02652905275,8.253822039e-06,0.02608453716,5.298516492e-06,0.02705058643,5.477099232e-06
450,455,0.02568288535,8.121774455e-06,0.02497665301,5.185293052e-06,0.02588247265,5.358085174e-06
455,460,0.02445141225,7.925590147e-06,0.02350003146,5.03035136e-06,0.02431691159,5.19422223e-06
460,465,0.02260515499,7.621829627e-06,0.02141096639,4.802464437e-06,0.0221470104,4.957999023e-06
465,470,0.01950605911,7.082189581e-06,0.01819841525,4.428826933e-06,0.01879904484,4.569241227e-06
470,475,0.01305576466,5.797604839e-06,0.0119767835,3.594890345e-06,0.01236342108,3.707575969e-06
475,480,0.001389287153,1.893308366e-06,0.001226030647,1.151294781e-06,0.00126250408,1.185927879e-06
480,485,7.497394761e-06,1.391031563e-07,5.874991209e-06,7.970528495e-08,5.942260102e-06,8.137024475e-08
485,490,0,0,0,0,0,0
490,495,0,0,0,0,0,0
495,500,0,0,0,0,0,0
