# xl,xh,LO,dLO,CS+LOnovp,dCS+LOnovp,CS+LO,dCS+LO
0,5,0.0771323395,1.778318966e-05,0.005846133515,9.786429255e-07,0.08991443685,1.267205252e-05
5,10,0.07702527035,1.777095398e-05,0.005845946252,9.786273575e-07,0.08979280423,1.266356356e-05
10,15,0.07680628797,1.774590164e-05,0.005842447979,9.783365431e-07,0.08956556566,1.264768884e-05
15,20,0.07648767498,1.770938588e-05,0.005838882148,9.780400064e-07,0.08920985946,1.262279736e-05
20,25,0.07603908781,1.765784164e-05,0.005833279217,9.775738889e-07,0.08874800405,1.259040142e-05
25,30,0.07555827134,1.760242011e-05,0.005826499834,9.770095902e-07,0.08820866852,1.255246067e-05
30,35,0.07492686063,1.752936447e-05,0.005818838796,9.763715031e-07,0.08751384799,1.250340561e-05
35,40,0.07428512102,1.745478947e-05,0.005808459368,9.755063144e-07,0.08678239327,1.2451547e-05
40,45,0.07353797208,1.736754701e-05,0.005797134829,9.745614478e-07,0.08597838402,1.239428441e-05
45,50,0.07275767229,1.727594694e-05,0.005784377613,9.734959085e-07,0.08506165051,1.232865609e-05
50,55,0.07194632222,1.718016621e-05,0.005771228216,9.723963604e-07,0.0841281828,1.226145493e-05
55,60,0.07106099946,1.707501817e-05,0.005755690117,9.710954317e-07,0.08313563101,1.218957849e-05
60,65,0.07018967555,1.697087547e-05,0.005740001721,9.697800825e-07,0.08213937772,1.2116989e-05
65,70,0.06939294016,1.687506636e-05,0.005720814487,9.681689042e-07,0.08122636484,1.205006642e-05
70,75,0.06873872551,1.679597353e-05,0.005701239107,9.665222802e-07,0.08039309812,1.198865101e-05
75,80,0.06814760991,1.672417714e-05,0.005680054564,9.647370423e-07,0.07954832492,1.192605287e-05
80,85,0.06749883237,1.664500854e-05,0.005656395541,9.627392658e-07,0.07873657467,1.18655796e-05
85,90,0.06681094976,1.656064193e-05,0.005631324862,9.606176225e-07,0.07788607548,1.180187519e-05
90,95,0.06618209289,1.648312456e-05,0.005604518757,9.583437633e-07,0.07706415431,1.173997154e-05
95,100,0.0655543102,1.640536273e-05,0.005578198073,9.561057126e-07,0.0762366847,1.167730686e-05
100,105,0.06497734099,1.633355856e-05,0.005546531389,9.534059218e-07,0.07545350101,1.16176738e-05
105,110,0.06438816616,1.625989784e-05,0.00551395622,9.506204602e-07,0.07462165963,1.155398755e-05
110,115,0.06376651761,1.618180228e-05,0.005478082599,9.475432363e-07,0.07384356666,1.149408589e-05
115,120,0.06315533707,1.610464191e-05,0.005439565707,9.442277908e-07,0.07304261924,1.143208615e-05
120,125,0.06256333724,1.602953775e-05,0.005397079857,9.405568079e-07,0.07222881662,1.136873356e-05
125,130,0.06189583461,1.594441848e-05,0.005339230172,9.355345489e-07,0.07133490419,1.129872189e-05
130,135,0.06119283273,1.585426316e-05,0.005277979645,9.301867498e-07,0.07045014011,1.122898296e-05
135,140,0.06053937751,1.576998656e-05,0.00521473377,9.246314285e-07,0.06954366986,1.115706673e-05
140,145,0.05984317692,1.567968454e-05,0.005147587649,9.186958493e-07,0.06866680403,1.108704142e-05
145,150,0.0591740239,1.55923832e-05,0.005079483265,9.126351246e-07,0.06781456184,1.101854277e-05
150,155,0.05852528941,1.550726374e-05,0.00500988703,9.063987633e-07,0.06692835162,1.094684565e-05
155,160,0.0578361404,1.541631234e-05,0.004938656329,8.999701015e-07,0.06606293424,1.087636067e-05
160,165,0.05719304508,1.533093904e-05,0.004865170351,8.932882555e-07,0.0652180944,1.080709507e-05
165,170,0.05653844929,1.52435343e-05,0.004789960252,8.863962545e-07,0.06437194373,1.073726096e-05
170,175,0.05586740876,1.515339654e-05,0.004714329798,8.794100112e-07,0.06350403193,1.066514205e-05
175,180,0.05520314377,1.506362368e-05,0.004634862001,8.720076367e-07,0.06265025523,1.059370496e-05
180,185,0.05453195829,1.497235441e-05,0.004555915513,8.645896602e-07,0.06178223056,1.052056432e-05
185,190,0.05388742562,1.488416907e-05,0.004472301434,8.566615061e-07,0.06092412952,1.044774276e-05
190,195,0.05317171556,1.478561286e-05,0.004390040994,8.487878935e-07,0.06007773637,1.037540018e-05
195,200,0.05248591015,1.469053891e-05,0.004301227721,8.402024767e-07,0.05916381004,1.029669931e-05
200,205,0.0517783154,1.459177891e-05,0.004208829262,8.311744155e-07,0.05824271891,1.021675179e-05
205,210,0.05103825485,1.44877492e-05,0.004113434201,8.217473843e-07,0.05728646542,1.013306753e-05
210,215,0.05027395595,1.437950328e-05,0.004006564037,8.110536522e-07,0.05626057064,1.004249333e-05
215,220,0.04934789167,1.424721901e-05,0.003880386711,7.982400013e-07,0.05508066791,9.937275459e-06
220,225,0.04821860335,1.408418443e-05,0.00372251658,7.819066386e-07,0.05357104539,9.800966989e-06
225,230,0.04690884005,1.389264286e-05,0.003553988322,7.64078379e-07,0.05191748958,9.649399354e-06
230,235,0.0454433526,1.367507731e-05,0.003379323608,7.451431088e-07,0.05007668095,9.477750069e-06
235,240,0.04384780076,1.34341095e-05,0.003198501331,7.250108989e-07,0.04801084586,9.281252454e-06
240,245,0.04200540432,1.315025453e-05,0.003010649363,7.034765421e-07,0.04563479857,9.049858734e-06
245,250,0.03978291332,1.279929574e-05,0.002815855624,6.804163765e-07,0.04290929968,8.776767935e-06
250,255,0.03718960438,1.237696331e-05,0.002615774883,6.558750768e-07,0.03970514486,8.444207241e-06
255,260,0.03400594421,1.183753296e-05,0.002406006943,6.291051511e-07,0.03588775528,8.029709732e-06
260,265,0.03013041225,1.11451064e-05,0.002189948174,6.002707495e-07,0.03140549243,7.513400758e-06
265,270,0.02567319702,1.029044582e-05,0.001996582923,5.732229214e-07,0.02638918977,6.889163886e-06
270,275,0.02091922456,9.291524346e-06,0.001833922874,5.49429721e-07,0.02118174962,6.173886304e-06
275,280,0.01654258871,8.264684833e-06,0.001663873538,5.233899628e-07,0.0165161403,5.453097198e-06
280,285,0.01279879845,7.271157212e-06,0.001482992694,4.941754076e-07,0.01255597016,4.755634663e-06
285,290,0.009636162472,6.310310067e-06,0.001288495869,4.606838666e-07,0.009280816072,4.089351572e-06
290,295,0.007026924131,5.389481558e-06,0.001074273622,4.20701305e-07,0.006628216974,3.456391279e-06
295,300,0.004824438021,4.466251893e-06,0.0008313579151,3.70145667e-07,0.004435747445,2.827874575e-06
300,305,0.002844292436,3.429705313e-06,0.0005413700331,2.987445852e-07,0.002523630831,2.133217621e-06
305,310,0.0008354160481,1.85896695e-06,0.0001696761629,1.672855957e-07,0.0007040315928,1.126838386e-06
310,315,2.900027075e-06,1.095324873e-07,5.941915929e-07,9.900439493e-09,2.36826253e-06,6.535779674e-08
315,320,0,0,0,0,0,0
320,325,0,0,0,0,0,0
325,330,0,0,0,0,0,0
330,335,0,0,0,0,0,0
335,340,0,0,0,0,0,0
340,345,0,0,0,0,0,0
345,350,0,0,0,0,0,0
350,355,0,0,0,0,0,0
355,360,0,0,0,0,0,0
360,365,0,0,0,0,0,0
365,370,0,0,0,0,0,0
370,375,0,0,0,0,0,0
