# xl,xh,LO,dLO,CS+LOnovp,dCS+LOnovp,CS+LO,dCS+LO
214.68,222.36,0,0,0,0,0,0
222.36,230.04,0,0,0,0,0,0
230.04,237.72,0,0,0,0,0,0
237.72,245.4,0,0,0,0,0,0
245.4,253.08,0,0,0,0,0,0
253.08,260.76,0,0,0,0,0,0
260.76,268.44,0,0,0,0,0,0
268.44,276.12,0,0,0,0,0,0
276.12,283.8,0,0,0,0,0,0
283.8,291.48,0,0,0,0,0,0
291.48,299.16,0,0,0,0,0,0
299.16,306.84,0,0,0,0,0,0
306.84,314.52,0,0,0,0,0,0
314.52,322.2,0,0,0,0,0,0
322.2,329.88,0,0,0,0,0,0
329.88,337.56,0,0,0,0,0,0
337.56,345.24,0,0,0,0,0,0
345.24,352.92,0,0,0,0,0,0
352.92,360.6,0,0,0,0,0,0
360.6,368.28,0,0,0,0,0,0
368.28,375.96,0,0,0,0,0,0
375.96,383.64,0,0,0,0,0,0
383.64,391.32,0,0,0,0,0,0
391.32,399,0,0,0,0,0,0
399,406.68,0,0,0,0,0,0
406.68,414.36,0,0,0,0,0,0
414.36,422.04,0,0,0,0,0,0
422.04,429.72,0,0,0,0,0,0
429.72,437.4,0,0,0,0,0,0
437.4,445.08,0,0,0,0,0,0
445.08,452.76,0,0,0,0,0,0
452.76,460.44,0,0,0,0,0,0
460.44,468.12,0,0,0,0,0,0
468.12,475.8,0,0,0,0,0,0
475.8,483.48,0,0,2.362790489e-09,5.037485987e-10,7.045514973e-09,2.876319304e-09
483.48,491.16,0,0,4.875809123e-08,2.288330405e-09,1.373914853e-07,1.270184641e-08
491.16,498.84,0,0,5.779025821e-07,7.878125455e-09,1.841278173e-06,4.649928625e-08
498.84,506.52,0,0,2.194118772e-06,1.535058986e-08,7.705659803e-06,9.512428727e-08
506.52,514.2,3.770633935e-08,1.007744256e-08,5.268788496e-06,2.378752891e-08,1.978553003e-05,1.524262904e-07
514.2,521.88,4.058872139e-06,1.04555906e-07,1.08742652e-05,3.417367405e-08,4.271342711e-05,2.239583738e-07
521.88,529.56,5.106842362e-05,3.708684082e-07,2.779798314e-05,5.463760761e-08,0.0001148204072,3.671910359e-07
529.56,537.24,0.0002629051902,8.414632362e-07,8.031766311e-05,9.286881165e-08,0.0003517217803,6.426484655e-07
537.24,544.92,0.0005293680697,1.193999231e-06,0.0001382685319,1.218437523e-07,0.0006390470209,8.662231114e-07
544.92,552.6,0.0008263492712,1.491748169e-06,0.0001960867526,1.450918356e-07,0.0009586238713,1.060903247e-06
552.6,560.28,0.001153652144,1.762537952e-06,0.0002535807362,1.649887585e-07,0.001313843838,1.241968402e-06
560.28,567.96,0.001524843029,2.026279088e-06,0.0003108206335,1.826537668e-07,0.001715158086,1.418979391e-06
567.96,575.64,0.001940873009,2.285963065e-06,0.0003679029905,1.98709178e-07,0.002162327978,1.593193162e-06
575.64,583.32,0.002402247256,2.543089305e-06,0.0004245653995,2.134525086e-07,0.002667464269,1.769450809e-06
583.32,591,0.002931927947,2.809369995e-06,0.0004814943923,2.273014407e-07,0.003234749475,1.948447758e-06
591,598.68,0.003534368944,3.084358982e-06,0.0005387585286,2.404258175e-07,0.003882153876,2.134426188e-06
598.68,606.36,0.004216406433,3.36863405e-06,0.0005951393597,2.526801768e-07,0.004621416606,2.32865575e-06
606.36,614.04,0.004995862189,3.666550575e-06,0.0006522576765,2.645141743e-07,0.005464933562,2.532091041e-06
614.04,621.72,0.005900580307,3.984417462e-06,0.000709153695,2.757954787e-07,0.006424473342,2.745178161e-06
621.72,629.4,0.006939515175,4.320577796e-06,0.0007662322824,2.866650237e-07,0.007540484189,2.973791725e-06
629.4,637.08,0.008133001778,4.676882852e-06,0.0008237210269,2.972089819e-07,0.008833890997,3.218397025e-06
637.08,644.76,0.009525249426,5.060755357e-06,0.0008822080619,3.075631612e-07,0.01032554037,3.479087796e-06
644.76,652.44,0.01114543116,5.473471327e-06,0.0009413659853,3.176908913e-07,0.01207223465,3.761307712e-06
652.44,660.12,0.01304325927,5.920167002e-06,0.001001212055,3.276159013e-07,0.01409396581,4.063381389e-06
660.12,667.8,0.01525457258,6.401108773e-06,0.001061254895,3.372780954e-07,0.01646036551,4.390399133e-06
667.8,675.48,0.01785202839,6.923062866e-06,0.001123069887,3.469423555e-07,0.01924129518,4.745691218e-06
675.48,683.16,0.0208968641,7.48819145e-06,0.001185222147,3.563931333e-07,0.02248671322,5.128924304e-06
683.16,690.84,0.0244442315,8.096305646e-06,0.001248528038,3.657662693e-07,0.02627906206,5.542797995e-06
690.84,698.52,0.02856415051,8.748817384e-06,0.001313879066,3.751944824e-07,0.03066791536,5.985563898e-06
698.52,706.2,0.03335026766,9.449358234e-06,0.001381342782,3.846829147e-07,0.03573938011,6.458773499e-06
706.2,713.88,0.03877413981,1.018386703e-05,0.001450501086,3.941703204e-07,0.04150661305,6.957016657e-06
713.88,721.56,0.04486094175,1.094810057e-05,0.001520941376,4.036020484e-07,0.04793335056,7.472167899e-06
721.56,729.24,0.05144140153,1.17166755e-05,0.001594922951,4.132737381e-07,0.0549012087,7.992116295e-06
729.24,736.92,0.05835267764,1.247121039e-05,0.001670107886,4.228735909e-07,0.06218984988,8.50083445e-06
736.92,744.6,0.06528632963,1.318312395e-05,0.001749013598,4.327168154e-07,0.06948109574,8.979779457e-06
744.6,752.28,0.07187309912,1.382396529e-05,0.001830666524,4.426694875e-07,0.07632397319,9.406100661e-06
752.28,759.96,0.07771103907,1.436686765e-05,0.001916647808,4.529103132e-07,0.08241362266,9.769066425e-06
759.96,767.64,0.08269870334,1.481407356e-05,0.002006301523,4.633442529e-07,0.0875472795,1.006432245e-05
767.64,775.32,0.0875438567,1.523518758e-05,0.002099206301,4.739107621e-07,0.09249416726,1.034038735e-05
775.32,783,0.0886775964,1.53319502e-05,0.002197781054,4.848666576e-07,0.09348463771,1.039472454e-05
783,790.68,0.06902813305,1.355107888e-05,0.002302058191,4.961889416e-07,0.07263831785,9.179064865e-06
790.68,798.36,0.06891534912,1.354014174e-05,0.002413236114,5.079780481e-07,0.07235015676,9.161064783e-06
798.36,806.04,0.06829401523,1.347972014e-05,0.002527955451,5.198576405e-07,0.07159099272,9.113464213e-06
806.04,813.72,0.06605462159,1.325954934e-05,0.002652342365,5.324335142e-07,0.06904171925,8.951676664e-06
813.72,821.4,0.06309949321,1.296300411e-05,0.00278456988,5.454782076e-07,0.065818025,8.742591453e-06
821.4,829.08,0.05998805671,1.264290032e-05,0.002924766683,5.589700551e-07,0.06238984613,8.514347598e-06
829.08,836.76,0.05688508392,1.2315009e-05,0.003078180957,5.733625891e-07,0.05900736728,8.282709616e-06
836.76,844.44,0.05398068248,1.199963705e-05,0.003242632996,5.8839117e-07,0.05584315112,8.059740347e-06
844.44,852.12,0.05133132628,1.170424892e-05,0.003418088699,6.040035706e-07,0.05291664047,7.847659821e-06
852.12,859.8,0.04894645015,1.143157113e-05,0.003610252752,6.206412063e-07,0.05029799858,7.652721961e-06
859.8,867.48,0.04687373657,1.118899099e-05,0.003820239105,6.383133853e-07,0.04799802631,7.477166167e-06
867.48,875.16,0.04509683956,1.097661536e-05,0.004050907143,6.571635714e-07,0.04601389736,7.322222911e-06
875.16,882.84,0.04361967129,1.079677716e-05,0.004303461858,6.771833241e-07,0.04432008671,7.187222969e-06
882.84,890.52,0.04241931331,1.064833046e-05,0.004584589085,6.987728969e-07,0.04291670157,7.07335831e-06
890.52,898.2,0.04150972645,1.053440638e-05,0.004896183262,7.219233785e-07,0.04181561689,6.98268207e-06
898.2,905.88,0.04088508322,1.045542985e-05,0.005247873681,7.471613435e-07,0.04094643741,6.910239038e-06
905.88,913.56,0.04055029106,1.041284683e-05,0.005644811121,7.746219421e-07,0.04039677412,6.864020573e-06
913.56,921.24,0.04052054578,1.040905464e-05,0.006098097834,8.047891973e-07,0.04011946833,6.840581592e-06
921.24,928.92,0.04081232838,1.044619117e-05,0.006621905834,8.382394368e-07,0.0401534295,6.843456505e-06
928.92,936.6,0.0414796835,1.053062202e-05,0.007232988988,8.755726121e-07,0.04053899521,6.876009791e-06
936.6,944.28,0.04260873549,1.067189744e-05,0.007957450877,9.177648747e-07,0.04131486425,6.941041011e-06
944.28,951.96,0.04425475282,1.087447155e-05,0.008829851448,9.659904667e-07,0.04256710956,7.044698842e-06
951.96,959.64,0.04660807032,1.115750403e-05,0.009891405819,1.02141109e-06,0.04435575198,7.19009246e-06
959.64,967.32,0.04990337092,1.154178419e-05,0.01117175835,1.084224264e-06,0.04671615407,7.377447243e-06
967.32,975,0.05452409881,1.205929618e-05,0.012745345,1.15638314e-06,0.04978314036,7.613786735e-06
975,982.68,0.06124783018,1.277351601e-05,0.01485101328,1.245818754e-06,0.05424608722,7.94473132e-06
982.68,990.36,0.07132869015,1.377218629e-05,0.01775189947,1.358388367e-06,0.06071848318,8.400721751e-06
990.36,998.04,0.08785944476,1.526218816e-05,0.0215860155,1.492535226e-06,0.06918635751,8.960937918e-06
998.04,1005.72,0.02368485511,7.970095878e-06,0.005233483912,7.461460988e-07,0.01612334129,4.345343843e-06
1005.72,1013.4,0,0,0,0,0,0
1013.4,1021.08,0,0,0,0,0,0
