# xl,xh,LO,dLO,CS+LOnovp,dCS+LOnovp,CS+LO,dCS+LO
0,5,0,0,0,0,0,0
5,10,0,0,0,0,0,0
10,15,0,0,0,0,0,0
15,20,0,0,0,0,0,0
20,25,0,0,0.0002115239864,1.867743505e-07,0.0008225022927,1.217955145e-06
25,30,0,0,0.001030414987,4.120346506e-07,0.004135730525,2.730612006e-06
30,35,0,0,0.001688979701,5.273160704e-07,0.007069696284,3.569557684e-06
35,40,0,0,0.002329972341,6.191126976e-07,0.01009797754,4.265393476e-06
40,45,0.008172501087,5.811831095e-06,0.004995904026,9.051404639e-07,0.02100982302,6.148837491e-06
45,50,0.05733733604,1.535013648e-05,0.01392188704,1.502959686e-06,0.05692743615,1.010146421e-05
50,55,0.05411798399,1.491577574e-05,0.01270788579,1.436979746e-06,0.05491878782,9.922750658e-06
55,60,0.05159329942,1.456584255e-05,0.01169416054,1.379309721e-06,0.05348058627,9.79273746e-06
60,65,0.04958637685,1.428140577e-05,0.01083175092,1.328159813e-06,0.05256764111,9.709282263e-06
65,70,0.04807531395,1.40633594e-05,0.01008859642,1.282357109e-06,0.05204485388,9.661160185e-06
70,75,0.04689551651,1.389068069e-05,0.00944113915,1.241004851e-06,0.05191231674,9.648921383e-06
75,80,0.04604282287,1.376449891e-05,0.008874867418,1.203618203e-06,0.05212171963,9.668251058e-06
80,85,0.04543549354,1.367390138e-05,0.008371315193,1.169324043e-06,0.05266583268,9.718293425e-06
85,90,0.04511364855,1.362564073e-05,0.007918323057,1.137553232e-06,0.05351108178,9.795512577e-06
90,95,0.04495623942,1.36019732e-05,0.007515513797,1.108507183e-06,0.05467020504,9.900403749e-06
95,100,0.04504191313,1.361485998e-05,0.007145192132,1.081089752e-06,0.05608992971,1.002734633e-05
100,105,0.04530976474,1.365506881e-05,0.006810097968,1.055645178e-06,0.05774110237,1.017294201e-05
105,110,0.04576837629,1.372363413e-05,0.006502158559,1.031690694e-06,0.0597178781,1.03444851e-05
110,115,0.04643741691,1.38230375e-05,0.006219681344,1.009200973e-06,0.06195517828,1.053517873e-05
115,120,0.04724560334,1.39421488e-05,0.005957450748,9.878509793e-07,0.0642466023,1.072687638e-05
120,125,0.04826849827,1.40914283e-05,0.005716093468,9.677720462e-07,0.06655317994,1.091634684e-05
125,130,0.04956729676,1.427867372e-05,0.005489320416,9.485082963e-07,0.06895536362,1.111013562e-05
130,135,0.05099498285,1.448164296e-05,0.005280240541,9.303846984e-07,0.0713472741,1.129969369e-05
135,140,0.05266226868,1.471504781e-05,0.005083762579,9.13017164e-07,0.07379577491,1.149039611e-05
140,145,0.05457538054,1.497827643e-05,0.004897860728,8.962669804e-07,0.07620882118,1.167519067e-05
145,150,0.05675661632,1.527272167e-05,0.004720698631,8.800005122e-07,0.07873364706,1.186536096e-05
150,155,0.05912445901,1.558589675e-05,0.004557614234,8.647499567e-07,0.08127844305,1.205389403e-05
155,160,0.06185512586,1.593921214e-05,0.004400660916,8.498085778e-07,0.08392519779,1.224679126e-05
160,165,0.06479968892,1.631138368e-05,0.004251108898,8.353178245e-07,0.08666053208,1.244288556e-05
165,170,0.06800368885,1.670664831e-05,0.00410682181,8.210898445e-07,0.08939880987,1.263602589e-05
170,175,0.07148159293,1.71250543e-05,0.00396812447,8.071719629e-07,0.09220588785,1.283088178e-05
175,180,0.07512575652,1.755241087e-05,0.0038322082,7.932917234e-07,0.09500953717,1.302247041e-05
180,185,0.07886631809,1.798014355e-05,0.003704348947,7.800046714e-07,0.09775391589,1.320720327e-05
185,190,0.08250559634,1.838639663e-05,0.003581761454,7.670454594e-07,0.1003418417,1.337896621e-05
190,195,0.08577583546,1.874365508e-05,0.003463563545,7.543358261e-07,0.1023617543,1.351144447e-05
195,200,0.0880721924,1.899034424e-05,0.003351271786,7.420562691e-07,0.1033622859,1.35765648e-05
200,205,0.08821971564,1.900607768e-05,0.003241958956,7.299008397e-07,0.1025568404,1.352416757e-05
205,210,0.09147889359,1.935027932e-05,0.003137123397,7.180469491e-07,0.1049919709,1.368193939e-05
210,215,0.1172897074,2.187757727e-05,0.003035400747,7.063520196e-07,0.1221435579,1.474319628e-05
215,220,0.1164706703,2.180210661e-05,0.002935866636,6.947153655e-07,0.1189004326,1.454877024e-05
220,225,0.1117982624,2.136617907e-05,0.00283756133,6.830250311e-07,0.1129884509,1.41871146e-05
225,230,0.1071721406,2.092513204e-05,0.002741365705,6.713858496e-07,0.1070186444,1.381180852e-05
230,235,0.1016721511,2.038770641e-05,0.002642798566,6.592437746e-07,0.1003554807,1.337986534e-05
235,240,0.09505661527,1.972090973e-05,0.00254867439,6.474337772e-07,0.09298453626,1.288438883e-05
240,245,0.08762718831,1.894280036e-05,0.002455442324,6.355167187e-07,0.08503083573,1.232644394e-05
245,250,0.0796745023,1.807118029e-05,0.002363255613,6.235066979e-07,0.07686420752,1.172486108e-05
250,255,0.07160359721,1.713954033e-05,0.002274123032,6.11667824e-07,0.06874220373,1.109308065e-05
255,260,0.06371984247,1.617592321e-05,0.002183587926,5.994006899e-07,0.06097304145,1.045190748e-05
260,265,0.05622054453,1.520089997e-05,0.002094179473,5.870320143e-07,0.05366391833,9.809408803e-06
265,270,0.04930452836,1.424099404e-05,0.002005369886,5.74479946e-07,0.04699695263,9.183241442e-06
270,275,0.0430521378,1.33122806e-05,0.001917320229,5.617557743e-07,0.0409764535,8.577728363e-06
275,280,0.03744765688,1.241964357e-05,0.00182760033,5.484838545e-07,0.03560439701,7.99807156e-06
280,285,0.03253844816,1.158028573e-05,0.001738400032,5.349595825e-07,0.03086039391,7.448134264e-06
285,290,0.02820172136,1.078370953e-05,0.001648920046,5.210373572e-07,0.02668528836,6.927593073e-06
290,295,0.02440154529,1.0033096e-05,0.001557255938,5.063753646e-07,0.02300061001,6.432858725e-06
295,300,0.02109656394,9.330728837e-06,0.001464483628,4.910872133e-07,0.0197956919,5.968924855e-06
300,305,0.01821325566,8.67114057e-06,0.00136864634,4.747736007e-07,0.01697050001,5.527457942e-06
305,310,0.01568626923,8.048333992e-06,0.001271030844,4.575557341e-07,0.01447390319,5.105408132e-06
310,315,0.01347719679,7.461078935e-06,0.001171053736,4.392178847e-07,0.01227670122,4.702522076e-06
315,320,0.01155515078,6.909364342e-06,0.001067260977,4.193276713e-07,0.01032578306,4.313183863e-06
320,325,0.009849063791,6.379560527e-06,0.0009638809135,3.98525751e-07,0.008609615326,3.938848012e-06
325,330,0.008343449079,5.872242766e-06,0.0008553926755,3.754527244e-07,0.007068664603,3.569297413e-06
330,335,0.007020172039,5.386893482e-06,0.0007395385598,3.491263178e-07,0.005666510121,3.195988902e-06
335,340,0.004134787329,4.134888071e-06,0.0004231975815,2.641525443e-07,0.003035947013,2.339683711e-06
340,345,0,0,0,0,0,0
345,350,0,0,0,0,0,0
350,355,0,0,0,0,0,0
355,360,0,0,0,0,0,0
360,365,0,0,0,0,0,0
365,370,0,0,0,0,0,0
370,375,0,0,0,0,0,0
375,380,0,0,0,0,0,0
380,385,0,0,0,0,0,0
385,390,0,0,0,0,0,0
390,395,0,0,0,0,0,0
395,400,0,0,0,0,0,0
400,405,0,0,0,0,0,0
405,410,0,0,0,0,0,0
410,415,0,0,0,0,0,0
415,420,0,0,0,0,0,0
420,425,0,0,0,0,0,0
425,430,0,0,0,0,0,0
430,435,0,0,0,0,0,0
435,440,0,0,0,0,0,0
440,445,0,0,0,0,0,0
445,450,0,0,0,0,0,0
450,455,0,0,0,0,0,0
455,460,0,0,0,0,0,0
460,465,0,0,0,0,0,0
465,470,0,0,0,0,0,0
470,475,0,0,0,0,0,0
475,480,0,0,0,0,0,0
480,485,0,0,0,0,0,0
485,490,0,0,0,0,0,0
490,495,0,0,0,0,0,0
495,500,0,0,0,0,0,0
500,505,0,0,0,0,0,0
505,510,0,0,0,0,0,0
