# xl,xh,LO,dLO,CS+LOnovp,dCS+LOnovp,CS+LO,dCS+LO
165,165.25,0.10995252,9.534994639e-05,0.009040895725,5.460049203e-06,0.1243276971,6.694733343e-05
165.25,165.5,0.1119425842,9.620841284e-05,0.009185526985,5.503525768e-06,0.126346034,6.748818266e-05
165.5,165.75,0.1137062541,9.696284042e-05,0.009347810736,5.551902863e-06,0.128575021,6.80804767e-05
165.75,166,0.1155262771,9.773525718e-05,0.009519373697,5.602590585e-06,0.1309093322,6.869526576e-05
166,166.25,0.1175973947,9.860684908e-05,0.009690448699,5.652680624e-06,0.1332634164,6.93097251e-05
166.25,166.5,0.1198590808,9.954990825e-05,0.009852246577,5.699648488e-06,0.1357734848,6.995893656e-05
166.5,166.75,0.1220759949,0.0001004656793,0.01003304451,5.75167696e-06,0.1382541149,7.059465104e-05
166.75,167,0.1240003603,0.0001012538761,0.01021740214,5.804248453e-06,0.1410130161,7.129499927e-05
167,167.25,0.1263117596,0.0001021925299,0.0104087976,5.858326727e-06,0.1436205581,7.195064199e-05
167.25,167.5,0.1287932819,0.0001031907433,0.01062495997,5.918807058e-06,0.1465983248,7.269211898e-05
167.5,167.75,0.131293668,0.0001041868424,0.01082587659,5.974471473e-06,0.1495671771,7.342389741e-05
167.75,168,0.1340576667,0.0001052769616,0.01105691508,6.037845268e-06,0.1525562746,7.415334836e-05
168,168.25,0.1364920382,0.0001062277854,0.01127947877,6.098270289e-06,0.1558707916,7.49538853e-05
168.25,168.5,0.1395499129,0.0001074101656,0.01152688908,6.164744134e-06,0.1592285648,7.57562166e-05
168.5,168.75,0.1424510059,0.0001085199812,0.01176489501,6.228019454e-06,0.1626837737,7.657302306e-05
168.75,169,0.1456962167,0.0001097480985,0.01203048355,6.297875602e-06,0.1664451377,7.745237641e-05
169,169.25,0.1491360136,0.0001110349708,0.01231058856,6.370717638e-06,0.1702994649,7.834318847e-05
169.25,169.5,0.1523487989,0.0001122235511,0.01258792885,6.442026947e-06,0.1743570394,7.927011997e-05
169.5,169.75,0.1556797231,0.0001134426394,0.01288038926,6.516376014e-06,0.1786578174,8.024087495e-05
169.75,170,0.1598708944,0.0001149581392,0.01320220332,6.597216485e-06,0.1829183369,8.119105613e-05
170,170.25,0.1638117579,0.0001163650524,0.01353863977,6.680681074e-06,0.1875649678,8.221478164e-05
170.25,170.5,0.1681028758,0.0001178778507,0.01388035063,6.76439643e-06,0.1925336943,8.329549184e-05
170.5,170.75,0.1722766744,0.0001193308207,0.01424493647,6.852585021e-06,0.1976815351,8.440050603e-05
170.75,171,0.1767274039,0.0001208608773,0.01462896061,6.944260206e-06,0.2032182407,8.557299594e-05
171,171.25,0.181805706,0.000122583257,0.01504444354,7.042096966e-06,0.2088644788,8.675229351e-05
171.25,171.5,0.1872398472,0.0001243997961,0.01546268384,7.139224071e-06,0.215063948,8.802886453e-05
171.5,171.75,0.1926581303,0.0001261848992,0.01592558284,7.24519886e-06,0.2214743024,8.932958737e-05
171.75,172,0.1984555129,0.0001280672216,0.01640773996,7.353953004e-06,0.228092548,9.065281959e-05
172,172.25,0.2048337512,0.0001301065469,0.01692387821,7.468610201e-06,0.2356432011,9.213915591e-05
172.25,172.5,0.2111637966,0.0001320991819,0.01746810619,7.587623679e-06,0.2433208365,9.362617403e-05
172.5,172.75,0.2183830626,0.0001343354953,0.01806112147,7.715208041e-06,0.2513701873,9.516010805e-05
172.75,173,0.2261216058,0.0001366918394,0.0186870687,7.847618026e-06,0.2601131902,9.679854086e-05
173,173.25,0.2342654907,0.0001391282952,0.0193512605,7.985707142e-06,0.2697404069,9.85709979e-05
173.25,173.5,0.2427317904,0.0001416165326,0.02006396971,8.131263535e-06,0.2797119617,0.0001003736672
173.5,173.75,0.2523545578,0.0001443923149,0.02084049159,8.286929491e-06,0.2906580468,0.0001023157296
173.75,174,0.2626773747,0.000147311559,0.02167903945,8.451794867e-06,0.3020546584,0.0001042990642
174,174.25,0.2735339484,0.0001503202273,0.02258272872,8.625922471e-06,0.3145210868,0.0001064259838
174.25,174.5,0.2854109498,0.0001535437558,0.02355645778,8.809674252e-06,0.3278840301,0.0001086593244
174.5,174.75,0.2988540472,0.0001571120411,0.02464078515,9.009864109e-06,0.3425320619,0.0001110554863
174.75,175,0.3132555805,0.000160846326,0.02582388314,9.22330496e-06,0.3586714042,0.0001136366809
175,175.25,0.3292711233,0.0001648991333,0.02711645643,9.450954814e-06,0.3762880144,0.0001163883097
175.25,175.5,0.3469135676,0.0001692504948,0.02853337617,9.694326541e-06,0.3958525857,0.0001193692831
175.5,175.75,0.3669081574,0.0001740495035,0.03014336304,9.963599737e-06,0.417979672,0.000122652679
175.75,176,0.3893392247,0.0001792791962,0.03193223346,1.025444421e-05,0.4425160783,0.0001261928438
176,176.25,0.4139722456,0.0001848503849,0.03395580921,1.057373861e-05,0.4704158302,0.000130100176
176.25,176.5,0.4424076388,0.0001910777785,0.03625377676,1.092493077e-05,0.5022977749,0.0001344248373
176.5,176.75,0.4748107972,0.0001979330346,0.03892991348,1.132007875e-05,0.5388202705,0.0001392121933
176.75,177,0.5129007493,0.0002056963546,0.04200547674,1.175766911e-05,0.5813158194,0.0001445808181
177,177.25,0.5574297807,0.00021441186,0.04563824969,1.225423324e-05,0.6315699905,0.0001506799112
177.25,177.5,0.6105744797,0.0002243654282,0.04993768063,1.281683094e-05,0.6907007001,0.0001575501992
177.5,177.75,0.6751276064,0.0002358837424,0.05517473411,1.347005474e-05,0.7628244127,0.0001655389334
177.75,178,0.7543748711,0.0002492863824,0.06160099531,1.423018557e-05,0.8521073084,0.0001749155072
178,178.25,0.8542068837,0.0002651919112,0.06973042788,1.513642859e-05,0.9649780721,0.0001860822431
178.25,178.5,0.9853419497,0.0002847123703,0.08038659839,1.624677166e-05,1.111953433,0.0001996703822
178.5,178.75,1.164439097,0.0003093459736,0.09491267591,1.764617072e-05,1.312047719,0.0002167731665
178.75,179,1.422984748,0.0003417105602,0.1157838491,1.947796401e-05,1.60070022,0.0002392431589
179,179.25,1.828146613,0.0003868558123,0.1484124909,2.203098456e-05,2.051958438,0.0002705369061
179.25,179.5,2.553842687,0.000456263557,0.2066675391,2.595262678e-05,2.856783676,0.0003185006721
179.5,179.75,4.211270439,0.0005830395123,0.3385084156,3.308376508e-05,4.68405288,0.0004057539587
179.75,180,6.884915935,0.0007395450159,0.5698321407,4.262471311e-05,8.173457354,0.0005307031757
