# xl,xh,LO,dLO,CS+LOnovp,dCS+LOnovp,CS+LO,dCS+LO
0,5,0,0,0,0,0,0
5,10,0,0,0,0,0,0
10,15,0,0,0,0,0,0
15,20,0,0,0,0,0,0
20,25,0,0,0.0002896322069,2.185449872e-07,0.00533376708,3.100790179e-06
25,30,0,0,0.0002409526521,1.993405865e-07,0.005223412926,3.068563828e-06
30,35,0,0,0.0001700979678,1.674933553e-07,0.004108056339,2.721464869e-06
35,40,0,0,0.0001223032826,1.420297491e-07,0.003227036645,2.41216751e-06
40,45,0,0,8.883733713e-05,1.210505057e-07,0.002468273467,2.109697595e-06
45,50,0,0,6.449872049e-05,1.031455824e-07,0.001789212265,1.796266026e-06
50,55,0,0,4.636480242e-05,8.745283902e-08,0.001183062257,1.460689688e-06
55,60,0,0,3.2739951e-05,7.348897503e-08,0.0007301743598,1.147567404e-06
60,65,0,0,2.23166759e-05,6.067371067e-08,0.0004268909918,8.774666496e-07
65,70,0,0,1.425912414e-05,4.849917072e-08,0.0002360864724,6.525476524e-07
70,75,0,0,8.096650589e-06,3.654619611e-08,0.0001209851011,4.671382311e-07
75,80,0,0,4.095831436e-06,2.599329843e-08,5.647207861e-05,3.191521754e-07
80,85,0,0,2.117614773e-06,1.8690229e-08,2.632861741e-05,2.179192535e-07
85,90,0,0,1.114316668e-06,1.355800045e-08,1.231567734e-05,1.490428801e-07
90,95,0,0,5.455285769e-07,9.486374132e-09,5.129728518e-06,9.618989318e-08
95,100,0,0,2.01747974e-07,5.768938133e-09,1.733355239e-06,5.591467694e-08
100,105,0,0,4.981867452e-08,2.866742355e-09,3.823843424e-07,2.626226267e-08
105,110,0,0,2.30946051e-09,6.172292554e-10,1.984082757e-08,5.982234303e-09
110,115,0,0,0,0,0,0
115,120,0,0,0,0,0,0
120,125,0,0,0,0,0,0
125,130,0,0,0,0,0,0
130,135,0,0,0,0,0,0
135,140,0,0,0,0,0,0
140,145,0,0,0,0,0,0
145,150,0,0,0,0,0,0
150,155,0,0,0,0,0,0
155,160,0,0,0,0,0,0
160,165,0,0,0,0,0,0
165,170,0,0,0,0,0,0
170,175,0,0,0,0,0,0
175,180,0,0,0,0,0,0
180,185,0,0,0,0,0,0
185,190,0,0,0,0,0,0
190,195,0,0,0,0,0,0
195,200,0,0,0,0,0,0
200,205,0,0,0,0,0,0
205,210,0,0,0,0,0,0
210,215,0,0,0,0,0,0
215,220,0,0,0,0,0,0
220,225,0,0,0,0,0,0
225,230,0,0,0,0,0,0
230,235,0,0,0,0,0,0
235,240,0,0,0,0,0,0
240,245,0,0,0,0,0,0
245,250,0,0,0,0,0,0
250,255,0,0,0,0,0,0
255,260,0,0,0,0,0,0
260,265,0,0,0,0,0,0
265,270,0,0,0,0,0,0
270,275,0,0,0,0,0,0
275,280,0,0,0,0,0,0
280,285,0,0,0,0,0,0
285,290,0,0,0,0,0,0
290,295,0,0,0,0,0,0
295,300,0,0,0,0,0,0
300,305,0,0,0,0,0,0
305,310,0,0,0,0,0,0
310,315,0,0,0,0,0,0
315,320,0,0,0,0,0,0
320,325,0,0,0,0,0,0
325,330,0,0,0,0,0,0
330,335,0,0,0,0,0,0
335,340,0,0,0,0,0,0
340,345,0,0,0,0,0,0
345,350,0,0,0,0,0,0
350,355,0,0,0,0,0,0
355,360,0,0,0,0,0,0
360,365,0,0,0,0,0,0
365,370,0,0,0,0,0,0
370,375,0,0,0,0,0,0
375,380,0,0,0,0,0,0
380,385,0,0,0,0,0,0
385,390,0,0,0,0,0,0
390,395,0,0,0,0,0,0
395,400,0,0,0,0,0,0
400,405,0,0,0,0,0,0
405,410,0,0,0,0,0,0
410,415,0,0,0,0,0,0
415,420,0,0,0,0,0,0
420,425,0,0,0,0,0,0
425,430,0,0,0,0,0,0
430,435,0,0,0,0,0,0
435,440,0,0,0,0,0,0
440,445,0,0,0,0,0,0
445,450,0,0,0,0,0,0
450,455,0,0,0,0,0,0
455,460,0,0,0,0,0,0
460,465,0,0,0,0,0,0
465,470,0,0,0,0,0,0
470,475,0,0,0,0,0,0
475,480,0,0,0,0,0,0
480,485,0,0,0,0,0,0
485,490,0,0,0,0,0,0
490,495,0,0,0,0,0,0
495,500,0,0,0,0,0,0
500,505,0,0,0,0,0,0
505,510,0,0,0,0,0,0
