# xl,xh,LO,dLO,CS+LOnovp,dCS+LOnovp,CS+LO,dCS+LO
50,51,0.1425804398,5.421724258e-05,0.009516710707,2.798544614e-06,0.157846697,3.766453354e-05
51,52,0.1458246886,5.482852834e-05,0.009810098477,2.841256433e-06,0.1618624993,3.813895414e-05
52,53,0.1491104889,5.544068367e-05,0.01010349883,2.883331636e-06,0.1659451584,3.861521466e-05
53,54,0.1521235399,5.599605878e-05,0.01040320778,2.92568085e-06,0.1699435233,3.90759341e-05
54,55,0.1556417638,5.663756157e-05,0.0108368222,2.985877842e-06,0.1743007341,3.957180452e-05
55,56,0.1602775365,5.74717467e-05,0.01152616218,3.079130056e-06,0.1796584835,4.017302291e-05
56,57,0.1648422393,5.82813006e-05,0.01218485865,3.165644205e-06,0.1847826219,4.073959768e-05
57,58,0.1690898996,5.902450593e-05,0.01279124707,3.243225631e-06,0.1898577576,4.129296753e-05
58,59,0.1731699318,5.972953867e-05,0.01335867037,3.314157939e-06,0.1946660933,4.18103783e-05
59,60,0.1769595986,6.037690121e-05,0.01388803633,3.378973713e-06,0.1992808902,4.23009101e-05
60,61,0.1808462037,6.103357574e-05,0.01439876439,3.440335255e-06,0.203793714,4.277506742e-05
61,62,0.1844574319,6.163734824e-05,0.01489065021,3.498401983e-06,0.208206722,4.323361889e-05
62,63,0.1879553224,6.221648828e-05,0.01535334374,3.552144325e-06,0.212368702,4.366159282e-05
63,64,0.1912028856,6.274931367e-05,0.01581051138,3.604446502e-06,0.2166084378,4.409321159e-05
64,65,0.1947686098,6.332908607e-05,0.01621993142,3.650640694e-06,0.2205609802,4.449175e-05
65,66,0.1973774412,6.374986954e-05,0.01658983822,3.69187211e-06,0.2243563903,4.48710487e-05
66,67,0.2002752025,6.421396364e-05,0.01693462365,3.729886552e-06,0.2277932984,4.521171999e-05
67,68,0.2026492021,6.459164331e-05,0.01725112069,3.764438752e-06,0.2311833913,4.554520513e-05
68,69,0.2053519733,6.501890611e-05,0.01755319164,3.797118072e-06,0.234504998,4.586955329e-05
69,70,0.2078984258,6.541885571e-05,0.01783337082,3.827175444e-06,0.2378540727,4.619422988e-05
70,71,0.2103566584,6.58025985e-05,0.01810771006,3.856375418e-06,0.2410994543,4.65066459e-05
71,72,0.2128410901,6.618812407e-05,0.01837656393,3.884775021e-06,0.244329425,4.681546533e-05
72,73,0.2154524416,6.659089479e-05,0.01861280351,3.909556287e-06,0.2474731215,4.711404935e-05
73,74,0.2179494052,6.697370816e-05,0.0188440877,3.933663778e-06,0.2506599992,4.741477356e-05
74,75,0.2203667834,6.734220548e-05,0.01905909412,3.955940496e-06,0.2539358926,4.772187874e-05
75,76,0.2229283904,6.773045541e-05,0.01926579941,3.977237348e-06,0.2570549897,4.801241855e-05
76,77,0.2255141705,6.812007933e-05,0.01945471944,3.996600758e-06,0.2600787221,4.829236793e-05
77,78,0.2279157857,6.847992559e-05,0.01963162504,4.014646409e-06,0.2632848558,4.858740256e-05
78,79,0.2302690636,6.88306656e-05,0.01978582832,4.030309218e-06,0.2662080093,4.885480807e-05
79,80,0.233295434,6.927905699e-05,0.01992984512,4.044881452e-06,0.2695002929,4.915419789e-05
80,81,0.2362409028,6.97126339e-05,0.02006826005,4.058836734e-06,0.2729854157,4.94691027e-05
81,82,0.239158677,7.013943166e-05,0.02020161468,4.072235621e-06,0.2761524442,4.975349494e-05
82,83,0.2418641459,7.05328176e-05,0.02031094472,4.083187236e-06,0.279105094,5.001714425e-05
83,84,0.2442171629,7.087313713e-05,0.02040094781,4.09218042e-06,0.2819874181,5.027314709e-05
84,85,0.2463981792,7.118709612e-05,0.02047820115,4.099883654e-06,0.2843353623,5.048070401e-05
85,86,0.2482417638,7.14513809e-05,0.02055047506,4.107077003e-06,0.2863515465,5.065823752e-05
86,87,0.2497370968,7.166500997e-05,0.02060433692,4.112429503e-06,0.288031597,5.080568744e-05
87,88,0.2510468376,7.185158918e-05,0.02064020398,4.115989737e-06,0.289264605,5.091362368e-05
88,89,0.2516956372,7.194383046e-05,0.02067073391,4.119017884e-06,0.2901459382,5.099063072e-05
89,90,0.2521764165,7.201210663e-05,0.0206781322,4.119751265e-06,0.2905265254,5.10238476e-05
90,91,0.2521237742,7.200463465e-05,0.02068292851,4.120226715e-06,0.2904715055,5.101904743e-05
91,92,0.2517250125,7.194800462e-05,0.02066793618,4.11874045e-06,0.2900826127,5.098510192e-05
92,93,0.2509136057,7.183263208e-05,0.02064189201,4.116157288e-06,0.2892735338,5.091440427e-05
93,94,0.2497936236,7.167307182e-05,0.02059589826,4.111591377e-06,0.2879963855,5.080260133e-05
94,95,0.2481661635,7.144056299e-05,0.02055329835,4.107357728e-06,0.2863300131,5.065634508e-05
95,96,0.2463195161,7.117579657e-05,0.02047210111,4.099275964e-06,0.2842287977,5.047130251e-05
96,97,0.2441388556,7.086183919e-05,0.02039694423,4.091780914e-06,0.2818956212,5.026501455e-05
97,98,0.2417521181,7.051657315e-05,0.02030192307,4.082284686e-06,0.2792618254,5.003109931e-05
98,99,0.2392312136,7.015000997e-05,0.02019048487,4.071119079e-06,0.2760868511,4.974762099e-05
99,100,0.2362403802,6.971255652e-05,0.02007519903,4.059535019e-06,0.2729715271,4.946785116e-05
100,101,0.233080978,6.924738054e-05,0.01994174343,4.046083017e-06,0.269529523,4.915684746e-05
101,102,0.2303256677,6.88390776e-05,0.01978630559,4.030357566e-06,0.2662751863,4.886093575e-05
102,103,0.2279430946,6.848400694e-05,0.01962871586,4.014350332e-06,0.2632599294,4.858511608e-05
103,104,0.2255289862,6.812230592e-05,0.01945436064,3.996564077e-06,0.26019325,4.830293911e-05
104,105,0.2229274,6.773030577e-05,0.01926518066,3.977173777e-06,0.2569744466,4.800493851e-05
105,106,0.2204886777,6.736073205e-05,0.0190625583,3.956298397e-06,0.2539202083,4.772041332e-05
106,107,0.2179246245,6.696991997e-05,0.01884402766,3.933657544e-06,0.2506853243,4.741715573e-05
107,108,0.2153633062,6.657718677e-05,0.01861422954,3.909705405e-06,0.2475594485,4.712222113e-05
108,109,0.2128921571,6.61960243e-05,0.01836872972,3.883950445e-06,0.2443345673,4.681595562e-05
109,110,0.2102799956,6.579066449e-05,0.01811466475,3.857112834e-06,0.2410283729,4.649982696e-05
110,111,0.2078572274,6.541240516e-05,0.01784372208,3.828281299e-06,0.237920038,4.62006017e-05
111,112,0.2053400086,6.501701923e-05,0.01755228445,3.797020366e-06,0.2345637696,4.587527048e-05
112,113,0.2027943974,6.461467022e-05,0.01724190427,3.763437248e-06,0.2310981996,4.553685489e-05
113,114,0.2000330276,6.417530952e-05,0.01692744695,3.729099302e-06,0.2278135104,4.521371588e-05
114,115,0.1975125313,6.377158039e-05,0.01660184738,3.693202854e-06,0.2243424559,4.486966197e-05
115,116,0.1946229627,6.33055098e-05,0.01622824381,3.65157244e-06,0.2206207983,4.449775366e-05
116,117,0.1913486602,6.277312438e-05,0.015802203,3.603502848e-06,0.2166393253,4.409634014e-05
117,118,0.1879223862,6.221105976e-05,0.01535927491,3.552827881e-06,0.2124736414,4.36723287e-05
118,119,0.1844012984,6.16280101e-05,0.01489218166,3.498581319e-06,0.2082169319,4.323467414e-05
119,120,0.1808701182,6.103759432e-05,0.01440662174,3.441270641e-06,0.203759759,4.277151955e-05
120,121,0.1771197427,6.040410264e-05,0.013892234,3.37948268e-06,0.1993507196,4.230828808e-05
121,122,0.1731600195,5.972783506e-05,0.01336164784,3.314526068e-06,0.1946984849,4.181384097e-05
122,123,0.1691023444,5.902667163e-05,0.01278750173,3.242752212e-06,0.1898087247,4.128765719e-05
123,124,0.1648284076,5.827886592e-05,0.01217924517,3.16491706e-06,0.1848058524,4.074214753e-05
124,125,0.1602573434,5.74681381e-05,0.01153345535,3.080101424e-06,0.1796114812,4.016778874e-05
125,126,0.1556037645,5.663067179e-05,0.01083585946,2.985745505e-06,0.1743082106,3.957264999e-05
126,127,0.1521018181,5.599207456e-05,0.0104026055,2.925596337e-06,0.1698588139,3.906623082e-05
127,128,0.1490134209,5.542269493e-05,0.01011075802,2.884364785e-06,0.1659460705,3.861532013e-05
128,129,0.1459017662,5.484296875e-05,0.009809742496,2.841205033e-06,0.1619248178,3.814626918e-05
129,130,0.1424341465,5.418951125e-05,0.009510340268,2.797609952e-06,0.1577969939,3.765862333e-05
