 # xl, xh, LO, dLO, NLOPSnovp, dNLOPSnovp, NLOPSvp, dNLOPSvp, NLOPSvplt, dNLOPSvplt
   49.999999999999758      ,   50.999999999999744      ,   0.0000000000000000      ,   0.0000000000000000      ,   8.6530488823336613E-005 ,   1.1722915572175627E-007 ,   8.9381774088257039E-005 ,   8.5351587099365494E-008 ,   8.8684741301822397E-005 ,   1.5669551766272063E-007
   50.999999999999744      ,   51.999999999999730      ,   2.5320788306062684E-005 ,   1.6228962472020505E-008 ,   5.2220475996436863E-004 ,   2.8549264885343977E-007 ,   5.3987967106717942E-004 ,   2.0922949831000038E-007 ,   5.3540747888249573E-004 ,   3.8335433751492150E-007
   51.999999999999730      ,   52.999999999999716      ,   4.6820360573823780E-003 ,   1.9228298516511092E-007 ,   5.2240597714686742E-003 ,   6.9060676913285690E-007 ,   5.3949125025111897E-003 ,   5.0492877547500561E-007 ,   5.3563645205192811E-003 ,   9.2673690163467605E-007
   52.999999999999716      ,   53.999999999999702      ,   1.3287568098853893E-002 ,   3.2323876831591010E-007 ,   1.3032529625463855E-002 ,   1.0379955169879971E-006 ,   1.3471085027816937E-002 ,   7.5915881164267529E-007 ,   1.3362794442957650E-002 ,   1.3931493144666482E-006
   53.999999999999702      ,   54.999999999999687      ,   1.9600392108754656E-002 ,   3.9526822416543314E-007 ,   1.8827412541458446E-002 ,   1.2404754207775068E-006 ,   1.9487304861776602E-002 ,   9.0873688528973858E-007 ,   1.9303274790401170E-002 ,   1.6655720338114229E-006
   54.999999999999687      ,   55.999999999999673      ,   2.4521767163910461E-002 ,   4.4548518489879466E-007 ,   2.3385510365077737E-002 ,   1.3833533155903323E-006 ,   2.4231108128734066E-002 ,   1.0143757462367238E-006 ,   2.3976495023937998E-002 ,   1.8572996792069041E-006
   55.999999999999673      ,   56.999999999999659      ,   2.8532638446179495E-002 ,   4.8420677656428369E-007 ,   2.7124978982890294E-002 ,   1.4935828585415262E-006 ,   2.8127466455157367E-002 ,   1.0963796976245161E-006 ,   2.7805417676609337E-002 ,   2.0047158336001629E-006
   56.999999999999659      ,   57.999999999999645      ,   3.1901587925554420E-002 ,   5.1582869233472307E-007 ,   3.0271880999787636E-002 ,   1.5827037173619782E-006 ,   3.1418739939859205E-002 ,   1.1626263943013440E-006 ,   3.1031146103975431E-002 ,   2.1237692010612387E-006
   57.999999999999645      ,   58.999999999999631      ,   3.4795655939786070E-002 ,   5.4267421705262899E-007 ,   3.2988363424179760E-002 ,   1.6575202064655071E-006 ,   3.4257706983657876E-002 ,   1.2186548661410778E-006 ,   3.3815850343376322E-002 ,   2.2250268512169708E-006
   58.999999999999631      ,   59.999999999999616      ,   3.7324547770876737E-002 ,   5.6609173593795754E-007 ,   3.5359381838856160E-002 ,   1.7219553376029605E-006 ,   3.6746029523968861E-002 ,   1.2668686078083791E-006 ,   3.6244026992323687E-002 ,   2.3112133887689948E-006
   59.999999999999616      ,   60.999999999999602      ,   3.9563199548918314E-002 ,   5.8693656254231645E-007 ,   3.7463338079437226E-002 ,   1.7789249676496123E-006 ,   3.8953150034418425E-002 ,   1.3091919489743457E-006 ,   3.8400540741047207E-002 ,   2.3871715819897253E-006
   60.999999999999602      ,   61.999999999999588      ,   4.1567367954724349E-002 ,   6.0580182340617298E-007 ,   3.9346968157543287E-002 ,   1.8289703987143941E-006 ,   4.0934786160509148E-002 ,   1.3468400211779847E-006 ,   4.0326694683555785E-002 ,   2.4544997602432568E-006
   61.999999999999588      ,   62.999999999999574      ,   4.3380434237122026E-002 ,   6.2311404229696734E-007 ,   4.1043840892827477E-002 ,   1.8744011871433832E-006 ,   4.2723301200976949E-002 ,   1.3807270352518740E-006 ,   4.2062929876982354E-002 ,   2.5145861018303264E-006
   62.999999999999574      ,   63.999999999999559      ,   4.5033097846072644E-002 ,   6.3917071276768249E-007 ,   4.2587502617994558E-002 ,   1.9179857628183455E-006 ,   4.4353955818911800E-002 ,   1.4130821824852180E-006 ,   4.3647388896560751E-002 ,   2.5701648578031510E-006
   63.999999999999559      ,   64.999999999999545      ,   4.6550004984775212E-002 ,   6.5420176381594542E-007 ,   4.4009607381530369E-002 ,   1.9536350647862159E-006 ,   4.5822969925617130E-002 ,   1.4392242949178851E-006 ,   4.5101222943770336E-002 ,   2.6210446339282198E-006
   64.999999999999545      ,   65.999999999999531      ,   4.7951747726578502E-002 ,   6.6838802190991825E-007 ,   4.5316613911980330E-002 ,   1.9887897022433564E-006 ,   4.7145440437410632E-002 ,   1.4634470424841556E-006 ,   4.6441979790154700E-002 ,   2.6682950865745138E-006
   65.999999999999531      ,   66.999999999999517      ,   4.9255011113711056E-002 ,   6.8187820193169304E-007 ,   4.6529117898453230E-002 ,   2.0221675400424112E-006 ,   4.8369766934690431E-002 ,   1.4872286108092571E-006 ,   4.7679204417029226E-002 ,   2.7118126200543228E-006
   66.999999999999517      ,   67.999999999999503      ,   5.0474693524329033E-002 ,   6.9479982964103180E-007 ,   4.7658217360390068E-002 ,   2.0521033899161196E-006 ,   4.9504630943798013E-002 ,   1.5064500406415084E-006 ,   4.8834570506327779E-002 ,   2.7525963524293957E-006
   67.999999999999503      ,   68.999999999999488      ,   5.1622199902002598E-002 ,   7.0724501954680341E-007 ,   4.8717474727527854E-002 ,   2.0813358499554004E-006 ,   5.0563082954231495E-002 ,   1.5262233727852366E-006 ,   4.9919871447794667E-002 ,   2.7916905546812497E-006
   68.999999999999488      ,   69.999999999999474      ,   5.2708870460989682E-002 ,   7.1930951738342486E-007 ,   4.9714791659068468E-002 ,   2.1089402996735924E-006 ,   5.1558814816892215E-002 ,   1.5445870670942263E-006 ,   5.0941159185753641E-002 ,   2.8290722991942193E-006
   69.999999999999474      ,   70.999999999999460      ,   5.3740180704634093E-002 ,   7.3104545499870997E-007 ,   5.0659127246722217E-002 ,   2.1369490766223066E-006 ,   5.2503231726069473E-002 ,   1.5626214088741719E-006 ,   5.1904899344835317E-002 ,   2.8662222852042464E-006
   70.999999999999460      ,   71.999999999999446      ,   5.4726685174911929E-002 ,   7.4253953653955505E-007 ,   5.1563402876680001E-002 ,   2.1620976167982348E-006 ,   5.3399993825176989E-002 ,   1.5848525750767550E-006 ,   5.2828327565276230E-002 ,   2.8990404378894906E-006
   71.999999999999446      ,   72.999999999999432      ,   5.5678044066191236E-002 ,   7.5386837346055451E-007 ,   5.2423513957683847E-002 ,   2.1971080298003020E-006 ,   5.4258755291723651E-002 ,   1.6014113308479421E-006 ,   5.3709555462062679E-002 ,   2.9319259399845432E-006
   72.999999999999432      ,   73.999999999999417      ,   5.6596239163143706E-002 ,   7.6506816028076877E-007 ,   5.3247665849981099E-002 ,   2.2105732772151735E-006 ,   5.5081708497382822E-002 ,   1.6127491916971253E-006 ,   5.4550503817617793E-002 ,   2.9646120115307835E-006
   73.999999999999417      ,   74.999999999999403      ,   5.7488805605389527E-002 ,   7.7621222769258948E-007 ,   5.4051674225234179E-002 ,   2.2340755750626410E-006 ,   5.5882384139927459E-002 ,   1.7271942604728937E-006 ,   5.5375761017071548E-002 ,   2.9963198029568000E-006
   74.999999999999403      ,   75.999999999999389      ,   5.8360479119323953E-002 ,   7.8733813737848315E-007 ,   5.4829748148567649E-002 ,   2.2599387514398136E-006 ,   5.6656854887830441E-002 ,   1.6454915861671750E-006 ,   5.6171762157174808E-002 ,   3.0278816069915218E-006
   75.999999999999389      ,   76.999999999999375      ,   5.9216483433890993E-002 ,   7.9851419091208547E-007 ,   5.5583869048863345E-002 ,   2.2810775328062041E-006 ,   5.7407775816023444E-002 ,   1.6603273900858310E-006 ,   5.6943393225491745E-002 ,   3.0590793491781306E-006
   76.999999999999375      ,   77.999999999999361      ,   6.0064220994183716E-002 ,   8.0981999844154544E-007 ,   5.6321906347226461E-002 ,   2.3033508449116004E-006 ,   5.8146582913077324E-002 ,   1.6751729572670061E-006 ,   5.7694613364606691E-002 ,   3.0880457812821088E-006
   77.999999999999361      ,   78.999999999999346      ,   6.0901880912499318E-002 ,   8.2124309288025316E-007 ,   5.7032926969728996E-002 ,   2.3253796181957961E-006 ,   5.8864598377102728E-002 ,   1.6903569824142505E-006 ,   5.8421123373898792E-002 ,   3.1180266017526060E-006
   78.999999999999346      ,   79.999999999999332      ,   6.1725138055885455E-002 ,   8.3265580237044177E-007 ,   5.7733630997304788E-002 ,   3.5626964282979819E-006 ,   5.9558723072997567E-002 ,   2.1945250664268999E-006 ,   5.9137086603930633E-002 ,   5.9124459688396598E-006
   79.999999999999332      ,   80.999999999999318      ,   6.2504417293664891E-002 ,   8.4361999805902006E-007 ,   5.8353778657944617E-002 ,   2.3648320332345263E-006 ,   6.0182392128818693E-002 ,   1.7169538963597555E-006 ,   5.9770709370408098E-002 ,   3.1704564336077921E-006
   80.999999999999318      ,   81.999999999999304      ,   6.2883122864410793E-002 ,   8.4905297507313837E-007 ,   5.8595574183552240E-002 ,   2.3668107045596002E-006 ,   6.0422543278847635E-002 ,   1.7183162595632283E-006 ,   6.0020945533534188E-002 ,   3.1725978835926782E-006
   81.999999999999304      ,   82.999999999999289      ,   6.2800714486506107E-002 ,   8.4812605782167231E-007 ,   5.8463902018627847E-002 ,   2.3540611982330557E-006 ,   6.0283771966761060E-002 ,   1.7087466958416360E-006 ,   5.9882860692173211E-002 ,   3.1555265715740305E-006
   82.999999999999289      ,   83.999999999999275      ,   6.2723206828484548E-002 ,   8.4721585698813872E-007 ,   5.8329779550478023E-002 ,   2.3413710863441801E-006 ,   6.0150692931380409E-002 ,   1.6999983112307503E-006 ,   5.9746650487459939E-002 ,   3.1388096109879964E-006
   83.999999999999275      ,   84.999999999999261      ,   6.2649876464447710E-002 ,   8.4638488328737887E-007 ,   5.8210561217931861E-002 ,   2.3332313099408896E-006 ,   6.0025076895053021E-002 ,   1.6941567135072222E-006 ,   5.9625100098938538E-002 ,   3.1319806222228171E-006
   84.999999999999261      ,   85.999999999999247      ,   6.2591712014185050E-002 ,   8.4570224611710644E-007 ,   5.8103713740224369E-002 ,   2.3179709424480715E-006 ,   5.9913144665005413E-002 ,   1.6830356964949397E-006 ,   5.9513653607044421E-002 ,   3.1073906503715424E-006
   85.999999999999247      ,   86.999999999999233      ,   6.2544068996291460E-002 ,   8.4514236083867622E-007 ,   5.8007148945699943E-002 ,   2.3076010578690991E-006 ,   5.9812390827042171E-002 ,   1.6753595140084635E-006 ,   5.9415379472754930E-002 ,   3.0929614417177614E-006
   86.999999999999233      ,   87.999999999999218      ,   6.2507604726328964E-002 ,   8.4471366985183517E-007 ,   5.7913176684419219E-002 ,   2.2967719272202481E-006 ,   5.9721337122722873E-002 ,   1.6677789515743524E-006 ,   5.9320444100832842E-002 ,   3.0794927987907373E-006
   87.999999999999218      ,   88.999999999999204      ,   6.2482883395410874E-002 ,   8.4441685210899096E-007 ,   5.7836881790978463E-002 ,   2.2867710171223862E-006 ,   5.9641136766027329E-002 ,   1.6603985754807853E-006 ,   5.9238132086566142E-002 ,   3.0654662870994310E-006
   88.999999999999204      ,   89.999999999999190      ,   6.2473908259451323E-002 ,   8.4428983927322201E-007 ,   5.7771015590068586E-002 ,   2.2777157972060724E-006 ,   5.9572311598001054E-002 ,   1.6534917434588195E-006 ,   5.9176175348153726E-002 ,   3.0535464018156518E-006
   89.999999999999190      ,   90.999999999999176      ,   6.2472349917583374E-002 ,   8.4426889912848765E-007 ,   5.7717148451297343E-002 ,   2.2677669454062632E-006 ,   5.9516610991475268E-002 ,   1.6477201062112401E-006 ,   5.9118724143764075E-002 ,   3.0403053273926619E-006
   90.999999999999176      ,   91.999999999999162      ,   6.2486172462466426E-002 ,   8.4440557966289320E-007 ,   5.7678180605821514E-002 ,   2.2595875783540555E-006 ,   5.9476471988299959E-002 ,   1.7183198644626841E-006 ,   5.9074806532746306E-002 ,   3.0292027431378356E-006
   91.999999999999162      ,   92.999999999999147      ,   6.2510332729537696E-002 ,   8.4467478346499615E-007 ,   5.7649341683747954E-002 ,   2.2526070691286401E-006 ,   5.9445941454486541E-002 ,   1.6354194607792054E-006 ,   5.9050113546138268E-002 ,   3.0194787095443133E-006
   92.999999999999147      ,   93.999999999999133      ,   6.2549706292176793E-002 ,   8.4510556199849717E-007 ,   5.7626067469557528E-002 ,   2.2438319842623596E-006 ,   5.9424214387712761E-002 ,   1.6298534871828907E-006 ,   5.9024758294013081E-002 ,   3.0085605261897934E-006
   93.999999999999133      ,   94.999999999999119      ,   6.2598831870225025E-002 ,   8.4565566836353863E-007 ,   5.7620016233361035E-002 ,   2.2369219862261854E-006 ,   5.9415377630454617E-002 ,   1.6242496260405539E-006 ,   5.9019060123852274E-002 ,   2.9997507622194908E-006
   94.999999999999119      ,   95.999999999999105      ,   6.2657934078165792E-002 ,   8.4632336815782396E-007 ,   5.7622663037252983E-002 ,   2.2301483376408147E-006 ,   5.9420789661672725E-002 ,   1.6203327464422810E-006 ,   5.9025000572105565E-002 ,   2.9901782622582374E-006
   95.999999999999105      ,   96.999999999999091      ,   6.2731619859206680E-002 ,   8.4714428789411150E-007 ,   5.7635285908856283E-002 ,   2.2592256615619438E-006 ,   5.9430929843488113E-002 ,   1.6148289014444756E-006 ,   5.9036751558843414E-002 ,   3.0104916234912935E-006
   96.999999999999091      ,   97.999999999999076      ,   6.2812996072115240E-002 ,   8.4806070673855000E-007 ,   5.7657751733839427E-002 ,   2.2182016172641955E-006 ,   5.9454551574709885E-002 ,   1.6202214039554322E-006 ,   5.9056966366441706E-002 ,   2.9735096288658419E-006
   97.999999999999076      ,   98.999999999999062      ,   6.2894916817762714E-002 ,   8.4894134104060652E-007 ,   5.7682080848086729E-002 ,   2.2119262389602783E-006 ,   5.9478198294985525E-002 ,   1.6061432713802279E-006 ,   5.9082416676189770E-002 ,   2.9653808156585977E-006
   98.999999999999062      ,   99.999999999999048      ,   6.2500011456474922E-002 ,   8.4299305720863018E-007 ,   5.7322885027939481E-002 ,   2.1915073639262841E-006 ,   5.9118581922440107E-002 ,   1.5924319027357560E-006 ,   5.8714755150054476E-002 ,   2.9381634161607397E-006
   99.999999999999048      ,   100.99999999999903      ,   6.1704287326221609E-002 ,   8.3155527896218791E-007 ,   5.6594006263303381E-002 ,   2.1572680725397073E-006 ,   5.8385490234532808E-002 ,   1.5677369823889083E-006 ,   5.7971991884961764E-002 ,   2.8923778638691556E-006
   100.99999999999903      ,   101.99999999999902      ,   6.0872599360350853E-002 ,   8.1991764026810468E-007 ,   5.5810656216977748E-002 ,   2.1880596405795179E-006 ,   5.7595328857037630E-002 ,   1.5677854507983838E-006 ,   5.7173456528197483E-002 ,   2.9756452630180832E-006
   101.99999999999902      ,   102.99999999999901      ,   6.0030280391193042E-002 ,   8.0840777875562444E-007 ,   5.5000457704377066E-002 ,   2.0849681009106733E-006 ,   5.6782231696641143E-002 ,   1.5181773100244394E-006 ,   5.6344570590894698E-002 ,   2.7959072871450904E-006
   102.99999999999901      ,   103.99999999999899      ,   5.9181723322133152E-002 ,   7.9706676912243693E-007 ,   5.4168784867710686E-002 ,   2.0491571506454683E-006 ,   5.5951516894773852E-002 ,   1.4913748305343526E-006 ,   5.5490042928922838E-002 ,   2.7477895398914332E-006
   103.99999999999899      ,   104.99999999999898      ,   5.8322517890028125E-002 ,   7.8584568168563544E-007 ,   5.3330568404602943E-002 ,   2.0260320982101721E-006 ,   5.5110602495283142E-002 ,   2.7942249465850380E-006 ,   5.4633655507660812E-002 ,   2.7513398822697261E-006
   104.99999999999898      ,   105.99999999999896      ,   5.7446877190344164E-002 ,   7.7466798825159123E-007 ,   5.2473926310492032E-002 ,   1.9778548318524547E-006 ,   5.4246172765513828E-002 ,   1.4431532897134174E-006 ,   5.3760116448458246E-002 ,   2.6532174064112037E-006
   105.99999999999896      ,   106.99999999999895      ,   5.6550518424697660E-002 ,   7.6348310141195985E-007 ,   5.1589249595359390E-002 ,   1.9410530906573207E-006 ,   5.3361642931059342E-002 ,   1.4288866910154900E-006 ,   5.2854751022987270E-002 ,   2.6036162846715499E-006
   106.99999999999895      ,   107.99999999999893      ,   5.5629593002663180E-002 ,   7.5224793413935227E-007 ,   5.0682356459664922E-002 ,   1.9506331264332829E-006 ,   5.2454868420696202E-002 ,   1.3913402644377613E-006 ,   5.1927406925570206E-002 ,   2.7330758901287635E-006
   107.99999999999893      ,   108.99999999999892      ,   5.4677391459246591E-002 ,   7.4089933792947922E-007 ,   4.9740864584364233E-002 ,   1.8689048735470600E-006 ,   5.1513846007008271E-002 ,   1.3660282413900519E-006 ,   5.0965287243003810E-002 ,   2.5068014175524588E-006
   108.99999999999892      ,   109.99999999999891      ,   5.3683053732625718E-002 ,   7.2934180440366517E-007 ,   4.8764976946425988E-002 ,   1.8322078401044369E-006 ,   5.0539076835204699E-002 ,   1.3412831189504590E-006 ,   4.9966895461860325E-002 ,   2.4585049792865650E-006
   109.99999999999891      ,   110.99999999999889      ,   5.2648576686812658E-002 ,   7.1756988955707161E-007 ,   4.7751394670378457E-002 ,   1.7964142412978970E-006 ,   4.9524487832643155E-002 ,   1.3152997888634720E-006 ,   4.8929941666681569E-002 ,   2.4120287442556032E-006
   110.99999999999889      ,   111.99999999999888      ,   5.1557966217055988E-002 ,   7.0547313496267287E-007 ,   4.6682421950705461E-002 ,   1.7612881049406902E-006 ,   4.8455434986751859E-002 ,   1.2892033355203726E-006 ,   4.7833523247201831E-002 ,   2.3605578173586330E-006
   111.99999999999888      ,   112.99999999999886      ,   5.0404760712745945E-002 ,   6.9297759642238358E-007 ,   4.5562495803918107E-002 ,   1.7191984978640042E-006 ,   4.7328255842866852E-002 ,   1.2621838662056917E-006 ,   4.6689585531531172E-002 ,   2.3064150824931556E-006
   112.99999999999886      ,   113.99999999999885      ,   4.9180110021319251E-002 ,   6.8001504901047866E-007 ,   4.4374684689257586E-002 ,   1.6796394826919569E-006 ,   4.6133538940455028E-002 ,   1.2347725457907462E-006 ,   4.5473872118196437E-002 ,   2.2535782705112590E-006
   113.99999999999885      ,   114.99999999999883      ,   4.7869381552456174E-002 ,   6.6645872293786587E-007 ,   4.3112943595228902E-002 ,   1.6397188156989895E-006 ,   4.4855651962807101E-002 ,   1.2066191835658828E-006 ,   4.4181690940846639E-002 ,   2.2007939953625221E-006
   114.99999999999883      ,   115.99999999999882      ,   4.6460940264812296E-002 ,   6.5220575231622999E-007 ,   4.1764173970473252E-002 ,   1.5984159882740810E-006 ,   4.3489887512407593E-002 ,   1.1771344980353549E-006 ,   4.2800215708622552E-002 ,   2.1461856265162700E-006
   115.99999999999882      ,   116.99999999999881      ,   4.4936844425677219E-002 ,   6.3710112775390439E-007 ,   4.0311284705022474E-002 ,   1.5523131714400385E-006 ,   4.1982656467291789E-002 ,   1.1446119190287421E-006 ,   4.1312414603216947E-002 ,   2.0827368618434358E-006
   116.99999999999881      ,   117.99999999999879      ,   4.3275974457737544E-002 ,   6.2096023333424727E-007 ,   3.8742000445238588E-002 ,   1.5061106064524045E-006 ,   4.0328030232365981E-002 ,   1.1114093980540569E-006 ,   3.9704270230185919E-002 ,   2.0210002106802593E-006
   117.99999999999879      ,   118.99999999999878      ,   4.1453059855113855E-002 ,   6.0353936648873525E-007 ,   3.7030171762068680E-002 ,   1.4569966101000161E-006 ,   3.8522233317853066E-002 ,   1.0726929382171351E-006 ,   3.7952645627446185E-002 ,   1.9549496444442974E-006
   118.99999999999878      ,   119.99999999999876      ,   3.9437550168981254E-002 ,   5.8454090146569639E-007 ,   3.5152908522737149E-002 ,   1.4044831508939746E-006 ,   3.6549432886254028E-002 ,   1.0334848552969026E-006 ,   3.6027884471868762E-002 ,   1.8846139139180140E-006
   119.99999999999876      ,   120.99999999999875      ,   3.7186154190457621E-002 ,   5.6352930414368843E-007 ,   3.3071734157947903E-002 ,   1.3475222023967323E-006 ,   3.4367125384285185E-002 ,   9.9094379781844586E-007 ,   3.3897696348626029E-002 ,   1.8083121750215677E-006
   120.99999999999875      ,   121.99999999999874      ,   3.4643418108967032E-002 ,   5.3990347733569506E-007 ,   3.0745743178416936E-002 ,   1.2849228796926034E-006 ,   3.1928269639919460E-002 ,   9.4442054339789563E-007 ,   3.1514626349233625E-002 ,   1.7244375951031359E-006
   121.99999999999874      ,   122.99999999999872      ,   3.1733849311038419E-002 ,   5.1279072218217349E-007 ,   2.8111398562809420E-002 ,   1.2149358646684241E-006 ,   2.9172008627221108E-002 ,   8.9222025531089572E-007 ,   2.8815764987661290E-002 ,   1.6305655788815089E-006
   122.99999999999872      ,   123.99999999999871      ,   2.8345746201393969E-002 ,   4.8078994073049514E-007 ,   2.5077213969380421E-002 ,   1.1344441451789275E-006 ,   2.6004769563684211E-002 ,   8.3246229386794565E-007 ,   2.5705131551694800E-002 ,   1.5226877927215789E-006
   123.99999999999871      ,   124.99999999999869      ,   2.4312400301964084E-002 ,   4.4152988804321189E-007 ,   2.1516816683169848E-002 ,   1.0388120356841267E-006 ,   2.2292006853489258E-002 ,   7.6156442385686642E-007 ,   2.2057253634142772E-002 ,   1.3942747852257767E-006
   124.99999999999869      ,   125.99999999999868      ,   1.9364935839179167E-002 ,   3.9045771611847015E-007 ,   1.7219474414878411E-002 ,   9.1910017298616373E-007 ,   1.7821243967602905E-002 ,   6.7307677665163536E-007 ,   1.7653634211497991E-002 ,   1.2337527897868439E-006
   125.99999999999868      ,   126.99999999999866      ,   1.3019864434256356E-002 ,   3.1675863650667358E-007 ,   1.1817254607328723E-002 ,   7.5451934849564231E-007 ,   1.2214636458038169E-002 ,   5.5192187001639346E-007 ,   1.2115906575645000E-002 ,   1.0129644958939990E-006
   126.99999999999866      ,   127.99999999999865      ,   4.4027262452858949E-003 ,   1.8101135726284584E-007 ,   4.6543183465704609E-003 ,   4.7954721318083897E-007 ,   4.8049116765667230E-003 ,   3.5039105625481649E-007 ,   4.7728389849703611E-003 ,   6.4380816324781574E-007
   127.99999999999865      ,   128.99999999999864      ,   1.0238475635119844E-005 ,   6.7399605901694441E-009 ,   4.8208154470227258E-004 ,   1.8140058049929504E-007 ,   4.9877025296046740E-004 ,   1.3282062686289297E-007 ,   4.9391071503341753E-004 ,   2.4344733312849044E-007
   128.99999999999864      ,   129.99999999999864      ,   0.0000000000000000      ,   0.0000000000000000      ,   7.5789881658796550E-005 ,   7.0527149725321001E-008 ,   7.8458662366773544E-005 ,   5.1678416675697533E-008 ,   7.7727714305290586E-005 ,   9.4727057863378943E-008
