 # xl, xh, LO, dLO, NLOPSnovp, dNLOPSnovp
   200.00000000000000      ,   205.00000000000000      ,   0.0000000000000000      ,   0.0000000000000000      ,   8.4346153434654962E-008 ,   1.8375492134977935E-008
   205.00000000000000      ,   210.00000000000000      ,   0.0000000000000000      ,   0.0000000000000000      ,   5.3436986130668878E-007 ,   1.8583816573261652E-008
   210.00000000000000      ,   215.00000000000000      ,   2.2988559499232785E-008 ,   8.2785330258140116E-010 ,   2.0460474294762315E-006 ,   2.6398658001406691E-008
   215.00000000000000      ,   220.00000000000000      ,   1.7308144288123186E-006 ,   6.6666615272641500E-009 ,   8.4534613009923443E-006 ,   7.7955818572187923E-008
   220.00000000000000      ,   225.00000000000000      ,   1.6386269333990259E-005 ,   2.0467429632715379E-008 ,   3.5669312501382647E-005 ,   2.2278723318904147E-007
   225.00000000000000      ,   230.00000000000000      ,   5.4556151712786178E-005 ,   3.7638329029109133E-008 ,   1.0397089360446113E-004 ,   3.9168748567700370E-007
   230.00000000000000      ,   235.00000000000000      ,   1.2094999900865614E-004 ,   5.6623554143803425E-008 ,   2.2396795337703700E-004 ,   7.8560387535979135E-007
   235.00000000000000      ,   240.00000000000000      ,   2.2635588024962156E-004 ,   7.8339258988171751E-008 ,   4.1139590303857897E-004 ,   2.9558642509222686E-006
   240.00000000000000      ,   245.00000000000000      ,   3.9076597625459171E-004 ,   1.0418028679991932E-007 ,   6.8723534840250781E-004 ,   1.6201010834531342E-006
   245.00000000000000      ,   250.00000000000000      ,   6.5190151703372874E-004 ,   1.3619856266656558E-007 ,   1.1043511602715562E-003 ,   1.1074317068031583E-006
   250.00000000000000      ,   255.00000000000000      ,   1.1019343636995977E-003 ,   1.7911165658802578E-007 ,   1.7870641803924170E-003 ,   1.4200432643247454E-006
   255.00000000000000      ,   260.00000000000000      ,   2.3928959452894564E-003 ,   2.6357582694962418E-007 ,   3.3917080350731018E-003 ,   2.2699854690144364E-006
   260.00000000000000      ,   265.00000000000000      ,   6.3173854752115906E-003 ,   4.2140425635913131E-007 ,   7.4227788498260261E-003 ,   2.0101059465595231E-006
   265.00000000000000      ,   270.00000000000000      ,   8.7843179963057495E-003 ,   5.0550832803852422E-007 ,   1.0134593196367359E-002 ,   4.0302166323416153E-006
   270.00000000000000      ,   275.00000000000000      ,   1.1260425296652469E-002 ,   5.8518648589461875E-007 ,   1.2868739459988503E-002 ,   2.6287968061630900E-006
   275.00000000000000      ,   280.00000000000000      ,   1.4211338823962198E-002 ,   6.7482224274910480E-007 ,   1.6098015736383621E-002 ,   2.9059535916218616E-006
   280.00000000000000      ,   285.00000000000000      ,   1.7828571228103395E-002 ,   7.7896045765578519E-007 ,   2.0025726066090911E-002 ,   3.9422090444594056E-006
   285.00000000000000      ,   290.00000000000000      ,   2.2328034770846807E-002 ,   9.0187919880461590E-007 ,   2.4859016557489746E-002 ,   3.5966603669608287E-006
   290.00000000000000      ,   295.00000000000000      ,   2.7976389277724542E-002 ,   1.0482127893163601E-006 ,   3.0857153849122600E-002 ,   7.9605025769634071E-006
   295.00000000000000      ,   300.00000000000000      ,   3.5098770121674977E-002 ,   1.2227485922529065E-006 ,   3.8260173295610440E-002 ,   4.8801082998020197E-006
   300.00000000000000      ,   305.00000000000000      ,   4.4076383303929767E-002 ,   1.4300317079180846E-006 ,   4.7472172190556369E-002 ,   6.3413174428585468E-006
   305.00000000000000      ,   310.00000000000000      ,   5.5298496186579518E-002 ,   1.6726478452900437E-006 ,   5.8765908088471389E-002 ,   6.5548274837880500E-006
   310.00000000000000      ,   315.00000000000000      ,   6.9051067387301338E-002 ,   1.9477278113083397E-006 ,   7.2419792244891271E-002 ,   8.4573651951991055E-005
   315.00000000000000      ,   320.00000000000000      ,   8.5246098792570668E-002 ,   2.2412843642479779E-006 ,   8.8035936056143557E-002 ,   1.3050846740155083E-005
   320.00000000000000      ,   325.00000000000000      ,  0.10320294635975952      ,   2.5277849166485863E-006 ,  0.10506540650847651      ,   9.4946810695979432E-006
   325.00000000000000      ,   330.00000000000000      ,  0.12117589056253174      ,   2.7690094496629104E-006 ,  0.12180307937667303      ,   1.2289822269706089E-005
   330.00000000000000      ,   335.00000000000000      ,  0.13627377995111617      ,   2.9233803999133730E-006 ,  0.13574858443199059      ,   1.1114882784721260E-005
   335.00000000000000      ,   340.00000000000000      ,  0.14862739509651210      ,   3.0153926270018605E-006 ,  0.14693864986006777      ,   1.4447784918053567E-005
   340.00000000000000      ,   345.00000000000000      ,  0.15748769101603941      ,   3.0453569768161072E-006 ,  0.15473126551854754      ,   1.0513729334460209E-005
   345.00000000000000      ,   350.00000000000000      ,  0.16248041848218686      ,   3.0127989302760607E-006 ,  0.15873372430220312      ,   1.0326670327125868E-005
   350.00000000000000      ,   355.00000000000000      ,  0.16358034765085866      ,   2.9177830464657910E-006 ,  0.15899143898815390      ,   1.0062551175767538E-005
   355.00000000000000      ,   360.00000000000000      ,  0.16091201358361329      ,   2.7588780657274250E-006 ,  0.15562162782250813      ,   9.3900206190999637E-006
   360.00000000000000      ,   365.00000000000000      ,  0.15357880878101460      ,   2.5069152548898485E-006 ,  0.14775233122915951      ,   8.4805610151416318E-006
   365.00000000000000      ,   370.00000000000000      ,  0.14277882609057144      ,   2.1719407670171339E-006 ,  0.13669055327053242      ,   7.3474149374711761E-006
   370.00000000000000      ,   375.00000000000000      ,  0.13510810352264221      ,   1.9671185252154741E-006 ,  0.12865931619317358      ,   6.6499853080530458E-006
   375.00000000000000      ,   380.00000000000000      ,  0.12609998365102268      ,   1.7730187711692766E-006 ,  0.11963736339249786      ,   5.9760991364423465E-006
   380.00000000000000      ,   385.00000000000000      ,  0.11688952733542722      ,   1.5826846419908447E-006 ,  0.11050817510776745      ,   5.2960829049419521E-006
   385.00000000000000      ,   390.00000000000000      ,  0.10811072451242830      ,   1.4065988287627938E-006 ,  0.10186150850565495      ,   5.8618888825793517E-006
   390.00000000000000      ,   395.00000000000000      ,  0.10004126364943888      ,   1.2502676774350404E-006 ,   9.3900277606834337E-002 ,   4.1616697055967051E-006
   395.00000000000000      ,   400.00000000000000      ,   9.2763510348512324E-002 ,   1.1145474361193186E-006 ,   8.6732451230234944E-002 ,   3.7312191757667653E-006
   400.00000000000000      ,   405.00000000000000      ,   8.6223161055052289E-002 ,   9.9672424776206251E-007 ,   8.0293816822365652E-002 ,   3.4451790508857598E-006
   405.00000000000000      ,   410.00000000000000      ,   8.0379041635511211E-002 ,   8.9543944688776367E-007 ,   7.4539061579902949E-002 ,   2.9522110240703271E-006
   410.00000000000000      ,   415.00000000000000      ,   7.5151076561780675E-002 ,   8.0874399450624831E-007 ,   6.9386361529310922E-002 ,   2.6525836123556332E-006
   415.00000000000000      ,   420.00000000000000      ,   7.0442595621457896E-002 ,   7.3443167390045174E-007 ,   6.4746290563468006E-002 ,   2.3985206331464035E-006
   420.00000000000000      ,   425.00000000000000      ,   6.6151392823825622E-002 ,   6.7039405579441410E-007 ,   6.0519081053264402E-002 ,   2.1792415719997402E-006
   425.00000000000000      ,   430.00000000000000      ,   6.2172029458143409E-002 ,   6.1470830377549981E-007 ,   5.6596953373115814E-002 ,   1.9882997949738448E-006
   430.00000000000000      ,   435.00000000000000      ,   5.8390791969494371E-002 ,   5.6565254614130326E-007 ,   5.2884469339539712E-002 ,   1.8203734298561540E-006
   435.00000000000000      ,   440.00000000000000      ,   5.4676270050181698E-002 ,   5.2161740424165420E-007 ,   4.9255371577094663E-002 ,   1.6722975390190099E-006
   440.00000000000000      ,   445.00000000000000      ,   5.0871309014740587E-002 ,   4.8105716868712434E-007 ,   4.5559032119118791E-002 ,   1.5334166738671413E-006
   445.00000000000000      ,   450.00000000000000      ,   4.6741513651176958E-002 ,   4.4218842587773516E-007 ,   4.1599521667872411E-002 ,   1.3986997760615624E-006
   450.00000000000000      ,   455.00000000000000      ,   4.1907882982929169E-002 ,   4.0256419222444773E-007 ,   3.7043153180197033E-002 ,   1.2649666501476119E-006
   455.00000000000000      ,   460.00000000000000      ,   3.5597334663790975E-002 ,   3.5755811838054960E-007 ,   3.1232071717041739E-002 ,   1.1158995900652520E-006
   460.00000000000000      ,   465.00000000000000      ,   2.5493902121098290E-002 ,   2.9240857933300475E-007 ,   2.2172143453952173E-002 ,   9.0554890456339444E-007
   465.00000000000000      ,   470.00000000000000      ,   5.6480357019992392E-003 ,   1.3541299664408426E-007 ,   4.9272595831764592E-003 ,   4.1867136963493036E-007
   470.00000000000000      ,   475.00000000000000      ,   7.0335209809211478E-005 ,   1.5540590583456158E-008 ,   5.8354388401624601E-005 ,   4.5928862333198809E-008
   475.00000000000000      ,   480.00000000000000      ,   0.0000000000000000      ,   0.0000000000000000      ,   0.0000000000000000      ,   0.0000000000000000     
   480.00000000000000      ,   485.00000000000000      ,   0.0000000000000000      ,   0.0000000000000000      ,   0.0000000000000000      ,   0.0000000000000000     
   485.00000000000000      ,   490.00000000000000      ,   0.0000000000000000      ,   0.0000000000000000      ,   0.0000000000000000      ,   0.0000000000000000     
   490.00000000000000      ,   495.00000000000000      ,   0.0000000000000000      ,   0.0000000000000000      ,   0.0000000000000000      ,   0.0000000000000000     
   495.00000000000000      ,   500.00000000000000      ,   0.0000000000000000      ,   0.0000000000000000      ,   0.0000000000000000      ,   0.0000000000000000     
