 # xl, xh, LO, dLO, NLOPSnovp, dNLOPSnovp, NLOPSvp, dNLOPSvp, NLOPSvplt, dNLOPSvplt
   200.00000000000000      ,   205.00000000000000      ,   0.0000000000000000      ,   0.0000000000000000      ,   0.0000000000000000      ,   0.0000000000000000      ,   0.0000000000000000      ,   0.0000000000000000      ,   0.0000000000000000      ,   0.0000000000000000     
   205.00000000000000      ,   210.00000000000000      ,   0.0000000000000000      ,   0.0000000000000000      ,   0.0000000000000000      ,   0.0000000000000000      ,   0.0000000000000000      ,   0.0000000000000000      ,   0.0000000000000000      ,   0.0000000000000000     
   210.00000000000000      ,   215.00000000000000      ,   0.0000000000000000      ,   0.0000000000000000      ,   0.0000000000000000      ,   0.0000000000000000      ,   0.0000000000000000      ,   0.0000000000000000      ,   0.0000000000000000      ,   0.0000000000000000     
   215.00000000000000      ,   220.00000000000000      ,   0.0000000000000000      ,   0.0000000000000000      ,   0.0000000000000000      ,   0.0000000000000000      ,   0.0000000000000000      ,   0.0000000000000000      ,   0.0000000000000000      ,   0.0000000000000000     
   220.00000000000000      ,   225.00000000000000      ,   0.0000000000000000      ,   0.0000000000000000      ,   0.0000000000000000      ,   0.0000000000000000      ,   0.0000000000000000      ,   0.0000000000000000      ,   0.0000000000000000      ,   0.0000000000000000     
   225.00000000000000      ,   230.00000000000000      ,   0.0000000000000000      ,   0.0000000000000000      ,   1.8228711448943960E-007 ,   1.2770135531787900E-008 ,   1.4713649208720224E-007 ,   3.2715361803652722E-009 ,   1.7170785783228351E-007 ,   1.1990744982727727E-008
   230.00000000000000      ,   235.00000000000000      ,   0.0000000000000000      ,   0.0000000000000000      ,   4.8793686704788772E-006 ,   2.8732650579556533E-008 ,   4.8964130959567661E-006 ,   1.9145991634828571E-008 ,   4.9333632386598038E-006 ,   2.3032035712284311E-008
   235.00000000000000      ,   240.00000000000000      ,   0.0000000000000000      ,   0.0000000000000000      ,   2.4147341003794776E-005 ,   8.5433912807010529E-008 ,   2.4608075897164783E-005 ,   7.0534983787246921E-008 ,   2.4674965174534955E-005 ,   9.5574637834580015E-008
   240.00000000000000      ,   245.00000000000000      ,   2.4846682906562590E-008 ,   3.7421009281499013E-009 ,   6.5607227230696292E-005 ,   1.4747350342817294E-007 ,   6.6814869842577254E-005 ,   1.0228051122743395E-007 ,   6.6728101916664224E-005 ,   1.1416232459224017E-007
   245.00000000000000      ,   250.00000000000000      ,   4.7711015904864264E-006 ,   2.3725398362941230E-008 ,   1.4341418007718634E-004 ,   2.3183323314561413E-007 ,   1.4717099908805498E-004 ,   4.6746039291317973E-007 ,   1.4690174973264793E-004 ,   6.5013845554533334E-007
   250.00000000000000      ,   255.00000000000000      ,   4.2636530717276464E-005 ,   6.9272526446052502E-008 ,   3.0062205712621528E-004 ,   4.9192580590621261E-007 ,   3.0840781992753626E-004 ,   6.4884164037112431E-007 ,   3.0666063516834874E-004 ,   5.1548768891386702E-007
   255.00000000000000      ,   260.00000000000000      ,   1.7749208709825042E-004 ,   1.3875960784552648E-007 ,   6.2371658962410330E-004 ,   1.3859163281805591E-006 ,   6.3830529466328936E-004 ,   2.8466506519755859E-006 ,   6.3490831043672602E-004 ,   9.9245889361083261E-007
   260.00000000000000      ,   265.00000000000000      ,   4.5266977078847715E-004 ,   2.1908699489831583E-007 ,   1.1835406149170477E-003 ,   3.1167618216863163E-006 ,   1.2086435338316400E-003 ,   1.1000169457755982E-006 ,   1.2061458803730601E-003 ,   1.9243475916817293E-006
   265.00000000000000      ,   270.00000000000000      ,   8.8283624367125376E-004 ,   3.0346619929285479E-007 ,   2.0371503730171863E-003 ,   3.3574209357516486E-006 ,   2.0814081408408367E-003 ,   1.8103847049084819E-006 ,   2.0786726669689008E-003 ,   2.5095358194694255E-006
   270.00000000000000      ,   275.00000000000000      ,   1.5210573449140172E-003 ,   3.9575133873689925E-007 ,   3.2361642114786602E-003 ,   9.0614986284808869E-006 ,   3.3075544389147313E-003 ,   3.8077705749424237E-006 ,   3.2987152438928090E-003 ,   5.2896996348129040E-006
   275.00000000000000      ,   280.00000000000000      ,   2.4748990398503097E-003 ,   5.0232775060686884E-007 ,   4.8797228248309669E-003 ,   4.0967712734776018E-006 ,   4.9952958673436946E-003 ,   2.8351883005179300E-006 ,   4.9782028309451271E-003 ,   3.0793739712186283E-006
   280.00000000000000      ,   285.00000000000000      ,   3.9863335990688751E-003 ,   6.3557487289617410E-007 ,   7.2776060470126098E-003 ,   6.4184012838892897E-006 ,   7.4471518822136320E-003 ,   4.2327487416078569E-006 ,   7.4243324710983162E-003 ,   4.8851835710450410E-006
   285.00000000000000      ,   290.00000000000000      ,   7.1388006722369023E-003 ,   8.5354580294246527E-007 ,   1.1412824392137743E-002 ,   6.9953702282990619E-006 ,   1.1685512193989653E-002 ,   5.1196285630970323E-006 ,   1.1652198443886742E-002 ,   6.7160839088856928E-006
   290.00000000000000      ,   295.00000000000000      ,   1.9120451157069451E-002 ,   1.3994682031790135E-006 ,   2.2248054958519562E-002 ,   9.4633599818451910E-006 ,   2.2743085063797044E-002 ,   5.1683494066761424E-006 ,   2.2695543941051690E-002 ,   7.2045416296373401E-006
   295.00000000000000      ,   300.00000000000000      ,   3.7088423253560425E-002 ,   1.9203317879058753E-006 ,   3.7218601612284456E-002 ,   1.4130493511543746E-005 ,   3.8093782044666541E-002 ,   7.4436916960383595E-006 ,   3.7991830881036998E-002 ,   9.8992177504235370E-006
   300.00000000000000      ,   305.00000000000000      ,   4.5226567947130786E-002 ,   2.0766736679513584E-006 ,   4.5071345474531573E-002 ,   1.1522530123434317E-005 ,   4.6144300256057841E-002 ,   8.4030487681971060E-006 ,   4.6006181761511750E-002 ,   8.6872345330652015E-006
   305.00000000000000      ,   310.00000000000000      ,   5.1702822573183038E-002 ,   2.1683101522646652E-006 ,   5.1456759578973603E-002 ,   1.1193074566696264E-005 ,   5.2672741593102451E-002 ,   7.7059439720796889E-006 ,   5.2524297154691757E-002 ,   9.1833019788970206E-006
   310.00000000000000      ,   315.00000000000000      ,   5.8254539629610171E-002 ,   2.2459811892212493E-006 ,   5.7789974994165196E-002 ,   1.1617146839849281E-005 ,   5.9172640537608096E-002 ,   7.7123655044135734E-006 ,   5.8984621072262482E-002 ,   9.5367048099095301E-006
   315.00000000000000      ,   320.00000000000000      ,   6.5205066489845961E-002 ,   2.3175322519887903E-006 ,   6.4451812380942206E-002 ,   1.4192899682980961E-005 ,   6.5974665946988073E-002 ,   8.1461573044711453E-006 ,   6.5795154934829667E-002 ,   1.0825891664538314E-005
   320.00000000000000      ,   325.00000000000000      ,   7.2755200560355754E-002 ,   2.3865454526936396E-006 ,   7.1527669510925346E-002 ,   1.4383075237612279E-005 ,   7.3250400525923576E-002 ,   8.6996102061536633E-006 ,   7.3028318346374882E-002 ,   1.1429316237475119E-005
   325.00000000000000      ,   330.00000000000000      ,   8.1109408251530499E-002 ,   2.4556103240223096E-006 ,   7.9274558966649755E-002 ,   1.1070458966187525E-005 ,   8.1201890030699608E-002 ,   8.0774788956789523E-006 ,   8.0938037034786053E-002 ,   8.8392106295588227E-006
   330.00000000000000      ,   335.00000000000000      ,   9.0465051178861430E-002 ,   2.5258043697791476E-006 ,   8.7825220036370638E-002 ,   1.1542679902594415E-005 ,   8.9937949140406037E-002 ,   8.2234950560247274E-006 ,   8.9668223236610861E-002 ,   9.9655520202840965E-006
   335.00000000000000      ,   340.00000000000000      ,  0.10108515602076354      ,   2.5986156727577409E-006 ,   9.7397318975413927E-002 ,   1.1697445089487431E-005 ,   9.9758153594016227E-002 ,   7.6465782851517854E-006 ,   9.9450596460113616E-002 ,   1.0165254212125988E-005
   340.00000000000000      ,   345.00000000000000      ,  0.11331228398501635      ,   2.6756173067630714E-006 ,  0.10837572204673880      ,   1.0395119319761753E-005 ,  0.11099119650905809      ,   6.7322884679369443E-006 ,  0.11065538436413268      ,   8.3584485279907717E-006
   345.00000000000000      ,   350.00000000000000      ,  0.12766978699520776      ,   2.7598191498600799E-006 ,  0.12117533762777710      ,   1.0562561673509630E-005 ,  0.12413377039110983      ,   9.4953527108574518E-006 ,  0.12373967475617494      ,   9.2993805511899596E-006
   350.00000000000000      ,   355.00000000000000      ,  0.14492009151513655      ,   2.8551327925849846E-006 ,  0.13641295778360879      ,   1.0385412460174545E-005 ,  0.13969234908177397      ,   8.0519513359579336E-006 ,  0.13929862542247309      ,   8.2257064183743666E-006
   355.00000000000000      ,   360.00000000000000      ,  0.16606663151490517      ,   2.9649075503585108E-006 ,  0.15486736587624975      ,   9.2497303971722812E-006 ,  0.15857536955206961      ,   6.2889591075547018E-006 ,  0.15814673990226791      ,   7.4085203166964710E-006
   360.00000000000000      ,   365.00000000000000      ,  0.19270073665813370      ,   3.0945560059738066E-006 ,  0.17780410015513129      ,   9.2525955390702158E-006 ,  0.18202564406908861      ,   5.9336711782575877E-006 ,  0.18156683439025947      ,   7.3656722970712662E-006
   365.00000000000000      ,   370.00000000000000      ,  0.22740462382948201      ,   3.2520730467813917E-006 ,  0.20719472748769641      ,   9.2196873211771553E-006 ,  0.21209734382290135      ,   7.4009288400082901E-006 ,  0.21158479138402000      ,   7.2252229893856085E-006
   370.00000000000000      ,   375.00000000000000      ,  0.27487678928286113      ,   3.4515550449195357E-006 ,  0.24651355514074511      ,   8.4063267926742747E-006 ,  0.25235263803662056      ,   5.5842210841330490E-006 ,  0.25174241833675870      ,   6.8401835735768538E-006
   375.00000000000000      ,   380.00000000000000      ,  0.34460631749741633      ,   3.7189506191179637E-006 ,  0.30202873031442795      ,   8.1281896877845727E-006 ,  0.30918549618730479      ,   5.5207182879587298E-006 ,  0.30843949371435353      ,   6.5621524788736071E-006
   380.00000000000000      ,   385.00000000000000      ,  0.45320435064797149      ,   4.0867870124661649E-006 ,  0.37977789345302909      ,   8.4229626410646650E-006 ,  0.38878894484016036      ,   5.9529819899086667E-006 ,  0.38782135631951309      ,   6.7179351798378142E-006
   385.00000000000000      ,   390.00000000000000      ,  0.49918161591541654      ,   4.2045231092575793E-006 ,  0.40707935726437772      ,   7.5443368867532131E-006 ,  0.41680075657997784      ,   4.9830450946469890E-006 ,  0.41572770120102098      ,   5.9965544984266211E-006
   390.00000000000000      ,   395.00000000000000      ,  0.48001807382856576      ,   4.0972450824976642E-006 ,  0.38988818269081565      ,   7.2631565304747262E-006 ,  0.39929213705303507      ,   4.6543272194087902E-006 ,  0.39821680686985239      ,   5.7769517058851151E-006
   395.00000000000000      ,   400.00000000000000      ,  0.45947530541008785      ,   3.9865803344190595E-006 ,  0.37206293733419349      ,   6.7459512983636063E-006 ,  0.38113220659285751      ,   4.5879429733952777E-006 ,  0.38006030445679106      ,   5.4338735301521382E-006
   400.00000000000000      ,   405.00000000000000      ,  0.44002930010657304      ,   3.8799247988065959E-006 ,  0.35520170424817904      ,   6.2573706576195895E-006 ,  0.36394596445764149      ,   4.0846385732612748E-006 ,  0.36288485567658857      ,   5.0471055922571731E-006
   405.00000000000000      ,   410.00000000000000      ,  0.42165517574382466      ,   3.7772155508733789E-006 ,  0.33924255124882485      ,   5.9068465886421864E-006 ,  0.34767065726270624      ,   3.8754194233032370E-006 ,  0.34661120049242461      ,   4.7328560483100995E-006
   410.00000000000000      ,   415.00000000000000      ,  0.40425283304509868      ,   3.6781083366219989E-006 ,  0.32409994415863691      ,   5.5824349992142397E-006 ,  0.33224042770901296      ,   3.7108924784119773E-006 ,  0.33118746236743163      ,   4.4863121445600410E-006
   415.00000000000000      ,   420.00000000000000      ,  0.38775824683681498      ,   3.5824257504663935E-006 ,  0.30971180137886190      ,   5.2197100427119252E-006 ,  0.31757021499513471      ,   3.4321107016627075E-006 ,  0.31651919118115046      ,   4.1890318840524789E-006
   420.00000000000000      ,   425.00000000000000      ,  0.37205524889514013      ,   3.4896640197365534E-006 ,  0.29600161667991637      ,   5.0309882018695476E-006 ,  0.30357446704206426      ,   3.2180176278507858E-006 ,  0.30253778502247558      ,   3.9961615752425572E-006
   425.00000000000000      ,   430.00000000000000      ,  0.35705821328765025      ,   3.3995119703316577E-006 ,  0.28287003952349660      ,   4.7381043317836242E-006 ,  0.29017639201872109      ,   3.0624918507641946E-006 ,  0.28915528178861449      ,   3.7761850638990591E-006
   430.00000000000000      ,   435.00000000000000      ,  0.34265987268360470      ,   3.3115073567280828E-006 ,  0.27022452342678244      ,   4.4450845004342976E-006 ,  0.27727724550373062      ,   2.8938863514255956E-006 ,  0.27626120749637434      ,   3.5666357786434014E-006
   435.00000000000000      ,   440.00000000000000      ,  0.32874900946594615      ,   3.2251607504754195E-006 ,  0.25796793674046814      ,   4.2476762882275702E-006 ,  0.26475671775840076      ,   2.7754093717657863E-006 ,  0.26375757166960118      ,   3.4015074964690488E-006
   440.00000000000000      ,   445.00000000000000      ,  0.31516245704005347      ,   3.1396511026354814E-006 ,  0.24598129114529135      ,   3.9996590440276362E-006 ,  0.25251888661479371      ,   2.6653049098665160E-006 ,  0.25153528591227753      ,   3.2014701821948123E-006
   445.00000000000000      ,   450.00000000000000      ,  0.30170359228936011      ,   3.0540151134108800E-006 ,  0.23409001792727691      ,   3.8151777448559743E-006 ,  0.24037279817164958      ,   2.4831912798954938E-006 ,  0.23940428791852450      ,   3.0518556166266501E-006
   450.00000000000000      ,   455.00000000000000      ,  0.28812429058732791      ,   2.9668642336821136E-006 ,  0.22210602883090044      ,   3.6547252083031013E-006 ,  0.22812576911142135      ,   2.3702333032466284E-006 ,  0.22717664093134196      ,   2.9209356762255883E-006
   455.00000000000000      ,   460.00000000000000      ,  0.27402636424594623      ,   2.8759892616874485E-006 ,  0.20972209026149102      ,   3.4497878336804603E-006 ,  0.21545857971309951      ,   2.2451485265057121E-006 ,  0.21453412961763477      ,   2.7754441543354390E-006
   460.00000000000000      ,   465.00000000000000      ,  0.25884634871613632      ,   2.7781059441300197E-006 ,  0.19650887221738059      ,   3.3187710775584462E-006 ,  0.20193411385913548      ,   2.1435567819491431E-006 ,  0.20104171663281598      ,   2.6481603615379074E-006
   465.00000000000000      ,   470.00000000000000      ,  0.24157955093926869      ,   2.6670951891125517E-006 ,  0.18173442764156184      ,   3.0897655681500731E-006 ,  0.18679576578312435      ,   2.0200199951286647E-006 ,  0.18594719727525288      ,   2.4774591305851678E-006
   470.00000000000000      ,   475.00000000000000      ,  0.22044421540253550      ,   2.5314761234673853E-006 ,  0.16411869180651731      ,   3.0038613085666727E-006 ,  0.16872443974317683      ,   1.9123103459670139E-006 ,  0.16793930799784870      ,   2.3895677509725426E-006
   475.00000000000000      ,   480.00000000000000      ,  0.19159554057356787      ,   2.3445698970036252E-006 ,  0.14090172497161754      ,   2.6347796544712987E-006 ,  0.14488245308968195      ,   1.7156578477835540E-006 ,  0.14419577268156811      ,   2.1115340417001902E-006
   480.00000000000000      ,   485.00000000000000      ,  0.14345999020531330      ,   2.0146425059018344E-006 ,  0.10378401020460817      ,   2.2323357386277921E-006 ,  0.10674604199280169      ,   1.4559283548108910E-006 ,  0.10622556561519743      ,   1.7931399152530383E-006
   485.00000000000000      ,   490.00000000000000      ,   3.9066372568354379E-002 ,   1.0541522033094653E-006 ,   2.9055772745605526E-002 ,   1.1830205661142415E-006 ,   2.9888769016707957E-002 ,   7.7075951194208071E-007 ,   2.9741972746769364E-002 ,   9.4857714613480488E-007
   490.00000000000000      ,   495.00000000000000      ,   6.2425282565243385E-004 ,   1.4295196674020402E-007 ,   5.2408298347785649E-004 ,   1.6980691292422227E-007 ,   5.3912705639826196E-004 ,   1.1081867154095148E-007 ,   5.3664180273728693E-004 ,   1.3704347640859712E-007
   495.00000000000000      ,   500.00000000000000      ,   0.0000000000000000      ,   0.0000000000000000      ,   0.0000000000000000      ,   0.0000000000000000      ,   0.0000000000000000      ,   0.0000000000000000      ,   0.0000000000000000      ,   0.0000000000000000     
