 # xl, xh, LO, dLO, NLOPSnovp, dNLOPSnovp
   0.0000000000000000      ,   10.000000000000000      ,   0.0000000000000000      ,   0.0000000000000000      ,   0.0000000000000000      ,   0.0000000000000000     
   10.000000000000000      ,   20.000000000000000      ,   0.0000000000000000      ,   0.0000000000000000      ,   0.0000000000000000      ,   0.0000000000000000     
   20.000000000000000      ,   30.000000000000000      ,   0.0000000000000000      ,   0.0000000000000000      ,   0.0000000000000000      ,   0.0000000000000000     
   30.000000000000000      ,   40.000000000000000      ,   0.0000000000000000      ,   0.0000000000000000      ,   0.0000000000000000      ,   0.0000000000000000     
   40.000000000000000      ,   50.000000000000000      ,   0.0000000000000000      ,   0.0000000000000000      ,   0.0000000000000000      ,   0.0000000000000000     
   50.000000000000000      ,   60.000000000000000      ,   0.0000000000000000      ,   0.0000000000000000      ,   0.0000000000000000      ,   0.0000000000000000     
   60.000000000000000      ,   70.000000000000000      ,   0.0000000000000000      ,   0.0000000000000000      ,   0.0000000000000000      ,   0.0000000000000000     
   70.000000000000000      ,   80.000000000000000      ,   0.0000000000000000      ,   0.0000000000000000      ,   0.0000000000000000      ,   0.0000000000000000     
   80.000000000000000      ,   90.000000000000000      ,   0.0000000000000000      ,   0.0000000000000000      ,   0.0000000000000000      ,   0.0000000000000000     
   90.000000000000000      ,   100.00000000000000      ,   0.0000000000000000      ,   0.0000000000000000      ,   0.0000000000000000      ,   0.0000000000000000     
   100.00000000000000      ,   110.00000000000000      ,   0.0000000000000000      ,   0.0000000000000000      ,   0.0000000000000000      ,   0.0000000000000000     
   110.00000000000000      ,   120.00000000000000      ,   0.0000000000000000      ,   0.0000000000000000      ,   0.0000000000000000      ,   0.0000000000000000     
   120.00000000000000      ,   130.00000000000000      ,   0.0000000000000000      ,   0.0000000000000000      ,   0.0000000000000000      ,   0.0000000000000000     
   130.00000000000000      ,   140.00000000000000      ,  0.85622244694801597      ,   4.7502244132284331E-006 ,  0.59625813122888138      ,   1.2600135844604743E-005
   140.00000000000000      ,   150.00000000000000      ,   0.0000000000000000      ,   0.0000000000000000      ,  0.12753082888820091      ,   9.9256893148279490E-006
   150.00000000000000      ,   160.00000000000000      ,   0.0000000000000000      ,   0.0000000000000000      ,   2.7394257808395679E-002 ,   6.0821213892867640E-006
   160.00000000000000      ,   170.00000000000000      ,   0.0000000000000000      ,   0.0000000000000000      ,   1.6396601301063470E-002 ,   3.9936308581673272E-006
   170.00000000000000      ,   180.00000000000000      ,   0.0000000000000000      ,   0.0000000000000000      ,   1.1740650673998782E-002 ,   2.3563307527944542E-006
   180.00000000000000      ,   190.00000000000000      ,   0.0000000000000000      ,   0.0000000000000000      ,   9.1070863683845472E-003 ,   2.6557577457763662E-006
   190.00000000000000      ,   200.00000000000000      ,   0.0000000000000000      ,   0.0000000000000000      ,   7.4071473569818566E-003 ,   1.8726866839945801E-006
   200.00000000000000      ,   210.00000000000000      ,   0.0000000000000000      ,   0.0000000000000000      ,   6.2209107649027493E-003 ,   1.7353979225805373E-006
   210.00000000000000      ,   220.00000000000000      ,   0.0000000000000000      ,   0.0000000000000000      ,   5.3494348840206441E-003 ,   1.6249472543219091E-006
   220.00000000000000      ,   230.00000000000000      ,   0.0000000000000000      ,   0.0000000000000000      ,   4.6907987181676932E-003 ,   1.5485815404547221E-006
   230.00000000000000      ,   240.00000000000000      ,   0.0000000000000000      ,   0.0000000000000000      ,   4.2244637612024382E-003 ,   4.2159843120436484E-005
   240.00000000000000      ,   250.00000000000000      ,   0.0000000000000000      ,   0.0000000000000000      ,   3.7732519289493827E-003 ,   1.4521275607950229E-006
   250.00000000000000      ,   260.00000000000000      ,   0.0000000000000000      ,   0.0000000000000000      ,   3.4411565741671877E-003 ,   1.3151862832595432E-006
   260.00000000000000      ,   270.00000000000000      ,   0.0000000000000000      ,   0.0000000000000000      ,   3.1639063398041156E-003 ,   1.2567231030126407E-006
   270.00000000000000      ,   280.00000000000000      ,   0.0000000000000000      ,   0.0000000000000000      ,   2.9238673869783479E-003 ,   1.2059990182386179E-006
   280.00000000000000      ,   290.00000000000000      ,   0.0000000000000000      ,   0.0000000000000000      ,   2.7094708883094822E-003 ,   1.1598891253560773E-006
   290.00000000000000      ,   300.00000000000000      ,   0.0000000000000000      ,   0.0000000000000000      ,   2.4990911008797756E-003 ,   1.1077778517887433E-006
   300.00000000000000      ,   310.00000000000000      ,   0.0000000000000000      ,   0.0000000000000000      ,   2.2867274060258034E-003 ,   1.0595912615116765E-006
   310.00000000000000      ,   320.00000000000000      ,   0.0000000000000000      ,   0.0000000000000000      ,   2.0446490388577169E-003 ,   1.0024330873428010E-006
   320.00000000000000      ,   330.00000000000000      ,   0.0000000000000000      ,   0.0000000000000000      ,   1.7310364083181979E-003 ,   9.3242844731773870E-007
   330.00000000000000      ,   340.00000000000000      ,   0.0000000000000000      ,   0.0000000000000000      ,   1.3767583262343905E-003 ,   8.4612273394234387E-007
   340.00000000000000      ,   350.00000000000000      ,   0.0000000000000000      ,   0.0000000000000000      ,   1.0290813036637658E-003 ,   7.3797445891010954E-007
   350.00000000000000      ,   360.00000000000000      ,   0.0000000000000000      ,   0.0000000000000000      ,   6.9382112218235414E-004 ,   6.0419577571855774E-007
   360.00000000000000      ,   370.00000000000000      ,   0.0000000000000000      ,   0.0000000000000000      ,   3.9276591874415719E-004 ,   4.4265196011392426E-007
   370.00000000000000      ,   380.00000000000000      ,   0.0000000000000000      ,   0.0000000000000000      ,   1.7075517549854498E-004 ,   2.8010251638155017E-007
   380.00000000000000      ,   390.00000000000000      ,   0.0000000000000000      ,   0.0000000000000000      ,   3.7992671668224353E-005 ,   1.2301789188151777E-007
   390.00000000000000      ,   400.00000000000000      ,   0.0000000000000000      ,   0.0000000000000000      ,   3.7238311826934720E-007 ,   1.0832298604852597E-008
   400.00000000000000      ,   410.00000000000000      ,   0.0000000000000000      ,   0.0000000000000000      ,   0.0000000000000000      ,   0.0000000000000000     
   410.00000000000000      ,   420.00000000000000      ,   0.0000000000000000      ,   0.0000000000000000      ,   0.0000000000000000      ,   0.0000000000000000     
   420.00000000000000      ,   430.00000000000000      ,   0.0000000000000000      ,   0.0000000000000000      ,   0.0000000000000000      ,   0.0000000000000000     
   430.00000000000000      ,   440.00000000000000      ,   0.0000000000000000      ,   0.0000000000000000      ,   0.0000000000000000      ,   0.0000000000000000     
   440.00000000000000      ,   450.00000000000000      ,   0.0000000000000000      ,   0.0000000000000000      ,   0.0000000000000000      ,   0.0000000000000000     
   450.00000000000000      ,   460.00000000000000      ,   0.0000000000000000      ,   0.0000000000000000      ,   0.0000000000000000      ,   0.0000000000000000     
   460.00000000000000      ,   470.00000000000000      ,   0.0000000000000000      ,   0.0000000000000000      ,   0.0000000000000000      ,   0.0000000000000000     
   470.00000000000000      ,   480.00000000000000      ,   0.0000000000000000      ,   0.0000000000000000      ,   0.0000000000000000      ,   0.0000000000000000     
   480.00000000000000      ,   490.00000000000000      ,   0.0000000000000000      ,   0.0000000000000000      ,   0.0000000000000000      ,   0.0000000000000000     
   490.00000000000000      ,   500.00000000000000      ,   0.0000000000000000      ,   0.0000000000000000      ,   0.0000000000000000      ,   0.0000000000000000     
