 # xl, xh, LO, dLO, NLOPSnovp, dNLOPSnovp, NLOPSvp, dNLOPSvp, NLOPSvplt, dNLOPSvplt
   49.999999999999758      ,   50.999999999999744      ,  0.13655308107127434      ,   5.6567164218761020E-006 ,  0.11043063623965112      ,   1.7170206115492214E-005 ,  0.11369192249105015      ,   1.0988303435078830E-005 ,  0.11305173232117642      ,   1.3358520463319542E-005
   50.999999999999744      ,   51.999999999999730      ,  0.13946846294702867      ,   5.7173704784343902E-006 ,  0.11297646892657470      ,   1.7787681665828958E-005 ,  0.11629115458617903      ,   1.0755982998172181E-005 ,  0.11564659540397078      ,   1.3591491240331893E-005
   51.999999999999730      ,   52.999999999999716      ,  0.14245984601295705      ,   5.7791733518367890E-006 ,  0.11571891613912123      ,   1.5485095716697817E-005 ,  0.11912504057864076      ,   1.0943463147309484E-005 ,  0.11846560091478925      ,   1.3276647905525019E-005
   52.999999999999716      ,   53.999999999999702      ,  0.14560640845931055      ,   5.8443635647255742E-006 ,  0.11891153921184686      ,   1.5655089632724222E-005 ,  0.12240869022436048      ,   1.0202976055168773E-005 ,  0.12174535864508478      ,   1.9131469174286638E-005
   53.999999999999702      ,   54.999999999999687      ,  0.15253444932897015      ,   5.9535967316253197E-006 ,  0.12501178542601943      ,   1.7542582503217129E-005 ,  0.12868740646815435      ,   1.2350616400710508E-005 ,  0.12796387642518617      ,   1.4071346378184700E-005
   54.999999999999687      ,   55.999999999999673      ,  0.16394890020987907      ,   6.1173743564246250E-006 ,  0.13359034126796004      ,   2.0286812742165396E-005 ,  0.13751432818061918      ,   1.2156048751148802E-005 ,  0.13675412928566641      ,   1.5656691311833618E-005
   55.999999999999673      ,   56.999999999999659      ,  0.17437714476225946      ,   6.2698684223208814E-006 ,  0.14153248832583232      ,   2.0110834179071551E-005 ,  0.14568757533483331      ,   1.1783403077833481E-005 ,  0.14489223383463484      ,   1.6189626099830520E-005
   56.999999999999659      ,   57.999999999999645      ,  0.18405352326983163      ,   6.4137846223169384E-006 ,  0.14904337350739927      ,   2.6426153194332458E-005 ,  0.15344448292549451      ,   2.5230353536313337E-005 ,  0.15257102644089332      ,   1.9045499230462394E-005
   57.999999999999645      ,   58.999999999999631      ,  0.19325066323336390      ,   6.5523107598895723E-006 ,  0.15621038280526503      ,   1.7815965641091849E-005 ,  0.16081896149993899      ,   1.2301080031394384E-005 ,  0.15991240294928127      ,   1.4674387833726513E-005
   58.999999999999631      ,   59.999999999999616      ,  0.20209897863077755      ,   6.6872220409632751E-006 ,  0.16326299865729874      ,   2.3018793583925081E-005 ,  0.16807226621743562      ,   1.4094156010090210E-005 ,  0.16712959570267505      ,   1.7239369207667628E-005
   59.999999999999616      ,   60.999999999999602      ,  0.21075537095568841      ,   6.8201911873855853E-006 ,  0.17017619683063437      ,   2.5479896839075349E-005 ,  0.17519843337782748      ,   1.5419962438370122E-005 ,  0.17420280503316343      ,   2.0925937724357762E-005
   60.999999999999602      ,   61.999999999999588      ,  0.21928085032150316      ,   6.9525352670123413E-006 ,  0.17701987515470879      ,   1.8715648751662515E-005 ,  0.18225977386301284      ,   1.4404509926320978E-005 ,  0.18120781238119113      ,   1.5722403258864845E-005
   61.999999999999588      ,   62.999999999999574      ,  0.22779281940791513      ,   7.0848401880473364E-006 ,  0.18391707503381441      ,   2.1075761932473827E-005 ,  0.18931377618915096      ,   1.5148708071675877E-005 ,  0.18823875515516339      ,   1.6257922893404395E-005
   62.999999999999574      ,   63.999999999999559      ,  0.23632535584527584      ,   7.2189188539979024E-006 ,  0.19079072141761197      ,   1.9790123202576056E-005 ,  0.19641818622331447      ,   1.3658322342079639E-005 ,  0.19529245924313840      ,   1.6046441751534870E-005
   63.999999999999559      ,   64.999999999999545      ,  0.24492117615578668      ,   7.3539151827270916E-006 ,  0.19784673822071130      ,   2.3477158080884234E-005 ,  0.20364321346687550      ,   1.5200572309889894E-005 ,  0.20248965374268121      ,   1.9348799326750760E-005
   64.999999999999545      ,   65.999999999999531      ,  0.25360276121464392      ,   7.4897460402963681E-006 ,  0.20494368380069156      ,   2.0955441420051053E-005 ,  0.21093701707770579      ,   1.3921370870922932E-005 ,  0.20973958337676227      ,   1.6231684924027607E-005
   65.999999999999531      ,   66.999999999999517      ,  0.26248877409984100      ,   7.6299846239938742E-006 ,  0.21230606593526399      ,   6.3420869864206462E-005 ,  0.21844812978977093      ,   2.9507777797391056E-005 ,  0.21722940535000085      ,   4.1849389073331535E-005
   66.999999999999517      ,   67.999999999999503      ,  0.27152721944676944      ,   7.7716432969237942E-006 ,  0.21968426510827338      ,   2.5996899537831589E-005 ,  0.22605743502551662      ,   1.6928599713667281E-005 ,  0.22478406053306516      ,   2.0406057596169998E-005
   67.999999999999503      ,   68.999999999999488      ,  0.28080772799560860      ,   7.9170992976442197E-006 ,  0.22725537795068956      ,   2.0799957211092089E-005 ,  0.23389914181240903      ,   1.5414774530420586E-005 ,  0.23256151737022898      ,   1.8607218976197706E-005
   68.999999999999488      ,   69.999999999999474      ,  0.29033251559015089      ,   8.0655685790572797E-006 ,  0.23516102862289959      ,   2.9236228302196181E-005 ,  0.24196879920329153      ,   1.9861015597657834E-005 ,  0.24063159897723846      ,   2.6662605206314713E-005
   69.999999999999474      ,   70.999999999999460      ,  0.30013583925472687      ,   8.2174498279058567E-006 ,  0.24325027027847179      ,   2.5852651030893280E-005 ,  0.25031230149044864      ,   2.5806835567578188E-005 ,  0.24893125347844960      ,   2.8532397921807433E-005
   70.999999999999460      ,   71.999999999999446      ,  0.30988779206574751      ,   8.3608951651598233E-006 ,  0.25145790492176234      ,   3.0685862816935142E-005 ,  0.25863567410106758      ,   1.7630235450996172E-005 ,  0.25725381760577504      ,   2.3065561444320506E-005
   71.999999999999446      ,   72.999999999999432      ,  0.31816639720899603      ,   8.4464302622184337E-006 ,  0.25865190983734415      ,   2.8657332287692164E-005 ,  0.26605868330611282      ,   1.9370269658765944E-005 ,  0.26462863075453252      ,   2.3927103894907414E-005
   72.999999999999432      ,   73.999999999999417      ,  0.32594463500696913      ,   8.5102814120897063E-006 ,  0.26537464302002411      ,   2.5581458169732203E-005 ,  0.27302528544108123      ,   1.7641198977443743E-005 ,  0.27151936557586942      ,   2.0587079430909452E-005
   73.999999999999417      ,   74.999999999999403      ,  0.33381086292503109      ,   8.5713675277497904E-006 ,  0.27224374221521985      ,   2.6299305135840274E-005 ,  0.27998341656464104      ,   1.8889375959650908E-005 ,  0.27850955701071184      ,   2.1527363303112331E-005
   74.999999999999403      ,   75.999999999999389      ,  0.34183896041256795      ,   8.6331431147166245E-006 ,  0.27911570126120211      ,   3.2137925241311112E-005 ,  0.28708042061736549      ,   1.9915874553348876E-005 ,  0.28551937483224754      ,   2.3129907418280424E-005
   75.999999999999389      ,   76.999999999999375      ,  0.35007024848509666      ,   8.6955147613492983E-006 ,  0.28617791618026156      ,   3.0471209616451485E-005 ,  0.29426797726891013      ,   2.2424609449924491E-005 ,  0.29272510956060255      ,   2.3512747681504859E-005
   76.999999999999375      ,   77.999999999999361      ,  0.35853420427638416      ,   8.7601864576974629E-006 ,  0.29331286981699101      ,   2.8577569081157412E-005 ,  0.30162646863105691      ,   2.0719635471573535E-005 ,  0.30007610063614870      ,   2.5991847514173440E-005
   77.999999999999361      ,   78.999999999999346      ,  0.36727299971822130      ,   8.8269169006367130E-006 ,  0.30064353617599077      ,   2.3909485550765618E-005 ,  0.30912582447412473      ,   1.7059770797043313E-005 ,  0.30756187836047666      ,   2.2827615334045335E-005
   78.999999999999346      ,   79.999999999999332      ,  0.37628578197766899      ,   8.8955829063389695E-006 ,  0.30822024094767281      ,   2.5083403154061448E-005 ,  0.31691084545344222      ,   1.7769390144373143E-005 ,  0.31531903061361743      ,   2.7663004680397375E-005
   79.999999999999332      ,   80.999999999999318      ,  0.38560778887151242      ,   8.9669882068605394E-006 ,  0.31608656988400563      ,   2.6541337709988797E-005 ,  0.32490864993514862      ,   2.1679207108055298E-005 ,  0.32331614541208931      ,   2.0961767724788593E-005
   80.999999999999318      ,   81.999999999999304      ,  0.39525085404749671      ,   9.0414775545998843E-006 ,  0.32415978862510797      ,   3.6555000447614037E-005 ,  0.33316459221688466      ,   1.9993914860855156E-005 ,  0.33156389415469739      ,   2.6320979480557560E-005
   81.999999999999304      ,   82.999999999999289      ,  0.40526941443414150      ,   9.1191398589835832E-006 ,  0.33249809034438277      ,   2.5770431615449557E-005 ,  0.34174153644306349      ,   2.0972414496397659E-005 ,  0.34013405962718429      ,   2.7896748847222799E-005
   82.999999999999289      ,   83.999999999999275      ,  0.41564823532111622      ,   9.1993738319649679E-006 ,  0.34120500846000140      ,   3.1502336067811977E-005 ,  0.35053071209486175      ,   1.5655182896172408E-005 ,  0.34893732380122011      ,   2.1830630749954003E-005
   83.999999999999275      ,   84.999999999999261      ,  0.42644048851718336      ,   9.2837371788262075E-006 ,  0.35010958339468584      ,   2.4990657436348911E-005 ,  0.35974065171508895      ,   1.9064619263127606E-005 ,  0.35807217976519828      ,   2.0356575801768644E-005
   84.999999999999261      ,   85.999999999999247      ,  0.43762963695524154      ,   9.3704381121714415E-006 ,  0.35934492603872337      ,   2.4324969883741932E-005 ,  0.36920035828902042      ,   2.0746298007310222E-005 ,  0.36751765393239250      ,   2.0117165654246346E-005
   85.999999999999247      ,   86.999999999999233      ,  0.44927269405028220      ,   9.4609658349602314E-006 ,  0.36894721202937242      ,   2.5136956805793528E-005 ,  0.37904729354620526      ,   1.8003487784817102E-005 ,  0.37735342133148403      ,   2.3910237521198026E-005
   86.999999999999233      ,   87.999999999999218      ,  0.46132112909191098      ,   9.5539097651176917E-006 ,  0.37896842462760272      ,   2.3236159055823023E-005 ,  0.38926955953515541      ,   1.6317702060489537E-005 ,  0.38758846095100491      ,   1.9960828641096307E-005
   87.999999999999218      ,   88.999999999999204      ,  0.47390566050978544      ,   9.6513274952895418E-006 ,  0.38936727386064807      ,   2.5025985710012242E-005 ,  0.39988850066177895      ,   1.6027863483864401E-005 ,  0.39820493025959919      ,   1.9844306672084515E-005
   88.999999999999204      ,   89.999999999999190      ,  0.48698782880718811      ,   9.7523049972286286E-006 ,  0.40019890425986843      ,   2.4696893888538569E-005 ,  0.41093475957790115      ,   1.6939069543626281E-005 ,  0.40923709564277494      ,   2.0686463194898288E-005
   89.999999999999190      ,   90.999999999999176      ,  0.50056058122012392      ,   9.8562583949321568E-006 ,  0.41140331892451804      ,   2.4613632235756352E-005 ,  0.42242578278714421      ,   1.7714622848688847E-005 ,  0.42069677453719156      ,   1.9633642245612896E-005
   90.999999999999176      ,   91.999999999999162      ,  0.51469936852934328      ,   9.9643737967349452E-006 ,  0.42319033210367768      ,   3.3085029947353089E-005 ,  0.43434244127706961      ,   1.6827718546515331E-005 ,  0.43266946886838581      ,   2.3491766472082098E-005
   91.999999999999162      ,   92.999999999999147      ,  0.52944322196187321      ,   1.0076608150880786E-005 ,  0.43529217192097008      ,   2.5584317055952454E-005 ,  0.44675612708436163      ,   1.6477442322790816E-005 ,  0.44506545961376737      ,   1.9594495315750867E-005
   92.999999999999147      ,   93.999999999999133      ,  0.54477146972862323      ,   1.0192666195059328E-005 ,  0.44791269305458170      ,   2.2795296250401219E-005 ,  0.45971750150552948      ,   1.7767825207059970E-005 ,  0.45799070228203742      ,   1.9094218128740030E-005
   93.999999999999133      ,   94.999999999999119      ,  0.56074746768906159      ,   1.0313184587262975E-005 ,  0.46112541075636460      ,   2.4262022430922380E-005 ,  0.47318305692591450      ,   1.6142472661206529E-005 ,  0.47143755604983256      ,   1.9406302972478042E-005
   94.999999999999119      ,   95.999999999999105      ,  0.57736583930875052      ,   1.0437546070798543E-005 ,  0.47482711085378637      ,   2.3760673178576071E-005 ,  0.48716882552386426      ,   1.5883575940975233E-005 ,  0.48546120242663504      ,   1.9300903763119716E-005
   95.999999999999105      ,   96.999999999999091      ,  0.59468475325555725      ,   1.0566584056232037E-005 ,  0.48913253079412283      ,   2.4771345234932412E-005 ,  0.50176723232644360      ,   1.6712748864416115E-005 ,  0.50003082290238166      ,   2.0303295203249431E-005
   96.999999999999091      ,   97.999999999999076      ,  0.61271119392232976      ,   1.0700178179281174E-005 ,  0.50398544166773196      ,   2.6375688938902411E-005 ,  0.51695188106382606      ,   1.8899602784378476E-005 ,  0.51522398504899625      ,   2.1091712912634774E-005
   97.999999999999076      ,   98.999999999999062      ,  0.63145467695091806      ,   1.0838293866015955E-005 ,  0.51948623936458815      ,   2.6542191900555872E-005 ,  0.53276607762920836      ,   1.7447515786178363E-005 ,  0.53102224191403935      ,   2.1320047617410177E-005
   98.999999999999062      ,   99.999999999999048      ,  0.65102208266794370      ,   1.0981688742324819E-005 ,  0.53558123031916072      ,   2.4009081779588794E-005 ,  0.54919145205519448      ,   3.3252516145597277E-005 ,  0.54743186874745320      ,   1.9134024968563685E-005
   99.999999999999048      ,   100.99999999999903      ,  0.67132190549831017      ,   1.1129570142164181E-005 ,  0.55232220296667611      ,   2.6228079864742292E-005 ,  0.56629775007968464      ,   1.6682303261040456E-005 ,  0.56451574397061099      ,   2.0010748475384756E-005
   100.99999999999903      ,   101.99999999999902      ,  0.69245029302251970      ,   1.1282699310353219E-005 ,  0.56972156583086531      ,   2.6287808617067647E-005 ,  0.58404363731726849      ,   1.7978849810321589E-005 ,  0.58231615108549795      ,   2.1406491854567185E-005
   101.99999999999902      ,   102.99999999999901      ,  0.71444247617781420      ,   1.1441155106706739E-005 ,  0.58780271448493548      ,   2.5161071112508516E-005 ,  0.60251664900238933      ,   1.6561478542931589E-005 ,  0.60073577140002388      ,   2.0346620690115886E-005
   102.99999999999901      ,   103.99999999999899      ,  0.73723803031665069      ,   1.1604409325931295E-005 ,  0.60663249386733464      ,   2.8387608523086658E-005 ,  0.62171479585645095      ,   1.8007090775230169E-005 ,  0.61995448245446250      ,   2.2231476878481447E-005
   103.99999999999899      ,   104.99999999999898      ,  0.76090524220467715      ,   1.1773104397192882E-005 ,  0.62605388353050839      ,   2.5208871826455741E-005 ,  0.64161550793355093      ,   1.6806980858445604E-005 ,  0.63977673777393795      ,   1.9622657745348976E-005
   104.99999999999898      ,   105.99999999999896      ,  0.78542352203590404      ,   1.1947224386996259E-005 ,  0.64621872393532842      ,   2.5028054800320875E-005 ,  0.66220871833049932      ,   1.6664287378356733E-005 ,  0.66033190525995267      ,   1.9912107816067511E-005
   105.99999999999896      ,   106.99999999999895      ,  0.81075439736559596      ,   1.2125856263958211E-005 ,  0.66710850700168578      ,   2.9035367752768358E-005 ,  0.68357156005576325      ,   1.7970539273125046E-005 ,  0.68167411502020403      ,   2.2353913215919081E-005
   106.99999999999895      ,   107.99999999999893      ,  0.83694700151016521      ,   1.2309738299993104E-005 ,  0.68858726033127937      ,   2.7308699487139435E-005 ,  0.70549220814087166      ,   1.8102553725605163E-005 ,  0.70358640375535708      ,   2.2308647260245117E-005
   107.99999999999893      ,   108.99999999999892      ,  0.86364281222197936      ,   1.2492631943018639E-005 ,  0.71052535465871747      ,   2.8458745856881496E-005 ,  0.72789056046144729      ,   1.8248033911252213E-005 ,  0.72597725631914911      ,   2.3489074807086918E-005
   108.99999999999892      ,   109.99999999999891      ,  0.89031772320562930      ,   1.2665169567258008E-005 ,  0.73258175577195894      ,   2.7009143248080307E-005 ,  0.75045259661719854      ,   1.9259427192707034E-005 ,  0.74844366854968603      ,   2.2246696221961034E-005
   109.99999999999891      ,   110.99999999999889      ,  0.91743243225015725      ,   1.2836941853203373E-005 ,  0.75511285447391940      ,   2.7974958554084570E-005 ,  0.77346889615565873      ,   1.8957295105852839E-005 ,  0.77143277004274768      ,   2.3175492844906512E-005
   110.99999999999889      ,   111.99999999999888      ,  0.94509821854949561      ,   1.3012390975885124E-005 ,  0.77819878189010772      ,   3.3910224299780307E-005 ,  0.79699673355012224      ,   1.9963564307304524E-005 ,  0.79493171335243495      ,   2.5889203236169998E-005
   111.99999999999888      ,   112.99999999999886      ,  0.97313692974042998      ,   1.3190134358164003E-005 ,  0.80149712983312105      ,   2.7476314803602852E-005 ,  0.82090379806911373      ,   2.2417960334776483E-005 ,  0.81876685691316708      ,   2.3856032218864807E-005
   112.99999999999886      ,   113.99999999999885      ,   1.0013782960152477      ,   1.3370080193919599E-005 ,  0.82524855104930261      ,   3.2298227679441125E-005 ,  0.84505437430745789      ,   2.0726420775867275E-005 ,  0.84290878663742408      ,   2.4591272114956059E-005
   113.99999999999885      ,   114.99999999999883      ,   1.0295785764334795      ,   1.3550735369083500E-005 ,  0.84886977717338441      ,   3.2162542888784479E-005 ,  0.86923122753898574      ,   2.0458198711818010E-005 ,  0.86702287698361891      ,   2.4979393549206328E-005
   114.99999999999883      ,   115.99999999999882      ,   1.0573216829536003      ,   1.3730754949324808E-005 ,  0.87234397068562763      ,   3.5676055232962269E-005 ,  0.89322970562047510      ,   3.2554766790994991E-005 ,  0.89098113716298177      ,   2.8197133155684261E-005
   115.99999999999882      ,   116.99999999999881      ,   1.0842362073694913      ,   1.3908631260991304E-005 ,  0.89533854017449488      ,   3.1803387667560874E-005 ,  0.91660618990604414      ,   2.2321103883332484E-005 ,  0.91436920962222223      ,   2.5879423302525997E-005
   116.99999999999881      ,   117.99999999999879      ,   1.1096695367276272      ,   1.4082048513676000E-005 ,  0.91727125150442212      ,   3.6427046369160527E-005 ,  0.93896004086923235      ,   2.1989515909068886E-005 ,  0.93672232338340389      ,   3.5978429967151659E-005
   117.99999999999879      ,   118.99999999999878      ,   1.1328388664997440      ,   1.4248026813915247E-005 ,  0.93758963839663523      ,   3.2333997945803749E-005 ,  0.95974272059622789      ,   2.1584783345552695E-005 ,  0.95746058634911135      ,   2.7382043849430007E-005
   118.99999999999878      ,   119.99999999999876      ,   1.1526486775562659      ,   1.4402082059200166E-005 ,  0.95548424150932287      ,   3.1232604484854806E-005 ,  0.97804873664770908      ,   2.3678844055154013E-005 ,  0.97568067675636383      ,   2.6374683396419815E-005
   119.99999999999876      ,   120.99999999999875      ,   1.1675936165086744      ,   1.4538760668702538E-005 ,  0.97007238908781335      ,   6.8036623779971670E-005 ,  0.99281429446558833      ,   3.0774817657324119E-005 ,  0.99044536039583742      ,   4.2988545932474495E-005
   120.99999999999875      ,   121.99999999999874      ,   1.1756360767369001      ,   1.4649982124481852E-005 ,  0.97953840750802801      ,   3.6735587462152688E-005 ,   1.0024332314223279      ,   2.4360240265872529E-005 ,   1.0000914934517200      ,   2.8615508169096317E-005
   121.99999999999874      ,   122.99999999999872      ,   1.1738216895025582      ,   1.4723883476067429E-005 ,  0.98193461760684475      ,   4.9859883064489450E-005 ,   1.0047999245365116      ,   2.6083362295416812E-005 ,   1.0024659224223180      ,   3.4791290848950324E-005
   122.99999999999872      ,   123.99999999999871      ,   1.1579163656988223      ,   1.4743456992613111E-005 ,  0.97426231839359423      ,   3.9563628145647727E-005 ,  0.99683683122322175      ,   2.5163360122076182E-005 ,  0.99456775956814059      ,   3.0429523556289888E-005
   123.99999999999871      ,   124.99999999999869      ,   1.1214080793471453      ,   1.4681061473950315E-005 ,  0.95187674480309670      ,   3.7287044943838138E-005 ,  0.97390232109712649      ,   2.8808446684813777E-005 ,  0.97172314336048793      ,   3.1521734018882072E-005
   124.99999999999869      ,   125.99999999999868      ,   1.0559052566049472      ,   1.4498344708303762E-005 ,  0.90887058675493748      ,   4.3199545763456676E-005 ,  0.92973049303865507      ,   2.7799175613551231E-005 ,  0.92769539508792165      ,   3.3225944840275397E-005
   125.99999999999868      ,   126.99999999999866      ,   1.0526519689235194      ,   1.4621828145510905E-005 ,  0.90158659200738855      ,   4.4770794087427643E-005 ,  0.92214706345232067      ,   2.8891253396027053E-005 ,  0.92018629178770617      ,   3.4217240167300809E-005
   126.99999999999866      ,   127.99999999999865      ,   1.1231151610272851      ,   1.5124987152016925E-005 ,  0.95208631842042213      ,   4.7861514061140696E-005 ,  0.97358048478635140      ,   2.9069337622829415E-005 ,  0.97164221274112073      ,   3.5282885249180416E-005
   127.99999999999865      ,   128.99999999999864      ,   1.2023216364024201      ,   1.5672050913695021E-005 ,   1.0147837477278820      ,   4.8450161874678652E-005 ,   1.0376170913958960      ,   3.3965443551213673E-005 ,   1.0355730975703876      ,   3.7073797282134771E-005
   128.99999999999864      ,   129.99999999999864      ,   1.2888267236546473      ,   1.6250256073890535E-005 ,   1.0858094232856301      ,   4.6490651540391060E-005 ,   1.1101424370801123      ,   3.3677872313952215E-005 ,   1.1080048412283579      ,   4.1618968351748383E-005
