 # xl, xh, LO, dLO, NLOPSnovp, dNLOPSnovp
   215.00000000000000      ,   220.00000000000000      ,   0.0000000000000000      ,   0.0000000000000000      ,   3.5604996959417123E-007 ,   2.4699490374405102E-008
   220.00000000000000      ,   225.00000000000000      ,   0.0000000000000000      ,   0.0000000000000000      ,   1.9991700982028691E-006 ,   6.4171939853312483E-008
   225.00000000000000      ,   230.00000000000000      ,   1.7259812968494794E-007 ,   2.1523401052401045E-009 ,   7.0017250007468758E-006 ,   1.5941223410293912E-007
   230.00000000000000      ,   235.00000000000000      ,   2.4195990055954699E-006 ,   8.0108684944109284E-009 ,   1.9975381399042175E-005 ,   2.4098456358271522E-007
   235.00000000000000      ,   240.00000000000000      ,   9.7532978055138032E-006 ,   1.6289036123909131E-008 ,   4.7047273538129774E-005 ,   4.8181583718248250E-007
   240.00000000000000      ,   245.00000000000000      ,   2.5628593580983190E-005 ,   2.6826482665729839E-008 ,   1.0057773164044981E-004 ,   2.5200611681259140E-006
   245.00000000000000      ,   250.00000000000000      ,   5.4374714977187669E-005 ,   3.9759569018243202E-008 ,   1.8323562211335369E-004 ,   8.6458732275586130E-007
   250.00000000000000      ,   255.00000000000000      ,   1.0255928958451985E-004 ,   5.5664634429061752E-008 ,   3.1109410409665115E-004 ,   9.0035787840348274E-007
   255.00000000000000      ,   260.00000000000000      ,   1.7904864047385062E-004 ,   7.5079190569776069E-008 ,   4.9787623482629021E-004 ,   1.9607412037272157E-006
   260.00000000000000      ,   265.00000000000000      ,   2.9749570938658549E-004 ,   9.8919459645943671E-008 ,   7.5724457448809253E-004 ,   9.5571359793159489E-007
   265.00000000000000      ,   270.00000000000000      ,   4.7810323449923439E-004 ,   1.2822595301360800E-007 ,   1.1182757790843007E-003 ,   1.2049376835528691E-006
   270.00000000000000      ,   275.00000000000000      ,   7.5630103624630784E-004 ,   1.6498516924106732E-007 ,   1.6206666376862280E-003 ,   3.9855028248020261E-006
   275.00000000000000      ,   280.00000000000000      ,   1.1964269770434049E-003 ,   2.1193206844433430E-007 ,   2.3336111684443580E-003 ,   1.3586486158660442E-006
   280.00000000000000      ,   285.00000000000000      ,   1.9927913584607770E-003 ,   2.7741005263427878E-007 ,   3.4890627308321481E-003 ,   1.7276194936459214E-006
   285.00000000000000      ,   290.00000000000000      ,   4.5051733820565187E-003 ,   4.0692019588156215E-007 ,   6.2113134176966693E-003 ,   2.2753876052758897E-006
   290.00000000000000      ,   295.00000000000000      ,   8.2632399491728292E-003 ,   5.5821333719863124E-007 ,   1.0067051020758453E-002 ,   4.7215630248838708E-006
   295.00000000000000      ,   300.00000000000000      ,   1.2603912787543178E-002 ,   7.1253782239648833E-007 ,   1.4517759503704278E-002 ,   3.0008554698306916E-006
   300.00000000000000      ,   305.00000000000000      ,   1.7787803572793099E-002 ,   8.7995365256562632E-007 ,   1.9802956903934583E-002 ,   3.4513174109489388E-006
   305.00000000000000      ,   310.00000000000000      ,   2.3960284858519740E-002 ,   1.0625425941690215E-006 ,   2.6058322030440614E-002 ,   3.9981700485336518E-006
   310.00000000000000      ,   315.00000000000000      ,   3.1180155550068107E-002 ,   1.2571183469123744E-006 ,   3.3306136244625299E-002 ,   4.6836221769580988E-006
   315.00000000000000      ,   320.00000000000000      ,   3.9383824729268949E-002 ,   1.4560988592114568E-006 ,   4.1481408897501605E-002 ,   5.3772104785289399E-006
   320.00000000000000      ,   325.00000000000000      ,   4.8385018077453906E-002 ,   1.6495041766945612E-006 ,   5.0495698514463810E-002 ,   8.4512633332194719E-005
   325.00000000000000      ,   330.00000000000000      ,   5.7931390029126575E-002 ,   1.8289977043121663E-006 ,   5.9844644558950326E-002 ,   6.8048914607813962E-006
   330.00000000000000      ,   335.00000000000000      ,   6.7646485038049320E-002 ,   1.9860246008115143E-006 ,   6.9390617579629471E-002 ,   9.0189326652770801E-006
   335.00000000000000      ,   340.00000000000000      ,   7.6257111465888983E-002 ,   2.0951510034883548E-006 ,   7.7909449428018029E-002 ,   1.2563839117747841E-005
   340.00000000000000      ,   345.00000000000000      ,   8.4097549701668425E-002 ,   2.1774619804262109E-006 ,   8.5641356731151544E-002 ,   7.7872663212184084E-006
   345.00000000000000      ,   350.00000000000000      ,   9.1494861319932647E-002 ,   2.2440816243546367E-006 ,   9.2888718678201698E-002 ,   8.1227211759004303E-006
   350.00000000000000      ,   355.00000000000000      ,   9.8361077842856318E-002 ,   2.2965841505409763E-006 ,   9.9535264249143898E-002 ,   8.1310596005026412E-006
   355.00000000000000      ,   360.00000000000000      ,  0.10465570439990204      ,   2.3370101898780503E-006 ,  0.10555308660721341      ,   1.0421372923425361E-005
   360.00000000000000      ,   365.00000000000000      ,  0.11035162665305023      ,   2.3671192009098472E-006 ,  0.11084392983819971      ,   8.3267398095752270E-006
   365.00000000000000      ,   370.00000000000000      ,  0.11543312625001267      ,   2.3882916667183556E-006 ,  0.11540829262725305      ,   8.3907701045857590E-006
   370.00000000000000      ,   375.00000000000000      ,  0.11989305052377196      ,   2.4012790593584268E-006 ,  0.11929709170682679      ,   1.0009597407326657E-005
   375.00000000000000      ,   380.00000000000000      ,  0.12367470770897480      ,   2.4058441510552804E-006 ,  0.12242322912869592      ,   8.3823832385235578E-006
   380.00000000000000      ,   385.00000000000000      ,  0.12674255314698332      ,   2.4014112593123119E-006 ,  0.12477815586512614      ,   8.3620389368112885E-006
   385.00000000000000      ,   390.00000000000000      ,  0.12900402860700289      ,   2.3862811630040855E-006 ,  0.12625919521488077      ,   8.2351923985953855E-006
   390.00000000000000      ,   395.00000000000000      ,  0.13037159434951440      ,   2.3580583064834293E-006 ,  0.12682568256037224      ,   9.1060684526630229E-006
   395.00000000000000      ,   400.00000000000000      ,  0.13072265859202814      ,   2.3131682730085171E-006 ,  0.12634054836552661      ,   8.0229625583415508E-006
   400.00000000000000      ,   405.00000000000000      ,  0.12992216848678825      ,   2.2467153076899695E-006 ,  0.12476334633842397      ,   8.3694137704693838E-006
   405.00000000000000      ,   410.00000000000000      ,  0.12787431810158159      ,   2.1531843860923434E-006 ,  0.12199403606418049      ,   1.1927309239807887E-005
   410.00000000000000      ,   415.00000000000000      ,  0.12452550263289344      ,   2.0270280821961676E-006 ,  0.11801036308975253      ,   7.4401585539739619E-006
   415.00000000000000      ,   420.00000000000000      ,  0.11996914564612014      ,   1.8651322847075928E-006 ,  0.11297726219439758      ,   6.1852332287782271E-006
   420.00000000000000      ,   425.00000000000000      ,  0.11445312975705282      ,   1.6683051062646769E-006 ,  0.10717262474034235      ,   6.3659823846944130E-006
   425.00000000000000      ,   430.00000000000000      ,  0.10881548847948186      ,   1.4577660618331963E-006 ,  0.10138633150239268      ,   4.8033812426481818E-006
   430.00000000000000      ,   435.00000000000000      ,  0.10445990929236873      ,   1.2846423336707693E-006 ,   9.6738995732787755E-002 ,   4.2008077376690680E-006
   435.00000000000000      ,   440.00000000000000      ,  0.10083026891376808      ,   1.1254035905279954E-006 ,   9.2790252412731269E-002 ,   3.6999537540264989E-006
   440.00000000000000      ,   445.00000000000000      ,   9.8334498790669994E-002 ,   9.8560392394102319E-007 ,   8.9886025253903420E-002 ,   3.1971859847860695E-006
   445.00000000000000      ,   450.00000000000000      ,   9.7389926929532827E-002 ,   8.7076332558428834E-007 ,   8.8349690691877966E-002 ,   2.8126990270062830E-006
   450.00000000000000      ,   455.00000000000000      ,   9.7917862909568124E-002 ,   7.8116898121073148E-007 ,   8.8099630622305081E-002 ,   2.5078963144238063E-006
   455.00000000000000      ,   460.00000000000000      ,   9.2616977142289350E-002 ,   6.9805376013795564E-007 ,   8.3205957259762500E-002 ,   2.2322600307661992E-006
   460.00000000000000      ,   465.00000000000000      ,   8.1160647206094963E-002 ,   6.1295129068722114E-007 ,   7.2637556833010070E-002 ,   1.9514363405350340E-006
   465.00000000000000      ,   470.00000000000000      ,   6.5792604637550461E-002 ,   5.2324624929903659E-007 ,   5.7726342875673436E-002 ,   1.6521815545118167E-006
   470.00000000000000      ,   475.00000000000000      ,   4.6251008141586177E-002 ,   4.1861723919089880E-007 ,   3.9194925799292096E-002 ,   1.2907665332377243E-006
   475.00000000000000      ,   480.00000000000000      ,   2.1857275582195718E-002 ,   2.7576743618412803E-007 ,   1.7705392350955789E-002 ,   8.3172660575252256E-007
   480.00000000000000      ,   485.00000000000000      ,   1.4899708798804740E-003 ,   7.1113726404328500E-008 ,   1.1587942145274315E-003 ,   2.1547366548868699E-007
   485.00000000000000      ,   490.00000000000000      ,   1.3378250734513055E-008 ,   2.1753050445568465E-010 ,   9.0123182495624575E-009 ,   6.2909424236259731E-010
   490.00000000000000      ,   495.00000000000000      ,   0.0000000000000000      ,   0.0000000000000000      ,   0.0000000000000000      ,   0.0000000000000000     
   495.00000000000000      ,   500.00000000000000      ,   0.0000000000000000      ,   0.0000000000000000      ,   0.0000000000000000      ,   0.0000000000000000     
   500.00000000000000      ,   505.00000000000000      ,   0.0000000000000000      ,   0.0000000000000000      ,   0.0000000000000000      ,   0.0000000000000000     
   505.00000000000000      ,   510.00000000000000      ,   0.0000000000000000      ,   0.0000000000000000      ,   0.0000000000000000      ,   0.0000000000000000     
   510.00000000000000      ,   515.00000000000000      ,   0.0000000000000000      ,   0.0000000000000000      ,   0.0000000000000000      ,   0.0000000000000000     
