 # xl, xh, LO, dLO, NLOPSnovp, dNLOPSnovp, NLOPSvp, dNLOPSvp, NLOPSvplt, dNLOPSvplt
   0.0000000000000000      ,   5.0000000000000000      ,   1.3863554811627973E-002 ,   1.6708217656917580E-007 ,   1.2926455321110296E-002 ,   4.5605892933477813E-007 ,   1.3393155529837161E-002 ,   3.3356684566244565E-007 ,   1.3243869741533238E-002 ,   6.1170370252866025E-007
   5.0000000000000000      ,   10.000000000000000      ,   1.3864313560161852E-002 ,   1.6710195936086329E-007 ,   1.2925700665597877E-002 ,   4.5608662056574868E-007 ,   1.3392951871291374E-002 ,   3.3367588024236968E-007 ,   1.3243334028977049E-002 ,   6.1166120995969712E-007
   10.000000000000000      ,   15.000000000000000      ,   1.3865554929512802E-002 ,   1.6714245164726504E-007 ,   1.2927576279176480E-002 ,   4.5655687536019859E-007 ,   1.3394525995979798E-002 ,   3.3365757906934864E-007 ,   1.3245539347498794E-002 ,   6.1281942212678339E-007
   15.000000000000000      ,   20.000000000000000      ,   1.3867501236589447E-002 ,   1.6720304694209223E-007 ,   1.2929195802196246E-002 ,   4.5689950197533209E-007 ,   1.3397151913879671E-002 ,   5.8117391675503159E-007 ,   1.3247231243980005E-002 ,   6.1255866340680086E-007
   20.000000000000000      ,   25.000000000000000      ,   1.3870672313214382E-002 ,   1.6728883770509394E-007 ,   1.2930596350672391E-002 ,   4.5667458049310972E-007 ,   1.3398219157623539E-002 ,   3.3387750294860031E-007 ,   1.3247811362001323E-002 ,   6.1258525849122602E-007
   25.000000000000000      ,   30.000000000000000      ,   1.3873757860347018E-002 ,   1.6739006139422835E-007 ,   1.2933392713755026E-002 ,   7.0394335170598382E-007 ,   1.3401008938554108E-002 ,   4.3499712136073662E-007 ,   1.3251983187859959E-002 ,   1.1738004813875625E-006
   30.000000000000000      ,   35.000000000000000      ,   1.3878000892960502E-002 ,   1.6751650683840993E-007 ,   1.2935231572914480E-002 ,   4.5714520095066372E-007 ,   1.3403232916917357E-002 ,   3.3447884042640834E-007 ,   1.3252935373251938E-002 ,   6.1308338973788353E-007
   35.000000000000000      ,   40.000000000000000      ,   1.3882118297207497E-002 ,   1.6765874848565390E-007 ,   1.2938304930249488E-002 ,   4.5753192332757213E-007 ,   1.3406387750854780E-002 ,   3.3465476168856955E-007 ,   1.3256377296916023E-002 ,   6.1361709458616936E-007
   40.000000000000000      ,   45.000000000000000      ,   1.3887544546669227E-002 ,   1.6782766318633328E-007 ,   1.2941390974607376E-002 ,   4.5792424821445695E-007 ,   1.3410423751408350E-002 ,   3.5401995454490078E-007 ,   1.3259068470807742E-002 ,   6.1424406555074077E-007
   45.000000000000000      ,   50.000000000000000      ,   1.3893317703676994E-002 ,   1.6801549401821341E-007 ,   1.2944593893481760E-002 ,   4.5839077209135844E-007 ,   1.3413572231258263E-002 ,   3.3511087670637941E-007 ,   1.3261641225535723E-002 ,   6.1475134013814092E-007
   50.000000000000000      ,   55.000000000000000      ,   1.3899697426179723E-002 ,   1.6822781643101934E-007 ,   1.2949556262450448E-002 ,   4.7053898315195061E-007 ,   1.3417532141486197E-002 ,   3.3985106643832983E-007 ,   1.3268130102902943E-002 ,   6.3952852735763850E-007
   55.000000000000000      ,   60.000000000000000      ,   1.3906973167583605E-002 ,   1.6846420683360456E-007 ,   1.2953297588174028E-002 ,   4.5937896993001999E-007 ,   1.3422450817455533E-002 ,   3.3604224728455472E-007 ,   1.3270986764904126E-002 ,   6.1614109185659986E-007
   60.000000000000000      ,   65.000000000000000      ,   1.3914252568291964E-002 ,   1.6872225088178150E-007 ,   1.2957777066021355E-002 ,   4.6097584274770112E-007 ,   1.3427709335449938E-002 ,   3.3685317464143891E-007 ,   1.3276053207372601E-002 ,   6.1752319708470868E-007
   65.000000000000000      ,   70.000000000000000      ,   1.3921727045313543E-002 ,   1.6900055605200766E-007 ,   1.2961573913738958E-002 ,   4.6078020477669107E-007 ,   1.3432361800571510E-002 ,   3.3682007537183299E-007 ,   1.3279507275682063E-002 ,   6.1798484822402925E-007
   70.000000000000000      ,   75.000000000000000      ,   1.3929835449107190E-002 ,   1.6930342901664424E-007 ,   1.2965456705720012E-002 ,   4.6158919618168305E-007 ,   1.3435283743116314E-002 ,   3.3727451489708282E-007 ,   1.3283305324890689E-002 ,   6.1891350899688440E-007
   75.000000000000000      ,   80.000000000000000      ,   1.3937937716814480E-002 ,   1.6962424738712400E-007 ,   1.2969838802046324E-002 ,   4.6215364888718934E-007 ,   1.3436465978321280E-002 ,   3.3765692585456221E-007 ,   1.3288106685094236E-002 ,   6.1985757494486857E-007
   80.000000000000000      ,   85.000000000000000      ,   1.3945703907104853E-002 ,   1.6995980918654116E-007 ,   1.2972673170226828E-002 ,   4.6292836802175312E-007 ,   1.3435067631517895E-002 ,   3.3809050545741728E-007 ,   1.3289900038360399E-002 ,   6.2079780452988150E-007
   85.000000000000000      ,   90.000000000000000      ,   1.3952997927906552E-002 ,   1.7030995123859897E-007 ,   1.2973472746850314E-002 ,   4.6368053263280403E-007 ,   1.3432919039267775E-002 ,   3.3858506291013933E-007 ,   1.3290959168141606E-002 ,   6.2161452857982590E-007
   90.000000000000000      ,   95.000000000000000      ,   1.3959115076899767E-002 ,   1.7066632560792189E-007 ,   1.2975138161583971E-002 ,   4.6450107651325225E-007 ,   1.3431247511456034E-002 ,   3.3893823813268655E-007 ,   1.3293000618114986E-002 ,   6.2297226183015261E-007
   95.000000000000000      ,   100.00000000000000      ,   1.3963549731294912E-002 ,   1.7102686544577142E-007 ,   1.2972236735599756E-002 ,   4.6560619500645223E-007 ,   1.3425030990944369E-002 ,   3.3962602723568799E-007 ,   1.3290645757635295E-002 ,   6.2379898350843203E-007
   100.00000000000000      ,   105.00000000000000      ,   1.3966009673652628E-002 ,   1.7137969857067890E-007 ,   1.2967812104415806E-002 ,   4.6583545556262535E-007 ,   1.3416884497911690E-002 ,   3.3974835230026197E-007 ,   1.3285018451219918E-002 ,   6.2459132135185874E-007
   105.00000000000000      ,   110.00000000000000      ,   1.3963576837299232E-002 ,   1.7168982564882840E-007 ,   1.2957062312365177E-002 ,   4.6625396511614311E-007 ,   1.3403035179988931E-002 ,   3.4010955525503116E-007 ,   1.3275044640487595E-002 ,   6.2545507897777701E-007
   110.00000000000000      ,   115.00000000000000      ,   1.3936931181144739E-002 ,   1.7168847591135983E-007 ,   1.2924425432185369E-002 ,   4.6593965219609555E-007 ,   1.3367414615870103E-002 ,   3.3974333916813746E-007 ,   1.3241009960360950E-002 ,   6.2463827068507150E-007
   115.00000000000000      ,   120.00000000000000      ,   1.3877900447148057E-002 ,   1.7126232234947075E-007 ,   1.2866570996316893E-002 ,   4.6462632896582865E-007 ,   1.3306084169498031E-002 ,   3.3867799520041249E-007 ,   1.3181423278107240E-002 ,   6.2303668695510715E-007
   120.00000000000000      ,   125.00000000000000      ,   1.3813625141717519E-002 ,   1.7077001809594488E-007 ,   1.2803354406713045E-002 ,   4.6324361170256172E-007 ,   1.3239449695968148E-002 ,   3.3803271661350006E-007 ,   1.3116996048971145E-002 ,   6.2121916747186019E-007
   125.00000000000000      ,   130.00000000000000      ,   1.3746300937550396E-002 ,   1.7025636790611119E-007 ,   1.2738377588160082E-002 ,   4.6199841476993542E-007 ,   1.3171035512489986E-002 ,   3.3661132396653477E-007 ,   1.3050723721343409E-002 ,   6.1951108092103951E-007
   130.00000000000000      ,   135.00000000000000      ,   1.3677364532396537E-002 ,   1.6973574562403443E-007 ,   1.2672568192066866E-002 ,   4.6052174447987675E-007 ,   1.3101787643061955E-002 ,   3.3557389403180722E-007 ,   1.2982638409659897E-002 ,   6.1756914322101727E-007
   135.00000000000000      ,   140.00000000000000      ,   1.3607437393755905E-002 ,   1.6922307689072782E-007 ,   1.2605788292856126E-002 ,   4.5923877504289140E-007 ,   1.3030933986447871E-002 ,   3.3455896634646089E-007 ,   1.2915230135430720E-002 ,   6.1595100087713071E-007
   140.00000000000000      ,   145.00000000000000      ,   1.3536653155436167E-002 ,   1.6872071886684706E-007 ,   1.2537955863229696E-002 ,   4.5779608564523092E-007 ,   1.2960253016640439E-002 ,   3.3357072887513907E-007 ,   1.2844901478916372E-002 ,   6.1387491041384876E-007
   145.00000000000000      ,   150.00000000000000      ,   1.3465171236520867E-002 ,   1.6823125526196894E-007 ,   1.2470183615745709E-002 ,   4.5656297457126337E-007 ,   1.2888103941154982E-002 ,   3.3258740450844883E-007 ,   1.2776005949338389E-002 ,   6.1228259910494561E-007
   150.00000000000000      ,   155.00000000000000      ,   1.3392043466351894E-002 ,   1.6774806779238069E-007 ,   1.2400601123403281E-002 ,   4.5537631096925917E-007 ,   1.2814713553007827E-002 ,   3.3168202777618373E-007 ,   1.2703966620806553E-002 ,   6.1061456256313103E-007
   155.00000000000000      ,   160.00000000000000      ,   1.3317220691277741E-002 ,   1.6727163657920838E-007 ,   1.2329400263612464E-002 ,   4.5503929842599148E-007 ,   1.2740342632913907E-002 ,   3.3108875597117284E-007 ,   1.2630919688775107E-002 ,   6.1082205441637651E-007
   160.00000000000000      ,   165.00000000000000      ,   1.3240646584672243E-002 ,   1.6680445398728227E-007 ,   1.2258242579440847E-002 ,   4.5314012088376544E-007 ,   1.2665565441701785E-002 ,   3.2990097185446771E-007 ,   1.2558359656982548E-002 ,   6.0757288084065087E-007
   165.00000000000000      ,   170.00000000000000      ,   1.3161979787515002E-002 ,   1.6634180287714729E-007 ,   1.2184411606814204E-002 ,   4.5205740913067591E-007 ,   1.2587295354353377E-002 ,   3.2904846582669541E-007 ,   1.2482943384879064E-002 ,   6.0608155399449059E-007
   170.00000000000000      ,   175.00000000000000      ,   1.3080699806327412E-002 ,   1.6588291166123203E-007 ,   1.2108208955730291E-002 ,   4.5078208841157211E-007 ,   1.2507375707388147E-002 ,   3.2817901311722993E-007 ,   1.2405602522669170E-002 ,   6.0450331498051650E-007
   175.00000000000000      ,   180.00000000000000      ,   1.2996263746193410E-002 ,   1.6542436709162371E-007 ,   1.2031641796377763E-002 ,   4.4987198478890509E-007 ,   1.2426117461753528E-002 ,   3.2746432786393207E-007 ,   1.2326618765817440E-002 ,   6.0329042102436976E-007
   180.00000000000000      ,   185.00000000000000      ,   1.2908988749233763E-002 ,   1.6496793280740860E-007 ,   1.1950671822101815E-002 ,   4.4895748869513311E-007 ,   1.2341676552051444E-002 ,   3.4205278495096131E-007 ,   1.2243896830485426E-002 ,   6.0206574189075959E-007
   185.00000000000000      ,   190.00000000000000      ,   1.2817528148075076E-002 ,   1.6450928864858379E-007 ,   1.1866866796863901E-002 ,   4.4785542381910480E-007 ,   1.2253019908600940E-002 ,   3.2592304456302383E-007 ,   1.2157494170432085E-002 ,   6.0058492617942982E-007
   190.00000000000000      ,   195.00000000000000      ,   1.2721826421669752E-002 ,   1.6404479034744184E-007 ,   1.1778362475514647E-002 ,   4.4694357864160704E-007 ,   1.2160112369871670E-002 ,   3.2511042650488112E-007 ,   1.2067159378990533E-002 ,   5.9938101330318431E-007
   195.00000000000000      ,   200.00000000000000      ,   1.2621113506429369E-002 ,   1.6357172581075300E-007 ,   1.1686245336100276E-002 ,   4.4576010683469004E-007 ,   1.2063558142546406E-002 ,   3.2601881352034604E-007 ,   1.1972784999143175E-002 ,   5.9780052359918540E-007
   200.00000000000000      ,   205.00000000000000      ,   1.2513823446044859E-002 ,   1.6307734673900388E-007 ,   1.1587458268387498E-002 ,   4.4460966340390364E-007 ,   1.1960199519569632E-002 ,   3.2422506803986078E-007 ,   1.1871500474325626E-002 ,   5.9625422329373290E-007
   205.00000000000000      ,   210.00000000000000      ,   1.2399364603674242E-002 ,   1.6254963464633813E-007 ,   1.1480056716591457E-002 ,   4.5045893177702712E-007 ,   1.1848373426516196E-002 ,   3.2242400674819227E-007 ,   1.1761222576826649E-002 ,   6.0019134103179785E-007
   210.00000000000000      ,   215.00000000000000      ,   1.2274948859642133E-002 ,   1.6196492869605717E-007 ,   1.1362645489876515E-002 ,   4.4242625805178522E-007 ,   1.1725881023990999E-002 ,   3.2125180984701023E-007 ,   1.1641149253474306E-002 ,   5.9233084823239918E-007
   215.00000000000000      ,   220.00000000000000      ,   1.2138108112393358E-002 ,   1.6129437295590462E-007 ,   1.1233439722900302E-002 ,   4.3989018228567862E-007 ,   1.1591539228115120E-002 ,   3.1980030159331119E-007 ,   1.1508540679551269E-002 ,   5.8988511696192615E-007
   220.00000000000000      ,   225.00000000000000      ,   1.1984427140643452E-002 ,   1.6048251150094716E-007 ,   1.1084743514335593E-002 ,   4.3977217103295568E-007 ,   1.1437704456957003E-002 ,   3.1943789262143031E-007 ,   1.1355509992150268E-002 ,   5.8631333914911899E-007
   225.00000000000000      ,   230.00000000000000      ,   1.1791674470438546E-002 ,   1.5921625914126842E-007 ,   1.0896186113201468E-002 ,   4.3596018464816610E-007 ,   1.1242091388685340E-002 ,   3.1515953373514696E-007 ,   1.1162852109255033E-002 ,   5.9108569487422718E-007
   230.00000000000000      ,   235.00000000000000      ,   1.1485758210147249E-002 ,   1.5643809839953713E-007 ,   1.0602752012229910E-002 ,   4.2537086027551827E-007 ,   1.0942700941707770E-002 ,   3.0942969676591000E-007 ,   1.0862403777826126E-002 ,   5.7038004385420594E-007
   235.00000000000000      ,   240.00000000000000      ,   1.1120043713454488E-002 ,   1.5297274903896655E-007 ,   1.0257075038244841E-002 ,   4.1566890256141540E-007 ,   1.0589569115061124E-002 ,   3.0277042408906732E-007 ,   1.0509196360764273E-002 ,   5.5745159689867202E-007
   240.00000000000000      ,   245.00000000000000      ,   1.0718400915545654E-002 ,   1.4920313013504319E-007 ,   9.8779736989146726E-003 ,   4.1374322056885365E-007 ,   1.0202653389912376E-002 ,   2.9538761968628101E-007 ,   1.0121130687580849E-002 ,   5.7747130329968339E-007
   245.00000000000000      ,   250.00000000000000      ,   1.0281273215261771E-002 ,   1.4515433018141387E-007 ,   9.4662690643363464E-003 ,   3.9371127618822567E-007 ,   9.7840869835589400E-003 ,   2.8723308357351476E-007 ,   9.6988715609779893E-003 ,   5.2804133262979480E-007
   250.00000000000000      ,   255.00000000000000      ,   9.8045925587911774E-003 ,   1.4079559180671850E-007 ,   9.0206336685246923E-003 ,   3.8154914488197659E-007 ,   9.3294880674606954E-003 ,   2.7857353576545774E-007 ,   9.2420614563345545E-003 ,   5.1173073085189607E-007
   255.00000000000000      ,   260.00000000000000      ,   9.2833442656840414E-003 ,   1.3608602766396161E-007 ,   8.5342338474178273E-003 ,   3.6840343247658388E-007 ,   8.8345057973717063E-003 ,   2.6936093669640903E-007 ,   8.7449977125061331E-003 ,   4.9423490293721257E-007
   260.00000000000000      ,   265.00000000000000      ,   8.7106926057367012E-003 ,   1.3095456990499091E-007 ,   8.0039093357124492E-003 ,   3.5423181814224637E-007 ,   8.2952836792985433E-003 ,   2.5942733791472275E-007 ,   8.2015431275078276E-003 ,   4.7517066113609739E-007
   265.00000000000000      ,   270.00000000000000      ,   8.0779887784973650E-003 ,   1.2531642732611125E-007 ,   7.4220773762814201E-003 ,   3.3897715500078661E-007 ,   7.7030863538766273E-003 ,   2.4869779353564462E-007 ,   7.6049142340671779E-003 ,   4.5474882970942848E-007
   270.00000000000000      ,   275.00000000000000      ,   7.5397875142236394E-003 ,   1.2008307268453995E-007 ,   6.8976059911025882E-003 ,   3.2371753163026348E-007 ,   7.1696502447187709E-003 ,   2.3812165663375253E-007 ,   7.0685052581381420E-003 ,   4.3426813426596775E-007
   275.00000000000000      ,   280.00000000000000      ,   7.2083520607083684E-003 ,   1.1603253359415271E-007 ,   6.5340330667477626E-003 ,   3.1109195209761616E-007 ,   6.8006134644152186E-003 ,   2.2914269184520089E-007 ,   6.6964372367394175E-003 ,   4.1750552081041972E-007
   280.00000000000000      ,   285.00000000000000      ,   6.8350559560960986E-003 ,   1.1162193333569937E-007 ,   6.1443253954553056E-003 ,   2.9771662786424967E-007 ,   6.3991844325152090E-003 ,   2.1953152479498190E-007 ,   6.2973376453572451E-003 ,   3.9947201343747728E-007
   285.00000000000000      ,   290.00000000000000      ,   6.3945768023162116E-003 ,   1.0662966966149206E-007 ,   5.6985375889451991E-003 ,   2.8268940431305539E-007 ,   5.9304858520753756E-003 ,   2.0869908258462679E-007 ,   5.8402959395054219E-003 ,   3.7937128245235655E-007
   290.00000000000000      ,   295.00000000000000      ,   5.8639279479698238E-003 ,   1.0081197709760398E-007 ,   5.1745201772728398E-003 ,   2.6556738123182820E-007 ,   5.3797647815831242E-003 ,   1.9553324615420314E-007 ,   5.3037702282794372E-003 ,   3.5638545195286002E-007
   295.00000000000000      ,   300.00000000000000      ,   5.2042996236463376E-003 ,   9.3723505085388297E-008 ,   4.5379864528345476E-003 ,   2.4502700457249184E-007 ,   4.7122899405705387E-003 ,   1.8008170673755452E-007 ,   4.6513413076081376E-003 ,   3.2882762164619743E-007
   300.00000000000000      ,   305.00000000000000      ,   4.3486971813349500E-003 ,   8.4498591712763501E-008 ,   3.7317690058378925E-003 ,   2.1866250723103815E-007 ,   3.8696499388313770E-003 ,   1.6044155136439862E-007 ,   3.8257603415449691E-003 ,   2.9336703583111289E-007
   305.00000000000000      ,   310.00000000000000      ,   3.1617372938118689E-003 ,   7.1012135850272532E-008 ,   2.6428842220577809E-003 ,   1.8044162244072527E-007 ,   2.7355806725371757E-003 ,   1.3214243460122383E-007 ,   2.7095246435375584E-003 ,   2.4221913273970803E-007
   310.00000000000000      ,   315.00000000000000      ,   1.3171184178002750E-003 ,   4.5237605791182454E-008 ,   1.0492622882965052E-003 ,   1.1162122021433643E-007 ,   1.0837268499661239E-003 ,   8.1589711491492114E-008 ,   1.0757194987328568E-003 ,   1.4982231389084033E-007
   315.00000000000000      ,   320.00000000000000      ,   1.3793841670518649E-005 ,   4.8757699116107227E-009 ,   1.0717087465731426E-005 ,   1.2535553115748062E-008 ,   1.1041986034534194E-005 ,   9.1324125510229051E-009 ,   1.0992949497920691E-005 ,   1.6839754667504521E-008
   320.00000000000000      ,   325.00000000000000      ,   0.0000000000000000      ,   0.0000000000000000      ,   0.0000000000000000      ,   0.0000000000000000      ,   0.0000000000000000      ,   0.0000000000000000      ,   0.0000000000000000      ,   0.0000000000000000     
   325.00000000000000      ,   330.00000000000000      ,   0.0000000000000000      ,   0.0000000000000000      ,   0.0000000000000000      ,   0.0000000000000000      ,   0.0000000000000000      ,   0.0000000000000000      ,   0.0000000000000000      ,   0.0000000000000000     
   330.00000000000000      ,   335.00000000000000      ,   0.0000000000000000      ,   0.0000000000000000      ,   0.0000000000000000      ,   0.0000000000000000      ,   0.0000000000000000      ,   0.0000000000000000      ,   0.0000000000000000      ,   0.0000000000000000     
   335.00000000000000      ,   340.00000000000000      ,   0.0000000000000000      ,   0.0000000000000000      ,   0.0000000000000000      ,   0.0000000000000000      ,   0.0000000000000000      ,   0.0000000000000000      ,   0.0000000000000000      ,   0.0000000000000000     
   340.00000000000000      ,   345.00000000000000      ,   0.0000000000000000      ,   0.0000000000000000      ,   0.0000000000000000      ,   0.0000000000000000      ,   0.0000000000000000      ,   0.0000000000000000      ,   0.0000000000000000      ,   0.0000000000000000     
   345.00000000000000      ,   350.00000000000000      ,   0.0000000000000000      ,   0.0000000000000000      ,   0.0000000000000000      ,   0.0000000000000000      ,   0.0000000000000000      ,   0.0000000000000000      ,   0.0000000000000000      ,   0.0000000000000000     
   350.00000000000000      ,   355.00000000000000      ,   0.0000000000000000      ,   0.0000000000000000      ,   0.0000000000000000      ,   0.0000000000000000      ,   0.0000000000000000      ,   0.0000000000000000      ,   0.0000000000000000      ,   0.0000000000000000     
   355.00000000000000      ,   360.00000000000000      ,   0.0000000000000000      ,   0.0000000000000000      ,   0.0000000000000000      ,   0.0000000000000000      ,   0.0000000000000000      ,   0.0000000000000000      ,   0.0000000000000000      ,   0.0000000000000000     
   360.00000000000000      ,   365.00000000000000      ,   0.0000000000000000      ,   0.0000000000000000      ,   0.0000000000000000      ,   0.0000000000000000      ,   0.0000000000000000      ,   0.0000000000000000      ,   0.0000000000000000      ,   0.0000000000000000     
   365.00000000000000      ,   370.00000000000000      ,   0.0000000000000000      ,   0.0000000000000000      ,   0.0000000000000000      ,   0.0000000000000000      ,   0.0000000000000000      ,   0.0000000000000000      ,   0.0000000000000000      ,   0.0000000000000000     
   370.00000000000000      ,   375.00000000000000      ,   0.0000000000000000      ,   0.0000000000000000      ,   0.0000000000000000      ,   0.0000000000000000      ,   0.0000000000000000      ,   0.0000000000000000      ,   0.0000000000000000      ,   0.0000000000000000     
