 # xl, xh, LO, dLO, NLOPSnovp, dNLOPSnovp, NLOPSvp, dNLOPSvp, NLOPSvplt, dNLOPSvplt
   200.00000000000000      ,   205.00000000000000      ,   0.0000000000000000      ,   0.0000000000000000      ,   0.0000000000000000      ,   0.0000000000000000      ,   0.0000000000000000      ,   0.0000000000000000      ,   0.0000000000000000      ,   0.0000000000000000     
   205.00000000000000      ,   210.00000000000000      ,   0.0000000000000000      ,   0.0000000000000000      ,   0.0000000000000000      ,   0.0000000000000000      ,   0.0000000000000000      ,   0.0000000000000000      ,   0.0000000000000000      ,   0.0000000000000000     
   210.00000000000000      ,   215.00000000000000      ,   0.0000000000000000      ,   0.0000000000000000      ,   0.0000000000000000      ,   0.0000000000000000      ,   0.0000000000000000      ,   0.0000000000000000      ,   0.0000000000000000      ,   0.0000000000000000     
   215.00000000000000      ,   220.00000000000000      ,   0.0000000000000000      ,   0.0000000000000000      ,   0.0000000000000000      ,   0.0000000000000000      ,   0.0000000000000000      ,   0.0000000000000000      ,   0.0000000000000000      ,   0.0000000000000000     
   220.00000000000000      ,   225.00000000000000      ,   0.0000000000000000      ,   0.0000000000000000      ,   0.0000000000000000      ,   0.0000000000000000      ,   0.0000000000000000      ,   0.0000000000000000      ,   0.0000000000000000      ,   0.0000000000000000     
   225.00000000000000      ,   230.00000000000000      ,   0.0000000000000000      ,   0.0000000000000000      ,   1.7317261736677466E-007 ,   7.0903114862966606E-009 ,   1.4699779120134186E-007 ,   3.0004454353417393E-009 ,   1.6665864109954803E-007 ,   5.8290117692753903E-009
   230.00000000000000      ,   235.00000000000000      ,   0.0000000000000000      ,   0.0000000000000000      ,   4.8592102790808354E-006 ,   3.1493069351809293E-008 ,   4.9128419471362711E-006 ,   2.1747980775797749E-008 ,   4.9443298977913919E-006 ,   2.8171518556084738E-008
   235.00000000000000      ,   240.00000000000000      ,   0.0000000000000000      ,   0.0000000000000000      ,   2.4191172839380296E-005 ,   7.9979940503917423E-008 ,   2.4588925412566444E-005 ,   4.4825793565136264E-008 ,   2.4614210025788646E-005 ,   5.8958900253903374E-008
   240.00000000000000      ,   245.00000000000000      ,   4.1096090648795376E-008 ,   2.2499577949660750E-008 ,   6.5451846100272561E-005 ,   1.3170589604552529E-007 ,   6.6731791197751069E-005 ,   1.0005925172200003E-007 ,   6.6792769226202558E-005 ,   1.2734990304580890E-007
   245.00000000000000      ,   250.00000000000000      ,   4.7706347213055779E-006 ,   2.3731795950275412E-008 ,   1.4366887697483605E-004 ,   3.2539889846816058E-007 ,   1.4650298997661757E-004 ,   2.0698595191477245E-007 ,   1.4650309387360911E-004 ,   2.8035160605222725E-007
   250.00000000000000      ,   255.00000000000000      ,   4.2529815735800311E-005 ,   6.9117783056394174E-008 ,   3.0199972984849680E-004 ,   6.6537971612255362E-007 ,   3.0768554918218614E-004 ,   4.0266707186204550E-007 ,   3.0771468970467705E-004 ,   5.6590559628166506E-007
   255.00000000000000      ,   260.00000000000000      ,   1.7741540603948943E-004 ,   1.3877403504250972E-007 ,   6.2090536091388270E-004 ,   9.8168699799028486E-007 ,   6.3493849013334096E-004 ,   8.0528832198645958E-007 ,   6.3311186685233699E-004 ,   8.1948672542545847E-007
   260.00000000000000      ,   265.00000000000000      ,   4.5297602116009842E-004 ,   2.1912835216846308E-007 ,   1.1800858423265154E-003 ,   1.3951349112936558E-006 ,   1.2077687003011783E-003 ,   1.0490729802795612E-006 ,   1.2062555025982066E-003 ,   1.3361651883916760E-006
   265.00000000000000      ,   270.00000000000000      ,   8.8270585984673690E-004 ,   3.0344145322547736E-007 ,   2.0352161037300548E-003 ,   2.7540678934788547E-006 ,   2.0850229307500805E-003 ,   2.1636381493730212E-006 ,   2.0783807733029433E-003 ,   2.8531162843768179E-006
   270.00000000000000      ,   275.00000000000000      ,   1.5216565816225291E-003 ,   3.9584533343936732E-007 ,   3.2277157410731771E-003 ,   3.8660661094866076E-006 ,   3.3007569426666281E-003 ,   2.5375139059990353E-006 ,   3.2930331195585869E-003 ,   2.8741547463324188E-006
   275.00000000000000      ,   280.00000000000000      ,   2.4739580556113919E-003 ,   5.0211424277060783E-007 ,   4.8819444415212016E-003 ,   4.1911075003748206E-006 ,   4.9928773308159091E-003 ,   2.6310937330686178E-006 ,   4.9795528361677843E-003 ,   3.2966036371737251E-006
   280.00000000000000      ,   285.00000000000000      ,   3.9854517373713932E-003 ,   6.3546101041809314E-007 ,   7.2665211305114738E-003 ,   4.6537980355693789E-006 ,   7.4377331045511145E-003 ,   3.3210301522753926E-006 ,   7.4222781609185641E-003 ,   4.4688996902790449E-006
   285.00000000000000      ,   290.00000000000000      ,   7.1408033072368612E-003 ,   8.5371880517963896E-007 ,   1.1409048631597854E-002 ,   6.7781477665991701E-006 ,   1.1674407423860065E-002 ,   4.1717835877269138E-006 ,   1.1637615506373633E-002 ,   5.0666486378217093E-006
   290.00000000000000      ,   295.00000000000000      ,   1.9122433504238701E-002 ,   1.3995895784193588E-006 ,   2.2223642057713350E-002 ,   8.4298230799454613E-006 ,   2.2745832524608298E-002 ,   5.6850913863254011E-006 ,   2.2688925916393526E-002 ,   7.9166694468332478E-006
   295.00000000000000      ,   300.00000000000000      ,   3.7086691380519253E-002 ,   1.9202605944912288E-006 ,   3.7233246410763247E-002 ,   1.4015180361124990E-005 ,   3.8095625221729316E-002 ,   7.1225397369193807E-006 ,   3.7994882417979881E-002 ,   9.4546077896910275E-006
   300.00000000000000      ,   305.00000000000000      ,   4.5223001812992790E-002 ,   2.0765377681377425E-006 ,   4.5088526610963540E-002 ,   1.1149514686896048E-005 ,   4.6136915427394225E-002 ,   7.6645809793701593E-006 ,   4.6014827509773815E-002 ,   9.3091075506732540E-006
   305.00000000000000      ,   310.00000000000000      ,   5.1702805858949034E-002 ,   2.1683125882031723E-006 ,   5.1450327383330045E-002 ,   1.1498295071274501E-005 ,   5.2678837791451216E-002 ,   8.2760598583700053E-006 ,   5.2522461029488293E-002 ,   9.9345126073253378E-006
   310.00000000000000      ,   315.00000000000000      ,   5.8256071978785212E-002 ,   2.2459798545208882E-006 ,   5.7778293298156785E-002 ,   1.1127457381155591E-005 ,   5.9169382185891718E-002 ,   7.8823374932235043E-006 ,   5.8993963340523196E-002 ,   9.2920329962089757E-006
   315.00000000000000      ,   320.00000000000000      ,   6.5203239640173161E-002 ,   2.3174850323432251E-006 ,   6.4446294547053279E-002 ,   1.2987521143363306E-005 ,   6.5988008391514294E-002 ,   8.2934522270308472E-006 ,   6.5783603026217205E-002 ,   1.0085449216868386E-005
   320.00000000000000      ,   325.00000000000000      ,   7.2756363279043890E-002 ,   2.3866434245287990E-006 ,   7.1556909130986696E-002 ,   1.5032673295094907E-005 ,   7.3253997001322416E-002 ,   8.2205595563649178E-006 ,   7.3045552032424951E-002 ,   1.1002847326409726E-005
   325.00000000000000      ,   330.00000000000000      ,   8.1108137875020692E-002 ,   2.4556157051471639E-006 ,   7.9280798896335838E-002 ,   1.3701893728196403E-005 ,   8.1176687731956743E-002 ,   7.8307873512753535E-006 ,   8.0931239657611176E-002 ,   9.7780934969611077E-006
   330.00000000000000      ,   335.00000000000000      ,   9.0467613714067016E-002 ,   2.5258768815666686E-006 ,   8.7836097664082735E-002 ,   1.4402874107897497E-005 ,   8.9951158322657918E-002 ,   9.2663918468473220E-006 ,   8.9676752630497347E-002 ,   1.1341483081032601E-005
   335.00000000000000      ,   340.00000000000000      ,  0.10108341724356096      ,   2.5985895061030795E-006 ,   9.7403679516108885E-002 ,   1.1983148589529246E-005 ,   9.9780789268135550E-002 ,   1.1211730579969519E-005 ,   9.9451334106657407E-002 ,   9.6421511878874845E-006
   340.00000000000000      ,   345.00000000000000      ,  0.11330380488233933      ,   2.6754561797088751E-006 ,  0.10837029548458495      ,   1.0745697041282071E-005 ,  0.11100977061484728      ,   7.5063145128309119E-006 ,  0.11066251206915825      ,   8.6772777406722291E-006
   345.00000000000000      ,   350.00000000000000      ,  0.12767208983370978      ,   2.7598288399740607E-006 ,  0.12119583497545415      ,   1.0935596099190855E-005 ,  0.12412501031531756      ,   6.8855572433446465E-006 ,  0.12375445275541577      ,   8.5901341349994731E-006
   350.00000000000000      ,   355.00000000000000      ,  0.14491902715573163      ,   2.8551466860936206E-006 ,  0.13639713103773035      ,   9.8330989519725201E-006 ,  0.13969165249164447      ,   6.9178014918179048E-006 ,  0.13929242125512070      ,   9.1197770378006163E-006
   355.00000000000000      ,   360.00000000000000      ,  0.16606789439131819      ,   2.9649440392274486E-006 ,  0.15487075709344444      ,   9.1939217270160419E-006 ,  0.15857432010670927      ,   6.6813282505090410E-006 ,  0.15814239483171028      ,   7.3954528241703397E-006
   360.00000000000000      ,   365.00000000000000      ,  0.19270386420531396      ,   3.0945767367408005E-006 ,  0.17779136940440651      ,   9.3905403040842626E-006 ,  0.18202687307180912      ,   7.7708351074163198E-006 ,  0.18156648082947219      ,   7.5937264180941559E-006
   365.00000000000000      ,   370.00000000000000      ,  0.22740546601614078      ,   3.2520960532808242E-006 ,  0.20719265070906856      ,   8.9467125230278132E-006 ,  0.21210427534939791      ,   5.9740243358503200E-006 ,  0.21158904502274947      ,   7.1408970712687159E-006
   370.00000000000000      ,   375.00000000000000      ,  0.27487652263251278      ,   3.4515513345472908E-006 ,  0.24650876224997412      ,   8.1509390026507102E-006 ,  0.25235001417184971      ,   5.5601739701810244E-006 ,  0.25173753084410627      ,   6.6701786296381686E-006
   375.00000000000000      ,   380.00000000000000      ,  0.34460755534366494      ,   3.7189692126059043E-006 ,  0.30203847543312656      ,   8.0954367062474797E-006 ,  0.30919104265619696      ,   5.4103351962244433E-006 ,  0.30844058324120033      ,   6.5324749709041892E-006
   380.00000000000000      ,   385.00000000000000      ,  0.45320579997504651      ,   4.0867976284588384E-006 ,  0.37977876249771064      ,   8.1064961935956296E-006 ,  0.38878338474930274      ,   5.4077222520211349E-006 ,  0.38781720637664785      ,   6.3662971034390626E-006
   385.00000000000000      ,   390.00000000000000      ,  0.49918181702643349      ,   4.2045253506109691E-006 ,  0.40706913596151523      ,   8.0374290988490292E-006 ,  0.41679367550274959      ,   5.0740005512956958E-006 ,  0.41571943302741143      ,   6.3500255437363751E-006
   390.00000000000000      ,   395.00000000000000      ,  0.48002179690673596      ,   4.0972636874026149E-006 ,  0.38988723201640590      ,   7.0731969770130238E-006 ,  0.39929367044249586      ,   4.6051283029419495E-006 ,  0.39822235130216915      ,   5.6925306312872475E-006
   395.00000000000000      ,   400.00000000000000      ,  0.45947455597229570      ,   3.9865824044196254E-006 ,  0.37207236686818113      ,   7.1102910126026575E-006 ,  0.38112771893619590      ,   4.5628319780075618E-006 ,  0.38005959046978610      ,   5.5190616836972117E-006
   400.00000000000000      ,   405.00000000000000      ,  0.44002354768244945      ,   3.8798942040979852E-006 ,  0.35520200386754069      ,   6.3741528009611865E-006 ,  0.36394360645158075      ,   4.1090423447550581E-006 ,  0.36287924649604042      ,   5.0827354196449117E-006
   405.00000000000000      ,   410.00000000000000      ,  0.42165604364302728      ,   3.7772133471004897E-006 ,  0.33924709090689009      ,   6.0361502788687036E-006 ,  0.34767525793603532      ,   3.9118921789885840E-006 ,  0.34661753852718047      ,   4.8000356274479317E-006
   410.00000000000000      ,   415.00000000000000      ,  0.40425259529983065      ,   3.6781151125732839E-006 ,  0.32410262509136584      ,   5.5560562734001368E-006 ,  0.33223808724308723      ,   3.6309688621259991E-006 ,  0.33118708336860520      ,   4.4639048079274612E-006
   415.00000000000000      ,   420.00000000000000      ,  0.38775719838413641      ,   3.5824179496398262E-006 ,  0.30971577623987773      ,   5.2832926410094476E-006 ,  0.31757534622672012      ,   3.4101084837551025E-006 ,  0.31652247302054748      ,   4.2191329450836957E-006
   420.00000000000000      ,   425.00000000000000      ,  0.37205709933412057      ,   3.4896636688507058E-006 ,  0.29599018100380931      ,   4.9489796439241556E-006 ,  0.30357272822143588      ,   3.2547773184078352E-006 ,  0.30253517456048190      ,   3.9614278521350218E-006
   425.00000000000000      ,   430.00000000000000      ,  0.35705633659678077      ,   3.3994962469775052E-006 ,  0.28287384909974655      ,   4.7065991131670718E-006 ,  0.29017682005208062      ,   3.0525881403008542E-006 ,  0.28915744865025694      ,   3.7652629736228123E-006
   430.00000000000000      ,   435.00000000000000      ,  0.34266582956671376      ,   3.3115421983833815E-006 ,  0.27022605995855037      ,   4.4499162762135774E-006 ,  0.27727216358592804      ,   2.9135005435231158E-006 ,  0.27626072019332526      ,   3.5618098050679098E-006
   435.00000000000000      ,   440.00000000000000      ,  0.32874950337890679      ,   3.2251649791979314E-006 ,  0.25796396302344815      ,   4.2223908572216463E-006 ,  0.26476087992281744      ,   2.7442402803403805E-006 ,  0.26375380738542503      ,   3.3743393548593046E-006
   440.00000000000000      ,   445.00000000000000      ,  0.31516251572610615      ,   3.1396583533012115E-006 ,  0.24597828055632523      ,   4.0331773286069843E-006 ,  0.25251486244380600      ,   2.6494694614064313E-006 ,  0.25153117381566692      ,   3.2263909717831083E-006
   445.00000000000000      ,   450.00000000000000      ,  0.30170239357934125      ,   3.0540019861235721E-006 ,  0.23409093349081644      ,   3.8064965040640153E-006 ,  0.24037400010375279      ,   2.4753761581931110E-006 ,  0.23940716849958754      ,   3.0524581954277043E-006
   450.00000000000000      ,   455.00000000000000      ,  0.28812064327859577      ,   2.9668482640498338E-006 ,  0.22211127118096266      ,   3.6276441485979670E-006 ,  0.22812501142621577      ,   2.3565155255271989E-006 ,  0.22717839312210961      ,   2.9009431319741513E-006
   455.00000000000000      ,   460.00000000000000      ,  0.27403288600193187      ,   2.8760230740795988E-006 ,  0.20971882910669282      ,   3.4572965076861730E-006 ,  0.21545960674682385      ,   2.2558217883202258E-006 ,  0.21453358920998938      ,   2.7655963891548827E-006
   460.00000000000000      ,   465.00000000000000      ,  0.25884558479156600      ,   2.7781029484025586E-006 ,  0.19650941630131319      ,   3.2911013865132070E-006 ,  0.20193179249530344      ,   2.1386266246359432E-006 ,  0.20104009216236168      ,   2.6478606130416243E-006
   465.00000000000000      ,   470.00000000000000      ,  0.24157641274688110      ,   2.6670751052068006E-006 ,  0.18173347885068281      ,   3.0942499682283232E-006 ,  0.18679725955592000      ,   2.0116722691817553E-006 ,  0.18594692462652651      ,   2.4792350520732768E-006
   470.00000000000000      ,   475.00000000000000      ,  0.22044352335768511      ,   2.5314755245418334E-006 ,  0.16411576207597497      ,   3.0197580443724659E-006 ,  0.16872210881666283      ,   1.9252433213044644E-006 ,  0.16793796822709089      ,   2.4041001119747542E-006
   475.00000000000000      ,   480.00000000000000      ,  0.19159356016818593      ,   2.3445486640525538E-006 ,  0.14089991287783155      ,   2.6344733591905858E-006 ,  0.14488638369912479      ,   1.7210523118046968E-006 ,  0.14419601588517419      ,   2.1123260537829346E-006
   480.00000000000000      ,   485.00000000000000      ,  0.14346298958890527      ,   2.0146698227525324E-006 ,  0.10378715008624072      ,   2.2331542641394239E-006 ,  0.10674497004581129      ,   1.4556428147687158E-006 ,  0.10622777612527071      ,   1.7923780684739319E-006
   485.00000000000000      ,   490.00000000000000      ,   3.9066732676197147E-002 ,   1.0541586722263677E-006 ,   2.9056097149087370E-002 ,   1.1856158247979325E-006 ,   2.9889498265661514E-002 ,   7.7261610116393199E-007 ,   2.9741788742980547E-002 ,   9.4957099446185690E-007
   490.00000000000000      ,   495.00000000000000      ,   6.2403762843141447E-004 ,   1.4292400923266118E-007 ,   5.2380083742822740E-004 ,   1.6821198102044672E-007 ,   5.3910704929194101E-004 ,   1.1047240888485610E-007 ,   5.3635546993657736E-004 ,   1.3556037007805093E-007
   495.00000000000000      ,   500.00000000000000      ,   0.0000000000000000      ,   0.0000000000000000      ,   0.0000000000000000      ,   0.0000000000000000      ,   0.0000000000000000      ,   0.0000000000000000      ,   0.0000000000000000      ,   0.0000000000000000     
