 # xl, xh, LO, dLO, NLOPSnovp, dNLOPSnovp, NLOPSvp, dNLOPSvp, NLOPSvplt, dNLOPSvplt
   0.0000000000000000      ,  0.24999999999999997      ,   19.285382406573525      ,   1.1140163340720680E-004 ,   10.805140734334273      ,   2.0080951668461725E-004 ,   11.076285952699823      ,   1.1880700724444802E-004 ,   11.040607350430552      ,   1.5013639077528129E-004
  0.24999999999999997      ,  0.49999999999999994      ,   12.052066785021355      ,   9.7202360087775348E-005 ,   8.0417214747303767      ,   2.7586952889985321E-004 ,   8.2436373973609207      ,   1.4019503401731495E-004 ,   8.2171823687565571      ,   1.8460182200840631E-004
  0.49999999999999994      ,  0.74999999999999989      ,   7.3148610904302815      ,   7.6359006853574625E-005 ,   5.4035828177415679      ,   1.6905387462401846E-004 ,   5.5396962766456328      ,   1.1384261596055939E-004 ,   5.5216535565142362      ,   1.3493007675438861E-004
  0.74999999999999989      ,  0.99999999999999989      ,   5.2368297067166250      ,   6.4743658574939469E-005 ,   4.1144686504322658      ,   1.4661832343129967E-004 ,   4.2176711713305339      ,   9.7951946383082210E-005 ,   4.2039663647792889      ,   1.1550695141151941E-004
  0.99999999999999989      ,   1.2499999999999998      ,   4.0770184142389816      ,   5.7175711688801859E-005 ,   3.3453704951147252      ,   1.4620651890652746E-004 ,   3.4295793213205066      ,   1.0225897195912094E-004 ,   3.4183867409047388      ,   1.2370838067467851E-004
   1.2499999999999998      ,   1.4999999999999998      ,   3.3378645206130528      ,   5.1759431873793838E-005 ,   2.8317540841655848      ,   1.5779226339699567E-004 ,   2.9027250687619977      ,   9.2611827157341466E-005 ,   2.8934610088214447      ,   1.1806836099912412E-004
   1.4999999999999998      ,   1.7499999999999998      ,   2.8259645735641143      ,   4.7641313213994515E-005 ,   2.4621521829332464      ,   1.2393000016178499E-004 ,   2.5240544942614118      ,   8.3751324924153140E-005 ,   2.5157897265584861      ,   9.7723305092932783E-005
   1.7499999999999998      ,   1.9999999999999998      ,   2.4504349765930855      ,   4.4375642081737701E-005 ,   2.1829887425763368      ,   1.1547725457439529E-004 ,   2.2380526845687987      ,   7.7179938635028549E-005 ,   2.2307377518815725      ,   9.3132004131453658E-005
   1.9999999999999998      ,   2.2499999999999996      ,   2.1632814552895456      ,   4.1704644349275981E-005 ,   1.9643868622932625      ,   1.1636743240359404E-004 ,   2.0137291078783965      ,   1.2894308688185237E-004 ,   2.0071728614341091      ,   8.8607043380431938E-005
   2.2499999999999996      ,   2.4999999999999996      ,   1.9366322337054462      ,   3.9469842913632621E-005 ,   1.7873996493434507      ,   1.1190354510320169E-004 ,   1.8325029143706630      ,   6.9909207618133986E-005 ,   1.8265214908536638      ,   8.8228130542415835E-005
   2.4999999999999996      ,   2.7499999999999996      ,   1.7533073287240384      ,   3.7565088959059395E-005 ,   1.6418697438376864      ,   1.1718335204894741E-004 ,   1.6832451637043782      ,   7.5481292021301269E-005 ,   1.6778220864690876      ,   1.0289218272975375E-004
   2.7499999999999996      ,   2.9999999999999996      ,   1.6019288250949686      ,   3.5915518733900457E-005 ,   1.5195380682359525      ,   1.0553727873099410E-004 ,   1.5578347448587839      ,   7.2722643649018103E-005 ,   1.5527817869458336      ,   8.2996799447036568E-005
   2.9999999999999996      ,   3.2499999999999996      ,   1.4747708161331592      ,   3.4469510466702509E-005 ,   1.4153149781422054      ,   1.1169327082606316E-004 ,   1.4510237366778957      ,   7.1257238527540465E-005 ,   1.4462279066681729      ,   8.9201002988512461E-005
   3.2499999999999996      ,   3.4999999999999996      ,   1.3665867954218700      ,   3.3191332731296489E-005 ,   1.3255957661598190      ,   1.1569959754866036E-004 ,   1.3588452357808452      ,   7.3852642259922637E-005 ,   1.3544021818131691      ,   8.9096033151216624E-005
   3.4999999999999996      ,   3.7499999999999996      ,   1.2733707121680271      ,   3.2047775111296992E-005 ,   1.2466915775064762      ,   8.4825371760559201E-005 ,   1.2781340017564418      ,   6.2667792539994124E-005 ,   1.2740310710213414      ,   8.1443369160664195E-005
   3.7499999999999996      ,   3.9999999999999996      ,   1.1923248560926378      ,   3.1021007852412202E-005 ,   1.1778953475114002      ,   1.6956861121185854E-004 ,   1.2073195848068599      ,   8.4918925538573654E-005 ,   1.2035319014512622      ,   1.4442981726872834E-004
   3.9999999999999996      ,   4.2499999999999991      ,   1.1211005085172612      ,   3.0091091975791977E-005 ,   1.1162647114696349      ,   8.7328538799622893E-005 ,   1.1443530304397467      ,   5.7885604084483186E-005 ,   1.1407176806528734      ,   7.1738672518501442E-005
   4.2499999999999991      ,   4.4999999999999991      ,   1.0580728415185126      ,   2.9242910173397624E-005 ,   1.0613361912388597      ,   8.6599808378156571E-005 ,   1.0882394596634852      ,   7.5513528789476406E-005 ,   1.0845613459628785      ,   7.0808576693448438E-005
   4.4999999999999991      ,   4.7499999999999991      ,   1.0018768935417945      ,   2.8464900848781087E-005 ,   1.0123415724623475      ,   1.0452376316995163E-004 ,   1.0377378343878745      ,   6.6583206140701659E-005 ,   1.0344810857386304      ,   9.1077330308883444E-005
   4.7499999999999991      ,   4.9999999999999991      ,  0.95160548199271222      ,   2.7752796025888165E-005 ,  0.96748077138498767      ,   8.6751443645290193E-005 ,  0.99188281302483983      ,   5.6247484211690687E-005 ,  0.98863996262466236      ,   6.6649950302763298E-005
   4.9999999999999991      ,   5.2499999999999991      ,  0.90624680071656982      ,   2.7093186877049235E-005 ,  0.92699052867609910      ,   9.0658696890414420E-005 ,  0.95027854167516301      ,   5.3846692262357070E-005 ,  0.94722212851343723      ,   6.9160864440299177E-005
   5.2499999999999991      ,   5.4999999999999991      ,  0.86514346400750686      ,   2.6482295136594354E-005 ,  0.88993059087106519      ,   7.8601280936853752E-005 ,  0.91227022100689936      ,   5.2472919161183928E-005 ,  0.90929974431530547      ,   6.4752288127799674E-005
   5.4999999999999991      ,   5.7499999999999991      ,  0.82774340830028414      ,   2.5915230740344591E-005 ,  0.85590356790609845      ,   8.0497107879642162E-005 ,  0.87751892314610169      ,   5.5547443729255124E-005 ,  0.87466402875683913      ,   6.7581267377572301E-005
   5.7499999999999991      ,   5.9999999999999991      ,  0.79356520113967033      ,   2.5386015254228226E-005 ,  0.82459750833007683      ,   7.6328295973711311E-005 ,  0.84569539497958424      ,   9.1669299181837771E-005 ,  0.84273430078728284      ,   6.2633010009725750E-005
   5.9999999999999991      ,   6.2499999999999991      ,  0.76221163979918849      ,   2.4890648827997555E-005 ,  0.79585102594573265      ,   1.2086493467185903E-004 ,  0.81600020228951575      ,   6.3040715454740462E-005 ,  0.81328514742319269      ,   8.4915626740332344E-005
   6.2499999999999991      ,   6.4999999999999991      ,  0.73337624901404508      ,   2.4427049525642259E-005 ,  0.76899619878128367      ,   6.9108135521984168E-005 ,  0.78850951762404775      ,   4.7729305262200402E-005 ,  0.78580583515839597      ,   5.4757160723990199E-005
   6.4999999999999991      ,   6.7499999999999991      ,  0.70674319321653156      ,   2.3990928346002013E-005 ,  0.74437037986194987      ,   8.1909333249939923E-005 ,  0.76313023369067434      ,   5.8570083167700689E-005 ,  0.76060980632726582      ,   6.4276977747979537E-005
   6.7499999999999991      ,   6.9999999999999991      ,  0.68214244271502045      ,   2.3582468881469206E-005 ,  0.72129225484627946      ,   7.4301160293773296E-005 ,  0.73946533307974738      ,   6.0097100628302170E-005 ,  0.73702950040363446      ,   6.0016606836683072E-005
   6.9999999999999991      ,   7.2499999999999991      ,  0.65927798292098172      ,   2.3196345750188177E-005 ,  0.69960404102118601      ,   7.4017297480573831E-005 ,  0.71737605220271472      ,   4.9629912161095899E-005 ,  0.71491945525881950      ,   5.8293727652248086E-005
   7.2499999999999991      ,   7.4999999999999991      ,  0.63800837835505231      ,   2.2832035876156566E-005 ,  0.67974164070644605      ,   7.9112196566795336E-005 ,  0.69672160425670471      ,   1.2849831572783112E-004 ,  0.69449621526952754      ,   6.1793397055616260E-005
   7.4999999999999991      ,   7.7499999999999991      ,  0.61816172171702610      ,   2.2485410924242603E-005 ,  0.66047834522412563      ,   8.3194800614485546E-005 ,  0.67714847163393488      ,   5.3611926533707246E-005 ,  0.67494738794610920      ,   6.7615340708542253E-005
   7.7499999999999991      ,   7.9999999999999991      ,  0.59960590354199594      ,   2.2159100981814862E-005 ,  0.64280203794243851      ,   7.4740405984928733E-005 ,  0.65901915774730657      ,   4.7103583313522219E-005 ,  0.65683718196657237      ,   5.7686238297171447E-005
   7.9999999999999991      ,   8.2499999999999982      ,  0.58222647824625395      ,   2.1847832446272307E-005 ,  0.62631658039763161      ,   1.2316675866736577E-004 ,  0.64202090341600482      ,   8.6008617264889261E-005 ,  0.63991399035002550      ,   8.8324877288117006E-005
   8.2499999999999982      ,   8.4999999999999982      ,  0.56589035773090812      ,   2.1551760544907133E-005 ,  0.61033980912583929      ,   7.3043680903620893E-005 ,  0.62576995016212833      ,   4.8222756007316747E-005 ,  0.62367352329835390      ,   5.5498617378758932E-005
   8.4999999999999982      ,   8.7499999999999982      ,  0.55055643631725149      ,   2.1270427374341782E-005 ,  0.59538944141945760      ,   7.5216344514359064E-005 ,  0.61039089077179343      ,   4.7224143733681208E-005 ,  0.60840604490007610      ,   5.7655359242727460E-005
   8.7499999999999982      ,   8.9999999999999982      ,  0.53616619492135309      ,   2.1005197696804927E-005 ,  0.58135359594498304      ,   7.5919554675516580E-005 ,  0.59594389112100599      ,   4.2273755893501268E-005 ,  0.59403596707456729      ,   5.5898534840374130E-005
   8.9999999999999982      ,   9.2499999999999982      ,  0.52253904056156442      ,   2.0749921222792996E-005 ,  0.56807708269001733      ,   7.8552811440061725E-005 ,  0.58238456630409352      ,   5.0998809803318276E-005 ,  0.58050863063192437      ,   6.3104401220483552E-005
   9.2499999999999982      ,   9.4999999999999982      ,  0.50967327223973247      ,   2.0505896412411948E-005 ,  0.55537836365050253      ,   7.6247314642339937E-005 ,  0.56935149390240214      ,   5.3363202501639294E-005 ,  0.56749187076445595      ,   5.8460064171347794E-005
   9.4999999999999982      ,   9.7499999999999982      ,  0.49755127928548470      ,   2.0274469443448500E-005 ,  0.54335125246559357      ,   6.1871677590700174E-005 ,  0.55705750845624646      ,   4.4003160022111920E-005 ,  0.55525562958333075      ,   5.1829160618319644E-005
   9.7499999999999982      ,   9.9999999999999982      ,  0.48608952527592469      ,   2.0054406920633604E-005 ,  0.53189484143620980      ,   7.1299628347615594E-005 ,  0.54527365093193347      ,   4.4218527026842580E-005 ,  0.54356969491033191      ,   6.0630645571870186E-005
   9.9999999999999982      ,   10.249999999999998      ,  0.47514311975734846      ,   1.9840311896492455E-005 ,  0.52098250152053693      ,   6.4356063939940465E-005 ,  0.53416273079530252      ,   4.1783121337317929E-005 ,  0.53241099808869741      ,   5.1369455112204036E-005
   10.249999999999998      ,   10.499999999999998      ,  0.46477287750101254      ,   1.9637329836348841E-005 ,  0.51061411470864781      ,   6.6894396799519119E-005 ,  0.52348506096626768      ,   4.5704328808166338E-005 ,  0.52182458558002898      ,   5.6495881555562138E-005
   10.499999999999998      ,   10.749999999999998      ,  0.45494742539371602      ,   1.9441865907927449E-005 ,  0.50068410795881546      ,   5.5362621296617530E-005 ,  0.51349151622792055      ,   6.4164096219227143E-005 ,  0.51166417020024513      ,   4.5159789425845534E-005
   10.749999999999998      ,   10.999999999999998      ,  0.44559983387958607      ,   1.9255771423251766E-005 ,  0.49134136537411000      ,   6.1967747637098591E-005 ,  0.50377597439827482      ,   4.1253084955864859E-005 ,  0.50210004216856807      ,   5.0066677666785823E-005
   10.999999999999998      ,   11.249999999999998      ,  0.43672582839049179      ,   1.9077487845940538E-005 ,  0.48223408619789926      ,   5.6819835926171368E-005 ,  0.49449320898899102      ,   3.9328692032592466E-005 ,  0.49279355135823150      ,   4.6088526929005322E-005
   11.249999999999998      ,   11.499999999999998      ,  0.42818945942967568      ,   1.8904350146275971E-005 ,  0.47362704576085235      ,   7.6776512433117814E-005 ,  0.48562738905461167      ,   4.1396054358019213E-005 ,  0.48399346924372633      ,   5.3878077941048589E-005
   11.499999999999998      ,   11.749999999999998      ,  0.42013446717579278      ,   1.8740134510969278E-005 ,  0.46535428788350985      ,   5.4240927261940851E-005 ,  0.47718513917195110      ,   4.0655633151117665E-005 ,  0.47559281306037882      ,   4.7153172117244164E-005
   11.749999999999998      ,   11.999999999999998      ,  0.41238811469812281      ,   1.8581622508884258E-005 ,  0.45751492025684992      ,   7.2985994522510535E-005 ,  0.46902897892562806      ,   3.4598260728343852E-005 ,  0.46754816606888266      ,   5.2956352824677175E-005
   11.999999999999998      ,   12.249999999999998      ,  0.40500858806571599      ,   1.8428014948873096E-005 ,  0.44984507992507367      ,   5.5994657171513286E-005 ,  0.46131110706151918      ,   4.1595850857713913E-005 ,  0.45974166877876055      ,   4.8716884051850394E-005
   12.249999999999998      ,   12.499999999999998      ,  0.39792292172935445      ,   1.8281754086199611E-005 ,  0.44277767177536803      ,   7.3580647455451960E-005 ,  0.45384915278232951      ,   4.5493884998356296E-005 ,  0.45243078773171935      ,   6.5580233255509802E-005
   12.499999999999998      ,   12.749999999999998      ,  0.39116727605485258      ,   1.8140120652853847E-005 ,  0.43567025568776635      ,   6.0038512732968188E-005 ,  0.44668406045751025      ,   4.3218812674708146E-005 ,  0.44524327809027059      ,   5.2698275627247570E-005
   12.749999999999998      ,   12.999999999999998      ,  0.38474497409758190      ,   1.8006497855729200E-005 ,  0.42885932918973546      ,   5.3516115927833645E-005 ,  0.43973997047334495      ,   3.6079240747567523E-005 ,  0.43825011412641085      ,   4.2007994618678047E-005
   12.999999999999998      ,   13.249999999999998      ,  0.37853704156872375      ,   1.7874822336810478E-005 ,  0.42244864860113829      ,   6.4158386465388775E-005 ,  0.43314599713970514      ,   3.8311231242874560E-005 ,  0.43171548886344463      ,   4.9836105812860652E-005
   13.249999999999998      ,   13.499999999999998      ,  0.37261582762409090      ,   1.7749701966672932E-005 ,  0.41636486588742955      ,   7.0498729868733622E-005 ,  0.42683717914010433      ,   3.4369329237323083E-005 ,  0.42543253501266542      ,   5.1915598075938959E-005
   13.499999999999998      ,   13.749999999999998      ,  0.36688481405016943      ,   1.7627177587699035E-005 ,  0.41036681967814959      ,   7.0181035357394893E-005 ,  0.42072255535001274      ,   4.5093607878547659E-005 ,  0.41933748737438137      ,   4.9880413249404440E-005
   13.749999999999998      ,   13.999999999999998      ,  0.36144985918440553      ,   1.7511589467622655E-005 ,  0.40461148257585428      ,   5.2603064919399105E-005 ,  0.41481258439592911      ,   3.5510915657252695E-005 ,  0.41344338988937507      ,   4.5835463704776275E-005
   13.999999999999998      ,   14.249999999999998      ,  0.35618297811724758      ,   1.7397869296881941E-005 ,  0.39900445729296080      ,   5.0014490822395164E-005 ,  0.40913953959958121      ,   3.8681081669624532E-005 ,  0.40774719694324446      ,   4.1413839627930271E-005
   14.249999999999998      ,   14.499999999999998      ,  0.35116395988491012      ,   1.7290459656846638E-005 ,  0.39374020662352188      ,   5.4121274176845126E-005 ,  0.40368201836882989      ,   3.5847995513874167E-005 ,  0.40235065812764864      ,   4.9457346600579459E-005
   14.499999999999998      ,   14.749999999999998      ,  0.34631026828466654      ,   1.7185312886586339E-005 ,  0.38849798808656777      ,   6.6856679192877434E-005 ,  0.39838294100629629      ,   3.6575092332977914E-005 ,  0.39703381575724345      ,   4.7198627213557951E-005
   14.749999999999998      ,   14.999999999999998      ,  0.34162822679166494      ,   1.7083645006389681E-005 ,  0.38360519937762111      ,   5.4173618760980825E-005 ,  0.39335356832428509      ,   4.3536904622967394E-005 ,  0.39199731641856522      ,   4.2615688365042807E-005
