 # xl, xh, LO, dLO, NLOnovp, dNLOnovp, NLOPSnovp, dNLOPSnovp, NLOvp, dNLOvp, NLOPSvp, dNLOPSvp, NLOvplt, dNLOvplt, NLOPSvplt, dNLOPSvplt
  0.45000000000000007      ,  0.46000000000000008      ,   0.0000000000000000      ,   0.0000000000000000      ,   0.0000000000000000      ,   0.0000000000000000      ,   3.3586477699585136E-002 ,   3.8269729680950556E-004 ,   0.0000000000000000      ,   0.0000000000000000      ,   3.3786165877333865E-002 ,   1.7943371931006778E-004 ,   0.0000000000000000      ,   0.0000000000000000      ,   3.4158758856766482E-002 ,   3.8116051457283385E-004
  0.46000000000000008      ,  0.47000000000000008      ,   0.0000000000000000      ,   0.0000000000000000      ,   0.0000000000000000      ,   0.0000000000000000      ,   4.0935097686249020E-002 ,   4.2288241212586698E-004 ,   0.0000000000000000      ,   0.0000000000000000      ,   4.1100379607699307E-002 ,   1.9554021844663178E-004 ,   0.0000000000000000      ,   0.0000000000000000      ,   4.1622294978187729E-002 ,   4.2047532714105206E-004
  0.47000000000000008      ,  0.48000000000000009      ,   0.0000000000000000      ,   0.0000000000000000      ,   0.0000000000000000      ,   0.0000000000000000      ,   4.6437503363922134E-002 ,   4.4567640843385108E-004 ,   0.0000000000000000      ,   0.0000000000000000      ,   4.7035876660122579E-002 ,   2.0636232254038806E-004 ,   0.0000000000000000      ,   0.0000000000000000      ,   4.7038725185913455E-002 ,   4.4375750608284563E-004
  0.48000000000000009      ,  0.49000000000000010      ,   0.0000000000000000      ,   0.0000000000000000      ,   0.0000000000000000      ,   0.0000000000000000      ,   5.2690499676477758E-002 ,   4.6007864474883624E-004 ,   0.0000000000000000      ,   0.0000000000000000      ,   5.3311092109240413E-002 ,   2.2034016531627366E-004 ,   0.0000000000000000      ,   0.0000000000000000      ,   5.3899284006982608E-002 ,   4.6260601881940866E-004
  0.49000000000000010      ,  0.50000000000000011      ,   0.0000000000000000      ,   0.0000000000000000      ,   0.0000000000000000      ,   0.0000000000000000      ,   5.8100251910618184E-002 ,   4.8339034798962631E-004 ,   0.0000000000000000      ,   0.0000000000000000      ,   5.8353572005971244E-002 ,   2.2342953942770954E-004 ,   0.0000000000000000      ,   0.0000000000000000      ,   5.9115771603942081E-002 ,   4.8268946542505739E-004
  0.50000000000000011      ,  0.51000000000000012      ,   0.0000000000000000      ,   0.0000000000000000      ,   0.0000000000000000      ,   0.0000000000000000      ,   6.3246092011989233E-002 ,   4.9885916902148674E-004 ,   0.0000000000000000      ,   0.0000000000000000      ,   6.3304058522862625E-002 ,   2.3013727311075880E-004 ,   0.0000000000000000      ,   0.0000000000000000      ,   6.4560823244863369E-002 ,   5.0063003616392435E-004
  0.51000000000000012      ,  0.52000000000000013      ,   0.0000000000000000      ,   0.0000000000000000      ,   0.0000000000000000      ,   0.0000000000000000      ,   6.6831904628780262E-002 ,   5.0753798684116409E-004 ,   0.0000000000000000      ,   0.0000000000000000      ,   6.7978157684392262E-002 ,   2.3692487596419849E-004 ,   0.0000000000000000      ,   0.0000000000000000      ,   6.7858606794988313E-002 ,   5.0561605990473858E-004
  0.52000000000000013      ,  0.53000000000000014      ,   0.0000000000000000      ,   0.0000000000000000      ,   0.0000000000000000      ,   0.0000000000000000      ,   7.1065281041187159E-002 ,   5.1715846608281436E-004 ,   0.0000000000000000      ,   0.0000000000000000      ,   7.2206213860513388E-002 ,   2.4041447150945791E-004 ,   0.0000000000000000      ,   0.0000000000000000      ,   7.2525004784219194E-002 ,   5.1467047842025345E-004
  0.53000000000000014      ,  0.54000000000000015      ,   0.0000000000000000      ,   0.0000000000000000      ,   0.0000000000000000      ,   0.0000000000000000      ,   7.4105232668790821E-002 ,   5.1941619259061769E-004 ,   0.0000000000000000      ,   0.0000000000000000      ,   7.5460598982600102E-002 ,   2.4441470553961228E-004 ,   0.0000000000000000      ,   0.0000000000000000      ,   7.5583353377803975E-002 ,   5.2064174167591238E-004
  0.54000000000000015      ,  0.55000000000000016      ,   0.0000000000000000      ,   0.0000000000000000      ,   0.0000000000000000      ,   0.0000000000000000      ,   7.6654996907304651E-002 ,   5.2720974143829775E-004 ,   0.0000000000000000      ,   0.0000000000000000      ,   7.7694422018728393E-002 ,   2.4490360666332064E-004 ,   0.0000000000000000      ,   0.0000000000000000      ,   7.8103442437529938E-002 ,   5.2703598579408766E-004
  0.55000000000000016      ,  0.56000000000000016      ,   0.0000000000000000      ,   0.0000000000000000      ,   0.0000000000000000      ,   0.0000000000000000      ,   7.8040471071205653E-002 ,   5.2185934269458696E-004 ,   0.0000000000000000      ,   0.0000000000000000      ,   7.8741811198175582E-002 ,   2.4283307247416051E-004 ,   0.0000000000000000      ,   0.0000000000000000      ,   7.9651332063692279E-002 ,   5.1984852856560735E-004
  0.56000000000000016      ,  0.57000000000000017      ,   0.0000000000000000      ,   0.0000000000000000      ,   0.0000000000000000      ,   0.0000000000000000      ,   7.8484283095568722E-002 ,   5.2071246010483650E-004 ,   0.0000000000000000      ,   0.0000000000000000      ,   7.8912271438442774E-002 ,   2.4046774483791665E-004 ,   0.0000000000000000      ,   0.0000000000000000      ,   8.0000802329398088E-002 ,   5.2009605753934867E-004
  0.57000000000000017      ,  0.58000000000000018      ,   0.0000000000000000      ,   0.0000000000000000      ,   0.0000000000000000      ,   0.0000000000000000      ,   7.6450530871076949E-002 ,   5.0414460130479772E-004 ,   0.0000000000000000      ,   0.0000000000000000      ,   7.7627567099458186E-002 ,   2.3810390596455287E-004 ,   0.0000000000000000      ,   0.0000000000000000      ,   7.7989939346385817E-002 ,   5.0345378395401559E-004
  0.58000000000000018      ,  0.59000000000000019      ,   0.0000000000000000      ,   0.0000000000000000      ,   0.0000000000000000      ,   0.0000000000000000      ,   7.2880057960838962E-002 ,   4.9284142964518861E-004 ,   0.0000000000000000      ,   0.0000000000000000      ,   7.3637290908642100E-002 ,   2.2840834462050570E-004 ,   0.0000000000000000      ,   0.0000000000000000      ,   7.4254124574157282E-002 ,   4.9190450716137012E-004
  0.59000000000000019      ,  0.60000000000000020      ,   0.0000000000000000      ,   0.0000000000000000      ,   0.0000000000000000      ,   0.0000000000000000      ,   6.6357669670299241E-002 ,   4.6383011207572059E-004 ,   0.0000000000000000      ,   0.0000000000000000      ,   6.7134264297581694E-002 ,   2.1708582410936221E-004 ,   0.0000000000000000      ,   0.0000000000000000      ,   6.7636613279440552E-002 ,   4.6167886155034342E-004
  0.60000000000000020      ,  0.61000000000000021      ,   0.0000000000000000      ,   0.0000000000000000      ,   0.0000000000000000      ,   0.0000000000000000      ,   5.7575008527642781E-002 ,   4.3351427905981863E-004 ,   0.0000000000000000      ,   0.0000000000000000      ,   5.7921111379047978E-002 ,   2.0256694280911311E-004 ,   0.0000000000000000      ,   0.0000000000000000      ,   5.8680804766479980E-002 ,   4.3346105205102967E-004
  0.61000000000000021      ,  0.62000000000000022      ,   0.0000000000000000      ,   0.0000000000000000      ,   0.0000000000000000      ,   0.0000000000000000      ,   4.9601395739649813E-002 ,   4.0241035670528599E-004 ,   0.0000000000000000      ,   0.0000000000000000      ,   4.9317604470132476E-002 ,   1.8375910318665890E-004 ,   0.0000000000000000      ,   0.0000000000000000      ,   5.0547219155006907E-002 ,   4.0635615451893662E-004
  0.62000000000000022      ,  0.63000000000000023      ,   0.0000000000000000      ,   0.0000000000000000      ,   0.0000000000000000      ,   0.0000000000000000      ,   4.2925617981938190E-002 ,   3.7259997716367321E-004 ,   0.0000000000000000      ,   0.0000000000000000      ,   4.3113566717950379E-002 ,   1.7570523160897618E-004 ,   0.0000000000000000      ,   0.0000000000000000      ,   4.3825242818731049E-002 ,   3.8349271633187851E-004
  0.63000000000000023      ,  0.64000000000000024      ,   0.0000000000000000      ,   0.0000000000000000      ,   0.0000000000000000      ,   0.0000000000000000      ,   3.6492852417328074E-002 ,   3.4487580171934848E-004 ,   0.0000000000000000      ,   0.0000000000000000      ,   3.6845091811426062E-002 ,   1.5852597798705749E-004 ,   0.0000000000000000      ,   0.0000000000000000      ,   3.7122786446256516E-002 ,   3.4440342053079391E-004
  0.64000000000000024      ,  0.65000000000000024      ,   0.0000000000000000      ,   0.0000000000000000      ,   0.0000000000000000      ,   0.0000000000000000      ,   3.2002548577313959E-002 ,   3.1572286862296419E-004 ,   0.0000000000000000      ,   0.0000000000000000      ,   3.1980015791945565E-002 ,   1.4660079503937915E-004 ,   0.0000000000000000      ,   0.0000000000000000      ,   3.2656980039968773E-002 ,   3.1684474237577293E-004
  0.65000000000000024      ,  0.66000000000000025      ,   0.0000000000000000      ,   0.0000000000000000      ,   0.0000000000000000      ,   0.0000000000000000      ,   2.8000324792134535E-002 ,   3.1052601991525124E-004 ,   0.0000000000000000      ,   0.0000000000000000      ,   2.8118188651298139E-002 ,   1.3903119101481751E-004 ,   0.0000000000000000      ,   0.0000000000000000      ,   2.8539040422219421E-002 ,   3.0702280894049088E-004
  0.66000000000000025      ,  0.67000000000000026      ,   0.0000000000000000      ,   0.0000000000000000      ,   0.0000000000000000      ,   0.0000000000000000      ,   2.4741494710143704E-002 ,   2.8077977925697860E-004 ,   0.0000000000000000      ,   0.0000000000000000      ,   2.4907160476129314E-002 ,   1.3306810794048028E-004 ,   0.0000000000000000      ,   0.0000000000000000      ,   2.5191644793295626E-002 ,   2.8014932210702626E-004
  0.67000000000000026      ,  0.68000000000000027      ,   0.0000000000000000      ,   0.0000000000000000      ,   0.0000000000000000      ,   0.0000000000000000      ,   2.2591172394497996E-002 ,   2.6665382166072313E-004 ,   0.0000000000000000      ,   0.0000000000000000      ,   2.2286617337355378E-002 ,   1.2582996511193415E-004 ,   0.0000000000000000      ,   0.0000000000000000      ,   2.2986645719566032E-002 ,   2.6578844161329805E-004
  0.68000000000000027      ,  0.69000000000000028      ,   0.0000000000000000      ,   0.0000000000000000      ,   0.0000000000000000      ,   0.0000000000000000      ,   1.9727594064886226E-002 ,   2.4697300714666010E-004 ,   0.0000000000000000      ,   0.0000000000000000      ,   2.0300636038837257E-002 ,   1.1524390908324304E-004 ,   0.0000000000000000      ,   0.0000000000000000      ,   2.0241988789597355E-002 ,   2.4716237913280039E-004
  0.69000000000000028      ,  0.70000000000000029      ,   0.0000000000000000      ,   0.0000000000000000      ,   0.0000000000000000      ,   0.0000000000000000      ,   1.8584783022179325E-002 ,   2.3071501666029081E-004 ,   0.0000000000000000      ,   0.0000000000000000      ,   1.8737663691053168E-002 ,   1.0907785150531813E-004 ,   0.0000000000000000      ,   0.0000000000000000      ,   1.8928686947034451E-002 ,   2.3050466502274412E-004
  0.70000000000000029      ,  0.71000000000000030      ,   0.0000000000000000      ,   0.0000000000000000      ,   0.0000000000000000      ,   0.0000000000000000      ,   1.7691487277550530E-002 ,   2.2376110564656900E-004 ,   0.0000000000000000      ,   0.0000000000000000      ,   1.7752717991468738E-002 ,   1.0661815257449763E-004 ,   0.0000000000000000      ,   0.0000000000000000      ,   1.8000244641438470E-002 ,   2.2506541614886403E-004
  0.71000000000000030      ,  0.72000000000000031      ,   0.0000000000000000      ,   0.0000000000000000      ,   0.0000000000000000      ,   0.0000000000000000      ,   1.6662258248524169E-002 ,   2.0944761852852530E-004 ,   0.0000000000000000      ,   0.0000000000000000      ,   1.6985825662261408E-002 ,   1.0231146395265364E-004 ,   0.0000000000000000      ,   0.0000000000000000      ,   1.7053034655704822E-002 ,   2.0906613485387567E-004
  0.72000000000000031      ,  0.73000000000000032      ,   0.0000000000000000      ,   0.0000000000000000      ,   0.0000000000000000      ,   0.0000000000000000      ,   1.6467569448372875E-002 ,   2.1177153230030727E-004 ,   0.0000000000000000      ,   0.0000000000000000      ,   1.6254194190697221E-002 ,   9.5849756603741745E-005 ,   0.0000000000000000      ,   0.0000000000000000      ,   1.6916036608071491E-002 ,   2.1260238486901255E-004
  0.73000000000000032      ,  0.74000000000000032      ,   0.0000000000000000      ,   0.0000000000000000      ,   0.0000000000000000      ,   0.0000000000000000      ,   1.6317760602377926E-002 ,   2.1726090029585711E-004 ,   0.0000000000000000      ,   0.0000000000000000      ,   1.6339109531993423E-002 ,   9.8508188392718458E-005 ,   0.0000000000000000      ,   0.0000000000000000      ,   1.6668209051576791E-002 ,   2.2021708144645481E-004
  0.74000000000000032      ,  0.75000000000000033      ,   0.0000000000000000      ,   0.0000000000000000      ,   0.0000000000000000      ,   0.0000000000000000      ,   1.6024274762384130E-002 ,   2.3181077943923201E-004 ,   0.0000000000000000      ,   0.0000000000000000      ,   1.6097981083759580E-002 ,   9.3014110522689363E-005 ,   0.0000000000000000      ,   0.0000000000000000      ,   1.6310606122339359E-002 ,   2.2862883603697924E-004
  0.75000000000000033      ,  0.76000000000000034      ,   0.0000000000000000      ,   0.0000000000000000      ,   0.0000000000000000      ,   0.0000000000000000      ,   1.6128882785068247E-002 ,   1.8846387623232331E-004 ,   0.0000000000000000      ,   0.0000000000000000      ,   1.6132102814910055E-002 ,   8.8943423143648313E-005 ,   0.0000000000000000      ,   0.0000000000000000      ,   1.6427235981175820E-002 ,   1.8800876221298065E-004
  0.76000000000000034      ,  0.77000000000000035      ,   0.0000000000000000      ,   0.0000000000000000      ,   0.0000000000000000      ,   0.0000000000000000      ,   1.6183580241996700E-002 ,   1.8885234072933059E-004 ,   0.0000000000000000      ,   0.0000000000000000      ,   1.6397008784654818E-002 ,   8.8678970236858554E-005 ,   0.0000000000000000      ,   0.0000000000000000      ,   1.6567077623215184E-002 ,   1.8906482402481577E-004
  0.77000000000000035      ,  0.78000000000000036      ,   0.0000000000000000      ,   0.0000000000000000      ,   0.0000000000000000      ,   0.0000000000000000      ,   1.6546864434804784E-002 ,   1.8527836513438121E-004 ,   0.0000000000000000      ,   0.0000000000000000      ,   1.6524214442141267E-002 ,   8.4565505046856849E-005 ,   0.0000000000000000      ,   0.0000000000000000      ,   1.6842031206893950E-002 ,   1.8381532182718739E-004
  0.78000000000000036      ,  0.79000000000000037      ,   0.0000000000000000      ,   0.0000000000000000      ,   0.0000000000000000      ,   0.0000000000000000      ,   1.7034555035184373E-002 ,   1.8989688549466514E-004 ,   0.0000000000000000      ,   0.0000000000000000      ,   1.6921164302623977E-002 ,   8.2662426633680006E-005 ,   0.0000000000000000      ,   0.0000000000000000      ,   1.7314596662979860E-002 ,   1.8743715158676900E-004
  0.79000000000000037      ,  0.80000000000000038      ,   0.0000000000000000      ,   0.0000000000000000      ,   0.0000000000000000      ,   0.0000000000000000      ,   1.8032406851594570E-002 ,   3.3040097104187929E-004 ,   0.0000000000000000      ,   0.0000000000000000      ,   1.7656194985886876E-002 ,   8.8852779140609854E-005 ,   0.0000000000000000      ,   0.0000000000000000      ,   1.8360206393394956E-002 ,   3.0558157018625680E-004
  0.80000000000000038      ,  0.81000000000000039      ,   0.0000000000000000      ,   0.0000000000000000      ,   0.0000000000000000      ,   0.0000000000000000      ,   1.8148434794046164E-002 ,   1.7560196645860981E-004 ,   0.0000000000000000      ,   0.0000000000000000      ,   1.8376783848069952E-002 ,   8.1078088368609832E-005 ,   0.0000000000000000      ,   0.0000000000000000      ,   1.8427685885584352E-002 ,   1.7461720976076124E-004
  0.81000000000000039      ,  0.82000000000000040      ,   0.0000000000000000      ,   0.0000000000000000      ,   0.0000000000000000      ,   0.0000000000000000      ,   1.9253310433732684E-002 ,   1.7702501982285943E-004 ,   0.0000000000000000      ,   0.0000000000000000      ,   1.9168941940967809E-002 ,   8.1356506170470608E-005 ,   0.0000000000000000      ,   0.0000000000000000      ,   1.9714396859649208E-002 ,   1.7833006151676199E-004
  0.82000000000000040      ,  0.83000000000000040      ,   0.0000000000000000      ,   0.0000000000000000      ,   0.0000000000000000      ,   0.0000000000000000      ,   2.0101291875434895E-002 ,   1.6954172873354461E-004 ,   0.0000000000000000      ,   0.0000000000000000      ,   2.0313203436240792E-002 ,   8.0258427420260158E-005 ,   0.0000000000000000      ,   0.0000000000000000      ,   2.0551255529337002E-002 ,   1.6891249652660270E-004
  0.83000000000000040      ,  0.84000000000000041      ,   0.0000000000000000      ,   0.0000000000000000      ,   0.0000000000000000      ,   0.0000000000000000      ,   2.1598270863876053E-002 ,   1.6571395507470341E-004 ,   0.0000000000000000      ,   0.0000000000000000      ,   2.1516025392729954E-002 ,   8.7566761649621460E-005 ,   0.0000000000000000      ,   0.0000000000000000      ,   2.2044702337858754E-002 ,   1.6583527527174531E-004
  0.84000000000000041      ,  0.85000000000000042      ,   0.0000000000000000      ,   0.0000000000000000      ,   0.0000000000000000      ,   0.0000000000000000      ,   2.3569593142111697E-002 ,   5.9636836175679510E-004 ,   0.0000000000000000      ,   0.0000000000000000      ,   2.3150140086865199E-002 ,   1.0551226215940474E-004 ,   0.0000000000000000      ,   0.0000000000000000      ,   2.4087066831234315E-002 ,   5.5822875683890071E-004
  0.85000000000000042      ,  0.86000000000000043      ,   0.0000000000000000      ,   0.0000000000000000      ,   0.0000000000000000      ,   0.0000000000000000      ,   2.4861916912024266E-002 ,   1.5918716676305406E-004 ,   0.0000000000000000      ,   0.0000000000000000      ,   2.5052135088129968E-002 ,   7.5733583822469361E-005 ,   0.0000000000000000      ,   0.0000000000000000      ,   2.5443841610923119E-002 ,   1.5946188316096581E-004
  0.86000000000000043      ,  0.87000000000000044      ,   0.0000000000000000      ,   0.0000000000000000      ,   0.0000000000000000      ,   0.0000000000000000      ,   2.7703892664619319E-002 ,   1.6557023702808192E-004 ,   0.0000000000000000      ,   0.0000000000000000      ,   2.7707771335015254E-002 ,   7.6967911510116880E-005 ,   0.0000000000000000      ,   0.0000000000000000      ,   2.8389109775726947E-002 ,   1.6858947335241024E-004
  0.87000000000000044      ,  0.88000000000000045      ,   0.0000000000000000      ,   0.0000000000000000      ,   0.0000000000000000      ,   0.0000000000000000      ,   3.1569784329662502E-002 ,   1.7329735259568132E-004 ,   0.0000000000000000      ,   0.0000000000000000      ,   3.1731489509472258E-002 ,   1.3364183875189865E-004 ,   0.0000000000000000      ,   0.0000000000000000      ,   3.2268427820821080E-002 ,   1.7413378753148537E-004
  0.88000000000000045      ,  0.89000000000000046      ,   0.0000000000000000      ,   0.0000000000000000      ,   0.0000000000000000      ,   0.0000000000000000      ,   3.8054438754367870E-002 ,   5.0339737738361225E-004 ,   0.0000000000000000      ,   0.0000000000000000      ,   3.7488146318218181E-002 ,   1.0783572555688787E-004 ,   0.0000000000000000      ,   0.0000000000000000      ,   3.8976145777812631E-002 ,   5.6674960260977715E-004
  0.89000000000000046      ,  0.90000000000000047      ,   0.0000000000000000      ,   0.0000000000000000      ,   0.0000000000000000      ,   0.0000000000000000      ,   4.7559815612460546E-002 ,   2.1146077380200225E-004 ,   0.0000000000000000      ,   0.0000000000000000      ,   4.7558524004199007E-002 ,   9.1141929841836341E-005 ,   0.0000000000000000      ,   0.0000000000000000      ,   4.8784783030946986E-002 ,   2.1212959609427353E-004
  0.90000000000000047      ,  0.91000000000000048      ,   0.0000000000000000      ,   0.0000000000000000      ,   2.3505307433758799E-003 ,   1.3686746364713715E-005 ,   7.1904007957496949E-002 ,   2.5046037806297864E-004 ,   2.3505287508625628E-003 ,   6.4869371885284955E-006 ,   7.2199036682051840E-002 ,   1.3583828311364464E-004 ,   2.3442655527186294E-003 ,   1.8101316618740454E-005 ,   7.3549392819237600E-002 ,   2.5174678718751603E-004
  0.91000000000000048      ,  0.92000000000000048      ,   0.0000000000000000      ,   0.0000000000000000      ,  0.33342044343471838      ,   1.5746636008215787E-004 ,  0.36124843494756337      ,   5.3713094623234923E-004 ,  0.33325002052418751      ,   7.4923285507076491E-005 ,  0.36255178542770061      ,   2.7013458867771600E-004 ,  0.33336366873351309      ,   2.0959943389178509E-004 ,  0.36940718519194538      ,   5.3803491145684149E-004
  0.92000000000000048      ,  0.93000000000000049      ,   0.0000000000000000      ,   0.0000000000000000      ,  0.87515026979105182      ,   2.0475439687845498E-004 ,  0.74855988306136767      ,   6.1259880398424767E-004 ,  0.87513112918770664      ,   9.7558052857983903E-005 ,  0.75022169402570305      ,   3.1163924062710321E-004 ,  0.87520755090539881      ,   2.7258998639752725E-004 ,  0.76592269643830857      ,   6.1428824295523964E-004
  0.93000000000000049      ,  0.94000000000000050      ,   0.0000000000000000      ,   0.0000000000000000      ,  0.81798681028715348      ,   1.3507333389384076E-004 ,  0.60369745800446406      ,   3.7305101433320059E-004 ,  0.81810963907163292      ,   6.4354010183427643E-005 ,  0.60465900782775550      ,   1.7223988624236254E-004 ,  0.81791955335642241      ,   1.7977958011210920E-004 ,  0.61775492029259793      ,   3.7409748468158349E-004
  0.94000000000000050      ,  0.95000000000000051      ,   0.0000000000000000      ,   0.0000000000000000      ,   2.5117450772808116E-003 ,   4.3948702892470111E-006 ,   1.4604338395652603E-003 ,   9.9314461678254063E-006 ,   2.5055994920200136E-003 ,   2.0834423438458448E-006 ,   1.4730992682060271E-003 ,   4.6496342542167933E-006 ,   2.5120499276791624E-003 ,   5.8396764490391132E-006 ,   1.4935406634238083E-003 ,   9.9860342627062321E-006
  0.95000000000000051      ,  0.96000000000000052      ,   0.0000000000000000      ,   0.0000000000000000      ,   0.0000000000000000      ,   0.0000000000000000      ,   0.0000000000000000      ,   0.0000000000000000      ,   0.0000000000000000      ,   0.0000000000000000      ,   0.0000000000000000      ,   0.0000000000000000      ,   0.0000000000000000      ,   0.0000000000000000      ,   0.0000000000000000      ,   0.0000000000000000     
  0.96000000000000052      ,  0.97000000000000053      ,   0.0000000000000000      ,   0.0000000000000000      ,   0.0000000000000000      ,   0.0000000000000000      ,   0.0000000000000000      ,   0.0000000000000000      ,   0.0000000000000000      ,   0.0000000000000000      ,   0.0000000000000000      ,   0.0000000000000000      ,   0.0000000000000000      ,   0.0000000000000000      ,   0.0000000000000000      ,   0.0000000000000000     
  0.97000000000000053      ,  0.98000000000000054      ,   0.0000000000000000      ,   0.0000000000000000      ,   0.0000000000000000      ,   0.0000000000000000      ,   0.0000000000000000      ,   0.0000000000000000      ,   0.0000000000000000      ,   0.0000000000000000      ,   0.0000000000000000      ,   0.0000000000000000      ,   0.0000000000000000      ,   0.0000000000000000      ,   0.0000000000000000      ,   0.0000000000000000     
  0.98000000000000054      ,  0.99000000000000055      ,   0.0000000000000000      ,   0.0000000000000000      ,   0.0000000000000000      ,   0.0000000000000000      ,   0.0000000000000000      ,   0.0000000000000000      ,   0.0000000000000000      ,   0.0000000000000000      ,   0.0000000000000000      ,   0.0000000000000000      ,   0.0000000000000000      ,   0.0000000000000000      ,   0.0000000000000000      ,   0.0000000000000000     
  0.99000000000000055      ,   1.0000000000000004      ,   0.0000000000000000      ,   0.0000000000000000      ,   0.0000000000000000      ,   0.0000000000000000      ,   0.0000000000000000      ,   0.0000000000000000      ,   0.0000000000000000      ,   0.0000000000000000      ,   0.0000000000000000      ,   0.0000000000000000      ,   0.0000000000000000      ,   0.0000000000000000      ,   0.0000000000000000      ,   0.0000000000000000     
