 # xl, xh, LO, dLO, NLOnovp, dNLOnovp, NLOPSnovp, dNLOPSnovp, NLOvp, dNLOvp, NLOPSvp, dNLOPSvp, NLOvplt, dNLOvplt, NLOPSvplt, dNLOPSvplt
   1.0000000000000000      ,   1.0228318530717964      ,   2755.2382312933846      ,   4.7309833697633131E-003 ,   2580.5075784761329      ,   1.5038484318126615E-002 ,   2583.9604043131153      ,   1.3942251512387767E-002 ,   2642.2645563046090      ,   8.4115040873153635E-003 ,   2642.6549272847378      ,   8.3469204461002148E-003 ,   2632.8179618988388      ,   1.4783278253339777E-002 ,   2633.6162039010956      ,   1.4463206540691009E-002
   1.0228318530717964      ,   1.0456637061435927      ,   2543.7479628791352      ,   4.5467139461966141E-003 ,   2379.8220066498093      ,   1.4554078413893017E-002 ,   2383.2295323896919      ,   1.3348849792847218E-002 ,   2437.3551729680848      ,   8.1374653700520185E-003 ,   2437.8445732952550      ,   8.0196068467525972E-003 ,   2428.4016029356449      ,   1.4303160361055386E-002 ,   2429.3023543817530      ,   1.3848702241329322E-002
   1.0456637061435927      ,   1.0684955592153891      ,   2352.4218007679756      ,   4.3731907188220209E-003 ,   2198.5046495585220      ,   1.4096411058768018E-002 ,   2201.8256262739542      ,   1.2857832716617095E-002 ,   2252.1324372085023      ,   7.8786957506335673E-003 ,   2252.7017202399998      ,   7.6942949751987941E-003 ,   2243.6885461369939      ,   1.3849735329944296E-002 ,   2244.6362592016749      ,   1.3343693140824942E-002
   1.0684955592153891      ,   1.0913274122871854      ,   2178.9980791191397      ,   4.2096111168474443E-003 ,   2034.3606758875285      ,   1.3663545036953400E-002 ,   2037.5812719950563      ,   1.2320044957619760E-002 ,   2084.4051191962199      ,   7.6340961993424782E-003 ,   2085.0477237827531      ,   7.4135654733927248E-003 ,   2076.4444850307614      ,   1.3421062395254384E-002 ,   2077.4222319026803      ,   1.2779639195873835E-002
   1.0913274122871854      ,   1.1141592653589818      ,   2021.5678511666304      ,   4.0553059443124645E-003 ,   1885.5407330400799      ,   1.3253917014490066E-002 ,   1888.6615320701821      ,   1.1866996228619302E-002 ,   1932.3073901635182      ,   7.4027978097883128E-003 ,   1932.9786046973250      ,   7.1384649957747211E-003 ,   1924.7970726666513      ,   1.3015567001248632E-002 ,   1925.8049559762385      ,   1.2312178047445584E-002
   1.1141592653589818      ,   1.1369911184307782      ,   1878.4765679453576      ,   3.9096901703336365E-003 ,   1750.3817479769455      ,   1.2866157182557745E-002 ,   1753.4257890425863      ,   1.1465623142095593E-002 ,   1794.1387712454791      ,   7.1839587010520383E-003 ,   1794.8700569800380      ,   6.8717508093427701E-003 ,   1787.0603084831521      ,   1.2631869731651622E-002 ,   1788.0954925015517      ,   1.1901696394254349E-002
   1.1369911184307782      ,   1.1598229715025745      ,   1748.1873763473072      ,   3.7721417223932014E-003 ,   1627.4411176035392      ,   1.2498825044816902E-002 ,   1630.4075880309931      ,   1.1042728511377950E-002 ,   1668.4690486168070      ,   6.9768181035770602E-003 ,   1669.1991393612579      ,   6.6023191981569480E-003 ,   1661.7575800611598      ,   1.2268520616902010E-002 ,   1662.8199254654342      ,   1.1468089493365946E-002
   1.1598229715025745      ,   1.1826548245743709      ,   1629.4205786749126      ,   3.6421710285519889E-003 ,   1515.5061688559892      ,   1.2150718726083674E-002 ,   1518.3765676727762      ,   1.0603149230264702E-002 ,   1553.9676333558320      ,   6.7806258895169282E-003 ,   1554.7386447224665      ,   6.3585326251458492E-003 ,   1547.6564456252247      ,   1.1924315868531311E-002 ,   1548.7224690133226      ,   1.1003910534336964E-002
   1.1826548245743709      ,   1.2054866776461672      ,   1521.0031245068817      ,   3.5192827644361787E-003 ,   1413.4435598216583      ,   1.1820852031755463E-002 ,   1416.2276037135102      ,   1.0327588136610815E-002 ,   1449.5427958019311      ,   6.5948077701795923E-003 ,   1450.3229863908764      ,   6.1991188118347747E-003 ,   1443.6080678400917      ,   1.1598258094057848E-002 ,   1444.6762553861586      ,   1.0716331941453704E-002
   1.2054866776461672      ,   1.2283185307179636      ,   1421.8964984026438      ,   3.4030205850414928E-003 ,   1320.2193660735502      ,   1.1508010234556432E-002 ,   1322.9110983518933      ,   9.9589180140067027E-003 ,   1354.1609954152636      ,   6.4187499910409633E-003 ,   1354.9486432228987      ,   6.1022995007101472E-003 ,   1348.5621653178132      ,   1.1289126372592575E-002 ,   1349.6229594547735      ,   1.0344169261426044E-002
   1.2283185307179636      ,   1.2511503837897600      ,   1331.1988861929267      ,   3.2929866073840297E-003 ,   1235.0201375665847      ,   1.1211331765218666E-002 ,   1237.5913994563175      ,   9.7152997032255994E-003 ,   1266.9460319844782      ,   6.2518954873855802E-003 ,   1267.7238756511263      ,   5.7658176946819304E-003 ,   1261.6860544181823      ,   1.0996078070323326E-002 ,   1262.7020636264556      ,   1.0083341654724617E-002
   1.2511503837897600      ,   1.2739822368615563      ,   1248.0992540979223      ,   3.1888041110486134E-003 ,   1156.9969579313536      ,   1.0929873430332419E-002 ,   1159.4809043589714      ,   9.2483838761729907E-003 ,   1187.0716595316401      ,   6.0937068250013042E-003 ,   1187.8447419185848      ,   5.5404631436396547E-003 ,   1182.1206478435713      ,   1.0718141948125415E-002 ,   1183.1278677745356      ,   9.6010452303246542E-003
   1.2739822368615563      ,   1.2968140899333527      ,   1171.8694391204351      ,   3.0901160452675852E-003 ,   1085.5199414189931      ,   1.0662838185403320E-002 ,   1087.9057655172230      ,   8.9911327043893895E-003 ,   1113.8643912845268      ,   5.9437427942359983E-003 ,   1114.6366944607803      ,   5.3787263918194210E-003 ,   1109.2195822060412      ,   1.0454528624615433E-002 ,   1110.2028124416747      ,   9.3367501416452958E-003
   1.2968140899333527      ,   1.3196459430051490      ,   1101.8615323470462      ,   2.9965939930609638E-003 ,   1019.9229812252048      ,   1.0409569648412550E-002 ,   1022.2312331855780      ,   9.1238406533501459E-003 ,   1046.6682874730425      ,   5.8015997366288336E-003 ,   1047.4247303628249      ,   5.3204793304897609E-003 ,   1042.3124442495052      ,   1.0204589335186847E-002 ,   1043.2785643720490      ,   9.4971456728086406E-003
   1.3196459430051490      ,   1.3424777960769454      ,   1037.4961038189599      ,   2.9079344743750419E-003 ,   959.65234752148717      ,   1.0169233338420928E-002 ,   961.89285619111035      ,   8.4548051924933192E-003 ,   984.92829278786439      ,   5.6668005318380038E-003 ,   985.66360875919474      ,   5.0522013063717657E-003 ,   980.82838986402703      ,   9.9674567276148759E-003 ,   981.78925174592041      ,   8.7750175641489233E-003
   1.3424777960769454      ,   1.3653096491487418      ,   978.25875801137056      ,   2.8238583891833148E-003 ,   904.24764348874237      ,   9.9413186087846002E-003 ,   906.39835401638823      ,   8.1410667016671087E-003 ,   928.13107959287083      ,   5.5390445454461448E-003 ,   928.87430311362607      ,   4.9511511434513818E-003 ,   924.30720702195845      ,   9.7426476594270651E-003 ,   925.23255627696904      ,   8.4546963369719324E-003
   1.3653096491487418      ,   1.3881415022205381      ,   923.68208082832825      ,   2.7441017827776627E-003 ,   853.23337014156562      ,   9.7249031350863761E-003 ,   855.30231353765669      ,   7.9157240430037818E-003 ,   875.84504409578608      ,   5.4178753000824892E-003 ,   876.55045765476393      ,   4.7538853384951809E-003 ,   872.25601560933296      ,   9.5292654188326512E-003 ,   873.15460810272248      ,   8.2247172365082066E-003
   1.3881415022205381      ,   1.4109733552923345      ,   873.33941916685274      ,   2.6684033502535915E-003 ,   806.20834223684733      ,   9.5197348978831968E-003 ,   808.20683653969354      ,   7.7432615058102717E-003 ,   827.62334131430828      ,   5.3030672927896396E-003 ,   828.32843538290058      ,   4.6284652495849916E-003 ,   824.26941003698050      ,   9.3269951816047116E-003 ,   825.15182007330588      ,   8.0452526939535380E-003
   1.4109733552923345      ,   1.4338052083641308      ,   826.86375803955207      ,   2.5965477927246887E-003 ,   762.83745815289797      ,   9.3249308343408381E-003 ,   764.76535217082903      ,   7.4687644115045276E-003 ,   783.12954357814237      ,   5.1941816377970955E-003 ,   783.82893499680586      ,   4.4864605525154182E-003 ,   780.01180427269946      ,   9.1350127449663920E-003 ,   780.86743516340960      ,   7.7632863571862904E-003
   1.4338052083641308      ,   1.4566370614359272      ,   783.91690523967372      ,   2.5283218523488400E-003 ,   722.79193604154909      ,   9.1403194062689170E-003 ,   724.62898245779445      ,   7.3584174315028516E-003 ,   742.03778925906363      ,   5.0910256668342917E-003 ,   742.71024604146965      ,   4.4119993701201695E-003 ,   739.14005842716847      ,   8.9531144452445598E-003 ,   739.94767320837832      ,   7.6533759080817595E-003
   1.4566370614359272      ,   1.4794689145077236      ,   744.17947252991280      ,   2.4635011283334835E-003 ,   685.76773223366195      ,   8.9651586007046934E-003 ,   687.53523839877948      ,   7.1066459590159248E-003 ,   704.04653412057360      ,   4.9933052294265610E-003 ,   704.70353814917030      ,   4.2660792888196773E-003 ,   701.35083481228912      ,   8.7805741956683975E-003 ,   702.13256498322210      ,   7.3851047244308365E-003
   1.4794689145077236      ,   1.5023007675795199      ,   707.38618306922808      ,   2.4019147778889570E-003 ,   651.49166793841709      ,   8.7990345181219558E-003 ,   653.19069823808013      ,   6.9121743209585315E-003 ,   668.86980187145332      ,   4.9007084770617600E-003 ,   669.50557424638066      ,   5.1798225407435582E-003 ,   666.36316063137735      ,   8.6169952205349433E-003 ,   667.11104929373801      ,   7.1819804298879613E-003
   1.5023007675795199      ,   1.5251326206513163      ,   673.27050677790658      ,   2.3433564849729693E-003 ,   619.75681058331668      ,   8.6417156899460425E-003 ,   621.38869875780483      ,   6.7493670061620952E-003 ,   636.27714662828066      ,   4.8130357761453323E-003 ,   636.88815568157383      ,   4.0610646576835548E-003 ,   633.96549315359312      ,   8.4620957119151755E-003 ,   634.68420277264454      ,   7.0157035458586689E-003
   1.5251326206513163      ,   1.5479644737231126      ,   641.62711757354930      ,   2.2876945986986031E-003 ,   590.31438898976478      ,   8.4924681262421881E-003 ,   591.88624759609706      ,   6.5870936591611081E-003 ,   606.04963468958010      ,   4.7300131743161170E-003 ,   606.63693892040249      ,   4.0465619553526873E-003 ,   603.90536299852158      ,   8.3151960598673736E-003 ,   604.60080777620942      ,   6.8484803607485982E-003
   1.5479644737231126      ,   1.5707963267949090      ,   612.22675026645641      ,   2.2347306939103822E-003 ,   562.96836419345095      ,   8.3512827829457029E-003 ,   564.50573128941198      ,   6.4388627529876497E-003 ,   577.95616587609948      ,   4.6514732077501952E-003 ,   578.55006069344904      ,   3.8831507218999497E-003 ,   575.98486860904677      ,   8.1762391682916134E-003 ,   576.67313986106683      ,   6.6963017946097235E-003
   1.5707963267949090      ,   1.5936281798667054      ,   584.89578990822770      ,   2.1843369817357130E-003 ,   537.59179214245034      ,   8.2173432797334571E-003 ,   539.05056720590392      ,   6.2806406580534959E-003 ,   551.87419198634416      ,   4.5771222066457598E-003 ,   552.44159631531022      ,   3.7754235602176934E-003 ,   550.06801422483159      ,   8.0444809174781973E-003 ,   550.71134679190266      ,   6.5315851719173834E-003
   1.5936281798667054      ,   1.6164600329385017      ,   559.45293447766198      ,   2.1363518840819291E-003 ,   513.98092344935787      ,   8.0905698418204230E-003 ,   515.36891742161970      ,   6.1527318502485025E-003 ,   527.59960412647422      ,   4.5068211293502799E-003 ,   528.13894977497205      ,   3.7124329032141145E-003 ,   525.95729555672096      ,   7.9198072034312138E-003 ,   526.55950023881564      ,   6.4004574747702110E-003
   1.6164600329385017      ,   1.6392918860102981      ,   535.75670368022804      ,   2.0906665024358457E-003 ,   491.97409682379913      ,   7.9705725591880869E-003 ,   493.32827999359938      ,   6.0362719049822690E-003 ,   504.97686603634247      ,   4.4403052615856718E-003 ,   505.50699039730159      ,   3.6195931050821400E-003 ,   503.48158148023731      ,   7.8018102888796504E-003 ,   504.07431121763921      ,   6.2766020041699769E-003
   1.6392918860102981      ,   1.6621237390820944      ,   513.65031590829551      ,   2.0471230486836783E-003 ,   471.45070918180431      ,   7.8569623055853507E-003 ,   472.77401955721723      ,   5.9275198663799340E-003 ,   483.88158427962492      ,   4.3774626794519256E-003 ,   484.40426183679676      ,   3.5439139696726452E-003 ,   482.51919118253795      ,   7.6901227057573256E-003 ,   483.10752512078517      ,   6.1662428693047191E-003
   1.6621237390820944      ,   1.6849555921538908      ,   493.00867308487227      ,   2.0056081394447807E-003 ,   452.31821704173296      ,   7.7493823137097084E-003 ,   453.57611829215585      ,   5.8424350699565562E-003 ,   464.19574411424571      ,   4.3180123002214306E-003 ,   464.69784400968166      ,   3.4858211835282937E-003 ,   462.97436967036572      ,   7.5844086778588636E-003 ,   463.52039347967525      ,   6.0793319663432427E-003
   1.6849555921538908      ,   1.7077874452256872      ,   473.71854945306870      ,   1.9660157682669993E-003 ,   434.42319491817818      ,   7.6478594564104658E-003 ,   435.64381373991279      ,   5.6427587297618979E-003 ,   445.78922688010152      ,   4.2619313063972427E-003 ,   446.28595021047892      ,   3.4552512517341716E-003 ,   444.69453860354542      ,   7.4846708883959286E-003 ,   445.22508999863277      ,   5.8686313681890374E-003
   1.7077874452256872      ,   1.7306192982974835      ,   455.65884878153997      ,   1.9282097430689950E-003 ,   417.70127681051923      ,   7.5516873594863804E-003 ,   418.87370916307196      ,   5.5383454331294048E-003 ,   428.57287527152386      ,   4.2088959939300258E-003 ,   429.04943918107261      ,   3.3368855237122788E-003 ,   427.61026467570338      ,   7.3902251141239432E-003 ,   428.11534588614336      ,   5.7613492880402165E-003
   1.7306192982974835      ,   1.7534511513692799      ,   438.74182532038185      ,   1.8921082106343678E-003 ,   402.01376503973512      ,   7.4607403334554737E-003 ,   403.16425369301948      ,   5.4585006480760709E-003 ,   412.43632991227855      ,   4.1588729014813376E-003 ,   412.90146461835411      ,   3.2725610437020171E-003 ,   411.58460500290136      ,   7.3009346185344826E-003 ,   412.08393030134641      ,   5.6819454783605117E-003
   1.7534511513692799      ,   1.7762830044410762      ,   422.87064683150226      ,   1.8575981620634115E-003 ,   387.31079645121110      ,   7.3748581361621404E-003 ,   388.42649889877822      ,   5.4657614637017068E-003 ,   397.29723940864824      ,   4.1116517066608748E-003 ,   397.75617455583870      ,   3.2486627579421897E-003 ,   396.56023972794111      ,   7.2166376235067589E-003 ,   397.04095136738238      ,   5.5648132337197918E-003
   1.7762830044410762      ,   1.7991148575128726      ,   407.96149615475122      ,   1.8245838641095424E-003 ,   373.49658151988052      ,   7.2936573347368973E-003 ,   374.56310245915506      ,   5.2592021852868095E-003 ,   383.08076507110405      ,   4.0670627911387645E-003 ,   383.51391977913022      ,   3.1532862258405328E-003 ,   382.44553976543313      ,   7.1369768425749202E-003 ,   382.89591283251514      ,   5.4730055432886567E-003
   1.7991148575128726      ,   1.8219467105846689      ,   393.93543539044686      ,   1.7929684301177626E-003 ,   360.52400368295207      ,   7.2167552332541417E-003 ,   361.56573736707833      ,   5.1928753824909760E-003 ,   369.70932307151281      ,   4.0249896247179151E-003 ,   370.13934742622803      ,   3.1472179883078200E-003 ,   369.18410733763153      ,   7.0615524847646646E-003 ,   369.63047171570003      ,   5.4043497996915978E-003
   1.8219467105846689      ,   1.8447785636564653      ,   380.72655559361237      ,   1.7626749984742511E-003 ,   348.29141658368786      ,   7.1440942700323135E-003 ,   349.28845266724454      ,   5.0632098048230979E-003 ,   357.10754920036368      ,   3.9852302315854888E-003 ,   357.52589671324279      ,   3.0495885765801853E-003 ,   356.68331155892088      ,   6.9903352269881135E-003 ,   357.09703860900851      ,   5.2699947563432971E-003
   1.8447785636564653      ,   1.8676104167282617      ,   368.26400293195354      ,   1.7336065957853468E-003 ,   336.75891264662101      ,   7.0755318025403262E-003 ,   337.72665611839795      ,   5.0156493900483882E-003 ,   345.23056294222198      ,   3.9477821093681139E-003 ,   345.63237926266424      ,   2.9984623213301751E-003 ,   344.89552543356200      ,   6.9231536930505488E-003 ,   345.29726569791967      ,   5.2211097886294211E-003
   1.8676104167282617      ,   1.8904422698000580      ,   356.48940669385024      ,   1.7056860477453707E-003 ,   325.85173072387335      ,   7.0104723199375949E-003 ,   326.79383876864642      ,   4.9032263991269365E-003 ,   333.99425243481500      ,   3.9123866112266486E-003 ,   334.38743829691288      ,   2.9496083548410578E-003 ,   333.74548043446140      ,   6.8594526223060177E-003 ,   334.13603976552525      ,   5.1027062731623472E-003
   1.8904422698000580      ,   1.9132741228718544      ,   345.34716498284718      ,   1.6788363340499834E-003 ,   315.53546038579771      ,   6.9491377603525840E-003 ,   316.45163147560669      ,   5.0101155640284497E-003 ,   323.36770833444490      ,   3.8789823999374144E-003 ,   323.74900103658729      ,   2.9369960979279018E-003 ,   323.20070871952214      ,   6.7993947356695030E-003 ,   323.57726930796207      ,   5.2215441834802369E-003
   1.9132741228718544      ,   1.9361059759436507      ,   334.78231727986400      ,   1.6529739580124598E-003 ,   305.76655133525878      ,   6.8909967877084626E-003 ,   306.64664035663816      ,   4.7536050492629645E-003 ,   313.28545488531449      ,   3.8474005750134179E-003 ,   313.65802827036038      ,   2.8910114499173232E-003 ,   313.21041693415714      ,   6.7425191309643017E-003 ,   313.56617439475633      ,   4.9479221034969944E-003
   1.9361059759436507      ,   1.9589378290154471      ,   324.75400054333920      ,   1.6280443005467844E-003 ,   296.47558037558451      ,   6.8358885624322874E-003 ,   297.32968700005790      ,   4.7692788610515183E-003 ,   303.72189327239494      ,   3.8175329444256299E-003 ,   304.07665333235087      ,   2.8308864776144665E-003 ,   303.71156022396639      ,   6.6886289655127464E-003 ,   304.05371324513669      ,   4.8698561199340702E-003
   1.9589378290154471      ,   1.9817696820872435      ,   315.20714283663602      ,   1.6039506610594431E-003 ,   287.63853795834666      ,   6.7836161261552209E-003 ,   288.47501478258187      ,   4.6831491153815769E-003 ,   294.60488127033886      ,   3.7892682027894191E-003 ,   294.96280198395908      ,   2.7924139724901688E-003 ,   294.67539603158099      ,   6.6375561470961193E-003 ,   295.00979907650833      ,   4.8783292405391613E-003
   1.9817696820872435      ,   2.0046015351590398      ,   306.11233359391713      ,   1.5806553715567626E-003 ,   279.22641358891656      ,   6.7340373524373111E-003 ,   280.03764902276401      ,   4.5842263862673205E-003 ,   285.92265875994883      ,   3.7624890742736289E-003 ,   286.27934985443085      ,   2.7412877739518876E-003 ,   286.07372842961354      ,   6.5891497340150439E-003 ,   286.39417562900701      ,   4.7703848111684457E-003
   2.0046015351590398      ,   2.0274333882308362      ,   297.42507553284850      ,   1.5580779425204885E-003 ,   271.17399813801586      ,   6.6868503826476421E-003 ,   271.97015985708754      ,   4.6582112349924445E-003 ,   277.63439358580854      ,   3.7370878595030235E-003 ,   277.97509147008907      ,   2.7372160133819841E-003 ,   277.83811309201428      ,   6.5431126039378383E-003 ,   278.15449597563156      ,   4.8493705415804831E-003
   2.0274333882308362      ,   2.0502652413026325      ,   289.11238982752371      ,   1.5361625434316998E-003 ,   263.46019127096230      ,   6.6417775620781407E-003 ,   264.24007076930798      ,   4.4675609620252500E-003 ,   269.68411658226279      ,   3.7129032008012095E-003 ,   270.02655170084211      ,   2.6729753773444926E-003 ,   269.95013918049835      ,   6.4991551165217831E-003 ,   270.25933561010953      ,   4.6525916371268003E-003
   2.0502652413026325      ,   2.0730970943744289      ,   281.13802252523220      ,   1.5148407529448436E-003 ,   256.08183110029307      ,   6.5989765682914316E-003 ,   256.82608548853153      ,   4.4282544087111009E-003 ,   262.06932017745441      ,   3.6899034554058849E-003 ,   262.40029395748968      ,   2.6287649018560647E-003 ,   262.40259749738357      ,   6.4574474662732447E-003 ,   262.68459279029662      ,   4.5595515040207290E-003
   2.0730970943744289      ,   2.0959289474462253      ,   273.47557881089921      ,   1.4940654708171059E-003 ,   248.98448414378686      ,   6.5579212911250672E-003 ,   249.70643578552199      ,   4.3316842756158640E-003 ,   254.75082534317897      ,   3.6679136399022086E-003 ,   255.07095004520926      ,   2.5924005834184085E-003 ,   255.14187034056300      ,   6.4174884249627940E-003 ,   255.41036563012165      ,   4.5119358524123125E-003
   2.0959289474462253      ,   2.1187608005180216      ,   266.09186660788771      ,   1.4737683981587463E-003 ,   242.13446115317473      ,   6.5184731328370134E-003 ,   242.84165985095336      ,   4.3212753932896190E-003 ,   247.69847315856077      ,   3.6468157686737426E-003 ,   248.00783707199642      ,   2.5659174451768902E-003 ,   248.13562959709151      ,   6.3791298848898852E-003 ,   248.39756447239034      ,   4.5013930525653586E-003
   2.1187608005180216      ,   2.1415926535898180      ,   258.96394347651255      ,   1.4539049726664283E-003 ,   235.52442316732814      ,   6.4806123448886118E-003 ,   236.21548703835475      ,   4.2335479686330148E-003 ,   240.87798536621725      ,   3.6265857729224065E-003 ,   241.18966054692152      ,   2.5865670967627659E-003 ,   241.37211609866773      ,   6.3423359405829884E-003 ,   241.62779031775364      ,   4.4095289201306950E-003
