 # xl, xh, LO, dLO, NLOnovp, dNLOnovp, NLOPSnovp, dNLOPSnovp
   1.0000000000000000      ,   1.0228318530717964      ,   391.07907246050320      ,   2.0617821184562872E-003 ,   365.45456070072834      ,   1.2059331271986171E-002 ,   366.15540607072541      ,   2.4648506133649044E-002
   1.0228318530717964      ,   1.0456637061435927      ,   407.76999167090258      ,   2.1052665309709553E-003 ,   380.50955463087968      ,   1.2290860537646034E-002 ,   381.28720035305298      ,   2.5066139435413928E-002
   1.0456637061435927      ,   1.0684955592153891      ,   424.28037351617024      ,   2.1474103463816783E-003 ,   395.35604643491598      ,   1.2514226128292793E-002 ,   396.19452419224774      ,   2.5506507706609952E-002
   1.0684955592153891      ,   1.0913274122871854      ,   440.54540716150933      ,   2.1881299955729232E-003 ,   409.91582145229222      ,   1.2728324444796740E-002 ,   410.88720961874424      ,   2.5925042580221630E-002
   1.0913274122871854      ,   1.1141592653589818      ,   456.51375219949392      ,   2.2273791430828180E-003 ,   424.21498692751527      ,   1.2934689371125935E-002 ,   425.21643118025781      ,   2.6325129708656608E-002
   1.1141592653589818      ,   1.1369911184307782      ,   472.13678099053175      ,   2.2651180259812770E-003 ,   438.09793027282927      ,   1.3130580466587362E-002 ,   439.18952017163667      ,   2.6702272808654032E-002
   1.1369911184307782      ,   1.1598229715025745      ,   487.35683872095962      ,   2.3012848178534879E-003 ,   451.60694854065741      ,   1.3317930165174675E-002 ,   452.74379183238068      ,   2.7064450440088626E-002
   1.1598229715025745      ,   1.1826548245743709      ,   502.12390004125325      ,   2.3358370432513672E-003 ,   464.66450990555359      ,   1.3495310882507440E-002 ,   465.98956496372705      ,   2.7413000554299793E-002
   1.1826548245743709      ,   1.2054866776461672      ,   516.38519340637640      ,   2.3687244400667400E-003 ,   477.22786282734637      ,   1.3663238542506612E-002 ,   478.61159866234357      ,   2.7739825113029963E-002
   1.2054866776461672      ,   1.2283185307179636      ,   530.08958077270904      ,   2.3999006041027313E-003 ,   489.25196225043612      ,   1.3821034910674313E-002 ,   490.69053734474056      ,   2.8046048971974036E-002
   1.2283185307179636      ,   1.2511503837897600      ,   543.19475579456559      ,   2.4293366930829298E-003 ,   500.69210925116147      ,   1.3968674867675531E-002 ,   502.18284250171524      ,   2.8328956264285735E-002
   1.2511503837897600      ,   1.2739822368615563      ,   555.64904314720889      ,   2.4569819968206898E-003 ,   511.49965974264967      ,   1.4105703128062266E-002 ,   513.11266077982179      ,   2.8588334824347309E-002
   1.2739822368615563      ,   1.2968140899333527      ,   567.41290618947119      ,   2.4828103211127794E-003 ,   521.64918456782573      ,   1.4232360987936956E-002 ,   523.34902283958229      ,   2.8829082367965209E-002
   1.2968140899333527      ,   1.3196459430051490      ,   578.43924457430580      ,   2.5067759167577532E-003 ,   531.09594276883877      ,   1.4348243248617259E-002 ,   532.89056863116616      ,   2.9049839275992959E-002
   1.3196459430051490      ,   1.3424777960769454      ,   588.69390063007143      ,   2.5288590980359800E-003 ,   539.82842869221122      ,   1.4453559680381471E-002 ,   541.69974395017630      ,   2.9243551429774556E-002
   1.3424777960769454      ,   1.3653096491487418      ,   598.13989311047908      ,   2.5490302052662943E-003 ,   547.80051192196527      ,   1.4548038699457720E-002 ,   549.80078705277424      ,   2.9431316851713719E-002
   1.3653096491487418      ,   1.3881415022205381      ,   606.73938134120954      ,   2.5672551597965602E-003 ,   554.98217831991781      ,   1.4631525178731321E-002 ,   557.01475366465127      ,   2.9580743871539979E-002
   1.3881415022205381      ,   1.4109733552923345      ,   614.46091292444430      ,   2.5835087756111577E-003 ,   561.35228861054725      ,   1.4703829519767989E-002 ,   563.48342793387621      ,   2.9709287263404473E-002
   1.4109733552923345      ,   1.4338052083641308      ,   621.28627971210085      ,   2.5977910268573687E-003 ,   566.88285089522083      ,   1.4764871570499168E-002 ,   569.10173145191425      ,   2.9832387164671618E-002
   1.4338052083641308      ,   1.4566370614359272      ,   627.17741073681975      ,   2.6100549533317309E-003 ,   571.52149994010415      ,   1.4814116060604763E-002 ,   573.88836423214696      ,   2.9924576637877266E-002
   1.4566370614359272      ,   1.4794689145077236      ,   632.12459071347575      ,   2.6203088868284371E-003 ,   575.34795595686683      ,   1.4852942037469872E-002 ,   577.76971547200048      ,   2.9970091933722569E-002
   1.4794689145077236      ,   1.5023007675795199      ,   636.10419507277766      ,   2.6285284539334054E-003 ,   578.26012407146800      ,   1.4880335718655132E-002 ,   580.77477480005655      ,   3.0020763500698270E-002
   1.5023007675795199      ,   1.5251326206513163      ,   639.10229077785846      ,   2.6347034667079227E-003 ,   580.27709121494468      ,   1.4896055859957281E-002 ,   582.77548568924772      ,   3.0040548593194827E-002
   1.5251326206513163      ,   1.5479644737231126      ,   641.09952620492868      ,   2.6388090225689877E-003 ,   581.40864652238361      ,   1.4900838604702336E-002 ,   584.02447336932391      ,   3.0035414753259305E-002
   1.5479644737231126      ,   1.5707963267949090      ,   642.10885234577745      ,   2.6408813061640562E-003 ,   581.58637538212690      ,   1.4893387508301265E-002 ,   584.24915612573636      ,   3.0012216777098408E-002
   1.5707963267949090      ,   1.5936281798667054      ,   642.10521851509543      ,   2.6408737457677381E-003 ,   580.89013973282204      ,   1.4875190208720076E-002 ,   583.68474707734799      ,   2.9959961778531649E-002
   1.5936281798667054      ,   1.6164600329385017      ,   641.10519674971567      ,   2.6388205667180710E-003 ,   579.30865934932990      ,   1.4846045594402746E-002 ,   582.12184218094717      ,   3.0085012989802529E-002
   1.6164600329385017      ,   1.6392918860102981      ,   639.09713526356313      ,   2.6346927375223905E-003 ,   576.80600176924850      ,   1.4805156655487199E-002 ,   579.68003272283579      ,   2.9798912860226946E-002
   1.6392918860102981      ,   1.6621237390820944      ,   636.10064109113773      ,   2.6285210634281629E-003 ,   573.42582190612609      ,   1.4753402949178099E-002 ,   576.29453678774848      ,   2.9727249413242396E-002
   1.6621237390820944      ,   1.6849555921538908      ,   632.12735938279388      ,   2.6203146908069120E-003 ,   569.14055073416853      ,   1.4689770782603494E-002 ,   572.13103854779524      ,   2.9546955246347376E-002
   1.6849555921538908      ,   1.7077874452256872      ,   627.18326025359693      ,   2.6100669292302343E-003 ,   564.04735672768993      ,   1.4615929353437184E-002 ,   567.05471343288377      ,   2.9392697259821424E-002
   1.7077874452256872      ,   1.7306192982974835      ,   621.28670718630588      ,   2.5977916973151305E-003 ,   558.04177006258158      ,   1.4530090058963215E-002 ,   561.05293305103044      ,   2.9206745960329412E-002
   1.7306192982974835      ,   1.7534511513692799      ,   614.46465024274971      ,   2.5835167584372727E-003 ,   551.28154716652625      ,   1.4434508189529141E-002 ,   554.33788890113715      ,   2.9005893785223842E-002
   1.7534511513692799      ,   1.7762830044410762      ,   606.73875051299785      ,   2.5672538625937553E-003 ,   543.69543922026241      ,   1.4327504624088206E-002 ,   546.84255065045545      ,   2.8782896368007807E-002
   1.7762830044410762      ,   1.7991148575128726      ,   598.13882648526283      ,   2.5490280513158232E-003 ,   535.35801452064720      ,   1.4210391825886565E-002 ,   538.47682622360526      ,   2.8536565533811360E-002
   1.7991148575128726      ,   1.8219467105846689      ,   588.69219887629879      ,   2.5288555551961989E-003 ,   526.25196116609163      ,   1.4082100048382090E-002 ,   529.39227292235910      ,   2.8271213118514677E-002
   1.8219467105846689      ,   1.8447785636564653      ,   578.44075105637671      ,   2.5067789194706336E-003 ,   516.45873038365653      ,   1.3943961115706768E-002 ,   519.61312603022179      ,   2.7986062150666978E-002
   1.8447785636564653      ,   1.8676104167282617      ,   567.40855853422795      ,   2.4828006943625213E-003 ,   506.00120945285630      ,   1.3795663093826594E-002 ,   509.11522785988166      ,   2.7676828196220679E-002
   1.8676104167282617      ,   1.8904422698000580      ,   555.64567112274062      ,   2.4569747790659699E-003 ,   494.88461509317403      ,   1.3637280196904460E-002 ,   498.00511797765660      ,   2.7351377490860643E-002
   1.8904422698000580      ,   1.9132741228718544      ,   543.19312133884023      ,   2.4293331522760096E-003 ,   483.22683138780815      ,   1.3469894091125655E-002 ,   486.39695167346582      ,   2.7010565786415325E-002
   1.9132741228718544      ,   1.9361059759436507      ,   530.09033139786220      ,   2.3999021515831425E-003 ,   470.97783166767533      ,   1.3292241016738631E-002 ,   474.06872045148435      ,   2.6643641192516145E-002
   1.9361059759436507      ,   1.9589378290154471      ,   516.38415705095099      ,   2.3687220293833692E-003 ,   458.26578507067040      ,   1.3106207560439471E-002 ,   461.34932959711125      ,   2.6263521133190321E-002
   1.9589378290154471      ,   1.9817696820872435      ,   502.11948581407614      ,   2.3358267241264433E-003 ,   445.02949741640964      ,   1.2910121924848883E-002 ,   448.13460596227867      ,   2.5865970638098097E-002
   1.9817696820872435      ,   2.0046015351590398      ,   487.35787748994119      ,   2.3012871718100006E-003 ,   431.38366635945931      ,   1.2705506429484110E-002 ,   434.46054988776433      ,   2.5448299258416948E-002
   2.0046015351590398      ,   2.0274333882308362      ,   472.13542909196764      ,   2.2651148751900805E-003 ,   417.35041806454035      ,   1.2492027330818544E-002 ,   420.36100645882584      ,   2.5010908051652611E-002
   2.0274333882308362      ,   2.0502652413026325      ,   456.51654072491215      ,   2.2273861135549177E-003 ,   403.04258444146944      ,   1.2271248127100447E-002 ,   406.00055556243876      ,   2.4564120026457574E-002
   2.0502652413026325      ,   2.0730970943744289      ,   440.54794982819891      ,   2.1881365085177924E-003 ,   388.42079374002810      ,   1.2041938139325473E-002 ,   391.35549374550448      ,   2.4096452654575707E-002
   2.0730970943744289      ,   2.0959289474462253      ,   424.27194418800406      ,   2.1473888535036723E-003 ,   373.60984131104010      ,   1.1805622912741108E-002 ,   376.43326272892125      ,   2.3611775414598302E-002
   2.0959289474462253      ,   2.1187608005180216      ,   407.77006183231111      ,   2.1052666565418094E-003 ,   358.56311575875594      ,   1.1561169474835591E-002 ,   361.36876034514512      ,   2.3118057010129190E-002
   2.1187608005180216      ,   2.1415926535898180      ,   391.07284547887673      ,   2.0617659351406222E-003 ,   343.41083901458171      ,   1.1310240183095590E-002 ,   346.17162170151357      ,   2.2611363787185000E-002
