 # xl, xh, LO, dLO, NLOnovp, dNLOnovp, NLOPSnovp, dNLOPSnovp
  0.45000000000000007      ,  0.46000000000000008      ,   0.0000000000000000      ,   0.0000000000000000      ,  0.11240913933040607      ,   1.4874349831345214E-004 ,  0.13552599605263743      ,   4.4242995145914811E-004
  0.46000000000000008      ,  0.47000000000000008      ,   0.0000000000000000      ,   0.0000000000000000      ,  0.12921091182454425      ,   1.6163304875131836E-004 ,  0.15846680545603092      ,   4.9837164551755017E-004
  0.47000000000000008      ,  0.48000000000000009      ,   0.0000000000000000      ,   0.0000000000000000      ,  0.14879425262711818      ,   1.7578960530323582E-004 ,  0.18336020041420498      ,   5.3864547835824476E-004
  0.48000000000000009      ,  0.49000000000000010      ,   0.0000000000000000      ,   0.0000000000000000      ,  0.17133737975173938      ,   1.9114058246098471E-004 ,  0.21206648825438226      ,   6.0528282696234697E-004
  0.49000000000000010      ,  0.50000000000000011      ,   0.0000000000000000      ,   0.0000000000000000      ,  0.19785551304297966      ,   2.0862591236749334E-004 ,  0.24596065218079552      ,   6.6743107079981644E-004
  0.50000000000000011      ,  0.51000000000000012      ,   0.0000000000000000      ,   0.0000000000000000      ,  0.22833424560904669      ,   2.2737005776346902E-004 ,  0.28297304816739771      ,   6.9982102161772074E-004
  0.51000000000000012      ,  0.52000000000000013      ,   0.0000000000000000      ,   0.0000000000000000      ,  0.26426717309891445      ,   2.4986780928030604E-004 ,  0.32703142431360638      ,   1.2878743343687443E-003
  0.52000000000000013      ,  0.53000000000000014      ,   0.0000000000000000      ,   0.0000000000000000      ,  0.30670112929997351      ,   2.7394740973596166E-004 ,  0.37713163979523262      ,   8.4366782764973064E-004
  0.53000000000000014      ,  0.54000000000000015      ,   0.0000000000000000      ,   0.0000000000000000      ,  0.35531041463871971      ,   3.0000500837341145E-004 ,  0.43498135446388997      ,   9.0884395133561911E-004
  0.54000000000000015      ,  0.55000000000000016      ,   0.0000000000000000      ,   0.0000000000000000      ,  0.41151693809210860      ,   3.2808184966552905E-004 ,  0.50392603113899959      ,   9.9945061319817478E-004
  0.55000000000000016      ,  0.56000000000000016      ,   0.0000000000000000      ,   0.0000000000000000      ,  0.47806269881483721      ,   3.5989079096892087E-004 ,  0.58086482742950751      ,   1.0736406930214465E-003
  0.56000000000000016      ,  0.57000000000000017      ,   0.0000000000000000      ,   0.0000000000000000      ,  0.55579952327017013      ,   3.9602577277884758E-004 ,  0.67505819198019745      ,   1.2412562072276914E-003
  0.57000000000000017      ,  0.58000000000000018      ,   0.0000000000000000      ,   0.0000000000000000      ,  0.64753801753281515      ,   4.3544112467750178E-004 ,  0.78173298418476744      ,   1.2693555125777277E-003
  0.58000000000000018      ,  0.59000000000000019      ,   0.0000000000000000      ,   0.0000000000000000      ,  0.75365189102498809      ,   4.7813320530317051E-004 ,  0.90688030122900387      ,   1.8924861358009316E-003
  0.59000000000000019      ,  0.60000000000000020      ,   0.0000000000000000      ,   0.0000000000000000      ,  0.87938147501450692      ,   5.2636322329452530E-004 ,   1.0597929885321715      ,   2.0386691620692689E-003
  0.60000000000000020      ,  0.61000000000000021      ,   0.0000000000000000      ,   0.0000000000000000      ,   1.0270651092244001      ,   5.8060254873498350E-004 ,   1.2306568976147407      ,   1.7318192960176643E-003
  0.61000000000000021      ,  0.62000000000000022      ,   0.0000000000000000      ,   0.0000000000000000      ,   1.2015694445590335      ,   6.4005859879248043E-004 ,   1.4319188588200058      ,   1.8409085027455228E-003
  0.62000000000000022      ,  0.63000000000000023      ,   0.0000000000000000      ,   0.0000000000000000      ,   1.4080864950253824      ,   7.0668450436269653E-004 ,   1.6719837723064064      ,   2.0373902818201003E-003
  0.63000000000000023      ,  0.64000000000000024      ,   0.0000000000000000      ,   0.0000000000000000      ,   1.6530774361132352      ,   7.8155965845585736E-004 ,   1.9567804729251954      ,   2.2445395127196201E-003
  0.64000000000000024      ,  0.65000000000000024      ,   0.0000000000000000      ,   0.0000000000000000      ,   1.9436382015221483      ,   8.6372472609047676E-004 ,   2.3044455634750012      ,   2.9180777942973217E-003
  0.65000000000000024      ,  0.66000000000000025      ,   0.0000000000000000      ,   0.0000000000000000      ,   2.2887183058501459      ,   9.5580332399216499E-004 ,   2.7077278416097168      ,   2.7318956618803190E-003
  0.66000000000000025      ,  0.67000000000000026      ,   0.0000000000000000      ,   0.0000000000000000      ,   2.7090001246515900      ,   1.0611053476075117E-003 ,   3.1946282569115096      ,   3.0469392137162945E-003
  0.67000000000000026      ,  0.68000000000000027      ,   0.0000000000000000      ,   0.0000000000000000      ,   3.2097598503174360      ,   1.1765267730445476E-003 ,   3.7964649428044455      ,   3.3532809302449008E-003
  0.68000000000000027      ,  0.69000000000000028      ,   0.0000000000000000      ,   0.0000000000000000      ,   3.8231276822358602      ,   1.3090387576469966E-003 ,   4.5130923153583575      ,   3.6913833349490077E-003
  0.69000000000000028      ,  0.70000000000000029      ,   0.0000000000000000      ,   0.0000000000000000      ,   4.5787807453685438      ,   1.4595400999813538E-003 ,   5.4109465575891864      ,   5.2528777959501855E-003
  0.70000000000000029      ,  0.71000000000000030      ,   0.0000000000000000      ,   0.0000000000000000      ,   5.5195029724055500      ,   1.6318283474263803E-003 ,   6.5037985725756293      ,   4.6052278815664014E-003
  0.71000000000000030      ,  0.72000000000000031      ,   0.0000000000000000      ,   0.0000000000000000      ,   6.7268942237713816      ,   1.8331679866369897E-003 ,   7.9414354382964838      ,   5.1597775721040576E-003
  0.72000000000000031      ,  0.73000000000000032      ,   0.0000000000000000      ,   0.0000000000000000      ,   8.5004427694075577      ,   2.0940343831417027E-003 ,   9.9543277887618054      ,   5.9977164242362262E-003
  0.73000000000000032      ,  0.74000000000000032      ,   0.0000000000000000      ,   0.0000000000000000      ,   11.526465516738646      ,   2.4652796118749920E-003 ,   13.141908659834499      ,   6.7372023805085781E-003
  0.74000000000000032      ,  0.75000000000000033      ,   0.0000000000000000      ,   0.0000000000000000      ,   15.750656892639046      ,   2.9090380238581096E-003 ,   17.492358479249731      ,   7.8158576932735365E-003
  0.75000000000000033      ,  0.76000000000000034      ,   0.0000000000000000      ,   0.0000000000000000      ,   21.416868168524214      ,   3.4225239469618503E-003 ,   23.223435874850807      ,   1.1973286972783936E-002
  0.76000000000000034      ,  0.77000000000000035      ,   0.0000000000000000      ,   0.0000000000000000      ,   28.957769084519960      ,   4.0147812817887679E-003 ,   30.750577609104223      ,   1.0478787435316944E-002
  0.77000000000000035      ,  0.78000000000000036      ,   0.0000000000000000      ,   0.0000000000000000      ,   38.985751094893487      ,   4.6996407417204990E-003 ,   40.641328640767199      ,   1.2188919544460858E-002
  0.78000000000000036      ,  0.79000000000000037      ,   0.0000000000000000      ,   0.0000000000000000      ,   52.305149835770465      ,   5.4938598713151349E-003 ,   53.571812349378924      ,   1.4006266593051304E-002
  0.79000000000000037      ,  0.80000000000000038      ,   0.0000000000000000      ,   0.0000000000000000      ,   69.942362090155370      ,   6.4145839399416260E-003 ,   70.480820446659479      ,   1.6215290291267538E-002
  0.80000000000000038      ,  0.81000000000000039      ,   0.0000000000000000      ,   0.0000000000000000      ,   93.350630032217680      ,   7.4878658495078146E-003 ,   92.599834674279691      ,   1.8668072852285188E-002
  0.81000000000000039      ,  0.82000000000000040      ,   0.0000000000000000      ,   0.0000000000000000      ,   124.33010997141805      ,   8.7391414128360368E-003 ,   121.55741172658243      ,   2.1579199972456841E-002
  0.82000000000000040      ,  0.83000000000000040      ,   0.0000000000000000      ,   0.0000000000000000      ,   165.44215897905897      ,   1.0207969400053103E-002 ,   159.36615162234773      ,   2.4932860471800752E-002
  0.83000000000000040      ,  0.84000000000000041      ,   0.0000000000000000      ,   0.0000000000000000      ,   220.04986798255982      ,   1.1940485055714330E-002 ,   208.94347344828967      ,   2.8897636921506799E-002
  0.84000000000000041      ,  0.85000000000000042      ,   0.0000000000000000      ,   0.0000000000000000      ,   292.94793564533319      ,   1.4003319987365738E-002 ,   274.15746409066350      ,   3.3528759786839328E-002
  0.85000000000000042      ,  0.86000000000000043      ,   0.0000000000000000      ,   0.0000000000000000      ,   387.50600390920454      ,   1.6440019763526010E-002 ,   357.49676373346807      ,   3.9056948271112224E-002
  0.86000000000000043      ,  0.87000000000000044      ,   0.0000000000000000      ,   0.0000000000000000      ,   515.22590261778555      ,   1.9423718250919729E-002 ,   468.93615160732099      ,   4.5568121313706765E-002
  0.87000000000000044      ,  0.88000000000000045      ,   0.0000000000000000      ,   0.0000000000000000      ,   710.23981216534833      ,   2.3380747740878415E-002 ,   635.89674904629419      ,   5.4314623025096556E-002
  0.88000000000000045      ,  0.89000000000000046      ,   0.0000000000000000      ,   0.0000000000000000      ,   1038.1756032218971      ,   2.9015662695186812E-002 ,   910.41335392134761      ,   6.6127385820948362E-002
  0.89000000000000046      ,  0.90000000000000047      ,   0.0000000000000000      ,   0.0000000000000000      ,   1683.7125548579652      ,   3.8058929356697267E-002 ,   1435.1161213850746      ,   8.4830472504166990E-002
  0.90000000000000047      ,  0.91000000000000048      ,   0.0000000000000000      ,   0.0000000000000000      ,   3566.2844912142596      ,   5.7233132640296530E-002 ,   2895.3218571158923      ,  0.12267208877349541     
  0.91000000000000048      ,  0.92000000000000048      ,   62650.731340589598      ,   6.9112412039895976E-005 ,   47649.302705120928      ,  0.18801790563048212      ,   49135.640623000887      ,  0.35324732124188951     
  0.92000000000000048      ,  0.93000000000000049      ,   0.0000000000000000      ,   0.0000000000000000      ,   0.0000000000000000      ,   0.0000000000000000      ,   0.0000000000000000      ,   0.0000000000000000     
  0.93000000000000049      ,  0.94000000000000050      ,   0.0000000000000000      ,   0.0000000000000000      ,   0.0000000000000000      ,   0.0000000000000000      ,   0.0000000000000000      ,   0.0000000000000000     
  0.94000000000000050      ,  0.95000000000000051      ,   0.0000000000000000      ,   0.0000000000000000      ,   0.0000000000000000      ,   0.0000000000000000      ,   0.0000000000000000      ,   0.0000000000000000     
  0.95000000000000051      ,  0.96000000000000052      ,   0.0000000000000000      ,   0.0000000000000000      ,   0.0000000000000000      ,   0.0000000000000000      ,   0.0000000000000000      ,   0.0000000000000000     
  0.96000000000000052      ,  0.97000000000000053      ,   0.0000000000000000      ,   0.0000000000000000      ,   0.0000000000000000      ,   0.0000000000000000      ,   0.0000000000000000      ,   0.0000000000000000     
  0.97000000000000053      ,  0.98000000000000054      ,   0.0000000000000000      ,   0.0000000000000000      ,   0.0000000000000000      ,   0.0000000000000000      ,   0.0000000000000000      ,   0.0000000000000000     
  0.98000000000000054      ,  0.99000000000000055      ,   0.0000000000000000      ,   0.0000000000000000      ,   0.0000000000000000      ,   0.0000000000000000      ,   0.0000000000000000      ,   0.0000000000000000     
  0.99000000000000055      ,   1.0000000000000004      ,   0.0000000000000000      ,   0.0000000000000000      ,   0.0000000000000000      ,   0.0000000000000000      ,   0.0000000000000000      ,   0.0000000000000000     
