 # xl, xh, LO, dLO, NLOnovp, dNLOnovp, NLOPSnovp, dNLOPSnovp
  0.45000000000000007      ,  0.46000000000000008      ,   0.0000000000000000      ,   0.0000000000000000      ,   0.0000000000000000      ,   0.0000000000000000      ,   1.8089712505342005E-002 ,   2.0406805669863877E-004
  0.46000000000000008      ,  0.47000000000000008      ,   0.0000000000000000      ,   0.0000000000000000      ,   0.0000000000000000      ,   0.0000000000000000      ,   2.2191589756594889E-002 ,   2.2078502897673413E-004
  0.47000000000000008      ,  0.48000000000000009      ,   0.0000000000000000      ,   0.0000000000000000      ,   0.0000000000000000      ,   0.0000000000000000      ,   2.7263085953570378E-002 ,   2.5223351622471145E-004
  0.48000000000000009      ,  0.49000000000000010      ,   0.0000000000000000      ,   0.0000000000000000      ,   0.0000000000000000      ,   0.0000000000000000      ,   3.1684450102585408E-002 ,   2.8047688964592246E-004
  0.49000000000000010      ,  0.50000000000000011      ,   0.0000000000000000      ,   0.0000000000000000      ,   0.0000000000000000      ,   0.0000000000000000      ,   3.6804546857050965E-002 ,   2.9462458473121365E-004
  0.50000000000000011      ,  0.51000000000000012      ,   0.0000000000000000      ,   0.0000000000000000      ,   0.0000000000000000      ,   0.0000000000000000      ,   4.1004854925993713E-002 ,   3.0940031946873471E-004
  0.51000000000000012      ,  0.52000000000000013      ,   0.0000000000000000      ,   0.0000000000000000      ,   0.0000000000000000      ,   0.0000000000000000      ,   4.6338832772454923E-002 ,   3.3070374785732317E-004
  0.52000000000000013      ,  0.53000000000000014      ,   0.0000000000000000      ,   0.0000000000000000      ,   0.0000000000000000      ,   0.0000000000000000      ,   5.1786429578157128E-002 ,   3.8596087231714308E-004
  0.53000000000000014      ,  0.54000000000000015      ,   0.0000000000000000      ,   0.0000000000000000      ,   0.0000000000000000      ,   0.0000000000000000      ,   5.7492061279975040E-002 ,   3.9972812720929173E-004
  0.54000000000000015      ,  0.55000000000000016      ,   0.0000000000000000      ,   0.0000000000000000      ,   0.0000000000000000      ,   0.0000000000000000      ,   6.1630125896103151E-002 ,   3.9656816222058031E-004
  0.55000000000000016      ,  0.56000000000000016      ,   0.0000000000000000      ,   0.0000000000000000      ,   0.0000000000000000      ,   0.0000000000000000      ,   6.6123477129523975E-002 ,   4.1025564598186950E-004
  0.56000000000000016      ,  0.57000000000000017      ,   0.0000000000000000      ,   0.0000000000000000      ,   0.0000000000000000      ,   0.0000000000000000      ,   7.0063443695026095E-002 ,   4.2666644198383942E-004
  0.57000000000000017      ,  0.58000000000000018      ,   0.0000000000000000      ,   0.0000000000000000      ,   0.0000000000000000      ,   0.0000000000000000      ,   7.2343853797514873E-002 ,   4.3627280839859820E-004
  0.58000000000000018      ,  0.59000000000000019      ,   0.0000000000000000      ,   0.0000000000000000      ,   0.0000000000000000      ,   0.0000000000000000      ,   7.1103015865950497E-002 ,   4.3816200365388494E-004
  0.59000000000000019      ,  0.60000000000000020      ,   0.0000000000000000      ,   0.0000000000000000      ,   0.0000000000000000      ,   0.0000000000000000      ,   6.8487409681892750E-002 ,   4.4059577641262550E-004
  0.60000000000000020      ,  0.61000000000000021      ,   0.0000000000000000      ,   0.0000000000000000      ,   0.0000000000000000      ,   0.0000000000000000      ,   6.0268769193743382E-002 ,   5.0363982248791150E-004
  0.61000000000000021      ,  0.62000000000000022      ,   0.0000000000000000      ,   0.0000000000000000      ,   0.0000000000000000      ,   0.0000000000000000      ,   5.2701995910880851E-002 ,   4.0103502871986974E-004
  0.62000000000000022      ,  0.63000000000000023      ,   0.0000000000000000      ,   0.0000000000000000      ,   0.0000000000000000      ,   0.0000000000000000      ,   4.7065168722045768E-002 ,   4.4321803548354042E-004
  0.63000000000000023      ,  0.64000000000000024      ,   0.0000000000000000      ,   0.0000000000000000      ,   0.0000000000000000      ,   0.0000000000000000      ,   4.2477841950371770E-002 ,   3.8296505157880208E-004
  0.64000000000000024      ,  0.65000000000000024      ,   0.0000000000000000      ,   0.0000000000000000      ,   0.0000000000000000      ,   0.0000000000000000      ,   3.8853085938307295E-002 ,   3.8071922017413810E-004
  0.65000000000000024      ,  0.66000000000000025      ,   0.0000000000000000      ,   0.0000000000000000      ,   0.0000000000000000      ,   0.0000000000000000      ,   3.5530879797396567E-002 ,   3.6149366922210845E-004
  0.66000000000000025      ,  0.67000000000000026      ,   0.0000000000000000      ,   0.0000000000000000      ,   0.0000000000000000      ,   0.0000000000000000      ,   3.4024391759192571E-002 ,   3.6045482691794434E-004
  0.67000000000000026      ,  0.68000000000000027      ,   0.0000000000000000      ,   0.0000000000000000      ,   0.0000000000000000      ,   0.0000000000000000      ,   3.2326144866896847E-002 ,   3.6282967407482103E-004
  0.68000000000000027      ,  0.69000000000000028      ,   0.0000000000000000      ,   0.0000000000000000      ,   0.0000000000000000      ,   0.0000000000000000      ,   3.1144497239634139E-002 ,   3.6371569740869256E-004
  0.69000000000000028      ,  0.70000000000000029      ,   0.0000000000000000      ,   0.0000000000000000      ,   0.0000000000000000      ,   0.0000000000000000      ,   3.1421526411739474E-002 ,   9.8876757636293566E-004
  0.70000000000000029      ,  0.71000000000000030      ,   0.0000000000000000      ,   0.0000000000000000      ,   0.0000000000000000      ,   0.0000000000000000      ,   3.0093507823765842E-002 ,   3.4049910028061294E-004
  0.71000000000000030      ,  0.72000000000000031      ,   0.0000000000000000      ,   0.0000000000000000      ,   0.0000000000000000      ,   0.0000000000000000      ,   3.0041599261639570E-002 ,   3.5555913020522863E-004
  0.72000000000000031      ,  0.73000000000000032      ,   0.0000000000000000      ,   0.0000000000000000      ,   0.0000000000000000      ,   0.0000000000000000      ,   3.0772891718780615E-002 ,   3.3959460187007605E-004
  0.73000000000000032      ,  0.74000000000000032      ,   0.0000000000000000      ,   0.0000000000000000      ,   0.0000000000000000      ,   0.0000000000000000      ,   3.2093459571646520E-002 ,   3.4091511328681153E-004
  0.74000000000000032      ,  0.75000000000000033      ,   0.0000000000000000      ,   0.0000000000000000      ,   0.0000000000000000      ,   0.0000000000000000      ,   3.3243725798285370E-002 ,   3.4555001308301392E-004
  0.75000000000000033      ,  0.76000000000000034      ,   0.0000000000000000      ,   0.0000000000000000      ,   0.0000000000000000      ,   0.0000000000000000      ,   3.4541320148198211E-002 ,   3.3514231652269680E-004
  0.76000000000000034      ,  0.77000000000000035      ,   0.0000000000000000      ,   0.0000000000000000      ,   0.0000000000000000      ,   0.0000000000000000      ,   3.6830412631966340E-002 ,   3.4876336058043854E-004
  0.77000000000000035      ,  0.78000000000000036      ,   0.0000000000000000      ,   0.0000000000000000      ,   0.0000000000000000      ,   0.0000000000000000      ,   3.9093325466280311E-002 ,   4.6112066110852576E-004
  0.78000000000000036      ,  0.79000000000000037      ,   0.0000000000000000      ,   0.0000000000000000      ,   0.0000000000000000      ,   0.0000000000000000      ,   4.3009559764055558E-002 ,   4.2214963291565920E-004
  0.79000000000000037      ,  0.80000000000000038      ,   0.0000000000000000      ,   0.0000000000000000      ,   0.0000000000000000      ,   0.0000000000000000      ,   4.7150210998656544E-002 ,   9.1519490941727373E-004
  0.80000000000000038      ,  0.81000000000000039      ,   0.0000000000000000      ,   0.0000000000000000      ,   0.0000000000000000      ,   0.0000000000000000      ,   5.1111496525302773E-002 ,   4.3558698289782190E-004
  0.81000000000000039      ,  0.82000000000000040      ,   0.0000000000000000      ,   0.0000000000000000      ,   0.0000000000000000      ,   0.0000000000000000      ,   5.7730201820856974E-002 ,   4.9028483431763788E-004
  0.82000000000000040      ,  0.83000000000000040      ,   0.0000000000000000      ,   0.0000000000000000      ,   0.0000000000000000      ,   0.0000000000000000      ,   6.5751464085876982E-002 ,   3.9453860209747224E-004
  0.83000000000000040      ,  0.84000000000000041      ,   0.0000000000000000      ,   0.0000000000000000      ,   0.0000000000000000      ,   0.0000000000000000      ,   7.9410342135913831E-002 ,   4.4449656773544325E-004
  0.84000000000000041      ,  0.85000000000000042      ,   0.0000000000000000      ,   0.0000000000000000      ,   0.0000000000000000      ,   0.0000000000000000      ,  0.10137658910642094      ,   5.0019813262214578E-004
  0.85000000000000042      ,  0.86000000000000043      ,   0.0000000000000000      ,   0.0000000000000000      ,   5.4414324194143574E-005 ,   6.2215144358152417E-006 ,  0.14898831605747803      ,   6.7981222665236963E-004
  0.86000000000000043      ,  0.87000000000000044      ,   0.0000000000000000      ,   0.0000000000000000      ,  0.50121098509106066      ,   4.6279134228653868E-004 ,  0.64374490149591601      ,   1.5297596811581307E-003
  0.87000000000000044      ,  0.88000000000000045      ,   0.0000000000000000      ,   0.0000000000000000      ,   2.0006379246796953      ,   8.4345506840868226E-004 ,   1.7657745362885924      ,   1.8659208147007702E-003
  0.88000000000000045      ,  0.89000000000000046      ,   0.0000000000000000      ,   0.0000000000000000      ,   2.4287786775542468      ,   7.1804028378921574E-004 ,   1.9393725739321876      ,   1.4989093404596408E-003
  0.89000000000000046      ,  0.90000000000000047      ,   0.0000000000000000      ,   0.0000000000000000      ,  0.70873325651473085      ,   2.9027057856367372E-004 ,  0.51341244506472472      ,   5.6541244753184128E-004
  0.90000000000000047      ,  0.91000000000000048      ,   0.0000000000000000      ,   0.0000000000000000      ,   0.0000000000000000      ,   0.0000000000000000      ,   0.0000000000000000      ,   0.0000000000000000     
  0.91000000000000048      ,  0.92000000000000048      ,   0.0000000000000000      ,   0.0000000000000000      ,   0.0000000000000000      ,   0.0000000000000000      ,   0.0000000000000000      ,   0.0000000000000000     
  0.92000000000000048      ,  0.93000000000000049      ,   0.0000000000000000      ,   0.0000000000000000      ,   0.0000000000000000      ,   0.0000000000000000      ,   0.0000000000000000      ,   0.0000000000000000     
  0.93000000000000049      ,  0.94000000000000050      ,   0.0000000000000000      ,   0.0000000000000000      ,   0.0000000000000000      ,   0.0000000000000000      ,   0.0000000000000000      ,   0.0000000000000000     
  0.94000000000000050      ,  0.95000000000000051      ,   0.0000000000000000      ,   0.0000000000000000      ,   0.0000000000000000      ,   0.0000000000000000      ,   0.0000000000000000      ,   0.0000000000000000     
  0.95000000000000051      ,  0.96000000000000052      ,   0.0000000000000000      ,   0.0000000000000000      ,   0.0000000000000000      ,   0.0000000000000000      ,   0.0000000000000000      ,   0.0000000000000000     
  0.96000000000000052      ,  0.97000000000000053      ,   0.0000000000000000      ,   0.0000000000000000      ,   0.0000000000000000      ,   0.0000000000000000      ,   0.0000000000000000      ,   0.0000000000000000     
  0.97000000000000053      ,  0.98000000000000054      ,   0.0000000000000000      ,   0.0000000000000000      ,   0.0000000000000000      ,   0.0000000000000000      ,   0.0000000000000000      ,   0.0000000000000000     
  0.98000000000000054      ,  0.99000000000000055      ,   0.0000000000000000      ,   0.0000000000000000      ,   0.0000000000000000      ,   0.0000000000000000      ,   0.0000000000000000      ,   0.0000000000000000     
  0.99000000000000055      ,   1.0000000000000004      ,   0.0000000000000000      ,   0.0000000000000000      ,   0.0000000000000000      ,   0.0000000000000000      ,   0.0000000000000000      ,   0.0000000000000000     
