 # xl, xh, LO, dLO, NLOnovp, dNLOnovp, NLOPSnovp, dNLOPSnovp, NLOvp, dNLOvp, NLOPSvp, dNLOPSvp, NLOvplt, dNLOvplt, NLOPSvplt, dNLOPSvplt
  0.45000000000000007      ,  0.46000000000000008      ,   0.0000000000000000      ,   0.0000000000000000      ,   22.635389956013292      ,   1.7197029764857174E-003 ,   22.613404273261388      ,   3.5348702201717396E-003 ,   22.635719291435176      ,   9.8208538745045600E-004 ,   23.146104792761033      ,   2.0671410593927431E-003 ,   22.635421460120039      ,   1.7206420727954607E-003 ,   23.078132267955386      ,   3.6844163842189603E-003
  0.46000000000000008      ,  0.47000000000000008      ,   0.0000000000000000      ,   0.0000000000000000      ,   23.433388047481817      ,   1.7511661796454723E-003 ,   23.469611089929469      ,   3.3321341043455834E-003 ,   23.432796631473011      ,   9.9996864163005655E-004 ,   24.026818064812726      ,   1.9639888740413292E-003 ,   23.433057879773674      ,   1.7521134837194528E-003 ,   23.950131253929239      ,   3.4729492924311838E-003
  0.47000000000000008      ,  0.48000000000000009      ,   0.0000000000000000      ,   0.0000000000000000      ,   24.271927985840424      ,   1.7835803136046280E-003 ,   24.381907613812920      ,   3.5069148320976667E-003 ,   24.272288170002231      ,   1.0185634679025612E-003 ,   24.956122806029800      ,   2.0755254344129530E-003 ,   24.272226562784176      ,   1.7845608172982837E-003 ,   24.880040337933789      ,   3.5690015402332722E-003
  0.48000000000000009      ,  0.49000000000000010      ,   0.0000000000000000      ,   0.0000000000000000      ,   25.153127509062422      ,   1.8172635792513703E-003 ,   25.314193931059791      ,   3.3482200755568740E-003 ,   25.152607937169908      ,   1.0377565500058587E-003 ,   25.919463777919862      ,   2.0816971482399446E-003 ,   25.153236845917860      ,   1.8182578780052477E-003 ,   25.831552817093922      ,   3.4725789186913106E-003
  0.49000000000000010      ,  0.50000000000000011      ,   0.0000000000000000      ,   0.0000000000000000      ,   26.077107247752526      ,   1.8520613032470983E-003 ,   26.302026323960714      ,   3.5270648411408752E-003 ,   26.076033103331390      ,   1.0576252693767208E-003 ,   26.926917777820183      ,   2.1237902919501372E-003 ,   26.077029529769547      ,   1.8530710275171417E-003 ,   26.839732133360123      ,   3.6547432220723607E-003
  0.50000000000000011      ,  0.51000000000000012      ,   0.0000000000000000      ,   0.0000000000000000      ,   27.048774097370611      ,   1.8882634216690584E-003 ,   27.328334541303601      ,   3.6268665104652147E-003 ,   27.049309988561557      ,   1.0782978903777557E-003 ,   27.977304898392788      ,   2.1420625261963262E-003 ,   27.048857398869480      ,   1.8892981496724940E-003 ,   27.888515623529607      ,   3.7795410222395626E-003
  0.51000000000000012      ,  0.52000000000000013      ,   0.0000000000000000      ,   0.0000000000000000      ,   28.073707797333498      ,   1.9258634866783739E-003 ,   28.415923968689427      ,   3.7136516893420215E-003 ,   28.072925144308272      ,   1.0997224520243602E-003 ,   29.084765778310203      ,   2.1719814280475695E-003 ,   28.073469748843266      ,   1.9269108972624312E-003 ,   28.998088442821395      ,   3.8705173513168428E-003
  0.52000000000000013      ,  0.53000000000000014      ,   0.0000000000000000      ,   0.0000000000000000      ,   29.151149079332061      ,   1.9645491591755247E-003 ,   29.550003728698016      ,   3.6950939086248212E-003 ,   29.151511129954482      ,   1.1219120285823349E-003 ,   30.251240725873288      ,   2.2985671379193683E-003 ,   29.151478871530419      ,   1.9656361363679558E-003 ,   30.154783159518715      ,   3.8358735476123167E-003
  0.53000000000000014      ,  0.54000000000000015      ,   0.0000000000000000      ,   0.0000000000000000      ,   30.286304192880767      ,   2.0048864385864601E-003 ,   30.746992230351317      ,   4.4507094559310019E-003 ,   30.287824098036396      ,   1.1449208409285323E-003 ,   31.474654410739795      ,   2.4505427046514045E-003 ,   30.286595688069145      ,   2.0059806176921970E-003 ,   31.377440224569195      ,   4.6638601759920149E-003
  0.54000000000000015      ,  0.55000000000000016      ,   0.0000000000000000      ,   0.0000000000000000      ,   31.487566774998278      ,   2.0468469881115294E-003 ,   32.014853237661399      ,   3.8625096024436077E-003 ,   31.488529753287480      ,   1.1688936680180895E-003 ,   32.774058918814362      ,   2.4736799133578537E-003 ,   31.487548029545049      ,   2.0479645875382405E-003 ,   32.669781269511887      ,   4.0215794160403827E-003
  0.55000000000000016      ,  0.56000000000000016      ,   0.0000000000000000      ,   0.0000000000000000      ,   32.757812989118136      ,   2.0904460750560279E-003 ,   33.345741000112639      ,   3.8131200578900384E-003 ,   32.758738388866540      ,   1.1938414411405229E-003 ,   34.134381040870942      ,   2.3647409418488660E-003 ,   32.757618917973211      ,   2.0915942662947354E-003 ,   34.027877354033301      ,   3.9616370315733443E-003
  0.56000000000000016      ,  0.57000000000000017      ,   0.0000000000000000      ,   0.0000000000000000      ,   34.098455878024602      ,   2.1358062824591074E-003 ,   34.771952800879880      ,   5.1998775513011387E-003 ,   34.098773968152820      ,   1.2196953181479670E-003 ,   35.592275092532056      ,   7.5776306253078976E-003 ,   34.098753628053046      ,   2.1370015767029861E-003 ,   35.480431980814863      ,   4.7238190054967764E-003
  0.57000000000000017      ,  0.58000000000000018      ,   0.0000000000000000      ,   0.0000000000000000      ,   35.517812578375676      ,   2.1830105022191851E-003 ,   36.266469794409907      ,   4.2173915624312075E-003 ,   35.523079292713980      ,   1.2467903714453350E-003 ,   37.123450732329523      ,   2.8591016991132531E-003 ,   35.517949757064393      ,   2.1842161584682087E-003 ,   37.007916584061356      ,   4.3878138007757200E-003
  0.58000000000000018      ,  0.59000000000000019      ,   0.0000000000000000      ,   0.0000000000000000      ,   37.033893745515094      ,   2.2326804934018089E-003 ,   37.870377245986731      ,   5.1355402088330386E-003 ,   37.035487590902463      ,   1.2750335328294601E-003 ,   38.762455258876173      ,   2.7278754791347178E-003 ,   37.034268602798171      ,   2.2339302435548788E-003 ,   38.645863814013666      ,   5.3298519590648900E-003
  0.59000000000000019      ,  0.60000000000000020      ,   0.0000000000000000      ,   0.0000000000000000      ,   38.641900743397919      ,   2.2843133761994905E-003 ,   39.560681444282835      ,   4.1690876133353002E-003 ,   38.642415921254994      ,   1.3044770853946920E-003 ,   40.495100341333931      ,   2.6461958633820382E-003 ,   38.642428701045141      ,   2.2855736655801565E-003 ,   40.368282456721971      ,   4.3283681795272021E-003
  0.60000000000000020      ,  0.61000000000000021      ,   0.0000000000000000      ,   0.0000000000000000      ,   40.349214363359138      ,   2.3380956310946120E-003 ,   41.370143498698241      ,   4.3671713605203276E-003 ,   40.351919080195856      ,   1.3352655845204917E-003 ,   42.347907024523330      ,   2.6574171093310690E-003 ,   40.349480087258058      ,   2.3393832395004108E-003 ,   42.216964199485318      ,   4.5533884516593013E-003
  0.61000000000000021      ,  0.62000000000000022      ,   0.0000000000000000      ,   0.0000000000000000      ,   42.173541193639160      ,   2.3944578118591255E-003 ,   43.301641932057493      ,   4.3612926099256630E-003 ,   42.174331381085217      ,   1.3674234543586924E-003 ,   44.324570277568952      ,   2.8608278918004033E-003 ,   42.173452249584997      ,   2.3957603650190127E-003 ,   44.185914035517314      ,   4.5286988978242267E-003
  0.62000000000000022      ,  0.63000000000000023      ,   0.0000000000000000      ,   0.0000000000000000      ,   44.117838850894600      ,   2.4535931288667502E-003 ,   45.359067583464430      ,   4.5859392285013080E-003 ,   44.119112550890321      ,   1.4011549504347844E-003 ,   46.436926978860193      ,   2.7952002461796577E-003 ,   44.117999681432281      ,   2.4549312277295505E-003 ,   46.287950435660996      ,   4.7731541097360466E-003
  0.63000000000000023      ,  0.64000000000000024      ,   0.0000000000000000      ,   0.0000000000000000      ,   46.203588857305746      ,   2.5156161996028269E-003 ,   47.564418901115459      ,   4.4438622367739709E-003 ,   46.200335519252029      ,   1.4365207282011473E-003 ,   48.687938898272321      ,   2.8743078895821657E-003 ,   46.203352422390189      ,   2.5169787040613557E-003 ,   48.536842642983714      ,   4.6157537758914928E-003
  0.64000000000000024      ,  0.65000000000000024      ,   0.0000000000000000      ,   0.0000000000000000      ,   48.436969518839213      ,   2.5808536042005313E-003 ,   49.906790569280723      ,   4.4519027863511767E-003 ,   48.432939522075110      ,   1.4737280473641032E-003 ,   51.090603682993311      ,   2.7352238881237327E-003 ,   48.437282128695450      ,   2.5822774636097296E-003 ,   50.929193346627926      ,   4.6162518583809176E-003
  0.65000000000000024      ,  0.66000000000000025      ,   0.0000000000000000      ,   0.0000000000000000      ,   50.829549370296633      ,   2.6491097332187307E-003 ,   52.440746467306241      ,   4.6764256605701790E-003 ,   50.826946773039872      ,   1.5127615183096550E-003 ,   53.678958827685896      ,   2.9017479855602546E-003 ,   50.829359337040650      ,   2.6505450297084582E-003 ,   53.513839307011665      ,   4.8704832006410542E-003
  0.66000000000000025      ,  0.67000000000000026      ,   0.0000000000000000      ,   0.0000000000000000      ,   53.411261382309647      ,   2.7212707553334104E-003 ,   55.152823299834267      ,   4.7633771197614048E-003 ,   53.412390717104245      ,   1.5540534797980369E-003 ,   56.451197807210988      ,   2.8701299304340431E-003 ,   53.411181349993264      ,   2.7227588331887615E-003 ,   56.280823109970235      ,   4.9332731854230217E-003
  0.67000000000000026      ,  0.68000000000000027      ,   0.0000000000000000      ,   0.0000000000000000      ,   56.200452637637831      ,   2.7974739567089156E-003 ,   58.078292137799508      ,   4.7994167663242167E-003 ,   56.196509018247106      ,   1.5974773010003997E-003 ,   59.449684663599875      ,   2.9737558974519719E-003 ,   56.200932560095751      ,   2.7990208250158110E-003 ,   59.265915263520242      ,   4.9272668923713049E-003
  0.68000000000000027      ,  0.69000000000000028      ,   0.0000000000000000      ,   0.0000000000000000      ,   59.214859667572391      ,   2.8780067238196494E-003 ,   61.247331632598268      ,   5.0829118956227538E-003 ,   59.212326508537572      ,   1.6434824064273158E-003 ,   62.695865328823039      ,   3.1794804888196841E-003 ,   59.215152584861670      ,   2.8795769102538983E-003 ,   62.499364938597211      ,   5.2775481024665716E-003
  0.69000000000000028      ,  0.70000000000000029      ,   0.0000000000000000      ,   0.0000000000000000      ,   62.488046776059178      ,   2.9632590503625746E-003 ,   64.688584771784818      ,   5.2980828957166787E-003 ,   62.488821110782240      ,   1.6922335828658932E-003 ,   66.216679508615229      ,   3.2150026666771386E-003 ,   62.488737725290811      ,   2.9648945289346314E-003 ,   66.009887057371074      ,   5.5062863022278495E-003
  0.70000000000000029      ,  0.71000000000000030      ,   0.0000000000000000      ,   0.0000000000000000      ,   66.061129747409694      ,   3.0540908750290811E-003 ,   68.439348315757641      ,   5.2619167652874924E-003 ,   66.058709440842250      ,   1.7440627664634493E-003 ,   70.049901619354543      ,   3.1175393844218753E-003 ,   66.061114747602787      ,   3.0557705479483475E-003 ,   69.835631108331597      ,   5.4549768434359255E-003
  0.71000000000000030      ,  0.72000000000000031      ,   0.0000000000000000      ,   0.0000000000000000      ,   69.954693503573154      ,   3.1504605497905459E-003 ,   72.538390567793158      ,   5.2637244586513782E-003 ,   69.957269034901387      ,   1.7991489469551866E-003 ,   74.258406126193492      ,   3.2573791527310140E-003 ,   69.955175683684388      ,   3.1522013549974168E-003 ,   74.021717985425241      ,   5.4787872088130516E-003
  0.72000000000000031      ,  0.73000000000000032      ,   0.0000000000000000      ,   0.0000000000000000      ,   74.249785595885228      ,   3.2539217134252710E-003 ,   77.068705159913691      ,   5.6068534435329796E-003 ,   74.246255246188156      ,   1.8581466158899497E-003 ,   78.885288996739519      ,   3.4959423624925353E-003 ,   74.249631345285820      ,   3.2556918146669704E-003 ,   78.645027494285017      ,   5.8240584065417066E-003
  0.73000000000000032      ,  0.74000000000000032      ,   0.0000000000000000      ,   0.0000000000000000      ,   78.976076933226238      ,   3.3644245655012638E-003 ,   82.055097557657234      ,   5.8828762249613815E-003 ,   78.974699458329496      ,   1.9213168346438620E-003 ,   83.992145963246415      ,   3.6529693795012766E-003 ,   78.975738280342625      ,   3.3662489464280389E-003 ,   83.732184166928434      ,   6.1257594166552265E-003
  0.74000000000000032      ,  0.75000000000000033      ,   0.0000000000000000      ,   0.0000000000000000      ,   84.221002641946072      ,   3.4834004005686939E-003 ,   87.618356586408225      ,   5.8200929650826690E-003 ,   84.224641319416122      ,   1.9892921373744457E-003 ,   89.693093694510210      ,   3.8617816487617113E-003 ,   84.220835098258860      ,   3.4852846996136482E-003 ,   89.410333951678794      ,   6.0616003588210869E-003
  0.75000000000000033      ,  0.76000000000000034      ,   0.0000000000000000      ,   0.0000000000000000      ,   90.100016289112958      ,   3.6123684756098739E-003 ,   93.865306967600318      ,   5.9926596690441959E-003 ,   90.098314150770634      ,   2.0629069375087657E-003 ,   96.080274322348430      ,   3.7165785688788758E-003 ,   90.099811699992699      ,   3.6143492787591666E-003 ,   95.782085624747651      ,   6.2223797530371987E-003
  0.76000000000000034      ,  0.77000000000000035      ,   0.0000000000000000      ,   0.0000000000000000      ,   96.720404161880822      ,   3.7527780571262668E-003 ,   100.92917584163968      ,   6.0336826141637497E-003 ,   96.715902566354998      ,   2.1430088715990356E-003 ,   103.31287785461255      ,   3.7331646376671116E-003 ,   96.720611341579342      ,   3.7548336215892150E-003 ,   102.99081896808755      ,   6.2689965183144684E-003
  0.77000000000000035      ,  0.78000000000000036      ,   0.0000000000000000      ,   0.0000000000000000      ,   104.28383946179679      ,   3.9072842198176107E-003 ,   109.05761328042216      ,   6.4706611362602071E-003 ,   104.28108023770108      ,   2.2312784510783445E-003 ,   111.62184426830363      ,   3.8230385232332848E-003 ,   104.28297829816273      ,   3.9094121522436969E-003 ,   111.28411289426909      ,   6.7143776900419521E-003
  0.78000000000000036      ,  0.79000000000000037      ,   0.0000000000000000      ,   0.0000000000000000      ,   113.09313732017004      ,   4.0802854765755389E-003 ,   118.57137665750872      ,   6.6969930080434852E-003 ,   113.09217039611613      ,   2.3300898784976826E-003 ,   121.35835014383383      ,   4.0266547870693318E-003 ,   113.09342165243621      ,   4.0825206968689203E-003 ,   120.99237073347595      ,   6.9598004819337173E-003
  0.79000000000000037      ,  0.80000000000000038      ,   0.0000000000000000      ,   0.0000000000000000      ,   123.85555016240838      ,   4.2832483129276368E-003 ,   130.19966430916853      ,   9.5659213601139315E-003 ,   123.85661113873981      ,   2.4460168910206666E-003 ,   133.26114145258302      ,   4.9120144657598631E-003 ,   123.85572704764228      ,   4.2855890903609316E-003 ,   132.85636727168037      ,   1.0030614898713012E-002
  0.80000000000000038      ,  0.81000000000000039      ,   0.0000000000000000      ,   0.0000000000000000      ,   141.20979547187423      ,   4.5919110457983440E-003 ,   147.39594551429718      ,   7.2134684955081924E-003 ,   141.20760519956090      ,   2.6222504600803514E-003 ,   150.84274231080954      ,   4.3170999724005147E-003 ,   141.21077167195048      ,   4.5944478552424435E-003 ,   150.39433474612585      ,   7.4963708596169744E-003
  0.81000000000000039      ,  0.82000000000000040      ,   0.0000000000000000      ,   0.0000000000000000      ,   166.63824846521365      ,   5.0022731954957565E-003 ,   170.71488188360013      ,   7.9203024054898021E-003 ,   166.64377950128892      ,   2.8566856502364561E-003 ,   174.68316366899617      ,   4.6650976016869494E-003 ,   166.63785499008475      ,   5.0049983942578426E-003 ,   174.17733482226038      ,   8.2183802865893833E-003
  0.82000000000000040      ,  0.83000000000000040      ,   0.0000000000000000      ,   0.0000000000000000      ,   195.54010731965360      ,   5.4205646573001016E-003 ,   196.91556211830493      ,   8.5959315950072095E-003 ,   195.53760290943328      ,   3.0954794281299854E-003 ,   201.48942028636048      ,   5.0091275090519876E-003 ,   195.53978997547392      ,   5.4235288348277004E-003 ,   200.90159706636513      ,   8.9585804998711382E-003
  0.83000000000000040      ,  0.84000000000000041      ,   0.0000000000000000      ,   0.0000000000000000      ,   227.71634412509593      ,   5.8402384751675869E-003 ,   225.99797238886424      ,   8.5227906957638811E-003 ,   227.72230130670692      ,   3.3351885969099999E-003 ,   231.23743680919358      ,   5.2964492576083920E-003 ,   227.71626143360345      ,   5.8434334677959351E-003 ,   230.57167050501195      ,   8.8618162246364048E-003
  0.84000000000000041      ,  0.85000000000000042      ,   0.0000000000000000      ,   0.0000000000000000      ,   263.74461628433897      ,   6.2668092601151403E-003 ,   258.36068366860690      ,   8.9387614163367376E-003 ,   263.73526414981217      ,   3.5786661245047523E-003 ,   264.35119876389592      ,   5.2888136900111592E-003 ,   263.74403051235419      ,   6.2702320357499791E-003 ,   263.58767299493820      ,   9.2874972801434280E-003
  0.85000000000000042      ,  0.86000000000000043      ,   0.0000000000000000      ,   0.0000000000000000      ,   304.46273685341743      ,   6.7073076340516905E-003 ,   294.78094160583044      ,   9.4921134797923482E-003 ,   304.45202395431255      ,   3.8302207379309577E-003 ,   301.62345724232404      ,   6.5658054678071343E-003 ,   304.46247497698431      ,   6.7109773489044044E-003 ,   300.75061532779313      ,   9.7392807872371725E-003
  0.86000000000000043      ,  0.87000000000000044      ,   0.0000000000000000      ,   0.0000000000000000      ,   351.16534987929180      ,   7.1713239421824122E-003 ,   336.30072600212424      ,   9.6617094429062838E-003 ,   351.17026027899669      ,   4.0953031110033808E-003 ,   344.12560493662471      ,   5.8142482357977990E-003 ,   351.16410247408197      ,   7.1752350780004987E-003 ,   343.12656489996630      ,   1.0036794523657038E-002
  0.87000000000000044      ,  0.88000000000000045      ,   0.0000000000000000      ,   0.0000000000000000      ,   405.75267294202877      ,   7.6715597710976706E-003 ,   384.49160258653859      ,   1.0836376128309398E-002 ,   405.75473814862772      ,   4.3809608748906735E-003 ,   393.45527944428477      ,   6.3156724974959598E-003 ,   405.75234292924438      ,   7.6757558941924252E-003 ,   392.31053277295155      ,   1.1229729300364658E-002
  0.88000000000000045      ,  0.89000000000000046      ,   0.0000000000000000      ,   0.0000000000000000      ,   470.92817387738546      ,   8.2238513202918112E-003 ,   441.51534034324806      ,   1.1055703714529408E-002 ,   470.93004007311714      ,   4.6963685911016470E-003 ,   451.81113838669273      ,   6.5862712332703452E-003 ,   470.92746522918924      ,   8.2283433453980183E-003 ,   450.51952805767888      ,   1.1479846687155210E-002
  0.89000000000000046      ,  0.90000000000000047      ,   0.0000000000000000      ,   0.0000000000000000      ,   550.77337326842360      ,   8.8502515208356055E-003 ,   510.57854803932918      ,   1.1544171490177987E-002 ,   550.76188177327617      ,   5.0540074349981895E-003 ,   522.54241058524838      ,   6.9284848773988857E-003 ,   550.77405621905314      ,   8.8551093555361542E-003 ,   521.01395286555260      ,   1.1789993264038526E-002
  0.90000000000000047      ,  0.91000000000000048      ,   0.0000000000000000      ,   0.0000000000000000      ,   651.60632223758239      ,   9.5822485909374411E-003 ,   596.65782648732454      ,   1.2489883316261231E-002 ,   651.61512637810620      ,   5.4721198327596435E-003 ,   610.65498664666598      ,   7.3665622634526201E-003 ,   651.60596680836159      ,   9.5874881716778299E-003 ,   608.87645143667999      ,   1.2989222524706502E-002
  0.91000000000000048      ,  0.92000000000000048      ,   0.0000000000000000      ,   0.0000000000000000      ,   783.83339871587259      ,   1.0468380373204854E-002 ,   707.51882414080990      ,   1.3432596840701009E-002 ,   783.84663770908844      ,   5.9781676496205617E-003 ,   724.14175835871958      ,   7.9334165608090212E-003 ,   783.83263256235500      ,   1.0474099457523164E-002 ,   722.03247576158822      ,   1.3957711753231329E-002
  0.92000000000000048      ,  0.93000000000000049      ,   0.0000000000000000      ,   0.0000000000000000      ,   965.01007299129799      ,   1.1583646559870472E-002 ,   855.92714253680379      ,   1.4405733917429223E-002 ,   965.00290300895836      ,   6.6149685310157901E-003 ,   876.02323898715463      ,   8.5872248079988094E-003 ,   965.01125139733949      ,   1.1589989313557902E-002 ,   873.49032855465725      ,   1.4980183196676551E-002
  0.93000000000000049      ,  0.94000000000000050      ,   0.0000000000000000      ,   0.0000000000000000      ,   1225.3602756222058      ,   1.3042207903403283E-002 ,   1062.0584274445432      ,   1.5639241425751439E-002 ,   1225.3844112075603      ,   7.4480207305901887E-003 ,   1087.0009360722445      ,   9.4393154976276285E-003 ,   1225.3634473103891      ,   1.3049360500006532E-002 ,   1083.8216703094292      ,   1.6248616507261272E-002
  0.94000000000000050      ,  0.95000000000000051      ,   0.0000000000000000      ,   0.0000000000000000      ,   1561.4425257279102      ,   1.4702361241783488E-002 ,   1319.5422881173645      ,   1.7250395988647551E-002 ,   1561.4329494227302      ,   8.3959668269867876E-003 ,   1350.5132934404219      ,   1.0424302741535850E-002 ,   1561.4420106649443      ,   1.4710396231747856E-002 ,   1346.5555193583868      ,   1.7917215000954029E-002
  0.95000000000000051      ,  0.96000000000000052      ,   0.0000000000000000      ,   0.0000000000000000      ,   1962.0381056878120      ,   1.6401152469840710E-002 ,   1625.6631852830094      ,   1.8913173144131420E-002 ,   1962.0291959417118      ,   9.3660850252933765E-003 ,   1663.9198208859705      ,   1.1338332265899476E-002 ,   1962.0370013603658      ,   1.6410112021341263E-002 ,   1659.0147736245360      ,   1.9654504021779557E-002
  0.96000000000000052      ,  0.97000000000000053      ,   0.0000000000000000      ,   0.0000000000000000      ,   2585.9471049882391      ,   1.8739297125930129E-002 ,   2093.0030720047198      ,   2.1264716682020599E-002 ,   2585.9678804859795      ,   1.0701401838470044E-002 ,   2142.4688003597330      ,   1.2815486903714743E-002 ,   2585.9490109537242      ,   1.8749557998297129E-002 ,   2136.0161728797375      ,   2.2097633953701776E-002
  0.97000000000000053      ,  0.98000000000000054      ,   0.0000000000000000      ,   0.0000000000000000      ,   3729.4677338387901      ,   2.2399847642913102E-002 ,   2926.2446311689682      ,   2.4940578699429082E-002 ,   3729.4945006437447      ,   1.2791798147312908E-002 ,   2995.6775485599119      ,   1.4906895241080792E-002 ,   3729.4632096704868      ,   2.2412088506493559E-002 ,   2986.5054322652954      ,   2.5906663349962458E-002
  0.98000000000000054      ,  0.99000000000000055      ,   0.0000000000000000      ,   0.0000000000000000      ,   6552.5277314679242      ,   2.9517174968473333E-002 ,   4880.7009090073989      ,   3.1103646909891182E-002 ,   6552.5566189635556      ,   1.6856226442453544E-002 ,   4996.9070355732138      ,   1.8622091276701801E-002 ,   6552.5294549032733      ,   2.9533314414213387E-002 ,   4981.4003112414503      ,   3.2296237259959663E-002
  0.99000000000000055      ,   1.0000000000000004      ,   99053.131083069151      ,   2.8162386053944641E-006 ,   66788.381404242187      ,  0.13784280521491929      ,   70985.317360166388      ,   9.3314397312628861E-002 ,   69115.801730367850      ,   7.6362861338526419E-002 ,   72684.203943332235      ,   5.5948727544139792E-002 ,   68803.256819822433      ,  0.13429962813012900      ,   72449.687569631162      ,   9.6923697215150775E-002
