 # xl, xh, LO, dLO, NLOnovp, dNLOnovp, NLOPSnovp, dNLOPSnovp
 -0.64000000000000368      , -0.62000000000000388      ,   0.0000000000000000      ,   0.0000000000000000      ,  0.58495920230125231      ,   3.9063186334565523E-004 ,  0.52042618827592979      ,   8.8009727115701691E-004
 -0.62000000000000388      , -0.60000000000000409      ,   0.0000000000000000      ,   0.0000000000000000      ,   2.1076857194904393      ,   7.6269890044990346E-004 ,   1.8709377262095759      ,   1.7133012136892672E-003
 -0.60000000000000409      , -0.58000000000000429      ,   0.0000000000000000      ,   0.0000000000000000      ,   4.7941794718438011      ,   1.1950625198196702E-003 ,   4.2159250154170724      ,   2.6651324069039664E-003
 -0.58000000000000429      , -0.56000000000000449      ,   0.0000000000000000      ,   0.0000000000000000      ,   10.329807136534015      ,   1.8456230963554065E-003 ,   8.9318860811045013      ,   4.0634837051434260E-003
 -0.56000000000000449      , -0.54000000000000470      ,   6.8747579718389478      ,   2.9221688248042997E-004 ,   35.180111833967686      ,   3.7181551379707784E-003 ,   29.874600612596240      ,   7.7527971760220585E-003
 -0.54000000000000470      , -0.52000000000000490      ,   461.83347991827918      ,   2.3923935638210333E-003 ,   378.96309645029612      ,   1.2730416968455480E-002 ,   387.27006219602606      ,   2.5372854919322299E-002
 -0.52000000000000490      , -0.50000000000000511      ,   475.19588314442944      ,   2.4266701221404589E-003 ,   409.14140583385176      ,   1.3223389597062714E-002 ,   413.63292970518762      ,   2.6400002246452843E-002
 -0.50000000000000511      , -0.48000000000000531      ,   488.03454175855933      ,   2.4591487297698734E-003 ,   425.57884473481204      ,   1.3478621357310629E-002 ,   429.36278143468371      ,   2.6937086582595863E-002
 -0.48000000000000531      , -0.46000000000000552      ,   500.37949524587208      ,   2.4899750990672849E-003 ,   439.13145339733990      ,   1.3687756044780834E-002 ,   442.69890586037974      ,   2.7379707253681052E-002
 -0.46000000000000552      , -0.44000000000000572      ,   512.19228876246348      ,   2.5191153788863053E-003 ,   451.37218810191894      ,   1.3875913118248970E-002 ,   454.77171650244213      ,   2.7773619223200034E-002
 -0.44000000000000572      , -0.42000000000000592      ,   523.49275468554765      ,   2.5466765151166484E-003 ,   462.56613406161279      ,   1.4048045479218889E-002 ,   465.96648307930832      ,   2.8128168996170336E-002
 -0.42000000000000592      , -0.40000000000000613      ,   534.28674999857958      ,   2.5727233342171681E-003 ,   472.77569700803338      ,   1.4207462300781640E-002 ,   476.17285896279395      ,   2.8457018251861865E-002
 -0.40000000000000613      , -0.38000000000000633      ,   544.55742610158177      ,   2.5972624597659835E-003 ,   482.45262493336054      ,   1.4357587295726223E-002 ,   485.83981355874300      ,   2.8765064951944717E-002
 -0.38000000000000633      , -0.36000000000000654      ,   554.32456423100439      ,   2.6203826191037796E-003 ,   491.69166593325741      ,   1.4500211632153879E-002 ,   495.06224251170579      ,   2.9055690260022353E-002
 -0.36000000000000654      , -0.34000000000000674      ,   563.57336143912130      ,   2.6420874134541685E-003 ,   500.43304052771373      ,   1.4634086985992386E-002 ,   503.76178533242660      ,   2.9330840168929020E-002
 -0.34000000000000674      , -0.32000000000000695      ,   572.30630670121263      ,   2.6624170605021981E-003 ,   508.79772397253720      ,   1.4761866700757591E-002 ,   512.16902753275770      ,   2.9599607197773319E-002
 -0.32000000000000695      , -0.30000000000000715      ,   580.52759703025845      ,   2.6814132021075127E-003 ,   516.64590939403229      ,   1.4881229351303208E-002 ,   519.96571595667285      ,   2.9843508788434774E-002
 -0.30000000000000715      , -0.28000000000000735      ,   588.23230981140455      ,   2.6990926905871675E-003 ,   524.10521588503525      ,   1.4994246447180783E-002 ,   527.41196949307960      ,   3.0078613708500821E-002
 -0.28000000000000735      , -0.26000000000000756      ,   595.42969299880156      ,   2.7155025991647931E-003 ,   531.08683075081706      ,   1.5100021187744639E-002 ,   534.34150782996619      ,   3.0299656607559865E-002
 -0.26000000000000756      , -0.24000000000000776      ,   602.10551922104582      ,   2.7306344526156065E-003 ,   537.65082979189401      ,   1.5199412775344819E-002 ,   540.91161018725870      ,   3.0508192171352796E-002
 -0.24000000000000776      , -0.22000000000000797      ,   608.27565951291263      ,   2.7445449186480810E-003 ,   543.71904303212091      ,   1.5291416934989097E-002 ,   547.00293216914179      ,   3.0703610508487314E-002
 -0.22000000000000797      , -0.20000000000000817      ,   613.92543510791938      ,   2.7572196669669903E-003 ,   549.39096217642646      ,   1.5377777453153687E-002 ,   552.61666430003447      ,   3.0887214091589718E-002
 -0.20000000000000817      , -0.18000000000000838      ,   619.06538040817099      ,   2.7686998514035673E-003 ,   554.55794697965825      ,   1.5456548835394327E-002 ,   557.80562382505013      ,   3.1052509223933072E-002
 -0.18000000000000838      , -0.16000000000000858      ,   623.68963410382958      ,   2.7789868975209653E-003 ,   559.30806735476813      ,   1.5529563343414265E-002 ,   562.45319494948694      ,   3.1204179406777652E-002
 -0.16000000000000858      , -0.14000000000000878      ,   627.80148311731637      ,   2.7881017240952693E-003 ,   563.56368378875482      ,   1.5595609206150040E-002 ,   566.65959357645511      ,   3.1346334108916407E-002
 -0.14000000000000878      , -0.12000000000000899      ,   631.39506745009794      ,   2.7960432987501243E-003 ,   567.41378248203159      ,   1.5656122434724661E-002 ,   570.51278917310742      ,   3.1478634402710370E-002
 -0.12000000000000899      , -0.10000000000000919      ,   634.48405276270341      ,   2.8028511879934753E-003 ,   570.77280535491116      ,   1.5709949321378473E-002 ,   573.81040354338938      ,   3.1597087845418689E-002
 -0.10000000000000919      ,  -8.0000000000009397E-002 ,   637.05223866150061      ,   2.8084990480496106E-003 ,   573.69889694638050      ,   1.5757921954261490E-002 ,   576.64949212165914      ,   3.1695024770440478E-002
  -8.0000000000009397E-002 ,  -6.0000000000009601E-002 ,   639.10052239296033      ,   2.8129950448433612E-003 ,   576.15500258009308      ,   1.5799395403742804E-002 ,   579.03130092253048      ,   3.1786461886336548E-002
  -6.0000000000009601E-002 ,  -4.0000000000009805E-002 ,   640.64571910389373      ,   2.8163818702134193E-003 ,   578.14397969915444      ,   1.5834672052042635E-002 ,   581.04423591662328      ,   3.1932328494467144E-002
  -4.0000000000009805E-002 ,  -2.0000000000010010E-002 ,   641.67717855683622      ,   2.8186403184507465E-003 ,   579.66995426993367      ,   1.5863725334846302E-002 ,   582.49764182476258      ,   3.1940528082933670E-002
  -2.0000000000010010E-002 ,  -1.0214051826551440E-014 ,   642.18597650773324      ,   2.8197537412091148E-003 ,   580.73964127922170      ,   1.5886772831005151E-002 ,   583.58221981812653      ,   3.2000093164223316E-002
  -1.0214051826551440E-014 ,   1.9999999999989582E-002 ,   642.19143213559369      ,   2.8197657011875691E-003 ,   581.35372459364658      ,   1.5903828949805118E-002 ,   584.05283140068889      ,   3.2043973949255580E-002
   1.9999999999989582E-002 ,   3.9999999999989377E-002 ,   641.67425138676936      ,   2.8186341490537893E-003 ,   581.52519001684709      ,   1.5915073237730025E-002 ,   584.17552119531115      ,   3.2085621640195572E-002
   3.9999999999989377E-002 ,   5.9999999999989173E-002 ,   640.64349719013330      ,   2.8163770290525734E-003 ,   581.21163392689391      ,   1.5919897519663096E-002 ,   583.76184025775706      ,   3.2092627190060119E-002
   5.9999999999989173E-002 ,   7.9999999999988969E-002 ,   639.10895039039406      ,   2.8130135493634558E-003 ,   580.44417796424693      ,   1.5918823269621914E-002 ,   582.98890712737875      ,   3.2341123333040608E-002
   7.9999999999988969E-002 ,   9.9999999999988765E-002 ,   637.04862922825521      ,   2.8084910175379353E-003 ,   579.16422705174602      ,   1.5910851360748889E-002 ,   581.70354477928777      ,   3.2104040220579215E-002
   9.9999999999988765E-002 ,  0.11999999999998856      ,   634.48008377573478      ,   2.8028426464684827E-003 ,   577.46844359352531      ,   1.5897164411797352E-002 ,   579.87837979134929      ,   3.2079976283351019E-002
  0.11999999999998856      ,  0.13999999999998836      ,   631.39169758615526      ,   2.7960360575991156E-003 ,   575.29128629365778      ,   1.5877311891697759E-002 ,   577.70016576175703      ,   3.2060099239506201E-002
  0.13999999999998836      ,  0.15999999999998815      ,   627.80098259478382      ,   2.7881008971141381E-003 ,   572.66666702836437      ,   1.5851543094995188E-002 ,   574.90422392646326      ,   3.2025229178588945E-002
  0.15999999999998815      ,  0.17999999999998795      ,   623.68699074203050      ,   2.7789808702598628E-003 ,   569.54119879365521      ,   1.5818781571637339E-002 ,   571.72434622721130      ,   3.1966106112883620E-002
  0.17999999999998795      ,  0.19999999999998774      ,   619.06456663771041      ,   2.7686979636660520E-003 ,   565.96611477612487      ,   1.5780010097805802E-002 ,   568.07130526639355      ,   3.1919499806008791E-002
  0.19999999999998774      ,  0.21999999999998754      ,   613.92777314262287      ,   2.7572248081476356E-003 ,   561.90018970054507      ,   1.5734360460158164E-002 ,   564.02446183417351      ,   3.1821592508117058E-002
  0.21999999999998754      ,  0.23999999999998733      ,   608.27346301502689      ,   2.7445399415901542E-003 ,   557.37042865173521      ,   1.5682038956565690E-002 ,   559.30997998376051      ,   3.1725025975104564E-002
  0.23999999999998733      ,  0.25999999999998713      ,   602.11105352245340      ,   2.7306470315298856E-003 ,   552.34987497961345      ,   1.5623068914430924E-002 ,   554.22337594343787      ,   3.1618112557978209E-002
  0.25999999999998713      ,  0.27999999999998693      ,   595.42826844086517      ,   2.7154994344244137E-003 ,   546.86289066798531      ,   1.5557173075384480E-002 ,   548.72145586294585      ,   3.1508958440682605E-002
  0.27999999999998693      ,  0.29999999999998672      ,   588.23705498479762      ,   2.6991036166590121E-003 ,   540.92190968076432      ,   1.5484705678483243E-002 ,   542.69211348391900      ,   3.1367379460754102E-002
  0.29999999999998672      ,  0.31999999999998652      ,   580.52880588940900      ,   2.6814157721878375E-003 ,   534.47423298386275      ,   1.5404940297575949E-002 ,   536.11085837031408      ,   3.1232200852187284E-002
  0.31999999999998652      ,  0.33999999999998631      ,   572.30773721970672      ,   2.6624203565347366E-003 ,   527.57998431246119      ,   1.5318236331356632E-002 ,   529.12111517390576      ,   3.1062821090126105E-002
  0.33999999999998631      ,  0.35999999999998611      ,   563.57251783720335      ,   2.6420855556484697E-003 ,   520.16332894638344      ,   1.5223480733598750E-002 ,   521.70267650031678      ,   3.0898072939725702E-002
  0.35999999999998611      ,  0.37999999999998590      ,   554.32669620793342      ,   2.6203876919170671E-003 ,   512.26487985331732      ,   1.5121131574435927E-002 ,   513.74856195595441      ,   3.0701144058336682E-002
  0.37999999999998590      ,  0.39999999999998570      ,   544.56194010679030      ,   2.5972732849411173E-003 ,   503.88986721557495      ,   1.5010823887612341E-002 ,   505.30097621794744      ,   3.0490811854927836E-002
  0.39999999999998570      ,  0.41999999999998550      ,   534.28483243272376      ,   2.5727188312748704E-003 ,   495.03670755758918      ,   1.4892873800613552E-002 ,   496.30839326307552      ,   3.0263992737007268E-002
  0.41999999999998550      ,  0.43999999999998529      ,   523.49536686157353      ,   2.5466827710203394E-003 ,   485.64122938256344      ,   1.4765622850524088E-002 ,   486.85452814930210      ,   3.0026585671718863E-002
  0.43999999999998529      ,  0.45999999999998509      ,   512.18952197059264      ,   2.5191083649736537E-003 ,   475.27198172560117      ,   1.4625262356386219E-002 ,   476.41036161506031      ,   2.9752268839359261E-002
  0.45999999999998509      ,  0.47999999999998488      ,   500.37520857084706      ,   2.4899641725163874E-003 ,   463.97404347184192      ,   1.4469699405163983E-002 ,   465.17113782931051      ,   2.9450061181974189E-002
  0.47999999999998488      ,  0.49999999999998468      ,   488.04500063779551      ,   2.4591752590026311E-003 ,   451.47446897496195      ,   1.4294387770979487E-002 ,   452.64026790800682      ,   2.9096469410677242E-002
  0.49999999999998468      ,  0.51999999999998447      ,   475.19500243757875      ,   2.4266679134567534E-003 ,   436.61506105861633      ,   1.4077068115387739E-002 ,   438.03060731899131      ,   2.8629997987021816E-002
  0.51999999999998447      ,  0.53999999999998427      ,   461.83967287961866      ,   2.3924093953281676E-003 ,   411.14902529005042      ,   1.3649045129526333E-002 ,   414.48068574935843      ,   2.7655978076099992E-002
  0.53999999999998427      ,  0.55999999999998407      ,   6.8762314040458659      ,   2.9224813854873721E-004 ,   29.392375054602155      ,   3.6733529639726452E-003 ,   26.610014967454248      ,   8.2422003649238740E-003
  0.55999999999998407      ,  0.57999999999998386      ,   0.0000000000000000      ,   0.0000000000000000      ,   8.2901697716410840      ,   1.7776447569132607E-003 ,   7.6134882393869159      ,   4.2732708005308352E-003
  0.57999999999998386      ,  0.59999999999998366      ,   0.0000000000000000      ,   0.0000000000000000      ,   3.8776253800820601      ,   1.1487833585194385E-003 ,   3.6085789198757441      ,   2.8158931897716956E-003
  0.59999999999998366      ,  0.61999999999998345      ,   0.0000000000000000      ,   0.0000000000000000      ,   1.7108239943570143      ,   7.3311032668145547E-004 ,   1.6054276232943174      ,   1.8037645872357121E-003
  0.61999999999998345      ,  0.63999999999998325      ,   0.0000000000000000      ,   0.0000000000000000      ,  0.47393374157765433      ,   3.7525943905661070E-004 ,  0.45070546700237429      ,   1.8289088756754043E-003
